(transform N7datalog13mk_coi_filterE...no-op 0s)
(transform N7datalog25mk_interp_tail_simplifierE...12 rules 0s)
(transform N7datalog27mk_quantifier_instantiationE...no-op 0s)
(transform N7datalog8mk_scaleE...no-op 0s)
(transform N7datalog18mk_karr_invariantsE...no-op 0s)
(transform N7datalog14mk_array_blastE...no-op 0s)
(transform N7datalog22mk_subsumption_checkerE...11 rules 0s)
(transform N7datalog12mk_bit_blastE...no-op 0s)
(transform N7datalog15mk_rule_inlinerE...3 rules 0.00182869s)
(transform N7datalog13mk_coi_filterE...no-op 0s)
(transform N7datalog25mk_interp_tail_simplifierE...3 rules 0s)
(transform N7datalog22mk_subsumption_checkerE...no-op 0s)
(transform N7datalog15mk_rule_inlinerE...no-op 0s)
(transform N7datalog13mk_coi_filterE...no-op 0s)
(transform N7datalog25mk_interp_tail_simplifierE...3 rules 0s)
(transform N7datalog22mk_subsumption_checkerE...no-op 0s)
(transform N7datalog15mk_rule_inlinerE...no-op 0s)
(transform N7datalog22mk_subsumption_checkerE...no-op 0s)
(transform N7datalog15mk_rule_inlinerE...no-op 0s)
(transform N7datalog22mk_subsumption_checkerE...no-op 0s)
(transform N7datalog15mk_rule_inlinerE...no-op 0s)
(transform N7datalog22mk_subsumption_checkerE...no-op 0s)
(transform N7datalog8mk_sliceE...no-op 0s)
expand: query!0 (0, 0) FAR  w(0) 1. F 0.00
(spacer::context::check_reachability :time 0.00 :before-memory 4.34 :after-memory 4.73)
Entering level 1
BRUNCH_STAT max_query_lvl 0
BRUNCH_STAT num_queries 0
BRUNCH_STAT num_reach_queries 0
BRUNCH_STAT num_reach_reuse 0
BRUNCH_STAT inductive_lvl 0
BRUNCH_STAT max_depth 1
BRUNCH_STAT cex_depth 0
expand: query!0 (1, 0) FAR  w(0) 1.
	create_child: MAIN (0, 1) FAR 1420 U 0.00
expand: MAIN (0, 0) FAR  w(0) 1420. F 0.00
expand: query!0 (1, 0) FAR  w(0) 1. F 0.00
(spacer::context::check_reachability :time 0.00 :before-memory 4.73 :after-memory 5.36)
Propagating: 0 1  ! 2 
(spacer::context::propagate :time 0.00 :before-memory 5.36 :after-memory 5.36)
Entering level 2
BRUNCH_STAT max_query_lvl 1
BRUNCH_STAT num_queries 1
BRUNCH_STAT num_reach_queries 0
BRUNCH_STAT num_reach_reuse 0
BRUNCH_STAT inductive_lvl 0
BRUNCH_STAT max_depth 2
BRUNCH_STAT cex_depth 0
expand: query!0 (2, 0) FAR  w(0) 1.
	create_child: MAIN (1, 2) FAR 1420 U 0.00
expand: MAIN (1, 0) FAR  w(0) 1420.
	create_child: MAIN (0, 2) FAR 2627 U 0.00
expand: MAIN (0, 0) FAR  w(0) 2627. F 0.00
expand: MAIN (1, 0) FAR  w(0) 1420.
	create_child: MAIN (0, 2) FAR 2735 U 0.00
expand: MAIN (0, 0) FAR  w(0) 2735. F 0.00
expand: MAIN (1, 0) FAR  w(0) 1420.
	create_child: MAIN (0, 2) FAR 2773 U 0.00
expand: MAIN (0, 0) FAR  w(0) 2773. F 0.00
expand: MAIN (1, 0) FAR  w(0) 1420. F 0.00
expand: query!0 (2, 0) FAR  w(0) 1. F 0.00
(spacer::context::check_reachability :time 0.01 :before-memory 5.36 :after-memory 5.61)
Propagating: 0 1 2  ! 3 
(spacer::context::propagate :time 0.00 :before-memory 5.61 :after-memory 5.61)
Entering level 3
BRUNCH_STAT max_query_lvl 2
BRUNCH_STAT num_queries 5
BRUNCH_STAT num_reach_queries 0
BRUNCH_STAT num_reach_reuse 0
BRUNCH_STAT inductive_lvl 0
BRUNCH_STAT max_depth 3
BRUNCH_STAT cex_depth 0
expand: query!0 (3, 0) FAR  w(0) 1.
	create_child: MAIN (2, 3) FAR 1420 U 0.00
expand: MAIN (2, 0) FAR  w(0) 1420.
	create_child: MAIN (1, 3) FAR 2789 U 0.00
expand: MAIN (1, 0) FAR  w(0) 2789. F 0.00
expand: MAIN (2, 0) FAR  w(0) 1420.
	create_child: MAIN (1, 3) FAR 3359 U 0.00
expand: MAIN (1, 0) FAR  w(0) 3359. F 0.00
expand: MAIN (2, 0) FAR  w(0) 1420. F 0.00
expand: query!0 (3, 0) FAR  w(0) 1. F 0.00
(spacer::context::check_reachability :time 0.00 :before-memory 5.61 :after-memory 5.61)
Propagating: 1 2 3  ! 4 
(spacer::context::propagate :time 0.00 :before-memory 5.61 :after-memory 5.61)
Entering level 4
BRUNCH_STAT max_query_lvl 3
BRUNCH_STAT num_queries 8
BRUNCH_STAT num_reach_queries 0
BRUNCH_STAT num_reach_reuse 0
BRUNCH_STAT inductive_lvl 0
BRUNCH_STAT max_depth 4
BRUNCH_STAT cex_depth 0
expand: query!0 (4, 0) FAR  w(0) 1.
	create_child: MAIN (3, 4) FAR 1420 U 0.00
expand: MAIN (3, 0) FAR  w(0) 1420.
	create_child: MAIN (2, 4) FAR 3655 U 0.00
expand: MAIN (2, 0) FAR  w(0) 3655. F 0.00
expand: MAIN (3, 0) FAR  w(0) 1420.
	create_child: MAIN (2, 4) FAR 3965 U 0.00
expand: MAIN (2, 0) FAR  w(0) 3965. F 0.00
expand: MAIN (3, 0) FAR  w(0) 1420.
	create_child: MAIN (2, 4) FAR 3359 U 0.00
expand: MAIN (2, 0) FAR  w(0) 3359. F 0.00
expand: MAIN (3, 0) FAR  w(0) 1420. F 0.00
expand: query!0 (4, 0) FAR  w(0) 1. F 0.00
(spacer::context::check_reachability :time 0.01 :before-memory 5.61 :after-memory 5.70)
Propagating: 2 
(spacer::context::propagate :time 0.00 :before-memory 5.70 :after-memory 5.70)
(define-fun MAIN ((x!0 Bool)
 (x!1 Bool)
 (x!2 Int)
 (x!3 Int)
 (x!4 Int)
 (x!5 Bool)
 (x!6 Bool)
 (x!7 Bool)) Bool
  (and (or (not (>= x!4 10)) (not x!5))
       x!7
       (= x!3 0)
       (not x!1)
       (>= x!4 0)
       (not (>= x!4 11))
       (or (not (>= x!2 4)) (not x!5))))
BRUNCH_STAT max_query_lvl 4
BRUNCH_STAT num_queries 12
BRUNCH_STAT num_reach_queries 0
BRUNCH_STAT num_reach_reuse 0
BRUNCH_STAT inductive_lvl 2
BRUNCH_STAT max_depth 4
BRUNCH_STAT cex_depth 0
(:SPACER-inductive-level               2
 :SPACER-max-depth                     4
 :SPACER-max-query-lvl                 4
 :SPACER-num-invariants                8
 :SPACER-num-lemmas                    17
 :SPACER-num-properties                10
 :SPACER-num-queries                   12
 :added-eqs                            322
 :arith-assert-diseq                   147
 :arith-assert-lower                   311
 :arith-assert-upper                   362
 :arith-bound-prop                     34
 :arith-conflicts                      2
 :arith-eq-adapter                     85
 :arith-fixed-eqs                      27
 :arith-offset-eqs                     20
 :arith-pivots                         30
 :bool-inductive-gen                   12
 :bool-inductive-gen-failures          14
 :conflicts                            61
 :decisions                            450
 :del-clause                           57
 :final-checks                         24
 :minimized-lits                       3
 :mk-bool-var                          380
 :mk-clause                            577
 :num-checks                           72
 :propagations                         5211
 :time.itp_solver.itp_core             0.00
 :time.spacer.init_rules               0.00
 :time.spacer.init_rules.pt.init       0.00
 :time.spacer.solve                    0.02
 :time.spacer.solve.propagate          0.00
 :time.spacer.solve.reach              0.02
 :time.spacer.solve.reach.children     0.00
 :time.spacer.solve.reach.gen.bool_ind 0.00
 :time.virtual_solver.proof            0.00
 :time.virtual_solver.smt.total        0.02
 :time.virtual_solver.smt.total.sat    0.01
 :virtual_solver.checks                72
 :virtual_solver.checks.sat            24)
BRUNCH_STAT max_query_lvl 4
BRUNCH_STAT num_queries 12
BRUNCH_STAT num_reach_queries 0
BRUNCH_STAT num_reach_reuse 0
BRUNCH_STAT inductive_lvl 2
BRUNCH_STAT max_depth 4
BRUNCH_STAT cex_depth 0

real	0m0.047s
user	0m0.036s
sys	0m0.008s
