(transform N7datalog13mk_coi_filterE...no-op 0s)
(transform N7datalog25mk_interp_tail_simplifierE...12 rules 0s)
(transform N7datalog27mk_quantifier_instantiationE...no-op 0s)
(transform N7datalog8mk_scaleE...no-op 0s)
(transform N7datalog18mk_karr_invariantsE...no-op 0s)
(transform N7datalog14mk_array_blastE...no-op 0s)
(transform N7datalog22mk_subsumption_checkerE...11 rules 0s)
(transform N7datalog12mk_bit_blastE...no-op 0s)
(transform N7datalog15mk_rule_inlinerE...3 rules 0.00148689s)
(transform N7datalog13mk_coi_filterE...no-op 0s)
(transform N7datalog25mk_interp_tail_simplifierE...3 rules 0s)
(transform N7datalog22mk_subsumption_checkerE...no-op 0s)
(transform N7datalog15mk_rule_inlinerE...no-op 0s)
(transform N7datalog13mk_coi_filterE...no-op 0s)
(transform N7datalog25mk_interp_tail_simplifierE...3 rules 0s)
(transform N7datalog22mk_subsumption_checkerE...no-op 0s)
(transform N7datalog15mk_rule_inlinerE...no-op 0s)
(transform N7datalog22mk_subsumption_checkerE...no-op 0s)
(transform N7datalog15mk_rule_inlinerE...no-op 0s)
(transform N7datalog22mk_subsumption_checkerE...no-op 0s)
(transform N7datalog15mk_rule_inlinerE...no-op 0s)
(transform N7datalog22mk_subsumption_checkerE...no-op 0s)
(transform N7datalog8mk_sliceE...no-op 0s)
expand: query!0 (0, 0) FAR  w(0) 1. F 0.00
(spacer::context::check_reachability :time 0.00 :before-memory 4.19 :after-memory 4.80)
Entering level 1
BRUNCH_STAT max_query_lvl 0
BRUNCH_STAT num_queries 0
BRUNCH_STAT num_reach_queries 0
BRUNCH_STAT num_reach_reuse 0
BRUNCH_STAT inductive_lvl 0
BRUNCH_STAT max_depth 1
BRUNCH_STAT cex_depth 0
expand: query!0 (1, 0) FAR  w(0) 1.
	create_child: MAIN (0, 1) FAR 1255 U 0.00
expand: MAIN (0, 0) FAR  w(0) 1255. F 0.00
expand: query!0 (1, 0) FAR  w(0) 1. F 0.00
(spacer::context::check_reachability :time 0.00 :before-memory 4.80 :after-memory 5.32)
Propagating: 0 1  ! 2 
(spacer::context::propagate :time 0.00 :before-memory 5.32 :after-memory 5.32)
Entering level 2
BRUNCH_STAT max_query_lvl 1
BRUNCH_STAT num_queries 1
BRUNCH_STAT num_reach_queries 0
BRUNCH_STAT num_reach_reuse 0
BRUNCH_STAT inductive_lvl 0
BRUNCH_STAT max_depth 2
BRUNCH_STAT cex_depth 0
expand: query!0 (2, 0) FAR  w(0) 1.
	create_child: MAIN (1, 2) FAR 1255 U 0.00
expand: MAIN (1, 0) FAR  w(0) 1255.
	create_child: MAIN (0, 2) FAR 2159 U 0.00
expand: MAIN (0, 0) FAR  w(0) 2159. F 0.00
expand: MAIN (1, 0) FAR  w(0) 1255.
	create_child: MAIN (0, 2) FAR 2217 U 0.00
expand: MAIN (0, 0) FAR  w(0) 2217. F 0.00
expand: MAIN (1, 0) FAR  w(0) 1255. F 0.00
expand: query!0 (2, 0) FAR  w(0) 1. F 0.00
(spacer::context::check_reachability :time 0.00 :before-memory 5.32 :after-memory 5.41)
Propagating: 0 1 2  ! 3 
(spacer::context::propagate :time 0.00 :before-memory 5.41 :after-memory 5.41)
Entering level 3
BRUNCH_STAT max_query_lvl 2
BRUNCH_STAT num_queries 4
BRUNCH_STAT num_reach_queries 0
BRUNCH_STAT num_reach_reuse 0
BRUNCH_STAT inductive_lvl 0
BRUNCH_STAT max_depth 3
BRUNCH_STAT cex_depth 0
expand: query!0 (3, 0) FAR  w(0) 1.
	create_child: MAIN (2, 3) FAR 1255 U 0.00
expand: MAIN (2, 0) FAR  w(0) 1255.
	create_child: MAIN (1, 3) FAR 2217 U 0.00
expand: MAIN (1, 0) FAR  w(0) 2217.
	create_child: MAIN (0, 3) FAR 2585 U 0.00
expand: MAIN (0, 0) FAR  w(0) 2585. F 0.00
expand: MAIN (1, 0) FAR  w(0) 2217. F 0.00
expand: MAIN (2, 0) FAR  w(0) 1255. F 0.00
expand: query!0 (3, 0) FAR  w(0) 1. F 0.00
(spacer::context::check_reachability :time 0.00 :before-memory 5.41 :after-memory 5.62)
Propagating: 0 1 2 3  ! 4 
(spacer::context::propagate :time 0.00 :before-memory 5.62 :after-memory 5.62)
Entering level 4
BRUNCH_STAT max_query_lvl 3
BRUNCH_STAT num_queries 7
BRUNCH_STAT num_reach_queries 0
BRUNCH_STAT num_reach_reuse 0
BRUNCH_STAT inductive_lvl 0
BRUNCH_STAT max_depth 4
BRUNCH_STAT cex_depth 0
expand: query!0 (4, 0) FAR  w(0) 1.
	create_child: MAIN (3, 4) FAR 1255 U 0.00
expand: MAIN (3, 0) FAR  w(0) 1255.
	create_child: MAIN (2, 4) FAR 2217 U 0.00
expand: MAIN (2, 0) FAR  w(0) 2217.
	create_child: MAIN (1, 4) FAR 2585 U 0.00
expand: MAIN (1, 0) FAR  w(0) 2585.
	create_child: MAIN (0, 4) FAR 2875 U 0.00
expand: MAIN (0, 0) FAR  w(0) 2875. F 0.00
expand: MAIN (1, 0) FAR  w(0) 2585. F 0.00
expand: MAIN (2, 0) FAR  w(0) 2217. F 0.00
expand: MAIN (3, 0) FAR  w(0) 1255. F 0.00
expand: query!0 (4, 0) FAR  w(0) 1. F 0.00
(spacer::context::check_reachability :time 0.01 :before-memory 5.62 :after-memory 5.62)
Propagating: 0 1 2 3 4  ! 5 
(spacer::context::propagate :time 0.00 :before-memory 5.62 :after-memory 5.62)
Entering level 5
BRUNCH_STAT max_query_lvl 4
BRUNCH_STAT num_queries 11
BRUNCH_STAT num_reach_queries 0
BRUNCH_STAT num_reach_reuse 0
BRUNCH_STAT inductive_lvl 0
BRUNCH_STAT max_depth 5
BRUNCH_STAT cex_depth 0
expand: query!0 (5, 0) FAR  w(0) 1.
	create_child: MAIN (4, 5) FAR 1255 U 0.00
expand: MAIN (4, 0) FAR  w(0) 1255.
	create_child: MAIN (3, 5) FAR 2217 U 0.00
expand: MAIN (3, 0) FAR  w(0) 2217.
	create_child: MAIN (2, 5) FAR 2585 U 0.00
expand: MAIN (2, 0) FAR  w(0) 2585.
	create_child: MAIN (1, 5) FAR 2875 U 0.00
expand: MAIN (1, 0) FAR  w(0) 2875.
	create_child: MAIN (0, 5) FAR 3314 U 0.00
expand: MAIN (0, 0) FAR  w(0) 3314. F 0.00
expand: MAIN (1, 0) FAR  w(0) 2875. F 0.00
expand: MAIN (2, 0) FAR  w(0) 2585. F 0.00
expand: MAIN (3, 0) FAR  w(0) 2217. F 0.00
expand: MAIN (4, 0) FAR  w(0) 1255. F 0.00
expand: query!0 (5, 0) FAR  w(0) 1. F 0.00
(spacer::context::check_reachability :time 0.01 :before-memory 5.62 :after-memory 5.62)
Propagating: 0 1 2 3 4 5  ! 6 
(spacer::context::propagate :time 0.00 :before-memory 5.62 :after-memory 5.62)
Entering level 6
BRUNCH_STAT max_query_lvl 5
BRUNCH_STAT num_queries 16
BRUNCH_STAT num_reach_queries 0
BRUNCH_STAT num_reach_reuse 0
BRUNCH_STAT inductive_lvl 0
BRUNCH_STAT max_depth 6
BRUNCH_STAT cex_depth 0
expand: query!0 (6, 0) FAR  w(0) 1.
	create_child: MAIN (5, 6) FAR 1255 U 0.00
expand: MAIN (5, 0) FAR  w(0) 1255.
	create_child: MAIN (4, 6) FAR 2217 U 0.00
expand: MAIN (4, 0) FAR  w(0) 2217.
	create_child: MAIN (3, 6) FAR 2585 U 0.00
expand: MAIN (3, 0) FAR  w(0) 2585.
	create_child: MAIN (2, 6) FAR 2875 U 0.00
expand: MAIN (2, 0) FAR  w(0) 2875.
	create_child: MAIN (1, 6) FAR 3314 U 0.00
expand: MAIN (1, 0) FAR  w(0) 3314.
	create_child: MAIN (0, 6) FAR 3780 U 0.00
expand: MAIN (0, 0) FAR  w(0) 3780. F 0.00
expand: MAIN (1, 0) FAR  w(0) 3314. F 0.00
expand: MAIN (2, 0) FAR  w(0) 2875. F 0.00
expand: MAIN (3, 0) FAR  w(0) 2585. F 0.00
expand: MAIN (4, 0) FAR  w(0) 2217. F 0.00
expand: MAIN (5, 0) FAR  w(0) 1255. F 0.00
expand: query!0 (6, 0) FAR  w(0) 1. F 0.00
(spacer::context::check_reachability :time 0.01 :before-memory 5.62 :after-memory 5.71)
Propagating: 0 1 2 3 4 5 6  ! 7 
(spacer::context::propagate :time 0.00 :before-memory 5.71 :after-memory 5.71)
Entering level 7
BRUNCH_STAT max_query_lvl 6
BRUNCH_STAT num_queries 22
BRUNCH_STAT num_reach_queries 0
BRUNCH_STAT num_reach_reuse 0
BRUNCH_STAT inductive_lvl 0
BRUNCH_STAT max_depth 7
BRUNCH_STAT cex_depth 0
expand: query!0 (7, 0) FAR  w(0) 1.
	create_child: MAIN (6, 7) FAR 1255 U 0.00
expand: MAIN (6, 0) FAR  w(0) 1255.
	create_child: MAIN (5, 7) FAR 2217 U 0.00
expand: MAIN (5, 0) FAR  w(0) 2217.
	create_child: MAIN (4, 7) FAR 2585 U 0.00
expand: MAIN (4, 0) FAR  w(0) 2585.
	create_child: MAIN (3, 7) FAR 2875 U 0.00
expand: MAIN (3, 0) FAR  w(0) 2875.
	create_child: MAIN (2, 7) FAR 3314 U 0.00
expand: MAIN (2, 0) FAR  w(0) 3314.
	create_child: MAIN (1, 7) FAR 3780 U 0.00
expand: MAIN (1, 0) FAR  w(0) 3780.
	create_child: MAIN (0, 7) FAR 4273 U 0.00
expand: MAIN (0, 0) FAR  w(0) 4273. F 0.00
expand: MAIN (1, 0) FAR  w(0) 3780. F 0.00
expand: MAIN (2, 0) FAR  w(0) 3314. F 0.00
expand: MAIN (3, 0) FAR  w(0) 2875. F 0.00
expand: MAIN (4, 0) FAR  w(0) 2585. F 0.00
expand: MAIN (5, 0) FAR  w(0) 2217. F 0.00
expand: MAIN (6, 0) FAR  w(0) 1255. F 0.00
expand: query!0 (7, 0) FAR  w(0) 1. F 0.00
(spacer::context::check_reachability :time 0.01 :before-memory 5.71 :after-memory 5.71)
Propagating: 0 1 2 3 4 5 6 7  ! 8 
(spacer::context::propagate :time 0.00 :before-memory 5.71 :after-memory 5.71)
Entering level 8
BRUNCH_STAT max_query_lvl 7
BRUNCH_STAT num_queries 29
BRUNCH_STAT num_reach_queries 0
BRUNCH_STAT num_reach_reuse 0
BRUNCH_STAT inductive_lvl 0
BRUNCH_STAT max_depth 8
BRUNCH_STAT cex_depth 0
expand: query!0 (8, 0) FAR  w(0) 1.
	create_child: MAIN (7, 8) FAR 1255 U 0.00
expand: MAIN (7, 0) FAR  w(0) 1255.
	create_child: MAIN (6, 8) FAR 2217 U 0.00
expand: MAIN (6, 0) FAR  w(0) 2217.
	create_child: MAIN (5, 8) FAR 2585 U 0.00
expand: MAIN (5, 0) FAR  w(0) 2585.
	create_child: MAIN (4, 8) FAR 2875 U 0.00
expand: MAIN (4, 0) FAR  w(0) 2875.
	create_child: MAIN (3, 8) FAR 3314 U 0.00
expand: MAIN (3, 0) FAR  w(0) 3314.
	create_child: MAIN (2, 8) FAR 3780 U 0.00
expand: MAIN (2, 0) FAR  w(0) 3780.
	create_child: MAIN (1, 8) FAR 4273 U 0.00
expand: MAIN (1, 0) FAR  w(0) 4273.
	create_child: MAIN (0, 8) FAR 4697 U 0.00
expand: MAIN (0, 0) FAR  w(0) 4697. F 0.00
expand: MAIN (1, 0) FAR  w(0) 4273. F 0.00
expand: MAIN (2, 0) FAR  w(0) 3780. F 0.00
expand: MAIN (3, 0) FAR  w(0) 3314. F 0.00
expand: MAIN (4, 0) FAR  w(0) 2875. F 0.00
expand: MAIN (5, 0) FAR  w(0) 2585. F 0.00
expand: MAIN (6, 0) FAR  w(0) 2217. F 0.00
expand: MAIN (7, 0) FAR  w(0) 1255. F 0.00
expand: query!0 (8, 0) FAR  w(0) 1. F 0.00
(spacer::context::check_reachability :time 0.01 :before-memory 5.71 :after-memory 5.81)
Propagating: 0 1 2 3 4 5 6 7 8  ! 9 
(spacer::context::propagate :time 0.00 :before-memory 5.81 :after-memory 5.81)
Entering level 9
BRUNCH_STAT max_query_lvl 8
BRUNCH_STAT num_queries 37
BRUNCH_STAT num_reach_queries 0
BRUNCH_STAT num_reach_reuse 0
BRUNCH_STAT inductive_lvl 0
BRUNCH_STAT max_depth 9
BRUNCH_STAT cex_depth 0
expand: query!0 (9, 0) FAR  w(0) 1.
	create_child: MAIN (8, 9) FAR 1255 U 0.00
expand: MAIN (8, 0) FAR  w(0) 1255.
	create_child: MAIN (7, 9) FAR 2217 U 0.00
expand: MAIN (7, 0) FAR  w(0) 2217.
	create_child: MAIN (6, 9) FAR 2585 U 0.00
expand: MAIN (6, 0) FAR  w(0) 2585.
	create_child: MAIN (5, 9) FAR 2875 U 0.00
expand: MAIN (5, 0) FAR  w(0) 2875.
	create_child: MAIN (4, 9) FAR 3314 U 0.00
expand: MAIN (4, 0) FAR  w(0) 3314.
	create_child: MAIN (3, 9) FAR 3780 U 0.00
expand: MAIN (3, 0) FAR  w(0) 3780.
	create_child: MAIN (2, 9) FAR 4273 U 0.00
expand: MAIN (2, 0) FAR  w(0) 4273.
	create_child: MAIN (1, 9) FAR 4697 U 0.00
expand: MAIN (1, 0) FAR  w(0) 4697.
	create_child: MAIN (0, 9) FAR 5347 U 0.00
expand: MAIN (0, 0) FAR  w(0) 5347. F 0.00
expand: MAIN (1, 0) FAR  w(0) 4697. F 0.00
expand: MAIN (2, 0) FAR  w(0) 4273. F 0.00
expand: MAIN (3, 0) FAR  w(0) 3780. F 0.00
expand: MAIN (4, 0) FAR  w(0) 3314. F 0.00
expand: MAIN (5, 0) FAR  w(0) 2875. F 0.00
expand: MAIN (6, 0) FAR  w(0) 2585. F 0.00
expand: MAIN (7, 0) FAR  w(0) 2217. F 0.00
expand: MAIN (8, 0) FAR  w(0) 1255. F 0.00
expand: query!0 (9, 0) FAR  w(0) 1. F 0.00
(spacer::context::check_reachability :time 0.01 :before-memory 5.81 :after-memory 6.05)
Propagating: 0 1 2 3 4 5 6 7 8 9  ! 10 
(spacer::context::propagate :time 0.00 :before-memory 6.05 :after-memory 6.05)
Entering level 10
BRUNCH_STAT max_query_lvl 9
BRUNCH_STAT num_queries 46
BRUNCH_STAT num_reach_queries 0
BRUNCH_STAT num_reach_reuse 0
BRUNCH_STAT inductive_lvl 0
BRUNCH_STAT max_depth 10
BRUNCH_STAT cex_depth 0
expand: query!0 (10, 0) FAR  w(0) 1.
	create_child: MAIN (9, 10) FAR 1255 U 0.00
expand: MAIN (9, 0) FAR  w(0) 1255.
	create_child: MAIN (8, 10) FAR 2217 U 0.00
expand: MAIN (8, 0) FAR  w(0) 2217.
	create_child: MAIN (7, 10) FAR 2585 U 0.00
expand: MAIN (7, 0) FAR  w(0) 2585.
	create_child: MAIN (6, 10) FAR 2875 U 0.00
expand: MAIN (6, 0) FAR  w(0) 2875.
	create_child: MAIN (5, 10) FAR 3314 U 0.00
expand: MAIN (5, 0) FAR  w(0) 3314.
	create_child: MAIN (4, 10) FAR 3780 U 0.00
expand: MAIN (4, 0) FAR  w(0) 3780.
	create_child: MAIN (3, 10) FAR 4273 U 0.00
expand: MAIN (3, 0) FAR  w(0) 4273.
	create_child: MAIN (2, 10) FAR 4697 U 0.00
expand: MAIN (2, 0) FAR  w(0) 4697.
	create_child: MAIN (1, 10) FAR 5347 U 0.00
expand: MAIN (1, 0) FAR  w(0) 5347.
	create_child: MAIN (0, 10) FAR 6046 U 0.00
expand: MAIN (0, 0) FAR  w(0) 6046. F 0.00
expand: MAIN (1, 0) FAR  w(0) 5347. F 0.00
expand: MAIN (2, 0) FAR  w(0) 4697. F 0.00
expand: MAIN (3, 0) FAR  w(0) 4273. F 0.00
expand: MAIN (4, 0) FAR  w(0) 3780. F 0.00
expand: MAIN (5, 0) FAR  w(0) 3314. F 0.00
expand: MAIN (6, 0) FAR  w(0) 2875. F 0.00
expand: MAIN (7, 0) FAR  w(0) 2585. F 0.00
expand: MAIN (8, 0) FAR  w(0) 2217. F 0.00
expand: MAIN (9, 0) FAR  w(0) 1255. F 0.00
expand: query!0 (10, 0) FAR  w(0) 1. F 0.00
(spacer::context::check_reachability :time 0.01 :before-memory 6.05 :after-memory 6.15)
Propagating: 0 1 2 3 4 5 6 7 8 9 10  ! 11 
(spacer::context::propagate :time 0.00 :before-memory 6.15 :after-memory 6.15)
Entering level 11
BRUNCH_STAT max_query_lvl 10
BRUNCH_STAT num_queries 56
BRUNCH_STAT num_reach_queries 0
BRUNCH_STAT num_reach_reuse 0
BRUNCH_STAT inductive_lvl 0
BRUNCH_STAT max_depth 11
BRUNCH_STAT cex_depth 0
expand: query!0 (11, 0) FAR  w(0) 1.
	create_child: MAIN (10, 11) FAR 1255 U 0.00
expand: MAIN (10, 0) FAR  w(0) 1255.
	create_child: MAIN (9, 11) FAR 2217 U 0.00
expand: MAIN (9, 0) FAR  w(0) 2217.
	create_child: MAIN (8, 11) FAR 2585 U 0.00
expand: MAIN (8, 0) FAR  w(0) 2585.
	create_child: MAIN (7, 11) FAR 2875 U 0.00
expand: MAIN (7, 0) FAR  w(0) 2875.
	create_child: MAIN (6, 11) FAR 3314 U 0.00
expand: MAIN (6, 0) FAR  w(0) 3314.
	create_child: MAIN (5, 11) FAR 3780 U 0.00
expand: MAIN (5, 0) FAR  w(0) 3780.
	create_child: MAIN (4, 11) FAR 4273 U 0.00
expand: MAIN (4, 0) FAR  w(0) 4273.
	create_child: MAIN (3, 11) FAR 4697 U 0.00
expand: MAIN (3, 0) FAR  w(0) 4697.
	create_child: MAIN (2, 11) FAR 5347 U 0.00
expand: MAIN (2, 0) FAR  w(0) 5347.
	create_child: MAIN (1, 11) FAR 6046 U 0.00
expand: MAIN (1, 0) FAR  w(0) 6046. T 0.00
is-reachable: MAIN (2, 0) FAR 5347 T 0.00
is-reachable: MAIN (3, 0) FAR 4697 T 0.00
is-reachable: MAIN (4, 0) FAR 4273 T 0.00
is-reachable: MAIN (5, 0) FAR 3780 T 0.00
is-reachable: MAIN (6, 0) FAR 3314 T 0.00
is-reachable: MAIN (7, 0) FAR 2875 T 0.00
is-reachable: MAIN (8, 0) FAR 2585 T 0.00
is-reachable: MAIN (9, 0) FAR 2217 T 0.00
is-reachable: MAIN (10, 0) FAR 1255 T 0.00
is-reachable: query!0 (11, 0) FAR 1 T 0.00
(spacer::context::check_reachability :time 0.03 :before-memory 6.15 :after-memory 6.92)
BRUNCH_STAT max_query_lvl 11
BRUNCH_STAT num_queries 66
BRUNCH_STAT num_reach_queries 11
BRUNCH_STAT num_reach_reuse 1
BRUNCH_STAT inductive_lvl 0
BRUNCH_STAT max_depth 11
BRUNCH_STAT cex_depth 11
(:SPACER-cex-depth                     11
 :SPACER-max-depth                     11
 :SPACER-max-query-lvl                 11
 :SPACER-num-invariants                1
 :SPACER-num-lemmas                    67
 :SPACER-num-properties                12
 :SPACER-num-queries                   66
 :SPACER-num-reach-queries             11
 :SPACER-num-reuse-reach-facts         1
 :added-eqs                            1472
 :arith-assert-diseq                   2202
 :arith-assert-lower                   3123
 :arith-assert-upper                   3944
 :arith-bound-prop                     83
 :arith-conflicts                      10
 :arith-eq-adapter                     227
 :arith-fixed-eqs                      227
 :arith-offset-eqs                     19
 :arith-pivots                         33
 :bool-inductive-gen                   56
 :bool-inductive-gen-failures          47
 :conflicts                            237
 :decisions                            4085
 :del-clause                           18
 :final-checks                         151
 :mk-bool-var                          1927
 :mk-clause                            2522
 :num-checks                           365
 :propagations                         35577
 :time.itp_solver.itp_core             0.01
 :time.spacer.init_rules               0.00
 :time.spacer.init_rules.pt.init       0.00
 :time.spacer.solve                    0.13
 :time.spacer.solve.propagate          0.02
 :time.spacer.solve.reach              0.12
 :time.spacer.solve.reach.children     0.02
 :time.spacer.solve.reach.gen.bool_ind 0.01
 :time.spacer.solve.reach.is-reach     0.03
 :time.virtual_solver.proof            0.01
 :time.virtual_solver.smt.total        0.07
 :time.virtual_solver.smt.total.sat    0.05
 :virtual_solver.checks                365
 :virtual_solver.checks.sat            151)
BRUNCH_STAT max_query_lvl 11
BRUNCH_STAT num_queries 66
BRUNCH_STAT num_reach_queries 11
BRUNCH_STAT num_reach_reuse 1
BRUNCH_STAT inductive_lvl 0
BRUNCH_STAT max_depth 11
BRUNCH_STAT cex_depth 11

real	0m0.168s
user	0m0.156s
sys	0m0.008s
