(transform N7datalog13mk_coi_filterE...no-op 0s)
(transform N7datalog25mk_interp_tail_simplifierE...12 rules 0s)
(transform N7datalog27mk_quantifier_instantiationE...no-op 0s)
(transform N7datalog8mk_scaleE...no-op 0s)
(transform N7datalog18mk_karr_invariantsE...no-op 0s)
(transform N7datalog14mk_array_blastE...no-op 0s)
(transform N7datalog22mk_subsumption_checkerE...11 rules 0s)
(transform N7datalog12mk_bit_blastE...no-op 0s)
(transform N7datalog15mk_rule_inlinerE...3 rules 0.00147659s)
(transform N7datalog13mk_coi_filterE...no-op 0s)
(transform N7datalog25mk_interp_tail_simplifierE...3 rules 0s)
(transform N7datalog22mk_subsumption_checkerE...no-op 0s)
(transform N7datalog15mk_rule_inlinerE...no-op 0s)
(transform N7datalog13mk_coi_filterE...no-op 0s)
(transform N7datalog25mk_interp_tail_simplifierE...3 rules 0s)
(transform N7datalog22mk_subsumption_checkerE...no-op 0s)
(transform N7datalog15mk_rule_inlinerE...no-op 0s)
(transform N7datalog22mk_subsumption_checkerE...no-op 0s)
(transform N7datalog15mk_rule_inlinerE...no-op 0s)
(transform N7datalog22mk_subsumption_checkerE...no-op 0s)
(transform N7datalog15mk_rule_inlinerE...no-op 0s)
(transform N7datalog22mk_subsumption_checkerE...no-op 0s)
(transform N7datalog8mk_sliceE...no-op 0s)
expand: query!0 (0, 0) FAR  w(0) 1. F 0.00
(spacer::context::check_reachability :time 0.00 :before-memory 4.19 :after-memory 4.81)
Entering level 1
BRUNCH_STAT max_query_lvl 0
BRUNCH_STAT num_queries 0
BRUNCH_STAT num_reach_queries 0
BRUNCH_STAT num_reach_reuse 0
BRUNCH_STAT inductive_lvl 0
BRUNCH_STAT max_depth 1
BRUNCH_STAT cex_depth 0
expand: query!0 (1, 0) FAR  w(0) 1.
	create_child: MAIN (0, 1) FAR 1248 U 0.00
expand: MAIN (0, 0) FAR  w(0) 1248. F 0.00
expand: query!0 (1, 0) FAR  w(0) 1. F 0.00
(spacer::context::check_reachability :time 0.00 :before-memory 4.81 :after-memory 5.31)
Propagating: 0 1  ! 2 
(spacer::context::propagate :time 0.00 :before-memory 5.31 :after-memory 5.31)
Entering level 2
BRUNCH_STAT max_query_lvl 1
BRUNCH_STAT num_queries 1
BRUNCH_STAT num_reach_queries 0
BRUNCH_STAT num_reach_reuse 0
BRUNCH_STAT inductive_lvl 0
BRUNCH_STAT max_depth 2
BRUNCH_STAT cex_depth 0
expand: query!0 (2, 0) FAR  w(0) 1.
	create_child: MAIN (1, 2) FAR 1248 U 0.00
expand: MAIN (1, 0) FAR  w(0) 1248.
	create_child: MAIN (0, 2) FAR 2124 U 0.00
expand: MAIN (0, 0) FAR  w(0) 2124. F 0.00
expand: MAIN (1, 0) FAR  w(0) 1248. F 0.00
expand: query!0 (2, 0) FAR  w(0) 1. F 0.00
(spacer::context::check_reachability :time 0.00 :before-memory 5.31 :after-memory 5.31)
Propagating: 0 1 2  ! 3 
(spacer::context::propagate :time 0.00 :before-memory 5.31 :after-memory 5.31)
Entering level 3
BRUNCH_STAT max_query_lvl 2
BRUNCH_STAT num_queries 3
BRUNCH_STAT num_reach_queries 0
BRUNCH_STAT num_reach_reuse 0
BRUNCH_STAT inductive_lvl 0
BRUNCH_STAT max_depth 3
BRUNCH_STAT cex_depth 0
expand: query!0 (3, 0) FAR  w(0) 1.
	create_child: MAIN (2, 3) FAR 1248 U 0.00
expand: MAIN (2, 0) FAR  w(0) 1248.
	create_child: MAIN (1, 3) FAR 2124 U 0.00
expand: MAIN (1, 0) FAR  w(0) 2124.
	create_child: MAIN (0, 3) FAR 2455 U 0.00
expand: MAIN (0, 0) FAR  w(0) 2455. F 0.00
expand: MAIN (1, 0) FAR  w(0) 2124. F 0.00
expand: MAIN (2, 0) FAR  w(0) 1248. F 0.00
expand: query!0 (3, 0) FAR  w(0) 1. F 0.00
(spacer::context::check_reachability :time 0.00 :before-memory 5.31 :after-memory 5.40)
Propagating: 0 1 2 3  ! 4 
(spacer::context::propagate :time 0.00 :before-memory 5.40 :after-memory 5.40)
Entering level 4
BRUNCH_STAT max_query_lvl 3
BRUNCH_STAT num_queries 6
BRUNCH_STAT num_reach_queries 0
BRUNCH_STAT num_reach_reuse 0
BRUNCH_STAT inductive_lvl 0
BRUNCH_STAT max_depth 4
BRUNCH_STAT cex_depth 0
expand: query!0 (4, 0) FAR  w(0) 1.
	create_child: MAIN (3, 4) FAR 1248 U 0.00
expand: MAIN (3, 0) FAR  w(0) 1248.
	create_child: MAIN (2, 4) FAR 2124 U 0.00
expand: MAIN (2, 0) FAR  w(0) 2124.
	create_child: MAIN (1, 4) FAR 2455 U 0.00
expand: MAIN (1, 0) FAR  w(0) 2455.
	create_child: MAIN (0, 4) FAR 2786 U 0.00
expand: MAIN (0, 0) FAR  w(0) 2786. F 0.00
expand: MAIN (1, 0) FAR  w(0) 2455. F 0.00
expand: MAIN (2, 0) FAR  w(0) 2124. F 0.00
expand: MAIN (3, 0) FAR  w(0) 1248. F 0.00
expand: query!0 (4, 0) FAR  w(0) 1. F 0.00
(spacer::context::check_reachability :time 0.01 :before-memory 5.40 :after-memory 5.61)
Propagating: 0 1 2 3 4  ! 5 
(spacer::context::propagate :time 0.00 :before-memory 5.61 :after-memory 5.61)
Entering level 5
BRUNCH_STAT max_query_lvl 4
BRUNCH_STAT num_queries 10
BRUNCH_STAT num_reach_queries 0
BRUNCH_STAT num_reach_reuse 0
BRUNCH_STAT inductive_lvl 0
BRUNCH_STAT max_depth 5
BRUNCH_STAT cex_depth 0
expand: query!0 (5, 0) FAR  w(0) 1.
	create_child: MAIN (4, 5) FAR 1248 U 0.00
expand: MAIN (4, 0) FAR  w(0) 1248.
	create_child: MAIN (3, 5) FAR 2124 U 0.00
expand: MAIN (3, 0) FAR  w(0) 2124.
	create_child: MAIN (2, 5) FAR 2455 U 0.00
expand: MAIN (2, 0) FAR  w(0) 2455.
	create_child: MAIN (1, 5) FAR 2786 U 0.00
expand: MAIN (1, 0) FAR  w(0) 2786.
	create_child: MAIN (0, 5) FAR 3120 U 0.00
expand: MAIN (0, 0) FAR  w(0) 3120. F 0.00
expand: MAIN (1, 0) FAR  w(0) 2786. F 0.00
expand: MAIN (2, 0) FAR  w(0) 2455. F 0.00
expand: MAIN (3, 0) FAR  w(0) 2124. F 0.00
expand: MAIN (4, 0) FAR  w(0) 1248. F 0.00
expand: query!0 (5, 0) FAR  w(0) 1. F 0.00
(spacer::context::check_reachability :time 0.01 :before-memory 5.61 :after-memory 5.61)
Propagating: 0 1 2 3 4 5  ! 6 
(spacer::context::propagate :time 0.00 :before-memory 5.61 :after-memory 5.61)
Entering level 6
BRUNCH_STAT max_query_lvl 5
BRUNCH_STAT num_queries 15
BRUNCH_STAT num_reach_queries 0
BRUNCH_STAT num_reach_reuse 0
BRUNCH_STAT inductive_lvl 0
BRUNCH_STAT max_depth 6
BRUNCH_STAT cex_depth 0
expand: query!0 (6, 0) FAR  w(0) 1.
	create_child: MAIN (5, 6) FAR 1248 U 0.00
expand: MAIN (5, 0) FAR  w(0) 1248.
	create_child: MAIN (4, 6) FAR 2124 U 0.00
expand: MAIN (4, 0) FAR  w(0) 2124.
	create_child: MAIN (3, 6) FAR 2455 U 0.00
expand: MAIN (3, 0) FAR  w(0) 2455.
	create_child: MAIN (2, 6) FAR 2786 U 0.00
expand: MAIN (2, 0) FAR  w(0) 2786.
	create_child: MAIN (1, 6) FAR 3120 U 0.00
expand: MAIN (1, 0) FAR  w(0) 3120.
	create_child: MAIN (0, 6) FAR 3544 U 0.00
expand: MAIN (0, 0) FAR  w(0) 3544. F 0.00
expand: MAIN (1, 0) FAR  w(0) 3120. F 0.00
expand: MAIN (2, 0) FAR  w(0) 2786. F 0.00
expand: MAIN (3, 0) FAR  w(0) 2455. F 0.00
expand: MAIN (4, 0) FAR  w(0) 2124. F 0.00
expand: MAIN (5, 0) FAR  w(0) 1248. F 0.00
expand: query!0 (6, 0) FAR  w(0) 1. F 0.00
(spacer::context::check_reachability :time 0.01 :before-memory 5.61 :after-memory 5.61)
Propagating: 0 1 2 3 4 5 6  ! 7 
(spacer::context::propagate :time 0.00 :before-memory 5.61 :after-memory 5.61)
Entering level 7
BRUNCH_STAT max_query_lvl 6
BRUNCH_STAT num_queries 21
BRUNCH_STAT num_reach_queries 0
BRUNCH_STAT num_reach_reuse 0
BRUNCH_STAT inductive_lvl 0
BRUNCH_STAT max_depth 7
BRUNCH_STAT cex_depth 0
expand: query!0 (7, 0) FAR  w(0) 1.
	create_child: MAIN (6, 7) FAR 1248 U 0.00
expand: MAIN (6, 0) FAR  w(0) 1248.
	create_child: MAIN (5, 7) FAR 2124 U 0.00
expand: MAIN (5, 0) FAR  w(0) 2124.
	create_child: MAIN (4, 7) FAR 2455 U 0.00
expand: MAIN (4, 0) FAR  w(0) 2455.
	create_child: MAIN (3, 7) FAR 2786 U 0.00
expand: MAIN (3, 0) FAR  w(0) 2786.
	create_child: MAIN (2, 7) FAR 3120 U 0.00
expand: MAIN (2, 0) FAR  w(0) 3120.
	create_child: MAIN (1, 7) FAR 3544 U 0.00
expand: MAIN (1, 0) FAR  w(0) 3544.
	create_child: MAIN (0, 7) FAR 4021 U 0.00
expand: MAIN (0, 0) FAR  w(0) 4021. F 0.00
expand: MAIN (1, 0) FAR  w(0) 3544. F 0.00
expand: MAIN (2, 0) FAR  w(0) 3120. F 0.00
expand: MAIN (3, 0) FAR  w(0) 2786. F 0.00
expand: MAIN (4, 0) FAR  w(0) 2455. F 0.00
expand: MAIN (5, 0) FAR  w(0) 2124. F 0.00
expand: MAIN (6, 0) FAR  w(0) 1248. F 0.00
expand: query!0 (7, 0) FAR  w(0) 1. F 0.00
(spacer::context::check_reachability :time 0.01 :before-memory 5.61 :after-memory 5.71)
Propagating: 0 1 2 3 4 5 6 7  ! 8 
(spacer::context::propagate :time 0.00 :before-memory 5.71 :after-memory 5.71)
Entering level 8
BRUNCH_STAT max_query_lvl 7
BRUNCH_STAT num_queries 28
BRUNCH_STAT num_reach_queries 0
BRUNCH_STAT num_reach_reuse 0
BRUNCH_STAT inductive_lvl 0
BRUNCH_STAT max_depth 8
BRUNCH_STAT cex_depth 0
expand: query!0 (8, 0) FAR  w(0) 1.
	create_child: MAIN (7, 8) FAR 1248 U 0.00
expand: MAIN (7, 0) FAR  w(0) 1248.
	create_child: MAIN (6, 8) FAR 2124 U 0.00
expand: MAIN (6, 0) FAR  w(0) 2124.
	create_child: MAIN (5, 8) FAR 2455 U 0.00
expand: MAIN (5, 0) FAR  w(0) 2455.
	create_child: MAIN (4, 8) FAR 2786 U 0.00
expand: MAIN (4, 0) FAR  w(0) 2786.
	create_child: MAIN (3, 8) FAR 3120 U 0.00
expand: MAIN (3, 0) FAR  w(0) 3120.
	create_child: MAIN (2, 8) FAR 3544 U 0.00
expand: MAIN (2, 0) FAR  w(0) 3544.
	create_child: MAIN (1, 8) FAR 4021 U 0.00
expand: MAIN (1, 0) FAR  w(0) 4021.
	create_child: MAIN (0, 8) FAR 4303 U 0.00
expand: MAIN (0, 0) FAR  w(0) 4303. F 0.00
expand: MAIN (1, 0) FAR  w(0) 4021. F 0.00
expand: MAIN (2, 0) FAR  w(0) 3544. F 0.00
expand: MAIN (3, 0) FAR  w(0) 3120. F 0.00
expand: MAIN (4, 0) FAR  w(0) 2786. F 0.00
expand: MAIN (5, 0) FAR  w(0) 2455. F 0.00
expand: MAIN (6, 0) FAR  w(0) 2124. F 0.00
expand: MAIN (7, 0) FAR  w(0) 1248. F 0.00
expand: query!0 (8, 0) FAR  w(0) 1. F 0.00
(spacer::context::check_reachability :time 0.01 :before-memory 5.71 :after-memory 5.71)
Propagating: 0 1 2 3 4 5 6 7 8  ! 9 
(spacer::context::propagate :time 0.00 :before-memory 5.71 :after-memory 5.71)
Entering level 9
BRUNCH_STAT max_query_lvl 8
BRUNCH_STAT num_queries 36
BRUNCH_STAT num_reach_queries 0
BRUNCH_STAT num_reach_reuse 0
BRUNCH_STAT inductive_lvl 0
BRUNCH_STAT max_depth 9
BRUNCH_STAT cex_depth 0
expand: query!0 (9, 0) FAR  w(0) 1.
	create_child: MAIN (8, 9) FAR 1248 U 0.00
expand: MAIN (8, 0) FAR  w(0) 1248.
	create_child: MAIN (7, 9) FAR 2124 U 0.00
expand: MAIN (7, 0) FAR  w(0) 2124.
	create_child: MAIN (6, 9) FAR 2455 U 0.00
expand: MAIN (6, 0) FAR  w(0) 2455.
	create_child: MAIN (5, 9) FAR 2786 U 0.00
expand: MAIN (5, 0) FAR  w(0) 2786.
	create_child: MAIN (4, 9) FAR 3120 U 0.00
expand: MAIN (4, 0) FAR  w(0) 3120.
	create_child: MAIN (3, 9) FAR 3544 U 0.00
expand: MAIN (3, 0) FAR  w(0) 3544.
	create_child: MAIN (2, 9) FAR 4021 U 0.00
expand: MAIN (2, 0) FAR  w(0) 4021.
	create_child: MAIN (1, 9) FAR 4303 U 0.00
expand: MAIN (1, 0) FAR  w(0) 4303.
	create_child: MAIN (0, 9) FAR 5126 U 0.00
expand: MAIN (0, 0) FAR  w(0) 5126. F 0.00
expand: MAIN (1, 0) FAR  w(0) 4303. F 0.00
expand: MAIN (2, 0) FAR  w(0) 4021. F 0.00
expand: MAIN (3, 0) FAR  w(0) 3544. F 0.00
expand: MAIN (4, 0) FAR  w(0) 3120. F 0.00
expand: MAIN (5, 0) FAR  w(0) 2786. F 0.00
expand: MAIN (6, 0) FAR  w(0) 2455. F 0.00
expand: MAIN (7, 0) FAR  w(0) 2124. F 0.00
expand: MAIN (8, 0) FAR  w(0) 1248. F 0.00
expand: query!0 (9, 0) FAR  w(0) 1. F 0.00
(spacer::context::check_reachability :time 0.01 :before-memory 5.71 :after-memory 5.80)
Propagating: 0 1 2 3 4 5 6 7 8 9  ! 10 
(spacer::context::propagate :time 0.00 :before-memory 5.80 :after-memory 5.80)
Entering level 10
BRUNCH_STAT max_query_lvl 9
BRUNCH_STAT num_queries 45
BRUNCH_STAT num_reach_queries 0
BRUNCH_STAT num_reach_reuse 0
BRUNCH_STAT inductive_lvl 0
BRUNCH_STAT max_depth 10
BRUNCH_STAT cex_depth 0
expand: query!0 (10, 0) FAR  w(0) 1.
	create_child: MAIN (9, 10) FAR 1248 U 0.00
expand: MAIN (9, 0) FAR  w(0) 1248.
	create_child: MAIN (8, 10) FAR 2124 U 0.00
expand: MAIN (8, 0) FAR  w(0) 2124.
	create_child: MAIN (7, 10) FAR 2455 U 0.00
expand: MAIN (7, 0) FAR  w(0) 2455.
	create_child: MAIN (6, 10) FAR 2786 U 0.00
expand: MAIN (6, 0) FAR  w(0) 2786.
	create_child: MAIN (5, 10) FAR 3120 U 0.00
expand: MAIN (5, 0) FAR  w(0) 3120.
	create_child: MAIN (4, 10) FAR 3544 U 0.00
expand: MAIN (4, 0) FAR  w(0) 3544.
	create_child: MAIN (3, 10) FAR 4021 U 0.00
expand: MAIN (3, 0) FAR  w(0) 4021.
	create_child: MAIN (2, 10) FAR 4303 U 0.00
expand: MAIN (2, 0) FAR  w(0) 4303.
	create_child: MAIN (1, 10) FAR 5126 U 0.00
expand: MAIN (1, 0) FAR  w(0) 5126.
	create_child: MAIN (0, 10) FAR 5722 U 0.00
expand: MAIN (0, 0) FAR  w(0) 5722. F 0.00
expand: MAIN (1, 0) FAR  w(0) 5126. F 0.00
expand: MAIN (2, 0) FAR  w(0) 4303. F 0.00
expand: MAIN (3, 0) FAR  w(0) 4021. F 0.00
expand: MAIN (4, 0) FAR  w(0) 3544. F 0.00
expand: MAIN (5, 0) FAR  w(0) 3120. F 0.00
expand: MAIN (6, 0) FAR  w(0) 2786. F 0.00
expand: MAIN (7, 0) FAR  w(0) 2455. F 0.00
expand: MAIN (8, 0) FAR  w(0) 2124. F 0.00
expand: MAIN (9, 0) FAR  w(0) 1248. F 0.00
expand: query!0 (10, 0) FAR  w(0) 1. F 0.00
(spacer::context::check_reachability :time 0.01 :before-memory 5.80 :after-memory 6.05)
Propagating: 0 1 2 3 4 5 6 7 8 9 10  ! 11 
(spacer::context::propagate :time 0.00 :before-memory 6.05 :after-memory 6.05)
Entering level 11
BRUNCH_STAT max_query_lvl 10
BRUNCH_STAT num_queries 55
BRUNCH_STAT num_reach_queries 0
BRUNCH_STAT num_reach_reuse 0
BRUNCH_STAT inductive_lvl 0
BRUNCH_STAT max_depth 11
BRUNCH_STAT cex_depth 0
expand: query!0 (11, 0) FAR  w(0) 1.
	create_child: MAIN (10, 11) FAR 1248 U 0.00
expand: MAIN (10, 0) FAR  w(0) 1248.
	create_child: MAIN (9, 11) FAR 2124 U 0.00
expand: MAIN (9, 0) FAR  w(0) 2124.
	create_child: MAIN (8, 11) FAR 2455 U 0.00
expand: MAIN (8, 0) FAR  w(0) 2455.
	create_child: MAIN (7, 11) FAR 2786 U 0.00
expand: MAIN (7, 0) FAR  w(0) 2786.
	create_child: MAIN (6, 11) FAR 3120 U 0.00
expand: MAIN (6, 0) FAR  w(0) 3120.
	create_child: MAIN (5, 11) FAR 3544 U 0.00
expand: MAIN (5, 0) FAR  w(0) 3544.
	create_child: MAIN (4, 11) FAR 4021 U 0.00
expand: MAIN (4, 0) FAR  w(0) 4021.
	create_child: MAIN (3, 11) FAR 4303 U 0.00
expand: MAIN (3, 0) FAR  w(0) 4303.
	create_child: MAIN (2, 11) FAR 5126 U 0.00
expand: MAIN (2, 0) FAR  w(0) 5126.
	create_child: MAIN (1, 11) FAR 5722 U 0.00
expand: MAIN (1, 0) FAR  w(0) 5722. T 0.00
is-reachable: MAIN (2, 0) FAR 5126 T 0.00
is-reachable: MAIN (3, 0) FAR 4303 T 0.00
is-reachable: MAIN (4, 0) FAR 4021 T 0.00
is-reachable: MAIN (5, 0) FAR 3544 T 0.00
is-reachable: MAIN (6, 0) FAR 3120 T 0.00
is-reachable: MAIN (7, 0) FAR 2786 T 0.00
is-reachable: MAIN (8, 0) FAR 2455 T 0.00
is-reachable: MAIN (9, 0) FAR 2124 T 0.00
is-reachable: MAIN (10, 0) FAR 1248 T 0.00
is-reachable: query!0 (11, 0) FAR 1 T 0.00
(spacer::context::check_reachability :time 0.03 :before-memory 6.05 :after-memory 6.63)
BRUNCH_STAT max_query_lvl 11
BRUNCH_STAT num_queries 65
BRUNCH_STAT num_reach_queries 11
BRUNCH_STAT num_reach_reuse 1
BRUNCH_STAT inductive_lvl 0
BRUNCH_STAT max_depth 11
BRUNCH_STAT cex_depth 11
(:SPACER-cex-depth                     11
 :SPACER-max-depth                     11
 :SPACER-max-query-lvl                 11
 :SPACER-num-lemmas                    66
 :SPACER-num-properties                11
 :SPACER-num-queries                   65
 :SPACER-num-reach-queries             11
 :SPACER-num-reuse-reach-facts         1
 :added-eqs                            1687
 :arith-assert-diseq                   1943
 :arith-assert-lower                   3357
 :arith-assert-upper                   2794
 :arith-bound-prop                     57
 :arith-conflicts                      18
 :arith-eq-adapter                     535
 :arith-fixed-eqs                      333
 :arith-offset-eqs                     9
 :arith-pivots                         12
 :bool-inductive-gen                   55
 :bool-inductive-gen-failures          46
 :conflicts                            216
 :decisions                            3595
 :del-clause                           58
 :final-checks                         150
 :mk-bool-var                          1817
 :mk-clause                            1872
 :num-checks                           343
 :propagations                         36132
 :time.itp_solver.itp_core             0.01
 :time.spacer.init_rules               0.00
 :time.spacer.init_rules.pt.init       0.00
 :time.spacer.solve                    0.12
 :time.spacer.solve.propagate          0.01
 :time.spacer.solve.reach              0.11
 :time.spacer.solve.reach.children     0.02
 :time.spacer.solve.reach.gen.bool_ind 0.01
 :time.spacer.solve.reach.is-reach     0.02
 :time.virtual_solver.proof            0.01
 :time.virtual_solver.smt.total        0.07
 :time.virtual_solver.smt.total.sat    0.04
 :virtual_solver.checks                343
 :virtual_solver.checks.sat            150)
BRUNCH_STAT max_query_lvl 11
BRUNCH_STAT num_queries 65
BRUNCH_STAT num_reach_queries 11
BRUNCH_STAT num_reach_reuse 1
BRUNCH_STAT inductive_lvl 0
BRUNCH_STAT max_depth 11
BRUNCH_STAT cex_depth 11

real	0m0.152s
user	0m0.128s
sys	0m0.024s
