(transform N7datalog13mk_coi_filterE...no-op 0s)
(transform N7datalog25mk_interp_tail_simplifierE...15 rules 0s)
(transform N7datalog27mk_quantifier_instantiationE...no-op 0s)
(transform N7datalog8mk_scaleE...no-op 0s)
(transform N7datalog18mk_karr_invariantsE...no-op 0s)
(transform N7datalog14mk_array_blastE...no-op 0s)
(transform N7datalog22mk_subsumption_checkerE...14 rules 0s)
(transform N7datalog12mk_bit_blastE...no-op 0s)
(transform N7datalog15mk_rule_inlinerE...3 rules 0.00202523s)
(transform N7datalog13mk_coi_filterE...no-op 0s)
(transform N7datalog25mk_interp_tail_simplifierE...3 rules 0s)
(transform N7datalog22mk_subsumption_checkerE...no-op 0s)
(transform N7datalog15mk_rule_inlinerE...no-op 0s)
(transform N7datalog13mk_coi_filterE...no-op 0s)
(transform N7datalog25mk_interp_tail_simplifierE...3 rules 0s)
(transform N7datalog22mk_subsumption_checkerE...no-op 0s)
(transform N7datalog15mk_rule_inlinerE...no-op 0s)
(transform N7datalog22mk_subsumption_checkerE...no-op 0s)
(transform N7datalog15mk_rule_inlinerE...no-op 0s)
(transform N7datalog22mk_subsumption_checkerE...no-op 0s)
(transform N7datalog15mk_rule_inlinerE...no-op 0s)
(transform N7datalog22mk_subsumption_checkerE...no-op 0s)
(transform N7datalog8mk_sliceE...no-op 0s)
expand: query!0 (0, 0) FAR  w(0) 1. F 0.00
(spacer::context::check_reachability :time 0.00 :before-memory 4.35 :after-memory 4.74)
Entering level 1
BRUNCH_STAT max_query_lvl 0
BRUNCH_STAT num_queries 0
BRUNCH_STAT num_reach_queries 0
BRUNCH_STAT num_reach_reuse 0
BRUNCH_STAT inductive_lvl 0
BRUNCH_STAT max_depth 1
BRUNCH_STAT cex_depth 0
expand: query!0 (1, 0) FAR  w(0) 1.
	create_child: MAIN (0, 1) FAR 1369 U 0.00
expand: MAIN (0, 0) FAR  w(0) 1369. F 0.00
expand: query!0 (1, 0) FAR  w(0) 1. F 0.00
(spacer::context::check_reachability :time 0.00 :before-memory 4.74 :after-memory 5.34)
Propagating: 0 1  ! 2 
(spacer::context::propagate :time 0.00 :before-memory 5.34 :after-memory 5.34)
Entering level 2
BRUNCH_STAT max_query_lvl 1
BRUNCH_STAT num_queries 1
BRUNCH_STAT num_reach_queries 0
BRUNCH_STAT num_reach_reuse 0
BRUNCH_STAT inductive_lvl 0
BRUNCH_STAT max_depth 2
BRUNCH_STAT cex_depth 0
expand: query!0 (2, 0) FAR  w(0) 1.
	create_child: MAIN (1, 2) FAR 1369 U 0.00
expand: MAIN (1, 0) FAR  w(0) 1369.
	create_child: MAIN (0, 2) FAR 2264 U 0.00
expand: MAIN (0, 0) FAR  w(0) 2264. F 0.00
expand: MAIN (1, 0) FAR  w(0) 1369.
	create_child: MAIN (0, 2) FAR 2327 U 0.00
expand: MAIN (0, 0) FAR  w(0) 2327. F 0.00
expand: MAIN (1, 0) FAR  w(0) 1369.
	create_child: MAIN (0, 2) FAR 2415 U 0.00
expand: MAIN (0, 0) FAR  w(0) 2415. F 0.00
expand: MAIN (1, 0) FAR  w(0) 1369. F 0.00
expand: query!0 (2, 0) FAR  w(0) 1. F 0.00
(spacer::context::check_reachability :time 0.01 :before-memory 5.34 :after-memory 5.34)
Propagating: 0 1 2  ! 3 
(spacer::context::propagate :time 0.00 :before-memory 5.34 :after-memory 5.58)
Entering level 3
BRUNCH_STAT max_query_lvl 2
BRUNCH_STAT num_queries 5
BRUNCH_STAT num_reach_queries 0
BRUNCH_STAT num_reach_reuse 0
BRUNCH_STAT inductive_lvl 0
BRUNCH_STAT max_depth 3
BRUNCH_STAT cex_depth 0
expand: query!0 (3, 0) FAR  w(0) 1.
	create_child: MAIN (2, 3) FAR 1369 U 0.00
expand: MAIN (2, 0) FAR  w(0) 1369.
	create_child: MAIN (1, 3) FAR 2777 U 0.00
expand: MAIN (1, 0) FAR  w(0) 2777. F 0.00
expand: MAIN (2, 0) FAR  w(0) 1369.
	create_child: MAIN (1, 3) FAR 3013 U 0.00
expand: MAIN (1, 0) FAR  w(0) 3013. F 0.00
expand: MAIN (2, 0) FAR  w(0) 1369. F 0.00
expand: query!0 (3, 0) FAR  w(0) 1. F 0.00
(spacer::context::check_reachability :time 0.00 :before-memory 5.58 :after-memory 5.58)
Propagating: 1 2 3  ! 4 
(spacer::context::propagate :time 0.00 :before-memory 5.58 :after-memory 5.58)
Entering level 4
BRUNCH_STAT max_query_lvl 3
BRUNCH_STAT num_queries 8
BRUNCH_STAT num_reach_queries 0
BRUNCH_STAT num_reach_reuse 0
BRUNCH_STAT inductive_lvl 0
BRUNCH_STAT max_depth 4
BRUNCH_STAT cex_depth 0
expand: query!0 (4, 0) FAR  w(0) 1.
	create_child: MAIN (3, 4) FAR 1369 U 0.00
expand: MAIN (3, 0) FAR  w(0) 1369.
	create_child: MAIN (2, 4) FAR 3228 U 0.00
expand: MAIN (2, 0) FAR  w(0) 3228.
	create_child: MAIN (1, 4) FAR 3248 U 0.00
expand: MAIN (1, 0) FAR  w(0) 3248. F 0.00
expand: MAIN (2, 0) FAR  w(0) 3228.
	create_child: MAIN (1, 4) FAR 3437 U 0.00
expand: MAIN (1, 0) FAR  w(0) 3437. F 0.00
expand: MAIN (2, 0) FAR  w(0) 3228. F 0.00
expand: MAIN (3, 0) FAR  w(0) 1369. F 0.00
expand: query!0 (4, 0) FAR  w(0) 1. F 0.00
(spacer::context::check_reachability :time 0.01 :before-memory 5.58 :after-memory 5.58)
Propagating: 1 2 3 4  ! 5 
(spacer::context::propagate :time 0.00 :before-memory 5.58 :after-memory 5.58)
Entering level 5
BRUNCH_STAT max_query_lvl 4
BRUNCH_STAT num_queries 12
BRUNCH_STAT num_reach_queries 0
BRUNCH_STAT num_reach_reuse 0
BRUNCH_STAT inductive_lvl 0
BRUNCH_STAT max_depth 5
BRUNCH_STAT cex_depth 0
expand: query!0 (5, 0) FAR  w(0) 1.
	create_child: MAIN (4, 5) FAR 1369 U 0.00
expand: MAIN (4, 0) FAR  w(0) 1369.
	create_child: MAIN (3, 5) FAR 3685 U 0.00
expand: MAIN (3, 0) FAR  w(0) 3685. F 0.00
expand: MAIN (4, 0) FAR  w(0) 1369.
	create_child: MAIN (3, 5) FAR 3675 U 0.00
expand: MAIN (3, 0) FAR  w(0) 3675.
	create_child: MAIN (2, 5) FAR 3437 U 0.00
expand: MAIN (2, 0) FAR  w(0) 3437.
	create_child: MAIN (1, 5) FAR 3709 U 0.00
expand: MAIN (1, 0) FAR  w(0) 3709. F 0.00
expand: MAIN (2, 0) FAR  w(0) 3437. F 0.00
expand: MAIN (3, 0) FAR  w(0) 3675. F 0.00
expand: MAIN (4, 0) FAR  w(0) 1369. F 0.00
expand: query!0 (5, 0) FAR  w(0) 1. F 0.00
(spacer::context::check_reachability :time 0.01 :before-memory 5.58 :after-memory 5.58)
Propagating: 1 2 3 4 5  ! 6 
(spacer::context::propagate :time 0.00 :before-memory 5.58 :after-memory 5.58)
Entering level 6
BRUNCH_STAT max_query_lvl 5
BRUNCH_STAT num_queries 17
BRUNCH_STAT num_reach_queries 0
BRUNCH_STAT num_reach_reuse 0
BRUNCH_STAT inductive_lvl 0
BRUNCH_STAT max_depth 6
BRUNCH_STAT cex_depth 0
expand: query!0 (6, 0) FAR  w(0) 1.
	create_child: MAIN (5, 6) FAR 1369 U 0.00
expand: MAIN (5, 0) FAR  w(0) 1369.
	create_child: MAIN (4, 6) FAR 3675 U 0.00
expand: MAIN (4, 0) FAR  w(0) 3675.
	create_child: MAIN (3, 6) FAR 3437 U 0.00
expand: MAIN (3, 0) FAR  w(0) 3437.
	create_child: MAIN (2, 6) FAR 3709 U 0.00
expand: MAIN (2, 0) FAR  w(0) 3709.
	create_child: MAIN (1, 6) FAR 4096 U 0.00
expand: MAIN (1, 0) FAR  w(0) 4096. F 0.00
expand: MAIN (2, 0) FAR  w(0) 3709. F 0.00
expand: MAIN (3, 0) FAR  w(0) 3437. F 0.00
expand: MAIN (4, 0) FAR  w(0) 3675. F 0.00
expand: MAIN (5, 0) FAR  w(0) 1369. F 0.00
expand: query!0 (6, 0) FAR  w(0) 1. F 0.00
(spacer::context::check_reachability :time 0.01 :before-memory 5.58 :after-memory 5.67)
Propagating: 1 2 3 4 5 6  ! 7 
(spacer::context::propagate :time 0.00 :before-memory 5.67 :after-memory 5.67)
Entering level 7
BRUNCH_STAT max_query_lvl 6
BRUNCH_STAT num_queries 22
BRUNCH_STAT num_reach_queries 0
BRUNCH_STAT num_reach_reuse 0
BRUNCH_STAT inductive_lvl 0
BRUNCH_STAT max_depth 7
BRUNCH_STAT cex_depth 0
expand: query!0 (7, 0) FAR  w(0) 1.
	create_child: MAIN (6, 7) FAR 1369 U 0.00
expand: MAIN (6, 0) FAR  w(0) 1369.
	create_child: MAIN (5, 7) FAR 4462 U 0.00
expand: MAIN (5, 0) FAR  w(0) 4462.
	create_child: MAIN (4, 7) FAR 4590 U 0.00
expand: MAIN (4, 0) FAR  w(0) 4590.
	create_child: MAIN (3, 7) FAR 4728 U 0.00
expand: MAIN (3, 0) FAR  w(0) 4728.
	create_child: MAIN (2, 7) FAR 4818 U 0.00
expand: MAIN (2, 0) FAR  w(0) 4818.
	create_child: MAIN (1, 7) FAR 4764 U 0.00
expand: MAIN (1, 0) FAR  w(0) 4764. F 0.00
expand: MAIN (2, 0) FAR  w(0) 4818. F 0.00
expand: MAIN (3, 0) FAR  w(0) 4728. F 0.00
expand: MAIN (4, 0) FAR  w(0) 4590. F 0.00
expand: MAIN (5, 0) FAR  w(0) 4462. F 0.00
expand: MAIN (6, 0) FAR  w(0) 1369. F 0.00
expand: query!0 (7, 0) FAR  w(0) 1. F 0.00
(spacer::context::check_reachability :time 0.01 :before-memory 5.67 :after-memory 5.77)
Propagating: 1 2 3 4 5 6 7  ! 8 
(spacer::context::propagate :time 0.00 :before-memory 5.77 :after-memory 5.77)
Entering level 8
BRUNCH_STAT max_query_lvl 7
BRUNCH_STAT num_queries 28
BRUNCH_STAT num_reach_queries 0
BRUNCH_STAT num_reach_reuse 0
BRUNCH_STAT inductive_lvl 0
BRUNCH_STAT max_depth 8
BRUNCH_STAT cex_depth 0
expand: query!0 (8, 0) FAR  w(0) 1.
	create_child: MAIN (7, 8) FAR 1369 U 0.00
expand: MAIN (7, 0) FAR  w(0) 1369.
	create_child: MAIN (6, 8) FAR 5408 U 0.00
expand: MAIN (6, 0) FAR  w(0) 5408.
	create_child: MAIN (5, 8) FAR 5363 U 0.00
expand: MAIN (5, 0) FAR  w(0) 5363.
	create_child: MAIN (4, 8) FAR 5495 U 0.00
expand: MAIN (4, 0) FAR  w(0) 5495.
	create_child: MAIN (3, 8) FAR 5657 U 0.00
expand: MAIN (3, 0) FAR  w(0) 5657. F 0.00
expand: MAIN (4, 0) FAR  w(0) 5495.
	create_child: MAIN (3, 8) FAR 5649 U 0.00
expand: MAIN (3, 0) FAR  w(0) 5649.
	create_child: MAIN (2, 8) FAR 5567 U 0.00
expand: MAIN (2, 0) FAR  w(0) 5567.
	create_child: MAIN (1, 8) FAR 5732 U 0.00
expand: MAIN (1, 0) FAR  w(0) 5732. F 0.00
expand: MAIN (2, 0) FAR  w(0) 5567. F 0.00
expand: MAIN (3, 0) FAR  w(0) 5649. F 0.00
expand: MAIN (4, 0) FAR  w(0) 5495. F 0.00
expand: MAIN (5, 0) FAR  w(0) 5363. F 0.00
expand: MAIN (6, 0) FAR  w(0) 5408. F 0.00
expand: MAIN (7, 0) FAR  w(0) 1369. F 0.00
expand: query!0 (8, 0) FAR  w(0) 1. F 0.00
(spacer::context::check_reachability :time 0.02 :before-memory 5.77 :after-memory 6.03)
Propagating: 1 2 3 4 5 6 7 8  ! 9 
(spacer::context::propagate :time 0.00 :before-memory 6.03 :after-memory 6.03)
Entering level 9
BRUNCH_STAT max_query_lvl 8
BRUNCH_STAT num_queries 36
BRUNCH_STAT num_reach_queries 0
BRUNCH_STAT num_reach_reuse 0
BRUNCH_STAT inductive_lvl 0
BRUNCH_STAT max_depth 9
BRUNCH_STAT cex_depth 0
expand: query!0 (9, 0) FAR  w(0) 1.
	create_child: MAIN (8, 9) FAR 1369 U 0.00
expand: MAIN (8, 0) FAR  w(0) 1369.
	create_child: MAIN (7, 9) FAR 3675 U 0.00
expand: MAIN (7, 0) FAR  w(0) 3675.
	create_child: MAIN (6, 9) FAR 3437 U 0.00
expand: MAIN (6, 0) FAR  w(0) 3437.
	create_child: MAIN (5, 9) FAR 3709 U 0.00
expand: MAIN (5, 0) FAR  w(0) 3709.
	create_child: MAIN (4, 9) FAR 4096 U 0.00
expand: MAIN (4, 0) FAR  w(0) 4096.
	create_child: MAIN (3, 9) FAR 6178 U 0.00
expand: MAIN (3, 0) FAR  w(0) 6178.
	create_child: MAIN (2, 9) FAR 6456 U 0.00
expand: MAIN (2, 0) FAR  w(0) 6456.
	create_child: MAIN (1, 9) FAR 6449 U 0.00
expand: MAIN (1, 0) FAR  w(0) 6449. F 0.00
expand: MAIN (2, 0) FAR  w(0) 6456. F 0.00
expand: MAIN (3, 0) FAR  w(0) 6178. F 0.00
expand: MAIN (4, 0) FAR  w(0) 4096. F 0.00
expand: MAIN (5, 0) FAR  w(0) 3709. F 0.00
expand: MAIN (6, 0) FAR  w(0) 3437. F 0.00
expand: MAIN (7, 0) FAR  w(0) 3675. F 0.00
expand: MAIN (8, 0) FAR  w(0) 1369. F 0.00
expand: query!0 (9, 0) FAR  w(0) 1. F 0.00
(spacer::context::check_reachability :time 0.01 :before-memory 6.03 :after-memory 6.13)
Propagating: 1 2 3 4 5 6 7 8 9  ! 10 
(spacer::context::propagate :time 0.00 :before-memory 6.13 :after-memory 6.13)
Entering level 10
BRUNCH_STAT max_query_lvl 9
BRUNCH_STAT num_queries 44
BRUNCH_STAT num_reach_queries 0
BRUNCH_STAT num_reach_reuse 0
BRUNCH_STAT inductive_lvl 0
BRUNCH_STAT max_depth 10
BRUNCH_STAT cex_depth 0
expand: query!0 (10, 0) FAR  w(0) 1.
	create_child: MAIN (9, 10) FAR 1369 U 0.00
expand: MAIN (9, 0) FAR  w(0) 1369.
	create_child: MAIN (8, 10) FAR 3675 U 0.00
expand: MAIN (8, 0) FAR  w(0) 3675.
	create_child: MAIN (7, 10) FAR 3437 U 0.00
expand: MAIN (7, 0) FAR  w(0) 3437.
	create_child: MAIN (6, 10) FAR 3709 U 0.00
expand: MAIN (6, 0) FAR  w(0) 3709.
	create_child: MAIN (5, 10) FAR 4096 U 0.00
expand: MAIN (5, 0) FAR  w(0) 4096.
	create_child: MAIN (4, 10) FAR 6178 U 0.00
expand: MAIN (4, 0) FAR  w(0) 6178.
	create_child: MAIN (3, 10) FAR 6456 U 0.00
expand: MAIN (3, 0) FAR  w(0) 6456.
	create_child: MAIN (2, 10) FAR 6449 U 0.00
expand: MAIN (2, 0) FAR  w(0) 6449.
	create_child: MAIN (1, 10) FAR 6915 U 0.00
expand: MAIN (1, 0) FAR  w(0) 6915. T 0.00
is-reachable: MAIN (2, 0) FAR 6449 T 0.00
is-reachable: MAIN (3, 0) FAR 6456 T 0.00
is-reachable: MAIN (4, 0) FAR 6178 T 0.00
is-reachable: MAIN (5, 0) FAR 4096 T 0.00
is-reachable: MAIN (6, 0) FAR 3709 T 0.00
is-reachable: MAIN (7, 0) FAR 3437 T 0.00
is-reachable: MAIN (8, 0) FAR 3675 T 0.00
is-reachable: MAIN (9, 0) FAR 1369 T 0.00
is-reachable: query!0 (10, 0) FAR 1 T 0.00
(spacer::context::check_reachability :time 0.03 :before-memory 6.13 :after-memory 6.70)
BRUNCH_STAT max_query_lvl 10
BRUNCH_STAT num_queries 53
BRUNCH_STAT num_reach_queries 10
BRUNCH_STAT num_reach_reuse 1
BRUNCH_STAT inductive_lvl 0
BRUNCH_STAT max_depth 10
BRUNCH_STAT cex_depth 10
(:SPACER-cex-depth                     10
 :SPACER-max-depth                     10
 :SPACER-max-query-lvl                 10
 :SPACER-num-invariants                5
 :SPACER-num-lemmas                    54
 :SPACER-num-properties                16
 :SPACER-num-queries                   53
 :SPACER-num-reach-queries             10
 :SPACER-num-reuse-reach-facts         1
 :added-eqs                            426
 :arith-add-rows                       1
 :arith-assert-diseq                   501
 :arith-assert-lower                   2017
 :arith-assert-upper                   3284
 :arith-bound-prop                     65
 :arith-conflicts                      46
 :arith-eq-adapter                     189
 :arith-fixed-eqs                      24
 :arith-offset-eqs                     20
 :arith-pivots                         43
 :bool-inductive-gen                   44
 :bool-inductive-gen-failures          47
 :conflicts                            207
 :decisions                            4504
 :del-clause                           19
 :final-checks                         119
 :mk-bool-var                          1377
 :mk-clause                            1865
 :num-checks                           299
 :propagations                         28479
 :time.itp_solver.itp_core             0.01
 :time.spacer.init_rules               0.00
 :time.spacer.init_rules.pt.init       0.00
 :time.spacer.solve                    0.12
 :time.spacer.solve.propagate          0.01
 :time.spacer.solve.reach              0.11
 :time.spacer.solve.reach.children     0.03
 :time.spacer.solve.reach.gen.bool_ind 0.01
 :time.spacer.solve.reach.is-reach     0.02
 :time.virtual_solver.proof            0.01
 :time.virtual_solver.smt.total        0.06
 :time.virtual_solver.smt.total.sat    0.04
 :virtual_solver.checks                299
 :virtual_solver.checks.sat            119)
BRUNCH_STAT max_query_lvl 10
BRUNCH_STAT num_queries 53
BRUNCH_STAT num_reach_queries 10
BRUNCH_STAT num_reach_reuse 1
BRUNCH_STAT inductive_lvl 0
BRUNCH_STAT max_depth 10
BRUNCH_STAT cex_depth 10

real	0m0.155s
user	0m0.144s
sys	0m0.008s
