(transform N7datalog13mk_coi_filterE...no-op 0s)
(transform N7datalog25mk_interp_tail_simplifierE...14 rules 0s)
(transform N7datalog27mk_quantifier_instantiationE...no-op 0s)
(transform N7datalog8mk_scaleE...no-op 0s)
(transform N7datalog18mk_karr_invariantsE...no-op 0s)
(transform N7datalog14mk_array_blastE...no-op 0s)
(transform N7datalog22mk_subsumption_checkerE...13 rules 0s)
(transform N7datalog12mk_bit_blastE...no-op 0s)
(transform N7datalog15mk_rule_inlinerE...3 rules 0.00549333s)
(transform N7datalog13mk_coi_filterE...no-op 0s)
(transform N7datalog25mk_interp_tail_simplifierE...3 rules 0s)
(transform N7datalog22mk_subsumption_checkerE...no-op 0s)
(transform N7datalog15mk_rule_inlinerE...no-op 0s)
(transform N7datalog13mk_coi_filterE...no-op 0s)
(transform N7datalog25mk_interp_tail_simplifierE...3 rules 0s)
(transform N7datalog22mk_subsumption_checkerE...no-op 0s)
(transform N7datalog15mk_rule_inlinerE...no-op 0s)
(transform N7datalog22mk_subsumption_checkerE...no-op 0s)
(transform N7datalog15mk_rule_inlinerE...no-op 0s)
(transform N7datalog22mk_subsumption_checkerE...no-op 0s)
(transform N7datalog15mk_rule_inlinerE...no-op 0s)
(transform N7datalog22mk_subsumption_checkerE...no-op 0s)
(transform N7datalog8mk_sliceE...no-op 0s)
expand: query!0 (0, 0) FAR  w(0) 1. F 0.00
(spacer::context::check_reachability :time 0.00 :before-memory 4.59 :after-memory 5.22)
Entering level 1
BRUNCH_STAT max_query_lvl 0
BRUNCH_STAT num_queries 0
BRUNCH_STAT num_reach_queries 0
BRUNCH_STAT num_reach_reuse 0
BRUNCH_STAT inductive_lvl 0
BRUNCH_STAT max_depth 1
BRUNCH_STAT cex_depth 0
expand: query!0 (1, 0) FAR  w(0) 1.
	create_child: MAIN (0, 1) FAR 5081 U 0.00
expand: MAIN (0, 0) FAR  w(0) 5081. F 0.00
expand: query!0 (1, 0) FAR  w(0) 1. F 0.00
(spacer::context::check_reachability :time 0.01 :before-memory 5.22 :after-memory 6.45)
Propagating: 0 1  ! 2 
(spacer::context::propagate :time 0.00 :before-memory 6.45 :after-memory 6.55)
Entering level 2
BRUNCH_STAT max_query_lvl 1
BRUNCH_STAT num_queries 1
BRUNCH_STAT num_reach_queries 0
BRUNCH_STAT num_reach_reuse 0
BRUNCH_STAT inductive_lvl 0
BRUNCH_STAT max_depth 2
BRUNCH_STAT cex_depth 0
expand: query!0 (2, 0) FAR  w(0) 1.
	create_child: MAIN (1, 2) FAR 5081 U 0.00
expand: MAIN (1, 0) FAR  w(0) 5081.
	create_child: MAIN (0, 2) FAR 9608 U 0.00
expand: MAIN (0, 0) FAR  w(0) 9608. F 0.00
expand: MAIN (1, 0) FAR  w(0) 5081.
	create_child: MAIN (0, 2) FAR 9659 U 0.00
expand: MAIN (0, 0) FAR  w(0) 9659. F 0.00
expand: MAIN (1, 0) FAR  w(0) 5081.
	create_child: MAIN (0, 2) FAR 10008 U 0.00
expand: MAIN (0, 0) FAR  w(0) 10008. F 0.00
expand: MAIN (1, 0) FAR  w(0) 5081.
	create_child: MAIN (0, 2) FAR 10164 U 0.00
expand: MAIN (0, 0) FAR  w(0) 10164. F 0.00
expand: MAIN (1, 0) FAR  w(0) 5081.
	create_child: MAIN (0, 2) FAR 10089 U 0.00
expand: MAIN (0, 0) FAR  w(0) 10089. F 0.00
expand: MAIN (1, 0) FAR  w(0) 5081.
	create_child: MAIN (0, 2) FAR 10253 U 0.00
expand: MAIN (0, 0) FAR  w(0) 10253. F 0.00
expand: MAIN (1, 0) FAR  w(0) 5081.
	create_child: MAIN (0, 2) FAR 10513 U 0.00
expand: MAIN (0, 0) FAR  w(0) 10513. F 0.00
expand: MAIN (1, 0) FAR  w(0) 5081. F 0.00
expand: query!0 (2, 0) FAR  w(0) 1. F 0.00
(spacer::context::check_reachability :time 0.02 :before-memory 6.55 :after-memory 6.74)
Propagating: 0 1 2  ! 3 
(spacer::context::propagate :time 0.01 :before-memory 6.74 :after-memory 6.74)
Entering level 3
BRUNCH_STAT max_query_lvl 2
BRUNCH_STAT num_queries 9
BRUNCH_STAT num_reach_queries 0
BRUNCH_STAT num_reach_reuse 0
BRUNCH_STAT inductive_lvl 0
BRUNCH_STAT max_depth 3
BRUNCH_STAT cex_depth 0
expand: query!0 (3, 0) FAR  w(0) 1.
	create_child: MAIN (2, 3) FAR 5081 U 0.00
expand: MAIN (2, 0) FAR  w(0) 5081.
	create_child: MAIN (1, 3) FAR 11465 U 0.00
expand: MAIN (1, 0) FAR  w(0) 11465. F 0.00
expand: MAIN (2, 0) FAR  w(0) 5081.
	create_child: MAIN (1, 3) FAR 11702 U 0.00
expand: MAIN (1, 0) FAR  w(0) 11702. F 0.00
expand: MAIN (2, 0) FAR  w(0) 5081. F 0.00
expand: query!0 (3, 0) FAR  w(0) 1. F 0.00
(spacer::context::check_reachability :time 0.01 :before-memory 6.74 :after-memory 7.22)
Propagating: 1 2 3  ! 4 
(spacer::context::propagate :time 0.00 :before-memory 7.22 :after-memory 7.22)
Entering level 4
BRUNCH_STAT max_query_lvl 3
BRUNCH_STAT num_queries 12
BRUNCH_STAT num_reach_queries 0
BRUNCH_STAT num_reach_reuse 0
BRUNCH_STAT inductive_lvl 0
BRUNCH_STAT max_depth 4
BRUNCH_STAT cex_depth 0
expand: query!0 (4, 0) FAR  w(0) 1.
	create_child: MAIN (3, 4) FAR 5081 U 0.00
expand: MAIN (3, 0) FAR  w(0) 5081.
	create_child: MAIN (2, 4) FAR 12439 U 0.00
expand: MAIN (2, 0) FAR  w(0) 12439. F 0.00
expand: MAIN (3, 0) FAR  w(0) 5081.
	create_child: MAIN (2, 4) FAR 12830 U 0.00
expand: MAIN (2, 0) FAR  w(0) 12830. F 0.00
expand: MAIN (3, 0) FAR  w(0) 5081.
	create_child: MAIN (2, 4) FAR 12911 U 0.00
expand: MAIN (2, 0) FAR  w(0) 12911.
	create_child: MAIN (1, 4) FAR 12885 U 0.00
expand: MAIN (1, 0) FAR  w(0) 12885. F 0.00
expand: MAIN (2, 0) FAR  w(0) 12911.
	create_child: MAIN (1, 4) FAR 13085 U 0.00
expand: MAIN (1, 0) FAR  w(0) 13085. T 0.00
is-reachable: MAIN (2, 0) FAR 12911 T 0.01
is-reachable: MAIN (3, 0) FAR 5081 T 0.01
is-reachable: query!0 (4, 0) FAR 1 T 0.00
(spacer::context::check_reachability :time 0.04 :before-memory 7.22 :after-memory 8.27)
BRUNCH_STAT max_query_lvl 4
BRUNCH_STAT num_queries 18
BRUNCH_STAT num_reach_queries 4
BRUNCH_STAT num_reach_reuse 1
BRUNCH_STAT inductive_lvl 0
BRUNCH_STAT max_depth 4
BRUNCH_STAT cex_depth 4
(:SPACER-cex-depth                     4
 :SPACER-max-depth                     4
 :SPACER-max-query-lvl                 4
 :SPACER-num-invariants                2
 :SPACER-num-lemmas                    19
 :SPACER-num-properties                14
 :SPACER-num-queries                   18
 :SPACER-num-reach-queries             4
 :SPACER-num-reuse-reach-facts         1
 :added-eqs                            2434
 :arith-add-rows                       715
 :arith-assert-diseq                   968
 :arith-assert-lower                   1818
 :arith-assert-upper                   1927
 :arith-bound-prop                     184
 :arith-conflicts                      14
 :arith-eq-adapter                     434
 :arith-fixed-eqs                      325
 :arith-offset-eqs                     629
 :arith-pivots                         208
 :bool-inductive-gen                   15
 :bool-inductive-gen-failures          19
 :conflicts                            167
 :decisions                            3259
 :del-clause                           227
 :final-checks                         46
 :minimized-lits                       57
 :mk-bool-var                          1594
 :mk-clause                            4329
 :num-checks                           102
 :propagations                         31478
 :time.itp_solver.itp_core             0.01
 :time.spacer.init_rules               0.00
 :time.spacer.init_rules.pt.init       0.00
 :time.spacer.solve                    0.09
 :time.spacer.solve.propagate          0.01
 :time.spacer.solve.reach              0.08
 :time.spacer.solve.reach.children     0.01
 :time.spacer.solve.reach.gen.bool_ind 0.01
 :time.spacer.solve.reach.is-reach     0.02
 :time.virtual_solver.proof            0.01
 :time.virtual_solver.smt.total        0.06
 :time.virtual_solver.smt.total.sat    0.03
 :virtual_solver.checks                102
 :virtual_solver.checks.sat            46)
BRUNCH_STAT max_query_lvl 4
BRUNCH_STAT num_queries 18
BRUNCH_STAT num_reach_queries 4
BRUNCH_STAT num_reach_reuse 1
BRUNCH_STAT inductive_lvl 0
BRUNCH_STAT max_depth 4
BRUNCH_STAT cex_depth 4

real	0m0.132s
user	0m0.120s
sys	0m0.012s
