(transform N7datalog13mk_coi_filterE...no-op 0s)
(transform N7datalog25mk_interp_tail_simplifierE...14 rules 0s)
(transform N7datalog27mk_quantifier_instantiationE...no-op 0s)
(transform N7datalog8mk_scaleE...no-op 0s)
(transform N7datalog18mk_karr_invariantsE...no-op 0s)
(transform N7datalog14mk_array_blastE...no-op 0s)
(transform N7datalog22mk_subsumption_checkerE...13 rules 0s)
(transform N7datalog12mk_bit_blastE...no-op 0s)
(transform N7datalog15mk_rule_inlinerE...3 rules 0.00540276s)
(transform N7datalog13mk_coi_filterE...no-op 0s)
(transform N7datalog25mk_interp_tail_simplifierE...3 rules 0s)
(transform N7datalog22mk_subsumption_checkerE...no-op 0s)
(transform N7datalog15mk_rule_inlinerE...no-op 0s)
(transform N7datalog13mk_coi_filterE...no-op 0s)
(transform N7datalog25mk_interp_tail_simplifierE...3 rules 0s)
(transform N7datalog22mk_subsumption_checkerE...no-op 0s)
(transform N7datalog15mk_rule_inlinerE...no-op 0s)
(transform N7datalog22mk_subsumption_checkerE...no-op 0s)
(transform N7datalog15mk_rule_inlinerE...no-op 0s)
(transform N7datalog22mk_subsumption_checkerE...no-op 0s)
(transform N7datalog15mk_rule_inlinerE...no-op 0s)
(transform N7datalog22mk_subsumption_checkerE...no-op 0s)
(transform N7datalog8mk_sliceE...no-op 0s)
expand: query!0 (0, 0) FAR  w(0) 1. F 0.00
(spacer::context::check_reachability :time 0.00 :before-memory 4.58 :after-memory 5.20)
Entering level 1
BRUNCH_STAT max_query_lvl 0
BRUNCH_STAT num_queries 0
BRUNCH_STAT num_reach_queries 0
BRUNCH_STAT num_reach_reuse 0
BRUNCH_STAT inductive_lvl 0
BRUNCH_STAT max_depth 1
BRUNCH_STAT cex_depth 0
expand: query!0 (1, 0) FAR  w(0) 1.
	create_child: MAIN (0, 1) FAR 4949 U 0.00
expand: MAIN (0, 0) FAR  w(0) 4949. F 0.00
expand: query!0 (1, 0) FAR  w(0) 1. F 0.00
(spacer::context::check_reachability :time 0.01 :before-memory 5.20 :after-memory 6.44)
Propagating: 0 1  ! 2 
(spacer::context::propagate :time 0.00 :before-memory 6.44 :after-memory 6.44)
Entering level 2
BRUNCH_STAT max_query_lvl 1
BRUNCH_STAT num_queries 1
BRUNCH_STAT num_reach_queries 0
BRUNCH_STAT num_reach_reuse 0
BRUNCH_STAT inductive_lvl 0
BRUNCH_STAT max_depth 2
BRUNCH_STAT cex_depth 0
expand: query!0 (2, 0) FAR  w(0) 1.
	create_child: MAIN (1, 2) FAR 4949 U 0.00
expand: MAIN (1, 0) FAR  w(0) 4949.
	create_child: MAIN (0, 2) FAR 9513 U 0.00
expand: MAIN (0, 0) FAR  w(0) 9513. F 0.00
expand: MAIN (1, 0) FAR  w(0) 4949.
	create_child: MAIN (0, 2) FAR 9516 U 0.00
expand: MAIN (0, 0) FAR  w(0) 9516. F 0.00
expand: MAIN (1, 0) FAR  w(0) 4949.
	create_child: MAIN (0, 2) FAR 9731 U 0.00
expand: MAIN (0, 0) FAR  w(0) 9731. F 0.00
expand: MAIN (1, 0) FAR  w(0) 4949.
	create_child: MAIN (0, 2) FAR 9879 U 0.00
expand: MAIN (0, 0) FAR  w(0) 9879. F 0.00
expand: MAIN (1, 0) FAR  w(0) 4949.
	create_child: MAIN (0, 2) FAR 9969 U 0.00
expand: MAIN (0, 0) FAR  w(0) 9969. F 0.00
expand: MAIN (1, 0) FAR  w(0) 4949.
	create_child: MAIN (0, 2) FAR 10063 U 0.00
expand: MAIN (0, 0) FAR  w(0) 10063. F 0.00
expand: MAIN (1, 0) FAR  w(0) 4949.
	create_child: MAIN (0, 2) FAR 10241 U 0.00
expand: MAIN (0, 0) FAR  w(0) 10241. F 0.00
expand: MAIN (1, 0) FAR  w(0) 4949. F 0.00
expand: query!0 (2, 0) FAR  w(0) 1. F 0.00
(spacer::context::check_reachability :time 0.02 :before-memory 6.44 :after-memory 6.72)
Propagating: 0 1 2  ! 3 
(spacer::context::propagate :time 0.01 :before-memory 6.72 :after-memory 6.72)
Entering level 3
BRUNCH_STAT max_query_lvl 2
BRUNCH_STAT num_queries 9
BRUNCH_STAT num_reach_queries 0
BRUNCH_STAT num_reach_reuse 0
BRUNCH_STAT inductive_lvl 0
BRUNCH_STAT max_depth 3
BRUNCH_STAT cex_depth 0
expand: query!0 (3, 0) FAR  w(0) 1.
	create_child: MAIN (2, 3) FAR 4949 U 0.00
expand: MAIN (2, 0) FAR  w(0) 4949.
	create_child: MAIN (1, 3) FAR 10958 U 0.00
expand: MAIN (1, 0) FAR  w(0) 10958. F 0.00
expand: MAIN (2, 0) FAR  w(0) 4949.
	create_child: MAIN (1, 3) FAR 10241 U 0.00
expand: MAIN (1, 0) FAR  w(0) 10241. F 0.00
expand: MAIN (2, 0) FAR  w(0) 4949. F 0.00
expand: query!0 (3, 0) FAR  w(0) 1. F 0.00
(spacer::context::check_reachability :time 0.01 :before-memory 6.72 :after-memory 6.87)
Propagating: 1 2 3  ! 4 
(spacer::context::propagate :time 0.00 :before-memory 6.87 :after-memory 6.87)
Entering level 4
BRUNCH_STAT max_query_lvl 3
BRUNCH_STAT num_queries 12
BRUNCH_STAT num_reach_queries 0
BRUNCH_STAT num_reach_reuse 0
BRUNCH_STAT inductive_lvl 0
BRUNCH_STAT max_depth 4
BRUNCH_STAT cex_depth 0
expand: query!0 (4, 0) FAR  w(0) 1.
	create_child: MAIN (3, 4) FAR 4949 U 0.00
expand: MAIN (3, 0) FAR  w(0) 4949.
	create_child: MAIN (2, 4) FAR 11645 U 0.00
expand: MAIN (2, 0) FAR  w(0) 11645.
	create_child: MAIN (1, 4) FAR 11610 U 0.00
expand: MAIN (1, 0) FAR  w(0) 11610. F 0.00
expand: MAIN (2, 0) FAR  w(0) 11645.
	create_child: MAIN (1, 4) FAR 11810 U 0.00
expand: MAIN (1, 0) FAR  w(0) 11810. F 0.00
expand: MAIN (2, 0) FAR  w(0) 11645.
	create_child: MAIN (1, 4) FAR 11948 U 0.00
expand: MAIN (1, 0) FAR  w(0) 11948. T 0.00
is-reachable: MAIN (2, 0) FAR 11645 T 0.01
is-reachable: MAIN (3, 0) FAR 4949 T 0.01
is-reachable: query!0 (4, 0) FAR 1 T 0.00
(spacer::context::check_reachability :time 0.03 :before-memory 6.87 :after-memory 8.12)
BRUNCH_STAT max_query_lvl 4
BRUNCH_STAT num_queries 17
BRUNCH_STAT num_reach_queries 4
BRUNCH_STAT num_reach_reuse 1
BRUNCH_STAT inductive_lvl 0
BRUNCH_STAT max_depth 4
BRUNCH_STAT cex_depth 4
(:SPACER-cex-depth                     4
 :SPACER-max-depth                     4
 :SPACER-max-query-lvl                 4
 :SPACER-num-invariants                3
 :SPACER-num-lemmas                    18
 :SPACER-num-properties                13
 :SPACER-num-queries                   17
 :SPACER-num-reach-queries             4
 :SPACER-num-reuse-reach-facts         1
 :added-eqs                            1819
 :arith-add-rows                       546
 :arith-assert-diseq                   750
 :arith-assert-lower                   1333
 :arith-assert-upper                   1442
 :arith-bound-prop                     162
 :arith-conflicts                      10
 :arith-eq-adapter                     334
 :arith-fixed-eqs                      236
 :arith-offset-eqs                     387
 :arith-pivots                         183
 :bool-inductive-gen                   14
 :bool-inductive-gen-failures          16
 :conflicts                            147
 :decisions                            2657
 :del-clause                           201
 :final-checks                         41
 :minimized-lits                       49
 :mk-bool-var                          1492
 :mk-clause                            4131
 :num-checks                           90
 :propagations                         24855
 :time.itp_solver.itp_core             0.01
 :time.spacer.init_rules               0.00
 :time.spacer.init_rules.pt.init       0.00
 :time.spacer.solve                    0.08
 :time.spacer.solve.propagate          0.01
 :time.spacer.solve.reach              0.07
 :time.spacer.solve.reach.children     0.01
 :time.spacer.solve.reach.gen.bool_ind 0.00
 :time.spacer.solve.reach.is-reach     0.02
 :time.virtual_solver.proof            0.00
 :time.virtual_solver.smt.total        0.05
 :time.virtual_solver.smt.total.sat    0.03
 :virtual_solver.checks                90
 :virtual_solver.checks.sat            41)
BRUNCH_STAT max_query_lvl 4
BRUNCH_STAT num_queries 17
BRUNCH_STAT num_reach_queries 4
BRUNCH_STAT num_reach_reuse 1
BRUNCH_STAT inductive_lvl 0
BRUNCH_STAT max_depth 4
BRUNCH_STAT cex_depth 4

real	0m0.125s
user	0m0.120s
sys	0m0.004s
