(transform N7datalog13mk_coi_filterE...no-op 0s)
(transform N7datalog25mk_interp_tail_simplifierE...12 rules 0s)
(transform N7datalog27mk_quantifier_instantiationE...no-op 0s)
(transform N7datalog8mk_scaleE...no-op 0s)
(transform N7datalog18mk_karr_invariantsE...no-op 0s)
(transform N7datalog14mk_array_blastE...no-op 0s)
(transform N7datalog22mk_subsumption_checkerE...11 rules 0s)
(transform N7datalog12mk_bit_blastE...no-op 0s)
(transform N7datalog15mk_rule_inlinerE...3 rules 0.00456212s)
(transform N7datalog13mk_coi_filterE...no-op 0s)
(transform N7datalog25mk_interp_tail_simplifierE...3 rules 0s)
(transform N7datalog22mk_subsumption_checkerE...no-op 0s)
(transform N7datalog15mk_rule_inlinerE...no-op 0s)
(transform N7datalog13mk_coi_filterE...no-op 0s)
(transform N7datalog25mk_interp_tail_simplifierE...3 rules 0s)
(transform N7datalog22mk_subsumption_checkerE...no-op 0s)
(transform N7datalog15mk_rule_inlinerE...no-op 0s)
(transform N7datalog22mk_subsumption_checkerE...no-op 0s)
(transform N7datalog15mk_rule_inlinerE...no-op 0s)
(transform N7datalog22mk_subsumption_checkerE...no-op 0s)
(transform N7datalog15mk_rule_inlinerE...no-op 0s)
(transform N7datalog22mk_subsumption_checkerE...no-op 0s)
(transform N7datalog8mk_sliceE...no-op 0s)
expand: query!0 (0, 0) FAR  w(0) 1. F 0.00
(spacer::context::check_reachability :time 0.00 :before-memory 4.58 :after-memory 5.19)
Entering level 1
BRUNCH_STAT max_query_lvl 0
BRUNCH_STAT num_queries 0
BRUNCH_STAT num_reach_queries 0
BRUNCH_STAT num_reach_reuse 0
BRUNCH_STAT inductive_lvl 0
BRUNCH_STAT max_depth 1
BRUNCH_STAT cex_depth 0
expand: query!0 (1, 0) FAR  w(0) 1.
	create_child: MAIN (0, 1) FAR 4667 U 0.00
expand: MAIN (0, 0) FAR  w(0) 4667. F 0.00
expand: query!0 (1, 0) FAR  w(0) 1. F 0.00
(spacer::context::check_reachability :time 0.01 :before-memory 5.19 :after-memory 6.35)
Propagating: 0 1  ! 2 
(spacer::context::propagate :time 0.00 :before-memory 6.35 :after-memory 6.45)
Entering level 2
BRUNCH_STAT max_query_lvl 1
BRUNCH_STAT num_queries 1
BRUNCH_STAT num_reach_queries 0
BRUNCH_STAT num_reach_reuse 0
BRUNCH_STAT inductive_lvl 0
BRUNCH_STAT max_depth 2
BRUNCH_STAT cex_depth 0
expand: query!0 (2, 0) FAR  w(0) 1.
	create_child: MAIN (1, 2) FAR 4667 U 0.00
expand: MAIN (1, 0) FAR  w(0) 4667. T 0.00
is-reachable: query!0 (2, 0) FAR 1 T 0.00
(spacer::context::check_reachability :time 0.01 :before-memory 6.45 :after-memory 6.93)
BRUNCH_STAT max_query_lvl 2
BRUNCH_STAT num_queries 2
BRUNCH_STAT num_reach_queries 2
BRUNCH_STAT num_reach_reuse 1
BRUNCH_STAT inductive_lvl 0
BRUNCH_STAT max_depth 2
BRUNCH_STAT cex_depth 2
(:SPACER-cex-depth                     2
 :SPACER-max-depth                     2
 :SPACER-max-query-lvl                 2
 :SPACER-num-lemmas                    3
 :SPACER-num-properties                2
 :SPACER-num-queries                   2
 :SPACER-num-reach-queries             2
 :SPACER-num-reuse-reach-facts         1
 :added-eqs                            186
 :arith-add-rows                       22
 :arith-assert-diseq                   62
 :arith-assert-lower                   129
 :arith-assert-upper                   167
 :arith-bound-prop                     35
 :arith-conflicts                      5
 :arith-eq-adapter                     65
 :arith-fixed-eqs                      22
 :arith-offset-eqs                     34
 :arith-pivots                         19
 :bool-inductive-gen                   1
 :bool-inductive-gen-failures          1
 :conflicts                            40
 :decisions                            218
 :del-clause                           25
 :final-checks                         6
 :minimized-lits                       13
 :mk-bool-var                          665
 :mk-clause                            2208
 :num-checks                           11
 :propagations                         2258
 :time.itp_solver.itp_core             0.00
 :time.spacer.init_rules               0.00
 :time.spacer.init_rules.pt.init       0.00
 :time.spacer.solve                    0.02
 :time.spacer.solve.propagate          0.00
 :time.spacer.solve.reach              0.01
 :time.spacer.solve.reach.children     0.00
 :time.spacer.solve.reach.gen.bool_ind 0.00
 :time.spacer.solve.reach.is-reach     0.00
 :time.virtual_solver.proof            0.00
 :time.virtual_solver.smt.total        0.01
 :time.virtual_solver.smt.total.sat    0.01
 :virtual_solver.checks                11
 :virtual_solver.checks.sat            6)
BRUNCH_STAT max_query_lvl 2
BRUNCH_STAT num_queries 2
BRUNCH_STAT num_reach_queries 2
BRUNCH_STAT num_reach_reuse 1
BRUNCH_STAT inductive_lvl 0
BRUNCH_STAT max_depth 2
BRUNCH_STAT cex_depth 2

real	0m0.049s
user	0m0.040s
sys	0m0.008s
