(transform N7datalog13mk_coi_filterE...no-op 0s)
(transform N7datalog25mk_interp_tail_simplifierE...12 rules 0s)
(transform N7datalog27mk_quantifier_instantiationE...no-op 0s)
(transform N7datalog8mk_scaleE...no-op 0s)
(transform N7datalog18mk_karr_invariantsE...no-op 0s)
(transform N7datalog14mk_array_blastE...no-op 0s)
(transform N7datalog22mk_subsumption_checkerE...11 rules 0s)
(transform N7datalog12mk_bit_blastE...no-op 0s)
(transform N7datalog15mk_rule_inlinerE...3 rules 0.00432294s)
(transform N7datalog13mk_coi_filterE...no-op 0s)
(transform N7datalog25mk_interp_tail_simplifierE...3 rules 0s)
(transform N7datalog22mk_subsumption_checkerE...no-op 0s)
(transform N7datalog15mk_rule_inlinerE...no-op 0s)
(transform N7datalog13mk_coi_filterE...no-op 0s)
(transform N7datalog25mk_interp_tail_simplifierE...3 rules 0s)
(transform N7datalog22mk_subsumption_checkerE...no-op 0s)
(transform N7datalog15mk_rule_inlinerE...no-op 0s)
(transform N7datalog22mk_subsumption_checkerE...no-op 0s)
(transform N7datalog15mk_rule_inlinerE...no-op 0s)
(transform N7datalog22mk_subsumption_checkerE...no-op 0s)
(transform N7datalog15mk_rule_inlinerE...no-op 0s)
(transform N7datalog22mk_subsumption_checkerE...no-op 0s)
(transform N7datalog8mk_sliceE...no-op 0s)
expand: query!0 (0, 0) FAR  w(0) 1. F 0.00
(spacer::context::check_reachability :time 0.00 :before-memory 4.55 :after-memory 5.18)
Entering level 1
BRUNCH_STAT max_query_lvl 0
BRUNCH_STAT num_queries 0
BRUNCH_STAT num_reach_queries 0
BRUNCH_STAT num_reach_reuse 0
BRUNCH_STAT inductive_lvl 0
BRUNCH_STAT max_depth 1
BRUNCH_STAT cex_depth 0
expand: query!0 (1, 0) FAR  w(0) 1.
	create_child: MAIN (0, 1) FAR 4675 U 0.00
expand: MAIN (0, 0) FAR  w(0) 4675. F 0.00
expand: query!0 (1, 0) FAR  w(0) 1. F 0.00
(spacer::context::check_reachability :time 0.01 :before-memory 5.18 :after-memory 6.32)
Propagating: 0 1  ! 2 
(spacer::context::propagate :time 0.00 :before-memory 6.32 :after-memory 6.42)
Entering level 2
BRUNCH_STAT max_query_lvl 1
BRUNCH_STAT num_queries 1
BRUNCH_STAT num_reach_queries 0
BRUNCH_STAT num_reach_reuse 0
BRUNCH_STAT inductive_lvl 0
BRUNCH_STAT max_depth 2
BRUNCH_STAT cex_depth 0
expand: query!0 (2, 0) FAR  w(0) 1.
	create_child: MAIN (1, 2) FAR 4675 U 0.00
expand: MAIN (1, 0) FAR  w(0) 4675.
	create_child: MAIN (0, 2) FAR 9100 U 0.00
expand: MAIN (0, 0) FAR  w(0) 9100. F 0.00
expand: MAIN (1, 0) FAR  w(0) 4675.
	create_child: MAIN (0, 2) FAR 9238 U 0.00
expand: MAIN (0, 0) FAR  w(0) 9238. F 0.00
expand: MAIN (1, 0) FAR  w(0) 4675. F 0.00
expand: query!0 (2, 0) FAR  w(0) 1. F 0.00
(spacer::context::check_reachability :time 0.01 :before-memory 6.42 :after-memory 6.63)
Propagating: 0 1 2  ! 3 
(spacer::context::propagate :time 0.00 :before-memory 6.63 :after-memory 6.63)
Entering level 3
BRUNCH_STAT max_query_lvl 2
BRUNCH_STAT num_queries 4
BRUNCH_STAT num_reach_queries 0
BRUNCH_STAT num_reach_reuse 0
BRUNCH_STAT inductive_lvl 0
BRUNCH_STAT max_depth 3
BRUNCH_STAT cex_depth 0
expand: query!0 (3, 0) FAR  w(0) 1.
	create_child: MAIN (2, 3) FAR 4675 U 0.00
expand: MAIN (2, 0) FAR  w(0) 4675.
	create_child: MAIN (1, 3) FAR 9670 U 0.00
expand: MAIN (1, 0) FAR  w(0) 9670. F 0.00
expand: MAIN (2, 0) FAR  w(0) 4675.
	create_child: MAIN (1, 3) FAR 9706 U 0.00
expand: MAIN (1, 0) FAR  w(0) 9706. F 0.00
expand: MAIN (2, 0) FAR  w(0) 4675.
	create_child: MAIN (1, 3) FAR 10109 U 0.00
expand: MAIN (1, 0) FAR  w(0) 10109.
	create_child: MAIN (0, 3) FAR 10126 U 0.00
expand: MAIN (0, 0) FAR  w(0) 10126. F 0.00
expand: MAIN (1, 0) FAR  w(0) 10109. F 0.00
expand: MAIN (2, 0) FAR  w(0) 4675.
	create_child: MAIN (1, 3) FAR 10677 U 0.00
expand: MAIN (1, 0) FAR  w(0) 10677. F 0.00
expand: MAIN (2, 0) FAR  w(0) 4675. F 0.00
expand: query!0 (3, 0) FAR  w(0) 1. F 0.00
(spacer::context::check_reachability :time 0.02 :before-memory 6.63 :after-memory 6.75)
Propagating: 0 1 2 3  ! 4 
(spacer::context::propagate :time 0.00 :before-memory 6.75 :after-memory 6.75)
Entering level 4
BRUNCH_STAT max_query_lvl 3
BRUNCH_STAT num_queries 10
BRUNCH_STAT num_reach_queries 0
BRUNCH_STAT num_reach_reuse 0
BRUNCH_STAT inductive_lvl 0
BRUNCH_STAT max_depth 4
BRUNCH_STAT cex_depth 0
expand: query!0 (4, 0) FAR  w(0) 1.
	create_child: MAIN (3, 4) FAR 4675 U 0.00
expand: MAIN (3, 0) FAR  w(0) 4675.
	create_child: MAIN (2, 4) FAR 10677 U 0.00
expand: MAIN (2, 0) FAR  w(0) 10677.
	create_child: MAIN (1, 4) FAR 11725 U 0.00
expand: MAIN (1, 0) FAR  w(0) 11725. F 0.00
expand: MAIN (2, 0) FAR  w(0) 10677. F 0.00
expand: MAIN (3, 0) FAR  w(0) 4675.
	create_child: MAIN (2, 4) FAR 10109 U 0.00
expand: MAIN (2, 0) FAR  w(0) 10109. F 0.00
expand: MAIN (3, 0) FAR  w(0) 4675. F 0.00
expand: query!0 (4, 0) FAR  w(0) 1. F 0.00
(spacer::context::check_reachability :time 0.02 :before-memory 6.75 :after-memory 7.29)
Propagating: 1 2 3 4  ! 5 
(spacer::context::propagate :time 0.00 :before-memory 7.29 :after-memory 7.29)
Entering level 5
BRUNCH_STAT max_query_lvl 4
BRUNCH_STAT num_queries 14
BRUNCH_STAT num_reach_queries 0
BRUNCH_STAT num_reach_reuse 0
BRUNCH_STAT inductive_lvl 0
BRUNCH_STAT max_depth 5
BRUNCH_STAT cex_depth 0
expand: query!0 (5, 0) FAR  w(0) 1.
	create_child: MAIN (4, 5) FAR 4675 U 0.00
expand: MAIN (4, 0) FAR  w(0) 4675.
	create_child: MAIN (3, 5) FAR 10677 U 0.00
expand: MAIN (3, 0) FAR  w(0) 10677.
	create_child: MAIN (2, 5) FAR 11725 U 0.00
expand: MAIN (2, 0) FAR  w(0) 11725. F 0.00
expand: MAIN (3, 0) FAR  w(0) 10677. F 0.00
expand: MAIN (4, 0) FAR  w(0) 4675.
	create_child: MAIN (3, 5) FAR 10109 U 0.00
expand: MAIN (3, 0) FAR  w(0) 10109. F 0.00
expand: MAIN (4, 0) FAR  w(0) 4675. F 0.00
expand: query!0 (5, 0) FAR  w(0) 1. F 0.00
(spacer::context::check_reachability :time 0.02 :before-memory 7.29 :after-memory 7.41)
Propagating: 2 
(spacer::context::propagate :time 0.00 :before-memory 7.41 :after-memory 7.41)
(define-fun MAIN ((x!0 Int)
 (x!1 Int)
 (x!2 Int)
 (x!3 Int)
 (x!4 Int)
 (x!5 Int)
 (x!6 Bool)
 (x!7 Bool)
 (x!8 Bool)
 (x!9 Bool)) Bool
  (let ((a!1 (or (<= x!1 0) (not x!7) (not (>= (+ x!2 x!4) 2)))))
    (and (or (not (>= x!2 2)) (not x!7) (= x!3 0))
         x!9
         (not x!8)
         (or (<= x!1 0) (not x!7) (<= x!4 0))
         a!1
         (or (<= x!4 0) (= x!3 0) (not x!7)))))
BRUNCH_STAT max_query_lvl 5
BRUNCH_STAT num_queries 18
BRUNCH_STAT num_reach_queries 0
BRUNCH_STAT num_reach_reuse 0
BRUNCH_STAT inductive_lvl 2
BRUNCH_STAT max_depth 5
BRUNCH_STAT cex_depth 0
(:SPACER-inductive-level               2
 :SPACER-max-depth                     5
 :SPACER-max-query-lvl                 5
 :SPACER-num-invariants                7
 :SPACER-num-lemmas                    24
 :SPACER-num-properties                13
 :SPACER-num-queries                   18
 :added-eqs                            2105
 :arith-add-rows                       747
 :arith-assert-diseq                   1155
 :arith-assert-lower                   2408
 :arith-assert-upper                   1559
 :arith-bound-prop                     164
 :arith-conflicts                      3
 :arith-eq-adapter                     369
 :arith-fixed-eqs                      293
 :arith-offset-eqs                     332
 :arith-pivots                         250
 :bool-inductive-gen                   18
 :bool-inductive-gen-failures          32
 :conflicts                            243
 :decisions                            3293
 :del-clause                           570
 :final-checks                         62
 :minimized-lits                       233
 :mk-bool-var                          1244
 :mk-clause                            2651
 :num-checks                           131
 :propagations                         42089
 :time.itp_solver.itp_core             0.01
 :time.spacer.init_rules               0.00
 :time.spacer.init_rules.pt.init       0.00
 :time.spacer.solve                    0.08
 :time.spacer.solve.propagate          0.01
 :time.spacer.solve.reach              0.07
 :time.spacer.solve.reach.children     0.01
 :time.spacer.solve.reach.gen.bool_ind 0.02
 :time.virtual_solver.proof            0.01
 :time.virtual_solver.smt.total        0.05
 :time.virtual_solver.smt.total.sat    0.03
 :virtual_solver.checks                131
 :virtual_solver.checks.sat            62)
BRUNCH_STAT max_query_lvl 5
BRUNCH_STAT num_queries 18
BRUNCH_STAT num_reach_queries 0
BRUNCH_STAT num_reach_reuse 0
BRUNCH_STAT inductive_lvl 2
BRUNCH_STAT max_depth 5
BRUNCH_STAT cex_depth 0

real	0m0.125s
user	0m0.120s
sys	0m0.004s
