(transform N7datalog13mk_coi_filterE...no-op 0s)
(transform N7datalog25mk_interp_tail_simplifierE...14 rules 0s)
(transform N7datalog27mk_quantifier_instantiationE...no-op 0s)
(transform N7datalog8mk_scaleE...no-op 0s)
(transform N7datalog18mk_karr_invariantsE...no-op 0s)
(transform N7datalog14mk_array_blastE...no-op 0s)
(transform N7datalog22mk_subsumption_checkerE...13 rules 0s)
(transform N7datalog12mk_bit_blastE...no-op 0s)
(transform N7datalog15mk_rule_inlinerE...3 rules 0.00613296s)
(transform N7datalog13mk_coi_filterE...no-op 0s)
(transform N7datalog25mk_interp_tail_simplifierE...3 rules 0s)
(transform N7datalog22mk_subsumption_checkerE...no-op 0s)
(transform N7datalog15mk_rule_inlinerE...no-op 0s)
(transform N7datalog13mk_coi_filterE...no-op 0s)
(transform N7datalog25mk_interp_tail_simplifierE...3 rules 0s)
(transform N7datalog22mk_subsumption_checkerE...no-op 0s)
(transform N7datalog15mk_rule_inlinerE...no-op 0s)
(transform N7datalog22mk_subsumption_checkerE...no-op 0s)
(transform N7datalog15mk_rule_inlinerE...no-op 0s)
(transform N7datalog22mk_subsumption_checkerE...no-op 0s)
(transform N7datalog15mk_rule_inlinerE...no-op 0s)
(transform N7datalog22mk_subsumption_checkerE...no-op 0s)
(transform N7datalog8mk_sliceE...no-op 0s)
expand: query!0 (0, 0) FAR  w(0) 1. F 0.00
(spacer::context::check_reachability :time 0.00 :before-memory 4.63 :after-memory 5.27)
Entering level 1
BRUNCH_STAT max_query_lvl 0
BRUNCH_STAT num_queries 0
BRUNCH_STAT num_reach_queries 0
BRUNCH_STAT num_reach_reuse 0
BRUNCH_STAT inductive_lvl 0
BRUNCH_STAT max_depth 1
BRUNCH_STAT cex_depth 0
expand: query!0 (1, 0) FAR  w(0) 1.
	create_child: MAIN (0, 1) FAR 5385 U 0.00
expand: MAIN (0, 0) FAR  w(0) 5385. F 0.01
expand: query!0 (1, 0) FAR  w(0) 1. F 0.00
(spacer::context::check_reachability :time 0.01 :before-memory 5.27 :after-memory 6.56)
Propagating: 0 1  ! 2 
(spacer::context::propagate :time 0.00 :before-memory 6.56 :after-memory 6.65)
Entering level 2
BRUNCH_STAT max_query_lvl 1
BRUNCH_STAT num_queries 1
BRUNCH_STAT num_reach_queries 0
BRUNCH_STAT num_reach_reuse 0
BRUNCH_STAT inductive_lvl 0
BRUNCH_STAT max_depth 2
BRUNCH_STAT cex_depth 0
expand: query!0 (2, 0) FAR  w(0) 1.
	create_child: MAIN (1, 2) FAR 5385 U 0.00
expand: MAIN (1, 0) FAR  w(0) 5385.
	create_child: MAIN (0, 2) FAR 11200 U 0.01
expand: MAIN (0, 0) FAR  w(0) 11200. F 0.00
expand: MAIN (1, 0) FAR  w(0) 5385.
	create_child: MAIN (0, 2) FAR 11607 U 0.00
expand: MAIN (0, 0) FAR  w(0) 11607. F 0.00
expand: MAIN (1, 0) FAR  w(0) 5385.
	create_child: MAIN (0, 2) FAR 11666 U 0.00
expand: MAIN (0, 0) FAR  w(0) 11666. F 0.00
expand: MAIN (1, 0) FAR  w(0) 5385.
	create_child: MAIN (0, 2) FAR 11371 U 0.00
expand: MAIN (0, 0) FAR  w(0) 11371. F 0.00
expand: MAIN (1, 0) FAR  w(0) 5385.
	create_child: MAIN (0, 2) FAR 11790 U 0.00
expand: MAIN (0, 0) FAR  w(0) 11790. F 0.00
expand: MAIN (1, 0) FAR  w(0) 5385.
	create_child: MAIN (0, 2) FAR 11897 U 0.00
expand: MAIN (0, 0) FAR  w(0) 11897. F 0.00
expand: MAIN (1, 0) FAR  w(0) 5385.
	create_child: MAIN (0, 2) FAR 11844 U 0.00
expand: MAIN (0, 0) FAR  w(0) 11844. F 0.00
expand: MAIN (1, 0) FAR  w(0) 5385. F 0.01
expand: query!0 (2, 0) FAR  w(0) 1. F 0.00
(spacer::context::check_reachability :time 0.03 :before-memory 6.65 :after-memory 7.40)
Propagating: 0 1 2  ! 3 
(spacer::context::propagate :time 0.00 :before-memory 7.40 :after-memory 7.52)
Entering level 3
BRUNCH_STAT max_query_lvl 2
BRUNCH_STAT num_queries 9
BRUNCH_STAT num_reach_queries 0
BRUNCH_STAT num_reach_reuse 0
BRUNCH_STAT inductive_lvl 0
BRUNCH_STAT max_depth 3
BRUNCH_STAT cex_depth 0
expand: query!0 (3, 0) FAR  w(0) 1.
	create_child: MAIN (2, 3) FAR 5385 U 0.00
expand: MAIN (2, 0) FAR  w(0) 5385.
	create_child: MAIN (1, 3) FAR 14506 U 0.00
expand: MAIN (1, 0) FAR  w(0) 14506. F 0.00
expand: MAIN (2, 0) FAR  w(0) 5385.
	create_child: MAIN (1, 3) FAR 14440 U 0.00
expand: MAIN (1, 0) FAR  w(0) 14440. F 0.00
expand: MAIN (2, 0) FAR  w(0) 5385.
	create_child: MAIN (1, 3) FAR 11844 U 0.00
expand: MAIN (1, 0) FAR  w(0) 11844. F 0.00
expand: MAIN (2, 0) FAR  w(0) 5385.
	create_child: MAIN (1, 3) FAR 14944 U 0.00
expand: MAIN (1, 0) FAR  w(0) 14944. F 0.00
expand: MAIN (2, 0) FAR  w(0) 5385. F 0.01
expand: query!0 (3, 0) FAR  w(0) 1. F 0.00
(spacer::context::check_reachability :time 0.02 :before-memory 7.52 :after-memory 7.74)
Propagating: 1 
(spacer::context::propagate :time 0.00 :before-memory 7.74 :after-memory 7.74)
(define-fun MAIN ((x!0 Int)
 (x!1 Int)
 (x!2 Bool)
 (x!3 Bool)
 (x!4 Int)
 (x!5 Int)
 (x!6 Int)
 (x!7 Int)
 (x!8 Int)
 (x!9 Int)
 (x!10 Bool)
 (x!11 Bool)
 (x!12 Bool)
 (x!13 Bool)) Bool
  (let ((a!1 (or (>= (+ x!4 x!5 x!6 x!7 x!8 (* (- 1) x!1)) 0) (not x!11)))
        (a!2 (or (<= (+ x!4 x!5 x!6 x!7 x!8 (* (- 1) x!1)) 0) (not x!11))))
    (and a!1
         x!13
         (not x!12)
         (not x!10)
         (not x!3)
         (not x!2)
         (>= x!7 0)
         (not (>= x!7 2))
         (= (+ x!4 x!5 x!6 x!7 x!8 (* (- 1) x!0)) 0)
         a!2)))
BRUNCH_STAT max_query_lvl 3
BRUNCH_STAT num_queries 14
BRUNCH_STAT num_reach_queries 0
BRUNCH_STAT num_reach_reuse 0
BRUNCH_STAT inductive_lvl 1
BRUNCH_STAT max_depth 3
BRUNCH_STAT cex_depth 0
(:SPACER-inductive-level               1
 :SPACER-max-depth                     3
 :SPACER-max-query-lvl                 3
 :SPACER-num-invariants                11
 :SPACER-num-lemmas                    18
 :SPACER-num-properties                13
 :SPACER-num-queries                   14
 :added-eqs                            1526
 :arith-add-rows                       835
 :arith-assert-diseq                   640
 :arith-assert-lower                   1322
 :arith-assert-upper                   1212
 :arith-bound-prop                     204
 :arith-conflicts                      8
 :arith-eq-adapter                     92
 :arith-fixed-eqs                      231
 :arith-offset-eqs                     403
 :arith-pivots                         143
 :bool-inductive-gen                   14
 :bool-inductive-gen-failures          16
 :conflicts                            218
 :decisions                            1768
 :del-clause                           19
 :final-checks                         25
 :minimized-lits                       229
 :mk-bool-var                          801
 :mk-clause                            2265
 :num-checks                           74
 :propagations                         26506
 :time.itp_solver.itp_core             0.01
 :time.spacer.init_rules               0.00
 :time.spacer.init_rules.pt.init       0.00
 :time.spacer.solve                    0.07
 :time.spacer.solve.propagate          0.01
 :time.spacer.solve.reach              0.06
 :time.spacer.solve.reach.children     0.01
 :time.spacer.solve.reach.gen.bool_ind 0.01
 :time.virtual_solver.proof            0.01
 :time.virtual_solver.smt.total        0.05
 :time.virtual_solver.smt.total.sat    0.02
 :virtual_solver.checks                74
 :virtual_solver.checks.sat            25)
BRUNCH_STAT max_query_lvl 3
BRUNCH_STAT num_queries 14
BRUNCH_STAT num_reach_queries 0
BRUNCH_STAT num_reach_reuse 0
BRUNCH_STAT inductive_lvl 1
BRUNCH_STAT max_depth 3
BRUNCH_STAT cex_depth 0

real	0m0.125s
user	0m0.112s
sys	0m0.012s
