(transform N7datalog13mk_coi_filterE...no-op 0s)
(transform N7datalog25mk_interp_tail_simplifierE...11 rules 0s)
(transform N7datalog27mk_quantifier_instantiationE...no-op 0s)
(transform N7datalog8mk_scaleE...no-op 0s)
(transform N7datalog18mk_karr_invariantsE...no-op 0s)
(transform N7datalog14mk_array_blastE...no-op 0s)
(transform N7datalog22mk_subsumption_checkerE...10 rules 0s)
(transform N7datalog12mk_bit_blastE...no-op 0s)
(transform N7datalog15mk_rule_inlinerE...3 rules 0.00192323s)
(transform N7datalog13mk_coi_filterE...no-op 0s)
(transform N7datalog25mk_interp_tail_simplifierE...3 rules 0s)
(transform N7datalog22mk_subsumption_checkerE...no-op 0s)
(transform N7datalog15mk_rule_inlinerE...no-op 0s)
(transform N7datalog13mk_coi_filterE...no-op 0s)
(transform N7datalog25mk_interp_tail_simplifierE...3 rules 0s)
(transform N7datalog22mk_subsumption_checkerE...no-op 0s)
(transform N7datalog15mk_rule_inlinerE...no-op 0s)
(transform N7datalog22mk_subsumption_checkerE...no-op 0s)
(transform N7datalog15mk_rule_inlinerE...no-op 0s)
(transform N7datalog22mk_subsumption_checkerE...no-op 0s)
(transform N7datalog15mk_rule_inlinerE...no-op 0s)
(transform N7datalog22mk_subsumption_checkerE...no-op 0s)
(transform N7datalog8mk_sliceE...no-op 0s)
expand: query!0 (0, 0) FAR  w(0) 1. F 0.00
(spacer::context::check_reachability :time 0.00 :before-memory 4.20 :after-memory 4.79)
Entering level 1
BRUNCH_STAT max_query_lvl 0
BRUNCH_STAT num_queries 0
BRUNCH_STAT num_reach_queries 0
BRUNCH_STAT num_reach_reuse 0
BRUNCH_STAT inductive_lvl 0
BRUNCH_STAT max_depth 1
BRUNCH_STAT cex_depth 0
expand: query!0 (1, 0) FAR  w(0) 1.
	create_child: MAIN (0, 1) FAR 1278 U 0.00
expand: MAIN (0, 0) FAR  w(0) 1278. F 0.00
expand: query!0 (1, 0) FAR  w(0) 1. F 0.00
(spacer::context::check_reachability :time 0.00 :before-memory 4.79 :after-memory 5.32)
Propagating: 0 1  ! 2 
(spacer::context::propagate :time 0.00 :before-memory 5.32 :after-memory 5.32)
Entering level 2
BRUNCH_STAT max_query_lvl 1
BRUNCH_STAT num_queries 1
BRUNCH_STAT num_reach_queries 0
BRUNCH_STAT num_reach_reuse 0
BRUNCH_STAT inductive_lvl 0
BRUNCH_STAT max_depth 2
BRUNCH_STAT cex_depth 0
expand: query!0 (2, 0) FAR  w(0) 1.
	create_child: MAIN (1, 2) FAR 1278 U 0.00
expand: MAIN (1, 0) FAR  w(0) 1278.
	create_child: MAIN (0, 2) FAR 2166 U 0.00
expand: MAIN (0, 0) FAR  w(0) 2166. F 0.00
expand: MAIN (1, 0) FAR  w(0) 1278. F 0.00
expand: query!0 (2, 0) FAR  w(0) 1. F 0.00
(spacer::context::check_reachability :time 0.00 :before-memory 5.32 :after-memory 5.32)
Propagating: 0 
(spacer::context::propagate :time 0.00 :before-memory 5.32 :after-memory 5.32)
(define-fun MAIN ((x!0 Int)
 (x!1 Int)
 (x!2 Bool)
 (x!3 Bool)
 (x!4 Bool)
 (x!5 Int)
 (x!6 Bool)
 (x!7 Bool)
 (x!8 Int)
 (x!9 Bool)
 (x!10 Bool)
 (x!11 Bool)) Bool
  (and (<= x!5 0) x!11))
BRUNCH_STAT max_query_lvl 2
BRUNCH_STAT num_queries 3
BRUNCH_STAT num_reach_queries 0
BRUNCH_STAT num_reach_reuse 0
BRUNCH_STAT inductive_lvl 0
BRUNCH_STAT max_depth 2
BRUNCH_STAT cex_depth 0
(:SPACER-max-depth                     2
 :SPACER-max-query-lvl                 2
 :SPACER-num-invariants                3
 :SPACER-num-lemmas                    6
 :SPACER-num-properties                3
 :SPACER-num-queries                   3
 :added-eqs                            23
 :arith-add-rows                       30
 :arith-assert-diseq                   5
 :arith-assert-lower                   35
 :arith-assert-upper                   18
 :arith-bound-prop                     9
 :arith-conflicts                      1
 :arith-eq-adapter                     12
 :arith-fixed-eqs                      6
 :arith-offset-eqs                     6
 :arith-pivots                         10
 :bool-inductive-gen                   3
 :bool-inductive-gen-failures          3
 :conflicts                            14
 :decisions                            63
 :del-clause                           6
 :final-checks                         5
 :mk-bool-var                          182
 :mk-clause                            249
 :num-checks                           16
 :propagations                         487
 :time.itp_solver.itp_core             0.00
 :time.spacer.init_rules               0.00
 :time.spacer.init_rules.pt.init       0.00
 :time.spacer.solve                    0.01
 :time.spacer.solve.propagate          0.00
 :time.spacer.solve.reach              0.01
 :time.spacer.solve.reach.children     0.00
 :time.spacer.solve.reach.gen.bool_ind 0.00
 :time.virtual_solver.proof            0.00
 :time.virtual_solver.smt.total        0.00
 :time.virtual_solver.smt.total.sat    0.00
 :virtual_solver.checks                16
 :virtual_solver.checks.sat            5)
BRUNCH_STAT max_query_lvl 2
BRUNCH_STAT num_queries 3
BRUNCH_STAT num_reach_queries 0
BRUNCH_STAT num_reach_reuse 0
BRUNCH_STAT inductive_lvl 0
BRUNCH_STAT max_depth 2
BRUNCH_STAT cex_depth 0

real	0m0.027s
user	0m0.024s
sys	0m0.000s
