(transform N7datalog13mk_coi_filterE...no-op 0s)
(transform N7datalog25mk_interp_tail_simplifierE...11 rules 0s)
(transform N7datalog27mk_quantifier_instantiationE...no-op 0s)
(transform N7datalog8mk_scaleE...no-op 0s)
(transform N7datalog18mk_karr_invariantsE...no-op 0s)
(transform N7datalog14mk_array_blastE...no-op 0s)
(transform N7datalog22mk_subsumption_checkerE...10 rules 0s)
(transform N7datalog12mk_bit_blastE...no-op 0s)
(transform N7datalog15mk_rule_inlinerE...3 rules 0.00266814s)
(transform N7datalog13mk_coi_filterE...no-op 0s)
(transform N7datalog25mk_interp_tail_simplifierE...3 rules 0s)
(transform N7datalog22mk_subsumption_checkerE...no-op 0s)
(transform N7datalog15mk_rule_inlinerE...no-op 0s)
(transform N7datalog13mk_coi_filterE...no-op 0s)
(transform N7datalog25mk_interp_tail_simplifierE...3 rules 0s)
(transform N7datalog22mk_subsumption_checkerE...no-op 0s)
(transform N7datalog15mk_rule_inlinerE...no-op 0s)
(transform N7datalog22mk_subsumption_checkerE...no-op 0s)
(transform N7datalog15mk_rule_inlinerE...no-op 0s)
(transform N7datalog22mk_subsumption_checkerE...no-op 0s)
(transform N7datalog15mk_rule_inlinerE...no-op 0s)
(transform N7datalog22mk_subsumption_checkerE...no-op 0s)
(transform N7datalog8mk_sliceE...no-op 0s)
expand: query!0 (0, 0) FAR  w(0) 1. F 0.00
(spacer::context::check_reachability :time 0.00 :before-memory 4.20 :after-memory 4.73)
Entering level 1
BRUNCH_STAT max_query_lvl 0
BRUNCH_STAT num_queries 0
BRUNCH_STAT num_reach_queries 0
BRUNCH_STAT num_reach_reuse 0
BRUNCH_STAT inductive_lvl 0
BRUNCH_STAT max_depth 1
BRUNCH_STAT cex_depth 0
expand: query!0 (1, 0) FAR  w(0) 1.
	create_child: MAIN (0, 1) FAR 1437 U 0.00
expand: MAIN (0, 0) FAR  w(0) 1437. F 0.00
expand: query!0 (1, 0) FAR  w(0) 1. F 0.00
(spacer::context::check_reachability :time 0.00 :before-memory 4.73 :after-memory 5.36)
Propagating: 0 1  ! 2 
(spacer::context::propagate :time 0.00 :before-memory 5.36 :after-memory 5.36)
Entering level 2
BRUNCH_STAT max_query_lvl 1
BRUNCH_STAT num_queries 1
BRUNCH_STAT num_reach_queries 0
BRUNCH_STAT num_reach_reuse 0
BRUNCH_STAT inductive_lvl 0
BRUNCH_STAT max_depth 2
BRUNCH_STAT cex_depth 0
expand: query!0 (2, 0) FAR  w(0) 1.
	create_child: MAIN (1, 2) FAR 1437 U 0.00
expand: MAIN (1, 0) FAR  w(0) 1437.
	create_child: MAIN (0, 2) FAR 2385 U 0.00
expand: MAIN (0, 0) FAR  w(0) 2385. F 0.00
expand: MAIN (1, 0) FAR  w(0) 1437.
	create_child: MAIN (0, 2) FAR 2441 U 0.00
expand: MAIN (0, 0) FAR  w(0) 2441. F 0.00
expand: MAIN (1, 0) FAR  w(0) 1437.
	create_child: MAIN (0, 2) FAR 2637 U 0.00
expand: MAIN (0, 0) FAR  w(0) 2637. F 0.00
expand: MAIN (1, 0) FAR  w(0) 1437.
	create_child: MAIN (0, 2) FAR 2813 U 0.00
expand: MAIN (0, 0) FAR  w(0) 2813. F 0.00
expand: MAIN (1, 0) FAR  w(0) 1437.
	create_child: MAIN (0, 2) FAR 2816 U 0.00
expand: MAIN (0, 0) FAR  w(0) 2816. F 0.00
expand: MAIN (1, 0) FAR  w(0) 1437.
	create_child: MAIN (0, 2) FAR 2928 U 0.00
expand: MAIN (0, 0) FAR  w(0) 2928. F 0.00
expand: MAIN (1, 0) FAR  w(0) 1437.
	create_child: MAIN (0, 2) FAR 3159 U 0.00
expand: MAIN (0, 0) FAR  w(0) 3159. F 0.00
expand: MAIN (1, 0) FAR  w(0) 1437.
	create_child: MAIN (0, 2) FAR 3203 U 0.00
expand: MAIN (0, 0) FAR  w(0) 3203. F 0.00
expand: MAIN (1, 0) FAR  w(0) 1437.
	create_child: MAIN (0, 2) FAR 3204 U 0.00
expand: MAIN (0, 0) FAR  w(0) 3204. F 0.00
expand: MAIN (1, 0) FAR  w(0) 1437. F 0.00
expand: query!0 (2, 0) FAR  w(0) 1. F 0.00
(spacer::context::check_reachability :time 0.02 :before-memory 5.36 :after-memory 5.53)
Propagating: 0 1 
(spacer::context::propagate :time 0.00 :before-memory 5.53 :after-memory 5.62)
(define-fun MAIN ((x!0 Int)
 (x!1 Bool)
 (x!2 Int)
 (x!3 Bool)
 (x!4 Bool)
 (x!5 Bool)
 (x!6 Bool)
 (x!7 Int)
 (x!8 Bool)
 (x!9 Bool)
 (x!10 Int)
 (x!11 Bool)
 (x!12 Bool)
 (x!13 Bool)) Bool
  (and (or (not (<= x!0 0)) (not x!4))
       x!13
       (not x!11)
       (not x!12)
       (not x!8)
       (<= x!2 0)
       (or (not x!1) x!6)
       (or (not x!6) (not x!9) x!1)))
BRUNCH_STAT max_query_lvl 2
BRUNCH_STAT num_queries 11
BRUNCH_STAT num_reach_queries 0
BRUNCH_STAT num_reach_reuse 0
BRUNCH_STAT inductive_lvl 1
BRUNCH_STAT max_depth 2
BRUNCH_STAT cex_depth 0
(:SPACER-inductive-level               1
 :SPACER-max-depth                     2
 :SPACER-max-query-lvl                 2
 :SPACER-num-invariants                10
 :SPACER-num-lemmas                    14
 :SPACER-num-properties                10
 :SPACER-num-queries                   11
 :added-eqs                            274
 :arith-add-rows                       63
 :arith-assert-diseq                   55
 :arith-assert-lower                   240
 :arith-assert-upper                   224
 :arith-bound-prop                     22
 :arith-conflicts                      7
 :arith-eq-adapter                     41
 :arith-fixed-eqs                      21
 :arith-offset-eqs                     113
 :arith-pivots                         43
 :bool-inductive-gen                   11
 :bool-inductive-gen-failures          16
 :conflicts                            46
 :decisions                            765
 :del-clause                           23
 :final-checks                         23
 :mk-bool-var                          380
 :mk-clause                            419
 :num-checks                           61
 :propagations                         3526
 :time.itp_solver.itp_core             0.00
 :time.spacer.init_rules               0.00
 :time.spacer.init_rules.pt.init       0.00
 :time.spacer.solve                    0.02
 :time.spacer.solve.propagate          0.00
 :time.spacer.solve.reach              0.02
 :time.spacer.solve.reach.children     0.00
 :time.spacer.solve.reach.gen.bool_ind 0.00
 :time.virtual_solver.proof            0.00
 :time.virtual_solver.smt.total        0.01
 :time.virtual_solver.smt.total.sat    0.01
 :virtual_solver.checks                61
 :virtual_solver.checks.sat            23)
BRUNCH_STAT max_query_lvl 2
BRUNCH_STAT num_queries 11
BRUNCH_STAT num_reach_queries 0
BRUNCH_STAT num_reach_reuse 0
BRUNCH_STAT inductive_lvl 1
BRUNCH_STAT max_depth 2
BRUNCH_STAT cex_depth 0

real	0m0.049s
user	0m0.048s
sys	0m0.000s
