(transform N7datalog13mk_coi_filterE...no-op 0s)
(transform N7datalog25mk_interp_tail_simplifierE...12 rules 0s)
(transform N7datalog27mk_quantifier_instantiationE...no-op 0s)
(transform N7datalog8mk_scaleE...no-op 0s)
(transform N7datalog18mk_karr_invariantsE...no-op 0s)
(transform N7datalog14mk_array_blastE...no-op 0s)
(transform N7datalog22mk_subsumption_checkerE...11 rules 0s)
(transform N7datalog12mk_bit_blastE...no-op 0s)
(transform N7datalog15mk_rule_inlinerE...3 rules 0.00310391s)
(transform N7datalog13mk_coi_filterE...no-op 0s)
(transform N7datalog25mk_interp_tail_simplifierE...3 rules 0s)
(transform N7datalog22mk_subsumption_checkerE...no-op 0s)
(transform N7datalog15mk_rule_inlinerE...no-op 0s)
(transform N7datalog13mk_coi_filterE...no-op 0s)
(transform N7datalog25mk_interp_tail_simplifierE...3 rules 0s)
(transform N7datalog22mk_subsumption_checkerE...no-op 0s)
(transform N7datalog15mk_rule_inlinerE...no-op 0s)
(transform N7datalog22mk_subsumption_checkerE...no-op 0s)
(transform N7datalog15mk_rule_inlinerE...no-op 0s)
(transform N7datalog22mk_subsumption_checkerE...no-op 0s)
(transform N7datalog15mk_rule_inlinerE...no-op 0s)
(transform N7datalog22mk_subsumption_checkerE...no-op 0s)
(transform N7datalog8mk_sliceE...no-op 0s)
expand: query!0 (0, 0) FAR  w(0) 1. F 0.00
(spacer::context::check_reachability :time 0.00 :before-memory 4.37 :after-memory 4.95)
Entering level 1
BRUNCH_STAT max_query_lvl 0
BRUNCH_STAT num_queries 0
BRUNCH_STAT num_reach_queries 0
BRUNCH_STAT num_reach_reuse 0
BRUNCH_STAT inductive_lvl 0
BRUNCH_STAT max_depth 1
BRUNCH_STAT cex_depth 0
expand: query!0 (1, 0) FAR  w(0) 1.
	create_child: MAIN (0, 1) FAR 3141 U 0.00
expand: MAIN (0, 0) FAR  w(0) 3141. F 0.00
expand: query!0 (1, 0) FAR  w(0) 1. F 0.00
(spacer::context::check_reachability :time 0.00 :before-memory 4.95 :after-memory 5.85)
Propagating: 0 1  ! 2 
(spacer::context::propagate :time 0.00 :before-memory 5.85 :after-memory 5.85)
Entering level 2
BRUNCH_STAT max_query_lvl 1
BRUNCH_STAT num_queries 1
BRUNCH_STAT num_reach_queries 0
BRUNCH_STAT num_reach_reuse 0
BRUNCH_STAT inductive_lvl 0
BRUNCH_STAT max_depth 2
BRUNCH_STAT cex_depth 0
expand: query!0 (2, 0) FAR  w(0) 1.
	create_child: MAIN (1, 2) FAR 3141 U 0.00
expand: MAIN (1, 0) FAR  w(0) 3141.
	create_child: MAIN (0, 2) FAR 5795 U 0.00
expand: MAIN (0, 0) FAR  w(0) 5795. F 0.00
expand: MAIN (1, 0) FAR  w(0) 3141. F 0.00
expand: query!0 (2, 0) FAR  w(0) 1. F 0.00
(spacer::context::check_reachability :time 0.00 :before-memory 5.85 :after-memory 6.14)
Propagating: 0 1 2  ! 3 
(spacer::context::propagate :time 0.00 :before-memory 6.14 :after-memory 6.14)
Entering level 3
BRUNCH_STAT max_query_lvl 2
BRUNCH_STAT num_queries 3
BRUNCH_STAT num_reach_queries 0
BRUNCH_STAT num_reach_reuse 0
BRUNCH_STAT inductive_lvl 0
BRUNCH_STAT max_depth 3
BRUNCH_STAT cex_depth 0
expand: query!0 (3, 0) FAR  w(0) 1.
	create_child: MAIN (2, 3) FAR 3141 U 0.00
expand: MAIN (2, 0) FAR  w(0) 3141.
	create_child: MAIN (1, 3) FAR 6161 U 0.00
expand: MAIN (1, 0) FAR  w(0) 6161. F 0.00
expand: MAIN (2, 0) FAR  w(0) 3141.
	create_child: MAIN (1, 3) FAR 6326 U 0.00
expand: MAIN (1, 0) FAR  w(0) 6326. F 0.00
expand: MAIN (2, 0) FAR  w(0) 3141.
	create_child: MAIN (1, 3) FAR 6293 U 0.00
expand: MAIN (1, 0) FAR  w(0) 6293.
	create_child: MAIN (0, 3) FAR 6347 U 0.00
expand: MAIN (0, 0) FAR  w(0) 6347. F 0.00
expand: MAIN (1, 0) FAR  w(0) 6293. F 0.00
expand: MAIN (2, 0) FAR  w(0) 3141. F 0.00
expand: query!0 (3, 0) FAR  w(0) 1. F 0.00
(spacer::context::check_reachability :time 0.01 :before-memory 6.14 :after-memory 6.31)
Propagating: 0 1 2 3  ! 4 
(spacer::context::propagate :time 0.00 :before-memory 6.31 :after-memory 6.31)
Entering level 4
BRUNCH_STAT max_query_lvl 3
BRUNCH_STAT num_queries 8
BRUNCH_STAT num_reach_queries 0
BRUNCH_STAT num_reach_reuse 0
BRUNCH_STAT inductive_lvl 0
BRUNCH_STAT max_depth 4
BRUNCH_STAT cex_depth 0
expand: query!0 (4, 0) FAR  w(0) 1.
	create_child: MAIN (3, 4) FAR 3141 U 0.00
expand: MAIN (3, 0) FAR  w(0) 3141.
	create_child: MAIN (2, 4) FAR 7007 U 0.00
expand: MAIN (2, 0) FAR  w(0) 7007. F 0.00
expand: MAIN (3, 0) FAR  w(0) 3141.
	create_child: MAIN (2, 4) FAR 7293 U 0.00
expand: MAIN (2, 0) FAR  w(0) 7293.
	create_child: MAIN (1, 4) FAR 7348 U 0.00
expand: MAIN (1, 0) FAR  w(0) 7348.
	create_child: MAIN (0, 4) FAR 7260 U 0.00
expand: MAIN (0, 0) FAR  w(0) 7260. F 0.00
expand: MAIN (1, 0) FAR  w(0) 7348. F 0.00
expand: MAIN (2, 0) FAR  w(0) 7293. F 0.00
expand: MAIN (3, 0) FAR  w(0) 3141.
	create_child: MAIN (2, 4) FAR 6293 U 0.00
expand: MAIN (2, 0) FAR  w(0) 6293.
	create_child: MAIN (1, 4) FAR 6347 U 0.00
expand: MAIN (1, 0) FAR  w(0) 6347. F 0.00
expand: MAIN (2, 0) FAR  w(0) 6293. F 0.00
expand: MAIN (3, 0) FAR  w(0) 3141. F 0.00
expand: query!0 (4, 0) FAR  w(0) 1. F 0.00
(spacer::context::check_reachability :time 0.02 :before-memory 6.31 :after-memory 6.45)
Propagating: 0 1 2 3 4  ! 5 
(spacer::context::propagate :time 0.01 :before-memory 6.45 :after-memory 6.45)
Entering level 5
BRUNCH_STAT max_query_lvl 4
BRUNCH_STAT num_queries 15
BRUNCH_STAT num_reach_queries 0
BRUNCH_STAT num_reach_reuse 0
BRUNCH_STAT inductive_lvl 0
BRUNCH_STAT max_depth 5
BRUNCH_STAT cex_depth 0
expand: query!0 (5, 0) FAR  w(0) 1.
	create_child: MAIN (4, 5) FAR 3141 U 0.00
expand: MAIN (4, 0) FAR  w(0) 3141.
	create_child: MAIN (3, 5) FAR 8815 U 0.00
expand: MAIN (3, 0) FAR  w(0) 8815. F 0.00
expand: MAIN (4, 0) FAR  w(0) 3141.
	create_child: MAIN (3, 5) FAR 7293 U 0.00
expand: MAIN (3, 0) FAR  w(0) 7293.
	create_child: MAIN (2, 5) FAR 7348 U 0.00
expand: MAIN (2, 0) FAR  w(0) 7348.
	create_child: MAIN (1, 5) FAR 7260 U 0.00
expand: MAIN (1, 0) FAR  w(0) 7260. F 0.00
expand: MAIN (2, 0) FAR  w(0) 7348. F 0.00
expand: MAIN (3, 0) FAR  w(0) 7293. F 0.00
expand: MAIN (4, 0) FAR  w(0) 3141.
	create_child: MAIN (3, 5) FAR 6293 U 0.00
expand: MAIN (3, 0) FAR  w(0) 6293. F 0.00
expand: MAIN (4, 0) FAR  w(0) 3141. F 0.00
expand: query!0 (5, 0) FAR  w(0) 1. F 0.00
(spacer::context::check_reachability :time 0.02 :before-memory 6.45 :after-memory 6.56)
Propagating: 1 2 3 4 5  ! 6 
(spacer::context::propagate :time 0.01 :before-memory 6.56 :after-memory 6.56)
Entering level 6
BRUNCH_STAT max_query_lvl 5
BRUNCH_STAT num_queries 21
BRUNCH_STAT num_reach_queries 0
BRUNCH_STAT num_reach_reuse 0
BRUNCH_STAT inductive_lvl 0
BRUNCH_STAT max_depth 6
BRUNCH_STAT cex_depth 0
expand: query!0 (6, 0) FAR  w(0) 1.
	create_child: MAIN (5, 6) FAR 3141 U 0.00
expand: MAIN (5, 0) FAR  w(0) 3141.
	create_child: MAIN (4, 6) FAR 6293 U 0.00
expand: MAIN (4, 0) FAR  w(0) 6293.
	create_child: MAIN (3, 6) FAR 6347 U 0.00
expand: MAIN (3, 0) FAR  w(0) 6347. F 0.00
expand: MAIN (4, 0) FAR  w(0) 6293. F 0.00
expand: MAIN (5, 0) FAR  w(0) 3141. F 0.00
expand: query!0 (6, 0) FAR  w(0) 1. F 0.00
(spacer::context::check_reachability :time 0.01 :before-memory 6.56 :after-memory 6.68)
Propagating: 3 4 5 6  ! 7 
(spacer::context::propagate :time 0.00 :before-memory 6.68 :after-memory 6.68)
Entering level 7
BRUNCH_STAT max_query_lvl 6
BRUNCH_STAT num_queries 24
BRUNCH_STAT num_reach_queries 0
BRUNCH_STAT num_reach_reuse 0
BRUNCH_STAT inductive_lvl 0
BRUNCH_STAT max_depth 7
BRUNCH_STAT cex_depth 0
expand: query!0 (7, 0) FAR  w(0) 1.
	create_child: MAIN (6, 7) FAR 3141 U 0.00
expand: MAIN (6, 0) FAR  w(0) 3141.
	create_child: MAIN (5, 7) FAR 6293 U 0.00
expand: MAIN (5, 0) FAR  w(0) 6293.
	create_child: MAIN (4, 7) FAR 11086 U 0.00
expand: MAIN (4, 0) FAR  w(0) 11086. F 0.00
expand: MAIN (5, 0) FAR  w(0) 6293.
	create_child: MAIN (4, 7) FAR 6347 U 0.00
expand: MAIN (4, 0) FAR  w(0) 6347. F 0.00
expand: MAIN (5, 0) FAR  w(0) 6293. F 0.00
expand: MAIN (6, 0) FAR  w(0) 3141. F 0.00
expand: query!0 (7, 0) FAR  w(0) 1. F 0.00
(spacer::context::check_reachability :time 0.01 :before-memory 6.68 :after-memory 6.79)
Propagating: 4 5 6 7  ! 8 
(spacer::context::propagate :time 0.00 :before-memory 6.79 :after-memory 6.79)
Entering level 8
BRUNCH_STAT max_query_lvl 7
BRUNCH_STAT num_queries 28
BRUNCH_STAT num_reach_queries 0
BRUNCH_STAT num_reach_reuse 0
BRUNCH_STAT inductive_lvl 0
BRUNCH_STAT max_depth 8
BRUNCH_STAT cex_depth 0
expand: query!0 (8, 0) FAR  w(0) 1.
	create_child: MAIN (7, 8) FAR 3141 U 0.00
expand: MAIN (7, 0) FAR  w(0) 3141.
	create_child: MAIN (6, 8) FAR 7293 U 0.00
expand: MAIN (6, 0) FAR  w(0) 7293.
	create_child: MAIN (5, 8) FAR 7348 U 0.00
expand: MAIN (5, 0) FAR  w(0) 7348.
	create_child: MAIN (4, 8) FAR 7260 U 0.00
expand: MAIN (4, 0) FAR  w(0) 7260. F 0.00
expand: MAIN (5, 0) FAR  w(0) 7348. F 0.01
expand: MAIN (6, 0) FAR  w(0) 7293. F 0.00
expand: MAIN (7, 0) FAR  w(0) 3141.
	create_child: MAIN (6, 8) FAR 6293 U 0.00
expand: MAIN (6, 0) FAR  w(0) 6293. F 0.00
expand: MAIN (7, 0) FAR  w(0) 3141.
	create_child: MAIN (6, 8) FAR 13083 U 0.00
expand: MAIN (6, 0) FAR  w(0) 13083. F 0.00
expand: MAIN (7, 0) FAR  w(0) 3141.
	create_child: MAIN (6, 8) FAR 7007 U 0.00
expand: MAIN (6, 0) FAR  w(0) 7007. F 0.00
expand: MAIN (7, 0) FAR  w(0) 3141. F 0.00
expand: query!0 (8, 0) FAR  w(0) 1. F 0.00
(spacer::context::check_reachability :time 0.03 :before-memory 6.79 :after-memory 7.26)
Propagating: 4 5 6 7 8  ! 9 
(spacer::context::propagate :time 0.01 :before-memory 7.26 :after-memory 7.26)
Entering level 9
BRUNCH_STAT max_query_lvl 8
BRUNCH_STAT num_queries 35
BRUNCH_STAT num_reach_queries 0
BRUNCH_STAT num_reach_reuse 0
BRUNCH_STAT inductive_lvl 0
BRUNCH_STAT max_depth 9
BRUNCH_STAT cex_depth 0
expand: query!0 (9, 0) FAR  w(0) 1.
	create_child: MAIN (8, 9) FAR 3141 U 0.00
expand: MAIN (8, 0) FAR  w(0) 3141.
	create_child: MAIN (7, 9) FAR 7007 U 0.00
expand: MAIN (7, 0) FAR  w(0) 7007. F 0.00
expand: MAIN (8, 0) FAR  w(0) 3141.
	create_child: MAIN (7, 9) FAR 7293 U 0.00
expand: MAIN (7, 0) FAR  w(0) 7293.
	create_child: MAIN (6, 9) FAR 7348 U 0.00
expand: MAIN (6, 0) FAR  w(0) 7348. F 0.01
expand: MAIN (7, 0) FAR  w(0) 7293. F 0.00
expand: MAIN (8, 0) FAR  w(0) 3141.
	create_child: MAIN (7, 9) FAR 6293 U 0.00
expand: MAIN (7, 0) FAR  w(0) 6293.
	create_child: MAIN (6, 9) FAR 6347 U 0.00
expand: MAIN (6, 0) FAR  w(0) 6347. F 0.00
expand: MAIN (7, 0) FAR  w(0) 6293. F 0.01
expand: MAIN (8, 0) FAR  w(0) 3141. F 0.00
expand: query!0 (9, 0) FAR  w(0) 1. F 0.00
(spacer::context::check_reachability :time 0.03 :before-memory 7.26 :after-memory 7.55)
Propagating: 6 7 8 9  ! 10 
(spacer::context::propagate :time 0.01 :before-memory 7.55 :after-memory 7.55)
Entering level 10
BRUNCH_STAT max_query_lvl 9
BRUNCH_STAT num_queries 41
BRUNCH_STAT num_reach_queries 0
BRUNCH_STAT num_reach_reuse 0
BRUNCH_STAT inductive_lvl 0
BRUNCH_STAT max_depth 10
BRUNCH_STAT cex_depth 0
expand: query!0 (10, 0) FAR  w(0) 1.
	create_child: MAIN (9, 10) FAR 3141 U 0.00
expand: MAIN (9, 0) FAR  w(0) 3141.
	create_child: MAIN (8, 10) FAR 7007 U 0.00
expand: MAIN (8, 0) FAR  w(0) 7007.
	create_child: MAIN (7, 10) FAR 16058 U 0.00
expand: MAIN (7, 0) FAR  w(0) 16058. F 0.00
expand: MAIN (8, 0) FAR  w(0) 7007. F 0.00
expand: MAIN (9, 0) FAR  w(0) 3141.
	create_child: MAIN (8, 10) FAR 7293 U 0.00
expand: MAIN (8, 0) FAR  w(0) 7293.
	create_child: MAIN (7, 10) FAR 16324 U 0.00
expand: MAIN (7, 0) FAR  w(0) 16324.
	create_child: MAIN (6, 10) FAR 16372 U 0.00
expand: MAIN (6, 0) FAR  w(0) 16372. F 0.00
expand: MAIN (7, 0) FAR  w(0) 16324. F 0.00
expand: MAIN (8, 0) FAR  w(0) 7293.
	create_child: MAIN (7, 10) FAR 7348 U 0.00
expand: MAIN (7, 0) FAR  w(0) 7348. F 0.01
expand: MAIN (8, 0) FAR  w(0) 7293. F 0.00
expand: MAIN (9, 0) FAR  w(0) 3141.
	create_child: MAIN (8, 10) FAR 6293 U 0.00
expand: MAIN (8, 0) FAR  w(0) 6293.
	create_child: MAIN (7, 10) FAR 6347 U 0.00
expand: MAIN (7, 0) FAR  w(0) 6347. F 0.00
expand: MAIN (8, 0) FAR  w(0) 6293. F 0.00
expand: MAIN (9, 0) FAR  w(0) 3141. F 0.00
expand: query!0 (10, 0) FAR  w(0) 1. F 0.00
(spacer::context::check_reachability :time 0.04 :before-memory 7.55 :after-memory 7.77)
Propagating: 6 7 8 9 10  ! 11 
(spacer::context::propagate :time 0.01 :before-memory 7.77 :after-memory 7.77)
Entering level 11
BRUNCH_STAT max_query_lvl 10
BRUNCH_STAT num_queries 50
BRUNCH_STAT num_reach_queries 0
BRUNCH_STAT num_reach_reuse 0
BRUNCH_STAT inductive_lvl 0
BRUNCH_STAT max_depth 11
BRUNCH_STAT cex_depth 0
expand: query!0 (11, 0) FAR  w(0) 1.
	create_child: MAIN (10, 11) FAR 3141 U 0.00
expand: MAIN (10, 0) FAR  w(0) 3141.
	create_child: MAIN (9, 11) FAR 6293 U 0.00
expand: MAIN (9, 0) FAR  w(0) 6293.
	create_child: MAIN (8, 11) FAR 6347 U 0.00
expand: MAIN (8, 0) FAR  w(0) 6347. F 0.00
expand: MAIN (9, 0) FAR  w(0) 6293. F 0.00
expand: MAIN (10, 0) FAR  w(0) 3141.
	create_child: MAIN (9, 11) FAR 7293 U 0.00
expand: MAIN (9, 0) FAR  w(0) 7293.
	create_child: MAIN (8, 11) FAR 7348 U 0.00
expand: MAIN (8, 0) FAR  w(0) 7348.
	create_child: MAIN (7, 11) FAR 7260 U 0.00
expand: MAIN (7, 0) FAR  w(0) 7260. F 0.00
expand: MAIN (8, 0) FAR  w(0) 7348. F 0.01
expand: MAIN (9, 0) FAR  w(0) 7293. F 0.00
expand: MAIN (10, 0) FAR  w(0) 3141. F 0.00
expand: query!0 (11, 0) FAR  w(0) 1. F 0.00
(spacer::context::check_reachability :time 0.03 :before-memory 7.77 :after-memory 8.04)
Propagating: 7 8 9 10 11  ! 12 
(spacer::context::propagate :time 0.01 :before-memory 8.04 :after-memory 8.04)
Entering level 12
BRUNCH_STAT max_query_lvl 11
BRUNCH_STAT num_queries 56
BRUNCH_STAT num_reach_queries 0
BRUNCH_STAT num_reach_reuse 0
BRUNCH_STAT inductive_lvl 0
BRUNCH_STAT max_depth 12
BRUNCH_STAT cex_depth 0
expand: query!0 (12, 0) FAR  w(0) 1.
	create_child: MAIN (11, 12) FAR 3141 U 0.00
expand: MAIN (11, 0) FAR  w(0) 3141.
	create_child: MAIN (10, 12) FAR 7293 U 0.00
expand: MAIN (10, 0) FAR  w(0) 7293.
	create_child: MAIN (9, 12) FAR 16324 U 0.00
expand: MAIN (9, 0) FAR  w(0) 16324.
	create_child: MAIN (8, 12) FAR 16372 U 0.00
expand: MAIN (8, 0) FAR  w(0) 16372.
	create_child: MAIN (7, 12) FAR 20480 U 0.00
expand: MAIN (7, 0) FAR  w(0) 20480. F 0.00
expand: MAIN (8, 0) FAR  w(0) 16372. F 0.00
expand: MAIN (9, 0) FAR  w(0) 16324. F 0.00
expand: MAIN (10, 0) FAR  w(0) 7293.
	create_child: MAIN (9, 12) FAR 7348 U 0.00
expand: MAIN (9, 0) FAR  w(0) 7348.
	create_child: MAIN (8, 12) FAR 7260 U 0.00
expand: MAIN (8, 0) FAR  w(0) 7260. F 0.01
expand: MAIN (9, 0) FAR  w(0) 7348. F 0.01
expand: MAIN (10, 0) FAR  w(0) 7293. F 0.00
expand: MAIN (11, 0) FAR  w(0) 3141. F 0.00
expand: query!0 (12, 0) FAR  w(0) 1. F 0.00
(spacer::context::check_reachability :time 0.04 :before-memory 8.04 :after-memory 8.24)
Propagating: 7 8 9 10 11 12  ! 13 
(spacer::context::propagate :time 0.01 :before-memory 8.24 :after-memory 8.24)
Entering level 13
BRUNCH_STAT max_query_lvl 12
BRUNCH_STAT num_queries 63
BRUNCH_STAT num_reach_queries 0
BRUNCH_STAT num_reach_reuse 0
BRUNCH_STAT inductive_lvl 0
BRUNCH_STAT max_depth 13
BRUNCH_STAT cex_depth 0
expand: query!0 (13, 0) FAR  w(0) 1.
	create_child: MAIN (12, 13) FAR 3141 U 0.00
expand: MAIN (12, 0) FAR  w(0) 3141.
	create_child: MAIN (11, 13) FAR 7293 U 0.00
expand: MAIN (11, 0) FAR  w(0) 7293.
	create_child: MAIN (10, 13) FAR 16324 U 0.00
expand: MAIN (10, 0) FAR  w(0) 16324.
	create_child: MAIN (9, 13) FAR 16372 U 0.00
expand: MAIN (9, 0) FAR  w(0) 16372.
	create_child: MAIN (8, 13) FAR 20480 U 0.00
expand: MAIN (8, 0) FAR  w(0) 20480.
	create_child: MAIN (7, 13) FAR 23138 U 0.00
expand: MAIN (7, 0) FAR  w(0) 23138. F 0.00
expand: MAIN (8, 0) FAR  w(0) 20480. F 0.01
expand: MAIN (9, 0) FAR  w(0) 16372. F 0.01
expand: MAIN (10, 0) FAR  w(0) 16324. F 0.00
expand: MAIN (11, 0) FAR  w(0) 7293.
	create_child: MAIN (10, 13) FAR 7348 U 0.00
expand: MAIN (10, 0) FAR  w(0) 7348.
	create_child: MAIN (9, 13) FAR 7260 U 0.00
expand: MAIN (9, 0) FAR  w(0) 7260. F 0.01
expand: MAIN (10, 0) FAR  w(0) 7348. F 0.01
expand: MAIN (11, 0) FAR  w(0) 7293. F 0.00
expand: MAIN (12, 0) FAR  w(0) 3141. F 0.00
expand: query!0 (13, 0) FAR  w(0) 1. F 0.00
(spacer::context::check_reachability :time 0.06 :before-memory 8.24 :after-memory 9.17)
Propagating: 7 
(spacer::context::propagate :time 0.00 :before-memory 9.17 :after-memory 9.17)
(define-fun MAIN ((x!0 Int)
 (x!1 Int)
 (x!2 Int)
 (x!3 Int)
 (x!4 Int)
 (x!5 Int)
 (x!6 Bool)
 (x!7 Bool)
 (x!8 Bool)
 (x!9 Bool)) Bool
  (let ((a!1 (or (not (>= (+ x!0 x!1) 3)) (not x!7) (not (>= x!1 2))))
        (a!2 (or (not (>= (+ x!0 x!1) 2)) (not x!7) (<= x!3 0) (<= x!1 0))))
    (and (or (not (>= x!1 3)) (not x!7))
         x!9
         (not x!8)
         (or (<= x!0 0) (not x!7) (not (>= x!3 2)))
         (<= x!2 0)
         a!1
         (or (not (>= x!3 3)) (not x!7))
         a!2
         (or (<= x!1 0) (not x!7) (not (>= x!3 2)))
         (or (not (>= x!1 2)) (not x!7) (<= x!3 0)))))
BRUNCH_STAT max_query_lvl 13
BRUNCH_STAT num_queries 71
BRUNCH_STAT num_reach_queries 0
BRUNCH_STAT num_reach_reuse 0
BRUNCH_STAT inductive_lvl 7
BRUNCH_STAT max_depth 13
BRUNCH_STAT cex_depth 0
(:SPACER-inductive-level               7
 :SPACER-max-depth                     13
 :SPACER-max-query-lvl                 13
 :SPACER-num-invariants                22
 :SPACER-num-lemmas                    85
 :SPACER-num-properties                23
 :SPACER-num-queries                   71
 :added-eqs                            7825
 :arith-add-rows                       1648
 :arith-assert-diseq                   5612
 :arith-assert-lower                   12259
 :arith-assert-upper                   10133
 :arith-bound-prop                     258
 :arith-conflicts                      35
 :arith-eq-adapter                     1642
 :arith-fixed-eqs                      1488
 :arith-offset-eqs                     507
 :arith-pivots                         922
 :bool-inductive-gen                   71
 :bool-inductive-gen-failures          171
 :conflicts                            760
 :decisions                            31628
 :del-clause                           785
 :final-checks                         337
 :minimized-lits                       865
 :mk-bool-var                          4215
 :mk-clause                            3043
 :num-checks                           685
 :propagations                         177284
 :time.itp_solver.itp_core             0.06
 :time.spacer.init_rules               0.00
 :time.spacer.init_rules.pt.init       0.00
 :time.spacer.solve                    0.39
 :time.spacer.solve.propagate          0.07
 :time.spacer.solve.reach              0.32
 :time.spacer.solve.reach.children     0.04
 :time.spacer.solve.reach.gen.bool_ind 0.12
 :time.virtual_solver.proof            0.04
 :time.virtual_solver.smt.total        0.27
 :time.virtual_solver.smt.total.sat    0.17
 :virtual_solver.checks                685
 :virtual_solver.checks.sat            337)
BRUNCH_STAT max_query_lvl 13
BRUNCH_STAT num_queries 71
BRUNCH_STAT num_reach_queries 0
BRUNCH_STAT num_reach_reuse 0
BRUNCH_STAT inductive_lvl 7
BRUNCH_STAT max_depth 13
BRUNCH_STAT cex_depth 0

real	0m0.432s
user	0m0.424s
sys	0m0.004s
