(transform N7datalog13mk_coi_filterE...no-op 0s)
(transform N7datalog25mk_interp_tail_simplifierE...12 rules 0s)
(transform N7datalog27mk_quantifier_instantiationE...no-op 0s)
(transform N7datalog8mk_scaleE...no-op 0s)
(transform N7datalog18mk_karr_invariantsE...no-op 0s)
(transform N7datalog14mk_array_blastE...no-op 0s)
(transform N7datalog22mk_subsumption_checkerE...11 rules 0s)
(transform N7datalog12mk_bit_blastE...no-op 0s)
(transform N7datalog15mk_rule_inlinerE...3 rules 0.00351342s)
(transform N7datalog13mk_coi_filterE...no-op 0s)
(transform N7datalog25mk_interp_tail_simplifierE...3 rules 0s)
(transform N7datalog22mk_subsumption_checkerE...no-op 0s)
(transform N7datalog15mk_rule_inlinerE...no-op 0s)
(transform N7datalog13mk_coi_filterE...no-op 0s)
(transform N7datalog25mk_interp_tail_simplifierE...3 rules 0s)
(transform N7datalog22mk_subsumption_checkerE...no-op 0s)
(transform N7datalog15mk_rule_inlinerE...no-op 0s)
(transform N7datalog22mk_subsumption_checkerE...no-op 0s)
(transform N7datalog15mk_rule_inlinerE...no-op 0s)
(transform N7datalog22mk_subsumption_checkerE...no-op 0s)
(transform N7datalog15mk_rule_inlinerE...no-op 0s)
(transform N7datalog22mk_subsumption_checkerE...no-op 0s)
(transform N7datalog8mk_sliceE...no-op 0s)
expand: query!0 (0, 0) FAR  w(0) 1. F 0.00
(spacer::context::check_reachability :time 0.00 :before-memory 4.47 :after-memory 4.98)
Entering level 1
BRUNCH_STAT max_query_lvl 0
BRUNCH_STAT num_queries 0
BRUNCH_STAT num_reach_queries 0
BRUNCH_STAT num_reach_reuse 0
BRUNCH_STAT inductive_lvl 0
BRUNCH_STAT max_depth 1
BRUNCH_STAT cex_depth 0
expand: query!0 (1, 0) FAR  w(0) 1.
	create_child: MAIN (0, 1) FAR 3340 U 0.00
expand: MAIN (0, 0) FAR  w(0) 3340. F 0.00
expand: query!0 (1, 0) FAR  w(0) 1. F 0.00
(spacer::context::check_reachability :time 0.00 :before-memory 4.98 :after-memory 5.90)
Propagating: 0 1  ! 2 
(spacer::context::propagate :time 0.00 :before-memory 5.90 :after-memory 6.12)
Entering level 2
BRUNCH_STAT max_query_lvl 1
BRUNCH_STAT num_queries 1
BRUNCH_STAT num_reach_queries 0
BRUNCH_STAT num_reach_reuse 0
BRUNCH_STAT inductive_lvl 0
BRUNCH_STAT max_depth 2
BRUNCH_STAT cex_depth 0
expand: query!0 (2, 0) FAR  w(0) 1.
	create_child: MAIN (1, 2) FAR 3340 U 0.00
expand: MAIN (1, 0) FAR  w(0) 3340.
	create_child: MAIN (0, 2) FAR 7042 U 0.00
expand: MAIN (0, 0) FAR  w(0) 7042. F 0.00
expand: MAIN (1, 0) FAR  w(0) 3340.
	create_child: MAIN (0, 2) FAR 7051 U 0.00
expand: MAIN (0, 0) FAR  w(0) 7051. F 0.00
expand: MAIN (1, 0) FAR  w(0) 3340.
	create_child: MAIN (0, 2) FAR 7173 U 0.00
expand: MAIN (0, 0) FAR  w(0) 7173. F 0.00
expand: MAIN (1, 0) FAR  w(0) 3340.
	create_child: MAIN (0, 2) FAR 7325 U 0.00
expand: MAIN (0, 0) FAR  w(0) 7325. F 0.00
expand: MAIN (1, 0) FAR  w(0) 3340. F 0.00
expand: query!0 (2, 0) FAR  w(0) 1. F 0.00
(spacer::context::check_reachability :time 0.01 :before-memory 6.12 :after-memory 6.42)
Propagating: 0 1 2  ! 3 
(spacer::context::propagate :time 0.00 :before-memory 6.42 :after-memory 6.42)
Entering level 3
BRUNCH_STAT max_query_lvl 2
BRUNCH_STAT num_queries 6
BRUNCH_STAT num_reach_queries 0
BRUNCH_STAT num_reach_reuse 0
BRUNCH_STAT inductive_lvl 0
BRUNCH_STAT max_depth 3
BRUNCH_STAT cex_depth 0
expand: query!0 (3, 0) FAR  w(0) 1.
	create_child: MAIN (2, 3) FAR 3340 U 0.00
expand: MAIN (2, 0) FAR  w(0) 3340.
	create_child: MAIN (1, 3) FAR 8607 U 0.00
expand: MAIN (1, 0) FAR  w(0) 8607. F 0.00
expand: MAIN (2, 0) FAR  w(0) 3340.
	create_child: MAIN (1, 3) FAR 7325 U 0.00
expand: MAIN (1, 0) FAR  w(0) 7325. F 0.00
expand: MAIN (2, 0) FAR  w(0) 3340. F 0.00
expand: query!0 (3, 0) FAR  w(0) 1. F 0.00
(spacer::context::check_reachability :time 0.01 :before-memory 6.42 :after-memory 6.57)
Propagating: 1 
(spacer::context::propagate :time 0.00 :before-memory 6.57 :after-memory 6.57)
(define-fun MAIN ((x!0 Int)
 (x!1 Bool)
 (x!2 Int)
 (x!3 Int)
 (x!4 Int)
 (x!5 Int)
 (x!6 Int)
 (x!7 Int)
 (x!8 Bool)
 (x!9 Bool)
 (x!10 Bool)
 (x!11 Bool)) Bool
  (let ((a!1 (not (<= (+ x!3 x!4 x!5 x!6 (* (- 1) x!0)) (- 2))))
        (a!2 (not (>= (+ x!3 x!4 x!5 x!6 (* (- 1) x!0)) 0))))
    (and (or a!1 (not (<= x!2 1)))
         x!11
         (not x!10)
         (not x!8)
         (= (+ x!2 x!3 x!5 x!6 (* (- 1) x!0)) 0)
         (or a!2 (<= x!2 0)))))
BRUNCH_STAT max_query_lvl 3
BRUNCH_STAT num_queries 9
BRUNCH_STAT num_reach_queries 0
BRUNCH_STAT num_reach_reuse 0
BRUNCH_STAT inductive_lvl 1
BRUNCH_STAT max_depth 3
BRUNCH_STAT cex_depth 0
(:SPACER-inductive-level               1
 :SPACER-max-depth                     3
 :SPACER-max-query-lvl                 3
 :SPACER-num-invariants                7
 :SPACER-num-lemmas                    13
 :SPACER-num-properties                8
 :SPACER-num-queries                   9
 :added-eqs                            700
 :arith-add-rows                       230
 :arith-assert-diseq                   269
 :arith-assert-lower                   599
 :arith-assert-upper                   453
 :arith-bound-prop                     97
 :arith-conflicts                      3
 :arith-eq-adapter                     119
 :arith-fixed-eqs                      88
 :arith-offset-eqs                     76
 :arith-pivots                         66
 :bool-inductive-gen                   9
 :bool-inductive-gen-failures          10
 :conflicts                            115
 :decisions                            885
 :del-clause                           62
 :final-checks                         19
 :minimized-lits                       137
 :mk-bool-var                          570
 :mk-clause                            1283
 :num-checks                           49
 :propagations                         10701
 :time.itp_solver.itp_core             0.01
 :time.spacer.init_rules               0.00
 :time.spacer.init_rules.pt.init       0.00
 :time.spacer.solve                    0.03
 :time.spacer.solve.propagate          0.00
 :time.spacer.solve.reach              0.03
 :time.spacer.solve.reach.children     0.00
 :time.spacer.solve.reach.gen.bool_ind 0.00
 :time.virtual_solver.proof            0.00
 :time.virtual_solver.smt.total        0.02
 :time.virtual_solver.smt.total.sat    0.01
 :virtual_solver.checks                49
 :virtual_solver.checks.sat            19)
BRUNCH_STAT max_query_lvl 3
BRUNCH_STAT num_queries 9
BRUNCH_STAT num_reach_queries 0
BRUNCH_STAT num_reach_reuse 0
BRUNCH_STAT inductive_lvl 1
BRUNCH_STAT max_depth 3
BRUNCH_STAT cex_depth 0

real	0m0.072s
user	0m0.068s
sys	0m0.004s
