(transform N7datalog13mk_coi_filterE...no-op 0s)
(transform N7datalog25mk_interp_tail_simplifierE...12 rules 0s)
(transform N7datalog27mk_quantifier_instantiationE...no-op 0s)
(transform N7datalog8mk_scaleE...no-op 0s)
(transform N7datalog18mk_karr_invariantsE...no-op 0s)
(transform N7datalog14mk_array_blastE...no-op 0s)
(transform N7datalog22mk_subsumption_checkerE...11 rules 0s)
(transform N7datalog12mk_bit_blastE...no-op 0s)
(transform N7datalog15mk_rule_inlinerE...3 rules 0.00314941s)
(transform N7datalog13mk_coi_filterE...no-op 0s)
(transform N7datalog25mk_interp_tail_simplifierE...3 rules 0s)
(transform N7datalog22mk_subsumption_checkerE...no-op 0s)
(transform N7datalog15mk_rule_inlinerE...no-op 0s)
(transform N7datalog13mk_coi_filterE...no-op 0s)
(transform N7datalog25mk_interp_tail_simplifierE...3 rules 0s)
(transform N7datalog22mk_subsumption_checkerE...no-op 0s)
(transform N7datalog15mk_rule_inlinerE...no-op 0s)
(transform N7datalog22mk_subsumption_checkerE...no-op 0s)
(transform N7datalog15mk_rule_inlinerE...no-op 0s)
(transform N7datalog22mk_subsumption_checkerE...no-op 0s)
(transform N7datalog15mk_rule_inlinerE...no-op 0s)
(transform N7datalog22mk_subsumption_checkerE...no-op 0s)
(transform N7datalog8mk_sliceE...no-op 0s)
expand: query!0 (0, 0) FAR  w(0) 1. F 0.00
(spacer::context::check_reachability :time 0.00 :before-memory 4.59 :after-memory 4.96)
Entering level 1
BRUNCH_STAT max_query_lvl 0
BRUNCH_STAT num_queries 0
BRUNCH_STAT num_reach_queries 0
BRUNCH_STAT num_reach_reuse 0
BRUNCH_STAT inductive_lvl 0
BRUNCH_STAT max_depth 1
BRUNCH_STAT cex_depth 0
expand: query!0 (1, 0) FAR  w(0) 1.
	create_child: MAIN (0, 1) FAR 3174 U 0.00
expand: MAIN (0, 0) FAR  w(0) 3174. F 0.00
expand: query!0 (1, 0) FAR  w(0) 1. F 0.00
(spacer::context::check_reachability :time 0.00 :before-memory 4.96 :after-memory 5.89)
Propagating: 0 1  ! 2 
(spacer::context::propagate :time 0.00 :before-memory 5.89 :after-memory 6.10)
Entering level 2
BRUNCH_STAT max_query_lvl 1
BRUNCH_STAT num_queries 1
BRUNCH_STAT num_reach_queries 0
BRUNCH_STAT num_reach_reuse 0
BRUNCH_STAT inductive_lvl 0
BRUNCH_STAT max_depth 2
BRUNCH_STAT cex_depth 0
expand: query!0 (2, 0) FAR  w(0) 1.
	create_child: MAIN (1, 2) FAR 3174 U 0.00
expand: MAIN (1, 0) FAR  w(0) 3174.
	create_child: MAIN (0, 2) FAR 6259 U 0.00
expand: MAIN (0, 0) FAR  w(0) 6259. F 0.00
expand: MAIN (1, 0) FAR  w(0) 3174.
	create_child: MAIN (0, 2) FAR 6285 U 0.00
expand: MAIN (0, 0) FAR  w(0) 6285. F 0.00
expand: MAIN (1, 0) FAR  w(0) 3174. F 0.00
expand: query!0 (2, 0) FAR  w(0) 1. F 0.00
(spacer::context::check_reachability :time 0.01 :before-memory 6.10 :after-memory 6.30)
Propagating: 0 
(spacer::context::propagate :time 0.00 :before-memory 6.30 :after-memory 6.21)
(define-fun MAIN ((x!0 Int)
 (x!1 Int)
 (x!2 Int)
 (x!3 Int)
 (x!4 Int)
 (x!5 Int)
 (x!6 Bool)
 (x!7 Bool)
 (x!8 Bool)
 (x!9 Bool)) Bool
  (and (not x!8) (or (>= x!4 0) (not x!7)) x!9))
BRUNCH_STAT max_query_lvl 2
BRUNCH_STAT num_queries 4
BRUNCH_STAT num_reach_queries 0
BRUNCH_STAT num_reach_reuse 0
BRUNCH_STAT inductive_lvl 0
BRUNCH_STAT max_depth 2
BRUNCH_STAT cex_depth 0
(:SPACER-max-depth                     2
 :SPACER-max-query-lvl                 2
 :SPACER-num-invariants                4
 :SPACER-num-lemmas                    7
 :SPACER-num-properties                4
 :SPACER-num-queries                   4
 :added-eqs                            288
 :arith-add-rows                       35
 :arith-assert-diseq                   82
 :arith-assert-lower                   158
 :arith-assert-upper                   178
 :arith-bound-prop                     49
 :arith-conflicts                      7
 :arith-eq-adapter                     61
 :arith-fixed-eqs                      37
 :arith-offset-eqs                     29
 :arith-pivots                         32
 :bool-inductive-gen                   4
 :bool-inductive-gen-failures          5
 :conflicts                            46
 :decisions                            341
 :del-clause                           49
 :final-checks                         8
 :minimized-lits                       9
 :mk-bool-var                          469
 :mk-clause                            1119
 :num-checks                           22
 :propagations                         3462
 :time.itp_solver.itp_core             0.00
 :time.spacer.init_rules               0.00
 :time.spacer.init_rules.pt.init       0.00
 :time.spacer.solve                    0.01
 :time.spacer.solve.propagate          0.00
 :time.spacer.solve.reach              0.01
 :time.spacer.solve.reach.children     0.00
 :time.spacer.solve.reach.gen.bool_ind 0.00
 :time.virtual_solver.proof            0.00
 :time.virtual_solver.smt.total        0.01
 :time.virtual_solver.smt.total.sat    0.00
 :virtual_solver.checks                22
 :virtual_solver.checks.sat            8)
BRUNCH_STAT max_query_lvl 2
BRUNCH_STAT num_queries 4
BRUNCH_STAT num_reach_queries 0
BRUNCH_STAT num_reach_reuse 0
BRUNCH_STAT inductive_lvl 0
BRUNCH_STAT max_depth 2
BRUNCH_STAT cex_depth 0

real	0m0.040s
user	0m0.032s
sys	0m0.004s
