(transform N7datalog13mk_coi_filterE...no-op 0s)
(transform N7datalog25mk_interp_tail_simplifierE...14 rules 0s)
(transform N7datalog27mk_quantifier_instantiationE...no-op 0s)
(transform N7datalog8mk_scaleE...no-op 0s)
(transform N7datalog18mk_karr_invariantsE...no-op 0s)
(transform N7datalog14mk_array_blastE...no-op 0s)
(transform N7datalog22mk_subsumption_checkerE...13 rules 0s)
(transform N7datalog12mk_bit_blastE...no-op 0s)
(transform N7datalog15mk_rule_inlinerE...3 rules 0.00401684s)
(transform N7datalog13mk_coi_filterE...no-op 0s)
(transform N7datalog25mk_interp_tail_simplifierE...3 rules 0s)
(transform N7datalog22mk_subsumption_checkerE...no-op 0s)
(transform N7datalog15mk_rule_inlinerE...no-op 0s)
(transform N7datalog13mk_coi_filterE...no-op 0s)
(transform N7datalog25mk_interp_tail_simplifierE...3 rules 0s)
(transform N7datalog22mk_subsumption_checkerE...no-op 0s)
(transform N7datalog15mk_rule_inlinerE...no-op 0s)
(transform N7datalog22mk_subsumption_checkerE...no-op 0s)
(transform N7datalog15mk_rule_inlinerE...no-op 0s)
(transform N7datalog22mk_subsumption_checkerE...no-op 0s)
(transform N7datalog15mk_rule_inlinerE...no-op 0s)
(transform N7datalog22mk_subsumption_checkerE...no-op 0s)
(transform N7datalog8mk_sliceE...no-op 0s)
expand: query!0 (0, 0) FAR  w(0) 1. F 0.00
(spacer::context::check_reachability :time 0.00 :before-memory 4.48 :after-memory 4.99)
Entering level 1
BRUNCH_STAT max_query_lvl 0
BRUNCH_STAT num_queries 0
BRUNCH_STAT num_reach_queries 0
BRUNCH_STAT num_reach_reuse 0
BRUNCH_STAT inductive_lvl 0
BRUNCH_STAT max_depth 1
BRUNCH_STAT cex_depth 0
expand: query!0 (1, 0) FAR  w(0) 1.
	create_child: MAIN (0, 1) FAR 3647 U 0.00
expand: MAIN (0, 0) FAR  w(0) 3647. F 0.00
expand: query!0 (1, 0) FAR  w(0) 1. F 0.00
(spacer::context::check_reachability :time 0.00 :before-memory 4.99 :after-memory 6.12)
Propagating: 0 1  ! 2 
(spacer::context::propagate :time 0.00 :before-memory 6.12 :after-memory 6.12)
Entering level 2
BRUNCH_STAT max_query_lvl 1
BRUNCH_STAT num_queries 1
BRUNCH_STAT num_reach_queries 0
BRUNCH_STAT num_reach_reuse 0
BRUNCH_STAT inductive_lvl 0
BRUNCH_STAT max_depth 2
BRUNCH_STAT cex_depth 0
expand: query!0 (2, 0) FAR  w(0) 1.
	create_child: MAIN (1, 2) FAR 3647 U 0.00
expand: MAIN (1, 0) FAR  w(0) 3647.
	create_child: MAIN (0, 2) FAR 7391 U 0.00
expand: MAIN (0, 0) FAR  w(0) 7391. F 0.00
expand: MAIN (1, 0) FAR  w(0) 3647.
	create_child: MAIN (0, 2) FAR 7521 U 0.00
expand: MAIN (0, 0) FAR  w(0) 7521. F 0.00
expand: MAIN (1, 0) FAR  w(0) 3647.
	create_child: MAIN (0, 2) FAR 7769 U 0.00
expand: MAIN (0, 0) FAR  w(0) 7769. F 0.00
expand: MAIN (1, 0) FAR  w(0) 3647.
	create_child: MAIN (0, 2) FAR 8019 U 0.00
expand: MAIN (0, 0) FAR  w(0) 8019. F 0.00
expand: MAIN (1, 0) FAR  w(0) 3647.
	create_child: MAIN (0, 2) FAR 8505 U 0.00
expand: MAIN (0, 0) FAR  w(0) 8505. F 0.00
expand: MAIN (1, 0) FAR  w(0) 3647. F 0.00
expand: query!0 (2, 0) FAR  w(0) 1. F 0.00
(spacer::context::check_reachability :time 0.02 :before-memory 6.12 :after-memory 6.49)
Propagating: 0 1 2  ! 3 
(spacer::context::propagate :time 0.00 :before-memory 6.49 :after-memory 6.49)
Entering level 3
BRUNCH_STAT max_query_lvl 2
BRUNCH_STAT num_queries 7
BRUNCH_STAT num_reach_queries 0
BRUNCH_STAT num_reach_reuse 0
BRUNCH_STAT inductive_lvl 0
BRUNCH_STAT max_depth 3
BRUNCH_STAT cex_depth 0
expand: query!0 (3, 0) FAR  w(0) 1.
	create_child: MAIN (2, 3) FAR 3647 U 0.00
expand: MAIN (2, 0) FAR  w(0) 3647.
	create_child: MAIN (1, 3) FAR 9690 U 0.00
expand: MAIN (1, 0) FAR  w(0) 9690. F 0.00
expand: MAIN (2, 0) FAR  w(0) 3647.
	create_child: MAIN (1, 3) FAR 10353 U 0.00
expand: MAIN (1, 0) FAR  w(0) 10353. F 0.00
expand: MAIN (2, 0) FAR  w(0) 3647.
	create_child: MAIN (1, 3) FAR 10255 U 0.00
expand: MAIN (1, 0) FAR  w(0) 10255. F 0.00
expand: MAIN (2, 0) FAR  w(0) 3647.
	create_child: MAIN (1, 3) FAR 7521 U 0.00
expand: MAIN (1, 0) FAR  w(0) 7521. F 0.00
expand: MAIN (2, 0) FAR  w(0) 3647.
	create_child: MAIN (1, 3) FAR 11108 U 0.00
expand: MAIN (1, 0) FAR  w(0) 11108. F 0.00
expand: MAIN (2, 0) FAR  w(0) 3647. F 0.00
expand: query!0 (3, 0) FAR  w(0) 1. F 0.00
(spacer::context::check_reachability :time 0.03 :before-memory 6.49 :after-memory 7.13)
Propagating: 1 
(spacer::context::propagate :time 0.00 :before-memory 7.13 :after-memory 7.23)
(define-fun MAIN ((x!0 Int)
 (x!1 Bool)
 (x!2 Int)
 (x!3 Int)
 (x!4 Int)
 (x!5 Int)
 (x!6 Int)
 (x!7 Int)
 (x!8 Bool)
 (x!9 Bool)
 (x!10 Bool)
 (x!11 Bool)) Bool
  (let ((a!1 (or (>= (+ x!0
                        (* (- 1) x!2)
                        (* (- 1) x!3)
                        (* (- 1) x!4)
                        (* (- 1) x!5)
                        (* (- 1) x!6))
                     0)
                 (not x!9)))
        (a!2 (or (>= (+ x!2 x!3 x!5 x!6 (* (- 1) x!0)) 0) (not x!9)))
        (a!3 (or (>= (+ x!0
                        (* (- 1) x!2)
                        (* (- 1) x!3)
                        (* (- 1) x!5)
                        (* (- 1) x!6))
                     0)
                 (not x!9)))
        (a!4 (not (<= (+ x!3 x!4 x!5 x!6 (* (- 1) x!0)) (- 2)))))
    (and a!1
         x!11
         (not x!10)
         (not x!8)
         (not x!1)
         a!2
         a!3
         (or a!4 (not x!9) (not (<= x!2 1))))))
BRUNCH_STAT max_query_lvl 3
BRUNCH_STAT num_queries 13
BRUNCH_STAT num_reach_queries 0
BRUNCH_STAT num_reach_reuse 0
BRUNCH_STAT inductive_lvl 1
BRUNCH_STAT max_depth 3
BRUNCH_STAT cex_depth 0
(:SPACER-inductive-level               1
 :SPACER-max-depth                     3
 :SPACER-max-query-lvl                 3
 :SPACER-num-invariants                9
 :SPACER-num-lemmas                    17
 :SPACER-num-properties                12
 :SPACER-num-queries                   13
 :added-eqs                            1839
 :arith-add-rows                       820
 :arith-assert-diseq                   773
 :arith-assert-lower                   1335
 :arith-assert-upper                   1360
 :arith-bound-prop                     144
 :arith-conflicts                      31
 :arith-eq-adapter                     200
 :arith-fixed-eqs                      261
 :arith-offset-eqs                     216
 :arith-pivots                         164
 :bool-inductive-gen                   13
 :bool-inductive-gen-failures          17
 :conflicts                            203
 :decisions                            2018
 :del-clause                           69
 :final-checks                         31
 :minimized-lits                       275
 :mk-bool-var                          733
 :mk-clause                            1502
 :num-checks                           74
 :propagations                         19809
 :time.itp_solver.itp_core             0.01
 :time.spacer.init_rules               0.00
 :time.spacer.init_rules.pt.init       0.00
 :time.spacer.solve                    0.06
 :time.spacer.solve.propagate          0.01
 :time.spacer.solve.reach              0.05
 :time.spacer.solve.reach.children     0.01
 :time.spacer.solve.reach.gen.bool_ind 0.01
 :time.virtual_solver.proof            0.00
 :time.virtual_solver.smt.total        0.04
 :time.virtual_solver.smt.total.sat    0.02
 :virtual_solver.checks                74
 :virtual_solver.checks.sat            31)
BRUNCH_STAT max_query_lvl 3
BRUNCH_STAT num_queries 13
BRUNCH_STAT num_reach_queries 0
BRUNCH_STAT num_reach_reuse 0
BRUNCH_STAT inductive_lvl 1
BRUNCH_STAT max_depth 3
BRUNCH_STAT cex_depth 0

real	0m0.096s
user	0m0.092s
sys	0m0.000s
