(transform N7datalog13mk_coi_filterE...no-op 0s)
(transform N7datalog25mk_interp_tail_simplifierE...14 rules 0s)
(transform N7datalog27mk_quantifier_instantiationE...no-op 0s)
(transform N7datalog8mk_scaleE...no-op 0s)
(transform N7datalog18mk_karr_invariantsE...no-op 0s)
(transform N7datalog14mk_array_blastE...no-op 0s)
(transform N7datalog22mk_subsumption_checkerE...13 rules 0s)
(transform N7datalog12mk_bit_blastE...no-op 0s)
(transform N7datalog15mk_rule_inlinerE...3 rules 0.00447022s)
(transform N7datalog13mk_coi_filterE...no-op 0s)
(transform N7datalog25mk_interp_tail_simplifierE...3 rules 0s)
(transform N7datalog22mk_subsumption_checkerE...no-op 0s)
(transform N7datalog15mk_rule_inlinerE...no-op 0s)
(transform N7datalog13mk_coi_filterE...no-op 0s)
(transform N7datalog25mk_interp_tail_simplifierE...3 rules 0s)
(transform N7datalog22mk_subsumption_checkerE...no-op 0s)
(transform N7datalog15mk_rule_inlinerE...no-op 0s)
(transform N7datalog22mk_subsumption_checkerE...no-op 0s)
(transform N7datalog15mk_rule_inlinerE...no-op 0s)
(transform N7datalog22mk_subsumption_checkerE...no-op 0s)
(transform N7datalog15mk_rule_inlinerE...no-op 0s)
(transform N7datalog22mk_subsumption_checkerE...no-op 0s)
(transform N7datalog8mk_sliceE...no-op 0s)
expand: query!0 (0, 0) FAR  w(0) 1. F 0.00
(spacer::context::check_reachability :time 0.00 :before-memory 4.50 :after-memory 5.12)
Entering level 1
BRUNCH_STAT max_query_lvl 0
BRUNCH_STAT num_queries 0
BRUNCH_STAT num_reach_queries 0
BRUNCH_STAT num_reach_reuse 0
BRUNCH_STAT inductive_lvl 0
BRUNCH_STAT max_depth 1
BRUNCH_STAT cex_depth 0
expand: query!0 (1, 0) FAR  w(0) 1.
	create_child: MAIN (0, 1) FAR 3875 U 0.00
expand: MAIN (0, 0) FAR  w(0) 3875. F 0.00
expand: query!0 (1, 0) FAR  w(0) 1. F 0.00
(spacer::context::check_reachability :time 0.01 :before-memory 5.12 :after-memory 6.17)
Propagating: 0 1  ! 2 
(spacer::context::propagate :time 0.00 :before-memory 6.17 :after-memory 6.27)
Entering level 2
BRUNCH_STAT max_query_lvl 1
BRUNCH_STAT num_queries 1
BRUNCH_STAT num_reach_queries 0
BRUNCH_STAT num_reach_reuse 0
BRUNCH_STAT inductive_lvl 0
BRUNCH_STAT max_depth 2
BRUNCH_STAT cex_depth 0
expand: query!0 (2, 0) FAR  w(0) 1.
	create_child: MAIN (1, 2) FAR 3875 U 0.00
expand: MAIN (1, 0) FAR  w(0) 3875.
	create_child: MAIN (0, 2) FAR 7732 U 0.00
expand: MAIN (0, 0) FAR  w(0) 7732. F 0.00
expand: MAIN (1, 0) FAR  w(0) 3875.
	create_child: MAIN (0, 2) FAR 7975 U 0.00
expand: MAIN (0, 0) FAR  w(0) 7975. F 0.00
expand: MAIN (1, 0) FAR  w(0) 3875.
	create_child: MAIN (0, 2) FAR 7919 U 0.00
expand: MAIN (0, 0) FAR  w(0) 7919. F 0.00
expand: MAIN (1, 0) FAR  w(0) 3875.
	create_child: MAIN (0, 2) FAR 8060 U 0.00
expand: MAIN (0, 0) FAR  w(0) 8060. F 0.00
expand: MAIN (1, 0) FAR  w(0) 3875.
	create_child: MAIN (0, 2) FAR 8376 U 0.00
expand: MAIN (0, 0) FAR  w(0) 8376. F 0.00
expand: MAIN (1, 0) FAR  w(0) 3875. F 0.01
expand: query!0 (2, 0) FAR  w(0) 1. F 0.00
(spacer::context::check_reachability :time 0.02 :before-memory 6.27 :after-memory 6.68)
Propagating: 0 1 2  ! 3 
(spacer::context::propagate :time 0.00 :before-memory 6.68 :after-memory 6.68)
Entering level 3
BRUNCH_STAT max_query_lvl 2
BRUNCH_STAT num_queries 7
BRUNCH_STAT num_reach_queries 0
BRUNCH_STAT num_reach_reuse 0
BRUNCH_STAT inductive_lvl 0
BRUNCH_STAT max_depth 3
BRUNCH_STAT cex_depth 0
expand: query!0 (3, 0) FAR  w(0) 1.
	create_child: MAIN (2, 3) FAR 3875 U 0.00
expand: MAIN (2, 0) FAR  w(0) 3875.
	create_child: MAIN (1, 3) FAR 7975 U 0.00
expand: MAIN (1, 0) FAR  w(0) 7975. F 0.00
expand: MAIN (2, 0) FAR  w(0) 3875.
	create_child: MAIN (1, 3) FAR 11492 U 0.00
expand: MAIN (1, 0) FAR  w(0) 11492. F 0.00
expand: MAIN (2, 0) FAR  w(0) 3875. F 0.01
expand: query!0 (3, 0) FAR  w(0) 1. F 0.00
(spacer::context::check_reachability :time 0.02 :before-memory 6.68 :after-memory 7.31)
Propagating: 1 
(spacer::context::propagate :time 0.00 :before-memory 7.31 :after-memory 7.31)
(define-fun MAIN ((x!0 Int)
 (x!1 Bool)
 (x!2 Int)
 (x!3 Int)
 (x!4 Int)
 (x!5 Int)
 (x!6 Int)
 (x!7 Bool)
 (x!8 Bool)
 (x!9 Bool)
 (x!10 Bool)) Bool
  (let ((a!1 (+ x!0
                (* (- 1) x!2)
                (* (- 1) x!3)
                (* (- 1) x!4)
                (* (- 1) x!5)
                (* (- 1) x!6)))
        (a!2 (or (not x!8)
                 (= (+ x!0
                       (* (- 1) x!2)
                       (* (- 1) x!3)
                       (* (- 1) x!5)
                       (* (- 1) x!6))
                    0))))
    (and (or (>= a!1 0) (not x!8))
         x!10
         (not x!7)
         (not x!9)
         (not x!1)
         a!2
         (or (<= a!1 0) (not x!8)))))
BRUNCH_STAT max_query_lvl 3
BRUNCH_STAT num_queries 10
BRUNCH_STAT num_reach_queries 0
BRUNCH_STAT num_reach_reuse 0
BRUNCH_STAT inductive_lvl 1
BRUNCH_STAT max_depth 3
BRUNCH_STAT cex_depth 0
(:SPACER-inductive-level               1
 :SPACER-max-depth                     3
 :SPACER-max-query-lvl                 3
 :SPACER-num-invariants                8
 :SPACER-num-lemmas                    14
 :SPACER-num-properties                9
 :SPACER-num-queries                   10
 :added-eqs                            1186
 :arith-add-rows                       963
 :arith-assert-diseq                   734
 :arith-assert-lower                   1272
 :arith-assert-upper                   1077
 :arith-bound-prop                     221
 :arith-conflicts                      28
 :arith-eq-adapter                     108
 :arith-fixed-eqs                      197
 :arith-offset-eqs                     172
 :arith-pivots                         160
 :bool-inductive-gen                   10
 :bool-inductive-gen-failures          13
 :conflicts                            182
 :decisions                            1258
 :del-clause                           27
 :final-checks                         22
 :minimized-lits                       234
 :mk-bool-var                          650
 :mk-clause                            1730
 :num-checks                           57
 :propagations                         20391
 :time.itp_solver.itp_core             0.01
 :time.spacer.init_rules               0.00
 :time.spacer.init_rules.pt.init       0.00
 :time.spacer.solve                    0.05
 :time.spacer.solve.propagate          0.00
 :time.spacer.solve.reach              0.05
 :time.spacer.solve.reach.children     0.00
 :time.spacer.solve.reach.gen.bool_ind 0.00
 :time.virtual_solver.proof            0.00
 :time.virtual_solver.smt.total        0.04
 :time.virtual_solver.smt.total.sat    0.01
 :virtual_solver.checks                57
 :virtual_solver.checks.sat            22)
BRUNCH_STAT max_query_lvl 3
BRUNCH_STAT num_queries 10
BRUNCH_STAT num_reach_queries 0
BRUNCH_STAT num_reach_reuse 0
BRUNCH_STAT inductive_lvl 1
BRUNCH_STAT max_depth 3
BRUNCH_STAT cex_depth 0

real	0m0.091s
user	0m0.088s
sys	0m0.000s
