(transform N7datalog13mk_coi_filterE...no-op 0s)
(transform N7datalog25mk_interp_tail_simplifierE...14 rules 0s)
(transform N7datalog27mk_quantifier_instantiationE...no-op 0s)
(transform N7datalog8mk_scaleE...no-op 0s)
(transform N7datalog18mk_karr_invariantsE...no-op 0s)
(transform N7datalog14mk_array_blastE...no-op 0s)
(transform N7datalog22mk_subsumption_checkerE...13 rules 0s)
(transform N7datalog12mk_bit_blastE...no-op 0s)
(transform N7datalog15mk_rule_inlinerE...3 rules 0.0050594s)
(transform N7datalog13mk_coi_filterE...no-op 0s)
(transform N7datalog25mk_interp_tail_simplifierE...3 rules 0s)
(transform N7datalog22mk_subsumption_checkerE...no-op 0s)
(transform N7datalog15mk_rule_inlinerE...no-op 0s)
(transform N7datalog13mk_coi_filterE...no-op 0s)
(transform N7datalog25mk_interp_tail_simplifierE...3 rules 0s)
(transform N7datalog22mk_subsumption_checkerE...no-op 0s)
(transform N7datalog15mk_rule_inlinerE...no-op 0s)
(transform N7datalog22mk_subsumption_checkerE...no-op 0s)
(transform N7datalog15mk_rule_inlinerE...no-op 0s)
(transform N7datalog22mk_subsumption_checkerE...no-op 0s)
(transform N7datalog15mk_rule_inlinerE...no-op 0s)
(transform N7datalog22mk_subsumption_checkerE...no-op 0s)
(transform N7datalog8mk_sliceE...no-op 0s)
expand: query!0 (0, 0) FAR  w(0) 1. F 0.00
(spacer::context::check_reachability :time 0.00 :before-memory 4.50 :after-memory 5.12)
Entering level 1
BRUNCH_STAT max_query_lvl 0
BRUNCH_STAT num_queries 0
BRUNCH_STAT num_reach_queries 0
BRUNCH_STAT num_reach_reuse 0
BRUNCH_STAT inductive_lvl 0
BRUNCH_STAT max_depth 1
BRUNCH_STAT cex_depth 0
expand: query!0 (1, 0) FAR  w(0) 1. T 0.00
(spacer::context::check_reachability :time 0.00 :before-memory 5.12 :after-memory 5.12)
BRUNCH_STAT max_query_lvl 1
BRUNCH_STAT num_queries 0
BRUNCH_STAT num_reach_queries 1
BRUNCH_STAT num_reach_reuse 1
BRUNCH_STAT inductive_lvl 0
BRUNCH_STAT max_depth 1
BRUNCH_STAT cex_depth 1
(:SPACER-cex-depth                  1
 :SPACER-max-depth                  1
 :SPACER-max-query-lvl              1
 :SPACER-num-lemmas                 1
 :SPACER-num-properties             1
 :SPACER-num-reach-queries          1
 :SPACER-num-reuse-reach-facts      1
 :added-eqs                         7
 :arith-add-rows                    2
 :arith-assert-diseq                1
 :arith-assert-lower                7
 :arith-assert-upper                4
 :arith-bound-prop                  4
 :arith-eq-adapter                  6
 :arith-fixed-eqs                   1
 :arith-offset-eqs                  1
 :arith-pivots                      1
 :conflicts                         1
 :decisions                         1
 :final-checks                      1
 :mk-bool-var                       66
 :mk-clause                         176
 :num-checks                        2
 :propagations                      49
 :time.itp_solver.itp_core          0.00
 :time.spacer.init_rules            0.00
 :time.spacer.init_rules.pt.init    0.00
 :time.spacer.solve                 0.00
 :time.spacer.solve.reach           0.00
 :time.virtual_solver.proof         0.00
 :time.virtual_solver.smt.total     0.00
 :time.virtual_solver.smt.total.sat 0.00
 :virtual_solver.checks             2
 :virtual_solver.checks.sat         1)
BRUNCH_STAT max_query_lvl 1
BRUNCH_STAT num_queries 0
BRUNCH_STAT num_reach_queries 1
BRUNCH_STAT num_reach_reuse 1
BRUNCH_STAT inductive_lvl 0
BRUNCH_STAT max_depth 1
BRUNCH_STAT cex_depth 1

real	0m0.030s
user	0m0.028s
sys	0m0.000s
