(transform N7datalog13mk_coi_filterE...no-op 0s)
(transform N7datalog25mk_interp_tail_simplifierE...12 rules 0s)
(transform N7datalog27mk_quantifier_instantiationE...no-op 0s)
(transform N7datalog8mk_scaleE...no-op 0s)
(transform N7datalog18mk_karr_invariantsE...no-op 0s)
(transform N7datalog14mk_array_blastE...no-op 0s)
(transform N7datalog22mk_subsumption_checkerE...11 rules 0s)
(transform N7datalog12mk_bit_blastE...no-op 0s)
(transform N7datalog15mk_rule_inlinerE...3 rules 0.00176799s)
(transform N7datalog13mk_coi_filterE...no-op 0s)
(transform N7datalog25mk_interp_tail_simplifierE...3 rules 0s)
(transform N7datalog22mk_subsumption_checkerE...no-op 0s)
(transform N7datalog15mk_rule_inlinerE...no-op 0s)
(transform N7datalog13mk_coi_filterE...no-op 0s)
(transform N7datalog25mk_interp_tail_simplifierE...3 rules 0s)
(transform N7datalog22mk_subsumption_checkerE...no-op 0s)
(transform N7datalog15mk_rule_inlinerE...no-op 0s)
(transform N7datalog22mk_subsumption_checkerE...no-op 0s)
(transform N7datalog15mk_rule_inlinerE...no-op 0s)
(transform N7datalog22mk_subsumption_checkerE...no-op 0s)
(transform N7datalog15mk_rule_inlinerE...no-op 0s)
(transform N7datalog22mk_subsumption_checkerE...no-op 0s)
(transform N7datalog8mk_sliceE...no-op 0s)
expand: query!0 (0, 0) FAR  w(0) 1. F 0.00
(spacer::context::check_reachability :time 0.00 :before-memory 4.33 :after-memory 4.72)
Entering level 1
BRUNCH_STAT max_query_lvl 0
BRUNCH_STAT num_queries 0
BRUNCH_STAT num_reach_queries 0
BRUNCH_STAT num_reach_reuse 0
BRUNCH_STAT inductive_lvl 0
BRUNCH_STAT max_depth 1
BRUNCH_STAT cex_depth 0
expand: query!0 (1, 0) FAR  w(0) 1.
	create_child: MAIN (0, 1) FAR 1583 U 0.00
expand: MAIN (0, 0) FAR  w(0) 1583. F 0.00
expand: query!0 (1, 0) FAR  w(0) 1. F 0.00
(spacer::context::check_reachability :time 0.00 :before-memory 4.72 :after-memory 5.34)
Propagating: 0 1  ! 2 
(spacer::context::propagate :time 0.00 :before-memory 5.34 :after-memory 5.34)
Entering level 2
BRUNCH_STAT max_query_lvl 1
BRUNCH_STAT num_queries 1
BRUNCH_STAT num_reach_queries 0
BRUNCH_STAT num_reach_reuse 0
BRUNCH_STAT inductive_lvl 0
BRUNCH_STAT max_depth 2
BRUNCH_STAT cex_depth 0
expand: query!0 (2, 0) FAR  w(0) 1.
	create_child: MAIN (1, 2) FAR 1583 U 0.00
expand: MAIN (1, 0) FAR  w(0) 1583.
	create_child: MAIN (0, 2) FAR 2827 U 0.00
expand: MAIN (0, 0) FAR  w(0) 2827. F 0.00
expand: MAIN (1, 0) FAR  w(0) 1583.
	create_child: MAIN (0, 2) FAR 2912 U 0.00
expand: MAIN (0, 0) FAR  w(0) 2912. F 0.00
expand: MAIN (1, 0) FAR  w(0) 1583.
	create_child: MAIN (0, 2) FAR 3032 U 0.00
expand: MAIN (0, 0) FAR  w(0) 3032. F 0.00
expand: MAIN (1, 0) FAR  w(0) 1583. F 0.00
expand: query!0 (2, 0) FAR  w(0) 1. F 0.00
(spacer::context::check_reachability :time 0.01 :before-memory 5.34 :after-memory 5.57)
Propagating: 0 1 2  ! 3 
(spacer::context::propagate :time 0.00 :before-memory 5.57 :after-memory 5.57)
Entering level 3
BRUNCH_STAT max_query_lvl 2
BRUNCH_STAT num_queries 5
BRUNCH_STAT num_reach_queries 0
BRUNCH_STAT num_reach_reuse 0
BRUNCH_STAT inductive_lvl 0
BRUNCH_STAT max_depth 3
BRUNCH_STAT cex_depth 0
expand: query!0 (3, 0) FAR  w(0) 1.
	create_child: MAIN (2, 3) FAR 1583 U 0.00
expand: MAIN (2, 0) FAR  w(0) 1583.
	create_child: MAIN (1, 3) FAR 2912 U 0.00
expand: MAIN (1, 0) FAR  w(0) 2912.
	create_child: MAIN (0, 3) FAR 3594 U 0.00
expand: MAIN (0, 0) FAR  w(0) 3594. F 0.00
expand: MAIN (1, 0) FAR  w(0) 2912.
	create_child: MAIN (0, 3) FAR 3715 U 0.00
expand: MAIN (0, 0) FAR  w(0) 3715. F 0.00
expand: MAIN (1, 0) FAR  w(0) 2912. F 0.00
expand: MAIN (2, 0) FAR  w(0) 1583.
	create_child: MAIN (1, 3) FAR 3786 U 0.00
expand: MAIN (1, 0) FAR  w(0) 3786. F 0.00
expand: MAIN (2, 0) FAR  w(0) 1583.
	create_child: MAIN (1, 3) FAR 4034 U 0.00
expand: MAIN (1, 0) FAR  w(0) 4034. F 0.00
expand: MAIN (2, 0) FAR  w(0) 1583. F 0.00
expand: query!0 (3, 0) FAR  w(0) 1. F 0.00
(spacer::context::check_reachability :time 0.01 :before-memory 5.57 :after-memory 5.67)
Propagating: 0 1 2 3  ! 4 
(spacer::context::propagate :time 0.00 :before-memory 5.67 :after-memory 5.67)
Entering level 4
BRUNCH_STAT max_query_lvl 3
BRUNCH_STAT num_queries 11
BRUNCH_STAT num_reach_queries 0
BRUNCH_STAT num_reach_reuse 0
BRUNCH_STAT inductive_lvl 0
BRUNCH_STAT max_depth 4
BRUNCH_STAT cex_depth 0
expand: query!0 (4, 0) FAR  w(0) 1.
	create_child: MAIN (3, 4) FAR 1583 U 0.00
expand: MAIN (3, 0) FAR  w(0) 1583.
	create_child: MAIN (2, 4) FAR 4034 U 0.00
expand: MAIN (2, 0) FAR  w(0) 4034.
	create_child: MAIN (1, 4) FAR 4521 U 0.00
expand: MAIN (1, 0) FAR  w(0) 4521. F 0.00
expand: MAIN (2, 0) FAR  w(0) 4034. F 0.00
expand: MAIN (3, 0) FAR  w(0) 1583.
	create_child: MAIN (2, 4) FAR 4847 U 0.00
expand: MAIN (2, 0) FAR  w(0) 4847.
	create_child: MAIN (1, 4) FAR 3715 U 0.00
expand: MAIN (1, 0) FAR  w(0) 3715.
	create_child: MAIN (0, 4) FAR 4914 U 0.00
expand: MAIN (0, 0) FAR  w(0) 4914. F 0.00
expand: MAIN (1, 0) FAR  w(0) 3715. F 0.00
expand: MAIN (2, 0) FAR  w(0) 4847. F 0.00
expand: MAIN (3, 0) FAR  w(0) 1583. F 0.00
expand: query!0 (4, 0) FAR  w(0) 1. F 0.00
(spacer::context::check_reachability :time 0.01 :before-memory 5.67 :after-memory 5.76)
Propagating: 0 1 2 3 4  ! 5 
(spacer::context::propagate :time 0.01 :before-memory 5.76 :after-memory 6.04)
Entering level 5
BRUNCH_STAT max_query_lvl 4
BRUNCH_STAT num_queries 17
BRUNCH_STAT num_reach_queries 0
BRUNCH_STAT num_reach_reuse 0
BRUNCH_STAT inductive_lvl 0
BRUNCH_STAT max_depth 5
BRUNCH_STAT cex_depth 0
expand: query!0 (5, 0) FAR  w(0) 1.
	create_child: MAIN (4, 5) FAR 1583 U 0.00
expand: MAIN (4, 0) FAR  w(0) 1583.
	create_child: MAIN (3, 5) FAR 4847 U 0.00
expand: MAIN (3, 0) FAR  w(0) 4847.
	create_child: MAIN (2, 5) FAR 3715 U 0.00
expand: MAIN (2, 0) FAR  w(0) 3715.
	create_child: MAIN (1, 5) FAR 5920 U 0.00
expand: MAIN (1, 0) FAR  w(0) 5920. F 0.00
expand: MAIN (2, 0) FAR  w(0) 3715. F 0.00
expand: MAIN (3, 0) FAR  w(0) 4847. F 0.00
expand: MAIN (4, 0) FAR  w(0) 1583. F 0.00
expand: query!0 (5, 0) FAR  w(0) 1. F 0.00
(spacer::context::check_reachability :time 0.01 :before-memory 6.04 :after-memory 6.14)
Propagating: 1 2 3 4 5  ! 6 
(spacer::context::propagate :time 0.00 :before-memory 6.14 :after-memory 6.14)
Entering level 6
BRUNCH_STAT max_query_lvl 5
BRUNCH_STAT num_queries 21
BRUNCH_STAT num_reach_queries 0
BRUNCH_STAT num_reach_reuse 0
BRUNCH_STAT inductive_lvl 0
BRUNCH_STAT max_depth 6
BRUNCH_STAT cex_depth 0
expand: query!0 (6, 0) FAR  w(0) 1.
	create_child: MAIN (5, 6) FAR 1583 U 0.00
expand: MAIN (5, 0) FAR  w(0) 1583.
	create_child: MAIN (4, 6) FAR 4847 U 0.00
expand: MAIN (4, 0) FAR  w(0) 4847.
	create_child: MAIN (3, 6) FAR 3715 U 0.00
expand: MAIN (3, 0) FAR  w(0) 3715.
	create_child: MAIN (2, 6) FAR 7325 U 0.00
expand: MAIN (2, 0) FAR  w(0) 7325. F 0.00
expand: MAIN (3, 0) FAR  w(0) 3715.
	create_child: MAIN (2, 6) FAR 4914 U 0.00
expand: MAIN (2, 0) FAR  w(0) 4914.
	create_child: MAIN (1, 6) FAR 7583 U 0.00
expand: MAIN (1, 0) FAR  w(0) 7583.
	create_child: MAIN (0, 6) FAR 7475 U 0.00
expand: MAIN (0, 0) FAR  w(0) 7475. F 0.00
expand: MAIN (1, 0) FAR  w(0) 7583. F 0.00
expand: MAIN (2, 0) FAR  w(0) 4914. F 0.00
expand: MAIN (3, 0) FAR  w(0) 3715. F 0.00
expand: MAIN (4, 0) FAR  w(0) 4847. F 0.00
expand: MAIN (5, 0) FAR  w(0) 1583. F 0.00
expand: query!0 (6, 0) FAR  w(0) 1. F 0.00
(spacer::context::check_reachability :time 0.02 :before-memory 6.14 :after-memory 6.34)
Propagating: 0 1 2 3 4 
(spacer::context::propagate :time 0.01 :before-memory 6.34 :after-memory 6.34)
(define-fun MAIN ((x!0 Bool)
 (x!1 Bool)
 (x!2 Int)
 (x!3 Int)
 (x!4 Int)
 (x!5 Int)
 (x!6 Bool)
 (x!7 Bool)) Bool
  (let ((a!1 (or (not (<= (+ x!2 x!3 x!4 x!5) 0)) (<= x!2 0)))
        (a!2 (or (<= x!3 0) (not (<= (+ x!2 x!3 x!4 x!5) 0))))
        (a!3 (not (<= (+ (* (- 1) x!2)
                         (* (- 1) x!3)
                         (* (- 1) x!4)
                         (* (- 1) x!5))
                      (- 2))))
        (a!5 (or (<= x!4 0) (<= x!2 0) (not (<= (+ x!2 x!3 x!4 x!5) 2)))))
  (let ((a!4 (or (not (<= (+ x!2 x!3 x!4 x!5) 2)) a!3)))
    (and a!1
         x!7
         (not x!1)
         (>= x!2 0)
         (or (= x!4 0) (<= x!3 0))
         a!2
         (not (>= x!4 2))
         (not (>= (+ x!2 x!3 x!4 x!5) 4))
         a!4
         a!5))))
BRUNCH_STAT max_query_lvl 6
BRUNCH_STAT num_queries 28
BRUNCH_STAT num_reach_queries 0
BRUNCH_STAT num_reach_reuse 0
BRUNCH_STAT inductive_lvl 4
BRUNCH_STAT max_depth 6
BRUNCH_STAT cex_depth 0
(:SPACER-inductive-level               4
 :SPACER-max-depth                     6
 :SPACER-max-query-lvl                 6
 :SPACER-num-invariants                12
 :SPACER-num-lemmas                    35
 :SPACER-num-properties                19
 :SPACER-num-queries                   28
 :added-eqs                            2026
 :arith-add-rows                       1547
 :arith-assert-diseq                   708
 :arith-assert-lower                   2558
 :arith-assert-upper                   1991
 :arith-bound-prop                     172
 :arith-conflicts                      54
 :arith-eq-adapter                     791
 :arith-fixed-eqs                      380
 :arith-offset-eqs                     193
 :arith-pivots                         428
 :bool-inductive-gen                   28
 :bool-inductive-gen-failures          37
 :conflicts                            287
 :decisions                            3088
 :del-clause                           185
 :final-checks                         84
 :minimized-lits                       49
 :mk-bool-var                          764
 :mk-clause                            1179
 :num-checks                           214
 :propagations                         27106
 :time.itp_solver.itp_core             0.01
 :time.spacer.init_rules               0.00
 :time.spacer.init_rules.pt.init       0.00
 :time.spacer.solve                    0.09
 :time.spacer.solve.propagate          0.03
 :time.spacer.solve.reach              0.06
 :time.spacer.solve.reach.children     0.01
 :time.spacer.solve.reach.gen.bool_ind 0.01
 :time.virtual_solver.proof            0.01
 :time.virtual_solver.smt.total        0.06
 :time.virtual_solver.smt.total.sat    0.03
 :virtual_solver.checks                214
 :virtual_solver.checks.sat            84)
BRUNCH_STAT max_query_lvl 6
BRUNCH_STAT num_queries 28
BRUNCH_STAT num_reach_queries 0
BRUNCH_STAT num_reach_reuse 0
BRUNCH_STAT inductive_lvl 4
BRUNCH_STAT max_depth 6
BRUNCH_STAT cex_depth 0

real	0m0.117s
user	0m0.112s
sys	0m0.004s
