(transform N7datalog13mk_coi_filterE...no-op 0s)
(transform N7datalog25mk_interp_tail_simplifierE...12 rules 0s)
(transform N7datalog27mk_quantifier_instantiationE...no-op 0s)
(transform N7datalog8mk_scaleE...no-op 0s)
(transform N7datalog18mk_karr_invariantsE...no-op 0s)
(transform N7datalog14mk_array_blastE...no-op 0s)
(transform N7datalog22mk_subsumption_checkerE...11 rules 0s)
(transform N7datalog12mk_bit_blastE...no-op 0s)
(transform N7datalog15mk_rule_inlinerE...3 rules 0.00175253s)
(transform N7datalog13mk_coi_filterE...no-op 0s)
(transform N7datalog25mk_interp_tail_simplifierE...3 rules 0s)
(transform N7datalog22mk_subsumption_checkerE...no-op 0s)
(transform N7datalog15mk_rule_inlinerE...no-op 0s)
(transform N7datalog13mk_coi_filterE...no-op 0s)
(transform N7datalog25mk_interp_tail_simplifierE...3 rules 0s)
(transform N7datalog22mk_subsumption_checkerE...no-op 0s)
(transform N7datalog15mk_rule_inlinerE...no-op 0s)
(transform N7datalog22mk_subsumption_checkerE...no-op 0s)
(transform N7datalog15mk_rule_inlinerE...no-op 0s)
(transform N7datalog22mk_subsumption_checkerE...no-op 0s)
(transform N7datalog15mk_rule_inlinerE...no-op 0s)
(transform N7datalog22mk_subsumption_checkerE...no-op 0s)
(transform N7datalog8mk_sliceE...no-op 0s)
expand: query!0 (0, 0) FAR  w(0) 1. F 0.00
(spacer::context::check_reachability :time 0.00 :before-memory 4.33 :after-memory 4.72)
Entering level 1
BRUNCH_STAT max_query_lvl 0
BRUNCH_STAT num_queries 0
BRUNCH_STAT num_reach_queries 0
BRUNCH_STAT num_reach_reuse 0
BRUNCH_STAT inductive_lvl 0
BRUNCH_STAT max_depth 1
BRUNCH_STAT cex_depth 0
expand: query!0 (1, 0) FAR  w(0) 1.
	create_child: MAIN (0, 1) FAR 1587 U 0.00
expand: MAIN (0, 0) FAR  w(0) 1587. F 0.00
expand: query!0 (1, 0) FAR  w(0) 1. F 0.00
(spacer::context::check_reachability :time 0.00 :before-memory 4.72 :after-memory 5.34)
Propagating: 0 1  ! 2 
(spacer::context::propagate :time 0.00 :before-memory 5.34 :after-memory 5.34)
Entering level 2
BRUNCH_STAT max_query_lvl 1
BRUNCH_STAT num_queries 1
BRUNCH_STAT num_reach_queries 0
BRUNCH_STAT num_reach_reuse 0
BRUNCH_STAT inductive_lvl 0
BRUNCH_STAT max_depth 2
BRUNCH_STAT cex_depth 0
expand: query!0 (2, 0) FAR  w(0) 1.
	create_child: MAIN (1, 2) FAR 1587 U 0.00
expand: MAIN (1, 0) FAR  w(0) 1587.
	create_child: MAIN (0, 2) FAR 2831 U 0.00
expand: MAIN (0, 0) FAR  w(0) 2831. F 0.00
expand: MAIN (1, 0) FAR  w(0) 1587.
	create_child: MAIN (0, 2) FAR 2891 U 0.00
expand: MAIN (0, 0) FAR  w(0) 2891. F 0.00
expand: MAIN (1, 0) FAR  w(0) 1587.
	create_child: MAIN (0, 2) FAR 2987 U 0.00
expand: MAIN (0, 0) FAR  w(0) 2987. F 0.00
expand: MAIN (1, 0) FAR  w(0) 1587. F 0.00
expand: query!0 (2, 0) FAR  w(0) 1. F 0.00
(spacer::context::check_reachability :time 0.01 :before-memory 5.34 :after-memory 5.57)
Propagating: 0 1 2  ! 3 
(spacer::context::propagate :time 0.00 :before-memory 5.57 :after-memory 5.57)
Entering level 3
BRUNCH_STAT max_query_lvl 2
BRUNCH_STAT num_queries 5
BRUNCH_STAT num_reach_queries 0
BRUNCH_STAT num_reach_reuse 0
BRUNCH_STAT inductive_lvl 0
BRUNCH_STAT max_depth 3
BRUNCH_STAT cex_depth 0
expand: query!0 (3, 0) FAR  w(0) 1.
	create_child: MAIN (2, 3) FAR 1587 U 0.00
expand: MAIN (2, 0) FAR  w(0) 1587.
	create_child: MAIN (1, 3) FAR 3309 U 0.00
expand: MAIN (1, 0) FAR  w(0) 3309. F 0.00
expand: MAIN (2, 0) FAR  w(0) 1587.
	create_child: MAIN (1, 3) FAR 3566 U 0.00
expand: MAIN (1, 0) FAR  w(0) 3566. F 0.00
expand: MAIN (2, 0) FAR  w(0) 1587. F 0.00
expand: query!0 (3, 0) FAR  w(0) 1. F 0.00
(spacer::context::check_reachability :time 0.01 :before-memory 5.57 :after-memory 5.67)
Propagating: 1 2 3  ! 4 
(spacer::context::propagate :time 0.00 :before-memory 5.67 :after-memory 5.67)
Entering level 4
BRUNCH_STAT max_query_lvl 3
BRUNCH_STAT num_queries 8
BRUNCH_STAT num_reach_queries 0
BRUNCH_STAT num_reach_reuse 0
BRUNCH_STAT inductive_lvl 0
BRUNCH_STAT max_depth 4
BRUNCH_STAT cex_depth 0
expand: query!0 (4, 0) FAR  w(0) 1.
	create_child: MAIN (3, 4) FAR 1587 U 0.00
expand: MAIN (3, 0) FAR  w(0) 1587.
	create_child: MAIN (2, 4) FAR 3566 U 0.00
expand: MAIN (2, 0) FAR  w(0) 3566.
	create_child: MAIN (1, 4) FAR 4205 U 0.00
expand: MAIN (1, 0) FAR  w(0) 4205.
	create_child: MAIN (0, 4) FAR 4243 U 0.00
expand: MAIN (0, 0) FAR  w(0) 4243. F 0.00
expand: MAIN (1, 0) FAR  w(0) 4205. F 0.00
expand: MAIN (2, 0) FAR  w(0) 3566. F 0.00
expand: MAIN (3, 0) FAR  w(0) 1587.
	create_child: MAIN (2, 4) FAR 2987 U 0.00
expand: MAIN (2, 0) FAR  w(0) 2987.
	create_child: MAIN (1, 4) FAR 4819 U 0.00
expand: MAIN (1, 0) FAR  w(0) 4819.
	create_child: MAIN (0, 4) FAR 4971 U 0.00
expand: MAIN (0, 0) FAR  w(0) 4971. F 0.00
expand: MAIN (1, 0) FAR  w(0) 4819. F 0.00
expand: MAIN (2, 0) FAR  w(0) 2987.
	create_child: MAIN (1, 4) FAR 5314 U 0.00
expand: MAIN (1, 0) FAR  w(0) 5314. F 0.00
expand: MAIN (2, 0) FAR  w(0) 2987. F 0.00
expand: MAIN (3, 0) FAR  w(0) 1587. F 0.00
expand: query!0 (4, 0) FAR  w(0) 1. F 0.00
(spacer::context::check_reachability :time 0.03 :before-memory 5.67 :after-memory 5.88)
Propagating: 0 1 2 3 4  ! 5 
(spacer::context::propagate :time 0.01 :before-memory 5.88 :after-memory 5.88)
Entering level 5
BRUNCH_STAT max_query_lvl 4
BRUNCH_STAT num_queries 16
BRUNCH_STAT num_reach_queries 0
BRUNCH_STAT num_reach_reuse 0
BRUNCH_STAT inductive_lvl 0
BRUNCH_STAT max_depth 5
BRUNCH_STAT cex_depth 0
expand: query!0 (5, 0) FAR  w(0) 1.
	create_child: MAIN (4, 5) FAR 1587 U 0.00
expand: MAIN (4, 0) FAR  w(0) 1587.
	create_child: MAIN (3, 5) FAR 3566 U 0.00
expand: MAIN (3, 0) FAR  w(0) 3566.
	create_child: MAIN (2, 5) FAR 4205 U 0.00
expand: MAIN (2, 0) FAR  w(0) 4205.
	create_child: MAIN (1, 5) FAR 4243 U 0.00
expand: MAIN (1, 0) FAR  w(0) 4243. F 0.00
expand: MAIN (2, 0) FAR  w(0) 4205. F 0.00
expand: MAIN (3, 0) FAR  w(0) 3566. F 0.00
expand: MAIN (4, 0) FAR  w(0) 1587.
	create_child: MAIN (3, 5) FAR 2987 U 0.00
expand: MAIN (3, 0) FAR  w(0) 2987.
	create_child: MAIN (2, 5) FAR 5314 U 0.00
expand: MAIN (2, 0) FAR  w(0) 5314.
	create_child: MAIN (1, 5) FAR 6593 U 0.00
expand: MAIN (1, 0) FAR  w(0) 6593. F 0.00
expand: MAIN (2, 0) FAR  w(0) 5314.
	create_child: MAIN (1, 5) FAR 6613 U 0.00
expand: MAIN (1, 0) FAR  w(0) 6613. T 0.00
is-reachable: MAIN (2, 0) FAR 5314 T 0.00
is-reachable: MAIN (3, 0) FAR 2987 T 0.00
is-reachable: MAIN (4, 0) FAR 1587 T 0.00
is-reachable: query!0 (5, 0) FAR 1 T 0.00
(spacer::context::check_reachability :time 0.03 :before-memory 5.88 :after-memory 6.66)
BRUNCH_STAT max_query_lvl 5
BRUNCH_STAT num_queries 24
BRUNCH_STAT num_reach_queries 5
BRUNCH_STAT num_reach_reuse 1
BRUNCH_STAT inductive_lvl 0
BRUNCH_STAT max_depth 5
BRUNCH_STAT cex_depth 5
(:SPACER-cex-depth                     5
 :SPACER-max-depth                     5
 :SPACER-max-query-lvl                 5
 :SPACER-num-invariants                1
 :SPACER-num-lemmas                    25
 :SPACER-num-properties                16
 :SPACER-num-queries                   24
 :SPACER-num-reach-queries             5
 :SPACER-num-reuse-reach-facts         1
 :added-eqs                            1494
 :arith-add-rows                       910
 :arith-assert-diseq                   629
 :arith-assert-lower                   1670
 :arith-assert-upper                   1607
 :arith-bound-prop                     152
 :arith-conflicts                      24
 :arith-eq-adapter                     508
 :arith-fixed-eqs                      266
 :arith-offset-eqs                     178
 :arith-pivots                         283
 :bool-inductive-gen                   20
 :bool-inductive-gen-failures          29
 :conflicts                            199
 :decisions                            2560
 :del-clause                           84
 :final-checks                         68
 :minimized-lits                       52
 :mk-bool-var                          965
 :mk-clause                            1675
 :num-checks                           144
 :propagations                         19252
 :time.itp_solver.itp_core             0.01
 :time.spacer.init_rules               0.00
 :time.spacer.init_rules.pt.init       0.00
 :time.spacer.solve                    0.09
 :time.spacer.solve.propagate          0.01
 :time.spacer.solve.reach              0.08
 :time.spacer.solve.reach.children     0.01
 :time.spacer.solve.reach.gen.bool_ind 0.01
 :time.spacer.solve.reach.is-reach     0.01
 :time.virtual_solver.proof            0.00
 :time.virtual_solver.smt.total        0.06
 :time.virtual_solver.smt.total.sat    0.04
 :virtual_solver.checks                144
 :virtual_solver.checks.sat            68)
BRUNCH_STAT max_query_lvl 5
BRUNCH_STAT num_queries 24
BRUNCH_STAT num_reach_queries 5
BRUNCH_STAT num_reach_reuse 1
BRUNCH_STAT inductive_lvl 0
BRUNCH_STAT max_depth 5
BRUNCH_STAT cex_depth 5

real	0m0.116s
user	0m0.100s
sys	0m0.012s
