(transform N7datalog13mk_coi_filterE...no-op 0s)
(transform N7datalog25mk_interp_tail_simplifierE...15 rules 0s)
(transform N7datalog27mk_quantifier_instantiationE...no-op 0s)
(transform N7datalog8mk_scaleE...no-op 0s)
(transform N7datalog18mk_karr_invariantsE...no-op 0s)
(transform N7datalog14mk_array_blastE...no-op 0s)
(transform N7datalog22mk_subsumption_checkerE...14 rules 0s)
(transform N7datalog12mk_bit_blastE...no-op 0s)
(transform N7datalog15mk_rule_inlinerE...3 rules 0.00527563s)
(transform N7datalog13mk_coi_filterE...no-op 0s)
(transform N7datalog25mk_interp_tail_simplifierE...3 rules 0s)
(transform N7datalog22mk_subsumption_checkerE...no-op 0s)
(transform N7datalog15mk_rule_inlinerE...no-op 0s)
(transform N7datalog13mk_coi_filterE...no-op 0s)
(transform N7datalog25mk_interp_tail_simplifierE...3 rules 0s)
(transform N7datalog22mk_subsumption_checkerE...no-op 0s)
(transform N7datalog15mk_rule_inlinerE...no-op 0s)
(transform N7datalog22mk_subsumption_checkerE...no-op 0s)
(transform N7datalog15mk_rule_inlinerE...no-op 0s)
(transform N7datalog22mk_subsumption_checkerE...no-op 0s)
(transform N7datalog15mk_rule_inlinerE...no-op 0s)
(transform N7datalog22mk_subsumption_checkerE...no-op 0s)
(transform N7datalog8mk_sliceE...no-op 0s)
expand: query!0 (0, 0) FAR  w(0) 1. F 0.00
(spacer::context::check_reachability :time 0.00 :before-memory 4.52 :after-memory 5.04)
Entering level 1
BRUNCH_STAT max_query_lvl 0
BRUNCH_STAT num_queries 0
BRUNCH_STAT num_reach_queries 0
BRUNCH_STAT num_reach_reuse 0
BRUNCH_STAT inductive_lvl 0
BRUNCH_STAT max_depth 1
BRUNCH_STAT cex_depth 0
expand: query!0 (1, 0) FAR  w(0) 1.
	create_child: MAIN (0, 1) FAR 3251 U 0.00
expand: MAIN (0, 0) FAR  w(0) 3251. F 0.00
expand: query!0 (1, 0) FAR  w(0) 1. F 0.00
(spacer::context::check_reachability :time 0.00 :before-memory 5.04 :after-memory 5.84)
Propagating: 0 1  ! 2 
(spacer::context::propagate :time 0.00 :before-memory 5.84 :after-memory 5.84)
Entering level 2
BRUNCH_STAT max_query_lvl 1
BRUNCH_STAT num_queries 1
BRUNCH_STAT num_reach_queries 0
BRUNCH_STAT num_reach_reuse 0
BRUNCH_STAT inductive_lvl 0
BRUNCH_STAT max_depth 2
BRUNCH_STAT cex_depth 0
expand: query!0 (2, 0) FAR  w(0) 1.
	create_child: MAIN (1, 2) FAR 3251 U 0.00
expand: MAIN (1, 0) FAR  w(0) 3251.
	create_child: MAIN (0, 2) FAR 5106 U 0.00
expand: MAIN (0, 0) FAR  w(0) 5106. F 0.00
expand: MAIN (1, 0) FAR  w(0) 3251.
	create_child: MAIN (0, 2) FAR 5275 U 0.00
expand: MAIN (0, 0) FAR  w(0) 5275. F 0.00
expand: MAIN (1, 0) FAR  w(0) 3251.
	create_child: MAIN (0, 2) FAR 5391 U 0.00
expand: MAIN (0, 0) FAR  w(0) 5391. F 0.00
expand: MAIN (1, 0) FAR  w(0) 3251.
	create_child: MAIN (0, 2) FAR 5637 U 0.00
expand: MAIN (0, 0) FAR  w(0) 5637. F 0.00
expand: MAIN (1, 0) FAR  w(0) 3251.
	create_child: MAIN (0, 2) FAR 5645 U 0.00
expand: MAIN (0, 0) FAR  w(0) 5645. F 0.00
expand: MAIN (1, 0) FAR  w(0) 3251.
	create_child: MAIN (0, 2) FAR 5735 U 0.00
expand: MAIN (0, 0) FAR  w(0) 5735. F 0.00
expand: MAIN (1, 0) FAR  w(0) 3251.
	create_child: MAIN (0, 2) FAR 5836 U 0.00
expand: MAIN (0, 0) FAR  w(0) 5836. F 0.00
expand: MAIN (1, 0) FAR  w(0) 3251.
	create_child: MAIN (0, 2) FAR 5872 U 0.00
expand: MAIN (0, 0) FAR  w(0) 5872. F 0.00
expand: MAIN (1, 0) FAR  w(0) 3251.
	create_child: MAIN (0, 2) FAR 5973 U 0.00
expand: MAIN (0, 0) FAR  w(0) 5973. F 0.00
expand: MAIN (1, 0) FAR  w(0) 3251.
	create_child: MAIN (0, 2) FAR 6067 U 0.00
expand: MAIN (0, 0) FAR  w(0) 6067. F 0.00
expand: MAIN (1, 0) FAR  w(0) 3251.
	create_child: MAIN (0, 2) FAR 6214 U 0.00
expand: MAIN (0, 0) FAR  w(0) 6214. F 0.00
expand: MAIN (1, 0) FAR  w(0) 3251. F 0.00
expand: query!0 (2, 0) FAR  w(0) 1. F 0.00
(spacer::context::check_reachability :time 0.02 :before-memory 5.84 :after-memory 6.26)
Propagating: 0 1 2  ! 3 
(spacer::context::propagate :time 0.00 :before-memory 6.26 :after-memory 6.26)
Entering level 3
BRUNCH_STAT max_query_lvl 2
BRUNCH_STAT num_queries 13
BRUNCH_STAT num_reach_queries 0
BRUNCH_STAT num_reach_reuse 0
BRUNCH_STAT inductive_lvl 0
BRUNCH_STAT max_depth 3
BRUNCH_STAT cex_depth 0
expand: query!0 (3, 0) FAR  w(0) 1.
	create_child: MAIN (2, 3) FAR 3251 U 0.00
expand: MAIN (2, 0) FAR  w(0) 3251.
	create_child: MAIN (1, 3) FAR 7333 U 0.00
expand: MAIN (1, 0) FAR  w(0) 7333. F 0.00
expand: MAIN (2, 0) FAR  w(0) 3251.
	create_child: MAIN (1, 3) FAR 7475 U 0.00
expand: MAIN (1, 0) FAR  w(0) 7475. F 0.00
expand: MAIN (2, 0) FAR  w(0) 3251.
	create_child: MAIN (1, 3) FAR 7675 U 0.00
expand: MAIN (1, 0) FAR  w(0) 7675. F 0.00
expand: MAIN (2, 0) FAR  w(0) 3251. F 0.00
expand: query!0 (3, 0) FAR  w(0) 1. F 0.00
(spacer::context::check_reachability :time 0.01 :before-memory 6.26 :after-memory 6.35)
Propagating: 1 2 3  ! 4 
(spacer::context::propagate :time 0.00 :before-memory 6.35 :after-memory 6.35)
Entering level 4
BRUNCH_STAT max_query_lvl 3
BRUNCH_STAT num_queries 17
BRUNCH_STAT num_reach_queries 0
BRUNCH_STAT num_reach_reuse 0
BRUNCH_STAT inductive_lvl 0
BRUNCH_STAT max_depth 4
BRUNCH_STAT cex_depth 0
expand: query!0 (4, 0) FAR  w(0) 1.
	create_child: MAIN (3, 4) FAR 3251 U 0.00
expand: MAIN (3, 0) FAR  w(0) 3251.
	create_child: MAIN (2, 4) FAR 8063 U 0.00
expand: MAIN (2, 0) FAR  w(0) 8063. F 0.00
expand: MAIN (3, 0) FAR  w(0) 3251. F 0.00
expand: query!0 (4, 0) FAR  w(0) 1. F 0.00
(spacer::context::check_reachability :time 0.00 :before-memory 6.35 :after-memory 6.45)
Propagating: 2 3 4  ! 5 
(spacer::context::propagate :time 0.00 :before-memory 6.45 :after-memory 6.45)
Entering level 5
BRUNCH_STAT max_query_lvl 4
BRUNCH_STAT num_queries 19
BRUNCH_STAT num_reach_queries 0
BRUNCH_STAT num_reach_reuse 0
BRUNCH_STAT inductive_lvl 0
BRUNCH_STAT max_depth 5
BRUNCH_STAT cex_depth 0
expand: query!0 (5, 0) FAR  w(0) 1.
	create_child: MAIN (4, 5) FAR 3251 U 0.00
expand: MAIN (4, 0) FAR  w(0) 3251.
	create_child: MAIN (3, 5) FAR 8063 U 0.00
expand: MAIN (3, 0) FAR  w(0) 8063.
	create_child: MAIN (2, 5) FAR 8261 U 0.00
expand: MAIN (2, 0) FAR  w(0) 8261. F 0.00
expand: MAIN (3, 0) FAR  w(0) 8063. F 0.00
expand: MAIN (4, 0) FAR  w(0) 3251. F 0.00
expand: query!0 (5, 0) FAR  w(0) 1. F 0.00
(spacer::context::check_reachability :time 0.01 :before-memory 6.45 :after-memory 6.45)
Propagating: 2 3 
(spacer::context::propagate :time 0.00 :before-memory 6.45 :after-memory 6.45)
(define-fun MAIN ((x!0 Int)
 (x!1 Bool)
 (x!2 Bool)
 (x!3 Bool)
 (x!4 Int)
 (x!5 Int)
 (x!6 Int)
 (x!7 Bool)
 (x!8 Int)
 (x!9 Bool)
 (x!10 Bool)
 (x!11 Bool)
 (x!12 Int)
 (x!13 Bool)
 (x!14 Bool)
 (x!15 Bool)
 (x!16 Bool)
 (x!17 Bool)
 (x!18 Bool)
 (x!19 Bool)
 (x!20 Bool)
 (x!21 Bool)
 (x!22 Bool)) Bool
  (let ((a!1 (not (>= (+ x!4 (* (- 1) x!6)) 10))))
    (and (or (not (<= x!0 (- 11))) (not x!2))
         x!22
         (not x!21)
         (not x!20)
         (not x!14)
         (not x!17)
         (not x!10)
         (not x!3)
         (= (+ x!0 x!4 (* (- 1) x!6)) 0)
         (not (>= x!0 21))
         (or (not x!18) x!13)
         (or a!1 x!9))))
BRUNCH_STAT max_query_lvl 5
BRUNCH_STAT num_queries 22
BRUNCH_STAT num_reach_queries 0
BRUNCH_STAT num_reach_reuse 0
BRUNCH_STAT inductive_lvl 3
BRUNCH_STAT max_depth 5
BRUNCH_STAT cex_depth 0
(:SPACER-inductive-level               3
 :SPACER-max-depth                     5
 :SPACER-max-query-lvl                 5
 :SPACER-num-invariants                14
 :SPACER-num-lemmas                    28
 :SPACER-num-properties                18
 :SPACER-num-queries                   22
 :added-eqs                            775
 :arith-add-rows                       241
 :arith-assert-diseq                   330
 :arith-assert-lower                   1106
 :arith-assert-upper                   1064
 :arith-bound-prop                     70
 :arith-conflicts                      10
 :arith-eq-adapter                     244
 :arith-fixed-eqs                      79
 :arith-offset-eqs                     112
 :arith-pivots                         95
 :bool-inductive-gen                   22
 :bool-inductive-gen-failures          26
 :conflicts                            105
 :decisions                            2681
 :del-clause                           58
 :final-checks                         44
 :mk-bool-var                          699
 :mk-clause                            1046
 :num-checks                           119
 :propagations                         15924
 :time.itp_solver.itp_core             0.01
 :time.spacer.init_rules               0.00
 :time.spacer.init_rules.pt.init       0.00
 :time.spacer.solve                    0.06
 :time.spacer.solve.propagate          0.01
 :time.spacer.solve.reach              0.05
 :time.spacer.solve.reach.children     0.01
 :time.spacer.solve.reach.gen.bool_ind 0.00
 :time.virtual_solver.proof            0.00
 :time.virtual_solver.smt.total        0.03
 :time.virtual_solver.smt.total.sat    0.02
 :virtual_solver.checks                119
 :virtual_solver.checks.sat            44)
BRUNCH_STAT max_query_lvl 5
BRUNCH_STAT num_queries 22
BRUNCH_STAT num_reach_queries 0
BRUNCH_STAT num_reach_reuse 0
BRUNCH_STAT inductive_lvl 3
BRUNCH_STAT max_depth 5
BRUNCH_STAT cex_depth 0

real	0m0.087s
user	0m0.072s
sys	0m0.012s
