(transform N7datalog13mk_coi_filterE...no-op 0s)
(transform N7datalog25mk_interp_tail_simplifierE...15 rules 0s)
(transform N7datalog27mk_quantifier_instantiationE...no-op 0s)
(transform N7datalog8mk_scaleE...no-op 0s)
(transform N7datalog18mk_karr_invariantsE...no-op 0s)
(transform N7datalog14mk_array_blastE...no-op 0s)
(transform N7datalog22mk_subsumption_checkerE...14 rules 0s)
(transform N7datalog12mk_bit_blastE...no-op 0s)
(transform N7datalog15mk_rule_inlinerE...3 rules 0.00554229s)
(transform N7datalog13mk_coi_filterE...no-op 0s)
(transform N7datalog25mk_interp_tail_simplifierE...3 rules 0s)
(transform N7datalog22mk_subsumption_checkerE...no-op 0s)
(transform N7datalog15mk_rule_inlinerE...no-op 0s)
(transform N7datalog13mk_coi_filterE...no-op 0s)
(transform N7datalog25mk_interp_tail_simplifierE...3 rules 0s)
(transform N7datalog22mk_subsumption_checkerE...no-op 0s)
(transform N7datalog15mk_rule_inlinerE...no-op 0s)
(transform N7datalog22mk_subsumption_checkerE...no-op 0s)
(transform N7datalog15mk_rule_inlinerE...no-op 0s)
(transform N7datalog22mk_subsumption_checkerE...no-op 0s)
(transform N7datalog15mk_rule_inlinerE...no-op 0s)
(transform N7datalog22mk_subsumption_checkerE...no-op 0s)
(transform N7datalog8mk_sliceE...no-op 0s)
expand: query!0 (0, 0) FAR  w(0) 1. F 0.00
(spacer::context::check_reachability :time 0.00 :before-memory 4.52 :after-memory 5.06)
Entering level 1
BRUNCH_STAT max_query_lvl 0
BRUNCH_STAT num_queries 0
BRUNCH_STAT num_reach_queries 0
BRUNCH_STAT num_reach_reuse 0
BRUNCH_STAT inductive_lvl 0
BRUNCH_STAT max_depth 1
BRUNCH_STAT cex_depth 0
expand: query!0 (1, 0) FAR  w(0) 1.
	create_child: MAIN (0, 1) FAR 3382 U 0.00
expand: MAIN (0, 0) FAR  w(0) 3382. F 0.00
expand: query!0 (1, 0) FAR  w(0) 1. F 0.00
(spacer::context::check_reachability :time 0.00 :before-memory 5.06 :after-memory 5.85)
Propagating: 0 1  ! 2 
(spacer::context::propagate :time 0.00 :before-memory 5.85 :after-memory 5.85)
Entering level 2
BRUNCH_STAT max_query_lvl 1
BRUNCH_STAT num_queries 1
BRUNCH_STAT num_reach_queries 0
BRUNCH_STAT num_reach_reuse 0
BRUNCH_STAT inductive_lvl 0
BRUNCH_STAT max_depth 2
BRUNCH_STAT cex_depth 0
expand: query!0 (2, 0) FAR  w(0) 1.
	create_child: MAIN (1, 2) FAR 3382 U 0.00
expand: MAIN (1, 0) FAR  w(0) 3382.
	create_child: MAIN (0, 2) FAR 5248 U 0.00
expand: MAIN (0, 0) FAR  w(0) 5248. F 0.00
expand: MAIN (1, 0) FAR  w(0) 3382.
	create_child: MAIN (0, 2) FAR 5477 U 0.00
expand: MAIN (0, 0) FAR  w(0) 5477. F 0.00
expand: MAIN (1, 0) FAR  w(0) 3382.
	create_child: MAIN (0, 2) FAR 5639 U 0.00
expand: MAIN (0, 0) FAR  w(0) 5639. F 0.00
expand: MAIN (1, 0) FAR  w(0) 3382.
	create_child: MAIN (0, 2) FAR 5716 U 0.00
expand: MAIN (0, 0) FAR  w(0) 5716. F 0.00
expand: MAIN (1, 0) FAR  w(0) 3382.
	create_child: MAIN (0, 2) FAR 5844 U 0.00
expand: MAIN (0, 0) FAR  w(0) 5844. F 0.00
expand: MAIN (1, 0) FAR  w(0) 3382.
	create_child: MAIN (0, 2) FAR 5968 U 0.00
expand: MAIN (0, 0) FAR  w(0) 5968. F 0.00
expand: MAIN (1, 0) FAR  w(0) 3382.
	create_child: MAIN (0, 2) FAR 6086 U 0.00
expand: MAIN (0, 0) FAR  w(0) 6086. F 0.00
expand: MAIN (1, 0) FAR  w(0) 3382. F 0.00
expand: query!0 (2, 0) FAR  w(0) 1. F 0.00
(spacer::context::check_reachability :time 0.01 :before-memory 5.85 :after-memory 6.31)
Propagating: 0 1 2  ! 3 
(spacer::context::propagate :time 0.00 :before-memory 6.31 :after-memory 6.31)
Entering level 3
BRUNCH_STAT max_query_lvl 2
BRUNCH_STAT num_queries 9
BRUNCH_STAT num_reach_queries 0
BRUNCH_STAT num_reach_reuse 0
BRUNCH_STAT inductive_lvl 0
BRUNCH_STAT max_depth 3
BRUNCH_STAT cex_depth 0
expand: query!0 (3, 0) FAR  w(0) 1.
	create_child: MAIN (2, 3) FAR 3382 U 0.00
expand: MAIN (2, 0) FAR  w(0) 3382.
	create_child: MAIN (1, 3) FAR 6827 U 0.00
expand: MAIN (1, 0) FAR  w(0) 6827. F 0.00
expand: MAIN (2, 0) FAR  w(0) 3382.
	create_child: MAIN (1, 3) FAR 7112 U 0.00
expand: MAIN (1, 0) FAR  w(0) 7112. F 0.00
expand: MAIN (2, 0) FAR  w(0) 3382.
	create_child: MAIN (1, 3) FAR 7468 U 0.00
expand: MAIN (1, 0) FAR  w(0) 7468. F 0.00
expand: MAIN (2, 0) FAR  w(0) 3382.
	create_child: MAIN (1, 3) FAR 7463 U 0.00
expand: MAIN (1, 0) FAR  w(0) 7463.
	create_child: MAIN (0, 3) FAR 7911 U 0.00
expand: MAIN (0, 0) FAR  w(0) 7911. F 0.00
expand: MAIN (1, 0) FAR  w(0) 7463.
	create_child: MAIN (0, 3) FAR 8158 U 0.00
expand: MAIN (0, 0) FAR  w(0) 8158. F 0.00
expand: MAIN (1, 0) FAR  w(0) 7463. F 0.00
expand: MAIN (2, 0) FAR  w(0) 3382.
	create_child: MAIN (1, 3) FAR 8332 U 0.00
expand: MAIN (1, 0) FAR  w(0) 8332. F 0.00
expand: MAIN (2, 0) FAR  w(0) 3382. F 0.00
expand: query!0 (3, 0) FAR  w(0) 1. F 0.00
(spacer::context::check_reachability :time 0.02 :before-memory 6.31 :after-memory 6.60)
Propagating: 0 1 2 3  ! 4 
(spacer::context::propagate :time 0.00 :before-memory 6.60 :after-memory 6.60)
Entering level 4
BRUNCH_STAT max_query_lvl 3
BRUNCH_STAT num_queries 17
BRUNCH_STAT num_reach_queries 0
BRUNCH_STAT num_reach_reuse 0
BRUNCH_STAT inductive_lvl 0
BRUNCH_STAT max_depth 4
BRUNCH_STAT cex_depth 0
expand: query!0 (4, 0) FAR  w(0) 1.
	create_child: MAIN (3, 4) FAR 3382 U 0.00
expand: MAIN (3, 0) FAR  w(0) 3382.
	create_child: MAIN (2, 4) FAR 8881 U 0.00
expand: MAIN (2, 0) FAR  w(0) 8881. F 0.00
expand: MAIN (3, 0) FAR  w(0) 3382.
	create_child: MAIN (2, 4) FAR 9321 U 0.00
expand: MAIN (2, 0) FAR  w(0) 9321.
	create_child: MAIN (1, 4) FAR 9397 U 0.00
expand: MAIN (1, 0) FAR  w(0) 9397. F 0.00
expand: MAIN (2, 0) FAR  w(0) 9321. F 0.00
expand: MAIN (3, 0) FAR  w(0) 3382. F 0.00
expand: query!0 (4, 0) FAR  w(0) 1. F 0.00
(spacer::context::check_reachability :time 0.01 :before-memory 6.60 :after-memory 6.70)
Propagating: 1 2 
(spacer::context::propagate :time 0.00 :before-memory 6.70 :after-memory 6.70)
(define-fun MAIN ((x!0 Int)
 (x!1 Int)
 (x!2 Bool)
 (x!3 Bool)
 (x!4 Bool)
 (x!5 Int)
 (x!6 Int)
 (x!7 Int)
 (x!8 Bool)
 (x!9 Int)
 (x!10 Bool)
 (x!11 Bool)
 (x!12 Bool)
 (x!13 Int)
 (x!14 Bool)
 (x!15 Bool)
 (x!16 Bool)
 (x!17 Bool)
 (x!18 Bool)
 (x!19 Bool)
 (x!20 Bool)
 (x!21 Bool)
 (x!22 Bool)
 (x!23 Bool)) Bool
  (let ((a!1 (not (<= (+ x!6 (* (- 1) x!7)) (- 41))))
        (a!2 (not (>= (+ x!7 (* (- 1) x!5)) 10)))
        (a!3 (not (<= (+ x!0 (* (- 1) x!1)) (- 41)))))
    (and a!1
         (not x!17)
         x!23
         (not x!18)
         (not x!22)
         (not x!4)
         (not x!21)
         (not x!11)
         (or a!2 x!17)
         (or a!3 x!17))))
BRUNCH_STAT max_query_lvl 4
BRUNCH_STAT num_queries 21
BRUNCH_STAT num_reach_queries 0
BRUNCH_STAT num_reach_reuse 0
BRUNCH_STAT inductive_lvl 2
BRUNCH_STAT max_depth 4
BRUNCH_STAT cex_depth 0
(:SPACER-inductive-level               2
 :SPACER-max-depth                     4
 :SPACER-max-query-lvl                 4
 :SPACER-num-invariants                15
 :SPACER-num-lemmas                    26
 :SPACER-num-properties                14
 :SPACER-num-queries                   21
 :added-eqs                            1401
 :arith-add-rows                       516
 :arith-assert-diseq                   523
 :arith-assert-lower                   1364
 :arith-assert-upper                   1583
 :arith-bound-prop                     112
 :arith-conflicts                      12
 :arith-eq-adapter                     404
 :arith-fixed-eqs                      205
 :arith-offset-eqs                     140
 :arith-pivots                         139
 :bool-inductive-gen                   21
 :bool-inductive-gen-failures          28
 :conflicts                            126
 :decisions                            3572
 :del-clause                           196
 :final-checks                         48
 :minimized-lits                       9
 :mk-bool-var                          1294
 :mk-clause                            1339
 :num-checks                           125
 :propagations                         19860
 :time.itp_solver.itp_core             0.01
 :time.spacer.init_rules               0.00
 :time.spacer.init_rules.pt.init       0.00
 :time.spacer.solve                    0.06
 :time.spacer.solve.propagate          0.01
 :time.spacer.solve.reach              0.06
 :time.spacer.solve.reach.children     0.01
 :time.spacer.solve.reach.gen.bool_ind 0.01
 :time.virtual_solver.proof            0.00
 :time.virtual_solver.smt.total        0.04
 :time.virtual_solver.smt.total.sat    0.02
 :virtual_solver.checks                125
 :virtual_solver.checks.sat            48)
BRUNCH_STAT max_query_lvl 4
BRUNCH_STAT num_queries 21
BRUNCH_STAT num_reach_queries 0
BRUNCH_STAT num_reach_reuse 0
BRUNCH_STAT inductive_lvl 2
BRUNCH_STAT max_depth 4
BRUNCH_STAT cex_depth 0

real	0m0.097s
user	0m0.084s
sys	0m0.012s
