(transform N7datalog13mk_coi_filterE...no-op 0s)
(transform N7datalog25mk_interp_tail_simplifierE...15 rules 0s)
(transform N7datalog27mk_quantifier_instantiationE...no-op 0s)
(transform N7datalog8mk_scaleE...no-op 0s)
(transform N7datalog18mk_karr_invariantsE...no-op 0s)
(transform N7datalog14mk_array_blastE...no-op 0s)
(transform N7datalog22mk_subsumption_checkerE...14 rules 0s)
(transform N7datalog12mk_bit_blastE...no-op 0s)
(transform N7datalog15mk_rule_inlinerE...3 rules 0.00558761s)
(transform N7datalog13mk_coi_filterE...no-op 0s)
(transform N7datalog25mk_interp_tail_simplifierE...3 rules 0s)
(transform N7datalog22mk_subsumption_checkerE...no-op 0s)
(transform N7datalog15mk_rule_inlinerE...no-op 0s)
(transform N7datalog13mk_coi_filterE...no-op 0s)
(transform N7datalog25mk_interp_tail_simplifierE...3 rules 0s)
(transform N7datalog22mk_subsumption_checkerE...no-op 0s)
(transform N7datalog15mk_rule_inlinerE...no-op 0s)
(transform N7datalog22mk_subsumption_checkerE...no-op 0s)
(transform N7datalog15mk_rule_inlinerE...no-op 0s)
(transform N7datalog22mk_subsumption_checkerE...no-op 0s)
(transform N7datalog15mk_rule_inlinerE...no-op 0s)
(transform N7datalog22mk_subsumption_checkerE...no-op 0s)
(transform N7datalog8mk_sliceE...no-op 0s)
expand: query!0 (0, 0) FAR  w(0) 1. F 0.00
(spacer::context::check_reachability :time 0.00 :before-memory 4.52 :after-memory 5.06)
Entering level 1
BRUNCH_STAT max_query_lvl 0
BRUNCH_STAT num_queries 0
BRUNCH_STAT num_reach_queries 0
BRUNCH_STAT num_reach_reuse 0
BRUNCH_STAT inductive_lvl 0
BRUNCH_STAT max_depth 1
BRUNCH_STAT cex_depth 0
expand: query!0 (1, 0) FAR  w(0) 1.
	create_child: MAIN (0, 1) FAR 3351 U 0.00
expand: MAIN (0, 0) FAR  w(0) 3351. F 0.00
expand: query!0 (1, 0) FAR  w(0) 1. F 0.00
(spacer::context::check_reachability :time 0.00 :before-memory 5.06 :after-memory 5.85)
Propagating: 0 1  ! 2 
(spacer::context::propagate :time 0.00 :before-memory 5.85 :after-memory 5.85)
Entering level 2
BRUNCH_STAT max_query_lvl 1
BRUNCH_STAT num_queries 1
BRUNCH_STAT num_reach_queries 0
BRUNCH_STAT num_reach_reuse 0
BRUNCH_STAT inductive_lvl 0
BRUNCH_STAT max_depth 2
BRUNCH_STAT cex_depth 0
expand: query!0 (2, 0) FAR  w(0) 1.
	create_child: MAIN (1, 2) FAR 3351 U 0.00
expand: MAIN (1, 0) FAR  w(0) 3351.
	create_child: MAIN (0, 2) FAR 5222 U 0.00
expand: MAIN (0, 0) FAR  w(0) 5222. F 0.00
expand: MAIN (1, 0) FAR  w(0) 3351.
	create_child: MAIN (0, 2) FAR 5459 U 0.00
expand: MAIN (0, 0) FAR  w(0) 5459. F 0.00
expand: MAIN (1, 0) FAR  w(0) 3351.
	create_child: MAIN (0, 2) FAR 5577 U 0.00
expand: MAIN (0, 0) FAR  w(0) 5577. F 0.00
expand: MAIN (1, 0) FAR  w(0) 3351.
	create_child: MAIN (0, 2) FAR 5621 U 0.00
expand: MAIN (0, 0) FAR  w(0) 5621. F 0.00
expand: MAIN (1, 0) FAR  w(0) 3351.
	create_child: MAIN (0, 2) FAR 5667 U 0.00
expand: MAIN (0, 0) FAR  w(0) 5667. F 0.00
expand: MAIN (1, 0) FAR  w(0) 3351. F 0.00
expand: query!0 (2, 0) FAR  w(0) 1. F 0.00
(spacer::context::check_reachability :time 0.01 :before-memory 5.85 :after-memory 6.18)
Propagating: 0 1 2  ! 3 
(spacer::context::propagate :time 0.00 :before-memory 6.18 :after-memory 6.18)
Entering level 3
BRUNCH_STAT max_query_lvl 2
BRUNCH_STAT num_queries 7
BRUNCH_STAT num_reach_queries 0
BRUNCH_STAT num_reach_reuse 0
BRUNCH_STAT inductive_lvl 0
BRUNCH_STAT max_depth 3
BRUNCH_STAT cex_depth 0
expand: query!0 (3, 0) FAR  w(0) 1.
	create_child: MAIN (2, 3) FAR 3351 U 0.00
expand: MAIN (2, 0) FAR  w(0) 3351.
	create_child: MAIN (1, 3) FAR 6251 U 0.00
expand: MAIN (1, 0) FAR  w(0) 6251. F 0.00
expand: MAIN (2, 0) FAR  w(0) 3351.
	create_child: MAIN (1, 3) FAR 6461 U 0.00
expand: MAIN (1, 0) FAR  w(0) 6461. F 0.00
expand: MAIN (2, 0) FAR  w(0) 3351.
	create_child: MAIN (1, 3) FAR 6774 U 0.00
expand: MAIN (1, 0) FAR  w(0) 6774. F 0.00
expand: MAIN (2, 0) FAR  w(0) 3351.
	create_child: MAIN (1, 3) FAR 6708 U 0.00
expand: MAIN (1, 0) FAR  w(0) 6708. F 0.00
expand: MAIN (2, 0) FAR  w(0) 3351.
	create_child: MAIN (1, 3) FAR 7027 U 0.00
expand: MAIN (1, 0) FAR  w(0) 7027.
	create_child: MAIN (0, 3) FAR 7151 U 0.00
expand: MAIN (0, 0) FAR  w(0) 7151. F 0.00
expand: MAIN (1, 0) FAR  w(0) 7027.
	create_child: MAIN (0, 3) FAR 7477 U 0.00
expand: MAIN (0, 0) FAR  w(0) 7477. F 0.00
expand: MAIN (1, 0) FAR  w(0) 7027. F 0.00
expand: MAIN (2, 0) FAR  w(0) 3351. F 0.00
expand: query!0 (3, 0) FAR  w(0) 1. F 0.00
(spacer::context::check_reachability :time 0.02 :before-memory 6.18 :after-memory 6.47)
Propagating: 0 1 2 3  ! 4 
(spacer::context::propagate :time 0.00 :before-memory 6.47 :after-memory 6.47)
Entering level 4
BRUNCH_STAT max_query_lvl 3
BRUNCH_STAT num_queries 15
BRUNCH_STAT num_reach_queries 0
BRUNCH_STAT num_reach_reuse 0
BRUNCH_STAT inductive_lvl 0
BRUNCH_STAT max_depth 4
BRUNCH_STAT cex_depth 0
expand: query!0 (4, 0) FAR  w(0) 1.
	create_child: MAIN (3, 4) FAR 3351 U 0.00
expand: MAIN (3, 0) FAR  w(0) 3351.
	create_child: MAIN (2, 4) FAR 8931 U 0.00
expand: MAIN (2, 0) FAR  w(0) 8931.
	create_child: MAIN (1, 4) FAR 9086 U 0.00
expand: MAIN (1, 0) FAR  w(0) 9086. F 0.00
expand: MAIN (2, 0) FAR  w(0) 8931. F 0.00
expand: MAIN (3, 0) FAR  w(0) 3351. F 0.00
expand: query!0 (4, 0) FAR  w(0) 1. F 0.00
(spacer::context::check_reachability :time 0.01 :before-memory 6.47 :after-memory 6.57)
Propagating: 1 2 3 4  ! 5 
(spacer::context::propagate :time 0.00 :before-memory 6.57 :after-memory 6.57)
Entering level 5
BRUNCH_STAT max_query_lvl 4
BRUNCH_STAT num_queries 18
BRUNCH_STAT num_reach_queries 0
BRUNCH_STAT num_reach_reuse 0
BRUNCH_STAT inductive_lvl 0
BRUNCH_STAT max_depth 5
BRUNCH_STAT cex_depth 0
expand: query!0 (5, 0) FAR  w(0) 1.
	create_child: MAIN (4, 5) FAR 3351 U 0.00
expand: MAIN (4, 0) FAR  w(0) 3351.
	create_child: MAIN (3, 5) FAR 9412 U 0.00
expand: MAIN (3, 0) FAR  w(0) 9412. F 0.00
expand: MAIN (4, 0) FAR  w(0) 3351.
	create_child: MAIN (3, 5) FAR 9525 U 0.00
expand: MAIN (3, 0) FAR  w(0) 9525.
	create_child: MAIN (2, 5) FAR 9086 U 0.00
expand: MAIN (2, 0) FAR  w(0) 9086. F 0.00
expand: MAIN (3, 0) FAR  w(0) 9525. F 0.00
expand: MAIN (4, 0) FAR  w(0) 3351. F 0.00
expand: query!0 (5, 0) FAR  w(0) 1. F 0.00
(spacer::context::check_reachability :time 0.01 :before-memory 6.57 :after-memory 6.66)
Propagating: 2 3 4 5  ! 6 
(spacer::context::propagate :time 0.00 :before-memory 6.66 :after-memory 6.66)
Entering level 6
BRUNCH_STAT max_query_lvl 5
BRUNCH_STAT num_queries 22
BRUNCH_STAT num_reach_queries 0
BRUNCH_STAT num_reach_reuse 0
BRUNCH_STAT inductive_lvl 0
BRUNCH_STAT max_depth 6
BRUNCH_STAT cex_depth 0
expand: query!0 (6, 0) FAR  w(0) 1.
	create_child: MAIN (5, 6) FAR 3351 U 0.00
expand: MAIN (5, 0) FAR  w(0) 3351.
	create_child: MAIN (4, 6) FAR 9999 U 0.00
expand: MAIN (4, 0) FAR  w(0) 9999. F 0.00
expand: MAIN (5, 0) FAR  w(0) 3351.
	create_child: MAIN (4, 6) FAR 9525 U 0.00
expand: MAIN (4, 0) FAR  w(0) 9525.
	create_child: MAIN (3, 6) FAR 10196 U 0.00
expand: MAIN (3, 0) FAR  w(0) 10196. F 0.00
expand: MAIN (4, 0) FAR  w(0) 9525.
	create_child: MAIN (3, 6) FAR 10318 U 0.00
expand: MAIN (3, 0) FAR  w(0) 10318. F 0.00
expand: MAIN (4, 0) FAR  w(0) 9525. F 0.00
expand: MAIN (5, 0) FAR  w(0) 3351. F 0.00
expand: query!0 (6, 0) FAR  w(0) 1. F 0.00
(spacer::context::check_reachability :time 0.01 :before-memory 6.66 :after-memory 6.76)
Propagating: 3 
(spacer::context::propagate :time 0.00 :before-memory 6.76 :after-memory 6.76)
(define-fun MAIN ((x!0 Int)
 (x!1 Int)
 (x!2 Bool)
 (x!3 Bool)
 (x!4 Bool)
 (x!5 Int)
 (x!6 Int)
 (x!7 Int)
 (x!8 Bool)
 (x!9 Int)
 (x!10 Bool)
 (x!11 Bool)
 (x!12 Bool)
 (x!13 Int)
 (x!14 Bool)
 (x!15 Bool)
 (x!16 Bool)
 (x!17 Bool)
 (x!18 Bool)
 (x!19 Bool)
 (x!20 Bool)
 (x!21 Bool)
 (x!22 Bool)
 (x!23 Bool)) Bool
  (let ((a!1 (not (<= (+ x!6 (* (- 1) x!7)) (- 31))))
        (a!2 (not (>= (+ x!7 (* (- 1) x!5)) 10)))
        (a!3 (not (<= (+ x!0 (* (- 1) x!1)) (- 31))))
        (a!4 (not (>= (+ x!5 (* (- 1) x!6)) 10))))
    (and a!1
         x!23
         (not x!17)
         (not x!18)
         (not x!22)
         (not x!4)
         (not x!21)
         (not x!15)
         a!2
         a!3
         (or (not x!14) x!19)
         (or a!4 x!14))))
BRUNCH_STAT max_query_lvl 6
BRUNCH_STAT num_queries 27
BRUNCH_STAT num_reach_queries 0
BRUNCH_STAT num_reach_reuse 0
BRUNCH_STAT inductive_lvl 3
BRUNCH_STAT max_depth 6
BRUNCH_STAT cex_depth 0
(:SPACER-inductive-level               3
 :SPACER-max-depth                     6
 :SPACER-max-query-lvl                 6
 :SPACER-num-invariants                16
 :SPACER-num-lemmas                    34
 :SPACER-num-properties                16
 :SPACER-num-queries                   27
 :added-eqs                            1659
 :arith-add-rows                       589
 :arith-assert-diseq                   486
 :arith-assert-lower                   1835
 :arith-assert-upper                   1445
 :arith-bound-prop                     96
 :arith-conflicts                      11
 :arith-eq-adapter                     392
 :arith-fixed-eqs                      281
 :arith-offset-eqs                     174
 :arith-pivots                         160
 :bool-inductive-gen                   27
 :bool-inductive-gen-failures          31
 :conflicts                            137
 :decisions                            4203
 :del-clause                           363
 :final-checks                         58
 :minimized-lits                       2
 :mk-bool-var                          1299
 :mk-clause                            1496
 :num-checks                           157
 :propagations                         22781
 :time.itp_solver.itp_core             0.01
 :time.spacer.init_rules               0.00
 :time.spacer.init_rules.pt.init       0.00
 :time.spacer.solve                    0.08
 :time.spacer.solve.propagate          0.01
 :time.spacer.solve.reach              0.07
 :time.spacer.solve.reach.children     0.01
 :time.spacer.solve.reach.gen.bool_ind 0.01
 :time.virtual_solver.proof            0.00
 :time.virtual_solver.smt.total        0.05
 :time.virtual_solver.smt.total.sat    0.03
 :virtual_solver.checks                157
 :virtual_solver.checks.sat            58)
BRUNCH_STAT max_query_lvl 6
BRUNCH_STAT num_queries 27
BRUNCH_STAT num_reach_queries 0
BRUNCH_STAT num_reach_reuse 0
BRUNCH_STAT inductive_lvl 3
BRUNCH_STAT max_depth 6
BRUNCH_STAT cex_depth 0

real	0m0.116s
user	0m0.104s
sys	0m0.008s
