(transform N7datalog13mk_coi_filterE...no-op 0s)
(transform N7datalog25mk_interp_tail_simplifierE...15 rules 0s)
(transform N7datalog27mk_quantifier_instantiationE...no-op 0s)
(transform N7datalog8mk_scaleE...no-op 0s)
(transform N7datalog18mk_karr_invariantsE...no-op 0s)
(transform N7datalog14mk_array_blastE...no-op 0s)
(transform N7datalog22mk_subsumption_checkerE...14 rules 0s)
(transform N7datalog12mk_bit_blastE...no-op 0s)
(transform N7datalog15mk_rule_inlinerE...3 rules 0.00582287s)
(transform N7datalog13mk_coi_filterE...no-op 0s)
(transform N7datalog25mk_interp_tail_simplifierE...3 rules 0s)
(transform N7datalog22mk_subsumption_checkerE...no-op 0s)
(transform N7datalog15mk_rule_inlinerE...no-op 0s)
(transform N7datalog13mk_coi_filterE...no-op 0s)
(transform N7datalog25mk_interp_tail_simplifierE...3 rules 0s)
(transform N7datalog22mk_subsumption_checkerE...no-op 0s)
(transform N7datalog15mk_rule_inlinerE...no-op 0s)
(transform N7datalog22mk_subsumption_checkerE...no-op 0s)
(transform N7datalog15mk_rule_inlinerE...no-op 0s)
(transform N7datalog22mk_subsumption_checkerE...no-op 0s)
(transform N7datalog15mk_rule_inlinerE...no-op 0s)
(transform N7datalog22mk_subsumption_checkerE...no-op 0s)
(transform N7datalog8mk_sliceE...no-op 0s)
expand: query!0 (0, 0) FAR  w(0) 1. F 0.00
(spacer::context::check_reachability :time 0.00 :before-memory 4.57 :after-memory 5.09)
Entering level 1
BRUNCH_STAT max_query_lvl 0
BRUNCH_STAT num_queries 0
BRUNCH_STAT num_reach_queries 0
BRUNCH_STAT num_reach_reuse 0
BRUNCH_STAT inductive_lvl 0
BRUNCH_STAT max_depth 1
BRUNCH_STAT cex_depth 0
expand: query!0 (1, 0) FAR  w(0) 1.
	create_child: MAIN (0, 1) FAR 3576 U 0.00
expand: MAIN (0, 0) FAR  w(0) 3576. F 0.00
expand: query!0 (1, 0) FAR  w(0) 1. F 0.00
(spacer::context::check_reachability :time 0.00 :before-memory 5.09 :after-memory 5.91)
Propagating: 0 1  ! 2 
(spacer::context::propagate :time 0.00 :before-memory 5.91 :after-memory 6.00)
Entering level 2
BRUNCH_STAT max_query_lvl 1
BRUNCH_STAT num_queries 1
BRUNCH_STAT num_reach_queries 0
BRUNCH_STAT num_reach_reuse 0
BRUNCH_STAT inductive_lvl 0
BRUNCH_STAT max_depth 2
BRUNCH_STAT cex_depth 0
expand: query!0 (2, 0) FAR  w(0) 1.
	create_child: MAIN (1, 2) FAR 3576 U 0.00
expand: MAIN (1, 0) FAR  w(0) 3576.
	create_child: MAIN (0, 2) FAR 5766 U 0.00
expand: MAIN (0, 0) FAR  w(0) 5766. F 0.00
expand: MAIN (1, 0) FAR  w(0) 3576.
	create_child: MAIN (0, 2) FAR 5954 U 0.00
expand: MAIN (0, 0) FAR  w(0) 5954. F 0.00
expand: MAIN (1, 0) FAR  w(0) 3576.
	create_child: MAIN (0, 2) FAR 6193 U 0.00
expand: MAIN (0, 0) FAR  w(0) 6193. F 0.00
expand: MAIN (1, 0) FAR  w(0) 3576.
	create_child: MAIN (0, 2) FAR 6280 U 0.00
expand: MAIN (0, 0) FAR  w(0) 6280. F 0.00
expand: MAIN (1, 0) FAR  w(0) 3576.
	create_child: MAIN (0, 2) FAR 6413 U 0.00
expand: MAIN (0, 0) FAR  w(0) 6413. F 0.00
expand: MAIN (1, 0) FAR  w(0) 3576. F 0.00
expand: query!0 (2, 0) FAR  w(0) 1. F 0.00
(spacer::context::check_reachability :time 0.01 :before-memory 6.00 :after-memory 6.28)
Propagating: 0 1 2  ! 3 
(spacer::context::propagate :time 0.00 :before-memory 6.28 :after-memory 6.28)
Entering level 3
BRUNCH_STAT max_query_lvl 2
BRUNCH_STAT num_queries 7
BRUNCH_STAT num_reach_queries 0
BRUNCH_STAT num_reach_reuse 0
BRUNCH_STAT inductive_lvl 0
BRUNCH_STAT max_depth 3
BRUNCH_STAT cex_depth 0
expand: query!0 (3, 0) FAR  w(0) 1.
	create_child: MAIN (2, 3) FAR 3576 U 0.00
expand: MAIN (2, 0) FAR  w(0) 3576.
	create_child: MAIN (1, 3) FAR 6858 U 0.00
expand: MAIN (1, 0) FAR  w(0) 6858. F 0.00
expand: MAIN (2, 0) FAR  w(0) 3576.
	create_child: MAIN (1, 3) FAR 6826 U 0.00
expand: MAIN (1, 0) FAR  w(0) 6826. F 0.00
expand: MAIN (2, 0) FAR  w(0) 3576.
	create_child: MAIN (1, 3) FAR 7112 U 0.00
expand: MAIN (1, 0) FAR  w(0) 7112. F 0.00
expand: MAIN (2, 0) FAR  w(0) 3576.
	create_child: MAIN (1, 3) FAR 7210 U 0.00
expand: MAIN (1, 0) FAR  w(0) 7210. F 0.00
expand: MAIN (2, 0) FAR  w(0) 3576.
	create_child: MAIN (1, 3) FAR 7456 U 0.00
expand: MAIN (1, 0) FAR  w(0) 7456. F 0.00
expand: MAIN (2, 0) FAR  w(0) 3576.
	create_child: MAIN (1, 3) FAR 7752 U 0.00
expand: MAIN (1, 0) FAR  w(0) 7752. F 0.00
expand: MAIN (2, 0) FAR  w(0) 3576.
	create_child: MAIN (1, 3) FAR 8003 U 0.00
expand: MAIN (1, 0) FAR  w(0) 8003. F 0.00
expand: MAIN (2, 0) FAR  w(0) 3576.
	create_child: MAIN (1, 3) FAR 8033 U 0.00
expand: MAIN (1, 0) FAR  w(0) 8033. F 0.00
expand: MAIN (2, 0) FAR  w(0) 3576.
	create_child: MAIN (1, 3) FAR 8139 U 0.00
expand: MAIN (1, 0) FAR  w(0) 8139. F 0.00
expand: MAIN (2, 0) FAR  w(0) 3576.
	create_child: MAIN (1, 3) FAR 8289 U 0.00
expand: MAIN (1, 0) FAR  w(0) 8289. F 0.00
expand: MAIN (2, 0) FAR  w(0) 3576.
	create_child: MAIN (1, 3) FAR 8471 U 0.00
expand: MAIN (1, 0) FAR  w(0) 8471. F 0.00
expand: MAIN (2, 0) FAR  w(0) 3576.
	create_child: MAIN (1, 3) FAR 8795 U 0.00
expand: MAIN (1, 0) FAR  w(0) 8795. F 0.00
expand: MAIN (2, 0) FAR  w(0) 3576.
	create_child: MAIN (1, 3) FAR 8716 U 0.00
expand: MAIN (1, 0) FAR  w(0) 8716. F 0.00
expand: MAIN (2, 0) FAR  w(0) 3576.
	create_child: MAIN (1, 3) FAR 8901 U 0.00
expand: MAIN (1, 0) FAR  w(0) 8901. F 0.00
expand: MAIN (2, 0) FAR  w(0) 3576.
	create_child: MAIN (1, 3) FAR 9125 U 0.00
expand: MAIN (1, 0) FAR  w(0) 9125. F 0.00
expand: MAIN (2, 0) FAR  w(0) 3576. F 0.00
expand: query!0 (3, 0) FAR  w(0) 1. F 0.00
(spacer::context::check_reachability :time 0.04 :before-memory 6.28 :after-memory 6.57)
Propagating: 1 
(spacer::context::propagate :time 0.00 :before-memory 6.57 :after-memory 6.57)
(define-fun MAIN ((x!0 Bool)
 (x!1 Bool)
 (x!2 Bool)
 (x!3 Bool)
 (x!4 Bool)
 (x!5 Bool)
 (x!6 Int)
 (x!7 Int)
 (x!8 Int)
 (x!9 Bool)
 (x!10 Int)
 (x!11 Bool)
 (x!12 Bool)
 (x!13 Bool)
 (x!14 Int)
 (x!15 Bool)
 (x!16 Bool)
 (x!17 Bool)
 (x!18 Bool)
 (x!19 Bool)
 (x!20 Bool)
 (x!21 Bool)
 (x!22 Bool)
 (x!23 Bool)
 (x!24 Bool)) Bool
  (let ((a!1 (not (>= (+ x!6 (* (- 1) x!8)) (- 9)))))
    (and (or a!1 (not x!18))
         x!24
         (= x!10 0)
         x!0
         (not x!4)
         (not x!12)
         (not x!19)
         (not x!16)
         (not x!23)
         (not x!22)
         (>= (+ x!6 (* (- 1) x!8)) 0)
         (not x!2)
         (or x!18 (not x!9))
         (or (not x!20) x!15)
         (or x!13 (not x!21))
         (or x!21 (not x!13))
         (or (not x!17) x!11))))
BRUNCH_STAT max_query_lvl 3
BRUNCH_STAT num_queries 23
BRUNCH_STAT num_reach_queries 0
BRUNCH_STAT num_reach_reuse 0
BRUNCH_STAT inductive_lvl 1
BRUNCH_STAT max_depth 3
BRUNCH_STAT cex_depth 0
(:SPACER-inductive-level               1
 :SPACER-max-depth                     3
 :SPACER-max-query-lvl                 3
 :SPACER-num-invariants                20
 :SPACER-num-lemmas                    27
 :SPACER-num-properties                19
 :SPACER-num-queries                   23
 :added-eqs                            826
 :arith-add-rows                       117
 :arith-assert-diseq                   482
 :arith-assert-lower                   1045
 :arith-assert-upper                   1359
 :arith-bound-prop                     67
 :arith-conflicts                      3
 :arith-eq-adapter                     261
 :arith-fixed-eqs                      120
 :arith-offset-eqs                     109
 :arith-pivots                         57
 :bool-inductive-gen                   23
 :bool-inductive-gen-failures          35
 :conflicts                            107
 :decisions                            3760
 :del-clause                           74
 :final-checks                         52
 :minimized-lits                       5
 :mk-bool-var                          893
 :mk-clause                            1184
 :num-checks                           120
 :propagations                         18598
 :time.itp_solver.itp_core             0.01
 :time.spacer.init_rules               0.00
 :time.spacer.init_rules.pt.init       0.00
 :time.spacer.solve                    0.06
 :time.spacer.solve.propagate          0.00
 :time.spacer.solve.reach              0.06
 :time.spacer.solve.reach.children     0.01
 :time.spacer.solve.reach.gen.bool_ind 0.01
 :time.virtual_solver.proof            0.00
 :time.virtual_solver.smt.total        0.03
 :time.virtual_solver.smt.total.sat    0.02
 :virtual_solver.checks                120
 :virtual_solver.checks.sat            52)
BRUNCH_STAT max_query_lvl 3
BRUNCH_STAT num_queries 23
BRUNCH_STAT num_reach_queries 0
BRUNCH_STAT num_reach_reuse 0
BRUNCH_STAT inductive_lvl 1
BRUNCH_STAT max_depth 3
BRUNCH_STAT cex_depth 0

real	0m0.096s
user	0m0.092s
sys	0m0.004s
