(transform N7datalog13mk_coi_filterE...no-op 0s)
(transform N7datalog25mk_interp_tail_simplifierE...7 rules 0.00167333s)
(transform N7datalog27mk_quantifier_instantiationE...no-op 0s)
(transform N7datalog8mk_scaleE...no-op 0s)
(transform N7datalog18mk_karr_invariantsE...no-op 0s)
(transform N7datalog14mk_array_blastE...no-op 0s)
(transform N7datalog22mk_subsumption_checkerE...6 rules 0s)
(transform N7datalog12mk_bit_blastE...no-op 0s)
(transform N7datalog15mk_rule_inlinerE...3 rules 0.0125214s)
(transform N7datalog13mk_coi_filterE...no-op 0s)
(transform N7datalog25mk_interp_tail_simplifierE...3 rules 0s)
(transform N7datalog22mk_subsumption_checkerE...no-op 0s)
(transform N7datalog15mk_rule_inlinerE...no-op 0s)
(transform N7datalog13mk_coi_filterE...no-op 0s)
(transform N7datalog25mk_interp_tail_simplifierE...3 rules 0s)
(transform N7datalog22mk_subsumption_checkerE...no-op 0s)
(transform N7datalog15mk_rule_inlinerE...no-op 0s)
(transform N7datalog22mk_subsumption_checkerE...no-op 0s)
(transform N7datalog15mk_rule_inlinerE...no-op 0s)
(transform N7datalog22mk_subsumption_checkerE...no-op 0s)
(transform N7datalog15mk_rule_inlinerE...no-op 0s)
(transform N7datalog22mk_subsumption_checkerE...no-op 0s)
(transform N7datalog8mk_sliceE...no-op 0s)
expand: query!0 (0, 0) FAR  w(0) 1. F 0.00
(spacer::context::check_reachability :time 0.00 :before-memory 5.37 :after-memory 6.56)
Entering level 1
BRUNCH_STAT max_query_lvl 0
BRUNCH_STAT num_queries 0
BRUNCH_STAT num_reach_queries 0
BRUNCH_STAT num_reach_reuse 0
BRUNCH_STAT inductive_lvl 0
BRUNCH_STAT max_depth 1
BRUNCH_STAT cex_depth 0
expand: query!0 (1, 0) FAR  w(0) 1.
	create_child: MAIN (0, 1) FAR 12286 U 0.00
expand: MAIN (0, 0) FAR  w(0) 12286. F 0.01
expand: query!0 (1, 0) FAR  w(0) 1. F 0.00
(spacer::context::check_reachability :time 0.01 :before-memory 6.56 :after-memory 8.50)
Propagating: 0 1  ! 2 
(spacer::context::propagate :time 0.01 :before-memory 8.50 :after-memory 9.01)
Entering level 2
BRUNCH_STAT max_query_lvl 1
BRUNCH_STAT num_queries 1
BRUNCH_STAT num_reach_queries 0
BRUNCH_STAT num_reach_reuse 0
BRUNCH_STAT inductive_lvl 0
BRUNCH_STAT max_depth 2
BRUNCH_STAT cex_depth 0
expand: query!0 (2, 0) FAR  w(0) 1.
	create_child: MAIN (1, 2) FAR 12286 U 0.00
expand: MAIN (1, 0) FAR  w(0) 12286.
	create_child: MAIN (0, 2) FAR 20837 U 0.01
expand: MAIN (0, 0) FAR  w(0) 20837. F 0.00
expand: MAIN (1, 0) FAR  w(0) 12286.
	create_child: MAIN (0, 2) FAR 21034 U 0.01
expand: MAIN (0, 0) FAR  w(0) 21034. F 0.01
expand: MAIN (1, 0) FAR  w(0) 12286.
	create_child: MAIN (0, 2) FAR 21288 UNDEF 0.01
expand: MAIN (0, 0) FAR  w(0) 21288. F 0.00
expand: MAIN (1, 0) FAR  w(0) 12286.
	create_child: MAIN (0, 2) FAR 21764 UNDEF 0.01
expand: MAIN (0, 0) FAR  w(0) 21764. F 0.00
expand: MAIN (1, 0) FAR  w(0) 12286.
	create_child: MAIN (0, 2) FAR 21404 UNDEF 0.01
expand: MAIN (0, 0) FAR  w(0) 21404. F 0.00
expand: MAIN (1, 0) FAR  w(0) 12286.
	create_child: MAIN (0, 2) FAR 21629 UNDEF 0.01
expand: MAIN (0, 0) FAR  w(0) 21629. F 0.00
expand: MAIN (1, 0) FAR  w(0) 12286.
	create_child: MAIN (0, 2) FAR 22156 UNDEF 0.01
expand: MAIN (0, 0) FAR  w(0) 22156. F 0.00
expand: MAIN (1, 0) FAR  w(0) 12286.
	create_child: MAIN (0, 2) FAR 22634 UNDEF 0.01
expand: MAIN (0, 0) FAR  w(0) 22634. F 0.00
expand: MAIN (1, 0) FAR  w(0) 12286.
	create_child: MAIN (0, 2) FAR 22672 UNDEF 0.01
expand: MAIN (0, 0) FAR  w(0) 22672. F 0.01
expand: MAIN (1, 0) FAR  w(0) 12286.
	create_child: MAIN (0, 2) FAR 23043 UNDEF 0.01
expand: MAIN (0, 0) FAR  w(0) 23043. F 0.00
expand: MAIN (1, 0) FAR  w(0) 12286.
	create_child: MAIN (0, 2) FAR 23082 UNDEF 0.01
expand: MAIN (0, 0) FAR  w(0) 23082. F 0.00
expand: MAIN (1, 0) FAR  w(0) 12286.
	create_child: MAIN (0, 2) FAR 23296 UNDEF 0.01
expand: MAIN (0, 0) FAR  w(0) 23296. F 0.00
expand: MAIN (1, 0) FAR  w(0) 12286. F 0.00
expand: query!0 (2, 0) FAR  w(0) 1. F 0.00
(spacer::context::check_reachability :time 0.11 :before-memory 9.01 :after-memory 9.57)
Propagating: 0 1 2  ! 3 
(spacer::context::propagate :time 0.07 :before-memory 9.57 :after-memory 10.61)
Entering level 3
BRUNCH_STAT max_query_lvl 2
BRUNCH_STAT num_queries 14
BRUNCH_STAT num_reach_queries 0
BRUNCH_STAT num_reach_reuse 0
BRUNCH_STAT inductive_lvl 0
BRUNCH_STAT max_depth 3
BRUNCH_STAT cex_depth 0
expand: query!0 (3, 0) FAR  w(0) 1.
	create_child: MAIN (2, 3) FAR 12286 U 0.00
expand: MAIN (2, 0) FAR  w(0) 12286.
	create_child: MAIN (1, 3) FAR 27591 UNDEF 0.01
expand: MAIN (1, 0) FAR  w(0) 27591. F 0.01
expand: MAIN (2, 0) FAR  w(0) 12286.
	create_child: MAIN (1, 3) FAR 27752 UNDEF 0.01
expand: MAIN (1, 0) FAR  w(0) 27752. F 0.01
expand: MAIN (2, 0) FAR  w(0) 12286.
	create_child: MAIN (1, 3) FAR 28207 UNDEF 0.01
expand: MAIN (1, 0) FAR  w(0) 28207. F 0.01
expand: MAIN (2, 0) FAR  w(0) 12286.
	create_child: MAIN (1, 3) FAR 28188 UNDEF 0.01
expand: MAIN (1, 0) FAR  w(0) 28188. F 0.01
expand: MAIN (2, 0) FAR  w(0) 12286.
	create_child: MAIN (1, 3) FAR 27253 UNDEF 0.01
expand: MAIN (1, 0) FAR  w(0) 27253.
	create_child: MAIN (0, 3) FAR 28718 UNDEF 0.01
expand: MAIN (0, 0) FAR  w(0) 28718. UNDEF 0.00
expand: MAIN (0, 0) FAR  w(1) 28718. T 0.01
is-reachable: MAIN (1, 0) FAR 27253 T 0.08
is-reachable: MAIN (2, 0) FAR 12286 F 0.18
Deleting closed node: MAIN(1, 3) 27253
expand: MAIN (2, 0) FAR  w(1) 12286.
	create_child: MAIN (1, 3) FAR 41405 U 0.19
expand: MAIN (1, 0) FAR  w(0) 41405. F 0.00
expand: MAIN (2, 0) FAR  w(1) 12286.
	create_child: MAIN (1, 3) FAR 41625 U 0.07
expand: MAIN (1, 0) FAR  w(0) 41625. F 0.03
expand: MAIN (2, 0) FAR  w(1) 12286.
	create_child: MAIN (1, 3) FAR 42524 U 0.03
expand: MAIN (1, 0) FAR  w(0) 42524. F 0.06
expand: MAIN (2, 0) FAR  w(1) 12286.
	create_child: MAIN (1, 3) FAR 44371 U 0.10
expand: MAIN (1, 0) FAR  w(0) 44371. F 0.02
expand: MAIN (2, 0) FAR  w(1) 12286.
	create_child: MAIN (1, 3) FAR 45013 U 0.11
expand: MAIN (1, 0) FAR  w(0) 45013.
	create_child: MAIN (0, 3) FAR 45508 UNDEF 0.03
expand: MAIN (0, 0) FAR  w(0) 45508. UNDEF 0.01
expand: MAIN (0, 0) FAR  w(1) 45508. T 0.03
is-reachable: MAIN (1, 0) FAR 45013 T 0.44
is-reachable: MAIN (2, 0) FAR 12286 T 0.23
is-reachable: query!0 (3, 0) FAR 1 T 0.03
(spacer::context::check_reachability :time 1.73 :before-memory 10.61 :after-memory 20.34)
BRUNCH_STAT max_query_lvl 3
BRUNCH_STAT num_queries 27
BRUNCH_STAT num_reach_queries 4
BRUNCH_STAT num_reach_reuse 0
BRUNCH_STAT inductive_lvl 0
BRUNCH_STAT max_depth 3
BRUNCH_STAT cex_depth 3
(:SPACER-cex-depth                     3
 :SPACER-expand-node-undef             19
 :SPACER-max-depth                     3
 :SPACER-max-query-lvl                 3
 :SPACER-num-invariants                8
 :SPACER-num-lemmas                    25
 :SPACER-num-properties                22
 :SPACER-num-queries                   27
 :SPACER-num-reach-queries             4
 :added-eqs                            92648
 :arith-add-rows                       52299
 :arith-assert-diseq                   34212
 :arith-assert-lower                   52069
 :arith-assert-upper                   43632
 :arith-bound-prop                     3882
 :arith-conflicts                      219
 :arith-eq-adapter                     17056
 :arith-fixed-eqs                      10943
 :arith-gcd-tests                      8622
 :arith-gomory-cuts                    86
 :arith-ineq-splits                    160
 :arith-offset-eqs                     11495
 :arith-pivots                         4233
 :bool-inductive-gen                   22
 :bool-inductive-gen-failures          23
 :conflicts                            1216
 :decisions                            114540
 :del-clause                           19453
 :final-checks                         871
 :interface-eqs                        290
 :minimized-lits                       2894
 :mk-bool-var                          28481
 :mk-clause                            34603
 :num-checks                           168
 :propagations                         554825
 :restarts                             4
 :time.itp_solver.itp_core             0.02
 :time.spacer.init_rules               0.00
 :time.spacer.init_rules.pt.init       0.00
 :time.spacer.solve                    1.94
 :time.spacer.solve.propagate          0.08
 :time.spacer.solve.reach              1.86
 :time.spacer.solve.reach.children     0.04
 :time.spacer.solve.reach.gen.bool_ind 0.15
 :time.spacer.solve.reach.is-reach     0.96
 :time.virtual_solver.proof            0.01
 :time.virtual_solver.smt.total        1.78
 :time.virtual_solver.smt.total.sat    1.06
 :time.virtual_solver.smt.total.undef  0.22
 :virtual_solver.checks                168
 :virtual_solver.checks.sat            27
 :virtual_solver.checks.undef          43)
BRUNCH_STAT max_query_lvl 3
BRUNCH_STAT num_queries 27
BRUNCH_STAT num_reach_queries 4
BRUNCH_STAT num_reach_reuse 0
BRUNCH_STAT inductive_lvl 0
BRUNCH_STAT max_depth 3
BRUNCH_STAT cex_depth 3

real	0m2.064s
user	0m2.048s
sys	0m0.012s
