(transform N7datalog13mk_coi_filterE...no-op 0s)
(transform N7datalog25mk_interp_tail_simplifierE...7 rules 0.00173309s)
(transform N7datalog27mk_quantifier_instantiationE...no-op 0s)
(transform N7datalog8mk_scaleE...no-op 0s)
(transform N7datalog18mk_karr_invariantsE...no-op 0s)
(transform N7datalog14mk_array_blastE...no-op 0s)
(transform N7datalog22mk_subsumption_checkerE...6 rules 0s)
(transform N7datalog12mk_bit_blastE...no-op 0s)
(transform N7datalog15mk_rule_inlinerE...3 rules 0.0126019s)
(transform N7datalog13mk_coi_filterE...no-op 0s)
(transform N7datalog25mk_interp_tail_simplifierE...3 rules 0s)
(transform N7datalog22mk_subsumption_checkerE...no-op 0s)
(transform N7datalog15mk_rule_inlinerE...no-op 0s)
(transform N7datalog13mk_coi_filterE...no-op 0s)
(transform N7datalog25mk_interp_tail_simplifierE...3 rules 0s)
(transform N7datalog22mk_subsumption_checkerE...no-op 0s)
(transform N7datalog15mk_rule_inlinerE...no-op 0s)
(transform N7datalog22mk_subsumption_checkerE...no-op 0s)
(transform N7datalog15mk_rule_inlinerE...no-op 0s)
(transform N7datalog22mk_subsumption_checkerE...no-op 0s)
(transform N7datalog15mk_rule_inlinerE...no-op 0s)
(transform N7datalog22mk_subsumption_checkerE...no-op 0s)
(transform N7datalog8mk_sliceE...no-op 0s)
expand: query!0 (0, 0) FAR  w(0) 1. F 0.00
(spacer::context::check_reachability :time 0.00 :before-memory 5.38 :after-memory 6.52)
Entering level 1
BRUNCH_STAT max_query_lvl 0
BRUNCH_STAT num_queries 0
BRUNCH_STAT num_reach_queries 0
BRUNCH_STAT num_reach_reuse 0
BRUNCH_STAT inductive_lvl 0
BRUNCH_STAT max_depth 1
BRUNCH_STAT cex_depth 0
expand: query!0 (1, 0) FAR  w(0) 1.
	create_child: MAIN (0, 1) FAR 12353 U 0.00
expand: MAIN (0, 0) FAR  w(0) 12353. F 0.01
expand: query!0 (1, 0) FAR  w(0) 1. F 0.00
(spacer::context::check_reachability :time 0.01 :before-memory 6.52 :after-memory 8.58)
Propagating: 0 1  ! 2 
(spacer::context::propagate :time 0.02 :before-memory 8.58 :after-memory 9.25)
Entering level 2
BRUNCH_STAT max_query_lvl 1
BRUNCH_STAT num_queries 1
BRUNCH_STAT num_reach_queries 0
BRUNCH_STAT num_reach_reuse 0
BRUNCH_STAT inductive_lvl 0
BRUNCH_STAT max_depth 2
BRUNCH_STAT cex_depth 0
expand: query!0 (2, 0) FAR  w(0) 1.
	create_child: MAIN (1, 2) FAR 12353 U 0.00
expand: MAIN (1, 0) FAR  w(0) 12353.
	create_child: MAIN (0, 2) FAR 21897 UNDEF 0.01
expand: MAIN (0, 0) FAR  w(0) 21897. F 0.00
expand: MAIN (1, 0) FAR  w(0) 12353.
	create_child: MAIN (0, 2) FAR 22516 UNDEF 0.01
expand: MAIN (0, 0) FAR  w(0) 22516. F 0.00
expand: MAIN (1, 0) FAR  w(0) 12353.
	create_child: MAIN (0, 2) FAR 22563 UNDEF 0.00
expand: MAIN (0, 0) FAR  w(0) 22563. F 0.00
expand: MAIN (1, 0) FAR  w(0) 12353.
	create_child: MAIN (0, 2) FAR 23217 UNDEF 0.01
expand: MAIN (0, 0) FAR  w(0) 23217. F 0.00
expand: MAIN (1, 0) FAR  w(0) 12353.
	create_child: MAIN (0, 2) FAR 23894 UNDEF 0.01
expand: MAIN (0, 0) FAR  w(0) 23894. F 0.00
expand: MAIN (1, 0) FAR  w(0) 12353.
	create_child: MAIN (0, 2) FAR 24142 UNDEF 0.01
expand: MAIN (0, 0) FAR  w(0) 24142. F 0.00
expand: MAIN (1, 0) FAR  w(0) 12353.
	create_child: MAIN (0, 2) FAR 24213 UNDEF 0.01
expand: MAIN (0, 0) FAR  w(0) 24213. F 0.00
expand: MAIN (1, 0) FAR  w(0) 12353.
	create_child: MAIN (0, 2) FAR 24492 UNDEF 0.01
expand: MAIN (0, 0) FAR  w(0) 24492. F 0.00
expand: MAIN (1, 0) FAR  w(0) 12353.
	create_child: MAIN (0, 2) FAR 24741 UNDEF 0.01
expand: MAIN (0, 0) FAR  w(0) 24741. F 0.00
expand: MAIN (1, 0) FAR  w(0) 12353.
	create_child: MAIN (0, 2) FAR 25055 UNDEF 0.01
expand: MAIN (0, 0) FAR  w(0) 25055. UNDEF 0.00
expand: MAIN (0, 0) FAR  w(1) 25055. T 0.01
is-reachable: MAIN (1, 0) FAR 12353 F 0.00
expand: MAIN (1, 0) FAR  w(1) 12353.
	create_child: MAIN (0, 2) FAR 25286 U 0.01
expand: MAIN (0, 0) FAR  w(0) 25286. F 0.00
expand: MAIN (1, 0) FAR  w(1) 12353.
	create_child: MAIN (0, 2) FAR 25113 U 0.05
expand: MAIN (0, 0) FAR  w(0) 25113. F 0.01
expand: MAIN (1, 0) FAR  w(1) 12353.
	create_child: MAIN (0, 2) FAR 26873 U 0.02
expand: MAIN (0, 0) FAR  w(0) 26873. F 0.01
expand: MAIN (1, 0) FAR  w(1) 12353.
	create_child: MAIN (0, 2) FAR 27808 U 0.07
expand: MAIN (0, 0) FAR  w(0) 27808. F 0.02
expand: MAIN (1, 0) FAR  w(1) 12353.
	create_child: MAIN (0, 2) FAR 34426 U 2.15
expand: MAIN (0, 0) FAR  w(0) 34426. F 0.03
expand: MAIN (1, 0) FAR  w(1) 12353
real	15m30.006s
user	15m29.772s
sys	0m0.208s
