(transform N7datalog13mk_coi_filterE...no-op 0s)
(transform N7datalog25mk_interp_tail_simplifierE...7 rules 0.00156224s)
(transform N7datalog27mk_quantifier_instantiationE...no-op 0s)
(transform N7datalog8mk_scaleE...no-op 0s)
(transform N7datalog18mk_karr_invariantsE...no-op 0s)
(transform N7datalog14mk_array_blastE...no-op 0s)
(transform N7datalog22mk_subsumption_checkerE...6 rules 0s)
(transform N7datalog12mk_bit_blastE...no-op 0s)
(transform N7datalog15mk_rule_inlinerE...3 rules 0.0110458s)
(transform N7datalog13mk_coi_filterE...no-op 0s)
(transform N7datalog25mk_interp_tail_simplifierE...3 rules 0s)
(transform N7datalog22mk_subsumption_checkerE...no-op 0s)
(transform N7datalog15mk_rule_inlinerE...no-op 0s)
(transform N7datalog13mk_coi_filterE...no-op 0s)
(transform N7datalog25mk_interp_tail_simplifierE...3 rules 0s)
(transform N7datalog22mk_subsumption_checkerE...no-op 0s)
(transform N7datalog15mk_rule_inlinerE...no-op 0s)
(transform N7datalog22mk_subsumption_checkerE...no-op 0s)
(transform N7datalog15mk_rule_inlinerE...no-op 0s)
(transform N7datalog22mk_subsumption_checkerE...no-op 0s)
(transform N7datalog15mk_rule_inlinerE...no-op 0s)
(transform N7datalog22mk_subsumption_checkerE...no-op 0s)
(transform N7datalog8mk_sliceE...no-op 0s)
expand: query!0 (0, 0) FAR  w(0) 1. F 0.00
(spacer::context::check_reachability :time 0.00 :before-memory 5.29 :after-memory 6.17)
Entering level 1
BRUNCH_STAT max_query_lvl 0
BRUNCH_STAT num_queries 0
BRUNCH_STAT num_reach_queries 0
BRUNCH_STAT num_reach_reuse 0
BRUNCH_STAT inductive_lvl 0
BRUNCH_STAT max_depth 1
BRUNCH_STAT cex_depth 0
expand: query!0 (1, 0) FAR  w(0) 1.
	create_child: MAIN (0, 1) FAR 11944 U 0.00
expand: MAIN (0, 0) FAR  w(0) 11944. F 0.01
expand: query!0 (1, 0) FAR  w(0) 1. F 0.00
(spacer::context::check_reachability :time 0.01 :before-memory 6.17 :after-memory 8.45)
Propagating: 0 1  ! 2 
(spacer::context::propagate :time 0.04 :before-memory 8.45 :after-memory 9.27)
Entering level 2
BRUNCH_STAT max_query_lvl 1
BRUNCH_STAT num_queries 1
BRUNCH_STAT num_reach_queries 0
BRUNCH_STAT num_reach_reuse 0
BRUNCH_STAT inductive_lvl 0
BRUNCH_STAT max_depth 2
BRUNCH_STAT cex_depth 0
expand: query!0 (2, 0) FAR  w(0) 1.
	create_child: MAIN (1, 2) FAR 11944 U 0.00
expand: MAIN (1, 0) FAR  w(0) 11944.
	create_child: MAIN (0, 2) FAR 20908 UNDEF 0.01
expand: MAIN (0, 0) FAR  w(0) 20908. F 0.00
expand: MAIN (1, 0) FAR  w(0) 11944.
	create_child: MAIN (0, 2) FAR 21302 UNDEF 0.00
expand: MAIN (0, 0) FAR  w(0) 21302. F 0.00
expand: MAIN (1, 0) FAR  w(0) 11944.
	create_child: MAIN (0, 2) FAR 21536 UNDEF 0.00
expand: MAIN (0, 0) FAR  w(0) 21536. F 0.00
expand: MAIN (1, 0) FAR  w(0) 11944.
	create_child: MAIN (0, 2) FAR 22184 UNDEF 0.00
expand: MAIN (0, 0) FAR  w(0) 22184. F 0.00
expand: MAIN (1, 0) FAR  w(0) 11944.
	create_child: MAIN (0, 2) FAR 22032 UNDEF 0.01
expand: MAIN (0, 0) FAR  w(0) 22032. F 0.00
expand: MAIN (1, 0) FAR  w(0) 11944.
	create_child: MAIN (0, 2) FAR 22237 UNDEF 0.00
expand: MAIN (0, 0) FAR  w(0) 22237. F 0.00
expand: MAIN (1, 0) FAR  w(0) 11944.
	create_child: MAIN (0, 2) FAR 22506 UNDEF 0.00
expand: MAIN (0, 0) FAR  w(0) 22506. F 0.00
expand: MAIN (1, 0) FAR  w(0) 11944.
	create_child: MAIN (0, 2) FAR 21911 UNDEF 0.02
expand: MAIN (0, 0) FAR  w(0) 21911. F 0.00
expand: MAIN (1, 0) FAR  w(0) 11944.
	create_child: MAIN (0, 2) FAR 22997 UNDEF 0.00
expand: MAIN (0, 0) FAR  w(0) 22997. F 0.00
expand: MAIN (1, 0) FAR  w(0) 11944.
	create_child: MAIN (0, 2) FAR 22532 UNDEF 0.00
expand: MAIN (0, 0) FAR  w(0) 22532. F 0.00
expand: MAIN (1, 0) FAR  w(0) 11944.
	create_child: MAIN (0, 2) FAR 23102 UNDEF 0.00
expand: MAIN (0, 0) FAR  w(0) 23102. F 0.00
expand: MAIN (1, 0) FAR  w(0) 11944.
	create_child: MAIN (0, 2) FAR 23330 UNDEF 0.00
expand: MAIN (0, 0) FAR  w(0) 23330. F 0.00
expand: MAIN (1, 0) FAR  w(0) 11944.
	create_child: MAIN (0, 2) FAR 23817 UNDEF 0.01
expand: MAIN (0, 0) FAR  w(0) 23817. UNDEF 0.00
expand: MAIN (0, 0) FAR  w(1) 23817. T 0.01
is-reachable: MAIN (1, 0) FAR 11944 F 0.01
expand: MAIN (1, 0) FAR  w(1) 11944.
	create_child: MAIN (0, 2) FAR 23870 U 0.03
expand: MAIN (0, 0) FAR  w(0) 23870. F 0.01
expand: MAIN (1, 0) FAR  w(1) 11944.
	create_child: MAIN (0, 2) FAR 23873 U 0.03
expand: MAIN (0, 0) FAR  w(0) 23873. F 0.01
expand: MAIN (1, 0) FAR  w(1) 11944.
	create_child: MAIN (0, 2) FAR 25399 U 0.01
expand: MAIN (0, 0) FAR  w(0) 25399. F 0.01
expand: MAIN (1, 0) FAR  w(1) 11944. F 0.00
expand: query!0 (2, 0) FAR  w(0) 1. F 0.00
(spacer::context::check_reachability :time 0.20 :before-memory 9.27 :after-memory 10.75)
Propagating: 0 1 2  ! 3 
(spacer::context::propagate :time 0.22 :before-memory 10.75 :after-memory 11.56)
Entering level 3
BRUNCH_STAT max_query_lvl 2
BRUNCH_STAT num_queries 18
BRUNCH_STAT num_reach_queries 0
BRUNCH_STAT num_reach_reuse 0
BRUNCH_STAT inductive_lvl 0
BRUNCH_STAT max_depth 3
BRUNCH_STAT cex_depth 0
expand: query!0 (3, 0) FAR  w(0) 1.
	create_child: MAIN (2, 3) FAR 11944 U 0.00
expand: MAIN (2, 0) FAR  w(0) 11944.
	create_child: MAIN (1, 3) FAR 30518 UNDEF 0.02
expand: MAIN (1, 0) FAR  w(0) 30518. F 0.02
expand: MAIN (2, 0) FAR  w(0) 11944.
	create_child: MAIN (1, 3) FAR 30671 UNDEF 0.02
expand: MAIN (1, 0) FAR  w(0) 30671. F 0.00
expand: MAIN (2, 0) FAR  w(0) 11944.
	create_child: MAIN (1, 3) FAR 30246 UNDEF 0.02
expand: MAIN (1, 0) FAR  w(0) 30246. F 0.02
expand: MAIN (2, 0) FAR  w(0) 11944.
	create_child: MAIN (1, 3) FAR 31349 UNDEF 0.01
expand: MAIN (1, 0) FAR  w(0) 31349. F 0.01
expand: MAIN (2, 0) FAR  w(0) 11944.
	create_child: MAIN (1, 3) FAR 31675 UNDEF 0.01
expand: MAIN (1, 0) FAR  w(0) 31675.
	create_child: MAIN (0, 3) FAR 30913 UNDEF 0.01
expand: MAIN (0, 0) FAR  w(0) 30913. F 0.00
expand: MAIN (1, 0) FAR  w(0) 31675.
	create_child: MAIN (0, 3) FAR 31914 UNDEF 0.01
expand: MAIN (0, 0) FAR  w(0) 31914. F 0.01
expand: MAIN (1, 0) FAR  w(0) 31675.
	create_child: MAIN (0, 3) FAR 31396 UNDEF 0.01
expand: MAIN (0, 0) FAR  w(0) 31396. F 0.00
expand: MAIN (1, 0) FAR  w(0) 31675. F 0.00
expand: MAIN (2, 0) FAR  w(0) 11944.
	create_child: MAIN (1, 3) FAR 32209 UNDEF 0.01
expand: MAIN (1, 0) FAR  w(0) 32209. F 0.01
expand: MAIN (2, 0) FAR  w(0) 11944.
	create_child: MAIN (1, 3) FAR 32640 UNDEF 0.01
expand: MAIN (1, 0) FAR  w(0) 32640. F 0.01
expand: MAIN (2, 0) FAR  w(0) 11944. F 0.00
expand: query!0 (3, 0) FAR  w(0) 1. F 0.00
(spacer::context::check_reachability :time 0.20 :before-memory 11.56 :after-memory 11.86)
Propagating: 0 1 2 3  ! 4 
(spacer::context::propagate :time 0.11 :before-memory 11.86 :after-memory 12.08)
Entering level 4
BRUNCH_STAT max_query_lvl 3
BRUNCH_STAT num_queries 29
BRUNCH_STAT num_reach_queries 0
BRUNCH_STAT num_reach_reuse 0
BRUNCH_STAT inductive_lvl 0
BRUNCH_STAT max_depth 4
BRUNCH_STAT cex_depth 0
expand: query!0 (4, 0) FAR  w(0) 1.
	create_child: MAIN (3, 4) FAR 11944 U 0.00
expand: MAIN (3, 0) FAR  w(0) 11944.
	create_child: MAIN (2, 4) FAR 34144 U 0.01
expand: MAIN (2, 0) FAR  w(0) 34144. F 0.01
expand: MAIN (3, 0) FAR  w(0) 11944.
	create_child: MAIN (2, 4) FAR 34798 UNDEF 0.01
expand: MAIN (2, 0) FAR  w(0) 34798.
	create_child: MAIN (1, 4) FAR 34730 UNDEF 0.01
expand: MAIN (1, 0) FAR  w(0) 34730. F 0.00
expand: MAIN (2, 0) FAR  w(0) 34798.
	create_child: MAIN (1, 4) FAR 35020 UNDEF 0.01
expand: MAIN (1, 0) FAR  w(0) 35020. F 0.02
expand: MAIN (2, 0) FAR  w(0) 34798.
	create_child: MAIN (1, 4) FAR 35406 UNDEF 0.01
expand: MAIN (1, 0) FAR  w(0) 35406.
	create_child: MAIN (0, 4) FAR 34012 UNDEF 0.01
expand: MAIN (0, 0) FAR  w(0) 34012. UNDEF 0.00
expand: MAIN (0, 0) FAR  w(1) 34012. F 0.07
expand: MAIN (1, 0) FAR  w(0) 35406.
	create_child: MAIN (0, 4) FAR 36239 UNDEF 0.01
expand: MAIN (0, 0) FAR  w(0) 36239. UNDEF 0.00
expand: MAIN (0, 0) FAR  w(1) 36239. T 0.01
is-reachable: MAIN (1, 0) FAR 35406 T 0.02
is-reachable: MAIN (2, 0) FAR 34798 T 0.08
is-reachable: MAIN (3, 0) FAR 11944 T 0.06
is-reachable: query!0 (4, 0) FAR 1 T 0.03
(spacer::context::check_reachability :time 0.37 :before-memory 12.08 :after-memory 16.00)
BRUNCH_STAT max_query_lvl 4
BRUNCH_STAT num_queries 37
BRUNCH_STAT num_reach_queries 4
BRUNCH_STAT num_reach_reuse 0
BRUNCH_STAT inductive_lvl 0
BRUNCH_STAT max_depth 4
BRUNCH_STAT cex_depth 4
(:SPACER-cex-depth                     4
 :SPACER-expand-node-undef             32
 :SPACER-max-depth                     4
 :SPACER-max-query-lvl                 4
 :SPACER-num-invariants                15
 :SPACER-num-lemmas                    36
 :SPACER-num-properties                30
 :SPACER-num-queries                   37
 :SPACER-num-reach-queries             4
 :added-eqs                            67440
 :arith-add-rows                       27500
 :arith-assert-diseq                   24993
 :arith-assert-lower                   31911
 :arith-assert-upper                   36426
 :arith-bound-prop                     1293
 :arith-conflicts                      130
 :arith-eq-adapter                     16288
 :arith-fixed-eqs                      7019
 :arith-gcd-tests                      4492
 :arith-gomory-cuts                    91
 :arith-ineq-splits                    160
 :arith-offset-eqs                     6969
 :arith-pivots                         3857
 :bool-inductive-gen                   32
 :bool-inductive-gen-failures          34
 :conflicts                            886
 :decisions                            76131
 :del-clause                           15335
 :final-checks                         868
 :interface-eqs                        373
 :minimized-lits                       948
 :mk-bool-var                          24239
 :mk-clause                            27129
 :num-checks                           233
 :propagations                         362289
 :restarts                             1
 :time.itp_solver.itp_core             0.02
 :time.spacer.init_rules               0.00
 :time.spacer.init_rules.pt.init       0.00
 :time.spacer.solve                    1.14
 :time.spacer.solve.propagate          0.37
 :time.spacer.solve.reach              0.77
 :time.spacer.solve.reach.children     0.05
 :time.spacer.solve.reach.gen.bool_ind 0.20
 :time.spacer.solve.reach.is-reach     0.19
 :time.virtual_solver.proof            0.01
 :time.virtual_solver.smt.total        0.96
 :time.virtual_solver.smt.total.sat    0.54
 :time.virtual_solver.smt.total.undef  0.28
 :virtual_solver.checks                233
 :virtual_solver.checks.sat            41
 :virtual_solver.checks.undef          59)
BRUNCH_STAT max_query_lvl 4
BRUNCH_STAT num_queries 37
BRUNCH_STAT num_reach_queries 4
BRUNCH_STAT num_reach_reuse 0
BRUNCH_STAT inductive_lvl 0
BRUNCH_STAT max_depth 4
BRUNCH_STAT cex_depth 4

real	0m1.257s
user	0m1.232s
sys	0m0.024s
