(transform N7datalog13mk_coi_filterE...no-op 0s)
(transform N7datalog25mk_interp_tail_simplifierE...7 rules 0.00161194s)
(transform N7datalog27mk_quantifier_instantiationE...no-op 0s)
(transform N7datalog8mk_scaleE...no-op 0s)
(transform N7datalog18mk_karr_invariantsE...no-op 0s)
(transform N7datalog14mk_array_blastE...no-op 0s)
(transform N7datalog22mk_subsumption_checkerE...6 rules 0s)
(transform N7datalog12mk_bit_blastE...no-op 0s)
(transform N7datalog15mk_rule_inlinerE...3 rules 0.0115556s)
(transform N7datalog13mk_coi_filterE...no-op 0s)
(transform N7datalog25mk_interp_tail_simplifierE...3 rules 0s)
(transform N7datalog22mk_subsumption_checkerE...no-op 0s)
(transform N7datalog15mk_rule_inlinerE...no-op 0s)
(transform N7datalog13mk_coi_filterE...no-op 0s)
(transform N7datalog25mk_interp_tail_simplifierE...3 rules 0s)
(transform N7datalog22mk_subsumption_checkerE...no-op 0s)
(transform N7datalog15mk_rule_inlinerE...no-op 0s)
(transform N7datalog22mk_subsumption_checkerE...no-op 0s)
(transform N7datalog15mk_rule_inlinerE...no-op 0s)
(transform N7datalog22mk_subsumption_checkerE...no-op 0s)
(transform N7datalog15mk_rule_inlinerE...no-op 0s)
(transform N7datalog22mk_subsumption_checkerE...no-op 0s)
(transform N7datalog8mk_sliceE...no-op 0s)
expand: query!0 (0, 0) FAR  w(0) 1. F 0.00
(spacer::context::check_reachability :time 0.00 :before-memory 5.36 :after-memory 6.47)
Entering level 1
BRUNCH_STAT max_query_lvl 0
BRUNCH_STAT num_queries 0
BRUNCH_STAT num_reach_queries 0
BRUNCH_STAT num_reach_reuse 0
BRUNCH_STAT inductive_lvl 0
BRUNCH_STAT max_depth 1
BRUNCH_STAT cex_depth 0
expand: query!0 (1, 0) FAR  w(0) 1.
	create_child: MAIN (0, 1) FAR 12078 U 0.00
expand: MAIN (0, 0) FAR  w(0) 12078. F 0.01
expand: query!0 (1, 0) FAR  w(0) 1. F 0.00
(spacer::context::check_reachability :time 0.01 :before-memory 6.47 :after-memory 8.41)
Propagating: 0 1  ! 2 
(spacer::context::propagate :time 0.07 :before-memory 8.41 :after-memory 9.32)
Entering level 2
BRUNCH_STAT max_query_lvl 1
BRUNCH_STAT num_queries 1
BRUNCH_STAT num_reach_queries 0
BRUNCH_STAT num_reach_reuse 0
BRUNCH_STAT inductive_lvl 0
BRUNCH_STAT max_depth 2
BRUNCH_STAT cex_depth 0
expand: query!0 (2, 0) FAR  w(0) 1.
	create_child: MAIN (1, 2) FAR 12078 U 0.00
expand: MAIN (1, 0) FAR  w(0) 12078.
	create_child: MAIN (0, 2) FAR 21263 UNDEF 0.01
expand: MAIN (0, 0) FAR  w(0) 21263. UNDEF 0.00
expand: MAIN (0, 0) FAR  w(1) 21263. T 0.01
is-reachable: MAIN (1, 0) FAR 12078 F 0.04
expand: MAIN (1, 0) FAR  w(1) 12078.
	create_child: MAIN (0, 2) FAR 22677 U 0.02
expand: MAIN (0, 0) FAR  w(0) 22677. F 0.00
expand: MAIN (1, 0) FAR  w(1) 12078.
	create_child: MAIN (0, 2) FAR 23378 U 0.03
expand: MAIN (0, 0) FAR  w(0) 23378. F 0.00
expand: MAIN (1, 0) FAR  w(1) 12078.
	create_child: MAIN (0, 2) FAR 29968 U 33.91
expand: MAIN (0, 0) FAR  w(0) 29968. F 0.02
expand: MAIN (1, 0) FAR  w(1) 12078.
	create_child: MAIN (0, 2) FAR 25208 U 56.57
expand: MAIN (0, 0) FAR  w(0) 25208. F 0.76
expand: MAIN (1, 0) FAR  w(1) 12078.
	create_child: MAIN (0, 2) FAR 40743 U 37.10
expand: MAIN (0, 0) FAR  w(0) 40743. F 0.01
expand: MAIN (1, 0) FAR  w(1) 12078.
	create_child: MAIN (0, 2) FAR 39364 U 1.23
expand: MAIN (0, 0) FAR  w(0) 39364. F 0.02
expand: MAIN (1, 0) FAR  w(1) 12078.
	create_child: MAIN (0, 2) FAR 42770 U 23.48
expand: MAIN (0, 0) FAR  w(0) 42770. F 0.09
expand: MAIN (1, 0) FAR  w(1) 12078.
	create_child: MAIN (0, 2) FAR 68311 U 471.76
expand: MAIN (0, 0) FAR  w(0) 68311. F 0.07
expand: MAIN (1, 0) FAR  w(1) 12078
real	15m30.007s
user	15m29.784s
sys	0m0.184s
