(transform N7datalog13mk_coi_filterE...no-op 0s)
(transform N7datalog25mk_interp_tail_simplifierE...7 rules 0.00189658s)
(transform N7datalog27mk_quantifier_instantiationE...no-op 0s)
(transform N7datalog8mk_scaleE...no-op 0s)
(transform N7datalog18mk_karr_invariantsE...no-op 0s)
(transform N7datalog14mk_array_blastE...no-op 0s)
(transform N7datalog22mk_subsumption_checkerE...6 rules 0s)
(transform N7datalog12mk_bit_blastE...no-op 0s)
(transform N7datalog15mk_rule_inlinerE...3 rules 0.0147576s)
(transform N7datalog13mk_coi_filterE...no-op 0s)
(transform N7datalog25mk_interp_tail_simplifierE...3 rules 0s)
(transform N7datalog22mk_subsumption_checkerE...no-op 0s)
(transform N7datalog15mk_rule_inlinerE...no-op 0s)
(transform N7datalog13mk_coi_filterE...no-op 0s)
(transform N7datalog25mk_interp_tail_simplifierE...3 rules 0s)
(transform N7datalog22mk_subsumption_checkerE...no-op 0s)
(transform N7datalog15mk_rule_inlinerE...no-op 0s)
(transform N7datalog22mk_subsumption_checkerE...no-op 0s)
(transform N7datalog15mk_rule_inlinerE...no-op 0s)
(transform N7datalog22mk_subsumption_checkerE...no-op 0s)
(transform N7datalog15mk_rule_inlinerE...no-op 0s)
(transform N7datalog22mk_subsumption_checkerE...no-op 0s)
(transform N7datalog8mk_sliceE...no-op 0.00108041s)
expand: query!0 (0, 0) FAR  w(0) 1. F 0.00
(spacer::context::check_reachability :time 0.00 :before-memory 5.91 :after-memory 6.96)
Entering level 1
BRUNCH_STAT max_query_lvl 0
BRUNCH_STAT num_queries 0
BRUNCH_STAT num_reach_queries 0
BRUNCH_STAT num_reach_reuse 0
BRUNCH_STAT inductive_lvl 0
BRUNCH_STAT max_depth 1
BRUNCH_STAT cex_depth 0
expand: query!0 (1, 0) FAR  w(0) 1.
	create_child: MAIN (0, 1) FAR 13990 U 0.00
expand: MAIN (0, 0) FAR  w(0) 13990. F 0.02
expand: query!0 (1, 0) FAR  w(0) 1. F 0.00
(spacer::context::check_reachability :time 0.02 :before-memory 6.96 :after-memory 9.60)
Propagating: 0 1  ! 2 
(spacer::context::propagate :time 0.01 :before-memory 9.60 :after-memory 9.91)
Entering level 2
BRUNCH_STAT max_query_lvl 1
BRUNCH_STAT num_queries 1
BRUNCH_STAT num_reach_queries 0
BRUNCH_STAT num_reach_reuse 0
BRUNCH_STAT inductive_lvl 0
BRUNCH_STAT max_depth 2
BRUNCH_STAT cex_depth 0
expand: query!0 (2, 0) FAR  w(0) 1.
	create_child: MAIN (1, 2) FAR 13990 U 0.00
expand: MAIN (1, 0) FAR  w(0) 13990.
	create_child: MAIN (0, 2) FAR 26876 UNDEF 0.04
expand: MAIN (0, 0) FAR  w(0) 26876. F 0.00
expand: MAIN (1, 0) FAR  w(0) 13990.
	create_child: MAIN (0, 2) FAR 27648 UNDEF 0.02
expand: MAIN (0, 0) FAR  w(0) 27648. F 0.00
expand: MAIN (1, 0) FAR  w(0) 13990.
	create_child: MAIN (0, 2) FAR 27988 UNDEF 0.01
expand: MAIN (0, 0) FAR  w(0) 27988. F 0.00
expand: MAIN (1, 0) FAR  w(0) 13990.
	create_child: MAIN (0, 2) FAR 28715 UNDEF 0.02
expand: MAIN (0, 0) FAR  w(0) 28715. F 0.00
expand: MAIN (1, 0) FAR  w(0) 13990.
	create_child: MAIN (0, 2) FAR 29092 UNDEF 0.01
expand: MAIN (0, 0) FAR  w(0) 29092. F 0.01
expand: MAIN (1, 0) FAR  w(0) 13990.
	create_child: MAIN (0, 2) FAR 29258 UNDEF 0.01
expand: MAIN (0, 0) FAR  w(0) 29258. F 0.01
expand: MAIN (1, 0) FAR  w(0) 13990.
	create_child: MAIN (0, 2) FAR 29494 UNDEF 0.01
expand: MAIN (0, 0) FAR  w(0) 29494. F 0.01
expand: MAIN (1, 0) FAR  w(0) 13990.
	create_child: MAIN (0, 2) FAR 29600 UNDEF 0.01
expand: MAIN (0, 0) FAR  w(0) 29600. F 0.01
expand: MAIN (1, 0) FAR  w(0) 13990.
	create_child: MAIN (0, 2) FAR 30165 UNDEF 0.01
expand: MAIN (0, 0) FAR  w(0) 30165. F 0.00
expand: MAIN (1, 0) FAR  w(0) 13990.
	create_child: MAIN (0, 2) FAR 30154 UNDEF 0.02
expand: MAIN (0, 0) FAR  w(0) 30154. F 0.00
expand: MAIN (1, 0) FAR  w(0) 13990.
	create_child: MAIN (0, 2) FAR 30894 UNDEF 0.01
expand: MAIN (0, 0) FAR  w(0) 30894. F 0.01
expand: MAIN (1, 0) FAR  w(0) 13990.
	create_child: MAIN (0, 2) FAR 30416 UNDEF 0.01
expand: MAIN (0, 0) FAR  w(0) 30416. F 0.00
expand: MAIN (1, 0) FAR  w(0) 13990.
	create_child: MAIN (0, 2) FAR 27491 UNDEF 0.01
expand: MAIN (0, 0) FAR  w(0) 27491. F 0.00
expand: MAIN (1, 0) FAR  w(0) 13990.
	create_child: MAIN (0, 2) FAR 31579 UNDEF 0.01
expand: MAIN (0, 0) FAR  w(0) 31579. F 0.01
expand: MAIN (1, 0) FAR  w(0) 13990.
	create_child: MAIN (0, 2) FAR 31805 UNDEF 0.01
expand: MAIN (0, 0) FAR  w(0) 31805. F 0.01
expand: MAIN (1, 0) FAR  w(0) 13990.
	create_child: MAIN (0, 2) FAR 32024 UNDEF 0.01
expand: MAIN (0, 0) FAR  w(0) 32024. UNDEF 0.00
expand: MAIN (0, 0) FAR  w(1) 32024. T 0.01
is-reachable: MAIN (1, 0) FAR 13990 F 0.01
expand: MAIN (1, 0) FAR  w(1) 13990.
	create_child: MAIN (0, 2) FAR 33015 U 0.05
expand: MAIN (0, 0) FAR  w(0) 33015. F 0.01
expand: MAIN (1, 0) FAR  w(1) 13990.
	create_child: MAIN (0, 2) FAR 33557 U 0.06
expand: MAIN (0, 0) FAR  w(0) 33557. F 0.02
expand: MAIN (1, 0) FAR  w(1) 13990.
	create_child: MAIN (0, 2) FAR 34714 U 0.09
expand: MAIN (0, 0) FAR  w(0) 34714. F 0.00
expand: MAIN (1, 0) FAR  w(1) 13990.
	create_child: MAIN (0, 2) FAR 34802 U 0.04
expand: MAIN (0, 0) FAR  w(0) 34802. F 0.00
expand: MAIN (1, 0) FAR  w(1) 13990.
	create_child: MAIN (0, 2) FAR 35506 U 0.05
expand: MAIN (0, 0) FAR  w(0) 35506. F 0.00
expand: MAIN (1, 0) FAR  w(1) 13990.
	create_child: MAIN (0, 2) FAR 35110 U 0.03
expand: MAIN (0, 0) FAR  w(0) 35110. F 0.02
expand: MAIN (1, 0) FAR  w(1) 13990.
	create_child: MAIN (0, 2) FAR 35850 U 0.01
expand: MAIN (0, 0) FAR  w(0) 35850. F 0.01
expand: MAIN (1, 0) FAR  w(1) 13990.
	create_child: MAIN (0, 2) FAR 33980 U 0.01
expand: MAIN (0, 0) FAR  w(0) 33980. F 0.01
expand: MAIN (1, 0) FAR  w(1) 13990.
	create_child: MAIN (0, 2) FAR 36664 U 0.05
expand: MAIN (0, 0) FAR  w(0) 36664. F 0.00
expand: MAIN (1, 0) FAR  w(1) 13990.
	create_child: MAIN (0, 2) FAR 35872 U 0.02
expand: MAIN (0, 0) FAR  w(0) 35872. F 0.01
expand: MAIN (1, 0) FAR  w(1) 13990.
	create_child: MAIN (0, 2) FAR 36904 U 0.03
expand: MAIN (0, 0) FAR  w(0) 36904. F 0.01
expand: MAIN (1, 0) FAR  w(1) 13990.
	create_child: MAIN (0, 2) FAR 37543 U 0.01
expand: MAIN (0, 0) FAR  w(0) 37543. F 0.00
expand: MAIN (1, 0) FAR  w(1) 13990.
	create_child: MAIN (0, 2) FAR 37894 U 0.04
expand: MAIN (0, 0) FAR  w(0) 37894. F 0.01
expand: MAIN (1, 0) FAR  w(1) 13990.
	create_child: MAIN (0, 2) FAR 37959 UNDEF 0.02
expand: MAIN (0, 0) FAR  w(0) 37959. F 0.02
expand: MAIN (1, 0) FAR  w(1) 13990.
	create_child: MAIN (0, 2) FAR 32743 UNDEF 0.02
expand: MAIN (0, 0) FAR  w(0) 32743. F 0.02
expand: MAIN (1, 0) FAR  w(1) 13990.
	create_child: MAIN (0, 2) FAR 38441 UNDEF 0.02
expand: MAIN (0, 0) FAR  w(0) 38441. F 0.02
expand: MAIN (1, 0) FAR  w(1) 13990.
	create_child: MAIN (0, 2) FAR 39571 UNDEF 0.02
expand: MAIN (0, 0) FAR  w(0) 39571. F 0.01
expand: MAIN (1, 0) FAR  w(1) 13990.
	create_child: MAIN (0, 2) FAR 38119 UNDEF 0.02
expand: MAIN (0, 0) FAR  w(0) 38119. F 0.00
expand: MAIN (1, 0) FAR  w(1) 13990.
	create_child: MAIN (0, 2) FAR 40148 UNDEF 0.04
expand: MAIN (0, 0) FAR  w(0) 40148. F 0.02
expand: MAIN (1, 0) FAR  w(1) 13990.
	create_child: MAIN (0, 2) FAR 40610 UNDEF 0.02
expand: MAIN (0, 0) FAR  w(0) 40610. F 0.01
expand: MAIN (1, 0) FAR  w(1) 13990. F 0.02
expand: query!0 (2, 0) FAR  w(0) 1. F 0.00
(spacer::context::check_reachability :time 1.22 :before-memory 9.91 :after-memory 14.23)
Propagating: 0 1 2  ! 3 
(spacer::context::propagate :time 2.18 :before-memory 14.23 :after-memory 19.36)
Entering level 3
BRUNCH_STAT max_query_lvl 2
BRUNCH_STAT num_queries 38
BRUNCH_STAT num_reach_queries 0
BRUNCH_STAT num_reach_reuse 0
BRUNCH_STAT inductive_lvl 0
BRUNCH_STAT max_depth 3
BRUNCH_STAT cex_depth 0
expand: query!0 (3, 0) FAR  w(0) 1.
	create_child: MAIN (2, 3) FAR 13990 UNDEF 0.00
expand: MAIN (2, 0) FAR  w(0) 13990.
	create_child: MAIN (1, 3) FAR 48091 UNDEF 0.03
expand: MAIN (1, 0) FAR  w(0) 48091. F 0.00
expand: MAIN (2, 0) FAR  w(0) 13990.
	create_child: MAIN (1, 3) FAR 47931 UNDEF 0.03
expand: MAIN (1, 0) FAR  w(0) 47931. F 0.03
expand: MAIN (2, 0) FAR  w(0) 13990.
	create_child: MAIN (1, 3) FAR 49753 UNDEF 0.02
expand: MAIN (1, 0) FAR  w(0) 49753.
	create_child: MAIN (0, 3) FAR 51951 UNDEF 0.06
expand: MAIN (0, 0) FAR  w(0) 51951. UNDEF 0.02
expand: MAIN (0, 0) FAR  w(1) 51951. UNDEF 0.03
expand: MAIN (0, 0) FAR  w(2) 51951. UNDEF 0.01
expand: MAIN (0, 0) FAR  w(3) 51951. UNDEF 0.01
expand: MAIN (0, 0) FAR  w(4) 51951. UNDEF 0.01
expand: MAIN (0, 0) FAR  w(5) 51951. UNDEF 0.01
expand: MAIN (0, 0) FAR  w(6) 51951. UNDEF 0.01
expand: MAIN (0, 0) FAR  w(7) 51951. UNDEF 0.01
expand: MAIN (0, 0) FAR  w(8) 51951. UNDEF 0.01
expand: MAIN (0, 0) FAR  w(9) 51951. UNDEF 0.01
expand: MAIN (0, 0) FAR  w(10) 51951. UNDEF 0.01
expand: MAIN (0, 0) FAR  w(11) 51951. UNDEF 0.01
expand: MAIN (0, 0) FAR  w(12) 51951. UNDEF 0.01
expand: MAIN (0, 0) FAR  w(13) 51951. UNDEF 0.01
expand: MAIN (0, 0) FAR  w(14) 51951. UNDEF 0.01
expand: MAIN (0, 0) FAR  w(15) 51951. UNDEF 0.01
expand: MAIN (0, 0) FAR  w(16) 51951. UNDEF 0.01
expand: MAIN (0, 0) FAR  w(17) 51951. UNDEF 0.01
expand: MAIN (0, 0) FAR  w(18) 51951. UNDEF 0.01
expand: MAIN (0, 0) FAR  w(19) 51951. UNDEF 0.01
expand: MAIN (0, 0) FAR  w(20) 51951. UNDEF 0.01
expand: MAIN (0, 0) FAR  w(21) 51951. UNDEF 0.01
expand: MAIN (0, 0) FAR  w(22) 51951. UNDEF 0.01
expand: MAIN (0, 0) FAR  w(23) 51951. UNDEF 0.01
expand: MAIN (0, 0) FAR  w(24) 51951. UNDEF 0.01
expand: MAIN (0, 0) FAR  w(25) 51951. UNDEF 0.01
expand: MAIN (0, 0) FAR  w(26) 51951. UNDEF 0.01
expand: MAIN (0, 0) FAR  w(27) 51951. UNDEF 0.01
expand: MAIN (0, 0) FAR  w(28) 51951. UNDEF 0.01
expand: MAIN (0, 0) FAR  w(29) 51951. UNDEF 0.01
expand: MAIN (0, 0) FAR  w(30) 51951. UNDEF 0.01
expand: MAIN (0, 0) FAR  w(31) 51951. UNDEF 0.01
expand: MAIN (0, 0) FAR  w(32) 51951. UNDEF 0.01
expand: MAIN (0, 0) FAR  w(33) 51951. UNDEF 0.01
expand: MAIN (0, 0) FAR  w(34) 51951. UNDEF 0.01
expand: MAIN (0, 0) FAR  w(35) 51951. UNDEF 0.01
expand: MAIN (0, 0) FAR  w(36) 51951. UNDEF 0.01
expand: MAIN (0, 0) FAR  w(37) 51951. UNDEF 0.01
expand: MAIN (0, 0) FAR  w(38) 51951. UNDEF 0.01
expand: MAIN (0, 0) FAR  w(39) 51951. UNDEF 0.01
expand: MAIN (0, 0) FAR  w(40) 51951. UNDEF 0.01
expand: MAIN (0, 0) FAR  w(41) 51951. UNDEF 0.01
expand: MAIN (0, 0) FAR  w(42) 51951. UNDEF 0.01
expand: MAIN (0, 0) FAR  w(43) 51951. UNDEF 0.01
expand: MAIN (0, 0) FAR  w(44) 51951. UNDEF 0.01
expand: MAIN (0, 0) FAR  w(45) 51951. UNDEF 0.01
expand: MAIN (0, 0) FAR  w(46) 51951. UNDEF 0.01
expand: MAIN (0, 0) FAR  w(47) 51951. UNDEF 0.01
expand: MAIN (0, 0) FAR  w(48) 51951. UNDEF 0.01
expand: MAIN (0, 0) FAR  w(49) 51951. UNDEF 0.01
expand: MAIN (0, 0) FAR  w(50) 51951. UNDEF 0.01
expand: MAIN (0, 0) FAR  w(51) 51951. UNDEF 0.01
expand: MAIN (0, 0) FAR  w(52) 51951. UNDEF 0.01
expand: MAIN (0, 0) FAR  w(53) 51951. UNDEF 0.01
expand: MAIN (0, 0) FAR  w(54) 51951. UNDEF 0.01
expand: MAIN (0, 0) FAR  w(55) 51951. UNDEF 0.01
expand: MAIN (0, 0) FAR  w(56) 51951. UNDEF 0.01
expand: MAIN (0, 0) FAR  w(57) 51951. UNDEF 0.01
expand: MAIN (0, 0) FAR  w(58) 51951. UNDEF 0.01
expand: MAIN (0, 0) FAR  w(59) 51951. UNDEF 0.01
expand: MAIN (0, 0) FAR  w(60) 51951. UNDEF 0.01
expand: MAIN (0, 0) FAR  w(61) 51951. UNDEF 0.01
expand: MAIN (0, 0) FAR  w(62) 51951. UNDEF 0.01
expand: MAIN (0, 0) FAR  w(63) 51951. UNDEF 0.01
expand: MAIN (0, 0) FAR  w(64) 51951. UNDEF 0.01
expand: MAIN (0, 0) FAR  w(65) 51951. UNDEF 0.01
expand: MAIN (0, 0) FAR  w(66) 51951. UNDEF 0.01
expand: MAIN (0, 0) FAR  w(67) 51951. UNDEF 0.01
expand: MAIN (0, 0) FAR  w(68) 51951. UNDEF 0.01
expand: MAIN (0, 0) FAR  w(69) 51951. UNDEF 0.01
expand: MAIN (0, 0) FAR  w(70) 51951. UNDEF 0.01
expand: MAIN (0, 0) FAR  w(71) 51951. UNDEF 0.01
expand: MAIN (0, 0) FAR  w(72) 51951. UNDEF 0.01
expand: MAIN (0, 0) FAR  w(73) 51951. UNDEF 0.01
expand: MAIN (0, 0) FAR  w(74) 51951. UNDEF 0.01
expand: MAIN (0, 0) FAR  w(75) 51951. UNDEF 0.01
expand: MAIN (0, 0) FAR  w(76) 51951. UNDEF 0.01
expand: MAIN (0, 0) FAR  w(77) 51951. UNDEF 0.01
expand: MAIN (0, 0) FAR  w(78) 51951. UNDEF 0.01
expand: MAIN (0, 0) FAR  w(79) 51951. UNDEF 0.01
expand: MAIN (0, 0) FAR  w(80) 51951. UNDEF 0.01
expand: MAIN (0, 0) FAR  w(81) 51951. UNDEF 0.01
expand: MAIN (0, 0) FAR  w(82) 51951. UNDEF 0.01
expand: MAIN (0, 0) FAR  w(83) 51951. UNDEF 0.01
expand: MAIN (0, 0) FAR  w(84) 51951. UNDEF 0.01
expand: MAIN (0, 0) FAR  w(85) 51951. UNDEF 0.01
expand: MAIN (0, 0) FAR  w(86) 51951. UNDEF 0.01
expand: MAIN (0, 0) FAR  w(87) 51951. UNDEF 0.01
expand: MAIN (0, 0) FAR  w(88) 51951. UNDEF 0.01
expand: MAIN (0, 0) FAR  w(89) 51951. UNDEF 0.01
expand: MAIN (0, 0) FAR  w(90) 51951. UNDEF 0.01
expand: MAIN (0, 0) FAR  w(91) 51951. UNDEF 0.01
expand: MAIN (0, 0) FAR  w(92) 51951. UNDEF 0.01
expand: MAIN (0, 0) FAR  w(93) 51951. UNDEF 0.01
expand: MAIN (0, 0) FAR  w(94) 51951. UNDEF 0.01
expand: MAIN (0, 0) FAR  w(95) 51951. UNDEF 0.01
expand: MAIN (0, 0) FAR  w(96) 51951. UNDEF 0.01
expand: MAIN (0, 0) FAR  w(97) 51951. UNDEF 0.01
expand: MAIN (0, 0) FAR  w(98) 51951. UNDEF 0.01
expand: MAIN (0, 0) FAR  w(99) 51951. UNDEF 0.01
expand: MAIN (0, 0) FAR  w(100) 51951.(spacer::context::check_reachability :time 1.23 :before-memory 19.36 :after-memory 20.38)
BRUNCH_STAT max_query_lvl 3
BRUNCH_STAT num_queries 43
BRUNCH_STAT num_reach_queries 0
BRUNCH_STAT num_reach_reuse 0
BRUNCH_STAT inductive_lvl 0
BRUNCH_STAT max_depth 3
BRUNCH_STAT cex_depth 0
(:SPACER-expand-node-undef             129
 :SPACER-max-depth                     3
 :SPACER-max-query-lvl                 3
 :SPACER-num-invariants                20
 :SPACER-num-lemmas                    42
 :SPACER-num-properties                39
 :SPACER-num-queries                   43
 :added-eqs                            191860
 :arith-add-rows                       206439
 :arith-assert-diseq                   54485
 :arith-assert-lower                   101233
 :arith-assert-upper                   99003
 :arith-bound-prop                     3161
 :arith-conflicts                      313
 :arith-eq-adapter                     43287
 :arith-fixed-eqs                      26731
 :arith-gcd-tests                      32544
 :arith-gomory-cuts                    265
 :arith-ineq-splits                    409
 :arith-offset-eqs                     28384
 :arith-pivots                         13938
 :bool-inductive-gen                   39
 :bool-inductive-gen-failures          46
 :conflicts                            1331
 :decisions                            250676
 :del-clause                           55589
 :final-checks                         3169
 :interface-eqs                        1904
 :lazy-quant-instantiations            412
 :max-generation                       20
 :minimized-lits                       1656
 :mk-bool-var                          68468
 :mk-clause                            66237
 :num-checks                           347
 :propagations                         929369
 :quant-instantiations                 1868
 :restarts                             3
 :time.itp_solver.itp_core             0.03
 :time.spacer.init_rules               0.00
 :time.spacer.init_rules.pt.init       0.00
 :time.spacer.solve                    4.67
 :time.spacer.solve.propagate          2.19
 :time.spacer.solve.reach              2.48
 :time.spacer.solve.reach.children     0.09
 :time.spacer.solve.reach.gen.bool_ind 0.24
 :time.spacer.solve.reach.is-reach     0.01
 :time.virtual_solver.proof            0.02
 :time.virtual_solver.smt.total        4.52
 :time.virtual_solver.smt.total.sat    0.51
 :time.virtual_solver.smt.total.undef  3.65
 :virtual_solver.checks                347
 :virtual_solver.checks.sat            26
 :virtual_solver.checks.undef          173)
BRUNCH_STAT max_query_lvl 3
BRUNCH_STAT num_queries 43
BRUNCH_STAT num_reach_queries 0
BRUNCH_STAT num_reach_reuse 0
BRUNCH_STAT inductive_lvl 0
BRUNCH_STAT max_depth 3
BRUNCH_STAT cex_depth 0

real	0m4.728s
user	0m4.712s
sys	0m0.012s
