(transform N7datalog13mk_coi_filterE...no-op 0s)
(transform N7datalog25mk_interp_tail_simplifierE...11 rules 0s)
(transform N7datalog27mk_quantifier_instantiationE...no-op 0s)
(transform N7datalog8mk_scaleE...no-op 0s)
(transform N7datalog18mk_karr_invariantsE...no-op 0s)
(transform N7datalog14mk_array_blastE...no-op 0s)
(transform N7datalog22mk_subsumption_checkerE...10 rules 0s)
(transform N7datalog12mk_bit_blastE...no-op 0s)
(transform N7datalog15mk_rule_inlinerE...3 rules 0.00138852s)
(transform N7datalog13mk_coi_filterE...no-op 0s)
(transform N7datalog25mk_interp_tail_simplifierE...3 rules 0s)
(transform N7datalog22mk_subsumption_checkerE...no-op 0s)
(transform N7datalog15mk_rule_inlinerE...no-op 0s)
(transform N7datalog13mk_coi_filterE...no-op 0s)
(transform N7datalog25mk_interp_tail_simplifierE...3 rules 0s)
(transform N7datalog22mk_subsumption_checkerE...no-op 0s)
(transform N7datalog15mk_rule_inlinerE...no-op 0s)
(transform N7datalog22mk_subsumption_checkerE...no-op 0s)
(transform N7datalog15mk_rule_inlinerE...no-op 0s)
(transform N7datalog22mk_subsumption_checkerE...no-op 0s)
(transform N7datalog15mk_rule_inlinerE...no-op 0s)
(transform N7datalog22mk_subsumption_checkerE...no-op 0s)
(transform N7datalog8mk_sliceE...no-op 0s)
expand: query!0 (0, 0) FAR  w(0) 1. F 0.00
(spacer::context::check_reachability :time 0.00 :before-memory 4.18 :after-memory 4.79)
Entering level 1
BRUNCH_STAT max_query_lvl 0
BRUNCH_STAT num_queries 0
BRUNCH_STAT num_reach_queries 0
BRUNCH_STAT num_reach_reuse 0
BRUNCH_STAT inductive_lvl 0
BRUNCH_STAT max_depth 1
BRUNCH_STAT cex_depth 0
expand: query!0 (1, 0) FAR  w(0) 1.
	create_child: MAIN (0, 1) FAR 1234 U 0.00
expand: MAIN (0, 0) FAR  w(0) 1234. F 0.00
expand: query!0 (1, 0) FAR  w(0) 1. F 0.00
(spacer::context::check_reachability :time 0.00 :before-memory 4.79 :after-memory 5.31)
Propagating: 0 1  ! 2 
(spacer::context::propagate :time 0.00 :before-memory 5.31 :after-memory 5.31)
Entering level 2
BRUNCH_STAT max_query_lvl 1
BRUNCH_STAT num_queries 1
BRUNCH_STAT num_reach_queries 0
BRUNCH_STAT num_reach_reuse 0
BRUNCH_STAT inductive_lvl 0
BRUNCH_STAT max_depth 2
BRUNCH_STAT cex_depth 0
expand: query!0 (2, 0) FAR  w(0) 1.
	create_child: MAIN (1, 2) FAR 1234 U 0.00
expand: MAIN (1, 0) FAR  w(0) 1234.
	create_child: MAIN (0, 2) FAR 2187 U 0.00
expand: MAIN (0, 0) FAR  w(0) 2187. F 0.00
expand: MAIN (1, 0) FAR  w(0) 1234.
	create_child: MAIN (0, 2) FAR 2262 U 0.00
expand: MAIN (0, 0) FAR  w(0) 2262. F 0.00
expand: MAIN (1, 0) FAR  w(0) 1234.
	create_child: MAIN (0, 2) FAR 2296 U 0.00
expand: MAIN (0, 0) FAR  w(0) 2296. F 0.00
expand: MAIN (1, 0) FAR  w(0) 1234.
	create_child: MAIN (0, 2) FAR 2282 U 0.00
expand: MAIN (0, 0) FAR  w(0) 2282. F 0.00
expand: MAIN (1, 0) FAR  w(0) 1234.
	create_child: MAIN (0, 2) FAR 2405 U 0.00
expand: MAIN (0, 0) FAR  w(0) 2405. F 0.00
expand: MAIN (1, 0) FAR  w(0) 1234. F 0.00
expand: query!0 (2, 0) FAR  w(0) 1. F 0.00
(spacer::context::check_reachability :time 0.01 :before-memory 5.31 :after-memory 5.41)
Propagating: 0 
(spacer::context::propagate :time 0.00 :before-memory 5.41 :after-memory 5.56)
(define-fun MAIN ((x!0 Bool)
 (x!1 Bool)
 (x!2 Bool)
 (x!3 Bool)
 (x!4 Bool)
 (x!5 Int)
 (x!6 Bool)
 (x!7 Bool)) Bool
  (and (not x!0) (not x!2) x!7 (not x!3) (not x!6) (= x!5 0)))
BRUNCH_STAT max_query_lvl 2
BRUNCH_STAT num_queries 7
BRUNCH_STAT num_reach_queries 0
BRUNCH_STAT num_reach_reuse 0
BRUNCH_STAT inductive_lvl 0
BRUNCH_STAT max_depth 2
BRUNCH_STAT cex_depth 0
(:SPACER-max-depth                     2
 :SPACER-max-query-lvl                 2
 :SPACER-num-invariants                7
 :SPACER-num-lemmas                    10
 :SPACER-num-properties                7
 :SPACER-num-queries                   7
 :added-eqs                            128
 :arith-add-rows                       8
 :arith-assert-diseq                   31
 :arith-assert-lower                   57
 :arith-assert-upper                   89
 :arith-bound-prop                     14
 :arith-conflicts                      1
 :arith-eq-adapter                     26
 :arith-fixed-eqs                      17
 :arith-offset-eqs                     8
 :arith-pivots                         7
 :bool-inductive-gen                   7
 :bool-inductive-gen-failures          7
 :conflicts                            31
 :decisions                            187
 :del-clause                           3
 :final-checks                         9
 :minimized-lits                       2
 :mk-bool-var                          267
 :mk-clause                            410
 :num-checks                           33
 :propagations                         1716
 :time.itp_solver.itp_core             0.00
 :time.spacer.init_rules               0.00
 :time.spacer.init_rules.pt.init       0.00
 :time.spacer.solve                    0.01
 :time.spacer.solve.propagate          0.00
 :time.spacer.solve.reach              0.01
 :time.spacer.solve.reach.children     0.00
 :time.spacer.solve.reach.gen.bool_ind 0.00
 :time.virtual_solver.proof            0.00
 :time.virtual_solver.smt.total        0.01
 :time.virtual_solver.smt.total.sat    0.00
 :virtual_solver.checks                33
 :virtual_solver.checks.sat            9)
BRUNCH_STAT max_query_lvl 2
BRUNCH_STAT num_queries 7
BRUNCH_STAT num_reach_queries 0
BRUNCH_STAT num_reach_reuse 0
BRUNCH_STAT inductive_lvl 0
BRUNCH_STAT max_depth 2
BRUNCH_STAT cex_depth 0

real	0m0.032s
user	0m0.024s
sys	0m0.004s
