(transform N7datalog13mk_coi_filterE...no-op 0s)
(transform N7datalog25mk_interp_tail_simplifierE...14 rules 0s)
(transform N7datalog27mk_quantifier_instantiationE...no-op 0s)
(transform N7datalog8mk_scaleE...no-op 0s)
(transform N7datalog18mk_karr_invariantsE...no-op 0s)
(transform N7datalog14mk_array_blastE...no-op 0s)
(transform N7datalog22mk_subsumption_checkerE...13 rules 0s)
(transform N7datalog12mk_bit_blastE...no-op 0s)
(transform N7datalog15mk_rule_inlinerE...3 rules 0.00525988s)
(transform N7datalog13mk_coi_filterE...no-op 0s)
(transform N7datalog25mk_interp_tail_simplifierE...3 rules 0s)
(transform N7datalog22mk_subsumption_checkerE...no-op 0s)
(transform N7datalog15mk_rule_inlinerE...no-op 0s)
(transform N7datalog13mk_coi_filterE...no-op 0s)
(transform N7datalog25mk_interp_tail_simplifierE...3 rules 0s)
(transform N7datalog22mk_subsumption_checkerE...no-op 0s)
(transform N7datalog15mk_rule_inlinerE...no-op 0s)
(transform N7datalog22mk_subsumption_checkerE...no-op 0s)
(transform N7datalog15mk_rule_inlinerE...no-op 0s)
(transform N7datalog22mk_subsumption_checkerE...no-op 0s)
(transform N7datalog15mk_rule_inlinerE...no-op 0s)
(transform N7datalog22mk_subsumption_checkerE...no-op 0s)
(transform N7datalog8mk_sliceE...no-op 0s)
expand: query!0 (0, 0) FAR  w(0) 1. F 0.00
(spacer::context::check_reachability :time 0.00 :before-memory 4.50 :after-memory 5.02)
Entering level 1
BRUNCH_STAT max_query_lvl 0
BRUNCH_STAT num_queries 0
BRUNCH_STAT num_reach_queries 0
BRUNCH_STAT num_reach_reuse 0
BRUNCH_STAT inductive_lvl 0
BRUNCH_STAT max_depth 1
BRUNCH_STAT cex_depth 0
expand: query!0 (1, 0) FAR  w(0) 1.
	create_child: MAIN (0, 1) FAR 3602 U 0.00
expand: MAIN (0, 0) FAR  w(0) 3602. F 0.00
expand: query!0 (1, 0) FAR  w(0) 1. F 0.00
(spacer::context::check_reachability :time 0.00 :before-memory 5.02 :after-memory 5.92)
Propagating: 0 1  ! 2 
(spacer::context::propagate :time 0.00 :before-memory 5.92 :after-memory 6.17)
Entering level 2
BRUNCH_STAT max_query_lvl 1
BRUNCH_STAT num_queries 1
BRUNCH_STAT num_reach_queries 0
BRUNCH_STAT num_reach_reuse 0
BRUNCH_STAT inductive_lvl 0
BRUNCH_STAT max_depth 2
BRUNCH_STAT cex_depth 0
expand: query!0 (2, 0) FAR  w(0) 1.
	create_child: MAIN (1, 2) FAR 3602 U 0.00
expand: MAIN (1, 0) FAR  w(0) 3602.
	create_child: MAIN (0, 2) FAR 6052 U 0.00
expand: MAIN (0, 0) FAR  w(0) 6052. F 0.00
expand: MAIN (1, 0) FAR  w(0) 3602.
	create_child: MAIN (0, 2) FAR 6225 U 0.00
expand: MAIN (0, 0) FAR  w(0) 6225. F 0.00
expand: MAIN (1, 0) FAR  w(0) 3602.
	create_child: MAIN (0, 2) FAR 6348 U 0.00
expand: MAIN (0, 0) FAR  w(0) 6348. F 0.00
expand: MAIN (1, 0) FAR  w(0) 3602.
	create_child: MAIN (0, 2) FAR 6420 U 0.00
expand: MAIN (0, 0) FAR  w(0) 6420. F 0.00
expand: MAIN (1, 0) FAR  w(0) 3602. F 0.00
expand: query!0 (2, 0) FAR  w(0) 1. F 0.00
(spacer::context::check_reachability :time 0.01 :before-memory 6.17 :after-memory 6.26)
Propagating: 0 1 2  ! 3 
(spacer::context::propagate :time 0.00 :before-memory 6.26 :after-memory 6.26)
Entering level 3
BRUNCH_STAT max_query_lvl 2
BRUNCH_STAT num_queries 6
BRUNCH_STAT num_reach_queries 0
BRUNCH_STAT num_reach_reuse 0
BRUNCH_STAT inductive_lvl 0
BRUNCH_STAT max_depth 3
BRUNCH_STAT cex_depth 0
expand: query!0 (3, 0) FAR  w(0) 1.
	create_child: MAIN (2, 3) FAR 3602 U 0.00
expand: MAIN (2, 0) FAR  w(0) 3602.
	create_child: MAIN (1, 3) FAR 6772 U 0.00
expand: MAIN (1, 0) FAR  w(0) 6772. F 0.00
expand: MAIN (2, 0) FAR  w(0) 3602. F 0.00
expand: query!0 (3, 0) FAR  w(0) 1. F 0.00
(spacer::context::check_reachability :time 0.00 :before-memory 6.26 :after-memory 6.26)
Propagating: 1 2 3  ! 4 
(spacer::context::propagate :time 0.00 :before-memory 6.26 :after-memory 6.26)
Entering level 4
BRUNCH_STAT max_query_lvl 3
BRUNCH_STAT num_queries 8
BRUNCH_STAT num_reach_queries 0
BRUNCH_STAT num_reach_reuse 0
BRUNCH_STAT inductive_lvl 0
BRUNCH_STAT max_depth 4
BRUNCH_STAT cex_depth 0
expand: query!0 (4, 0) FAR  w(0) 1.
	create_child: MAIN (3, 4) FAR 3602 U 0.00
expand: MAIN (3, 0) FAR  w(0) 3602.
	create_child: MAIN (2, 4) FAR 6996 U 0.00
expand: MAIN (2, 0) FAR  w(0) 6996.
	create_child: MAIN (1, 4) FAR 7057 U 0.00
expand: MAIN (1, 0) FAR  w(0) 7057.
	create_child: MAIN (0, 4) FAR 6994 U 0.00
expand: MAIN (0, 0) FAR  w(0) 6994. F 0.00
expand: MAIN (1, 0) FAR  w(0) 7057. F 0.00
expand: MAIN (2, 0) FAR  w(0) 6996. F 0.00
expand: MAIN (3, 0) FAR  w(0) 3602.
	create_child: MAIN (2, 4) FAR 7777 U 0.00
expand: MAIN (2, 0) FAR  w(0) 7777.
	create_child: MAIN (1, 4) FAR 7876 U 0.00
expand: MAIN (1, 0) FAR  w(0) 7876. F 0.00
expand: MAIN (2, 0) FAR  w(0) 7777. F 0.00
expand: MAIN (3, 0) FAR  w(0) 3602. F 0.00
expand: query!0 (4, 0) FAR  w(0) 1. F 0.00
(spacer::context::check_reachability :time 0.02 :before-memory 6.26 :after-memory 6.47)
Propagating: 0 1 2 3 4  ! 5 
(spacer::context::propagate :time 0.00 :before-memory 6.47 :after-memory 6.47)
Entering level 5
BRUNCH_STAT max_query_lvl 4
BRUNCH_STAT num_queries 14
BRUNCH_STAT num_reach_queries 0
BRUNCH_STAT num_reach_reuse 0
BRUNCH_STAT inductive_lvl 0
BRUNCH_STAT max_depth 5
BRUNCH_STAT cex_depth 0
expand: query!0 (5, 0) FAR  w(0) 1.
	create_child: MAIN (4, 5) FAR 3602 U 0.00
expand: MAIN (4, 0) FAR  w(0) 3602.
	create_child: MAIN (3, 5) FAR 8338 U 0.00
expand: MAIN (3, 0) FAR  w(0) 8338.
	create_child: MAIN (2, 5) FAR 8373 U 0.00
expand: MAIN (2, 0) FAR  w(0) 8373. F 0.00
expand: MAIN (3, 0) FAR  w(0) 8338. F 0.00
expand: MAIN (4, 0) FAR  w(0) 3602.
	create_child: MAIN (3, 5) FAR 8815 U 0.00
expand: MAIN (3, 0) FAR  w(0) 8815.
	create_child: MAIN (2, 5) FAR 8855 U 0.00
expand: MAIN (2, 0) FAR  w(0) 8855.
	create_child: MAIN (1, 5) FAR 8893 U 0.00
expand: MAIN (1, 0) FAR  w(0) 8893.
	create_child: MAIN (0, 5) FAR 8774 U 0.00
expand: MAIN (0, 0) FAR  w(0) 8774. F 0.00
expand: MAIN (1, 0) FAR  w(0) 8893. F 0.00
expand: MAIN (2, 0) FAR  w(0) 8855. F 0.00
expand: MAIN (3, 0) FAR  w(0) 8815. F 0.00
expand: MAIN (4, 0) FAR  w(0) 3602. F 0.00
expand: query!0 (5, 0) FAR  w(0) 1. F 0.00
(spacer::context::check_reachability :time 0.02 :before-memory 6.47 :after-memory 6.57)
Propagating: 0 1 2 3 4 5  ! 6 
(spacer::context::propagate :time 0.01 :before-memory 6.57 :after-memory 6.57)
Entering level 6
BRUNCH_STAT max_query_lvl 5
BRUNCH_STAT num_queries 21
BRUNCH_STAT num_reach_queries 0
BRUNCH_STAT num_reach_reuse 0
BRUNCH_STAT inductive_lvl 0
BRUNCH_STAT max_depth 6
BRUNCH_STAT cex_depth 0
expand: query!0 (6, 0) FAR  w(0) 1.
	create_child: MAIN (5, 6) FAR 3602 U 0.00
expand: MAIN (5, 0) FAR  w(0) 3602.
	create_child: MAIN (4, 6) FAR 9375 U 0.00
expand: MAIN (4, 0) FAR  w(0) 9375. F 0.00
expand: MAIN (5, 0) FAR  w(0) 3602.
	create_child: MAIN (4, 6) FAR 8815 U 0.00
expand: MAIN (4, 0) FAR  w(0) 8815.
	create_child: MAIN (3, 6) FAR 8855 U 0.00
expand: MAIN (3, 0) FAR  w(0) 8855.
	create_child: MAIN (2, 6) FAR 8893 U 0.00
expand: MAIN (2, 0) FAR  w(0) 8893.
	create_child: MAIN (1, 6) FAR 8774 U 0.00
expand: MAIN (1, 0) FAR  w(0) 8774.
	create_child: MAIN (0, 6) FAR 9820 U 0.00
expand: MAIN (0, 0) FAR  w(0) 9820. F 0.00
expand: MAIN (1, 0) FAR  w(0) 8774. F 0.00
expand: MAIN (2, 0) FAR  w(0) 8893. F 0.00
expand: MAIN (3, 0) FAR  w(0) 8855. F 0.00
expand: MAIN (4, 0) FAR  w(0) 8815. F 0.00
expand: MAIN (5, 0) FAR  w(0) 3602. F 0.00
expand: query!0 (6, 0) FAR  w(0) 1. F 0.00
(spacer::context::check_reachability :time 0.02 :before-memory 6.57 :after-memory 6.66)
Propagating: 0 1 2 3 4 5 6  ! 7 
(spacer::context::propagate :time 0.01 :before-memory 6.66 :after-memory 6.66)
Entering level 7
BRUNCH_STAT max_query_lvl 6
BRUNCH_STAT num_queries 28
BRUNCH_STAT num_reach_queries 0
BRUNCH_STAT num_reach_reuse 0
BRUNCH_STAT inductive_lvl 0
BRUNCH_STAT max_depth 7
BRUNCH_STAT cex_depth 0
expand: query!0 (7, 0) FAR  w(0) 1.
	create_child: MAIN (6, 7) FAR 3602 U 0.00
expand: MAIN (6, 0) FAR  w(0) 3602.
	create_child: MAIN (5, 7) FAR 6772 U 0.00
expand: MAIN (5, 0) FAR  w(0) 6772.
	create_child: MAIN (4, 7) FAR 10530 U 0.00
expand: MAIN (4, 0) FAR  w(0) 10530.
	create_child: MAIN (3, 7) FAR 10628 U 0.00
expand: MAIN (3, 0) FAR  w(0) 10628.
	create_child: MAIN (2, 7) FAR 10636 U 0.00
expand: MAIN (2, 0) FAR  w(0) 10636.
	create_child: MAIN (1, 7) FAR 10594 U 0.00
expand: MAIN (1, 0) FAR  w(0) 10594. F 0.00
expand: MAIN (2, 0) FAR  w(0) 10636. F 0.00
expand: MAIN (3, 0) FAR  w(0) 10628. F 0.00
expand: MAIN (4, 0) FAR  w(0) 10530. F 0.00
expand: MAIN (5, 0) FAR  w(0) 6772. F 0.00
expand: MAIN (6, 0) FAR  w(0) 3602.
	create_child: MAIN (5, 7) FAR 11507 U 0.00
expand: MAIN (5, 0) FAR  w(0) 11507.
	create_child: MAIN (4, 7) FAR 11339 U 0.00
expand: MAIN (4, 0) FAR  w(0) 11339.
	create_child: MAIN (3, 7) FAR 11447 U 0.00
expand: MAIN (3, 0) FAR  w(0) 11447.
	create_child: MAIN (2, 7) FAR 11546 U 0.00
expand: MAIN (2, 0) FAR  w(0) 11546.
	create_child: MAIN (1, 7) FAR 11631 U 0.00
expand: MAIN (1, 0) FAR  w(0) 11631. F 0.00
expand: MAIN (2, 0) FAR  w(0) 11546. F 0.00
expand: MAIN (3, 0) FAR  w(0) 11447. F 0.00
expand: MAIN (4, 0) FAR  w(0) 11339. F 0.00
expand: MAIN (5, 0) FAR  w(0) 11507. F 0.00
expand: MAIN (6, 0) FAR  w(0) 3602.
	create_child: MAIN (5, 7) FAR 12388 U 0.00
expand: MAIN (5, 0) FAR  w(0) 12388.
	create_child: MAIN (4, 7) FAR 12420 U 0.00
expand: MAIN (4, 0) FAR  w(0) 12420.
	create_child: MAIN (3, 7) FAR 12134 U 0.00
expand: MAIN (3, 0) FAR  w(0) 12134.
	create_child: MAIN (2, 7) FAR 12447 U 0.00
expand: MAIN (2, 0) FAR  w(0) 12447.
	create_child: MAIN (1, 7) FAR 12352 U 0.00
expand: MAIN (1, 0) FAR  w(0) 12352.
	create_child: MAIN (0, 7) FAR 12501 U 0.00
expand: MAIN (0, 0) FAR  w(0) 12501. F 0.00
expand: MAIN (1, 0) FAR  w(0) 12352. F 0.00
expand: MAIN (2, 0) FAR  w(0) 12447. F 0.00
expand: MAIN (3, 0) FAR  w(0) 12134. F 0.00
expand: MAIN (4, 0) FAR  w(0) 12420. F 0.00
expand: MAIN (5, 0) FAR  w(0) 12388. F 0.00
expand: MAIN (6, 0) FAR  w(0) 3602. F 0.00
expand: query!0 (7, 0) FAR  w(0) 1. F 0.00
(spacer::context::check_reachability :time 0.06 :before-memory 6.66 :after-memory 7.35)
Propagating: 0 1 2 3 4 5 6 7  ! 8 
(spacer::context::propagate :time 0.02 :before-memory 7.35 :after-memory 7.45)
Entering level 8
BRUNCH_STAT max_query_lvl 7
BRUNCH_STAT num_queries 45
BRUNCH_STAT num_reach_queries 0
BRUNCH_STAT num_reach_reuse 0
BRUNCH_STAT inductive_lvl 0
BRUNCH_STAT max_depth 8
BRUNCH_STAT cex_depth 0
expand: query!0 (8, 0) FAR  w(0) 1.
	create_child: MAIN (7, 8) FAR 3602 U 0.00
expand: MAIN (7, 0) FAR  w(0) 3602.
	create_child: MAIN (6, 8) FAR 15422 U 0.00
expand: MAIN (6, 0) FAR  w(0) 15422.
	create_child: MAIN (5, 8) FAR 15148 U 0.00
expand: MAIN (5, 0) FAR  w(0) 15148.
	create_child: MAIN (4, 8) FAR 15463 U 0.00
expand: MAIN (4, 0) FAR  w(0) 15463.
	create_child: MAIN (3, 8) FAR 15434 U 0.00
expand: MAIN (3, 0) FAR  w(0) 15434.
	create_child: MAIN (2, 8) FAR 15470 U 0.00
expand: MAIN (2, 0) FAR  w(0) 15470.
	create_child: MAIN (1, 8) FAR 15456 U 0.00
expand: MAIN (1, 0) FAR  w(0) 15456. T 0.00
is-reachable: MAIN (2, 0) FAR 15470 T 0.01
is-reachable: MAIN (3, 0) FAR 15434 T 0.01
is-reachable: MAIN (4, 0) FAR 15463 T 0.01
is-reachable: MAIN (5, 0) FAR 15148 T 0.01
is-reachable: MAIN (6, 0) FAR 15422 T 0.01
is-reachable: MAIN (7, 0) FAR 3602 T 0.01
is-reachable: query!0 (8, 0) FAR 1 T 0.01
(spacer::context::check_reachability :time 0.07 :before-memory 7.45 :after-memory 9.05)
BRUNCH_STAT max_query_lvl 8
BRUNCH_STAT num_queries 52
BRUNCH_STAT num_reach_queries 8
BRUNCH_STAT num_reach_reuse 1
BRUNCH_STAT inductive_lvl 0
BRUNCH_STAT max_depth 8
BRUNCH_STAT cex_depth 8
(:SPACER-cex-depth                     8
 :SPACER-max-depth                     8
 :SPACER-max-query-lvl                 8
 :SPACER-num-invariants                6
 :SPACER-num-lemmas                    53
 :SPACER-num-properties                28
 :SPACER-num-queries                   52
 :SPACER-num-reach-queries             8
 :SPACER-num-reuse-reach-facts         1
 :added-eqs                            7598
 :arith-add-rows                       213
 :arith-assert-diseq                   3690
 :arith-assert-lower                   8371
 :arith-assert-upper                   8012
 :arith-bound-prop                     227
 :arith-conflicts                      6
 :arith-eq-adapter                     1053
 :arith-fixed-eqs                      1495
 :arith-offset-eqs                     262
 :arith-pivots                         285
 :bool-inductive-gen                   45
 :bool-inductive-gen-failures          70
 :conflicts                            354
 :decisions                            13562
 :del-clause                           279
 :final-checks                         162
 :minimized-lits                       62
 :mk-bool-var                          2803
 :mk-clause                            5152
 :num-checks                           384
 :propagations                         91271
 :time.itp_solver.itp_core             0.02
 :time.spacer.init_rules               0.00
 :time.spacer.init_rules.pt.init       0.00
 :time.spacer.solve                    0.26
 :time.spacer.solve.propagate          0.05
 :time.spacer.solve.reach              0.21
 :time.spacer.solve.reach.children     0.03
 :time.spacer.solve.reach.gen.bool_ind 0.03
 :time.spacer.solve.reach.is-reach     0.06
 :time.virtual_solver.proof            0.01
 :time.virtual_solver.smt.total        0.16
 :time.virtual_solver.smt.total.sat    0.11
 :virtual_solver.checks                384
 :virtual_solver.checks.sat            162)
BRUNCH_STAT max_query_lvl 8
BRUNCH_STAT num_queries 52
BRUNCH_STAT num_reach_queries 8
BRUNCH_STAT num_reach_reuse 1
BRUNCH_STAT inductive_lvl 0
BRUNCH_STAT max_depth 8
BRUNCH_STAT cex_depth 8

real	0m0.321s
user	0m0.304s
sys	0m0.016s
