(transform N7datalog13mk_coi_filterE...no-op 0s)
(transform N7datalog25mk_interp_tail_simplifierE...14 rules 0s)
(transform N7datalog27mk_quantifier_instantiationE...no-op 0s)
(transform N7datalog8mk_scaleE...no-op 0s)
(transform N7datalog18mk_karr_invariantsE...no-op 0s)
(transform N7datalog14mk_array_blastE...no-op 0s)
(transform N7datalog22mk_subsumption_checkerE...13 rules 0s)
(transform N7datalog12mk_bit_blastE...no-op 0s)
(transform N7datalog15mk_rule_inlinerE...3 rules 0.00523115s)
(transform N7datalog13mk_coi_filterE...no-op 0s)
(transform N7datalog25mk_interp_tail_simplifierE...3 rules 0s)
(transform N7datalog22mk_subsumption_checkerE...no-op 0s)
(transform N7datalog15mk_rule_inlinerE...no-op 0s)
(transform N7datalog13mk_coi_filterE...no-op 0s)
(transform N7datalog25mk_interp_tail_simplifierE...3 rules 0s)
(transform N7datalog22mk_subsumption_checkerE...no-op 0s)
(transform N7datalog15mk_rule_inlinerE...no-op 0s)
(transform N7datalog22mk_subsumption_checkerE...no-op 0s)
(transform N7datalog15mk_rule_inlinerE...no-op 0s)
(transform N7datalog22mk_subsumption_checkerE...no-op 0s)
(transform N7datalog15mk_rule_inlinerE...no-op 0s)
(transform N7datalog22mk_subsumption_checkerE...no-op 0s)
(transform N7datalog8mk_sliceE...no-op 0s)
expand: query!0 (0, 0) FAR  w(0) 1. F 0.00
(spacer::context::check_reachability :time 0.00 :before-memory 4.50 :after-memory 5.13)
Entering level 1
BRUNCH_STAT max_query_lvl 0
BRUNCH_STAT num_queries 0
BRUNCH_STAT num_reach_queries 0
BRUNCH_STAT num_reach_reuse 0
BRUNCH_STAT inductive_lvl 0
BRUNCH_STAT max_depth 1
BRUNCH_STAT cex_depth 0
expand: query!0 (1, 0) FAR  w(0) 1.
	create_child: MAIN (0, 1) FAR 3685 U 0.00
expand: MAIN (0, 0) FAR  w(0) 3685. F 0.00
expand: query!0 (1, 0) FAR  w(0) 1. F 0.00
(spacer::context::check_reachability :time 0.00 :before-memory 5.13 :after-memory 6.14)
Propagating: 0 1  ! 2 
(spacer::context::propagate :time 0.00 :before-memory 6.14 :after-memory 6.14)
Entering level 2
BRUNCH_STAT max_query_lvl 1
BRUNCH_STAT num_queries 1
BRUNCH_STAT num_reach_queries 0
BRUNCH_STAT num_reach_reuse 0
BRUNCH_STAT inductive_lvl 0
BRUNCH_STAT max_depth 2
BRUNCH_STAT cex_depth 0
expand: query!0 (2, 0) FAR  w(0) 1.
	create_child: MAIN (1, 2) FAR 3685 U 0.00
expand: MAIN (1, 0) FAR  w(0) 3685.
	create_child: MAIN (0, 2) FAR 6420 U 0.00
expand: MAIN (0, 0) FAR  w(0) 6420. F 0.00
expand: MAIN (1, 0) FAR  w(0) 3685.
	create_child: MAIN (0, 2) FAR 6757 U 0.00
expand: MAIN (0, 0) FAR  w(0) 6757. F 0.00
expand: MAIN (1, 0) FAR  w(0) 3685.
	create_child: MAIN (0, 2) FAR 6856 U 0.00
expand: MAIN (0, 0) FAR  w(0) 6856. F 0.00
expand: MAIN (1, 0) FAR  w(0) 3685.
	create_child: MAIN (0, 2) FAR 6903 U 0.00
expand: MAIN (0, 0) FAR  w(0) 6903. F 0.00
expand: MAIN (1, 0) FAR  w(0) 3685.
	create_child: MAIN (0, 2) FAR 6959 U 0.00
expand: MAIN (0, 0) FAR  w(0) 6959. F 0.00
expand: MAIN (1, 0) FAR  w(0) 3685.
	create_child: MAIN (0, 2) FAR 6892 U 0.00
expand: MAIN (0, 0) FAR  w(0) 6892. F 0.00
expand: MAIN (1, 0) FAR  w(0) 3685.
	create_child: MAIN (0, 2) FAR 7059 U 0.00
expand: MAIN (0, 0) FAR  w(0) 7059. F 0.00
expand: MAIN (1, 0) FAR  w(0) 3685. F 0.00
expand: query!0 (2, 0) FAR  w(0) 1. F 0.00
(spacer::context::check_reachability :time 0.02 :before-memory 6.14 :after-memory 6.43)
Propagating: 0 1 2  ! 3 4 
(spacer::context::propagate :time 0.01 :before-memory 6.43 :after-memory 6.53)
Entering level 3
BRUNCH_STAT max_query_lvl 2
BRUNCH_STAT num_queries 9
BRUNCH_STAT num_reach_queries 0
BRUNCH_STAT num_reach_reuse 0
BRUNCH_STAT inductive_lvl 0
BRUNCH_STAT max_depth 3
BRUNCH_STAT cex_depth 0
expand: query!0 (3, 0) FAR  w(0) 1.
	create_child: MAIN (2, 3) FAR 3685 U 0.00
expand: MAIN (2, 0) FAR  w(0) 3685.
	create_child: MAIN (1, 3) FAR 8169 U 0.00
expand: MAIN (1, 0) FAR  w(0) 8169. F 0.00
expand: MAIN (2, 0) FAR  w(0) 3685.
	create_child: MAIN (1, 3) FAR 8892 U 0.00
expand: MAIN (1, 0) FAR  w(0) 8892. F 0.00
expand: MAIN (2, 0) FAR  w(0) 3685.
	create_child: MAIN (1, 3) FAR 9187 U 0.00
expand: MAIN (1, 0) FAR  w(0) 9187.
	create_child: MAIN (0, 3) FAR 9269 U 0.00
expand: MAIN (0, 0) FAR  w(0) 9269. F 0.00
expand: MAIN (1, 0) FAR  w(0) 9187. F 0.00
expand: MAIN (2, 0) FAR  w(0) 3685. F 0.00
expand: query!0 (3, 0) FAR  w(0) 1. F 0.00
(spacer::context::check_reachability :time 0.02 :before-memory 6.53 :after-memory 6.75)
Propagating: 0 1 2 3  ! 4 5 
(spacer::context::propagate :time 0.01 :before-memory 6.75 :after-memory 6.75)
Entering level 4
BRUNCH_STAT max_query_lvl 3
BRUNCH_STAT num_queries 14
BRUNCH_STAT num_reach_queries 0
BRUNCH_STAT num_reach_reuse 0
BRUNCH_STAT inductive_lvl 0
BRUNCH_STAT max_depth 4
BRUNCH_STAT cex_depth 0
expand: query!0 (4, 0) FAR  w(0) 1.
	create_child: MAIN (3, 4) FAR 3685 U 0.00
expand: MAIN (3, 0) FAR  w(0) 3685.
	create_child: MAIN (2, 4) FAR 10497 U 0.00
expand: MAIN (2, 0) FAR  w(0) 10497.
	create_child: MAIN (1, 4) FAR 10533 U 0.00
expand: MAIN (1, 0) FAR  w(0) 10533. T 0.00
is-reachable: MAIN (2, 0) FAR 10497 T 0.01
is-reachable: MAIN (3, 0) FAR 3685 T 0.02
is-reachable: query!0 (4, 0) FAR 1 T 0.00
(spacer::context::check_reachability :time 0.04 :before-memory 6.75 :after-memory 8.21)
BRUNCH_STAT max_query_lvl 4
BRUNCH_STAT num_queries 17
BRUNCH_STAT num_reach_queries 4
BRUNCH_STAT num_reach_reuse 1
BRUNCH_STAT inductive_lvl 0
BRUNCH_STAT max_depth 4
BRUNCH_STAT cex_depth 4
(:SPACER-cex-depth                     4
 :SPACER-max-depth                     4
 :SPACER-max-query-lvl                 4
 :SPACER-num-invariants                2
 :SPACER-num-lemmas                    18
 :SPACER-num-properties                13
 :SPACER-num-queries                   17
 :SPACER-num-reach-queries             4
 :SPACER-num-reuse-reach-facts         1
 :added-eqs                            3845
 :arith-add-rows                       1106
 :arith-assert-diseq                   1681
 :arith-assert-lower                   3677
 :arith-assert-upper                   3127
 :arith-bound-prop                     224
 :arith-conflicts                      42
 :arith-eq-adapter                     555
 :arith-fixed-eqs                      616
 :arith-offset-eqs                     239
 :arith-pivots                         341
 :bool-inductive-gen                   14
 :bool-inductive-gen-failures          16
 :conflicts                            265
 :decisions                            2796
 :del-clause                           1089
 :final-checks                         44
 :minimized-lits                       95
 :mk-bool-var                          1859
 :mk-clause                            4561
 :num-checks                           106
 :propagations                         34985
 :time.itp_solver.itp_core             0.00
 :time.spacer.init_rules               0.00
 :time.spacer.init_rules.pt.init       0.00
 :time.spacer.solve                    0.10
 :time.spacer.solve.propagate          0.02
 :time.spacer.solve.reach              0.08
 :time.spacer.solve.reach.children     0.01
 :time.spacer.solve.reach.gen.bool_ind 0.00
 :time.spacer.solve.reach.is-reach     0.03
 :time.virtual_solver.proof            0.00
 :time.virtual_solver.smt.total        0.07
 :time.virtual_solver.smt.total.sat    0.04
 :virtual_solver.checks                106
 :virtual_solver.checks.sat            44)
BRUNCH_STAT max_query_lvl 4
BRUNCH_STAT num_queries 17
BRUNCH_STAT num_reach_queries 4
BRUNCH_STAT num_reach_reuse 1
BRUNCH_STAT inductive_lvl 0
BRUNCH_STAT max_depth 4
BRUNCH_STAT cex_depth 4

real	0m0.139s
user	0m0.132s
sys	0m0.004s
