(transform N7datalog13mk_coi_filterE...no-op 0s)
(transform N7datalog25mk_interp_tail_simplifierE...14 rules 0s)
(transform N7datalog27mk_quantifier_instantiationE...no-op 0s)
(transform N7datalog8mk_scaleE...no-op 0s)
(transform N7datalog18mk_karr_invariantsE...no-op 0s)
(transform N7datalog14mk_array_blastE...no-op 0s)
(transform N7datalog22mk_subsumption_checkerE...13 rules 0s)
(transform N7datalog12mk_bit_blastE...no-op 0s)
(transform N7datalog15mk_rule_inlinerE...3 rules 0.00219098s)
(transform N7datalog13mk_coi_filterE...no-op 0s)
(transform N7datalog25mk_interp_tail_simplifierE...3 rules 0s)
(transform N7datalog22mk_subsumption_checkerE...no-op 0s)
(transform N7datalog15mk_rule_inlinerE...no-op 0s)
(transform N7datalog13mk_coi_filterE...no-op 0s)
(transform N7datalog25mk_interp_tail_simplifierE...3 rules 0s)
(transform N7datalog22mk_subsumption_checkerE...no-op 0s)
(transform N7datalog15mk_rule_inlinerE...no-op 0s)
(transform N7datalog22mk_subsumption_checkerE...no-op 0s)
(transform N7datalog15mk_rule_inlinerE...no-op 0s)
(transform N7datalog22mk_subsumption_checkerE...no-op 0s)
(transform N7datalog15mk_rule_inlinerE...no-op 0s)
(transform N7datalog22mk_subsumption_checkerE...no-op 0s)
(transform N7datalog8mk_sliceE...no-op 0s)
expand: query!0 (0, 0) FAR  w(0) 1. F 0.00
(spacer::context::check_reachability :time 0.00 :before-memory 4.25 :after-memory 4.74)
Entering level 1
BRUNCH_STAT max_query_lvl 0
BRUNCH_STAT num_queries 0
BRUNCH_STAT num_reach_queries 0
BRUNCH_STAT num_reach_reuse 0
BRUNCH_STAT inductive_lvl 0
BRUNCH_STAT max_depth 1
BRUNCH_STAT cex_depth 0
expand: query!0 (1, 0) FAR  w(0) 1.
	create_child: MAIN (0, 1) FAR 1681 U 0.00
expand: MAIN (0, 0) FAR  w(0) 1681. F 0.00
expand: query!0 (1, 0) FAR  w(0) 1. F 0.00
(spacer::context::check_reachability :time 0.00 :before-memory 4.74 :after-memory 5.56)
Propagating: 0 1  ! 2 
(spacer::context::propagate :time 0.00 :before-memory 5.56 :after-memory 5.56)
Entering level 2
BRUNCH_STAT max_query_lvl 1
BRUNCH_STAT num_queries 1
BRUNCH_STAT num_reach_queries 0
BRUNCH_STAT num_reach_reuse 0
BRUNCH_STAT inductive_lvl 0
BRUNCH_STAT max_depth 2
BRUNCH_STAT cex_depth 0
expand: query!0 (2, 0) FAR  w(0) 1.
	create_child: MAIN (1, 2) FAR 1681 U 0.00
expand: MAIN (1, 0) FAR  w(0) 1681.
	create_child: MAIN (0, 2) FAR 2959 U 0.00
expand: MAIN (0, 0) FAR  w(0) 2959. F 0.00
expand: MAIN (1, 0) FAR  w(0) 1681.
	create_child: MAIN (0, 2) FAR 3105 U 0.00
expand: MAIN (0, 0) FAR  w(0) 3105. F 0.00
expand: MAIN (1, 0) FAR  w(0) 1681.
	create_child: MAIN (0, 2) FAR 3242 U 0.00
expand: MAIN (0, 0) FAR  w(0) 3242. F 0.00
expand: MAIN (1, 0) FAR  w(0) 1681.
	create_child: MAIN (0, 2) FAR 3335 U 0.00
expand: MAIN (0, 0) FAR  w(0) 3335. F 0.00
expand: MAIN (1, 0) FAR  w(0) 1681.
	create_child: MAIN (0, 2) FAR 3420 U 0.00
expand: MAIN (0, 0) FAR  w(0) 3420. F 0.00
expand: MAIN (1, 0) FAR  w(0) 1681. F 0.00
expand: query!0 (2, 0) FAR  w(0) 1. F 0.00
(spacer::context::check_reachability :time 0.01 :before-memory 5.56 :after-memory 5.66)
Propagating: 0 1 2  ! 3 
(spacer::context::propagate :time 0.00 :before-memory 5.66 :after-memory 5.66)
Entering level 3
BRUNCH_STAT max_query_lvl 2
BRUNCH_STAT num_queries 7
BRUNCH_STAT num_reach_queries 0
BRUNCH_STAT num_reach_reuse 0
BRUNCH_STAT inductive_lvl 0
BRUNCH_STAT max_depth 3
BRUNCH_STAT cex_depth 0
expand: query!0 (3, 0) FAR  w(0) 1.
	create_child: MAIN (2, 3) FAR 1681 U 0.00
expand: MAIN (2, 0) FAR  w(0) 1681.
	create_child: MAIN (1, 3) FAR 3889 U 0.00
expand: MAIN (1, 0) FAR  w(0) 3889.
	create_child: MAIN (0, 3) FAR 4270 U 0.00
expand: MAIN (0, 0) FAR  w(0) 4270. F 0.00
expand: MAIN (1, 0) FAR  w(0) 3889.
	create_child: MAIN (0, 3) FAR 4521 U 0.00
expand: MAIN (0, 0) FAR  w(0) 4521. F 0.00
expand: MAIN (1, 0) FAR  w(0) 3889. F 0.00
expand: MAIN (2, 0) FAR  w(0) 1681. F 0.00
expand: query!0 (3, 0) FAR  w(0) 1. F 0.00
(spacer::context::check_reachability :time 0.01 :before-memory 5.66 :after-memory 5.85)
Propagating: 0 
(spacer::context::propagate :time 0.00 :before-memory 5.85 :after-memory 5.85)
(define-fun MAIN ((x!0 Int)
 (x!1 Bool)
 (x!2 Int)
 (x!3 Int)
 (x!4 Int)
 (x!5 Int)
 (x!6 Bool)
 (x!7 Bool)
 (x!8 Bool)
 (x!9 Bool)) Bool
  (let ((a!1 (not (<= (+ x!0 (* (- 1) x!2) (* (- 1) x!3) (* (- 1) x!4)) (- 2))))
        (a!2 (or (<= (+ x!3 (* (- 1) x!0)) 0) (not x!7))))
    (and a!1
         x!9
         (not x!6)
         (not x!8)
         (not x!1)
         a!2
         (or (>= x!0 0) (not x!7))
         (>= (+ x!0 (* (- 1) x!3) (* (- 1) x!4)) 0))))
BRUNCH_STAT max_query_lvl 3
BRUNCH_STAT num_queries 11
BRUNCH_STAT num_reach_queries 0
BRUNCH_STAT num_reach_reuse 0
BRUNCH_STAT inductive_lvl 0
BRUNCH_STAT max_depth 3
BRUNCH_STAT cex_depth 0
(:SPACER-max-depth                     3
 :SPACER-max-query-lvl                 3
 :SPACER-num-invariants                10
 :SPACER-num-lemmas                    15
 :SPACER-num-properties                9
 :SPACER-num-queries                   11
 :added-eqs                            512
 :arith-add-rows                       550
 :arith-assert-diseq                   151
 :arith-assert-lower                   555
 :arith-assert-upper                   351
 :arith-bound-prop                     64
 :arith-conflicts                      22
 :arith-eq-adapter                     112
 :arith-fixed-eqs                      97
 :arith-offset-eqs                     65
 :arith-pivots                         122
 :bool-inductive-gen                   11
 :bool-inductive-gen-failures          13
 :conflicts                            94
 :decisions                            741
 :del-clause                           40
 :final-checks                         22
 :minimized-lits                       5
 :mk-bool-var                          449
 :mk-clause                            616
 :num-checks                           64
 :propagations                         5829
 :time.itp_solver.itp_core             0.00
 :time.spacer.init_rules               0.00
 :time.spacer.init_rules.pt.init       0.00
 :time.spacer.solve                    0.03
 :time.spacer.solve.propagate          0.00
 :time.spacer.solve.reach              0.02
 :time.spacer.solve.reach.children     0.00
 :time.spacer.solve.reach.gen.bool_ind 0.00
 :time.virtual_solver.proof            0.00
 :time.virtual_solver.smt.total        0.02
 :time.virtual_solver.smt.total.sat    0.01
 :virtual_solver.checks                64
 :virtual_solver.checks.sat            22)
BRUNCH_STAT max_query_lvl 3
BRUNCH_STAT num_queries 11
BRUNCH_STAT num_reach_queries 0
BRUNCH_STAT num_reach_reuse 0
BRUNCH_STAT inductive_lvl 0
BRUNCH_STAT max_depth 3
BRUNCH_STAT cex_depth 0

real	0m0.056s
user	0m0.048s
sys	0m0.004s
