(transform N7datalog13mk_coi_filterE...no-op 0s)
(transform N7datalog25mk_interp_tail_simplifierE...14 rules 0s)
(transform N7datalog27mk_quantifier_instantiationE...no-op 0s)
(transform N7datalog8mk_scaleE...no-op 0s)
(transform N7datalog18mk_karr_invariantsE...no-op 0s)
(transform N7datalog14mk_array_blastE...no-op 0s)
(transform N7datalog22mk_subsumption_checkerE...13 rules 0s)
(transform N7datalog12mk_bit_blastE...no-op 0s)
(transform N7datalog15mk_rule_inlinerE...3 rules 0.00305237s)
(transform N7datalog13mk_coi_filterE...no-op 0s)
(transform N7datalog25mk_interp_tail_simplifierE...3 rules 0s)
(transform N7datalog22mk_subsumption_checkerE...no-op 0s)
(transform N7datalog15mk_rule_inlinerE...no-op 0s)
(transform N7datalog13mk_coi_filterE...no-op 0s)
(transform N7datalog25mk_interp_tail_simplifierE...3 rules 0s)
(transform N7datalog22mk_subsumption_checkerE...no-op 0s)
(transform N7datalog15mk_rule_inlinerE...no-op 0s)
(transform N7datalog22mk_subsumption_checkerE...no-op 0s)
(transform N7datalog15mk_rule_inlinerE...no-op 0s)
(transform N7datalog22mk_subsumption_checkerE...no-op 0s)
(transform N7datalog15mk_rule_inlinerE...no-op 0s)
(transform N7datalog22mk_subsumption_checkerE...no-op 0s)
(transform N7datalog8mk_sliceE...no-op 0s)
expand: query!0 (0, 0) FAR  w(0) 1. F 0.00
(spacer::context::check_reachability :time 0.00 :before-memory 4.30 :after-memory 4.80)
Entering level 1
BRUNCH_STAT max_query_lvl 0
BRUNCH_STAT num_queries 0
BRUNCH_STAT num_reach_queries 0
BRUNCH_STAT num_reach_reuse 0
BRUNCH_STAT inductive_lvl 0
BRUNCH_STAT max_depth 1
BRUNCH_STAT cex_depth 0
expand: query!0 (1, 0) FAR  w(0) 1.
	create_child: MAIN (0, 1) FAR 2120 U 0.00
expand: MAIN (0, 0) FAR  w(0) 2120. F 0.00
expand: query!0 (1, 0) FAR  w(0) 1. F 0.00
(spacer::context::check_reachability :time 0.00 :before-memory 4.80 :after-memory 5.60)
Propagating: 0 1  ! 2 
(spacer::context::propagate :time 0.00 :before-memory 5.60 :after-memory 5.60)
Entering level 2
BRUNCH_STAT max_query_lvl 1
BRUNCH_STAT num_queries 1
BRUNCH_STAT num_reach_queries 0
BRUNCH_STAT num_reach_reuse 0
BRUNCH_STAT inductive_lvl 0
BRUNCH_STAT max_depth 2
BRUNCH_STAT cex_depth 0
expand: query!0 (2, 0) FAR  w(0) 1.
	create_child: MAIN (1, 2) FAR 2120 U 0.00
expand: MAIN (1, 0) FAR  w(0) 2120.
	create_child: MAIN (0, 2) FAR 3864 U 0.00
expand: MAIN (0, 0) FAR  w(0) 3864. F 0.00
expand: MAIN (1, 0) FAR  w(0) 2120.
	create_child: MAIN (0, 2) FAR 3963 U 0.00
expand: MAIN (0, 0) FAR  w(0) 3963. F 0.00
expand: MAIN (1, 0) FAR  w(0) 2120.
	create_child: MAIN (0, 2) FAR 4161 U 0.00
expand: MAIN (0, 0) FAR  w(0) 4161. F 0.00
expand: MAIN (1, 0) FAR  w(0) 2120.
	create_child: MAIN (0, 2) FAR 4222 U 0.00
expand: MAIN (0, 0) FAR  w(0) 4222. F 0.00
expand: MAIN (1, 0) FAR  w(0) 2120.
	create_child: MAIN (0, 2) FAR 4042 U 0.00
expand: MAIN (0, 0) FAR  w(0) 4042. F 0.00
expand: MAIN (1, 0) FAR  w(0) 2120.
	create_child: MAIN (0, 2) FAR 4500 U 0.00
expand: MAIN (0, 0) FAR  w(0) 4500. F 0.00
expand: MAIN (1, 0) FAR  w(0) 2120.
	create_child: MAIN (0, 2) FAR 4651 U 0.00
expand: MAIN (0, 0) FAR  w(0) 4651. F 0.00
expand: MAIN (1, 0) FAR  w(0) 2120.
	create_child: MAIN (0, 2) FAR 5098 U 0.00
expand: MAIN (0, 0) FAR  w(0) 5098. F 0.00
expand: MAIN (1, 0) FAR  w(0) 2120. F 0.00
expand: query!0 (2, 0) FAR  w(0) 1. F 0.00
(spacer::context::check_reachability :time 0.02 :before-memory 5.60 :after-memory 5.89)
Propagating: 0 1 2  ! 3 
(spacer::context::propagate :time 0.01 :before-memory 5.89 :after-memory 6.13)
Entering level 3
BRUNCH_STAT max_query_lvl 2
BRUNCH_STAT num_queries 10
BRUNCH_STAT num_reach_queries 0
BRUNCH_STAT num_reach_reuse 0
BRUNCH_STAT inductive_lvl 0
BRUNCH_STAT max_depth 3
BRUNCH_STAT cex_depth 0
expand: query!0 (3, 0) FAR  w(0) 1.
	create_child: MAIN (2, 3) FAR 2120 U 0.00
expand: MAIN (2, 0) FAR  w(0) 2120.
	create_child: MAIN (1, 3) FAR 4651 U 0.00
expand: MAIN (1, 0) FAR  w(0) 4651. T 0.00
is-reachable: MAIN (2, 0) FAR 2120 T 0.01
is-reachable: query!0 (3, 0) FAR 1 T 0.00
(spacer::context::check_reachability :time 0.02 :before-memory 6.13 :after-memory 6.73)
BRUNCH_STAT max_query_lvl 3
BRUNCH_STAT num_queries 12
BRUNCH_STAT num_reach_queries 3
BRUNCH_STAT num_reach_reuse 1
BRUNCH_STAT inductive_lvl 0
BRUNCH_STAT max_depth 3
BRUNCH_STAT cex_depth 3
(:SPACER-cex-depth                     3
 :SPACER-max-depth                     3
 :SPACER-max-query-lvl                 3
 :SPACER-num-invariants                6
 :SPACER-num-lemmas                    13
 :SPACER-num-properties                10
 :SPACER-num-queries                   12
 :SPACER-num-reach-queries             3
 :SPACER-num-reuse-reach-facts         1
 :added-eqs                            1380
 :arith-add-rows                       904
 :arith-assert-diseq                   442
 :arith-assert-lower                   1061
 :arith-assert-upper                   1002
 :arith-bound-prop                     130
 :arith-conflicts                      41
 :arith-eq-adapter                     181
 :arith-fixed-eqs                      226
 :arith-offset-eqs                     175
 :arith-pivots                         151
 :bool-inductive-gen                   10
 :bool-inductive-gen-failures          10
 :conflicts                            180
 :decisions                            811
 :del-clause                           98
 :final-checks                         22
 :minimized-lits                       176
 :mk-bool-var                          796
 :mk-clause                            1560
 :num-checks                           63
 :propagations                         12031
 :time.itp_solver.itp_core             0.00
 :time.spacer.init_rules               0.00
 :time.spacer.init_rules.pt.init       0.00
 :time.spacer.solve                    0.06
 :time.spacer.solve.propagate          0.01
 :time.spacer.solve.reach              0.05
 :time.spacer.solve.reach.children     0.01
 :time.spacer.solve.reach.gen.bool_ind 0.00
 :time.spacer.solve.reach.is-reach     0.02
 :time.virtual_solver.proof            0.00
 :time.virtual_solver.smt.total        0.04
 :time.virtual_solver.smt.total.sat    0.02
 :virtual_solver.checks                63
 :virtual_solver.checks.sat            22)
BRUNCH_STAT max_query_lvl 3
BRUNCH_STAT num_queries 12
BRUNCH_STAT num_reach_queries 3
BRUNCH_STAT num_reach_reuse 1
BRUNCH_STAT inductive_lvl 0
BRUNCH_STAT max_depth 3
BRUNCH_STAT cex_depth 3

real	0m0.088s
user	0m0.084s
sys	0m0.004s
