(transform N7datalog13mk_coi_filterE...no-op 0s)
(transform N7datalog25mk_interp_tail_simplifierE...12 rules 0s)
(transform N7datalog27mk_quantifier_instantiationE...no-op 0s)
(transform N7datalog8mk_scaleE...no-op 0s)
(transform N7datalog18mk_karr_invariantsE...no-op 0s)
(transform N7datalog14mk_array_blastE...no-op 0s)
(transform N7datalog22mk_subsumption_checkerE...11 rules 0s)
(transform N7datalog12mk_bit_blastE...no-op 0s)
(transform N7datalog15mk_rule_inlinerE...3 rules 0.00176857s)
(transform N7datalog13mk_coi_filterE...no-op 0s)
(transform N7datalog25mk_interp_tail_simplifierE...3 rules 0s)
(transform N7datalog22mk_subsumption_checkerE...no-op 0s)
(transform N7datalog15mk_rule_inlinerE...no-op 0s)
(transform N7datalog13mk_coi_filterE...no-op 0s)
(transform N7datalog25mk_interp_tail_simplifierE...3 rules 0s)
(transform N7datalog22mk_subsumption_checkerE...no-op 0s)
(transform N7datalog15mk_rule_inlinerE...no-op 0s)
(transform N7datalog22mk_subsumption_checkerE...no-op 0s)
(transform N7datalog15mk_rule_inlinerE...no-op 0s)
(transform N7datalog22mk_subsumption_checkerE...no-op 0s)
(transform N7datalog15mk_rule_inlinerE...no-op 0s)
(transform N7datalog22mk_subsumption_checkerE...no-op 0s)
(transform N7datalog8mk_sliceE...no-op 0s)
expand: query!0 (0, 0) FAR  w(0) 1. F 0.00
(spacer::context::check_reachability :time 0.00 :before-memory 4.25 :after-memory 4.74)
Entering level 1
BRUNCH_STAT max_query_lvl 0
BRUNCH_STAT num_queries 0
BRUNCH_STAT num_reach_queries 0
BRUNCH_STAT num_reach_reuse 0
BRUNCH_STAT inductive_lvl 0
BRUNCH_STAT max_depth 1
BRUNCH_STAT cex_depth 0
expand: query!0 (1, 0) FAR  w(0) 1.
	create_child: MAIN (0, 1) FAR 1537 U 0.00
expand: MAIN (0, 0) FAR  w(0) 1537. F 0.00
expand: query!0 (1, 0) FAR  w(0) 1. F 0.00
(spacer::context::check_reachability :time 0.00 :before-memory 4.74 :after-memory 5.36)
Propagating: 0 1  ! 2 
(spacer::context::propagate :time 0.00 :before-memory 5.36 :after-memory 5.59)
Entering level 2
BRUNCH_STAT max_query_lvl 1
BRUNCH_STAT num_queries 1
BRUNCH_STAT num_reach_queries 0
BRUNCH_STAT num_reach_reuse 0
BRUNCH_STAT inductive_lvl 0
BRUNCH_STAT max_depth 2
BRUNCH_STAT cex_depth 0
expand: query!0 (2, 0) FAR  w(0) 1.
	create_child: MAIN (1, 2) FAR 1537 U 0.00
expand: MAIN (1, 0) FAR  w(0) 1537.
	create_child: MAIN (0, 2) FAR 3107 U 0.00
expand: MAIN (0, 0) FAR  w(0) 3107. F 0.00
expand: MAIN (1, 0) FAR  w(0) 1537.
	create_child: MAIN (0, 2) FAR 3333 U 0.00
expand: MAIN (0, 0) FAR  w(0) 3333. F 0.00
expand: MAIN (1, 0) FAR  w(0) 1537.
	create_child: MAIN (0, 2) FAR 3537 U 0.00
expand: MAIN (0, 0) FAR  w(0) 3537. F 0.00
expand: MAIN (1, 0) FAR  w(0) 1537.
	create_child: MAIN (0, 2) FAR 3639 U 0.00
expand: MAIN (0, 0) FAR  w(0) 3639. F 0.00
expand: MAIN (1, 0) FAR  w(0) 1537.
	create_child: MAIN (0, 2) FAR 3721 U 0.00
expand: MAIN (0, 0) FAR  w(0) 3721. F 0.00
expand: MAIN (1, 0) FAR  w(0) 1537. F 0.00
expand: query!0 (2, 0) FAR  w(0) 1. F 0.00
(spacer::context::check_reachability :time 0.01 :before-memory 5.59 :after-memory 5.71)
Propagating: 0 1 2  ! 3 
(spacer::context::propagate :time 0.00 :before-memory 5.71 :after-memory 5.71)
Entering level 3
BRUNCH_STAT max_query_lvl 2
BRUNCH_STAT num_queries 7
BRUNCH_STAT num_reach_queries 0
BRUNCH_STAT num_reach_reuse 0
BRUNCH_STAT inductive_lvl 0
BRUNCH_STAT max_depth 3
BRUNCH_STAT cex_depth 0
expand: query!0 (3, 0) FAR  w(0) 1.
	create_child: MAIN (2, 3) FAR 1537 U 0.00
expand: MAIN (2, 0) FAR  w(0) 1537.
	create_child: MAIN (1, 3) FAR 3639 U 0.00
expand: MAIN (1, 0) FAR  w(0) 3639. T 0.00
is-reachable: MAIN (2, 0) FAR 1537 T 0.00
is-reachable: query!0 (3, 0) FAR 1 T 0.00
(spacer::context::check_reachability :time 0.01 :before-memory 5.71 :after-memory 6.23)
BRUNCH_STAT max_query_lvl 3
BRUNCH_STAT num_queries 9
BRUNCH_STAT num_reach_queries 3
BRUNCH_STAT num_reach_reuse 1
BRUNCH_STAT inductive_lvl 0
BRUNCH_STAT max_depth 3
BRUNCH_STAT cex_depth 3
(:SPACER-cex-depth                     3
 :SPACER-max-depth                     3
 :SPACER-max-query-lvl                 3
 :SPACER-num-invariants                4
 :SPACER-num-lemmas                    10
 :SPACER-num-properties                7
 :SPACER-num-queries                   9
 :SPACER-num-reach-queries             3
 :SPACER-num-reuse-reach-facts         1
 :added-eqs                            382
 :arith-add-rows                       290
 :arith-assert-diseq                   176
 :arith-assert-lower                   343
 :arith-assert-upper                   454
 :arith-bound-prop                     68
 :arith-conflicts                      19
 :arith-eq-adapter                     97
 :arith-fixed-eqs                      63
 :arith-offset-eqs                     74
 :arith-pivots                         72
 :bool-inductive-gen                   7
 :bool-inductive-gen-failures          7
 :conflicts                            95
 :decisions                            439
 :del-clause                           46
 :final-checks                         17
 :minimized-lits                       29
 :mk-bool-var                          572
 :mk-clause                            1204
 :num-checks                           44
 :propagations                         4594
 :time.itp_solver.itp_core             0.00
 :time.spacer.init_rules               0.00
 :time.spacer.init_rules.pt.init       0.00
 :time.spacer.solve                    0.03
 :time.spacer.solve.propagate          0.00
 :time.spacer.solve.reach              0.02
 :time.spacer.solve.reach.children     0.00
 :time.spacer.solve.reach.gen.bool_ind 0.00
 :time.spacer.solve.reach.is-reach     0.01
 :time.virtual_solver.proof            0.00
 :time.virtual_solver.smt.total        0.02
 :time.virtual_solver.smt.total.sat    0.01
 :virtual_solver.checks                44
 :virtual_solver.checks.sat            17)
BRUNCH_STAT max_query_lvl 3
BRUNCH_STAT num_queries 9
BRUNCH_STAT num_reach_queries 3
BRUNCH_STAT num_reach_reuse 1
BRUNCH_STAT inductive_lvl 0
BRUNCH_STAT max_depth 3
BRUNCH_STAT cex_depth 3

real	0m0.048s
user	0m0.044s
sys	0m0.000s
