(transform N7datalog13mk_coi_filterE...no-op 0s)
(transform N7datalog25mk_interp_tail_simplifierE...11 rules 0s)
(transform N7datalog27mk_quantifier_instantiationE...no-op 0s)
(transform N7datalog8mk_scaleE...no-op 0s)
(transform N7datalog18mk_karr_invariantsE...no-op 0s)
(transform N7datalog14mk_array_blastE...no-op 0s)
(transform N7datalog22mk_subsumption_checkerE...10 rules 0s)
(transform N7datalog12mk_bit_blastE...no-op 0s)
(transform N7datalog15mk_rule_inlinerE...3 rules 0.00127771s)
(transform N7datalog13mk_coi_filterE...no-op 0s)
(transform N7datalog25mk_interp_tail_simplifierE...3 rules 0s)
(transform N7datalog22mk_subsumption_checkerE...no-op 0s)
(transform N7datalog15mk_rule_inlinerE...no-op 0s)
(transform N7datalog13mk_coi_filterE...no-op 0s)
(transform N7datalog25mk_interp_tail_simplifierE...3 rules 0s)
(transform N7datalog22mk_subsumption_checkerE...no-op 0s)
(transform N7datalog15mk_rule_inlinerE...no-op 0s)
(transform N7datalog22mk_subsumption_checkerE...no-op 0s)
(transform N7datalog15mk_rule_inlinerE...no-op 0s)
(transform N7datalog22mk_subsumption_checkerE...no-op 0s)
(transform N7datalog15mk_rule_inlinerE...no-op 0s)
(transform N7datalog22mk_subsumption_checkerE...no-op 0s)
(transform N7datalog8mk_sliceE...no-op 0s)
expand: query!0 (0, 0) FAR  w(0) 1. F 0.00
(spacer::context::check_reachability :time 0.00 :before-memory 4.16 :after-memory 4.64)
Entering level 1
BRUNCH_STAT max_query_lvl 0
BRUNCH_STAT num_queries 0
BRUNCH_STAT num_reach_queries 0
BRUNCH_STAT num_reach_reuse 0
BRUNCH_STAT inductive_lvl 0
BRUNCH_STAT max_depth 1
BRUNCH_STAT cex_depth 0
expand: query!0 (1, 0) FAR  w(0) 1.
	create_child: MAIN (0, 1) FAR 1071 U 0.00
expand: MAIN (0, 0) FAR  w(0) 1071. F 0.00
expand: query!0 (1, 0) FAR  w(0) 1. F 0.00
(spacer::context::check_reachability :time 0.00 :before-memory 4.64 :after-memory 5.26)
Propagating: 0 1  ! 2 
(spacer::context::propagate :time 0.00 :before-memory 5.26 :after-memory 5.26)
Entering level 2
BRUNCH_STAT max_query_lvl 1
BRUNCH_STAT num_queries 1
BRUNCH_STAT num_reach_queries 0
BRUNCH_STAT num_reach_reuse 0
BRUNCH_STAT inductive_lvl 0
BRUNCH_STAT max_depth 2
BRUNCH_STAT cex_depth 0
expand: query!0 (2, 0) FAR  w(0) 1.
	create_child: MAIN (1, 2) FAR 1071 U 0.00
expand: MAIN (1, 0) FAR  w(0) 1071.
	create_child: MAIN (0, 2) FAR 1906 U 0.00
expand: MAIN (0, 0) FAR  w(0) 1906. F 0.00
expand: MAIN (1, 0) FAR  w(0) 1071.
	create_child: MAIN (0, 2) FAR 1982 U 0.00
expand: MAIN (0, 0) FAR  w(0) 1982. F 0.00
expand: MAIN (1, 0) FAR  w(0) 1071.
	create_child: MAIN (0, 2) FAR 2084 U 0.00
expand: MAIN (0, 0) FAR  w(0) 2084. F 0.00
expand: MAIN (1, 0) FAR  w(0) 1071. F 0.00
expand: query!0 (2, 0) FAR  w(0) 1. F 0.00
(spacer::context::check_reachability :time 0.00 :before-memory 5.26 :after-memory 5.26)
Propagating: 0 1 2  ! 3 
(spacer::context::propagate :time 0.00 :before-memory 5.26 :after-memory 5.26)
Entering level 3
BRUNCH_STAT max_query_lvl 2
BRUNCH_STAT num_queries 5
BRUNCH_STAT num_reach_queries 0
BRUNCH_STAT num_reach_reuse 0
BRUNCH_STAT inductive_lvl 0
BRUNCH_STAT max_depth 3
BRUNCH_STAT cex_depth 0
expand: query!0 (3, 0) FAR  w(0) 1.
	create_child: MAIN (2, 3) FAR 1071 U 0.00
expand: MAIN (2, 0) FAR  w(0) 1071.
	create_child: MAIN (1, 3) FAR 2084 U 0.00
expand: MAIN (1, 0) FAR  w(0) 2084.
	create_child: MAIN (0, 3) FAR 2399 U 0.00
expand: MAIN (0, 0) FAR  w(0) 2399. F 0.00
expand: MAIN (1, 0) FAR  w(0) 2084. F 0.00
expand: MAIN (2, 0) FAR  w(0) 1071.
	create_child: MAIN (1, 3) FAR 2598 U 0.00
expand: MAIN (1, 0) FAR  w(0) 2598. F 0.00
expand: MAIN (2, 0) FAR  w(0) 1071. F 0.00
expand: query!0 (3, 0) FAR  w(0) 1. F 0.00
(spacer::context::check_reachability :time 0.01 :before-memory 5.26 :after-memory 5.52)
Propagating: 0 1 2 3  ! 4 
(spacer::context::propagate :time 0.00 :before-memory 5.52 :after-memory 5.52)
Entering level 4
BRUNCH_STAT max_query_lvl 3
BRUNCH_STAT num_queries 9
BRUNCH_STAT num_reach_queries 0
BRUNCH_STAT num_reach_reuse 0
BRUNCH_STAT inductive_lvl 0
BRUNCH_STAT max_depth 4
BRUNCH_STAT cex_depth 0
expand: query!0 (4, 0) FAR  w(0) 1.
	create_child: MAIN (3, 4) FAR 1071 U 0.00
expand: MAIN (3, 0) FAR  w(0) 1071.
	create_child: MAIN (2, 4) FAR 3010 U 0.00
expand: MAIN (2, 0) FAR  w(0) 3010.
	create_child: MAIN (1, 4) FAR 2985 U 0.00
expand: MAIN (1, 0) FAR  w(0) 2985.
	create_child: MAIN (0, 4) FAR 2872 U 0.00
expand: MAIN (0, 0) FAR  w(0) 2872. F 0.00
expand: MAIN (1, 0) FAR  w(0) 2985. F 0.00
expand: MAIN (2, 0) FAR  w(0) 3010. F 0.00
expand: MAIN (3, 0) FAR  w(0) 1071. F 0.00
expand: query!0 (4, 0) FAR  w(0) 1. F 0.00
(spacer::context::check_reachability :time 0.00 :before-memory 5.52 :after-memory 5.52)
Propagating: 0 1 2 3 4  ! 5 
(spacer::context::propagate :time 0.00 :before-memory 5.52 :after-memory 5.52)
Entering level 5
BRUNCH_STAT max_query_lvl 4
BRUNCH_STAT num_queries 13
BRUNCH_STAT num_reach_queries 0
BRUNCH_STAT num_reach_reuse 0
BRUNCH_STAT inductive_lvl 0
BRUNCH_STAT max_depth 5
BRUNCH_STAT cex_depth 0
expand: query!0 (5, 0) FAR  w(0) 1.
	create_child: MAIN (4, 5) FAR 1071 U 0.00
expand: MAIN (4, 0) FAR  w(0) 1071.
	create_child: MAIN (3, 5) FAR 1906 U 0.00
expand: MAIN (3, 0) FAR  w(0) 1906. F 0.00
expand: MAIN (4, 0) FAR  w(0) 1071.
	create_child: MAIN (3, 5) FAR 3010 U 0.00
expand: MAIN (3, 0) FAR  w(0) 3010.
	create_child: MAIN (2, 5) FAR 2985 U 0.00
expand: MAIN (2, 0) FAR  w(0) 2985. F 0.00
expand: MAIN (3, 0) FAR  w(0) 3010. F 0.00
expand: MAIN (4, 0) FAR  w(0) 1071.
	create_child: MAIN (3, 5) FAR 2084 U 0.00
expand: MAIN (3, 0) FAR  w(0) 2084. F 0.00
expand: MAIN (4, 0) FAR  w(0) 1071.
	create_child: MAIN (3, 5) FAR 3903 U 0.00
expand: MAIN (3, 0) FAR  w(0) 3903.
	create_child: MAIN (2, 5) FAR 3865 U 0.00
expand: MAIN (2, 0) FAR  w(0) 3865. F 0.00
expand: MAIN (3, 0) FAR  w(0) 3903. F 0.00
expand: MAIN (4, 0) FAR  w(0) 1071.
	create_child: MAIN (3, 5) FAR 2598 U 0.00
expand: MAIN (3, 0) FAR  w(0) 2598. F 0.00
expand: MAIN (4, 0) FAR  w(0) 1071.
	create_child: MAIN (3, 5) FAR 1982 U 0.00
expand: MAIN (3, 0) FAR  w(0) 1982.
	create_child: MAIN (2, 5) FAR 4397 U 0.00
expand: MAIN (2, 0) FAR  w(0) 4397. F 0.00
expand: MAIN (3, 0) FAR  w(0) 1982. F 0.00
expand: MAIN (4, 0) FAR  w(0) 1071. F 0.00
expand: query!0 (5, 0) FAR  w(0) 1. F 0.00
(spacer::context::check_reachability :time 0.02 :before-memory 5.52 :after-memory 5.62)
Propagating: 2 3 4 5  ! 6 
(spacer::context::propagate :time 0.00 :before-memory 5.62 :after-memory 5.62)
Entering level 6
BRUNCH_STAT max_query_lvl 5
BRUNCH_STAT num_queries 23
BRUNCH_STAT num_reach_queries 0
BRUNCH_STAT num_reach_reuse 0
BRUNCH_STAT inductive_lvl 0
BRUNCH_STAT max_depth 6
BRUNCH_STAT cex_depth 0
expand: query!0 (6, 0) FAR  w(0) 1.
	create_child: MAIN (5, 6) FAR 1071 U 0.00
expand: MAIN (5, 0) FAR  w(0) 1071.
	create_child: MAIN (4, 6) FAR 4931 U 0.00
expand: MAIN (4, 0) FAR  w(0) 4931. F 0.00
expand: MAIN (5, 0) FAR  w(0) 1071.
	create_child: MAIN (4, 6) FAR 3010 U 0.00
expand: MAIN (4, 0) FAR  w(0) 3010.
	create_child: MAIN (3, 6) FAR 2985 U 0.00
expand: MAIN (3, 0) FAR  w(0) 2985.
	create_child: MAIN (2, 6) FAR 2872 U 0.00
expand: MAIN (2, 0) FAR  w(0) 2872.
	create_child: MAIN (1, 6) FAR 4941 U 0.00
expand: MAIN (1, 0) FAR  w(0) 4941. F 0.00
expand: MAIN (2, 0) FAR  w(0) 2872. F 0.00
expand: MAIN (3, 0) FAR  w(0) 2985. F 0.00
expand: MAIN (4, 0) FAR  w(0) 3010. F 0.00
expand: MAIN (5, 0) FAR  w(0) 1071.
	create_child: MAIN (4, 6) FAR 5642 U 0.00
expand: MAIN (4, 0) FAR  w(0) 5642. F 0.00
expand: MAIN (5, 0) FAR  w(0) 1071.
	create_child: MAIN (4, 6) FAR 5868 U 0.00
expand: MAIN (4, 0) FAR  w(0) 5868. F 0.00
expand: MAIN (5, 0) FAR  w(0) 1071.
	create_child: MAIN (4, 6) FAR 5983 U 0.00
expand: MAIN (4, 0) FAR  w(0) 5983. F 0.00
expand: MAIN (5, 0) FAR  w(0) 1071.
	create_child: MAIN (4, 6) FAR 3903 U 0.00
expand: MAIN (4, 0) FAR  w(0) 3903. F 0.00
expand: MAIN (5, 0) FAR  w(0) 1071.
	create_child: MAIN (4, 6) FAR 2598 U 0.00
expand: MAIN (4, 0) FAR  w(0) 2598. F 0.00
expand: MAIN (5, 0) FAR  w(0) 1071.
	create_child: MAIN (4, 6) FAR 6319 U 0.00
expand: MAIN (4, 0) FAR  w(0) 6319.
	create_child: MAIN (3, 6) FAR 4397 U 0.00
expand: MAIN (3, 0) FAR  w(0) 4397. F 0.00
expand: MAIN (4, 0) FAR  w(0) 6319. F 0.00
expand: MAIN (5, 0) FAR  w(0) 1071. F 0.00
expand: query!0 (6, 0) FAR  w(0) 1. F 0.00
(spacer::context::check_reachability :time 0.03 :before-memory 5.62 :after-memory 6.02)
Propagating: 1 2 3 4 5 6  ! 7 
(spacer::context::propagate :time 0.01 :before-memory 6.02 :after-memory 6.12)
Entering level 7
BRUNCH_STAT max_query_lvl 6
BRUNCH_STAT num_queries 36
BRUNCH_STAT num_reach_queries 0
BRUNCH_STAT num_reach_reuse 0
BRUNCH_STAT inductive_lvl 0
BRUNCH_STAT max_depth 7
BRUNCH_STAT cex_depth 0
expand: query!0 (7, 0) FAR  w(0) 1.
	create_child: MAIN (6, 7) FAR 1071 U 0.00
expand: MAIN (6, 0) FAR  w(0) 1071.
	create_child: MAIN (5, 7) FAR 7851 U 0.00
expand: MAIN (5, 0) FAR  w(0) 7851. F 0.00
expand: MAIN (6, 0) FAR  w(0) 1071.
	create_child: MAIN (5, 7) FAR 1906 U 0.00
expand: MAIN (5, 0) FAR  w(0) 1906. F 0.00
expand: MAIN (6, 0) FAR  w(0) 1071.
	create_child: MAIN (5, 7) FAR 3903 U 0.00
expand: MAIN (5, 0) FAR  w(0) 3903.
	create_child: MAIN (4, 7) FAR 3865 U 0.00
expand: MAIN (4, 0) FAR  w(0) 3865. F 0.00
expand: MAIN (5, 0) FAR  w(0) 3903. F 0.00
expand: MAIN (6, 0) FAR  w(0) 1071.
	create_child: MAIN (5, 7) FAR 2598 U 0.00
expand: MAIN (5, 0) FAR  w(0) 2598. F 0.00
expand: MAIN (6, 0) FAR  w(0) 1071.
	create_child: MAIN (5, 7) FAR 6319 U 0.00
expand: MAIN (5, 0) FAR  w(0) 6319. F 0.00
expand: MAIN (6, 0) FAR  w(0) 1071.
	create_child: MAIN (5, 7) FAR 9638 U 0.00
expand: MAIN (5, 0) FAR  w(0) 9638. F 0.00
expand: MAIN (6, 0) FAR  w(0) 1071. F 0.00
expand: query!0 (7, 0) FAR  w(0) 1. F 0.00
(spacer::context::check_reachability :time 0.02 :before-memory 6.12 :after-memory 6.31)
Propagating: 4 5 
(spacer::context::propagate :time 0.00 :before-memory 6.31 :after-memory 6.31)
(define-fun MAIN ((x!0 Bool)
 (x!1 Bool)
 (x!2 Bool)
 (x!3 Bool)
 (x!4 Bool)
 (x!5 Int)
 (x!6 Bool)
 (x!7 Bool)
 (x!8 Bool)) Bool
  (and (or (not (>= x!5 2)) x!3 (not x!0) (= x!5 5))
       x!8
       (not x!4)
       (not x!7)
       (or (not (<= x!5 0)) (not x!0))
       (or (not (<= x!5 1)) (not x!3))
       (or (not (<= x!5 2)) (not x!0) (not x!3))
       (or (not (<= x!5 3)) (not x!1))
       (or x!6 (not x!2))
       (or x!2 (not x!6))
       (or x!3 x!1 (= x!5 0) x!0)
       (or (not (>= x!5 5)) x!0)
       (or (not (>= x!5 3)) x!0 x!1)
       (or (not (>= x!5 2)) x!1 x!3)
       (or (not (>= x!5 4)) (not x!3))))
BRUNCH_STAT max_query_lvl 7
BRUNCH_STAT num_queries 44
BRUNCH_STAT num_reach_queries 0
BRUNCH_STAT num_reach_reuse 0
BRUNCH_STAT inductive_lvl 5
BRUNCH_STAT max_depth 7
BRUNCH_STAT cex_depth 0
(:SPACER-inductive-level               5
 :SPACER-max-depth                     7
 :SPACER-max-query-lvl                 7
 :SPACER-num-invariants                18
 :SPACER-num-lemmas                    52
 :SPACER-num-properties                31
 :SPACER-num-queries                   44
 :added-eqs                            603
 :arith-assert-diseq                   1043
 :arith-assert-lower                   1351
 :arith-assert-upper                   1724
 :arith-bound-prop                     21
 :arith-conflicts                      4
 :arith-eq-adapter                     539
 :arith-fixed-eqs                      70
 :arith-offset-eqs                     18
 :arith-pivots                         42
 :bool-inductive-gen                   44
 :bool-inductive-gen-failures          74
 :conflicts                            237
 :decisions                            6516
 :del-clause                           97
 :final-checks                         168
 :minimized-lits                       25
 :mk-bool-var                          1220
 :mk-clause                            781
 :num-checks                           362
 :propagations                         30581
 :time.itp_solver.itp_core             0.01
 :time.spacer.init_rules               0.00
 :time.spacer.init_rules.pt.init       0.00
 :time.spacer.solve                    0.10
 :time.spacer.solve.propagate          0.02
 :time.spacer.solve.reach              0.08
 :time.spacer.solve.reach.children     0.01
 :time.spacer.solve.reach.gen.bool_ind 0.03
 :time.virtual_solver.proof            0.01
 :time.virtual_solver.smt.total        0.06
 :time.virtual_solver.smt.total.sat    0.04
 :virtual_solver.checks                362
 :virtual_solver.checks.sat            168)
BRUNCH_STAT max_query_lvl 7
BRUNCH_STAT num_queries 44
BRUNCH_STAT num_reach_queries 0
BRUNCH_STAT num_reach_reuse 0
BRUNCH_STAT inductive_lvl 5
BRUNCH_STAT max_depth 7
BRUNCH_STAT cex_depth 0

real	0m0.123s
user	0m0.104s
sys	0m0.016s
