(transform N7datalog13mk_coi_filterE...no-op 0s)
(transform N7datalog25mk_interp_tail_simplifierE...21 rules 0s)
(transform N7datalog27mk_quantifier_instantiationE...no-op 0s)
(transform N7datalog8mk_scaleE...no-op 0s)
(transform N7datalog18mk_karr_invariantsE...no-op 0s)
(transform N7datalog14mk_array_blastE...no-op 0s)
(transform N7datalog22mk_subsumption_checkerE...20 rules 0s)
(transform N7datalog12mk_bit_blastE...no-op 0s)
(transform N7datalog15mk_rule_inlinerE...3 rules 0.0172985s)
(transform N7datalog13mk_coi_filterE...no-op 0s)
(transform N7datalog25mk_interp_tail_simplifierE...3 rules 0s)
(transform N7datalog22mk_subsumption_checkerE...no-op 0s)
(transform N7datalog15mk_rule_inlinerE...no-op 0s)
(transform N7datalog13mk_coi_filterE...no-op 0s)
(transform N7datalog25mk_interp_tail_simplifierE...3 rules 0s)
(transform N7datalog22mk_subsumption_checkerE...no-op 0s)
(transform N7datalog15mk_rule_inlinerE...no-op 0s)
(transform N7datalog22mk_subsumption_checkerE...no-op 0s)
(transform N7datalog15mk_rule_inlinerE...no-op 0s)
(transform N7datalog22mk_subsumption_checkerE...no-op 0s)
(transform N7datalog15mk_rule_inlinerE...no-op 0s)
(transform N7datalog22mk_subsumption_checkerE...no-op 0s)
(transform N7datalog8mk_sliceE...no-op 0s)
expand: query!0 (0, 0) FAR  w(0) 1. F 0.00
(spacer::context::check_reachability :time 0.00 :before-memory 5.09 :after-memory 5.60)
Entering level 1
BRUNCH_STAT max_query_lvl 0
BRUNCH_STAT num_queries 0
BRUNCH_STAT num_reach_queries 0
BRUNCH_STAT num_reach_reuse 0
BRUNCH_STAT inductive_lvl 0
BRUNCH_STAT max_depth 1
BRUNCH_STAT cex_depth 0
expand: query!0 (1, 0) FAR  w(0) 1.
	create_child: MAIN (0, 1) FAR 6463 U 0.00
expand: MAIN (0, 0) FAR  w(0) 6463. F 0.00
expand: query!0 (1, 0) FAR  w(0) 1. F 0.00
(spacer::context::check_reachability :time 0.00 :before-memory 5.60 :after-memory 6.54)
Propagating: 0 1  ! 2 
(spacer::context::propagate :time 0.00 :before-memory 6.54 :after-memory 6.54)
Entering level 2
BRUNCH_STAT max_query_lvl 1
BRUNCH_STAT num_queries 1
BRUNCH_STAT num_reach_queries 0
BRUNCH_STAT num_reach_reuse 0
BRUNCH_STAT inductive_lvl 0
BRUNCH_STAT max_depth 2
BRUNCH_STAT cex_depth 0
expand: query!0 (2, 0) FAR  w(0) 1.
	create_child: MAIN (1, 2) FAR 6463 U 0.00
expand: MAIN (1, 0) FAR  w(0) 6463.
	create_child: MAIN (0, 2) FAR 10072 U 0.00
expand: MAIN (0, 0) FAR  w(0) 10072. F 0.00
expand: MAIN (1, 0) FAR  w(0) 6463.
	create_child: MAIN (0, 2) FAR 10219 U 0.00
expand: MAIN (0, 0) FAR  w(0) 10219. F 0.00
expand: MAIN (1, 0) FAR  w(0) 6463.
	create_child: MAIN (0, 2) FAR 10109 U 0.00
expand: MAIN (0, 0) FAR  w(0) 10109. F 0.00
expand: MAIN (1, 0) FAR  w(0) 6463.
	create_child: MAIN (0, 2) FAR 10319 U 0.00
expand: MAIN (0, 0) FAR  w(0) 10319. F 0.00
expand: MAIN (1, 0) FAR  w(0) 6463.
	create_child: MAIN (0, 2) FAR 10194 U 0.00
expand: MAIN (0, 0) FAR  w(0) 10194. F 0.00
expand: MAIN (1, 0) FAR  w(0) 6463.
	create_child: MAIN (0, 2) FAR 10424 U 0.00
expand: MAIN (0, 0) FAR  w(0) 10424. F 0.00
expand: MAIN (1, 0) FAR  w(0) 6463.
	create_child: MAIN (0, 2) FAR 10469 U 0.00
expand: MAIN (0, 0) FAR  w(0) 10469. F 0.00
expand: MAIN (1, 0) FAR  w(0) 6463.
	create_child: MAIN (0, 2) FAR 10496 U 0.00
expand: MAIN (0, 0) FAR  w(0) 10496. F 0.00
expand: MAIN (1, 0) FAR  w(0) 6463.
	create_child: MAIN (0, 2) FAR 10683 U 0.00
expand: MAIN (0, 0) FAR  w(0) 10683. F 0.00
expand: MAIN (1, 0) FAR  w(0) 6463.
	create_child: MAIN (0, 2) FAR 10564 U 0.00
expand: MAIN (0, 0) FAR  w(0) 10564. F 0.00
expand: MAIN (1, 0) FAR  w(0) 6463.
	create_child: MAIN (0, 2) FAR 10789 U 0.00
expand: MAIN (0, 0) FAR  w(0) 10789. F 0.00
expand: MAIN (1, 0) FAR  w(0) 6463.
	create_child: MAIN (0, 2) FAR 10809 U 0.00
expand: MAIN (0, 0) FAR  w(0) 10809. F 0.00
expand: MAIN (1, 0) FAR  w(0) 6463.
	create_child: MAIN (0, 2) FAR 10947 U 0.00
expand: MAIN (0, 0) FAR  w(0) 10947. F 0.00
expand: MAIN (1, 0) FAR  w(0) 6463.
	create_child: MAIN (0, 2) FAR 10990 U 0.00
expand: MAIN (0, 0) FAR  w(0) 10990. F 0.00
expand: MAIN (1, 0) FAR  w(0) 6463.
	create_child: MAIN (0, 2) FAR 11109 U 0.00
expand: MAIN (0, 0) FAR  w(0) 11109. F 0.00
expand: MAIN (1, 0) FAR  w(0) 6463.
	create_child: MAIN (0, 2) FAR 11134 U 0.00
expand: MAIN (0, 0) FAR  w(0) 11134. F 0.00
expand: MAIN (1, 0) FAR  w(0) 6463.
	create_child: MAIN (0, 2) FAR 11220 U 0.00
expand: MAIN (0, 0) FAR  w(0) 11220. F 0.00
expand: MAIN (1, 0) FAR  w(0) 6463.
	create_child: MAIN (0, 2) FAR 11347 U 0.00
expand: MAIN (0, 0) FAR  w(0) 11347. F 0.00
expand: MAIN (1, 0) FAR  w(0) 6463.
	create_child: MAIN (0, 2) FAR 11423 U 0.00
expand: MAIN (0, 0) FAR  w(0) 11423. F 0.00
expand: MAIN (1, 0) FAR  w(0) 6463.
	create_child: MAIN (0, 2) FAR 11525 U 0.00
expand: MAIN (0, 0) FAR  w(0) 11525. F 0.00
expand: MAIN (1, 0) FAR  w(0) 6463.
	create_child: MAIN (0, 2) FAR 11627 U 0.00
expand: MAIN (0, 0) FAR  w(0) 11627. F 0.00
expand: MAIN (1, 0) FAR  w(0) 6463.
	create_child: MAIN (0, 2) FAR 11731 U 0.00
expand: MAIN (0, 0) FAR  w(0) 11731. F 0.00
expand: MAIN (1, 0) FAR  w(0) 6463.
	create_child: MAIN (0, 2) FAR 11752 U 0.00
expand: MAIN (0, 0) FAR  w(0) 11752. F 0.00
expand: MAIN (1, 0) FAR  w(0) 6463.
	create_child: MAIN (0, 2) FAR 11890 U 0.00
expand: MAIN (0, 0) FAR  w(0) 11890. F 0.00
expand: MAIN (1, 0) FAR  w(0) 6463.
	create_child: MAIN (0, 2) FAR 12037 U 0.00
expand: MAIN (0, 0) FAR  w(0) 12037. F 0.00
expand: MAIN (1, 0) FAR  w(0) 6463.
	create_child: MAIN (0, 2) FAR 12112 U 0.00
expand: MAIN (0, 0) FAR  w(0) 12112. F 0.00
expand: MAIN (1, 0) FAR  w(0) 6463.
	create_child: MAIN (0, 2) FAR 12169 U 0.00
expand: MAIN (0, 0) FAR  w(0) 12169. F 0.00
expand: MAIN (1, 0) FAR  w(0) 6463.
	create_child: MAIN (0, 2) FAR 12318 U 0.00
expand: MAIN (0, 0) FAR  w(0) 12318. F 0.00
expand: MAIN (1, 0) FAR  w(0) 6463.
	create_child: MAIN (0, 2) FAR 12576 U 0.00
expand: MAIN (0, 0) FAR  w(0) 12576. F 0.00
expand: MAIN (1, 0) FAR  w(0) 6463.
	create_child: MAIN (0, 2) FAR 12629 U 0.00
expand: MAIN (0, 0) FAR  w(0) 12629. F 0.00
expand: MAIN (1, 0) FAR  w(0) 6463.
	create_child: MAIN (0, 2) FAR 12734 U 0.00
expand: MAIN (0, 0) FAR  w(0) 12734. F 0.00
expand: MAIN (1, 0) FAR  w(0) 6463.
	create_child: MAIN (0, 2) FAR 12959 U 0.00
expand: MAIN (0, 0) FAR  w(0) 12959. F 0.00
expand: MAIN (1, 0) FAR  w(0) 6463.
	create_child: MAIN (0, 2) FAR 13036 U 0.00
expand: MAIN (0, 0) FAR  w(0) 13036. F 0.00
expand: MAIN (1, 0) FAR  w(0) 6463.
	create_child: MAIN (0, 2) FAR 13105 U 0.00
expand: MAIN (0, 0) FAR  w(0) 13105. F 0.00
expand: MAIN (1, 0) FAR  w(0) 6463.
	create_child: MAIN (0, 2) FAR 13175 U 0.00
expand: MAIN (0, 0) FAR  w(0) 13175. F 0.00
expand: MAIN (1, 0) FAR  w(0) 6463.
	create_child: MAIN (0, 2) FAR 13427 U 0.00
expand: MAIN (0, 0) FAR  w(0) 13427. F 0.00
expand: MAIN (1, 0) FAR  w(0) 6463. F 0.00
expand: query!0 (2, 0) FAR  w(0) 1. F 0.00
(spacer::context::check_reachability :time 0.08 :before-memory 6.54 :after-memory 7.41)
Propagating: 0 1 2  ! 3 
(spacer::context::propagate :time 0.01 :before-memory 7.41 :after-memory 7.60)
Entering level 3
BRUNCH_STAT max_query_lvl 2
BRUNCH_STAT num_queries 38
BRUNCH_STAT num_reach_queries 0
BRUNCH_STAT num_reach_reuse 0
BRUNCH_STAT inductive_lvl 0
BRUNCH_STAT max_depth 3
BRUNCH_STAT cex_depth 0
expand: query!0 (3, 0) FAR  w(0) 1.
	create_child: MAIN (2, 3) FAR 6463 U 0.00
expand: MAIN (2, 0) FAR  w(0) 6463.
	create_child: MAIN (1, 3) FAR 18668 U 0.00
expand: MAIN (1, 0) FAR  w(0) 18668. F 0.00
expand: MAIN (2, 0) FAR  w(0) 6463.
	create_child: MAIN (1, 3) FAR 18764 U 0.00
expand: MAIN (1, 0) FAR  w(0) 18764. F 0.00
expand: MAIN (2, 0) FAR  w(0) 6463.
	create_child: MAIN (1, 3) FAR 19280 U 0.00
expand: MAIN (1, 0) FAR  w(0) 19280. F 0.00
expand: MAIN (2, 0) FAR  w(0) 6463.
	create_child: MAIN (1, 3) FAR 19481 U 0.00
expand: MAIN (1, 0) FAR  w(0) 19481. F 0.00
expand: MAIN (2, 0) FAR  w(0) 6463.
	create_child: MAIN (1, 3) FAR 20008 U 0.00
expand: MAIN (1, 0) FAR  w(0) 20008. F 0.00
expand: MAIN (2, 0) FAR  w(0) 6463.
	create_child: MAIN (1, 3) FAR 20482 U 0.00
expand: MAIN (1, 0) FAR  w(0) 20482. F 0.00
expand: MAIN (2, 0) FAR  w(0) 6463.
	create_child: MAIN (1, 3) FAR 21005 U 0.00
expand: MAIN (1, 0) FAR  w(0) 21005. F 0.00
expand: MAIN (2, 0) FAR  w(0) 6463.
	create_child: MAIN (1, 3) FAR 21033 U 0.00
expand: MAIN (1, 0) FAR  w(0) 21033. T 0.00
is-reachable: MAIN (2, 0) FAR 6463 T 0.01
is-reachable: query!0 (3, 0) FAR 1 T 0.00
(spacer::context::check_reachability :time 0.04 :before-memory 7.60 :after-memory 8.31)
BRUNCH_STAT max_query_lvl 3
BRUNCH_STAT num_queries 47
BRUNCH_STAT num_reach_queries 3
BRUNCH_STAT num_reach_reuse 1
BRUNCH_STAT inductive_lvl 0
BRUNCH_STAT max_depth 3
BRUNCH_STAT cex_depth 3
(:SPACER-cex-depth                     3
 :SPACER-max-depth                     3
 :SPACER-max-query-lvl                 3
 :SPACER-num-invariants                29
 :SPACER-num-lemmas                    48
 :SPACER-num-properties                45
 :SPACER-num-queries                   47
 :SPACER-num-reach-queries             3
 :SPACER-num-reuse-reach-facts         1
 :bool-inductive-gen                   45
 :bool-inductive-gen-failures          87
 :conflicts                            296
 :decisions                            9265
 :final-checks                         135
 :minimized-lits                       194
 :mk-bool-var                          1559
 :mk-clause                            3068
 :num-checks                           324
 :propagations                         85979
 :time.itp_solver.itp_core             0.01
 :time.spacer.init_rules               0.00
 :time.spacer.init_rules.pt.init       0.00
 :time.spacer.solve                    0.14
 :time.spacer.solve.propagate          0.01
 :time.spacer.solve.reach              0.13
 :time.spacer.solve.reach.children     0.03
 :time.spacer.solve.reach.gen.bool_ind 0.03
 :time.spacer.solve.reach.is-reach     0.01
 :time.virtual_solver.proof            0.01
 :time.virtual_solver.smt.total        0.08
 :time.virtual_solver.smt.total.sat    0.05
 :virtual_solver.checks                324
 :virtual_solver.checks.sat            135)
BRUNCH_STAT max_query_lvl 3
BRUNCH_STAT num_queries 47
BRUNCH_STAT num_reach_queries 3
BRUNCH_STAT num_reach_reuse 1
BRUNCH_STAT inductive_lvl 0
BRUNCH_STAT max_depth 3
BRUNCH_STAT cex_depth 3

real	0m0.191s
user	0m0.172s
sys	0m0.016s
