(transform N7datalog13mk_coi_filterE...no-op 0s)
(transform N7datalog25mk_interp_tail_simplifierE...7 rules 0s)
(transform N7datalog27mk_quantifier_instantiationE...no-op 0s)
(transform N7datalog8mk_scaleE...no-op 0s)
(transform N7datalog18mk_karr_invariantsE...no-op 0s)
(transform N7datalog14mk_array_blastE...no-op 0s)
(transform N7datalog22mk_subsumption_checkerE...6 rules 0s)
(transform N7datalog12mk_bit_blastE...no-op 0s)
(transform N7datalog15mk_rule_inlinerE...3 rules 0s)
(transform N7datalog13mk_coi_filterE...no-op 0s)
(transform N7datalog25mk_interp_tail_simplifierE...3 rules 0s)
(transform N7datalog22mk_subsumption_checkerE...no-op 0s)
(transform N7datalog15mk_rule_inlinerE...no-op 0s)
(transform N7datalog13mk_coi_filterE...no-op 0s)
(transform N7datalog25mk_interp_tail_simplifierE...3 rules 0s)
(transform N7datalog22mk_subsumption_checkerE...no-op 0s)
(transform N7datalog15mk_rule_inlinerE...no-op 0s)
(transform N7datalog22mk_subsumption_checkerE...no-op 0s)
(transform N7datalog15mk_rule_inlinerE...no-op 0s)
(transform N7datalog22mk_subsumption_checkerE...no-op 0s)
(transform N7datalog15mk_rule_inlinerE...no-op 0s)
(transform N7datalog22mk_subsumption_checkerE...no-op 0s)
(transform N7datalog8mk_sliceE...no-op 0s)
expand: query!0 (0, 0) FAR  w(0) 1
This proof contains 0 Farkas lemmas. 0 Farkas lemmas participate in the lowest cut
. F 0.00
(spacer::context::check_reachability :time 0.00 :before-memory 4.05 :after-memory 4.53)
Entering level 1
BRUNCH_STAT max_query_lvl 0
BRUNCH_STAT num_queries 0
BRUNCH_STAT num_reach_queries 0
BRUNCH_STAT num_reach_reuse 0
BRUNCH_STAT inductive_lvl 0
BRUNCH_STAT max_depth 1
BRUNCH_STAT cex_depth 0
expand: query!0 (1, 0) FAR  w(0) 1.
	create_child: MAIN (0, 1) FAR 493 U 0.00
expand: MAIN (0, 0) FAR  w(0) 493
This proof contains 0 Farkas lemmas. 0 Farkas lemmas participate in the lowest cut
. F 0.00
expand: query!0 (1, 0) FAR  w(0) 1
This proof contains 0 Farkas lemmas. 0 Farkas lemmas participate in the lowest cut
. F 0.00
(spacer::context::check_reachability :time 0.00 :before-memory 4.53 :after-memory 5.00)
Propagating: 0 1  ! 2 
(spacer::context::propagate :time 0.00 :before-memory 5.00 :after-memory 5.00)
Entering level 2
BRUNCH_STAT max_query_lvl 1
BRUNCH_STAT num_queries 1
BRUNCH_STAT num_reach_queries 0
BRUNCH_STAT num_reach_reuse 0
BRUNCH_STAT inductive_lvl 0
BRUNCH_STAT max_depth 2
BRUNCH_STAT cex_depth 0
expand: query!0 (2, 0) FAR  w(0) 1.
	create_child: MAIN (1, 2) FAR 493 U 0.00
expand: MAIN (1, 0) FAR  w(0) 493.
	create_child: MAIN (0, 2) FAR 1017 U 0.00
expand: MAIN (0, 0) FAR  w(0) 1017
This proof contains 0 Farkas lemmas. 0 Farkas lemmas participate in the lowest cut
. F 0.00
expand: MAIN (1, 0) FAR  w(0) 493.
	create_child: MAIN (0, 2) FAR 1058 U 0.00
expand: MAIN (0, 0) FAR  w(0) 1058
This proof contains 0 Farkas lemmas. 0 Farkas lemmas participate in the lowest cut
. F 0.00
expand: MAIN (1, 0) FAR  w(0) 493.
	create_child: MAIN (0, 2) FAR 1099 U 0.00
expand: MAIN (0, 0) FAR  w(0) 1099
This proof contains 0 Farkas lemmas. 0 Farkas lemmas participate in the lowest cut
. F 0.00
expand: MAIN (1, 0) FAR  w(0) 493
This proof contains 0 Farkas lemmas. 0 Farkas lemmas participate in the lowest cut
. F 0.00
expand: query!0 (2, 0) FAR  w(0) 1
This proof contains 0 Farkas lemmas. 0 Farkas lemmas participate in the lowest cut
. F 0.00
(spacer::context::check_reachability :time 0.00 :before-memory 5.00 :after-memory 5.00)
Propagating: 0 1 2  ! 3 
(spacer::context::propagate :time 0.00 :before-memory 5.00 :after-memory 5.00)
Entering level 3
BRUNCH_STAT max_query_lvl 2
BRUNCH_STAT num_queries 5
BRUNCH_STAT num_reach_queries 0
BRUNCH_STAT num_reach_reuse 0
BRUNCH_STAT inductive_lvl 0
BRUNCH_STAT max_depth 3
BRUNCH_STAT cex_depth 0
expand: query!0 (3, 0) FAR  w(0) 1.
	create_child: MAIN (2, 3) FAR 493 U 0.00
expand: MAIN (2, 0) FAR  w(0) 493.
	create_child: MAIN (1, 3) FAR 1150 U 0.00
expand: MAIN (1, 0) FAR  w(0) 1150.
	create_child: MAIN (0, 3) FAR 1335 U 0.00
expand: MAIN (0, 0) FAR  w(0) 1335
This proof contains 0 Farkas lemmas. 0 Farkas lemmas participate in the lowest cut
. F 0.00
expand: MAIN (1, 0) FAR  w(0) 1150
This proof contains 0 Farkas lemmas. 0 Farkas lemmas participate in the lowest cut
. F 0.00
expand: MAIN (2, 0) FAR  w(0) 493.
	create_child: MAIN (1, 3) FAR 1017 U 0.00
expand: MAIN (1, 0) FAR  w(0) 1017
This proof contains 0 Farkas lemmas. 0 Farkas lemmas participate in the lowest cut
. F 0.00
expand: MAIN (2, 0) FAR  w(0) 493.
	create_child: MAIN (1, 3) FAR 1099 U 0.00
expand: MAIN (1, 0) FAR  w(0) 1099
This proof contains 0 Farkas lemmas. 0 Farkas lemmas participate in the lowest cut
. F 0.00
expand: MAIN (2, 0) FAR  w(0) 493
This proof contains 0 Farkas lemmas. 0 Farkas lemmas participate in the lowest cut
. F 0.00
expand: query!0 (3, 0) FAR  w(0) 1
This proof contains 0 Farkas lemmas. 0 Farkas lemmas participate in the lowest cut
. F 0.00
(spacer::context::check_reachability :time 0.00 :before-memory 5.00 :after-memory 5.15)
Propagating: 0 1 2 3  ! 4 
(spacer::context::propagate :time 0.00 :before-memory 5.15 :after-memory 5.15)
Entering level 4
BRUNCH_STAT max_query_lvl 3
BRUNCH_STAT num_queries 10
BRUNCH_STAT num_reach_queries 0
BRUNCH_STAT num_reach_reuse 0
BRUNCH_STAT inductive_lvl 0
BRUNCH_STAT max_depth 4
BRUNCH_STAT cex_depth 0
expand: query!0 (4, 0) FAR  w(0) 1.
	create_child: MAIN (3, 4) FAR 493 U 0.00
expand: MAIN (3, 0) FAR  w(0) 493.
	create_child: MAIN (2, 4) FAR 1017 U 0.00
expand: MAIN (2, 0) FAR  w(0) 1017
This proof contains 0 Farkas lemmas. 0 Farkas lemmas participate in the lowest cut
. F 0.00
expand: MAIN (3, 0) FAR  w(0) 493.
	create_child: MAIN (2, 4) FAR 2119 U 0.00
expand: MAIN (2, 0) FAR  w(0) 2119
This proof contains 0 Farkas lemmas. 0 Farkas lemmas participate in the lowest cut
. F 0.00
expand: MAIN (3, 0) FAR  w(0) 493.
	create_child: MAIN (2, 4) FAR 1058 U 0.00
expand: MAIN (2, 0) FAR  w(0) 1058
This proof contains 0 Farkas lemmas. 0 Farkas lemmas participate in the lowest cut
. F 0.00
expand: MAIN (3, 0) FAR  w(0) 493
This proof contains 0 Farkas lemmas. 0 Farkas lemmas participate in the lowest cut
. F 0.00
expand: query!0 (4, 0) FAR  w(0) 1
This proof contains 0 Farkas lemmas. 0 Farkas lemmas participate in the lowest cut
. F 0.00
(spacer::context::check_reachability :time 0.00 :before-memory 5.15 :after-memory 5.15)
Propagating: 2 3 4  ! 5 
(spacer::context::propagate :time 0.00 :before-memory 5.15 :after-memory 5.15)
Entering level 5
BRUNCH_STAT max_query_lvl 4
BRUNCH_STAT num_queries 14
BRUNCH_STAT num_reach_queries 0
BRUNCH_STAT num_reach_reuse 0
BRUNCH_STAT inductive_lvl 0
BRUNCH_STAT max_depth 5
BRUNCH_STAT cex_depth 0
expand: query!0 (5, 0) FAR  w(0) 1.
	create_child: MAIN (4, 5) FAR 493 U 0.00
expand: MAIN (4, 0) FAR  w(0) 493.
	create_child: MAIN (3, 5) FAR 2119 U 0.00
expand: MAIN (3, 0) FAR  w(0) 2119
This proof contains 0 Farkas lemmas. 0 Farkas lemmas participate in the lowest cut
. F 0.00
expand: MAIN (4, 0) FAR  w(0) 493.
	create_child: MAIN (3, 5) FAR 1058 U 0.00
expand: MAIN (3, 0) FAR  w(0) 1058
This proof contains 0 Farkas lemmas. 0 Farkas lemmas participate in the lowest cut
. F 0.00
expand: MAIN (4, 0) FAR  w(0) 493.
	create_child: MAIN (3, 5) FAR 1099 U 0.00
expand: MAIN (3, 0) FAR  w(0) 1099
This proof contains 0 Farkas lemmas. 0 Farkas lemmas participate in the lowest cut
. F 0.00
expand: MAIN (4, 0) FAR  w(0) 493
This proof contains 0 Farkas lemmas. 0 Farkas lemmas participate in the lowest cut
. F 0.00
expand: query!0 (5, 0) FAR  w(0) 1
This proof contains 0 Farkas lemmas. 0 Farkas lemmas participate in the lowest cut
. F 0.00
(spacer::context::check_reachability :time 0.00 :before-memory 5.15 :after-memory 5.42)
Propagating: 3 4 5  ! 6 
(spacer::context::propagate :time 0.00 :before-memory 5.42 :after-memory 5.42)
Entering level 6
BRUNCH_STAT max_query_lvl 5
BRUNCH_STAT num_queries 18
BRUNCH_STAT num_reach_queries 0
BRUNCH_STAT num_reach_reuse 0
BRUNCH_STAT inductive_lvl 0
BRUNCH_STAT max_depth 6
BRUNCH_STAT cex_depth 0
expand: query!0 (6, 0) FAR  w(0) 1.
	create_child: MAIN (5, 6) FAR 493 U 0.00
expand: MAIN (5, 0) FAR  w(0) 493.
	create_child: MAIN (4, 6) FAR 1150 U 0.00
expand: MAIN (4, 0) FAR  w(0) 1150
This proof contains 0 Farkas lemmas. 0 Farkas lemmas participate in the lowest cut
. F 0.00
expand: MAIN (5, 0) FAR  w(0) 493
This proof contains 0 Farkas lemmas. 0 Farkas lemmas participate in the lowest cut
. F 0.00
expand: query!0 (6, 0) FAR  w(0) 1
This proof contains 0 Farkas lemmas. 0 Farkas lemmas participate in the lowest cut
. F 0.00
(spacer::context::check_reachability :time 0.00 :before-memory 5.42 :after-memory 5.42)
Propagating: 4 5 6  ! 7 
(spacer::context::propagate :time 0.00 :before-memory 5.42 :after-memory 5.42)
Entering level 7
BRUNCH_STAT max_query_lvl 6
BRUNCH_STAT num_queries 20
BRUNCH_STAT num_reach_queries 0
BRUNCH_STAT num_reach_reuse 0
BRUNCH_STAT inductive_lvl 0
BRUNCH_STAT max_depth 7
BRUNCH_STAT cex_depth 0
expand: query!0 (7, 0) FAR  w(0) 1.
	create_child: MAIN (6, 7) FAR 493 U 0.00
expand: MAIN (6, 0) FAR  w(0) 493.
	create_child: MAIN (5, 7) FAR 1150 U 0.00
expand: MAIN (5, 0) FAR  w(0) 1150.
	create_child: MAIN (4, 7) FAR 1335 U 0.00
expand: MAIN (4, 0) FAR  w(0) 1335.
	create_child: MAIN (3, 7) FAR 3604 U 0.00
expand: MAIN (3, 0) FAR  w(0) 3604.
	create_child: MAIN (2, 7) FAR 3586 U 0.00
expand: MAIN (2, 0) FAR  w(0) 3586.
	create_child: MAIN (1, 7) FAR 3601 U 0.00
expand: MAIN (1, 0) FAR  w(0) 3601. T 0.00
is-reachable: MAIN (2, 0) FAR 3586 T 0.00
is-reachable: MAIN (3, 0) FAR 3604 T 0.00
is-reachable: MAIN (4, 0) FAR 1335 T 0.00
is-reachable: MAIN (5, 0) FAR 1150 T 0.00
is-reachable: MAIN (6, 0) FAR 493 T 0.00
is-reachable: query!0 (7, 0) FAR 1 T 0.00
(spacer::context::check_reachability :time 0.01 :before-memory 5.42 :after-memory 5.42)
BRUNCH_STAT max_query_lvl 7
BRUNCH_STAT num_queries 26
BRUNCH_STAT num_reach_queries 7
BRUNCH_STAT num_reach_reuse 1
BRUNCH_STAT inductive_lvl 0
BRUNCH_STAT max_depth 7
BRUNCH_STAT cex_depth 7
(:SPACER-cex-depth                     7
 :SPACER-max-depth                     7
 :SPACER-max-query-lvl                 7
 :SPACER-num-invariants                3
 :SPACER-num-lemmas                    27
 :SPACER-num-properties                15
 :SPACER-num-queries                   26
 :SPACER-num-reach-queries             7
 :SPACER-num-reuse-reach-facts         1
 :bool-inductive-gen                   20
 :bool-inductive-gen-failures          35
 :conflicts                            97
 :decisions                            676
 :final-checks                         88
 :minimized-lits                       10
 :mk-bool-var                          552
 :mk-clause                            389
 :num-checks                           169
 :propagations                         5358
 :time.itp_solver.itp_core             0.00
 :time.spacer.init_rules               0.00
 :time.spacer.init_rules.pt.init       0.00
 :time.spacer.solve                    0.03
 :time.spacer.solve.propagate          0.00
 :time.spacer.solve.reach              0.03
 :time.spacer.solve.reach.children     0.00
 :time.spacer.solve.reach.gen.bool_ind 0.00
 :time.spacer.solve.reach.is-reach     0.00
 :time.virtual_solver.proof            0.00
 :time.virtual_solver.smt.total        0.02
 :time.virtual_solver.smt.total.sat    0.01
 :virtual_solver.checks                169
 :virtual_solver.checks.sat            88)
BRUNCH_STAT max_query_lvl 7
BRUNCH_STAT num_queries 26
BRUNCH_STAT num_reach_queries 7
BRUNCH_STAT num_reach_reuse 1
BRUNCH_STAT inductive_lvl 0
BRUNCH_STAT max_depth 7
BRUNCH_STAT cex_depth 7

real	0m0.051s
user	0m0.036s
sys	0m0.012s
