(transform N7datalog13mk_coi_filterE...no-op 0s)
(transform N7datalog25mk_interp_tail_simplifierE...12 rules 0s)
(transform N7datalog27mk_quantifier_instantiationE...no-op 0s)
(transform N7datalog8mk_scaleE...no-op 0s)
(transform N7datalog18mk_karr_invariantsE...no-op 0s)
(transform N7datalog14mk_array_blastE...no-op 0s)
(transform N7datalog22mk_subsumption_checkerE...11 rules 0s)
(transform N7datalog12mk_bit_blastE...no-op 0s)
(transform N7datalog15mk_rule_inlinerE...3 rules 0.00165777s)
(transform N7datalog13mk_coi_filterE...no-op 0s)
(transform N7datalog25mk_interp_tail_simplifierE...3 rules 0s)
(transform N7datalog22mk_subsumption_checkerE...no-op 0s)
(transform N7datalog15mk_rule_inlinerE...no-op 0s)
(transform N7datalog13mk_coi_filterE...no-op 0s)
(transform N7datalog25mk_interp_tail_simplifierE...3 rules 0s)
(transform N7datalog22mk_subsumption_checkerE...no-op 0s)
(transform N7datalog15mk_rule_inlinerE...no-op 0s)
(transform N7datalog22mk_subsumption_checkerE...no-op 0s)
(transform N7datalog15mk_rule_inlinerE...no-op 0s)
(transform N7datalog22mk_subsumption_checkerE...no-op 0s)
(transform N7datalog15mk_rule_inlinerE...no-op 0s)
(transform N7datalog22mk_subsumption_checkerE...no-op 0s)
(transform N7datalog8mk_sliceE...no-op 0s)
expand: query!0 (0, 0) FAR  w(0) 1
This proof contains 0 Farkas lemmas. 0 Farkas lemmas participate in the lowest cut
. F 0.00
(spacer::context::check_reachability :time 0.00 :before-memory 4.21 :after-memory 4.73)
Entering level 1
BRUNCH_STAT max_query_lvl 0
BRUNCH_STAT num_queries 0
BRUNCH_STAT num_reach_queries 0
BRUNCH_STAT num_reach_reuse 0
BRUNCH_STAT inductive_lvl 0
BRUNCH_STAT max_depth 1
BRUNCH_STAT cex_depth 0
expand: query!0 (1, 0) FAR  w(0) 1.
	create_child: MAIN (0, 1) FAR 1359 U 0.00
expand: MAIN (0, 0) FAR  w(0) 1359
This proof contains 0 Farkas lemmas. 0 Farkas lemmas participate in the lowest cut
. F 0.00
expand: query!0 (1, 0) FAR  w(0) 1
This proof contains 0 Farkas lemmas. 0 Farkas lemmas participate in the lowest cut
. F 0.00
(spacer::context::check_reachability :time 0.00 :before-memory 4.73 :after-memory 5.32)
Propagating: 0 1  ! 2 
(spacer::context::propagate :time 0.00 :before-memory 5.32 :after-memory 5.32)
Entering level 2
BRUNCH_STAT max_query_lvl 1
BRUNCH_STAT num_queries 1
BRUNCH_STAT num_reach_queries 0
BRUNCH_STAT num_reach_reuse 0
BRUNCH_STAT inductive_lvl 0
BRUNCH_STAT max_depth 2
BRUNCH_STAT cex_depth 0
expand: query!0 (2, 0) FAR  w(0) 1.
	create_child: MAIN (1, 2) FAR 1359 U 0.00
expand: MAIN (1, 0) FAR  w(0) 1359.
	create_child: MAIN (0, 2) FAR 2347 U 0.00
expand: MAIN (0, 0) FAR  w(0) 2347
This proof contains 0 Farkas lemmas. 0 Farkas lemmas participate in the lowest cut
. F 0.00
expand: MAIN (1, 0) FAR  w(0) 1359.
	create_child: MAIN (0, 2) FAR 2453 U 0.00
expand: MAIN (0, 0) FAR  w(0) 2453
This proof contains 0 Farkas lemmas. 0 Farkas lemmas participate in the lowest cut
. F 0.00
expand: MAIN (1, 0) FAR  w(0) 1359
This proof contains 0 Farkas lemmas. 0 Farkas lemmas participate in the lowest cut
. F 0.00
expand: query!0 (2, 0) FAR  w(0) 1
This proof contains 0 Farkas lemmas. 0 Farkas lemmas participate in the lowest cut
. F 0.00
(spacer::context::check_reachability :time 0.00 :before-memory 5.32 :after-memory 5.42)
Propagating: 0 1 2  ! 3 
(spacer::context::propagate :time 0.00 :before-memory 5.42 :after-memory 5.42)
Entering level 3
BRUNCH_STAT max_query_lvl 2
BRUNCH_STAT num_queries 4
BRUNCH_STAT num_reach_queries 0
BRUNCH_STAT num_reach_reuse 0
BRUNCH_STAT inductive_lvl 0
BRUNCH_STAT max_depth 3
BRUNCH_STAT cex_depth 0
expand: query!0 (3, 0) FAR  w(0) 1.
	create_child: MAIN (2, 3) FAR 1359 U 0.00
expand: MAIN (2, 0) FAR  w(0) 1359.
	create_child: MAIN (1, 3) FAR 2720 U 0.00
expand: MAIN (1, 0) FAR  w(0) 2720
This proof contains 0 Farkas lemmas. 0 Farkas lemmas participate in the lowest cut
. F 0.00
expand: MAIN (2, 0) FAR  w(0) 1359.
	create_child: MAIN (1, 3) FAR 2813 U 0.00
expand: MAIN (1, 0) FAR  w(0) 2813
This proof contains 0 Farkas lemmas. 0 Farkas lemmas participate in the lowest cut
. F 0.00
expand: MAIN (2, 0) FAR  w(0) 1359.
	create_child: MAIN (1, 3) FAR 2906 U 0.00
expand: MAIN (1, 0) FAR  w(0) 2906.
	create_child: MAIN (0, 3) FAR 2885 U 0.00
expand: MAIN (0, 0) FAR  w(0) 2885
This proof contains 0 Farkas lemmas. 0 Farkas lemmas participate in the lowest cut
. F 0.00
expand: MAIN (1, 0) FAR  w(0) 2906.
	create_child: MAIN (0, 3) FAR 2881 U 0.00
expand: MAIN (0, 0) FAR  w(0) 2881
This proof contains 0 Farkas lemmas. 0 Farkas lemmas participate in the lowest cut
. F 0.00
expand: MAIN (1, 0) FAR  w(0) 2906
This proof contains 0 Farkas lemmas. 0 Farkas lemmas participate in the lowest cut
. F 0.00
expand: MAIN (2, 0) FAR  w(0) 1359
This proof contains 1 Farkas lemmas. 0 Farkas lemmas participate in the lowest cut
. F 0.00
expand: query!0 (3, 0) FAR  w(0) 1
This proof contains 0 Farkas lemmas. 0 Farkas lemmas participate in the lowest cut
. F 0.00
(spacer::context::check_reachability :time 0.01 :before-memory 5.42 :after-memory 5.60)
Propagating: 0 1 2 3  ! 4 
(spacer::context::propagate :time 0.00 :before-memory 5.60 :after-memory 5.60)
Entering level 4
BRUNCH_STAT max_query_lvl 3
BRUNCH_STAT num_queries 10
BRUNCH_STAT num_reach_queries 0
BRUNCH_STAT num_reach_reuse 0
BRUNCH_STAT inductive_lvl 0
BRUNCH_STAT max_depth 4
BRUNCH_STAT cex_depth 0
expand: query!0 (4, 0) FAR  w(0) 1.
	create_child: MAIN (3, 4) FAR 1359 U 0.00
expand: MAIN (3, 0) FAR  w(0) 1359.
	create_child: MAIN (2, 4) FAR 2906 U 0.00
expand: MAIN (2, 0) FAR  w(0) 2906.
	create_child: MAIN (1, 4) FAR 2881 U 0.00
expand: MAIN (1, 0) FAR  w(0) 2881.
	create_child: MAIN (0, 4) FAR 3465 U 0.00
expand: MAIN (0, 0) FAR  w(0) 3465
This proof contains 0 Farkas lemmas. 0 Farkas lemmas participate in the lowest cut
. F 0.00
expand: MAIN (1, 0) FAR  w(0) 2881
This proof contains 2 Farkas lemmas. 0 Farkas lemmas participate in the lowest cut
. F 0.00
expand: MAIN (2, 0) FAR  w(0) 2906
This proof contains 1 Farkas lemmas. 0 Farkas lemmas participate in the lowest cut
. F 0.00
expand: MAIN (3, 0) FAR  w(0) 1359
This proof contains 0 Farkas lemmas. 0 Farkas lemmas participate in the lowest cut
. F 0.00
expand: query!0 (4, 0) FAR  w(0) 1
This proof contains 0 Farkas lemmas. 0 Farkas lemmas participate in the lowest cut
. F 0.00
(spacer::context::check_reachability :time 0.01 :before-memory 5.60 :after-memory 5.60)
Propagating: 0 1 2 3 4  ! 5 
(spacer::context::propagate :time 0.00 :before-memory 5.60 :after-memory 5.60)
Entering level 5
BRUNCH_STAT max_query_lvl 4
BRUNCH_STAT num_queries 14
BRUNCH_STAT num_reach_queries 0
BRUNCH_STAT num_reach_reuse 0
BRUNCH_STAT inductive_lvl 0
BRUNCH_STAT max_depth 5
BRUNCH_STAT cex_depth 0
expand: query!0 (5, 0) FAR  w(0) 1.
	create_child: MAIN (4, 5) FAR 1359 U 0.00
expand: MAIN (4, 0) FAR  w(0) 1359.
	create_child: MAIN (3, 5) FAR 3871 U 0.00
expand: MAIN (3, 0) FAR  w(0) 3871
This proof contains 0 Farkas lemmas. 0 Farkas lemmas participate in the lowest cut
. F 0.00
expand: MAIN (4, 0) FAR  w(0) 1359.
	create_child: MAIN (3, 5) FAR 2906 U 0.00
expand: MAIN (3, 0) FAR  w(0) 2906.
	create_child: MAIN (2, 5) FAR 2881 U 0.00
expand: MAIN (2, 0) FAR  w(0) 2881.
	create_child: MAIN (1, 5) FAR 3465 U 0.00
expand: MAIN (1, 0) FAR  w(0) 3465.
	create_child: MAIN (0, 5) FAR 3949 U 0.00
expand: MAIN (0, 0) FAR  w(0) 3949
This proof contains 0 Farkas lemmas. 0 Farkas lemmas participate in the lowest cut
. F 0.00
expand: MAIN (1, 0) FAR  w(0) 3465
This proof contains 1 Farkas lemmas. 0 Farkas lemmas participate in the lowest cut
. F 0.00
expand: MAIN (2, 0) FAR  w(0) 2881
This proof contains 1 Farkas lemmas. 0 Farkas lemmas participate in the lowest cut
. F 0.00
expand: MAIN (3, 0) FAR  w(0) 2906
This proof contains 0 Farkas lemmas. 0 Farkas lemmas participate in the lowest cut
. F 0.00
expand: MAIN (4, 0) FAR  w(0) 1359
This proof contains 0 Farkas lemmas. 0 Farkas lemmas participate in the lowest cut
. F 0.00
expand: query!0 (5, 0) FAR  w(0) 1
This proof contains 0 Farkas lemmas. 0 Farkas lemmas participate in the lowest cut
. F 0.00
(spacer::context::check_reachability :time 0.01 :before-memory 5.60 :after-memory 5.70)
Propagating: 0 1 2 3 4 5  ! 6 
(spacer::context::propagate :time 0.00 :before-memory 5.70 :after-memory 5.70)
Entering level 6
BRUNCH_STAT max_query_lvl 5
BRUNCH_STAT num_queries 20
BRUNCH_STAT num_reach_queries 0
BRUNCH_STAT num_reach_reuse 0
BRUNCH_STAT inductive_lvl 0
BRUNCH_STAT max_depth 6
BRUNCH_STAT cex_depth 0
expand: query!0 (6, 0) FAR  w(0) 1.
	create_child: MAIN (5, 6) FAR 1359 U 0.00
expand: MAIN (5, 0) FAR  w(0) 1359.
	create_child: MAIN (4, 6) FAR 2906 U 0.00
expand: MAIN (4, 0) FAR  w(0) 2906.
	create_child: MAIN (3, 6) FAR 2881 U 0.00
expand: MAIN (3, 0) FAR  w(0) 2881.
	create_child: MAIN (2, 6) FAR 3465 U 0.00
expand: MAIN (2, 0) FAR  w(0) 3465.
	create_child: MAIN (1, 6) FAR 3949 U 0.00
expand: MAIN (1, 0) FAR  w(0) 3949.
	create_child: MAIN (0, 6) FAR 4460 U 0.00
expand: MAIN (0, 0) FAR  w(0) 4460
This proof contains 0 Farkas lemmas. 0 Farkas lemmas participate in the lowest cut
. F 0.00
expand: MAIN (1, 0) FAR  w(0) 3949
This proof contains 1 Farkas lemmas. 0 Farkas lemmas participate in the lowest cut
. F 0.00
expand: MAIN (2, 0) FAR  w(0) 3465
This proof contains 0 Farkas lemmas. 0 Farkas lemmas participate in the lowest cut
. F 0.00
expand: MAIN (3, 0) FAR  w(0) 2881
This proof contains 1 Farkas lemmas. 0 Farkas lemmas participate in the lowest cut
. F 0.00
expand: MAIN (4, 0) FAR  w(0) 2906
This proof contains 0 Farkas lemmas. 0 Farkas lemmas participate in the lowest cut
. F 0.00
expand: MAIN (5, 0) FAR  w(0) 1359
This proof contains 0 Farkas lemmas. 0 Farkas lemmas participate in the lowest cut
. F 0.00
expand: query!0 (6, 0) FAR  w(0) 1
This proof contains 0 Farkas lemmas. 0 Farkas lemmas participate in the lowest cut
. F 0.00
(spacer::context::check_reachability :time 0.01 :before-memory 5.70 :after-memory 5.70)
Propagating: 0 1 2 3 4 5 6  ! 7 
(spacer::context::propagate :time 0.00 :before-memory 5.70 :after-memory 5.70)
Entering level 7
BRUNCH_STAT max_query_lvl 6
BRUNCH_STAT num_queries 26
BRUNCH_STAT num_reach_queries 0
BRUNCH_STAT num_reach_reuse 0
BRUNCH_STAT inductive_lvl 0
BRUNCH_STAT max_depth 7
BRUNCH_STAT cex_depth 0
expand: query!0 (7, 0) FAR  w(0) 1.
	create_child: MAIN (6, 7) FAR 1359 U 0.00
expand: MAIN (6, 0) FAR  w(0) 1359.
	create_child: MAIN (5, 7) FAR 2906 U 0.00
expand: MAIN (5, 0) FAR  w(0) 2906.
	create_child: MAIN (4, 7) FAR 2881 U 0.00
expand: MAIN (4, 0) FAR  w(0) 2881.
	create_child: MAIN (3, 7) FAR 3465 U 0.00
expand: MAIN (3, 0) FAR  w(0) 3465.
	create_child: MAIN (2, 7) FAR 3949 U 0.00
expand: MAIN (2, 0) FAR  w(0) 3949.
	create_child: MAIN (1, 7) FAR 4460 U 0.00
expand: MAIN (1, 0) FAR  w(0) 4460.
	create_child: MAIN (0, 7) FAR 4868 U 0.00
expand: MAIN (0, 0) FAR  w(0) 4868
This proof contains 0 Farkas lemmas. 0 Farkas lemmas participate in the lowest cut
. F 0.00
expand: MAIN (1, 0) FAR  w(0) 4460
This proof contains 1 Farkas lemmas. 0 Farkas lemmas participate in the lowest cut
. F 0.00
expand: MAIN (2, 0) FAR  w(0) 3949
This proof contains 0 Farkas lemmas. 0 Farkas lemmas participate in the lowest cut
. F 0.00
expand: MAIN (3, 0) FAR  w(0) 3465
This proof contains 0 Farkas lemmas. 0 Farkas lemmas participate in the lowest cut
. F 0.00
expand: MAIN (4, 0) FAR  w(0) 2881
This proof contains 1 Farkas lemmas. 0 Farkas lemmas participate in the lowest cut
. F 0.00
expand: MAIN (5, 0) FAR  w(0) 2906
This proof contains 0 Farkas lemmas. 0 Farkas lemmas participate in the lowest cut
. F 0.00
expand: MAIN (6, 0) FAR  w(0) 1359
This proof contains 0 Farkas lemmas. 0 Farkas lemmas participate in the lowest cut
. F 0.00
expand: query!0 (7, 0) FAR  w(0) 1
This proof contains 0 Farkas lemmas. 0 Farkas lemmas participate in the lowest cut
. F 0.00
(spacer::context::check_reachability :time 0.01 :before-memory 5.70 :after-memory 5.79)
Propagating: 0 1 2 3 4 5 6 7  ! 8 
(spacer::context::propagate :time 0.00 :before-memory 5.79 :after-memory 5.79)
Entering level 8
BRUNCH_STAT max_query_lvl 7
BRUNCH_STAT num_queries 33
BRUNCH_STAT num_reach_queries 0
BRUNCH_STAT num_reach_reuse 0
BRUNCH_STAT inductive_lvl 0
BRUNCH_STAT max_depth 8
BRUNCH_STAT cex_depth 0
expand: query!0 (8, 0) FAR  w(0) 1.
	create_child: MAIN (7, 8) FAR 1359 U 0.00
expand: MAIN (7, 0) FAR  w(0) 1359.
	create_child: MAIN (6, 8) FAR 2906 U 0.00
expand: MAIN (6, 0) FAR  w(0) 2906.
	create_child: MAIN (5, 8) FAR 2881 U 0.00
expand: MAIN (5, 0) FAR  w(0) 2881.
	create_child: MAIN (4, 8) FAR 3465 U 0.00
expand: MAIN (4, 0) FAR  w(0) 3465.
	create_child: MAIN (3, 8) FAR 3949 U 0.00
expand: MAIN (3, 0) FAR  w(0) 3949.
	create_child: MAIN (2, 8) FAR 4460 U 0.00
expand: MAIN (2, 0) FAR  w(0) 4460.
	create_child: MAIN (1, 8) FAR 4868 U 0.00
expand: MAIN (1, 0) FAR  w(0) 4868.
	create_child: MAIN (0, 8) FAR 5600 U 0.00
expand: MAIN (0, 0) FAR  w(0) 5600
This proof contains 0 Farkas lemmas. 0 Farkas lemmas participate in the lowest cut
. F 0.00
expand: MAIN (1, 0) FAR  w(0) 4868
This proof contains 1 Farkas lemmas. 0 Farkas lemmas participate in the lowest cut
. F 0.00
expand: MAIN (2, 0) FAR  w(0) 4460
This proof contains 0 Farkas lemmas. 0 Farkas lemmas participate in the lowest cut
. F 0.00
expand: MAIN (3, 0) FAR  w(0) 3949
This proof contains 0 Farkas lemmas. 0 Farkas lemmas participate in the lowest cut
. F 0.00
expand: MAIN (4, 0) FAR  w(0) 3465
This proof contains 0 Farkas lemmas. 0 Farkas lemmas participate in the lowest cut
. F 0.00
expand: MAIN (5, 0) FAR  w(0) 2881
This proof contains 1 Farkas lemmas. 0 Farkas lemmas participate in the lowest cut
. F 0.00
expand: MAIN (6, 0) FAR  w(0) 2906
This proof contains 0 Farkas lemmas. 0 Farkas lemmas participate in the lowest cut
. F 0.00
expand: MAIN (7, 0) FAR  w(0) 1359
This proof contains 0 Farkas lemmas. 0 Farkas lemmas participate in the lowest cut
. F 0.00
expand: query!0 (8, 0) FAR  w(0) 1
This proof contains 0 Farkas lemmas. 0 Farkas lemmas participate in the lowest cut
. F 0.00
(spacer::context::check_reachability :time 0.01 :before-memory 5.79 :after-memory 6.08)
Propagating: 0 1 2 3 4 5 6 7 8  ! 9 
(spacer::context::propagate :time 0.00 :before-memory 6.08 :after-memory 6.08)
Entering level 9
BRUNCH_STAT max_query_lvl 8
BRUNCH_STAT num_queries 41
BRUNCH_STAT num_reach_queries 0
BRUNCH_STAT num_reach_reuse 0
BRUNCH_STAT inductive_lvl 0
BRUNCH_STAT max_depth 9
BRUNCH_STAT cex_depth 0
expand: query!0 (9, 0) FAR  w(0) 1.
	create_child: MAIN (8, 9) FAR 1359 U 0.00
expand: MAIN (8, 0) FAR  w(0) 1359.
	create_child: MAIN (7, 9) FAR 6122 U 0.00
expand: MAIN (7, 0) FAR  w(0) 6122
This proof contains 2 Farkas lemmas. 0 Farkas lemmas participate in the lowest cut
. F 0.00
expand: MAIN (8, 0) FAR  w(0) 1359.
	create_child: MAIN (7, 9) FAR 2906 U 0.00
expand: MAIN (7, 0) FAR  w(0) 2906.
	create_child: MAIN (6, 9) FAR 2881 U 0.00
expand: MAIN (6, 0) FAR  w(0) 2881.
	create_child: MAIN (5, 9) FAR 3465 U 0.00
expand: MAIN (5, 0) FAR  w(0) 3465.
	create_child: MAIN (4, 9) FAR 3949 U 0.00
expand: MAIN (4, 0) FAR  w(0) 3949.
	create_child: MAIN (3, 9) FAR 4460 U 0.00
expand: MAIN (3, 0) FAR  w(0) 4460.
	create_child: MAIN (2, 9) FAR 4868 U 0.00
expand: MAIN (2, 0) FAR  w(0) 4868.
	create_child: MAIN (1, 9) FAR 5600 U 0.00
expand: MAIN (1, 0) FAR  w(0) 5600.
	create_child: MAIN (0, 9) FAR 6328 U 0.00
expand: MAIN (0, 0) FAR  w(0) 6328
This proof contains 0 Farkas lemmas. 0 Farkas lemmas participate in the lowest cut
. F 0.00
expand: MAIN (1, 0) FAR  w(0) 5600
This proof contains 1 Farkas lemmas. 0 Farkas lemmas participate in the lowest cut
. F 0.00
expand: MAIN (2, 0) FAR  w(0) 4868
This proof contains 0 Farkas lemmas. 0 Farkas lemmas participate in the lowest cut
. F 0.00
expand: MAIN (3, 0) FAR  w(0) 4460
This proof contains 0 Farkas lemmas. 0 Farkas lemmas participate in the lowest cut
. F 0.00
expand: MAIN (4, 0) FAR  w(0) 3949
This proof contains 0 Farkas lemmas. 0 Farkas lemmas participate in the lowest cut
. F 0.00
expand: MAIN (5, 0) FAR  w(0) 3465
This proof contains 0 Farkas lemmas. 0 Farkas lemmas participate in the lowest cut
. F 0.00
expand: MAIN (6, 0) FAR  w(0) 2881
This proof contains 1 Farkas lemmas. 0 Farkas lemmas participate in the lowest cut
. F 0.00
expand: MAIN (7, 0) FAR  w(0) 2906
This proof contains 0 Farkas lemmas. 0 Farkas lemmas participate in the lowest cut
. F 0.00
expand: MAIN (8, 0) FAR  w(0) 1359
This proof contains 0 Farkas lemmas. 0 Farkas lemmas participate in the lowest cut
. F 0.00
expand: query!0 (9, 0) FAR  w(0) 1
This proof contains 0 Farkas lemmas. 0 Farkas lemmas participate in the lowest cut
. F 0.00
(spacer::context::check_reachability :time 0.02 :before-memory 6.08 :after-memory 6.18)
Propagating: 0 1 2 3 4 5 6 7 8 9  ! 10 
(spacer::context::propagate :time 0.00 :before-memory 6.18 :after-memory 6.18)
Entering level 10
BRUNCH_STAT max_query_lvl 9
BRUNCH_STAT num_queries 51
BRUNCH_STAT num_reach_queries 0
BRUNCH_STAT num_reach_reuse 0
BRUNCH_STAT inductive_lvl 0
BRUNCH_STAT max_depth 10
BRUNCH_STAT cex_depth 0
expand: query!0 (10, 0) FAR  w(0) 1.
	create_child: MAIN (9, 10) FAR 1359 U 0.00
expand: MAIN (9, 0) FAR  w(0) 1359.
	create_child: MAIN (8, 10) FAR 2906 U 0.00
expand: MAIN (8, 0) FAR  w(0) 2906.
	create_child: MAIN (7, 10) FAR 7067 U 0.00
expand: MAIN (7, 0) FAR  w(0) 7067
This proof contains 0 Farkas lemmas. 0 Farkas lemmas participate in the lowest cut
. F 0.00
expand: MAIN (8, 0) FAR  w(0) 2906.
	create_child: MAIN (7, 10) FAR 2881 U 0.00
expand: MAIN (7, 0) FAR  w(0) 2881.
	create_child: MAIN (6, 10) FAR 3465 U 0.00
expand: MAIN (6, 0) FAR  w(0) 3465.
	create_child: MAIN (5, 10) FAR 3949 U 0.00
expand: MAIN (5, 0) FAR  w(0) 3949.
	create_child: MAIN (4, 10) FAR 4460 U 0.00
expand: MAIN (4, 0) FAR  w(0) 4460.
	create_child: MAIN (3, 10) FAR 4868 U 0.00
expand: MAIN (3, 0) FAR  w(0) 4868.
	create_child: MAIN (2, 10) FAR 5600 U 0.00
expand: MAIN (2, 0) FAR  w(0) 5600.
	create_child: MAIN (1, 10) FAR 6328 U 0.00
expand: MAIN (1, 0) FAR  w(0) 6328.
	create_child: MAIN (0, 10) FAR 7230 U 0.00
expand: MAIN (0, 0) FAR  w(0) 7230
This proof contains 0 Farkas lemmas. 0 Farkas lemmas participate in the lowest cut
. F 0.00
expand: MAIN (1, 0) FAR  w(0) 6328
This proof contains 1 Farkas lemmas. 0 Farkas lemmas participate in the lowest cut
. F 0.00
expand: MAIN (2, 0) FAR  w(0) 5600
This proof contains 0 Farkas lemmas. 0 Farkas lemmas participate in the lowest cut
. F 0.00
expand: MAIN (3, 0) FAR  w(0) 4868
This proof contains 0 Farkas lemmas. 0 Farkas lemmas participate in the lowest cut
. F 0.00
expand: MAIN (4, 0) FAR  w(0) 4460
This proof contains 0 Farkas lemmas. 0 Farkas lemmas participate in the lowest cut
. F 0.00
expand: MAIN (5, 0) FAR  w(0) 3949
This proof contains 0 Farkas lemmas. 0 Farkas lemmas participate in the lowest cut
. F 0.00
expand: MAIN (6, 0) FAR  w(0) 3465
This proof contains 0 Farkas lemmas. 0 Farkas lemmas participate in the lowest cut
. F 0.00
expand: MAIN (7, 0) FAR  w(0) 2881
This proof contains 1 Farkas lemmas. 0 Farkas lemmas participate in the lowest cut
. F 0.00
expand: MAIN (8, 0) FAR  w(0) 2906
This proof contains 0 Farkas lemmas. 0 Farkas lemmas participate in the lowest cut
. F 0.00
expand: MAIN (9, 0) FAR  w(0) 1359
This proof contains 0 Farkas lemmas. 0 Farkas lemmas participate in the lowest cut
. F 0.00
expand: query!0 (10, 0) FAR  w(0) 1
This proof contains 0 Farkas lemmas. 0 Farkas lemmas participate in the lowest cut
. F 0.00
(spacer::context::check_reachability :time 0.02 :before-memory 6.18 :after-memory 6.28)
Propagating: 0 1 2 3 4 5 6 7 8 9 10  ! 11 
(spacer::context::propagate :time 0.00 :before-memory 6.28 :after-memory 6.28)
Entering level 11
BRUNCH_STAT max_query_lvl 10
BRUNCH_STAT num_queries 62
BRUNCH_STAT num_reach_queries 0
BRUNCH_STAT num_reach_reuse 0
BRUNCH_STAT inductive_lvl 0
BRUNCH_STAT max_depth 11
BRUNCH_STAT cex_depth 0
expand: query!0 (11, 0) FAR  w(0) 1.
	create_child: MAIN (10, 11) FAR 1359 U 0.00
expand: MAIN (10, 0) FAR  w(0) 1359.
	create_child: MAIN (9, 11) FAR 2906 U 0.00
expand: MAIN (9, 0) FAR  w(0) 2906.
	create_child: MAIN (8, 11) FAR 2881 U 0.00
expand: MAIN (8, 0) FAR  w(0) 2881.
	create_child: MAIN (7, 11) FAR 3465 U 0.00
expand: MAIN (7, 0) FAR  w(0) 3465.
	create_child: MAIN (6, 11) FAR 3949 U 0.00
expand: MAIN (6, 0) FAR  w(0) 3949.
	create_child: MAIN (5, 11) FAR 4460 U 0.00
expand: MAIN (5, 0) FAR  w(0) 4460.
	create_child: MAIN (4, 11) FAR 4868 U 0.00
expand: MAIN (4, 0) FAR  w(0) 4868.
	create_child: MAIN (3, 11) FAR 5600 U 0.00
expand: MAIN (3, 0) FAR  w(0) 5600.
	create_child: MAIN (2, 11) FAR 6328 U 0.00
expand: MAIN (2, 0) FAR  w(0) 6328.
	create_child: MAIN (1, 11) FAR 7230 U 0.00
expand: MAIN (1, 0) FAR  w(0) 7230.
	create_child: MAIN (0, 11) FAR 7987 U 0.00
expand: MAIN (0, 0) FAR  w(0) 7987
This proof contains 0 Farkas lemmas. 0 Farkas lemmas participate in the lowest cut
. F 0.00
expand: MAIN (1, 0) FAR  w(0) 7230
This proof contains 0 Farkas lemmas. 0 Farkas lemmas participate in the lowest cut
. F 0.00
expand: MAIN (2, 0) FAR  w(0) 6328
This proof contains 0 Farkas lemmas. 0 Farkas lemmas participate in the lowest cut
. F 0.00
expand: MAIN (3, 0) FAR  w(0) 5600
This proof contains 0 Farkas lemmas. 0 Farkas lemmas participate in the lowest cut
. F 0.00
expand: MAIN (4, 0) FAR  w(0) 4868
This proof contains 0 Farkas lemmas. 0 Farkas lemmas participate in the lowest cut
. F 0.00
expand: MAIN (5, 0) FAR  w(0) 4460
This proof contains 0 Farkas lemmas. 0 Farkas lemmas participate in the lowest cut
. F 0.00
expand: MAIN (6, 0) FAR  w(0) 3949
This proof contains 0 Farkas lemmas. 0 Farkas lemmas participate in the lowest cut
. F 0.00
expand: MAIN (7, 0) FAR  w(0) 3465
This proof contains 0 Farkas lemmas. 0 Farkas lemmas participate in the lowest cut
. F 0.00
expand: MAIN (8, 0) FAR  w(0) 2881
This proof contains 1 Farkas lemmas. 0 Farkas lemmas participate in the lowest cut
. F 0.00
expand: MAIN (9, 0) FAR  w(0) 2906
This proof contains 0 Farkas lemmas. 0 Farkas lemmas participate in the lowest cut
. F 0.00
expand: MAIN (10, 0) FAR  w(0) 1359
This proof contains 0 Farkas lemmas. 0 Farkas lemmas participate in the lowest cut
. F 0.00
expand: query!0 (11, 0) FAR  w(0) 1
This proof contains 0 Farkas lemmas. 0 Farkas lemmas participate in the lowest cut
. F 0.00
(spacer::context::check_reachability :time 0.02 :before-memory 6.28 :after-memory 6.28)
Propagating: 0 1 2 3 4 5 6 7 8 9 10 11  ! 12 
(spacer::context::propagate :time 0.01 :before-memory 6.28 :after-memory 6.28)
Entering level 12
BRUNCH_STAT max_query_lvl 11
BRUNCH_STAT num_queries 73
BRUNCH_STAT num_reach_queries 0
BRUNCH_STAT num_reach_reuse 0
BRUNCH_STAT inductive_lvl 0
BRUNCH_STAT max_depth 12
BRUNCH_STAT cex_depth 0
expand: query!0 (12, 0) FAR  w(0) 1.
	create_child: MAIN (11, 12) FAR 1359 U 0.00
expand: MAIN (11, 0) FAR  w(0) 1359.
	create_child: MAIN (10, 12) FAR 2906 U 0.00
expand: MAIN (10, 0) FAR  w(0) 2906.
	create_child: MAIN (9, 12) FAR 2881 U 0.00
expand: MAIN (9, 0) FAR  w(0) 2881.
	create_child: MAIN (8, 12) FAR 3465 U 0.00
expand: MAIN (8, 0) FAR  w(0) 3465.
	create_child: MAIN (7, 12) FAR 3949 U 0.00
expand: MAIN (7, 0) FAR  w(0) 3949.
	create_child: MAIN (6, 12) FAR 4460 U 0.00
expand: MAIN (6, 0) FAR  w(0) 4460.
	create_child: MAIN (5, 12) FAR 4868 U 0.00
expand: MAIN (5, 0) FAR  w(0) 4868.
	create_child: MAIN (4, 12) FAR 5600 U 0.00
expand: MAIN (4, 0) FAR  w(0) 5600.
	create_child: MAIN (3, 12) FAR 6328 U 0.00
expand: MAIN (3, 0) FAR  w(0) 6328.
	create_child: MAIN (2, 12) FAR 7230 U 0.00
expand: MAIN (2, 0) FAR  w(0) 7230.
	create_child: MAIN (1, 12) FAR 7987 U 0.00
expand: MAIN (1, 0) FAR  w(0) 7987. T 0.00
is-reachable: MAIN (2, 0) FAR 7230 T 0.00
is-reachable: MAIN (3, 0) FAR 6328 T 0.00
is-reachable: MAIN (4, 0) FAR 5600 T 0.00
is-reachable: MAIN (5, 0) FAR 4868 T 0.00
is-reachable: MAIN (6, 0) FAR 4460 T 0.00
is-reachable: MAIN (7, 0) FAR 3949 T 0.00
is-reachable: MAIN (8, 0) FAR 3465 T 0.00
is-reachable: MAIN (9, 0) FAR 2881 T 0.00
is-reachable: MAIN (10, 0) FAR 2906 T 0.00
is-reachable: MAIN (11, 0) FAR 1359 T 0.00
is-reachable: query!0 (12, 0) FAR 1 T 0.00
(spacer::context::check_reachability :time 0.04 :before-memory 6.28 :after-memory 7.68)
BRUNCH_STAT max_query_lvl 12
BRUNCH_STAT num_queries 84
BRUNCH_STAT num_reach_queries 12
BRUNCH_STAT num_reach_reuse 1
BRUNCH_STAT inductive_lvl 0
BRUNCH_STAT max_depth 12
BRUNCH_STAT cex_depth 12
(:SPACER-cex-depth                     12
 :SPACER-max-depth                     12
 :SPACER-max-query-lvl                 12
 :SPACER-num-invariants                5
 :SPACER-num-lemmas                    85
 :SPACER-num-properties                19
 :SPACER-num-queries                   84
 :SPACER-num-reach-queries             12
 :SPACER-num-reuse-reach-facts         1
 :added-eqs                            2179
 :arith-assert-diseq                   2546
 :arith-assert-lower                   4142
 :arith-assert-upper                   5463
 :arith-bound-prop                     102
 :arith-conflicts                      15
 :arith-eq-adapter                     787
 :arith-fixed-eqs                      385
 :arith-offset-eqs                     3
 :arith-pivots                         55
 :bool-inductive-gen                   73
 :bool-inductive-gen-failures          37
 :conflicts                            278
 :decisions                            8642
 :del-clause                           78
 :final-checks                         232
 :minimized-lits                       3
 :mk-bool-var                          2311
 :mk-clause                            3027
 :num-checks                           469
 :propagations                         59549
 :time.itp_solver.itp_core             0.02
 :time.spacer.init_rules               0.00
 :time.spacer.init_rules.pt.init       0.00
 :time.spacer.solve                    0.19
 :time.spacer.solve.propagate          0.03
 :time.spacer.solve.reach              0.16
 :time.spacer.solve.reach.children     0.03
 :time.spacer.solve.reach.gen.bool_ind 0.02
 :time.spacer.solve.reach.is-reach     0.03
 :time.virtual_solver.proof            0.01
 :time.virtual_solver.smt.total        0.11
 :time.virtual_solver.smt.total.sat    0.07
 :virtual_solver.checks                469
 :virtual_solver.checks.sat            232)
BRUNCH_STAT max_query_lvl 12
BRUNCH_STAT num_queries 84
BRUNCH_STAT num_reach_queries 12
BRUNCH_STAT num_reach_reuse 1
BRUNCH_STAT inductive_lvl 0
BRUNCH_STAT max_depth 12
BRUNCH_STAT cex_depth 12

real	0m0.225s
user	0m0.216s
sys	0m0.008s
