(transform N7datalog13mk_coi_filterE...no-op 0s)
(transform N7datalog25mk_interp_tail_simplifierE...12 rules 0s)
(transform N7datalog27mk_quantifier_instantiationE...no-op 0s)
(transform N7datalog8mk_scaleE...no-op 0s)
(transform N7datalog18mk_karr_invariantsE...no-op 0s)
(transform N7datalog14mk_array_blastE...no-op 0s)
(transform N7datalog22mk_subsumption_checkerE...11 rules 0s)
(transform N7datalog12mk_bit_blastE...no-op 0s)
(transform N7datalog15mk_rule_inlinerE...3 rules 0.00153712s)
(transform N7datalog13mk_coi_filterE...no-op 0s)
(transform N7datalog25mk_interp_tail_simplifierE...3 rules 0s)
(transform N7datalog22mk_subsumption_checkerE...no-op 0s)
(transform N7datalog15mk_rule_inlinerE...no-op 0s)
(transform N7datalog13mk_coi_filterE...no-op 0s)
(transform N7datalog25mk_interp_tail_simplifierE...3 rules 0s)
(transform N7datalog22mk_subsumption_checkerE...no-op 0s)
(transform N7datalog15mk_rule_inlinerE...no-op 0s)
(transform N7datalog22mk_subsumption_checkerE...no-op 0s)
(transform N7datalog15mk_rule_inlinerE...no-op 0s)
(transform N7datalog22mk_subsumption_checkerE...no-op 0s)
(transform N7datalog15mk_rule_inlinerE...no-op 0s)
(transform N7datalog22mk_subsumption_checkerE...no-op 0s)
(transform N7datalog8mk_sliceE...no-op 0s)
expand: query!0 (0, 0) FAR  w(0) 1
This proof contains 0 Farkas lemmas. 0 Farkas lemmas participate in the lowest cut
. F 0.00
(spacer::context::check_reachability :time 0.00 :before-memory 4.19 :after-memory 4.79)
Entering level 1
BRUNCH_STAT max_query_lvl 0
BRUNCH_STAT num_queries 0
BRUNCH_STAT num_reach_queries 0
BRUNCH_STAT num_reach_reuse 0
BRUNCH_STAT inductive_lvl 0
BRUNCH_STAT max_depth 1
BRUNCH_STAT cex_depth 0
expand: query!0 (1, 0) FAR  w(0) 1.
	create_child: MAIN (0, 1) FAR 1260 U 0.00
expand: MAIN (0, 0) FAR  w(0) 1260
This proof contains 0 Farkas lemmas. 0 Farkas lemmas participate in the lowest cut
. F 0.00
expand: query!0 (1, 0) FAR  w(0) 1
This proof contains 0 Farkas lemmas. 0 Farkas lemmas participate in the lowest cut
. F 0.00
(spacer::context::check_reachability :time 0.00 :before-memory 4.79 :after-memory 5.32)
Propagating: 0 1  ! 2 
(spacer::context::propagate :time 0.00 :before-memory 5.32 :after-memory 5.32)
Entering level 2
BRUNCH_STAT max_query_lvl 1
BRUNCH_STAT num_queries 1
BRUNCH_STAT num_reach_queries 0
BRUNCH_STAT num_reach_reuse 0
BRUNCH_STAT inductive_lvl 0
BRUNCH_STAT max_depth 2
BRUNCH_STAT cex_depth 0
expand: query!0 (2, 0) FAR  w(0) 1.
	create_child: MAIN (1, 2) FAR 1260 U 0.00
expand: MAIN (1, 0) FAR  w(0) 1260.
	create_child: MAIN (0, 2) FAR 2163 U 0.00
expand: MAIN (0, 0) FAR  w(0) 2163
This proof contains 0 Farkas lemmas. 0 Farkas lemmas participate in the lowest cut
. F 0.00
expand: MAIN (1, 0) FAR  w(0) 1260.
	create_child: MAIN (0, 2) FAR 2223 U 0.00
expand: MAIN (0, 0) FAR  w(0) 2223
This proof contains 0 Farkas lemmas. 0 Farkas lemmas participate in the lowest cut
. F 0.00
expand: MAIN (1, 0) FAR  w(0) 1260
This proof contains 1 Farkas lemmas. 0 Farkas lemmas participate in the lowest cut
. F 0.00
expand: query!0 (2, 0) FAR  w(0) 1
This proof contains 0 Farkas lemmas. 0 Farkas lemmas participate in the lowest cut
. F 0.00
(spacer::context::check_reachability :time 0.00 :before-memory 5.32 :after-memory 5.41)
Propagating: 0 1 2  ! 3 
(spacer::context::propagate :time 0.00 :before-memory 5.41 :after-memory 5.41)
Entering level 3
BRUNCH_STAT max_query_lvl 2
BRUNCH_STAT num_queries 4
BRUNCH_STAT num_reach_queries 0
BRUNCH_STAT num_reach_reuse 0
BRUNCH_STAT inductive_lvl 0
BRUNCH_STAT max_depth 3
BRUNCH_STAT cex_depth 0
expand: query!0 (3, 0) FAR  w(0) 1.
	create_child: MAIN (2, 3) FAR 1260 U 0.00
expand: MAIN (2, 0) FAR  w(0) 1260.
	create_child: MAIN (1, 3) FAR 2223 U 0.00
expand: MAIN (1, 0) FAR  w(0) 2223.
	create_child: MAIN (0, 3) FAR 2599 U 0.00
expand: MAIN (0, 0) FAR  w(0) 2599
This proof contains 0 Farkas lemmas. 0 Farkas lemmas participate in the lowest cut
. F 0.00
expand: MAIN (1, 0) FAR  w(0) 2223
This proof contains 1 Farkas lemmas. 0 Farkas lemmas participate in the lowest cut
. F 0.00
expand: MAIN (2, 0) FAR  w(0) 1260
This proof contains 0 Farkas lemmas. 0 Farkas lemmas participate in the lowest cut
. F 0.00
expand: query!0 (3, 0) FAR  w(0) 1
This proof contains 0 Farkas lemmas. 0 Farkas lemmas participate in the lowest cut
. F 0.00
(spacer::context::check_reachability :time 0.00 :before-memory 5.41 :after-memory 5.60)
Propagating: 0 1 2 3  ! 4 
(spacer::context::propagate :time 0.00 :before-memory 5.60 :after-memory 5.60)
Entering level 4
BRUNCH_STAT max_query_lvl 3
BRUNCH_STAT num_queries 7
BRUNCH_STAT num_reach_queries 0
BRUNCH_STAT num_reach_reuse 0
BRUNCH_STAT inductive_lvl 0
BRUNCH_STAT max_depth 4
BRUNCH_STAT cex_depth 0
expand: query!0 (4, 0) FAR  w(0) 1.
	create_child: MAIN (3, 4) FAR 1260 U 0.00
expand: MAIN (3, 0) FAR  w(0) 1260.
	create_child: MAIN (2, 4) FAR 2223 U 0.00
expand: MAIN (2, 0) FAR  w(0) 2223.
	create_child: MAIN (1, 4) FAR 2599 U 0.00
expand: MAIN (1, 0) FAR  w(0) 2599.
	create_child: MAIN (0, 4) FAR 2947 U 0.00
expand: MAIN (0, 0) FAR  w(0) 2947
This proof contains 0 Farkas lemmas. 0 Farkas lemmas participate in the lowest cut
. F 0.00
expand: MAIN (1, 0) FAR  w(0) 2599
This proof contains 0 Farkas lemmas. 0 Farkas lemmas participate in the lowest cut
. F 0.00
expand: MAIN (2, 0) FAR  w(0) 2223
This proof contains 1 Farkas lemmas. 0 Farkas lemmas participate in the lowest cut
. F 0.00
expand: MAIN (3, 0) FAR  w(0) 1260
This proof contains 0 Farkas lemmas. 0 Farkas lemmas participate in the lowest cut
. F 0.00
expand: query!0 (4, 0) FAR  w(0) 1
This proof contains 0 Farkas lemmas. 0 Farkas lemmas participate in the lowest cut
. F 0.00
(spacer::context::check_reachability :time 0.01 :before-memory 5.60 :after-memory 5.60)
Propagating: 0 1 2 3 4  ! 5 
(spacer::context::propagate :time 0.00 :before-memory 5.60 :after-memory 5.60)
Entering level 5
BRUNCH_STAT max_query_lvl 4
BRUNCH_STAT num_queries 11
BRUNCH_STAT num_reach_queries 0
BRUNCH_STAT num_reach_reuse 0
BRUNCH_STAT inductive_lvl 0
BRUNCH_STAT max_depth 5
BRUNCH_STAT cex_depth 0
expand: query!0 (5, 0) FAR  w(0) 1.
	create_child: MAIN (4, 5) FAR 1260 U 0.00
expand: MAIN (4, 0) FAR  w(0) 1260.
	create_child: MAIN (3, 5) FAR 2223 U 0.00
expand: MAIN (3, 0) FAR  w(0) 2223.
	create_child: MAIN (2, 5) FAR 2599 U 0.00
expand: MAIN (2, 0) FAR  w(0) 2599.
	create_child: MAIN (1, 5) FAR 2947 U 0.00
expand: MAIN (1, 0) FAR  w(0) 2947.
	create_child: MAIN (0, 5) FAR 3304 U 0.00
expand: MAIN (0, 0) FAR  w(0) 3304
This proof contains 0 Farkas lemmas. 0 Farkas lemmas participate in the lowest cut
. F 0.00
expand: MAIN (1, 0) FAR  w(0) 2947
This proof contains 0 Farkas lemmas. 0 Farkas lemmas participate in the lowest cut
. F 0.00
expand: MAIN (2, 0) FAR  w(0) 2599
This proof contains 0 Farkas lemmas. 0 Farkas lemmas participate in the lowest cut
. F 0.00
expand: MAIN (3, 0) FAR  w(0) 2223
This proof contains 1 Farkas lemmas. 0 Farkas lemmas participate in the lowest cut
. F 0.00
expand: MAIN (4, 0) FAR  w(0) 1260
This proof contains 0 Farkas lemmas. 0 Farkas lemmas participate in the lowest cut
. F 0.00
expand: query!0 (5, 0) FAR  w(0) 1
This proof contains 0 Farkas lemmas. 0 Farkas lemmas participate in the lowest cut
. F 0.00
(spacer::context::check_reachability :time 0.01 :before-memory 5.60 :after-memory 5.60)
Propagating: 0 1 2 3 4 5  ! 6 
(spacer::context::propagate :time 0.00 :before-memory 5.60 :after-memory 5.60)
Entering level 6
BRUNCH_STAT max_query_lvl 5
BRUNCH_STAT num_queries 16
BRUNCH_STAT num_reach_queries 0
BRUNCH_STAT num_reach_reuse 0
BRUNCH_STAT inductive_lvl 0
BRUNCH_STAT max_depth 6
BRUNCH_STAT cex_depth 0
expand: query!0 (6, 0) FAR  w(0) 1.
	create_child: MAIN (5, 6) FAR 1260 U 0.00
expand: MAIN (5, 0) FAR  w(0) 1260.
	create_child: MAIN (4, 6) FAR 2223 U 0.00
expand: MAIN (4, 0) FAR  w(0) 2223.
	create_child: MAIN (3, 6) FAR 2599 U 0.00
expand: MAIN (3, 0) FAR  w(0) 2599.
	create_child: MAIN (2, 6) FAR 2947 U 0.00
expand: MAIN (2, 0) FAR  w(0) 2947.
	create_child: MAIN (1, 6) FAR 3304 U 0.00
expand: MAIN (1, 0) FAR  w(0) 3304.
	create_child: MAIN (0, 6) FAR 3805 U 0.00
expand: MAIN (0, 0) FAR  w(0) 3805
This proof contains 0 Farkas lemmas. 0 Farkas lemmas participate in the lowest cut
. F 0.00
expand: MAIN (1, 0) FAR  w(0) 3304
This proof contains 0 Farkas lemmas. 0 Farkas lemmas participate in the lowest cut
. F 0.00
expand: MAIN (2, 0) FAR  w(0) 2947
This proof contains 0 Farkas lemmas. 0 Farkas lemmas participate in the lowest cut
. F 0.00
expand: MAIN (3, 0) FAR  w(0) 2599
This proof contains 0 Farkas lemmas. 0 Farkas lemmas participate in the lowest cut
. F 0.00
expand: MAIN (4, 0) FAR  w(0) 2223
This proof contains 1 Farkas lemmas. 0 Farkas lemmas participate in the lowest cut
. F 0.00
expand: MAIN (5, 0) FAR  w(0) 1260
This proof contains 0 Farkas lemmas. 0 Farkas lemmas participate in the lowest cut
. F 0.00
expand: query!0 (6, 0) FAR  w(0) 1
This proof contains 0 Farkas lemmas. 0 Farkas lemmas participate in the lowest cut
. F 0.00
(spacer::context::check_reachability :time 0.01 :before-memory 5.60 :after-memory 5.70)
Propagating: 0 1 2 3 4 5 6  ! 7 
(spacer::context::propagate :time 0.00 :before-memory 5.70 :after-memory 5.70)
Entering level 7
BRUNCH_STAT max_query_lvl 6
BRUNCH_STAT num_queries 22
BRUNCH_STAT num_reach_queries 0
BRUNCH_STAT num_reach_reuse 0
BRUNCH_STAT inductive_lvl 0
BRUNCH_STAT max_depth 7
BRUNCH_STAT cex_depth 0
expand: query!0 (7, 0) FAR  w(0) 1.
	create_child: MAIN (6, 7) FAR 1260 U 0.00
expand: MAIN (6, 0) FAR  w(0) 1260.
	create_child: MAIN (5, 7) FAR 2223 U 0.00
expand: MAIN (5, 0) FAR  w(0) 2223.
	create_child: MAIN (4, 7) FAR 2599 U 0.00
expand: MAIN (4, 0) FAR  w(0) 2599.
	create_child: MAIN (3, 7) FAR 2947 U 0.00
expand: MAIN (3, 0) FAR  w(0) 2947.
	create_child: MAIN (2, 7) FAR 3304 U 0.00
expand: MAIN (2, 0) FAR  w(0) 3304.
	create_child: MAIN (1, 7) FAR 3805 U 0.00
expand: MAIN (1, 0) FAR  w(0) 3805.
	create_child: MAIN (0, 7) FAR 4239 U 0.00
expand: MAIN (0, 0) FAR  w(0) 4239
This proof contains 0 Farkas lemmas. 0 Farkas lemmas participate in the lowest cut
. F 0.00
expand: MAIN (1, 0) FAR  w(0) 3805
This proof contains 0 Farkas lemmas. 0 Farkas lemmas participate in the lowest cut
. F 0.00
expand: MAIN (2, 0) FAR  w(0) 3304
This proof contains 0 Farkas lemmas. 0 Farkas lemmas participate in the lowest cut
. F 0.00
expand: MAIN (3, 0) FAR  w(0) 2947
This proof contains 0 Farkas lemmas. 0 Farkas lemmas participate in the lowest cut
. F 0.00
expand: MAIN (4, 0) FAR  w(0) 2599
This proof contains 0 Farkas lemmas. 0 Farkas lemmas participate in the lowest cut
. F 0.00
expand: MAIN (5, 0) FAR  w(0) 2223
This proof contains 1 Farkas lemmas. 0 Farkas lemmas participate in the lowest cut
. F 0.00
expand: MAIN (6, 0) FAR  w(0) 1260
This proof contains 0 Farkas lemmas. 0 Farkas lemmas participate in the lowest cut
. F 0.00
expand: query!0 (7, 0) FAR  w(0) 1
This proof contains 0 Farkas lemmas. 0 Farkas lemmas participate in the lowest cut
. F 0.00
(spacer::context::check_reachability :time 0.01 :before-memory 5.70 :after-memory 5.80)
Propagating: 0 1 2 3 4 5 6 7  ! 8 
(spacer::context::propagate :time 0.00 :before-memory 5.80 :after-memory 5.80)
Entering level 8
BRUNCH_STAT max_query_lvl 7
BRUNCH_STAT num_queries 29
BRUNCH_STAT num_reach_queries 0
BRUNCH_STAT num_reach_reuse 0
BRUNCH_STAT inductive_lvl 0
BRUNCH_STAT max_depth 8
BRUNCH_STAT cex_depth 0
expand: query!0 (8, 0) FAR  w(0) 1.
	create_child: MAIN (7, 8) FAR 1260 U 0.00
expand: MAIN (7, 0) FAR  w(0) 1260.
	create_child: MAIN (6, 8) FAR 2223 U 0.00
expand: MAIN (6, 0) FAR  w(0) 2223.
	create_child: MAIN (5, 8) FAR 2599 U 0.00
expand: MAIN (5, 0) FAR  w(0) 2599.
	create_child: MAIN (4, 8) FAR 2947 U 0.00
expand: MAIN (4, 0) FAR  w(0) 2947.
	create_child: MAIN (3, 8) FAR 3304 U 0.00
expand: MAIN (3, 0) FAR  w(0) 3304.
	create_child: MAIN (2, 8) FAR 3805 U 0.00
expand: MAIN (2, 0) FAR  w(0) 3805.
	create_child: MAIN (1, 8) FAR 4239 U 0.00
expand: MAIN (1, 0) FAR  w(0) 4239.
	create_child: MAIN (0, 8) FAR 4826 U 0.00
expand: MAIN (0, 0) FAR  w(0) 4826
This proof contains 0 Farkas lemmas. 0 Farkas lemmas participate in the lowest cut
. F 0.00
expand: MAIN (1, 0) FAR  w(0) 4239
This proof contains 0 Farkas lemmas. 0 Farkas lemmas participate in the lowest cut
. F 0.00
expand: MAIN (2, 0) FAR  w(0) 3805
This proof contains 0 Farkas lemmas. 0 Farkas lemmas participate in the lowest cut
. F 0.00
expand: MAIN (3, 0) FAR  w(0) 3304
This proof contains 0 Farkas lemmas. 0 Farkas lemmas participate in the lowest cut
. F 0.00
expand: MAIN (4, 0) FAR  w(0) 2947
This proof contains 0 Farkas lemmas. 0 Farkas lemmas participate in the lowest cut
. F 0.00
expand: MAIN (5, 0) FAR  w(0) 2599
This proof contains 0 Farkas lemmas. 0 Farkas lemmas participate in the lowest cut
. F 0.00
expand: MAIN (6, 0) FAR  w(0) 2223
This proof contains 1 Farkas lemmas. 0 Farkas lemmas participate in the lowest cut
. F 0.00
expand: MAIN (7, 0) FAR  w(0) 1260
This proof contains 0 Farkas lemmas. 0 Farkas lemmas participate in the lowest cut
. F 0.00
expand: query!0 (8, 0) FAR  w(0) 1
This proof contains 0 Farkas lemmas. 0 Farkas lemmas participate in the lowest cut
. F 0.00
(spacer::context::check_reachability :time 0.01 :before-memory 5.80 :after-memory 5.80)
Propagating: 0 1 2 3 4 5 6 7 8  ! 9 
(spacer::context::propagate :time 0.00 :before-memory 5.80 :after-memory 5.80)
Entering level 9
BRUNCH_STAT max_query_lvl 8
BRUNCH_STAT num_queries 37
BRUNCH_STAT num_reach_queries 0
BRUNCH_STAT num_reach_reuse 0
BRUNCH_STAT inductive_lvl 0
BRUNCH_STAT max_depth 9
BRUNCH_STAT cex_depth 0
expand: query!0 (9, 0) FAR  w(0) 1.
	create_child: MAIN (8, 9) FAR 1260 U 0.00
expand: MAIN (8, 0) FAR  w(0) 1260.
	create_child: MAIN (7, 9) FAR 2223 U 0.00
expand: MAIN (7, 0) FAR  w(0) 2223.
	create_child: MAIN (6, 9) FAR 2599 U 0.00
expand: MAIN (6, 0) FAR  w(0) 2599.
	create_child: MAIN (5, 9) FAR 2947 U 0.00
expand: MAIN (5, 0) FAR  w(0) 2947.
	create_child: MAIN (4, 9) FAR 3304 U 0.00
expand: MAIN (4, 0) FAR  w(0) 3304.
	create_child: MAIN (3, 9) FAR 3805 U 0.00
expand: MAIN (3, 0) FAR  w(0) 3805.
	create_child: MAIN (2, 9) FAR 4239 U 0.00
expand: MAIN (2, 0) FAR  w(0) 4239.
	create_child: MAIN (1, 9) FAR 4826 U 0.00
expand: MAIN (1, 0) FAR  w(0) 4826.
	create_child: MAIN (0, 9) FAR 5389 U 0.00
expand: MAIN (0, 0) FAR  w(0) 5389
This proof contains 0 Farkas lemmas. 0 Farkas lemmas participate in the lowest cut
. F 0.00
expand: MAIN (1, 0) FAR  w(0) 4826
This proof contains 0 Farkas lemmas. 0 Farkas lemmas participate in the lowest cut
. F 0.00
expand: MAIN (2, 0) FAR  w(0) 4239
This proof contains 0 Farkas lemmas. 0 Farkas lemmas participate in the lowest cut
. F 0.00
expand: MAIN (3, 0) FAR  w(0) 3805
This proof contains 0 Farkas lemmas. 0 Farkas lemmas participate in the lowest cut
. F 0.00
expand: MAIN (4, 0) FAR  w(0) 3304
This proof contains 0 Farkas lemmas. 0 Farkas lemmas participate in the lowest cut
. F 0.00
expand: MAIN (5, 0) FAR  w(0) 2947
This proof contains 0 Farkas lemmas. 0 Farkas lemmas participate in the lowest cut
. F 0.00
expand: MAIN (6, 0) FAR  w(0) 2599
This proof contains 0 Farkas lemmas. 0 Farkas lemmas participate in the lowest cut
. F 0.00
expand: MAIN (7, 0) FAR  w(0) 2223
This proof contains 1 Farkas lemmas. 0 Farkas lemmas participate in the lowest cut
. F 0.00
expand: MAIN (8, 0) FAR  w(0) 1260
This proof contains 0 Farkas lemmas. 0 Farkas lemmas participate in the lowest cut
. F 0.00
expand: query!0 (9, 0) FAR  w(0) 1
This proof contains 0 Farkas lemmas. 0 Farkas lemmas participate in the lowest cut
. F 0.00
(spacer::context::check_reachability :time 0.02 :before-memory 5.80 :after-memory 6.07)
Propagating: 0 1 2 3 4 5 6 7 8 9  ! 10 
(spacer::context::propagate :time 0.00 :before-memory 6.07 :after-memory 6.07)
Entering level 10
BRUNCH_STAT max_query_lvl 9
BRUNCH_STAT num_queries 46
BRUNCH_STAT num_reach_queries 0
BRUNCH_STAT num_reach_reuse 0
BRUNCH_STAT inductive_lvl 0
BRUNCH_STAT max_depth 10
BRUNCH_STAT cex_depth 0
expand: query!0 (10, 0) FAR  w(0) 1.
	create_child: MAIN (9, 10) FAR 1260 U 0.00
expand: MAIN (9, 0) FAR  w(0) 1260.
	create_child: MAIN (8, 10) FAR 2223 U 0.00
expand: MAIN (8, 0) FAR  w(0) 2223.
	create_child: MAIN (7, 10) FAR 2599 U 0.00
expand: MAIN (7, 0) FAR  w(0) 2599.
	create_child: MAIN (6, 10) FAR 2947 U 0.00
expand: MAIN (6, 0) FAR  w(0) 2947.
	create_child: MAIN (5, 10) FAR 3304 U 0.00
expand: MAIN (5, 0) FAR  w(0) 3304.
	create_child: MAIN (4, 10) FAR 3805 U 0.00
expand: MAIN (4, 0) FAR  w(0) 3805.
	create_child: MAIN (3, 10) FAR 4239 U 0.00
expand: MAIN (3, 0) FAR  w(0) 4239.
	create_child: MAIN (2, 10) FAR 4826 U 0.00
expand: MAIN (2, 0) FAR  w(0) 4826.
	create_child: MAIN (1, 10) FAR 5389 U 0.00
expand: MAIN (1, 0) FAR  w(0) 5389.
	create_child: MAIN (0, 10) FAR 6117 U 0.00
expand: MAIN (0, 0) FAR  w(0) 6117
This proof contains 0 Farkas lemmas. 0 Farkas lemmas participate in the lowest cut
. F 0.00
expand: MAIN (1, 0) FAR  w(0) 5389
This proof contains 0 Farkas lemmas. 0 Farkas lemmas participate in the lowest cut
. F 0.00
expand: MAIN (2, 0) FAR  w(0) 4826
This proof contains 0 Farkas lemmas. 0 Farkas lemmas participate in the lowest cut
. F 0.00
expand: MAIN (3, 0) FAR  w(0) 4239
This proof contains 0 Farkas lemmas. 0 Farkas lemmas participate in the lowest cut
. F 0.00
expand: MAIN (4, 0) FAR  w(0) 3805
This proof contains 0 Farkas lemmas. 0 Farkas lemmas participate in the lowest cut
. F 0.00
expand: MAIN (5, 0) FAR  w(0) 3304
This proof contains 0 Farkas lemmas. 0 Farkas lemmas participate in the lowest cut
. F 0.00
expand: MAIN (6, 0) FAR  w(0) 2947
This proof contains 0 Farkas lemmas. 0 Farkas lemmas participate in the lowest cut
. F 0.00
expand: MAIN (7, 0) FAR  w(0) 2599
This proof contains 0 Farkas lemmas. 0 Farkas lemmas participate in the lowest cut
. F 0.00
expand: MAIN (8, 0) FAR  w(0) 2223
This proof contains 1 Farkas lemmas. 0 Farkas lemmas participate in the lowest cut
. F 0.00
expand: MAIN (9, 0) FAR  w(0) 1260
This proof contains 0 Farkas lemmas. 0 Farkas lemmas participate in the lowest cut
. F 0.00
expand: query!0 (10, 0) FAR  w(0) 1
This proof contains 0 Farkas lemmas. 0 Farkas lemmas participate in the lowest cut
. F 0.00
(spacer::context::check_reachability :time 0.02 :before-memory 6.07 :after-memory 6.17)
Propagating: 0 1 2 3 4 5 6 7 8 9 10  ! 11 
(spacer::context::propagate :time 0.00 :before-memory 6.17 :after-memory 6.17)
Entering level 11
BRUNCH_STAT max_query_lvl 10
BRUNCH_STAT num_queries 56
BRUNCH_STAT num_reach_queries 0
BRUNCH_STAT num_reach_reuse 0
BRUNCH_STAT inductive_lvl 0
BRUNCH_STAT max_depth 11
BRUNCH_STAT cex_depth 0
expand: query!0 (11, 0) FAR  w(0) 1.
	create_child: MAIN (10, 11) FAR 1260 U 0.00
expand: MAIN (10, 0) FAR  w(0) 1260.
	create_child: MAIN (9, 11) FAR 2223 U 0.00
expand: MAIN (9, 0) FAR  w(0) 2223.
	create_child: MAIN (8, 11) FAR 2599 U 0.00
expand: MAIN (8, 0) FAR  w(0) 2599.
	create_child: MAIN (7, 11) FAR 2947 U 0.00
expand: MAIN (7, 0) FAR  w(0) 2947.
	create_child: MAIN (6, 11) FAR 3304 U 0.00
expand: MAIN (6, 0) FAR  w(0) 3304.
	create_child: MAIN (5, 11) FAR 3805 U 0.00
expand: MAIN (5, 0) FAR  w(0) 3805.
	create_child: MAIN (4, 11) FAR 4239 U 0.00
expand: MAIN (4, 0) FAR  w(0) 4239.
	create_child: MAIN (3, 11) FAR 4826 U 0.00
expand: MAIN (3, 0) FAR  w(0) 4826.
	create_child: MAIN (2, 11) FAR 5389 U 0.00
expand: MAIN (2, 0) FAR  w(0) 5389.
	create_child: MAIN (1, 11) FAR 6117 U 0.00
expand: MAIN (1, 0) FAR  w(0) 6117. T 0.00
is-reachable: MAIN (2, 0) FAR 5389 T 0.00
is-reachable: MAIN (3, 0) FAR 4826 T 0.00
is-reachable: MAIN (4, 0) FAR 4239 T 0.00
is-reachable: MAIN (5, 0) FAR 3805 T 0.00
is-reachable: MAIN (6, 0) FAR 3304 T 0.00
is-reachable: MAIN (7, 0) FAR 2947 T 0.00
is-reachable: MAIN (8, 0) FAR 2599 T 0.00
is-reachable: MAIN (9, 0) FAR 2223 T 0.00
is-reachable: MAIN (10, 0) FAR 1260 T 0.00
is-reachable: query!0 (11, 0) FAR 1 T 0.00
(spacer::context::check_reachability :time 0.04 :before-memory 6.17 :after-memory 6.95)
BRUNCH_STAT max_query_lvl 11
BRUNCH_STAT num_queries 66
BRUNCH_STAT num_reach_queries 11
BRUNCH_STAT num_reach_reuse 1
BRUNCH_STAT inductive_lvl 0
BRUNCH_STAT max_depth 11
BRUNCH_STAT cex_depth 11
(:SPACER-cex-depth                     11
 :SPACER-max-depth                     11
 :SPACER-max-query-lvl                 11
 :SPACER-num-invariants                1
 :SPACER-num-lemmas                    67
 :SPACER-num-properties                12
 :SPACER-num-queries                   66
 :SPACER-num-reach-queries             11
 :SPACER-num-reuse-reach-facts         1
 :added-eqs                            1753
 :arith-assert-diseq                   2354
 :arith-assert-lower                   2840
 :arith-assert-upper                   4875
 :arith-bound-prop                     95
 :arith-conflicts                      3
 :arith-eq-adapter                     232
 :arith-fixed-eqs                      225
 :arith-offset-eqs                     75
 :arith-pivots                         42
 :bool-inductive-gen                   56
 :bool-inductive-gen-failures          19
 :conflicts                            213
 :decisions                            5284
 :del-clause                           21
 :final-checks                         179
 :minimized-lits                       1
 :mk-bool-var                          1942
 :mk-clause                            2513
 :num-checks                           366
 :propagations                         44372
 :time.itp_solver.itp_core             0.02
 :time.spacer.init_rules               0.00
 :time.spacer.init_rules.pt.init       0.00
 :time.spacer.solve                    0.15
 :time.spacer.solve.propagate          0.02
 :time.spacer.solve.reach              0.13
 :time.spacer.solve.reach.children     0.02
 :time.spacer.solve.reach.gen.bool_ind 0.01
 :time.spacer.solve.reach.is-reach     0.03
 :time.virtual_solver.proof            0.01
 :time.virtual_solver.smt.total        0.09
 :time.virtual_solver.smt.total.sat    0.05
 :virtual_solver.checks                366
 :virtual_solver.checks.sat            179)
BRUNCH_STAT max_query_lvl 11
BRUNCH_STAT num_queries 66
BRUNCH_STAT num_reach_queries 11
BRUNCH_STAT num_reach_reuse 1
BRUNCH_STAT inductive_lvl 0
BRUNCH_STAT max_depth 11
BRUNCH_STAT cex_depth 11

real	0m0.181s
user	0m0.172s
sys	0m0.008s
