(transform N7datalog13mk_coi_filterE...no-op 0s)
(transform N7datalog25mk_interp_tail_simplifierE...7 rules 0.0017878s)
(transform N7datalog27mk_quantifier_instantiationE...no-op 0s)
(transform N7datalog8mk_scaleE...no-op 0s)
(transform N7datalog18mk_karr_invariantsE...no-op 0s)
(transform N7datalog14mk_array_blastE...no-op 0s)
(transform N7datalog22mk_subsumption_checkerE...6 rules 0s)
(transform N7datalog12mk_bit_blastE...no-op 0s)
(transform N7datalog15mk_rule_inlinerE...3 rules 0.0138369s)
(transform N7datalog13mk_coi_filterE...no-op 0s)
(transform N7datalog25mk_interp_tail_simplifierE...3 rules 0s)
(transform N7datalog22mk_subsumption_checkerE...no-op 0s)
(transform N7datalog15mk_rule_inlinerE...no-op 0s)
(transform N7datalog13mk_coi_filterE...no-op 0s)
(transform N7datalog25mk_interp_tail_simplifierE...3 rules 0s)
(transform N7datalog22mk_subsumption_checkerE...no-op 0s)
(transform N7datalog15mk_rule_inlinerE...no-op 0s)
(transform N7datalog22mk_subsumption_checkerE...no-op 0s)
(transform N7datalog15mk_rule_inlinerE...no-op 0s)
(transform N7datalog22mk_subsumption_checkerE...no-op 0s)
(transform N7datalog15mk_rule_inlinerE...no-op 0s)
(transform N7datalog22mk_subsumption_checkerE...no-op 0s)
(transform N7datalog8mk_sliceE...no-op 0.00111383s)
expand: query!0 (0, 0) FAR  w(0) 1
This proof contains 0 Farkas lemmas. 0 Farkas lemmas participate in the lowest cut
. F 0.00
(spacer::context::check_reachability :time 0.00 :before-memory 5.56 :after-memory 6.82)
Entering level 1
BRUNCH_STAT max_query_lvl 0
BRUNCH_STAT num_queries 0
BRUNCH_STAT num_reach_queries 0
BRUNCH_STAT num_reach_reuse 0
BRUNCH_STAT inductive_lvl 0
BRUNCH_STAT max_depth 1
BRUNCH_STAT cex_depth 0
expand: query!0 (1, 0) FAR  w(0) 1.
	create_child: MAIN (0, 1) FAR 13238 U 0.00
expand: MAIN (0, 0) FAR  w(0) 13238
This proof contains 0 Farkas lemmas. 0 Farkas lemmas participate in the lowest cut
. F 0.01
expand: query!0 (1, 0) FAR  w(0) 1
This proof contains 0 Farkas lemmas. 0 Farkas lemmas participate in the lowest cut
. F 0.00
(spacer::context::check_reachability :time 0.01 :before-memory 6.82 :after-memory 9.02)
Propagating: 0 1  ! 2 
(spacer::context::propagate :time 0.01 :before-memory 9.02 :after-memory 9.22)
Entering level 2
BRUNCH_STAT max_query_lvl 1
BRUNCH_STAT num_queries 1
BRUNCH_STAT num_reach_queries 0
BRUNCH_STAT num_reach_reuse 0
BRUNCH_STAT inductive_lvl 0
BRUNCH_STAT max_depth 2
BRUNCH_STAT cex_depth 0
expand: query!0 (2, 0) FAR  w(0) 1.
	create_child: MAIN (1, 2) FAR 13238 U 0.00
expand: MAIN (1, 0) FAR  w(0) 13238.
	create_child: MAIN (0, 2) FAR 22056 U 0.01
expand: MAIN (0, 0) FAR  w(0) 22056
This proof contains 0 Farkas lemmas. 0 Farkas lemmas participate in the lowest cut
. F 0.00
expand: MAIN (1, 0) FAR  w(0) 13238.
	create_child: MAIN (0, 2) FAR 22457 U 0.01
expand: MAIN (0, 0) FAR  w(0) 22457
This proof contains 3 Farkas lemmas. 0 Farkas lemmas participate in the lowest cut
. F 0.00
expand: MAIN (1, 0) FAR  w(0) 13238.
	create_child: MAIN (0, 2) FAR 22798 UNDEF 0.01
expand: MAIN (0, 0) FAR  w(0) 22798
This proof contains 0 Farkas lemmas. 0 Farkas lemmas participate in the lowest cut
. F 0.00
expand: MAIN (1, 0) FAR  w(0) 13238.
	create_child: MAIN (0, 2) FAR 22664 UNDEF 0.01
expand: MAIN (0, 0) FAR  w(0) 22664
This proof contains 0 Farkas lemmas. 0 Farkas lemmas participate in the lowest cut
. F 0.00
expand: MAIN (1, 0) FAR  w(0) 13238.
	create_child: MAIN (0, 2) FAR 24579 UNDEF 0.01
expand: MAIN (0, 0) FAR  w(0) 24579
This proof contains 0 Farkas lemmas. 0 Farkas lemmas participate in the lowest cut
. F 0.00
expand: MAIN (1, 0) FAR  w(0) 13238.
	create_child: MAIN (0, 2) FAR 24687 UNDEF 0.01
expand: MAIN (0, 0) FAR  w(0) 24687
This proof contains 0 Farkas lemmas. 0 Farkas lemmas participate in the lowest cut
. F 0.00
expand: MAIN (1, 0) FAR  w(0) 13238.
	create_child: MAIN (0, 2) FAR 24925 UNDEF 0.01
expand: MAIN (0, 0) FAR  w(0) 24925
This proof contains 0 Farkas lemmas. 0 Farkas lemmas participate in the lowest cut
. F 0.00
expand: MAIN (1, 0) FAR  w(0) 13238.
	create_child: MAIN (0, 2) FAR 25200 UNDEF 0.00
expand: MAIN (0, 0) FAR  w(0) 25200
This proof contains 4 Farkas lemmas. 0 Farkas lemmas participate in the lowest cut
. F 0.00
expand: MAIN (1, 0) FAR  w(0) 13238.
	create_child: MAIN (0, 2) FAR 24947 UNDEF 0.01
expand: MAIN (0, 0) FAR  w(0) 24947
This proof contains 5 Farkas lemmas. 0 Farkas lemmas participate in the lowest cut
. F 0.00
expand: MAIN (1, 0) FAR  w(0) 13238.
	create_child: MAIN (0, 2) FAR 25517 UNDEF 0.01
expand: MAIN (0, 0) FAR  w(0) 25517
This proof contains 0 Farkas lemmas. 0 Farkas lemmas participate in the lowest cut
. F 0.00
expand: MAIN (1, 0) FAR  w(0) 13238.
	create_child: MAIN (0, 2) FAR 25773 UNDEF 0.01
expand: MAIN (0, 0) FAR  w(0) 25773
This proof contains 0 Farkas lemmas. 0 Farkas lemmas participate in the lowest cut
. F 0.00
expand: MAIN (1, 0) FAR  w(0) 13238
This proof contains 9 Farkas lemmas. 0 Farkas lemmas participate in the lowest cut
. F 0.01
expand: query!0 (2, 0) FAR  w(0) 1
This proof contains 0 Farkas lemmas. 0 Farkas lemmas participate in the lowest cut
. F 0.00
(spacer::context::check_reachability :time 0.12 :before-memory 9.22 :after-memory 10.84)
Propagating: 0 1 2  ! 3 
(spacer::context::propagate :time 0.04 :before-memory 10.84 :after-memory 11.07)
Entering level 3
BRUNCH_STAT max_query_lvl 2
BRUNCH_STAT num_queries 13
BRUNCH_STAT num_reach_queries 0
BRUNCH_STAT num_reach_reuse 0
BRUNCH_STAT inductive_lvl 0
BRUNCH_STAT max_depth 3
BRUNCH_STAT cex_depth 0
expand: query!0 (3, 0) FAR  w(0) 1.
	create_child: MAIN (2, 3) FAR 13238 U 0.00
expand: MAIN (2, 0) FAR  w(0) 13238.
	create_child: MAIN (1, 3) FAR 28535 UNDEF 0.01
expand: MAIN (1, 0) FAR  w(0) 28535
This proof contains 0 Farkas lemmas. 0 Farkas lemmas participate in the lowest cut
. F 0.01
expand: MAIN (2, 0) FAR  w(0) 13238.
	create_child: MAIN (1, 3) FAR 29278 UNDEF 0.01
expand: MAIN (1, 0) FAR  w(0) 29278
This proof contains 2 Farkas lemmas. 0 Farkas lemmas participate in the lowest cut
. F 0.01
expand: MAIN (2, 0) FAR  w(0) 13238.
	create_child: MAIN (1, 3) FAR 29753 UNDEF 0.01
expand: MAIN (1, 0) FAR  w(0) 29753
This proof contains 0 Farkas lemmas. 0 Farkas lemmas participate in the lowest cut
. F 0.01
expand: MAIN (2, 0) FAR  w(0) 13238.
	create_child: MAIN (1, 3) FAR 30667 UNDEF 0.01
expand: MAIN (1, 0) FAR  w(0) 30667
This proof contains 0 Farkas lemmas. 0 Farkas lemmas participate in the lowest cut
. F 0.01
expand: MAIN (2, 0) FAR  w(0) 13238.
	create_child: MAIN (1, 3) FAR 31004 UNDEF 0.01
expand: MAIN (1, 0) FAR  w(0) 31004
This proof contains 16 Farkas lemmas. 0 Farkas lemmas participate in the lowest cut
. F 0.02
expand: MAIN (2, 0) FAR  w(0) 13238.
	create_child: MAIN (1, 3) FAR 31486 UNDEF 0.01
expand: MAIN (1, 0) FAR  w(0) 31486
This proof contains 12 Farkas lemmas. 0 Farkas lemmas participate in the lowest cut
. F 0.02
expand: MAIN (2, 0) FAR  w(0) 13238
This proof contains 29 Farkas lemmas. 0 Farkas lemmas participate in the lowest cut
. F 0.01
expand: query!0 (3, 0) FAR  w(0) 1
This proof contains 0 Farkas lemmas. 0 Farkas lemmas participate in the lowest cut
. F 0.00
(spacer::context::check_reachability :time 0.13 :before-memory 11.07 :after-memory 11.83)
Propagating: 1 2 3  ! 4 
(spacer::context::propagate :time 0.03 :before-memory 11.83 :after-memory 11.94)
Entering level 4
BRUNCH_STAT max_query_lvl 3
BRUNCH_STAT num_queries 20
BRUNCH_STAT num_reach_queries 0
BRUNCH_STAT num_reach_reuse 0
BRUNCH_STAT inductive_lvl 0
BRUNCH_STAT max_depth 4
BRUNCH_STAT cex_depth 0
expand: query!0 (4, 0) FAR  w(0) 1.
	create_child: MAIN (3, 4) FAR 13238 U 0.00
expand: MAIN (3, 0) FAR  w(0) 13238.
	create_child: MAIN (2, 4) FAR 33930 UNDEF 0.01
expand: MAIN (2, 0) FAR  w(0) 33930
This proof contains 0 Farkas lemmas. 0 Farkas lemmas participate in the lowest cut
. F 0.01
expand: MAIN (3, 0) FAR  w(0) 13238.
	create_child: MAIN (2, 4) FAR 34164 UNDEF 0.01
expand: MAIN (2, 0) FAR  w(0) 34164
This proof contains 0 Farkas lemmas. 0 Farkas lemmas participate in the lowest cut
. F 0.01
expand: MAIN (3, 0) FAR  w(0) 13238.
	create_child: MAIN (2, 4) FAR 34529 UNDEF 0.01
expand: MAIN (2, 0) FAR  w(0) 34529
This proof contains 35 Farkas lemmas. 0 Farkas lemmas participate in the lowest cut
. F 0.02
expand: MAIN (3, 0) FAR  w(0) 13238
This proof contains 28 Farkas lemmas. 0 Farkas lemmas participate in the lowest cut
. F 0.01
expand: query!0 (4, 0) FAR  w(0) 1
This proof contains 0 Farkas lemmas. 0 Farkas lemmas participate in the lowest cut
. F 0.00
(spacer::context::check_reachability :time 0.06 :before-memory 11.94 :after-memory 12.04)
Propagating: 2 3 
(spacer::context::propagate :time 0.02 :before-memory 12.04 :after-memory 12.14)
(define-fun MAIN ((x!0 Int)
 (x!1 Int)
 (x!2 Bool)
 (x!3 Bool)
 (x!4 Int)
 (x!5 Int)
 (x!6 Int)
 (x!7 Real)
 (x!8 Bool)
 (x!9 Real)
 (x!10 Real)
 (x!11 Bool)
 (x!12 Bool)
 (x!13 Real)
 (x!14 Bool)
 (x!15 Bool)
 (x!16 Real)
 (x!17 Bool)
 (x!18 Bool)
 (x!19 Bool)
 (x!20 Bool)) Bool
  (and (or (= x!1 4) (not (= x!6 4)))
       x!20
       (or (= x!4 0) x!17)
       x!2
       (or x!18 (= x!5 0))
       (or (not (= x!6 5)) x!14)
       (or (= x!6 4) (<= x!0 0))
       (or (<= x!0 0) x!8)
       (or (not (<= x!6 4)) (not x!14))
       (or (= x!6 6) (not x!11))))
BRUNCH_STAT max_query_lvl 4
BRUNCH_STAT num_queries 24
BRUNCH_STAT num_reach_queries 0
BRUNCH_STAT num_reach_reuse 0
BRUNCH_STAT inductive_lvl 3
BRUNCH_STAT max_depth 4
BRUNCH_STAT cex_depth 0
(:SPACER-expand-node-undef             18
 :SPACER-inductive-level               3
 :SPACER-max-depth                     4
 :SPACER-max-query-lvl                 4
 :SPACER-num-invariants                11
 :SPACER-num-lemmas                    29
 :SPACER-num-properties                22
 :SPACER-num-queries                   24
 :added-eqs                            38192
 :arith-add-rows                       3549
 :arith-assert-diseq                   11788
 :arith-assert-lower                   14424
 :arith-assert-upper                   13493
 :arith-bound-prop                     672
 :arith-conflicts                      23
 :arith-eq-adapter                     6106
 :arith-fixed-eqs                      2397
 :arith-gcd-tests                      112
 :arith-gomory-cuts                    1
 :arith-ineq-splits                    13
 :arith-offset-eqs                     2012
 :arith-pivots                         945
 :bool-inductive-gen                   24
 :bool-inductive-gen-failures          29
 :conflicts                            465
 :decisions                            28965
 :del-clause                           4073
 :final-checks                         109
 :interface-eqs                        7
 :minimized-lits                       1090
 :mk-bool-var                          7764
 :mk-clause                            9553
 :num-checks                           179
 :propagations                         185541
 :time.itp_solver.itp_core             0.03
 :time.spacer.init_rules               0.00
 :time.spacer.init_rules.pt.init       0.00
 :time.spacer.solve                    0.42
 :time.spacer.solve.propagate          0.10
 :time.spacer.solve.reach              0.33
 :time.spacer.solve.reach.children     0.05
 :time.spacer.solve.reach.gen.bool_ind 0.11
 :time.virtual_solver.proof            0.02
 :time.virtual_solver.smt.total        0.34
 :time.virtual_solver.smt.total.sat    0.09
 :time.virtual_solver.smt.total.undef  0.14
 :virtual_solver.checks                179
 :virtual_solver.checks.sat            30
 :virtual_solver.checks.undef          51)
BRUNCH_STAT max_query_lvl 4
BRUNCH_STAT num_queries 24
BRUNCH_STAT num_reach_queries 0
BRUNCH_STAT num_reach_reuse 0
BRUNCH_STAT inductive_lvl 3
BRUNCH_STAT max_depth 4
BRUNCH_STAT cex_depth 0

real	0m0.531s
user	0m0.516s
sys	0m0.016s
