(transform N7datalog13mk_coi_filterE...no-op 0s)
(transform N7datalog25mk_interp_tail_simplifierE...11 rules 0s)
(transform N7datalog27mk_quantifier_instantiationE...no-op 0s)
(transform N7datalog8mk_scaleE...no-op 0s)
(transform N7datalog18mk_karr_invariantsE...no-op 0s)
(transform N7datalog14mk_array_blastE...no-op 0s)
(transform N7datalog22mk_subsumption_checkerE...10 rules 0s)
(transform N7datalog12mk_bit_blastE...no-op 0s)
(transform N7datalog15mk_rule_inlinerE...3 rules 0.00133304s)
(transform N7datalog13mk_coi_filterE...no-op 0s)
(transform N7datalog25mk_interp_tail_simplifierE...3 rules 0s)
(transform N7datalog22mk_subsumption_checkerE...no-op 0s)
(transform N7datalog15mk_rule_inlinerE...no-op 0s)
(transform N7datalog13mk_coi_filterE...no-op 0s)
(transform N7datalog25mk_interp_tail_simplifierE...3 rules 0s)
(transform N7datalog22mk_subsumption_checkerE...no-op 0s)
(transform N7datalog15mk_rule_inlinerE...no-op 0s)
(transform N7datalog22mk_subsumption_checkerE...no-op 0s)
(transform N7datalog15mk_rule_inlinerE...no-op 0s)
(transform N7datalog22mk_subsumption_checkerE...no-op 0s)
(transform N7datalog15mk_rule_inlinerE...no-op 0s)
(transform N7datalog22mk_subsumption_checkerE...no-op 0s)
(transform N7datalog8mk_sliceE...no-op 0s)
expand: query!0 (0, 0) FAR  w(0) 1
This proof contains 0 Farkas lemmas. 0 Farkas lemmas participate in the lowest cut
. F 0.00
(spacer::context::check_reachability :time 0.00 :before-memory 4.18 :after-memory 4.79)
Entering level 1
BRUNCH_STAT max_query_lvl 0
BRUNCH_STAT num_queries 0
BRUNCH_STAT num_reach_queries 0
BRUNCH_STAT num_reach_reuse 0
BRUNCH_STAT inductive_lvl 0
BRUNCH_STAT max_depth 1
BRUNCH_STAT cex_depth 0
expand: query!0 (1, 0) FAR  w(0) 1.
	create_child: MAIN (0, 1) FAR 1229 U 0.00
expand: MAIN (0, 0) FAR  w(0) 1229
This proof contains 0 Farkas lemmas. 0 Farkas lemmas participate in the lowest cut
. F 0.00
expand: query!0 (1, 0) FAR  w(0) 1
This proof contains 0 Farkas lemmas. 0 Farkas lemmas participate in the lowest cut
. F 0.00
(spacer::context::check_reachability :time 0.00 :before-memory 4.79 :after-memory 5.31)
Propagating: 0 1  ! 2 
(spacer::context::propagate :time 0.00 :before-memory 5.31 :after-memory 5.31)
Entering level 2
BRUNCH_STAT max_query_lvl 1
BRUNCH_STAT num_queries 1
BRUNCH_STAT num_reach_queries 0
BRUNCH_STAT num_reach_reuse 0
BRUNCH_STAT inductive_lvl 0
BRUNCH_STAT max_depth 2
BRUNCH_STAT cex_depth 0
expand: query!0 (2, 0) FAR  w(0) 1.
	create_child: MAIN (1, 2) FAR 1229 U 0.00
expand: MAIN (1, 0) FAR  w(0) 1229. T 0.00
is-reachable: query!0 (2, 0) FAR 1 T 0.00
(spacer::context::check_reachability :time 0.00 :before-memory 5.31 :after-memory 5.41)
BRUNCH_STAT max_query_lvl 2
BRUNCH_STAT num_queries 2
BRUNCH_STAT num_reach_queries 2
BRUNCH_STAT num_reach_reuse 1
BRUNCH_STAT inductive_lvl 0
BRUNCH_STAT max_depth 2
BRUNCH_STAT cex_depth 2
(:SPACER-cex-depth                     2
 :SPACER-max-depth                     2
 :SPACER-max-query-lvl                 2
 :SPACER-num-lemmas                    3
 :SPACER-num-properties                2
 :SPACER-num-queries                   2
 :SPACER-num-reach-queries             2
 :SPACER-num-reuse-reach-facts         1
 :added-eqs                            47
 :arith-add-rows                       10
 :arith-assert-diseq                   14
 :arith-assert-lower                   41
 :arith-assert-upper                   29
 :arith-bound-prop                     13
 :arith-eq-adapter                     28
 :arith-fixed-eqs                      7
 :arith-offset-eqs                     4
 :arith-pivots                         9
 :bool-inductive-gen                   1
 :bool-inductive-gen-failures          1
 :conflicts                            11
 :decisions                            94
 :del-clause                           16
 :final-checks                         6
 :mk-bool-var                          250
 :mk-clause                            428
 :num-checks                           11
 :propagations                         377
 :time.itp_solver.itp_core             0.00
 :time.spacer.init_rules               0.00
 :time.spacer.init_rules.pt.init       0.00
 :time.spacer.solve                    0.01
 :time.spacer.solve.propagate          0.00
 :time.spacer.solve.reach              0.01
 :time.spacer.solve.reach.children     0.00
 :time.spacer.solve.reach.gen.bool_ind 0.00
 :time.spacer.solve.reach.is-reach     0.00
 :time.virtual_solver.proof            0.00
 :time.virtual_solver.smt.total        0.00
 :time.virtual_solver.smt.total.sat    0.00
 :virtual_solver.checks                11
 :virtual_solver.checks.sat            6)
BRUNCH_STAT max_query_lvl 2
BRUNCH_STAT num_queries 2
BRUNCH_STAT num_reach_queries 2
BRUNCH_STAT num_reach_reuse 1
BRUNCH_STAT inductive_lvl 0
BRUNCH_STAT max_depth 2
BRUNCH_STAT cex_depth 2

real	0m0.026s
user	0m0.016s
sys	0m0.008s
