(transform N7datalog13mk_coi_filterE...no-op 0s)
(transform N7datalog25mk_interp_tail_simplifierE...26 rules 0s)
(transform N7datalog27mk_quantifier_instantiationE...no-op 0s)
(transform N7datalog8mk_scaleE...no-op 0s)
(transform N7datalog18mk_karr_invariantsE...no-op 0s)
(transform N7datalog14mk_array_blastE...no-op 0s)
(transform N7datalog22mk_subsumption_checkerE...25 rules 0s)
(transform N7datalog12mk_bit_blastE...no-op 0s)
(transform N7datalog15mk_rule_inlinerE...3 rules 0.0143851s)
(transform N7datalog13mk_coi_filterE...no-op 0s)
(transform N7datalog25mk_interp_tail_simplifierE...3 rules 0s)
(transform N7datalog22mk_subsumption_checkerE...no-op 0s)
(transform N7datalog15mk_rule_inlinerE...no-op 0s)
(transform N7datalog13mk_coi_filterE...no-op 0s)
(transform N7datalog25mk_interp_tail_simplifierE...3 rules 0s)
(transform N7datalog22mk_subsumption_checkerE...no-op 0s)
(transform N7datalog15mk_rule_inlinerE...no-op 0s)
(transform N7datalog22mk_subsumption_checkerE...no-op 0s)
(transform N7datalog15mk_rule_inlinerE...no-op 0s)
(transform N7datalog22mk_subsumption_checkerE...no-op 0s)
(transform N7datalog15mk_rule_inlinerE...no-op 0s)
(transform N7datalog22mk_subsumption_checkerE...no-op 0s)
(transform N7datalog8mk_sliceE...3 rules 0s)
expand: query!0 (0, 0) FAR  w(0) 1
This proof contains 0 Farkas lemmas. 0 Farkas lemmas participate in the lowest cut
. F 0.00
(spacer::context::check_reachability :time 0.00 :before-memory 5.07 :after-memory 5.55)
Entering level 1
BRUNCH_STAT max_query_lvl 0
BRUNCH_STAT num_queries 0
BRUNCH_STAT num_reach_queries 0
BRUNCH_STAT num_reach_reuse 0
BRUNCH_STAT inductive_lvl 0
BRUNCH_STAT max_depth 1
BRUNCH_STAT cex_depth 0
expand: query!0 (1, 0) FAR  w(0) 1.
	create_child: MAIN!slice!1 (0, 1) FAR 5733 U 0.00
expand: MAIN!slice!1 (0, 0) FAR  w(0) 5733
This proof contains 0 Farkas lemmas. 0 Farkas lemmas participate in the lowest cut
. F 0.00
expand: query!0 (1, 0) FAR  w(0) 1
This proof contains 0 Farkas lemmas. 0 Farkas lemmas participate in the lowest cut
. F 0.00
(spacer::context::check_reachability :time 0.00 :before-memory 5.55 :after-memory 6.33)
Propagating: 0 1  ! 2 
(spacer::context::propagate :time 0.00 :before-memory 6.33 :after-memory 6.33)
Entering level 2
BRUNCH_STAT max_query_lvl 1
BRUNCH_STAT num_queries 1
BRUNCH_STAT num_reach_queries 0
BRUNCH_STAT num_reach_reuse 0
BRUNCH_STAT inductive_lvl 0
BRUNCH_STAT max_depth 2
BRUNCH_STAT cex_depth 0
expand: query!0 (2, 0) FAR  w(0) 1.
	create_child: MAIN!slice!1 (1, 2) FAR 5733 U 0.00
expand: MAIN!slice!1 (1, 0) FAR  w(0) 5733.
	create_child: MAIN!slice!1 (0, 2) FAR 8084 U 0.00
expand: MAIN!slice!1 (0, 0) FAR  w(0) 8084
This proof contains 0 Farkas lemmas. 0 Farkas lemmas participate in the lowest cut
. F 0.00
expand: MAIN!slice!1 (1, 0) FAR  w(0) 5733.
	create_child: MAIN!slice!1 (0, 2) FAR 8166 U 0.00
expand: MAIN!slice!1 (0, 0) FAR  w(0) 8166
This proof contains 0 Farkas lemmas. 0 Farkas lemmas participate in the lowest cut
. F 0.00
expand: MAIN!slice!1 (1, 0) FAR  w(0) 5733.
	create_child: MAIN!slice!1 (0, 2) FAR 8234 U 0.00
expand: MAIN!slice!1 (0, 0) FAR  w(0) 8234
This proof contains 0 Farkas lemmas. 0 Farkas lemmas participate in the lowest cut
. F 0.00
expand: MAIN!slice!1 (1, 0) FAR  w(0) 5733.
	create_child: MAIN!slice!1 (0, 2) FAR 8286 U 0.00
expand: MAIN!slice!1 (0, 0) FAR  w(0) 8286
This proof contains 0 Farkas lemmas. 0 Farkas lemmas participate in the lowest cut
. F 0.00
expand: MAIN!slice!1 (1, 0) FAR  w(0) 5733.
	create_child: MAIN!slice!1 (0, 2) FAR 8405 U 0.00
expand: MAIN!slice!1 (0, 0) FAR  w(0) 8405
This proof contains 0 Farkas lemmas. 0 Farkas lemmas participate in the lowest cut
. F 0.00
expand: MAIN!slice!1 (1, 0) FAR  w(0) 5733.
	create_child: MAIN!slice!1 (0, 2) FAR 8307 U 0.00
expand: MAIN!slice!1 (0, 0) FAR  w(0) 8307
This proof contains 0 Farkas lemmas. 0 Farkas lemmas participate in the lowest cut
. F 0.00
expand: MAIN!slice!1 (1, 0) FAR  w(0) 5733.
	create_child: MAIN!slice!1 (0, 2) FAR 8470 U 0.00
expand: MAIN!slice!1 (0, 0) FAR  w(0) 8470
This proof contains 0 Farkas lemmas. 0 Farkas lemmas participate in the lowest cut
. F 0.00
expand: MAIN!slice!1 (1, 0) FAR  w(0) 5733.
	create_child: MAIN!slice!1 (0, 2) FAR 8506 U 0.00
expand: MAIN!slice!1 (0, 0) FAR  w(0) 8506
This proof contains 0 Farkas lemmas. 0 Farkas lemmas participate in the lowest cut
. F 0.00
expand: MAIN!slice!1 (1, 0) FAR  w(0) 5733.
	create_child: MAIN!slice!1 (0, 2) FAR 8549 U 0.00
expand: MAIN!slice!1 (0, 0) FAR  w(0) 8549
This proof contains 0 Farkas lemmas. 0 Farkas lemmas participate in the lowest cut
. F 0.00
expand: MAIN!slice!1 (1, 0) FAR  w(0) 5733.
	create_child: MAIN!slice!1 (0, 2) FAR 8516 U 0.00
expand: MAIN!slice!1 (0, 0) FAR  w(0) 8516
This proof contains 0 Farkas lemmas. 0 Farkas lemmas participate in the lowest cut
. F 0.00
expand: MAIN!slice!1 (1, 0) FAR  w(0) 5733.
	create_child: MAIN!slice!1 (0, 2) FAR 8558 U 0.00
expand: MAIN!slice!1 (0, 0) FAR  w(0) 8558
This proof contains 0 Farkas lemmas. 0 Farkas lemmas participate in the lowest cut
. F 0.00
expand: MAIN!slice!1 (1, 0) FAR  w(0) 5733.
	create_child: MAIN!slice!1 (0, 2) FAR 8747 U 0.00
expand: MAIN!slice!1 (0, 0) FAR  w(0) 8747
This proof contains 0 Farkas lemmas. 0 Farkas lemmas participate in the lowest cut
. F 0.00
expand: MAIN!slice!1 (1, 0) FAR  w(0) 5733.
	create_child: MAIN!slice!1 (0, 2) FAR 8881 U 0.00
expand: MAIN!slice!1 (0, 0) FAR  w(0) 8881
This proof contains 0 Farkas lemmas. 0 Farkas lemmas participate in the lowest cut
. F 0.00
expand: MAIN!slice!1 (1, 0) FAR  w(0) 5733.
	create_child: MAIN!slice!1 (0, 2) FAR 8910 U 0.00
expand: MAIN!slice!1 (0, 0) FAR  w(0) 8910
This proof contains 0 Farkas lemmas. 0 Farkas lemmas participate in the lowest cut
. F 0.00
expand: MAIN!slice!1 (1, 0) FAR  w(0) 5733
This proof contains 0 Farkas lemmas. 0 Farkas lemmas participate in the lowest cut
. F 0.00
expand: query!0 (2, 0) FAR  w(0) 1
This proof contains 0 Farkas lemmas. 0 Farkas lemmas participate in the lowest cut
. F 0.00
(spacer::context::check_reachability :time 0.02 :before-memory 6.33 :after-memory 6.52)
Propagating: 0 1 2  ! 3 
(spacer::context::propagate :time 0.00 :before-memory 6.52 :after-memory 6.52)
Entering level 3
BRUNCH_STAT max_query_lvl 2
BRUNCH_STAT num_queries 16
BRUNCH_STAT num_reach_queries 0
BRUNCH_STAT num_reach_reuse 0
BRUNCH_STAT inductive_lvl 0
BRUNCH_STAT max_depth 3
BRUNCH_STAT cex_depth 0
expand: query!0 (3, 0) FAR  w(0) 1.
	create_child: MAIN!slice!1 (2, 3) FAR 5733 U 0.00
expand: MAIN!slice!1 (2, 0) FAR  w(0) 5733.
	create_child: MAIN!slice!1 (1, 3) FAR 9843 U 0.00
expand: MAIN!slice!1 (1, 0) FAR  w(0) 9843
This proof contains 0 Farkas lemmas. 0 Farkas lemmas participate in the lowest cut
. F 0.00
expand: MAIN!slice!1 (2, 0) FAR  w(0) 5733.
	create_child: MAIN!slice!1 (1, 3) FAR 9800 U 0.00
expand: MAIN!slice!1 (1, 0) FAR  w(0) 9800
This proof contains 0 Farkas lemmas. 0 Farkas lemmas participate in the lowest cut
. F 0.00
expand: MAIN!slice!1 (2, 0) FAR  w(0) 5733.
	create_child: MAIN!slice!1 (1, 3) FAR 9998 U 0.00
expand: MAIN!slice!1 (1, 0) FAR  w(0) 9998
This proof contains 0 Farkas lemmas. 0 Farkas lemmas participate in the lowest cut
. F 0.00
expand: MAIN!slice!1 (2, 0) FAR  w(0) 5733.
	create_child: MAIN!slice!1 (1, 3) FAR 10166 U 0.00
expand: MAIN!slice!1 (1, 0) FAR  w(0) 10166
This proof contains 0 Farkas lemmas. 0 Farkas lemmas participate in the lowest cut
. F 0.00
expand: MAIN!slice!1 (2, 0) FAR  w(0) 5733.
	create_child: MAIN!slice!1 (1, 3) FAR 10121 U 0.00
expand: MAIN!slice!1 (1, 0) FAR  w(0) 10121
This proof contains 0 Farkas lemmas. 0 Farkas lemmas participate in the lowest cut
. F 0.00
expand: MAIN!slice!1 (2, 0) FAR  w(0) 5733.
	create_child: MAIN!slice!1 (1, 3) FAR 10259 U 0.00
expand: MAIN!slice!1 (1, 0) FAR  w(0) 10259
This proof contains 0 Farkas lemmas. 0 Farkas lemmas participate in the lowest cut
. F 0.00
expand: MAIN!slice!1 (2, 0) FAR  w(0) 5733.
	create_child: MAIN!slice!1 (1, 3) FAR 10340 U 0.00
expand: MAIN!slice!1 (1, 0) FAR  w(0) 10340
This proof contains 0 Farkas lemmas. 0 Farkas lemmas participate in the lowest cut
. F 0.00
expand: MAIN!slice!1 (2, 0) FAR  w(0) 5733.
	create_child: MAIN!slice!1 (1, 3) FAR 10542 U 0.00
expand: MAIN!slice!1 (1, 0) FAR  w(0) 10542
This proof contains 0 Farkas lemmas. 0 Farkas lemmas participate in the lowest cut
. F 0.00
expand: MAIN!slice!1 (2, 0) FAR  w(0) 5733.
	create_child: MAIN!slice!1 (1, 3) FAR 10661 U 0.00
expand: MAIN!slice!1 (1, 0) FAR  w(0) 10661
This proof contains 0 Farkas lemmas. 0 Farkas lemmas participate in the lowest cut
. F 0.00
expand: MAIN!slice!1 (2, 0) FAR  w(0) 5733.
	create_child: MAIN!slice!1 (1, 3) FAR 10854 U 0.00
expand: MAIN!slice!1 (1, 0) FAR  w(0) 10854
This proof contains 0 Farkas lemmas. 0 Farkas lemmas participate in the lowest cut
. F 0.00
expand: MAIN!slice!1 (2, 0) FAR  w(0) 5733.
	create_child: MAIN!slice!1 (1, 3) FAR 10998 U 0.00
expand: MAIN!slice!1 (1, 0) FAR  w(0) 10998
This proof contains 0 Farkas lemmas. 0 Farkas lemmas participate in the lowest cut
. F 0.00
expand: MAIN!slice!1 (2, 0) FAR  w(0) 5733.
	create_child: MAIN!slice!1 (1, 3) FAR 11128 U 0.00
expand: MAIN!slice!1 (1, 0) FAR  w(0) 11128
This proof contains 0 Farkas lemmas. 0 Farkas lemmas participate in the lowest cut
. F 0.00
expand: MAIN!slice!1 (2, 0) FAR  w(0) 5733.
	create_child: MAIN!slice!1 (1, 3) FAR 11295 U 0.00
expand: MAIN!slice!1 (1, 0) FAR  w(0) 11295
This proof contains 0 Farkas lemmas. 0 Farkas lemmas participate in the lowest cut
. F 0.00
expand: MAIN!slice!1 (2, 0) FAR  w(0) 5733.
	create_child: MAIN!slice!1 (1, 3) FAR 11383 U 0.00
expand: MAIN!slice!1 (1, 0) FAR  w(0) 11383
This proof contains 0 Farkas lemmas. 0 Farkas lemmas participate in the lowest cut
. F 0.00
expand: MAIN!slice!1 (2, 0) FAR  w(0) 5733.
	create_child: MAIN!slice!1 (1, 3) FAR 11680 U 0.00
expand: MAIN!slice!1 (1, 0) FAR  w(0) 11680
This proof contains 0 Farkas lemmas. 0 Farkas lemmas participate in the lowest cut
. F 0.00
expand: MAIN!slice!1 (2, 0) FAR  w(0) 5733.
	create_child: MAIN!slice!1 (1, 3) FAR 11738 U 0.00
expand: MAIN!slice!1 (1, 0) FAR  w(0) 11738
This proof contains 0 Farkas lemmas. 0 Farkas lemmas participate in the lowest cut
. F 0.00
expand: MAIN!slice!1 (2, 0) FAR  w(0) 5733.
	create_child: MAIN!slice!1 (1, 3) FAR 11819 U 0.00
expand: MAIN!slice!1 (1, 0) FAR  w(0) 11819
This proof contains 0 Farkas lemmas. 0 Farkas lemmas participate in the lowest cut
. F 0.00
expand: MAIN!slice!1 (2, 0) FAR  w(0) 5733.
	create_child: MAIN!slice!1 (1, 3) FAR 11946 U 0.00
expand: MAIN!slice!1 (1, 0) FAR  w(0) 11946
This proof contains 0 Farkas lemmas. 0 Farkas lemmas participate in the lowest cut
. F 0.00
expand: MAIN!slice!1 (2, 0) FAR  w(0) 5733.
	create_child: MAIN!slice!1 (1, 3) FAR 12158 U 0.00
expand: MAIN!slice!1 (1, 0) FAR  w(0) 12158
This proof contains 0 Farkas lemmas. 0 Farkas lemmas participate in the lowest cut
. F 0.00
expand: MAIN!slice!1 (2, 0) FAR  w(0) 5733.
	create_child: MAIN!slice!1 (1, 3) FAR 12194 U 0.00
expand: MAIN!slice!1 (1, 0) FAR  w(0) 12194
This proof contains 0 Farkas lemmas. 0 Farkas lemmas participate in the lowest cut
. F 0.00
expand: MAIN!slice!1 (2, 0) FAR  w(0) 5733.
	create_child: MAIN!slice!1 (1, 3) FAR 12204 U 0.00
expand: MAIN!slice!1 (1, 0) FAR  w(0) 12204
This proof contains 0 Farkas lemmas. 0 Farkas lemmas participate in the lowest cut
. F 0.00
expand: MAIN!slice!1 (2, 0) FAR  w(0) 5733.
	create_child: MAIN!slice!1 (1, 3) FAR 12411 U 0.00
expand: MAIN!slice!1 (1, 0) FAR  w(0) 12411
This proof contains 0 Farkas lemmas. 0 Farkas lemmas participate in the lowest cut
. F 0.00
expand: MAIN!slice!1 (2, 0) FAR  w(0) 5733.
	create_child: MAIN!slice!1 (1, 3) FAR 12450 U 0.00
expand: MAIN!slice!1 (1, 0) FAR  w(0) 12450
This proof contains 0 Farkas lemmas. 0 Farkas lemmas participate in the lowest cut
. F 0.00
expand: MAIN!slice!1 (2, 0) FAR  w(0) 5733
This proof contains 0 Farkas lemmas. 0 Farkas lemmas participate in the lowest cut
. F 0.00
expand: query!0 (3, 0) FAR  w(0) 1
This proof contains 0 Farkas lemmas. 0 Farkas lemmas participate in the lowest cut
. F 0.00
(spacer::context::check_reachability :time 0.06 :before-memory 6.52 :after-memory 7.26)
Propagating: 1 2 3 
(spacer::context::propagate :time 0.00 :before-memory 7.26 :after-memory 7.26)
(define-fun MAIN!slice!1 ((x!0 Bool)
 (x!1 Bool)
 (x!2 Bool)
 (x!3 Bool)
 (x!4 Bool)
 (x!5 Bool)
 (x!6 Bool)
 (x!7 Bool)
 (x!8 Bool)
 (x!9 Bool)
 (x!10 Bool)
 (x!11 Bool)
 (x!12 Bool)
 (x!13 Bool)
 (x!14 Bool)
 (x!15 Bool)
 (x!16 Bool)
 (x!17 Bool)
 (x!18 Bool)
 (x!19 Bool)
 (x!20 Bool)
 (x!21 Bool)
 (x!22 Bool)
 (x!23 Bool)
 (x!24 Bool)
 (x!25 Bool)
 (x!26 Bool)
 (x!27 Bool)
 (x!28 Bool)
 (x!29 Bool)
 (x!30 Bool)
 (x!31 Bool)
 (x!32 Bool)
 (x!33 Bool)
 (x!34 Bool)
 (x!35 Bool)
 (x!36 Bool)
 (x!37 Bool)
 (x!38 Bool)) Bool
  (and (or x!12 (not x!31))
       x!38
       (not x!2)
       (not x!4)
       (not x!6)
       (not x!8)
       (not x!11)
       (not x!13)
       (not x!15)
       (not x!17)
       (not x!23)
       (not x!25)
       (not x!27)
       (not x!30)
       (not x!32)
       (not x!35)
       (not x!0)
       (or (not x!12) x!31)
       (or (not x!16) x!34)
       (or x!14 (not x!21))
       (or (not x!14) x!21)
       (or (not x!24) x!21)
       (or (not x!20) x!1)
       (or (not x!26) (not x!5))
       (or (not x!26) (not x!7))
       (or x!16 (not x!34))
       (or (not x!26) (not x!3))
       (or (not x!29) x!28)
       (or x!28 (not x!1))
       (or x!9 (not x!28))
       (or x!10 (not x!29))))
BRUNCH_STAT max_query_lvl 3
BRUNCH_STAT num_queries 40
BRUNCH_STAT num_reach_queries 0
BRUNCH_STAT num_reach_reuse 0
BRUNCH_STAT inductive_lvl 3
BRUNCH_STAT max_depth 3
BRUNCH_STAT cex_depth 0
(:SPACER-inductive-level               3
 :SPACER-max-depth                     3
 :SPACER-max-query-lvl                 3
 :SPACER-num-invariants                32
 :SPACER-num-lemmas                    44
 :SPACER-num-properties                39
 :SPACER-num-queries                   40
 :arith-assert-lower                   26
 :arith-assert-upper                   26
 :bool-inductive-gen                   40
 :bool-inductive-gen-failures          63
 :conflicts                            165
 :decisions                            5209
 :final-checks                         96
 :minimized-lits                       89
 :mk-bool-var                          1017
 :mk-clause                            1140
 :num-checks                           214
 :propagations                         34934
 :time.itp_solver.itp_core             0.01
 :time.spacer.init_rules               0.00
 :time.spacer.init_rules.pt.init       0.00
 :time.spacer.solve                    0.09
 :time.spacer.solve.propagate          0.00
 :time.spacer.solve.reach              0.08
 :time.spacer.solve.reach.children     0.03
 :time.spacer.solve.reach.gen.bool_ind 0.01
 :time.virtual_solver.proof            0.01
 :time.virtual_solver.smt.total        0.04
 :time.virtual_solver.smt.total.sat    0.02
 :virtual_solver.checks                214
 :virtual_solver.checks.sat            96)
BRUNCH_STAT max_query_lvl 3
BRUNCH_STAT num_queries 40
BRUNCH_STAT num_reach_queries 0
BRUNCH_STAT num_reach_reuse 0
BRUNCH_STAT inductive_lvl 3
BRUNCH_STAT max_depth 3
BRUNCH_STAT cex_depth 0

real	0m0.135s
user	0m0.132s
sys	0m0.000s
