(transform N7datalog13mk_coi_filterE...no-op 0s)
(transform N7datalog25mk_interp_tail_simplifierE...14 rules 0s)
(transform N7datalog27mk_quantifier_instantiationE...no-op 0s)
(transform N7datalog8mk_scaleE...no-op 0s)
(transform N7datalog18mk_karr_invariantsE...no-op 0s)
(transform N7datalog14mk_array_blastE...no-op 0s)
(transform N7datalog22mk_subsumption_checkerE...13 rules 0s)
(transform N7datalog12mk_bit_blastE...no-op 0s)
(transform N7datalog15mk_rule_inlinerE...3 rules 0.00478971s)
(transform N7datalog13mk_coi_filterE...no-op 0s)
(transform N7datalog25mk_interp_tail_simplifierE...3 rules 0s)
(transform N7datalog22mk_subsumption_checkerE...no-op 0s)
(transform N7datalog15mk_rule_inlinerE...no-op 0s)
(transform N7datalog13mk_coi_filterE...no-op 0s)
(transform N7datalog25mk_interp_tail_simplifierE...3 rules 0s)
(transform N7datalog22mk_subsumption_checkerE...no-op 0s)
(transform N7datalog15mk_rule_inlinerE...no-op 0s)
(transform N7datalog22mk_subsumption_checkerE...no-op 0s)
(transform N7datalog15mk_rule_inlinerE...no-op 0s)
(transform N7datalog22mk_subsumption_checkerE...no-op 0s)
(transform N7datalog15mk_rule_inlinerE...no-op 0s)
(transform N7datalog22mk_subsumption_checkerE...no-op 0s)
(transform N7datalog8mk_sliceE...no-op 0s)
expand: query!0 (0, 0) FAR  w(0) 1
This proof contains 0 Farkas lemmas. 0 Farkas lemmas participate in the lowest cut
. F 0.00
(spacer::context::check_reachability :time 0.00 :before-memory 4.47 :after-memory 5.09)
Entering level 1
BRUNCH_STAT max_query_lvl 0
BRUNCH_STAT num_queries 0
BRUNCH_STAT num_reach_queries 0
BRUNCH_STAT num_reach_reuse 0
BRUNCH_STAT inductive_lvl 0
BRUNCH_STAT max_depth 1
BRUNCH_STAT cex_depth 0
expand: query!0 (1, 0) FAR  w(0) 1.
	create_child: MAIN (0, 1) FAR 3710 U 0.00
expand: MAIN (0, 0) FAR  w(0) 3710
This proof contains 2 Farkas lemmas. 0 Farkas lemmas participate in the lowest cut
. F 0.00
expand: query!0 (1, 0) FAR  w(0) 1
This proof contains 0 Farkas lemmas. 0 Farkas lemmas participate in the lowest cut
. F 0.00
(spacer::context::check_reachability :time 0.01 :before-memory 5.09 :after-memory 6.22)
Propagating: 0 1  ! 2 
(spacer::context::propagate :time 0.00 :before-memory 6.22 :after-memory 6.22)
Entering level 2
BRUNCH_STAT max_query_lvl 1
BRUNCH_STAT num_queries 1
BRUNCH_STAT num_reach_queries 0
BRUNCH_STAT num_reach_reuse 0
BRUNCH_STAT inductive_lvl 0
BRUNCH_STAT max_depth 2
BRUNCH_STAT cex_depth 0
expand: query!0 (2, 0) FAR  w(0) 1.
	create_child: MAIN (1, 2) FAR 3710 U 0.00
expand: MAIN (1, 0) FAR  w(0) 3710.
	create_child: MAIN (0, 2) FAR 8054 U 0.01
expand: MAIN (0, 0) FAR  w(0) 8054
This proof contains 0 Farkas lemmas. 0 Farkas lemmas participate in the lowest cut
. F 0.00
expand: MAIN (1, 0) FAR  w(0) 3710.
	create_child: MAIN (0, 2) FAR 8189 U 0.00
expand: MAIN (0, 0) FAR  w(0) 8189
This proof contains 0 Farkas lemmas. 0 Farkas lemmas participate in the lowest cut
. F 0.00
expand: MAIN (1, 0) FAR  w(0) 3710.
	create_child: MAIN (0, 2) FAR 8258 U 0.00
expand: MAIN (0, 0) FAR  w(0) 8258
This proof contains 0 Farkas lemmas. 0 Farkas lemmas participate in the lowest cut
. F 0.00
expand: MAIN (1, 0) FAR  w(0) 3710.
	create_child: MAIN (0, 2) FAR 8361 U 0.00
expand: MAIN (0, 0) FAR  w(0) 8361
This proof contains 0 Farkas lemmas. 0 Farkas lemmas participate in the lowest cut
. F 0.00
expand: MAIN (1, 0) FAR  w(0) 3710.
	create_child: MAIN (0, 2) FAR 8484 U 0.00
expand: MAIN (0, 0) FAR  w(0) 8484
This proof contains 0 Farkas lemmas. 0 Farkas lemmas participate in the lowest cut
. F 0.00
expand: MAIN (1, 0) FAR  w(0) 3710.
	create_child: MAIN (0, 2) FAR 8596 U 0.00
expand: MAIN (0, 0) FAR  w(0) 8596
This proof contains 0 Farkas lemmas. 0 Farkas lemmas participate in the lowest cut
. F 0.00
expand: MAIN (1, 0) FAR  w(0) 3710.
	create_child: MAIN (0, 2) FAR 8634 U 0.00
expand: MAIN (0, 0) FAR  w(0) 8634
This proof contains 0 Farkas lemmas. 0 Farkas lemmas participate in the lowest cut
. F 0.00
expand: MAIN (1, 0) FAR  w(0) 3710.
	create_child: MAIN (0, 2) FAR 8750 U 0.00
expand: MAIN (0, 0) FAR  w(0) 8750
This proof contains 1 Farkas lemmas. 0 Farkas lemmas participate in the lowest cut
. F 0.00
expand: MAIN (1, 0) FAR  w(0) 3710.
	create_child: MAIN (0, 2) FAR 8897 U 0.00
expand: MAIN (0, 0) FAR  w(0) 8897
This proof contains 1 Farkas lemmas. 0 Farkas lemmas participate in the lowest cut
. F 0.00
expand: MAIN (1, 0) FAR  w(0) 3710.
	create_child: MAIN (0, 2) FAR 9179 U 0.00
expand: MAIN (0, 0) FAR  w(0) 9179
This proof contains 0 Farkas lemmas. 0 Farkas lemmas participate in the lowest cut
. F 0.00
expand: MAIN (1, 0) FAR  w(0) 3710.
	create_child: MAIN (0, 2) FAR 9381 U 0.00
expand: MAIN (0, 0) FAR  w(0) 9381
This proof contains 0 Farkas lemmas. 0 Farkas lemmas participate in the lowest cut
. F 0.00
expand: MAIN (1, 0) FAR  w(0) 3710.
	create_child: MAIN (0, 2) FAR 9567 U 0.00
expand: MAIN (0, 0) FAR  w(0) 9567
This proof contains 0 Farkas lemmas. 0 Farkas lemmas participate in the lowest cut
. F 0.00
expand: MAIN (1, 0) FAR  w(0) 3710
This proof contains 18 Farkas lemmas. 0 Farkas lemmas participate in the lowest cut
. F 0.01
expand: query!0 (2, 0) FAR  w(0) 1
This proof contains 0 Farkas lemmas. 0 Farkas lemmas participate in the lowest cut
. F 0.00
(spacer::context::check_reachability :time 0.04 :before-memory 6.22 :after-memory 6.74)
Propagating: 0 1 2  ! 3 
(spacer::context::propagate :time 0.01 :before-memory 6.74 :after-memory 6.83)
Entering level 3
BRUNCH_STAT max_query_lvl 2
BRUNCH_STAT num_queries 14
BRUNCH_STAT num_reach_queries 0
BRUNCH_STAT num_reach_reuse 0
BRUNCH_STAT inductive_lvl 0
BRUNCH_STAT max_depth 3
BRUNCH_STAT cex_depth 0
expand: query!0 (3, 0) FAR  w(0) 1.
	create_child: MAIN (2, 3) FAR 3710 U 0.00
expand: MAIN (2, 0) FAR  w(0) 3710.
	create_child: MAIN (1, 3) FAR 8596 U 0.00
expand: MAIN (1, 0) FAR  w(0) 8596
This proof contains 0 Farkas lemmas. 0 Farkas lemmas participate in the lowest cut
. F 0.00
expand: MAIN (2, 0) FAR  w(0) 3710
This proof contains 29 Farkas lemmas. 0 Farkas lemmas participate in the lowest cut
. F 0.01
expand: query!0 (3, 0) FAR  w(0) 1
This proof contains 0 Farkas lemmas. 0 Farkas lemmas participate in the lowest cut
. F 0.00
(spacer::context::check_reachability :time 0.02 :before-memory 6.83 :after-memory 7.38)
Propagating: 1 2 3  ! 4 
(spacer::context::propagate :time 0.00 :before-memory 7.38 :after-memory 7.38)
Entering level 4
BRUNCH_STAT max_query_lvl 3
BRUNCH_STAT num_queries 16
BRUNCH_STAT num_reach_queries 0
BRUNCH_STAT num_reach_reuse 0
BRUNCH_STAT inductive_lvl 0
BRUNCH_STAT max_depth 4
BRUNCH_STAT cex_depth 0
expand: query!0 (4, 0) FAR  w(0) 1.
	create_child: MAIN (3, 4) FAR 3710 U 0.00
expand: MAIN (3, 0) FAR  w(0) 3710.
	create_child: MAIN (2, 4) FAR 9381 U 0.00
expand: MAIN (2, 0) FAR  w(0) 9381
This proof contains 0 Farkas lemmas. 0 Farkas lemmas participate in the lowest cut
. F 0.00
expand: MAIN (3, 0) FAR  w(0) 3710.
	create_child: MAIN (2, 4) FAR 14563 U 0.00
expand: MAIN (2, 0) FAR  w(0) 14563
This proof contains 1 Farkas lemmas. 0 Farkas lemmas participate in the lowest cut
. F 0.00
expand: MAIN (3, 0) FAR  w(0) 3710
This proof contains 35 Farkas lemmas. 0 Farkas lemmas participate in the lowest cut
. F 0.01
expand: query!0 (4, 0) FAR  w(0) 1
This proof contains 0 Farkas lemmas. 0 Farkas lemmas participate in the lowest cut
. F 0.00
(spacer::context::check_reachability :time 0.02 :before-memory 7.38 :after-memory 7.71)
Propagating: 2 
(spacer::context::propagate :time 0.00 :before-memory 7.71 :after-memory 7.71)
(define-fun MAIN ((x!0 Int)
 (x!1 Bool)
 (x!2 Int)
 (x!3 Int)
 (x!4 Int)
 (x!5 Int)
 (x!6 Int)
 (x!7 Int)
 (x!8 Bool)
 (x!9 Bool)
 (x!10 Bool)
 (x!11 Int)
 (x!12 Bool)
 (x!13 Bool)) Bool
  (let ((a!1 (not (<= (+ x!3 x!4 x!5 x!6 (* (- 1) x!0)) (- 2))))
        (a!2 (or (= (+ x!2 x!3 x!5 x!6 (* (- 1) x!11)) 0) (not x!9))))
    (and (or a!1 (not (<= x!2 1)))
         x!13
         (not x!10)
         (not x!12)
         (not x!8)
         (not x!1)
         (<= (+ x!6 (* (- 1) x!11)) 0)
         (= (+ x!2 x!3 x!5 x!6 (* (- 1) x!0)) 0)
         (or (>= x!6 0) (not x!9))
         a!2
         (>= (+ x!0
                (* (- 1) x!2)
                (* (- 1) x!3)
                (* (- 1) x!4)
                (* (- 1) x!5)
                (* (- 1) x!6))
             0))))
BRUNCH_STAT max_query_lvl 4
BRUNCH_STAT num_queries 19
BRUNCH_STAT num_reach_queries 0
BRUNCH_STAT num_reach_reuse 0
BRUNCH_STAT inductive_lvl 2
BRUNCH_STAT max_depth 4
BRUNCH_STAT cex_depth 0
(:SPACER-inductive-level               2
 :SPACER-max-depth                     4
 :SPACER-max-query-lvl                 4
 :SPACER-num-invariants                12
 :SPACER-num-lemmas                    24
 :SPACER-num-properties                17
 :SPACER-num-queries                   19
 :added-eqs                            2451
 :arith-add-rows                       1600
 :arith-assert-diseq                   886
 :arith-assert-lower                   1860
 :arith-assert-upper                   2080
 :arith-bound-prop                     251
 :arith-conflicts                      23
 :arith-eq-adapter                     305
 :arith-fixed-eqs                      349
 :arith-offset-eqs                     572
 :arith-pivots                         228
 :bool-inductive-gen                   19
 :bool-inductive-gen-failures          21
 :conflicts                            303
 :decisions                            2350
 :del-clause                           100
 :final-checks                         40
 :minimized-lits                       351
 :mk-bool-var                          796
 :mk-clause                            1874
 :num-checks                           111
 :propagations                         30684
 :time.itp_solver.itp_core             0.02
 :time.spacer.init_rules               0.00
 :time.spacer.init_rules.pt.init       0.00
 :time.spacer.solve                    0.10
 :time.spacer.solve.propagate          0.02
 :time.spacer.solve.reach              0.09
 :time.spacer.solve.reach.children     0.01
 :time.spacer.solve.reach.gen.bool_ind 0.01
 :time.virtual_solver.proof            0.01
 :time.virtual_solver.smt.total        0.07
 :time.virtual_solver.smt.total.sat    0.03
 :virtual_solver.checks                111
 :virtual_solver.checks.sat            40)
BRUNCH_STAT max_query_lvl 4
BRUNCH_STAT num_queries 19
BRUNCH_STAT num_reach_queries 0
BRUNCH_STAT num_reach_reuse 0
BRUNCH_STAT inductive_lvl 2
BRUNCH_STAT max_depth 4
BRUNCH_STAT cex_depth 0

real	0m0.156s
user	0m0.140s
sys	0m0.012s
