(transform N7datalog13mk_coi_filterE...no-op 0s)
(transform N7datalog25mk_interp_tail_simplifierE...12 rules 0s)
(transform N7datalog27mk_quantifier_instantiationE...no-op 0s)
(transform N7datalog8mk_scaleE...no-op 0s)
(transform N7datalog18mk_karr_invariantsE...no-op 0s)
(transform N7datalog14mk_array_blastE...no-op 0s)
(transform N7datalog22mk_subsumption_checkerE...11 rules 0s)
(transform N7datalog12mk_bit_blastE...no-op 0s)
(transform N7datalog15mk_rule_inlinerE...3 rules 0.00313547s)
(transform N7datalog13mk_coi_filterE...no-op 0s)
(transform N7datalog25mk_interp_tail_simplifierE...3 rules 0s)
(transform N7datalog22mk_subsumption_checkerE...no-op 0s)
(transform N7datalog15mk_rule_inlinerE...no-op 0s)
(transform N7datalog13mk_coi_filterE...no-op 0s)
(transform N7datalog25mk_interp_tail_simplifierE...3 rules 0s)
(transform N7datalog22mk_subsumption_checkerE...no-op 0s)
(transform N7datalog15mk_rule_inlinerE...no-op 0s)
(transform N7datalog22mk_subsumption_checkerE...no-op 0s)
(transform N7datalog15mk_rule_inlinerE...no-op 0s)
(transform N7datalog22mk_subsumption_checkerE...no-op 0s)
(transform N7datalog15mk_rule_inlinerE...no-op 0s)
(transform N7datalog22mk_subsumption_checkerE...no-op 0s)
(transform N7datalog8mk_sliceE...no-op 0s)
expand: query!0 (0, 0) FAR  w(0) 1
This proof contains 0 Farkas lemmas. 0 Farkas lemmas participate in the lowest cut
. F 0.00
(spacer::context::check_reachability :time 0.00 :before-memory 4.59 :after-memory 4.95)
Entering level 1
BRUNCH_STAT max_query_lvl 0
BRUNCH_STAT num_queries 0
BRUNCH_STAT num_reach_queries 0
BRUNCH_STAT num_reach_reuse 0
BRUNCH_STAT inductive_lvl 0
BRUNCH_STAT max_depth 1
BRUNCH_STAT cex_depth 0
expand: query!0 (1, 0) FAR  w(0) 1.
	create_child: MAIN (0, 1) FAR 3170 U 0.00
expand: MAIN (0, 0) FAR  w(0) 3170
This proof contains 1 Farkas lemmas. 0 Farkas lemmas participate in the lowest cut
. F 0.00
expand: query!0 (1, 0) FAR  w(0) 1
This proof contains 0 Farkas lemmas. 0 Farkas lemmas participate in the lowest cut
. F 0.00
(spacer::context::check_reachability :time 0.00 :before-memory 4.95 :after-memory 5.86)
Propagating: 0 1  ! 2 
(spacer::context::propagate :time 0.00 :before-memory 5.86 :after-memory 5.86)
Entering level 2
BRUNCH_STAT max_query_lvl 1
BRUNCH_STAT num_queries 1
BRUNCH_STAT num_reach_queries 0
BRUNCH_STAT num_reach_reuse 0
BRUNCH_STAT inductive_lvl 0
BRUNCH_STAT max_depth 2
BRUNCH_STAT cex_depth 0
expand: query!0 (2, 0) FAR  w(0) 1.
	create_child: MAIN (1, 2) FAR 3170 U 0.00
expand: MAIN (1, 0) FAR  w(0) 3170.
	create_child: MAIN (0, 2) FAR 5886 U 0.00
expand: MAIN (0, 0) FAR  w(0) 5886
This proof contains 0 Farkas lemmas. 0 Farkas lemmas participate in the lowest cut
. F 0.00
expand: MAIN (1, 0) FAR  w(0) 3170.
	create_child: MAIN (0, 2) FAR 6059 U 0.00
expand: MAIN (0, 0) FAR  w(0) 6059
This proof contains 0 Farkas lemmas. 0 Farkas lemmas participate in the lowest cut
. F 0.00
expand: MAIN (1, 0) FAR  w(0) 3170.
	create_child: MAIN (0, 2) FAR 6253 U 0.00
expand: MAIN (0, 0) FAR  w(0) 6253
This proof contains 0 Farkas lemmas. 0 Farkas lemmas participate in the lowest cut
. F 0.00
expand: MAIN (1, 0) FAR  w(0) 3170
This proof contains 3 Farkas lemmas. 0 Farkas lemmas participate in the lowest cut
. F 0.00
expand: query!0 (2, 0) FAR  w(0) 1
This proof contains 0 Farkas lemmas. 0 Farkas lemmas participate in the lowest cut
. F 0.00
(spacer::context::check_reachability :time 0.01 :before-memory 5.86 :after-memory 6.22)
Propagating: 0 1 2  ! 3 
(spacer::context::propagate :time 0.00 :before-memory 6.22 :after-memory 6.22)
Entering level 3
BRUNCH_STAT max_query_lvl 2
BRUNCH_STAT num_queries 5
BRUNCH_STAT num_reach_queries 0
BRUNCH_STAT num_reach_reuse 0
BRUNCH_STAT inductive_lvl 0
BRUNCH_STAT max_depth 3
BRUNCH_STAT cex_depth 0
expand: query!0 (3, 0) FAR  w(0) 1.
	create_child: MAIN (2, 3) FAR 3170 U 0.00
expand: MAIN (2, 0) FAR  w(0) 3170.
	create_child: MAIN (1, 3) FAR 6606 U 0.00
expand: MAIN (1, 0) FAR  w(0) 6606
This proof contains 1 Farkas lemmas. 0 Farkas lemmas participate in the lowest cut
. F 0.00
expand: MAIN (2, 0) FAR  w(0) 3170.
	create_child: MAIN (1, 3) FAR 6467 U 0.00
expand: MAIN (1, 0) FAR  w(0) 6467
This proof contains 1 Farkas lemmas. 0 Farkas lemmas participate in the lowest cut
. F 0.00
expand: MAIN (2, 0) FAR  w(0) 3170
This proof contains 4 Farkas lemmas. 0 Farkas lemmas participate in the lowest cut
. F 0.00
expand: query!0 (3, 0) FAR  w(0) 1
This proof contains 0 Farkas lemmas. 0 Farkas lemmas participate in the lowest cut
. F 0.00
(spacer::context::check_reachability :time 0.01 :before-memory 6.22 :after-memory 6.32)
Propagating: 1 2 3  ! 4 
(spacer::context::propagate :time 0.00 :before-memory 6.32 :after-memory 6.32)
Entering level 4
BRUNCH_STAT max_query_lvl 3
BRUNCH_STAT num_queries 8
BRUNCH_STAT num_reach_queries 0
BRUNCH_STAT num_reach_reuse 0
BRUNCH_STAT inductive_lvl 0
BRUNCH_STAT max_depth 4
BRUNCH_STAT cex_depth 0
expand: query!0 (4, 0) FAR  w(0) 1.
	create_child: MAIN (3, 4) FAR 3170 U 0.00
expand: MAIN (3, 0) FAR  w(0) 3170.
	create_child: MAIN (2, 4) FAR 6467 U 0.00
expand: MAIN (2, 0) FAR  w(0) 6467.
	create_child: MAIN (1, 4) FAR 7072 U 0.00
expand: MAIN (1, 0) FAR  w(0) 7072.
	create_child: MAIN (0, 4) FAR 7024 U 0.00
expand: MAIN (0, 0) FAR  w(0) 7024
This proof contains 0 Farkas lemmas. 0 Farkas lemmas participate in the lowest cut
. F 0.00
expand: MAIN (1, 0) FAR  w(0) 7072
This proof contains 2 Farkas lemmas. 0 Farkas lemmas participate in the lowest cut
. F 0.00
expand: MAIN (2, 0) FAR  w(0) 6467.
	create_child: MAIN (1, 4) FAR 7752 U 0.00
expand: MAIN (1, 0) FAR  w(0) 7752
This proof contains 1 Farkas lemmas. 0 Farkas lemmas participate in the lowest cut
. F 0.00
expand: MAIN (2, 0) FAR  w(0) 6467
This proof contains 5 Farkas lemmas. 0 Farkas lemmas participate in the lowest cut
. F 0.00
expand: MAIN (3, 0) FAR  w(0) 3170.
	create_child: MAIN (2, 4) FAR 6253 U 0.00
expand: MAIN (2, 0) FAR  w(0) 6253
This proof contains 2 Farkas lemmas. 0 Farkas lemmas participate in the lowest cut
. F 0.00
expand: MAIN (3, 0) FAR  w(0) 3170.
	create_child: MAIN (2, 4) FAR 8505 U 0.00
expand: MAIN (2, 0) FAR  w(0) 8505.
	create_child: MAIN (1, 4) FAR 8539 U 0.00
expand: MAIN (1, 0) FAR  w(0) 8539
This proof contains 1 Farkas lemmas. 0 Farkas lemmas participate in the lowest cut
. F 0.00
expand: MAIN (2, 0) FAR  w(0) 8505
This proof contains 4 Farkas lemmas. 0 Farkas lemmas participate in the lowest cut
. F 0.00
expand: MAIN (3, 0) FAR  w(0) 3170
This proof contains 5 Farkas lemmas. 0 Farkas lemmas participate in the lowest cut
. F 0.00
expand: query!0 (4, 0) FAR  w(0) 1
This proof contains 0 Farkas lemmas. 0 Farkas lemmas participate in the lowest cut
. F 0.00
(spacer::context::check_reachability :time 0.03 :before-memory 6.32 :after-memory 6.53)
Propagating: 0 1 2 3 4  ! 5 
(spacer::context::propagate :time 0.01 :before-memory 6.53 :after-memory 6.53)
Entering level 5
BRUNCH_STAT max_query_lvl 4
BRUNCH_STAT num_queries 16
BRUNCH_STAT num_reach_queries 0
BRUNCH_STAT num_reach_reuse 0
BRUNCH_STAT inductive_lvl 0
BRUNCH_STAT max_depth 5
BRUNCH_STAT cex_depth 0
expand: query!0 (5, 0) FAR  w(0) 1.
	create_child: MAIN (4, 5) FAR 3170 U 0.00
expand: MAIN (4, 0) FAR  w(0) 3170.
	create_child: MAIN (3, 5) FAR 6467 U 0.00
expand: MAIN (3, 0) FAR  w(0) 6467.
	create_child: MAIN (2, 5) FAR 7072 U 0.00
expand: MAIN (2, 0) FAR  w(0) 7072
This proof contains 2 Farkas lemmas. 0 Farkas lemmas participate in the lowest cut
. F 0.00
expand: MAIN (3, 0) FAR  w(0) 6467
This proof contains 6 Farkas lemmas. 0 Farkas lemmas participate in the lowest cut
. F 0.00
expand: MAIN (4, 0) FAR  w(0) 3170.
	create_child: MAIN (3, 5) FAR 8505 U 0.00
expand: MAIN (3, 0) FAR  w(0) 8505.
	create_child: MAIN (2, 5) FAR 8539 U 0.00
expand: MAIN (2, 0) FAR  w(0) 8539
This proof contains 5 Farkas lemmas. 0 Farkas lemmas participate in the lowest cut
. F 0.01
expand: MAIN (3, 0) FAR  w(0) 8505
This proof contains 7 Farkas lemmas. 0 Farkas lemmas participate in the lowest cut
. F 0.00
expand: MAIN (4, 0) FAR  w(0) 3170.
	create_child: MAIN (3, 5) FAR 10943 U 0.00
expand: MAIN (3, 0) FAR  w(0) 10943
This proof contains 1 Farkas lemmas. 0 Farkas lemmas participate in the lowest cut
. F 0.00
expand: MAIN (4, 0) FAR  w(0) 3170.
	create_child: MAIN (3, 5) FAR 6253 U 0.00
expand: MAIN (3, 0) FAR  w(0) 6253
This proof contains 2 Farkas lemmas. 0 Farkas lemmas participate in the lowest cut
. F 0.00
expand: MAIN (4, 0) FAR  w(0) 3170
This proof contains 11 Farkas lemmas. 0 Farkas lemmas participate in the lowest cut
. F 0.00
expand: query!0 (5, 0) FAR  w(0) 1
This proof contains 0 Farkas lemmas. 0 Farkas lemmas participate in the lowest cut
. F 0.00
(spacer::context::check_reachability :time 0.03 :before-memory 6.53 :after-memory 6.77)
Propagating: 2 3 4 5  ! 6 
(spacer::context::propagate :time 0.00 :before-memory 6.77 :after-memory 6.77)
Entering level 6
BRUNCH_STAT max_query_lvl 5
BRUNCH_STAT num_queries 23
BRUNCH_STAT num_reach_queries 0
BRUNCH_STAT num_reach_reuse 0
BRUNCH_STAT inductive_lvl 0
BRUNCH_STAT max_depth 6
BRUNCH_STAT cex_depth 0
expand: query!0 (6, 0) FAR  w(0) 1.
	create_child: MAIN (5, 6) FAR 3170 U 0.00
expand: MAIN (5, 0) FAR  w(0) 3170.
	create_child: MAIN (4, 6) FAR 6467 U 0.00
expand: MAIN (4, 0) FAR  w(0) 6467.
	create_child: MAIN (3, 6) FAR 7072 U 0.00
expand: MAIN (3, 0) FAR  w(0) 7072
This proof contains 5 Farkas lemmas. 0 Farkas lemmas participate in the lowest cut
. F 0.00
expand: MAIN (4, 0) FAR  w(0) 6467
This proof contains 11 Farkas lemmas. 0 Farkas lemmas participate in the lowest cut
. F 0.00
expand: MAIN (5, 0) FAR  w(0) 3170.
	create_child: MAIN (4, 6) FAR 6253 U 0.00
expand: MAIN (4, 0) FAR  w(0) 6253
This proof contains 4 Farkas lemmas. 0 Farkas lemmas participate in the lowest cut
. F 0.00
expand: MAIN (5, 0) FAR  w(0) 3170.
	create_child: MAIN (4, 6) FAR 8505 U 0.00
expand: MAIN (4, 0) FAR  w(0) 8505.
	create_child: MAIN (3, 6) FAR 8539 U 0.00
expand: MAIN (3, 0) FAR  w(0) 8539
This proof contains 5 Farkas lemmas. 0 Farkas lemmas participate in the lowest cut
. F 0.00
expand: MAIN (4, 0) FAR  w(0) 8505
This proof contains 10 Farkas lemmas. 0 Farkas lemmas participate in the lowest cut
. F 0.00
expand: MAIN (5, 0) FAR  w(0) 3170
This proof contains 11 Farkas lemmas. 0 Farkas lemmas participate in the lowest cut
. F 0.00
expand: query!0 (6, 0) FAR  w(0) 1
This proof contains 0 Farkas lemmas. 0 Farkas lemmas participate in the lowest cut
. F 0.00
(spacer::context::check_reachability :time 0.03 :before-memory 6.77 :after-memory 7.23)
Propagating: 3 4 5 6  ! 7 
(spacer::context::propagate :time 0.00 :before-memory 7.23 :after-memory 7.23)
Entering level 7
BRUNCH_STAT max_query_lvl 6
BRUNCH_STAT num_queries 29
BRUNCH_STAT num_reach_queries 0
BRUNCH_STAT num_reach_reuse 0
BRUNCH_STAT inductive_lvl 0
BRUNCH_STAT max_depth 7
BRUNCH_STAT cex_depth 0
expand: query!0 (7, 0) FAR  w(0) 1.
	create_child: MAIN (6, 7) FAR 3170 U 0.00
expand: MAIN (6, 0) FAR  w(0) 3170.
	create_child: MAIN (5, 7) FAR 6253 U 0.00
expand: MAIN (5, 0) FAR  w(0) 6253.
	create_child: MAIN (4, 7) FAR 13250 U 0.00
expand: MAIN (4, 0) FAR  w(0) 13250
This proof contains 5 Farkas lemmas. 0 Farkas lemmas participate in the lowest cut
. F 0.00
expand: MAIN (5, 0) FAR  w(0) 6253
This proof contains 13 Farkas lemmas. 0 Farkas lemmas participate in the lowest cut
. F 0.00
expand: MAIN (6, 0) FAR  w(0) 3170.
	create_child: MAIN (5, 7) FAR 8505 U 0.00
expand: MAIN (5, 0) FAR  w(0) 8505.
	create_child: MAIN (4, 7) FAR 13623 U 0.00
expand: MAIN (4, 0) FAR  w(0) 13623.
	create_child: MAIN (3, 7) FAR 13783 U 0.00
expand: MAIN (3, 0) FAR  w(0) 13783
This proof contains 2 Farkas lemmas. 0 Farkas lemmas participate in the lowest cut
. F 0.00
expand: MAIN (4, 0) FAR  w(0) 13623
This proof contains 3 Farkas lemmas. 0 Farkas lemmas participate in the lowest cut
. F 0.00
expand: MAIN (5, 0) FAR  w(0) 8505.
	create_child: MAIN (4, 7) FAR 8539 U 0.00
expand: MAIN (4, 0) FAR  w(0) 8539
This proof contains 12 Farkas lemmas. 0 Farkas lemmas participate in the lowest cut
. F 0.00
expand: MAIN (5, 0) FAR  w(0) 8505
This proof contains 11 Farkas lemmas. 0 Farkas lemmas participate in the lowest cut
. F 0.00
expand: MAIN (6, 0) FAR  w(0) 3170.
	create_child: MAIN (5, 7) FAR 6467 U 0.00
expand: MAIN (5, 0) FAR  w(0) 6467.
	create_child: MAIN (4, 7) FAR 7072 U 0.00
expand: MAIN (4, 0) FAR  w(0) 7072
This proof contains 5 Farkas lemmas. 0 Farkas lemmas participate in the lowest cut
. F 0.00
expand: MAIN (5, 0) FAR  w(0) 6467
This proof contains 12 Farkas lemmas. 0 Farkas lemmas participate in the lowest cut
. F 0.00
expand: MAIN (6, 0) FAR  w(0) 3170
This proof contains 15 Farkas lemmas. 0 Farkas lemmas participate in the lowest cut
. F 0.00
expand: query!0 (7, 0) FAR  w(0) 1
This proof contains 0 Farkas lemmas. 0 Farkas lemmas participate in the lowest cut
. F 0.00
(spacer::context::check_reachability :time 0.04 :before-memory 7.23 :after-memory 7.47)
Propagating: 3 4 5 6 7  ! 8 
(spacer::context::propagate :time 0.01 :before-memory 7.47 :after-memory 7.47)
Entering level 8
BRUNCH_STAT max_query_lvl 7
BRUNCH_STAT num_queries 38
BRUNCH_STAT num_reach_queries 0
BRUNCH_STAT num_reach_reuse 0
BRUNCH_STAT inductive_lvl 0
BRUNCH_STAT max_depth 8
BRUNCH_STAT cex_depth 0
expand: query!0 (8, 0) FAR  w(0) 1.
	create_child: MAIN (7, 8) FAR 3170 U 0.00
expand: MAIN (7, 0) FAR  w(0) 3170.
	create_child: MAIN (6, 8) FAR 8505 U 0.00
expand: MAIN (6, 0) FAR  w(0) 8505.
	create_child: MAIN (5, 8) FAR 8539 U 0.00
expand: MAIN (5, 0) FAR  w(0) 8539.
	create_child: MAIN (4, 8) FAR 15808 U 0.00
expand: MAIN (4, 0) FAR  w(0) 15808
This proof contains 2 Farkas lemmas. 0 Farkas lemmas participate in the lowest cut
. F 0.00
expand: MAIN (5, 0) FAR  w(0) 8539
This proof contains 15 Farkas lemmas. 0 Farkas lemmas participate in the lowest cut
. F 0.00
expand: MAIN (6, 0) FAR  w(0) 8505
This proof contains 12 Farkas lemmas. 0 Farkas lemmas participate in the lowest cut
. F 0.00
expand: MAIN (7, 0) FAR  w(0) 3170
This proof contains 17 Farkas lemmas. 0 Farkas lemmas participate in the lowest cut
. F 0.00
expand: query!0 (8, 0) FAR  w(0) 1
This proof contains 0 Farkas lemmas. 0 Farkas lemmas participate in the lowest cut
. F 0.00
(spacer::context::check_reachability :time 0.02 :before-memory 7.47 :after-memory 7.60)
Propagating: 4 5 6 7 8  ! 9 
(spacer::context::propagate :time 0.01 :before-memory 7.60 :after-memory 7.60)
Entering level 9
BRUNCH_STAT max_query_lvl 8
BRUNCH_STAT num_queries 42
BRUNCH_STAT num_reach_queries 0
BRUNCH_STAT num_reach_reuse 0
BRUNCH_STAT inductive_lvl 0
BRUNCH_STAT max_depth 9
BRUNCH_STAT cex_depth 0
expand: query!0 (9, 0) FAR  w(0) 1.
	create_child: MAIN (8, 9) FAR 3170 U 0.00
expand: MAIN (8, 0) FAR  w(0) 3170.
	create_child: MAIN (7, 9) FAR 8505 U 0.00
expand: MAIN (7, 0) FAR  w(0) 8505.
	create_child: MAIN (6, 9) FAR 13623 U 0.00
expand: MAIN (6, 0) FAR  w(0) 13623.
	create_child: MAIN (5, 9) FAR 13783 U 0.00
expand: MAIN (5, 0) FAR  w(0) 13783.
	create_child: MAIN (4, 9) FAR 16770 U 0.00
expand: MAIN (4, 0) FAR  w(0) 16770
This proof contains 4 Farkas lemmas. 0 Farkas lemmas participate in the lowest cut
. F 0.00
expand: MAIN (5, 0) FAR  w(0) 13783
This proof contains 10 Farkas lemmas. 0 Farkas lemmas participate in the lowest cut
. F 0.00
expand: MAIN (6, 0) FAR  w(0) 13623
This proof contains 3 Farkas lemmas. 0 Farkas lemmas participate in the lowest cut
. F 0.00
expand: MAIN (7, 0) FAR  w(0) 8505.
	create_child: MAIN (6, 9) FAR 8539 U 0.00
expand: MAIN (6, 0) FAR  w(0) 8539.
	create_child: MAIN (5, 9) FAR 15808 U 0.00
expand: MAIN (5, 0) FAR  w(0) 15808
This proof contains 14 Farkas lemmas. 0 Farkas lemmas participate in the lowest cut
. F 0.00
expand: MAIN (6, 0) FAR  w(0) 8539
This proof contains 16 Farkas lemmas. 0 Farkas lemmas participate in the lowest cut
. F 0.01
expand: MAIN (7, 0) FAR  w(0) 8505
This proof contains 10 Farkas lemmas. 0 Farkas lemmas participate in the lowest cut
. F 0.00
expand: MAIN (8, 0) FAR  w(0) 3170
This proof contains 18 Farkas lemmas. 0 Farkas lemmas participate in the lowest cut
. F 0.00
expand: query!0 (9, 0) FAR  w(0) 1
This proof contains 0 Farkas lemmas. 0 Farkas lemmas participate in the lowest cut
. F 0.00
(spacer::context::check_reachability :time 0.04 :before-memory 7.60 :after-memory 7.80)
Propagating: 4 5 6 7 8 9  ! 10 
(spacer::context::propagate :time 0.01 :before-memory 7.80 :after-memory 7.80)
Entering level 10
BRUNCH_STAT max_query_lvl 9
BRUNCH_STAT num_queries 49
BRUNCH_STAT num_reach_queries 0
BRUNCH_STAT num_reach_reuse 0
BRUNCH_STAT inductive_lvl 0
BRUNCH_STAT max_depth 10
BRUNCH_STAT cex_depth 0
expand: query!0 (10, 0) FAR  w(0) 1.
	create_child: MAIN (9, 10) FAR 3170 U 0.00
expand: MAIN (9, 0) FAR  w(0) 3170.
	create_child: MAIN (8, 10) FAR 8505 U 0.00
expand: MAIN (8, 0) FAR  w(0) 8505.
	create_child: MAIN (7, 10) FAR 13623 U 0.00
expand: MAIN (7, 0) FAR  w(0) 13623.
	create_child: MAIN (6, 10) FAR 13783 U 0.00
expand: MAIN (6, 0) FAR  w(0) 13783.
	create_child: MAIN (5, 10) FAR 16770 U 0.00
expand: MAIN (5, 0) FAR  w(0) 16770.
	create_child: MAIN (4, 10) FAR 19333 U 0.00
expand: MAIN (4, 0) FAR  w(0) 19333
This proof contains 6 Farkas lemmas. 0 Farkas lemmas participate in the lowest cut
. F 0.00
expand: MAIN (5, 0) FAR  w(0) 16770
This proof contains 10 Farkas lemmas. 0 Farkas lemmas participate in the lowest cut
. F 0.00
expand: MAIN (6, 0) FAR  w(0) 13783
This proof contains 11 Farkas lemmas. 0 Farkas lemmas participate in the lowest cut
. F 0.01
expand: MAIN (7, 0) FAR  w(0) 13623
This proof contains 4 Farkas lemmas. 0 Farkas lemmas participate in the lowest cut
. F 0.00
expand: MAIN (8, 0) FAR  w(0) 8505.
	create_child: MAIN (7, 10) FAR 8539 U 0.00
expand: MAIN (7, 0) FAR  w(0) 8539.
	create_child: MAIN (6, 10) FAR 15808 U 0.00
expand: MAIN (6, 0) FAR  w(0) 15808
This proof contains 15 Farkas lemmas. 0 Farkas lemmas participate in the lowest cut
. F 0.00
expand: MAIN (7, 0) FAR  w(0) 8539
This proof contains 17 Farkas lemmas. 0 Farkas lemmas participate in the lowest cut
. F 0.01
expand: MAIN (8, 0) FAR  w(0) 8505
This proof contains 15 Farkas lemmas. 0 Farkas lemmas participate in the lowest cut
. F 0.00
expand: MAIN (9, 0) FAR  w(0) 3170
This proof contains 18 Farkas lemmas. 0 Farkas lemmas participate in the lowest cut
. F 0.00
expand: query!0 (10, 0) FAR  w(0) 1
This proof contains 0 Farkas lemmas. 0 Farkas lemmas participate in the lowest cut
. F 0.00
(spacer::context::check_reachability :time 0.05 :before-memory 7.80 :after-memory 8.20)
Propagating: 4 5 6 7 8 9 10  ! 11 
(spacer::context::propagate :time 0.02 :before-memory 8.20 :after-memory 8.20)
Entering level 11
BRUNCH_STAT max_query_lvl 10
BRUNCH_STAT num_queries 57
BRUNCH_STAT num_reach_queries 0
BRUNCH_STAT num_reach_reuse 0
BRUNCH_STAT inductive_lvl 0
BRUNCH_STAT max_depth 11
BRUNCH_STAT cex_depth 0
expand: query!0 (11, 0) FAR  w(0) 1.
	create_child: MAIN (10, 11) FAR 3170 U 0.00
expand: MAIN (10, 0) FAR  w(0) 3170.
	create_child: MAIN (9, 11) FAR 6253 U 0.00
expand: MAIN (9, 0) FAR  w(0) 6253.
	create_child: MAIN (8, 11) FAR 13250 U 0.00
expand: MAIN (8, 0) FAR  w(0) 13250
This proof contains 4 Farkas lemmas. 0 Farkas lemmas participate in the lowest cut
. F 0.00
expand: MAIN (9, 0) FAR  w(0) 6253
This proof contains 17 Farkas lemmas. 0 Farkas lemmas participate in the lowest cut
. F 0.00
expand: MAIN (10, 0) FAR  w(0) 3170
This proof contains 15 Farkas lemmas. 0 Farkas lemmas participate in the lowest cut
. F 0.00
expand: query!0 (11, 0) FAR  w(0) 1
This proof contains 0 Farkas lemmas. 0 Farkas lemmas participate in the lowest cut
. F 0.00
(spacer::context::check_reachability :time 0.01 :before-memory 8.20 :after-memory 8.42)
Propagating: 8 9 10 11  ! 12 
(spacer::context::propagate :time 0.01 :before-memory 8.42 :after-memory 8.42)
Entering level 12
BRUNCH_STAT max_query_lvl 11
BRUNCH_STAT num_queries 60
BRUNCH_STAT num_reach_queries 0
BRUNCH_STAT num_reach_reuse 0
BRUNCH_STAT inductive_lvl 0
BRUNCH_STAT max_depth 12
BRUNCH_STAT cex_depth 0
expand: query!0 (12, 0) FAR  w(0) 1.
	create_child: MAIN (11, 12) FAR 3170 U 0.00
expand: MAIN (11, 0) FAR  w(0) 3170.
	create_child: MAIN (10, 12) FAR 6253 U 0.00
expand: MAIN (10, 0) FAR  w(0) 6253.
	create_child: MAIN (9, 12) FAR 13250 U 0.00
expand: MAIN (9, 0) FAR  w(0) 13250.
	create_child: MAIN (8, 12) FAR 23853 U 0.00
expand: MAIN (8, 0) FAR  w(0) 23853
This proof contains 3 Farkas lemmas. 0 Farkas lemmas participate in the lowest cut
. F 0.00
expand: MAIN (9, 0) FAR  w(0) 13250
This proof contains 12 Farkas lemmas. 0 Farkas lemmas participate in the lowest cut
. F 0.00
expand: MAIN (10, 0) FAR  w(0) 6253
This proof contains 13 Farkas lemmas. 0 Farkas lemmas participate in the lowest cut
. F 0.00
expand: MAIN (11, 0) FAR  w(0) 3170.
	create_child: MAIN (10, 12) FAR 8505 U 0.00
expand: MAIN (10, 0) FAR  w(0) 8505.
	create_child: MAIN (9, 12) FAR 13623 U 0.00
expand: MAIN (9, 0) FAR  w(0) 13623.
	create_child: MAIN (8, 12) FAR 24506 U 0.00
expand: MAIN (8, 0) FAR  w(0) 24506.
	create_child: MAIN (7, 12) FAR 24401 U 0.00
expand: MAIN (7, 0) FAR  w(0) 24401.
	create_child: MAIN (6, 12) FAR 24533 U 0.00
expand: MAIN (6, 0) FAR  w(0) 24533.
	create_child: MAIN (5, 12) FAR 24405 U 0.00
expand: MAIN (5, 0) FAR  w(0) 24405.
	create_child: MAIN (4, 12) FAR 24495 U 0.00
expand: MAIN (4, 0) FAR  w(0) 24495
This proof contains 2 Farkas lemmas. 0 Farkas lemmas participate in the lowest cut
. F 0.00
expand: MAIN (5, 0) FAR  w(0) 24405
This proof contains 11 Farkas lemmas. 0 Farkas lemmas participate in the lowest cut
. F 0.01
expand: MAIN (6, 0) FAR  w(0) 24533
This proof contains 11 Farkas lemmas. 0 Farkas lemmas participate in the lowest cut
. F 0.00
expand: MAIN (7, 0) FAR  w(0) 24401
This proof contains 2 Farkas lemmas. 0 Farkas lemmas participate in the lowest cut
. F 0.00
expand: MAIN (8, 0) FAR  w(0) 24506
This proof contains 3 Farkas lemmas. 0 Farkas lemmas participate in the lowest cut
. F 0.00
expand: MAIN (9, 0) FAR  w(0) 13623.
	create_child: MAIN (8, 12) FAR 13783 U 0.00
expand: MAIN (8, 0) FAR  w(0) 13783.
	create_child: MAIN (7, 12) FAR 16770 U 0.00
expand: MAIN (7, 0) FAR  w(0) 16770.
	create_child: MAIN (6, 12) FAR 19333 U 0.00
expand: MAIN (6, 0) FAR  w(0) 19333
This proof contains 10 Farkas lemmas. 0 Farkas lemmas participate in the lowest cut
. F 0.00
expand: MAIN (7, 0) FAR  w(0) 16770
This proof contains 9 Farkas lemmas. 0 Farkas lemmas participate in the lowest cut
. F 0.01
expand: MAIN (8, 0) FAR  w(0) 13783
This proof contains 17 Farkas lemmas. 0 Farkas lemmas participate in the lowest cut
. F 0.01
expand: MAIN (9, 0) FAR  w(0) 13623
This proof contains 15 Farkas lemmas. 0 Farkas lemmas participate in the lowest cut
. F 0.01
expand: MAIN (10, 0) FAR  w(0) 8505.
	create_child: MAIN (9, 12) FAR 8539 U 0.00
expand: MAIN (9, 0) FAR  w(0) 8539.
	create_child: MAIN (8, 12) FAR 15808 U 0.00
expand: MAIN (8, 0) FAR  w(0) 15808
This proof contains 15 Farkas lemmas. 0 Farkas lemmas participate in the lowest cut
. F 0.00
expand: MAIN (9, 0) FAR  w(0) 8539
This proof contains 16 Farkas lemmas. 0 Farkas lemmas participate in the lowest cut
. F 0.01
expand: MAIN (10, 0) FAR  w(0) 8505
This proof contains 14 Farkas lemmas. 0 Farkas lemmas participate in the lowest cut
. F 0.00
expand: MAIN (11, 0) FAR  w(0) 3170
This proof contains 16 Farkas lemmas. 0 Farkas lemmas participate in the lowest cut
. F 0.00
expand: query!0 (12, 0) FAR  w(0) 1
This proof contains 0 Farkas lemmas. 0 Farkas lemmas participate in the lowest cut
. F 0.00
(spacer::context::check_reachability :time 0.10 :before-memory 8.42 :after-memory 9.33)
Propagating: 4 
(spacer::context::propagate :time 0.00 :before-memory 9.33 :after-memory 9.33)
(define-fun MAIN ((x!0 Int)
 (x!1 Int)
 (x!2 Int)
 (x!3 Int)
 (x!4 Int)
 (x!5 Int)
 (x!6 Bool)
 (x!7 Bool)
 (x!8 Bool)
 (x!9 Bool)) Bool
  (let ((a!1 (or (not (>= (+ x!0 x!1) 3)) (not x!7) (not (>= x!1 2))))
        (a!2 (or (not (>= (+ x!0 x!1) 2)) (not x!7) (<= x!3 0) (<= x!1 0))))
    (and (or (not (>= x!1 3)) (not x!7))
         x!9
         (not x!8)
         (<= x!2 0)
         (or (<= (+ x!0 x!1) 0) (not x!7) (not (>= x!3 2)))
         (or (not (>= x!0 2)) (not x!7) (not (>= x!3 2)))
         (or (not (>= x!3 3)) (not x!7))
         a!1
         (or (not (>= x!1 2)) (not x!7) (<= x!3 0))
         (or (<= x!1 0) (not x!7) (not (>= x!3 2)))
         a!2)))
BRUNCH_STAT max_query_lvl 12
BRUNCH_STAT num_queries 76
BRUNCH_STAT num_reach_queries 0
BRUNCH_STAT num_reach_reuse 0
BRUNCH_STAT inductive_lvl 4
BRUNCH_STAT max_depth 12
BRUNCH_STAT cex_depth 0
(:SPACER-inductive-level               4
 :SPACER-max-depth                     12
 :SPACER-max-query-lvl                 12
 :SPACER-num-invariants                35
 :SPACER-num-lemmas                    89
 :SPACER-num-properties                23
 :SPACER-num-queries                   76
 :added-eqs                            9362
 :arith-add-rows                       2512
 :arith-assert-diseq                   6848
 :arith-assert-lower                   14812
 :arith-assert-upper                   13112
 :arith-bound-prop                     331
 :arith-conflicts                      24
 :arith-eq-adapter                     1870
 :arith-fixed-eqs                      1748
 :arith-offset-eqs                     600
 :arith-pivots                         1690
 :bool-inductive-gen                   76
 :bool-inductive-gen-failures          196
 :conflicts                            690
 :decisions                            36092
 :del-clause                           633
 :final-checks                         380
 :minimized-lits                       863
 :mk-bool-var                          4723
 :mk-clause                            3061
 :num-checks                           717
 :propagations                         188869
 :time.itp_solver.itp_core             0.08
 :time.spacer.init_rules               0.00
 :time.spacer.init_rules.pt.init       0.00
 :time.spacer.solve                    0.46
 :time.spacer.solve.propagate          0.09
 :time.spacer.solve.reach              0.37
 :time.spacer.solve.reach.children     0.04
 :time.spacer.solve.reach.gen.bool_ind 0.13
 :time.virtual_solver.proof            0.04
 :time.virtual_solver.smt.total        0.31
 :time.virtual_solver.smt.total.sat    0.22
 :virtual_solver.checks                717
 :virtual_solver.checks.sat            380)
BRUNCH_STAT max_query_lvl 12
BRUNCH_STAT num_queries 76
BRUNCH_STAT num_reach_queries 0
BRUNCH_STAT num_reach_reuse 0
BRUNCH_STAT inductive_lvl 4
BRUNCH_STAT max_depth 12
BRUNCH_STAT cex_depth 0

real	0m0.506s
user	0m0.484s
sys	0m0.020s
