(transform N7datalog13mk_coi_filterE...no-op 0s)
(transform N7datalog25mk_interp_tail_simplifierE...14 rules 0s)
(transform N7datalog27mk_quantifier_instantiationE...no-op 0s)
(transform N7datalog8mk_scaleE...no-op 0s)
(transform N7datalog18mk_karr_invariantsE...no-op 0s)
(transform N7datalog14mk_array_blastE...no-op 0s)
(transform N7datalog22mk_subsumption_checkerE...13 rules 0s)
(transform N7datalog12mk_bit_blastE...no-op 0s)
(transform N7datalog15mk_rule_inlinerE...3 rules 0.00371342s)
(transform N7datalog13mk_coi_filterE...no-op 0s)
(transform N7datalog25mk_interp_tail_simplifierE...3 rules 0s)
(transform N7datalog22mk_subsumption_checkerE...no-op 0s)
(transform N7datalog15mk_rule_inlinerE...no-op 0s)
(transform N7datalog13mk_coi_filterE...no-op 0s)
(transform N7datalog25mk_interp_tail_simplifierE...3 rules 0s)
(transform N7datalog22mk_subsumption_checkerE...no-op 0s)
(transform N7datalog15mk_rule_inlinerE...no-op 0s)
(transform N7datalog22mk_subsumption_checkerE...no-op 0s)
(transform N7datalog15mk_rule_inlinerE...no-op 0s)
(transform N7datalog22mk_subsumption_checkerE...no-op 0s)
(transform N7datalog15mk_rule_inlinerE...no-op 0s)
(transform N7datalog22mk_subsumption_checkerE...no-op 0s)
(transform N7datalog8mk_sliceE...no-op 0s)
expand: query!0 (0, 0) FAR  w(0) 1
This proof contains 0 Farkas lemmas. 0 Farkas lemmas participate in the lowest cut
. F 0.00
(spacer::context::check_reachability :time 0.00 :before-memory 4.46 :after-memory 4.99)
Entering level 1
BRUNCH_STAT max_query_lvl 0
BRUNCH_STAT num_queries 0
BRUNCH_STAT num_reach_queries 0
BRUNCH_STAT num_reach_reuse 0
BRUNCH_STAT inductive_lvl 0
BRUNCH_STAT max_depth 1
BRUNCH_STAT cex_depth 0
expand: query!0 (1, 0) FAR  w(0) 1.
	create_child: MAIN (0, 1) FAR 3416 U 0.00
expand: MAIN (0, 0) FAR  w(0) 3416
This proof contains 1 Farkas lemmas. 0 Farkas lemmas participate in the lowest cut
. F 0.00
expand: query!0 (1, 0) FAR  w(0) 1
This proof contains 0 Farkas lemmas. 0 Farkas lemmas participate in the lowest cut
. F 0.00
(spacer::context::check_reachability :time 0.00 :before-memory 4.99 :after-memory 6.08)
Propagating: 0 1  ! 2 
(spacer::context::propagate :time 0.00 :before-memory 6.08 :after-memory 6.08)
Entering level 2
BRUNCH_STAT max_query_lvl 1
BRUNCH_STAT num_queries 1
BRUNCH_STAT num_reach_queries 0
BRUNCH_STAT num_reach_reuse 0
BRUNCH_STAT inductive_lvl 0
BRUNCH_STAT max_depth 2
BRUNCH_STAT cex_depth 0
expand: query!0 (2, 0) FAR  w(0) 1.
	create_child: MAIN (1, 2) FAR 3416 U 0.00
expand: MAIN (1, 0) FAR  w(0) 3416.
	create_child: MAIN (0, 2) FAR 6260 U 0.00
expand: MAIN (0, 0) FAR  w(0) 6260
This proof contains 1 Farkas lemmas. 1 Farkas lemmas participate in the lowest cut
. F 0.00
expand: MAIN (1, 0) FAR  w(0) 3416.
	create_child: MAIN (0, 2) FAR 6427 U 0.00
expand: MAIN (0, 0) FAR  w(0) 6427
This proof contains 0 Farkas lemmas. 0 Farkas lemmas participate in the lowest cut
. F 0.00
expand: MAIN (1, 0) FAR  w(0) 3416.
	create_child: MAIN (0, 2) FAR 6631 U 0.00
expand: MAIN (0, 0) FAR  w(0) 6631
This proof contains 0 Farkas lemmas. 0 Farkas lemmas participate in the lowest cut
. F 0.00
expand: MAIN (1, 0) FAR  w(0) 3416.
	create_child: MAIN (0, 2) FAR 6754 U 0.00
expand: MAIN (0, 0) FAR  w(0) 6754
This proof contains 0 Farkas lemmas. 0 Farkas lemmas participate in the lowest cut
. F 0.00
expand: MAIN (1, 0) FAR  w(0) 3416.
	create_child: MAIN (0, 2) FAR 6745 U 0.00
expand: MAIN (0, 0) FAR  w(0) 6745
This proof contains 0 Farkas lemmas. 0 Farkas lemmas participate in the lowest cut
. F 0.00
expand: MAIN (1, 0) FAR  w(0) 3416.
	create_child: MAIN (0, 2) FAR 7037 U 0.00
expand: MAIN (0, 0) FAR  w(0) 7037
This proof contains 0 Farkas lemmas. 0 Farkas lemmas participate in the lowest cut
. F 0.00
expand: MAIN (1, 0) FAR  w(0) 3416.
	create_child: MAIN (0, 2) FAR 7105 U 0.00
expand: MAIN (0, 0) FAR  w(0) 7105
This proof contains 0 Farkas lemmas. 0 Farkas lemmas participate in the lowest cut
. F 0.00
expand: MAIN (1, 0) FAR  w(0) 3416
This proof contains 4 Farkas lemmas. 0 Farkas lemmas participate in the lowest cut
. F 0.00
expand: query!0 (2, 0) FAR  w(0) 1
This proof contains 0 Farkas lemmas. 0 Farkas lemmas participate in the lowest cut
. F 0.00
(spacer::context::check_reachability :time 0.02 :before-memory 6.08 :after-memory 6.27)
Propagating: 0 1 2  ! 3 
(spacer::context::propagate :time 0.00 :before-memory 6.27 :after-memory 6.27)
Entering level 3
BRUNCH_STAT max_query_lvl 2
BRUNCH_STAT num_queries 9
BRUNCH_STAT num_reach_queries 0
BRUNCH_STAT num_reach_reuse 0
BRUNCH_STAT inductive_lvl 0
BRUNCH_STAT max_depth 3
BRUNCH_STAT cex_depth 0
expand: query!0 (3, 0) FAR  w(0) 1.
	create_child: MAIN (2, 3) FAR 3416 U 0.00
expand: MAIN (2, 0) FAR  w(0) 3416.
	create_child: MAIN (1, 3) FAR 7887 U 0.00
expand: MAIN (1, 0) FAR  w(0) 7887.
	create_child: MAIN (0, 3) FAR 7866 U 0.00
expand: MAIN (0, 0) FAR  w(0) 7866
This proof contains 0 Farkas lemmas. 0 Farkas lemmas participate in the lowest cut
. F 0.00
expand: MAIN (1, 0) FAR  w(0) 7887.
	create_child: MAIN (0, 3) FAR 8015 U 0.00
expand: MAIN (0, 0) FAR  w(0) 8015
This proof contains 1 Farkas lemmas. 1 Farkas lemmas participate in the lowest cut
. F 0.00
expand: MAIN (1, 0) FAR  w(0) 7887
This proof contains 5 Farkas lemmas. 0 Farkas lemmas participate in the lowest cut
. F 0.00
expand: MAIN (2, 0) FAR  w(0) 3416.
	create_child: MAIN (1, 3) FAR 6260 U 0.00
expand: MAIN (1, 0) FAR  w(0) 6260
This proof contains 7 Farkas lemmas. 0 Farkas lemmas participate in the lowest cut
. F 0.00
expand: MAIN (2, 0) FAR  w(0) 3416
This proof contains 5 Farkas lemmas. 0 Farkas lemmas participate in the lowest cut
. F 0.00
expand: query!0 (3, 0) FAR  w(0) 1
This proof contains 0 Farkas lemmas. 0 Farkas lemmas participate in the lowest cut
. F 0.00
(spacer::context::check_reachability :time 0.02 :before-memory 6.27 :after-memory 6.61)
Propagating: 0 1 2 3  ! 4 
(spacer::context::propagate :time 0.00 :before-memory 6.61 :after-memory 6.61)
Entering level 4
BRUNCH_STAT max_query_lvl 3
BRUNCH_STAT num_queries 14
BRUNCH_STAT num_reach_queries 0
BRUNCH_STAT num_reach_reuse 0
BRUNCH_STAT inductive_lvl 0
BRUNCH_STAT max_depth 4
BRUNCH_STAT cex_depth 0
expand: query!0 (4, 0) FAR  w(0) 1.
	create_child: MAIN (3, 4) FAR 3416 U 0.00
expand: MAIN (3, 0) FAR  w(0) 3416.
	create_child: MAIN (2, 4) FAR 6260 U 0.00
expand: MAIN (2, 0) FAR  w(0) 6260.
	create_child: MAIN (1, 4) FAR 9809 U 0.00
expand: MAIN (1, 0) FAR  w(0) 9809
This proof contains 6 Farkas lemmas. 0 Farkas lemmas participate in the lowest cut
. F 0.00
expand: MAIN (2, 0) FAR  w(0) 6260.
	create_child: MAIN (1, 4) FAR 10143 U 0.00
expand: MAIN (1, 0) FAR  w(0) 10143
This proof contains 4 Farkas lemmas. 0 Farkas lemmas participate in the lowest cut
. F 0.00
expand: MAIN (2, 0) FAR  w(0) 6260
This proof contains 11 Farkas lemmas. 0 Farkas lemmas participate in the lowest cut
. F 0.01
expand: MAIN (3, 0) FAR  w(0) 3416.
	create_child: MAIN (2, 4) FAR 11400 U 0.00
expand: MAIN (2, 0) FAR  w(0) 11400
This proof contains 1 Farkas lemmas. 0 Farkas lemmas participate in the lowest cut
. F 0.00
expand: MAIN (3, 0) FAR  w(0) 3416.
	create_child: MAIN (2, 4) FAR 7887 U 0.00
expand: MAIN (2, 0) FAR  w(0) 7887.
	create_child: MAIN (1, 4) FAR 11804 U 0.00
expand: MAIN (1, 0) FAR  w(0) 11804
This proof contains 3 Farkas lemmas. 0 Farkas lemmas participate in the lowest cut
. F 0.00
expand: MAIN (2, 0) FAR  w(0) 7887
This proof contains 8 Farkas lemmas. 0 Farkas lemmas participate in the lowest cut
. F 0.01
expand: MAIN (3, 0) FAR  w(0) 3416
This proof contains 7 Farkas lemmas. 0 Farkas lemmas participate in the lowest cut
. F 0.00
expand: query!0 (4, 0) FAR  w(0) 1
This proof contains 0 Farkas lemmas. 0 Farkas lemmas participate in the lowest cut
. F 0.00
(spacer::context::check_reachability :time 0.04 :before-memory 6.61 :after-memory 7.41)
Propagating: 1 2 3 4  ! 5 
(spacer::context::propagate :time 0.01 :before-memory 7.41 :after-memory 7.41)
Entering level 5
BRUNCH_STAT max_query_lvl 4
BRUNCH_STAT num_queries 21
BRUNCH_STAT num_reach_queries 0
BRUNCH_STAT num_reach_reuse 0
BRUNCH_STAT inductive_lvl 0
BRUNCH_STAT max_depth 5
BRUNCH_STAT cex_depth 0
expand: query!0 (5, 0) FAR  w(0) 1.
	create_child: MAIN (4, 5) FAR 3416 U 0.00
expand: MAIN (4, 0) FAR  w(0) 3416.
	create_child: MAIN (3, 5) FAR 11400 U 0.00
expand: MAIN (3, 0) FAR  w(0) 11400
This proof contains 1 Farkas lemmas. 0 Farkas lemmas participate in the lowest cut
. F 0.00
expand: MAIN (4, 0) FAR  w(0) 3416.
	create_child: MAIN (3, 5) FAR 7887 U 0.00
expand: MAIN (3, 0) FAR  w(0) 7887.
	create_child: MAIN (2, 5) FAR 13633 U 0.00
expand: MAIN (2, 0) FAR  w(0) 13633.
	create_child: MAIN (1, 5) FAR 13655 U 0.00
expand: MAIN (1, 0) FAR  w(0) 13655
This proof contains 5 Farkas lemmas. 0 Farkas lemmas participate in the lowest cut
. F 0.00
expand: MAIN (2, 0) FAR  w(0) 13633
This proof contains 8 Farkas lemmas. 0 Farkas lemmas participate in the lowest cut
. F 0.01
expand: MAIN (3, 0) FAR  w(0) 7887.
	create_child: MAIN (2, 5) FAR 11804 U 0.00
expand: MAIN (2, 0) FAR  w(0) 11804
This proof contains 4 Farkas lemmas. 0 Farkas lemmas participate in the lowest cut
. F 0.00
expand: MAIN (3, 0) FAR  w(0) 7887.
	create_child: MAIN (2, 5) FAR 8015 U 0.00
expand: MAIN (2, 0) FAR  w(0) 8015.
	create_child: MAIN (1, 5) FAR 15571 U 0.00
expand: MAIN (1, 0) FAR  w(0) 15571
This proof contains 5 Farkas lemmas. 0 Farkas lemmas participate in the lowest cut
. F 0.00
expand: MAIN (2, 0) FAR  w(0) 8015
This proof contains 4 Farkas lemmas. 0 Farkas lemmas participate in the lowest cut
. F 0.00
expand: MAIN (3, 0) FAR  w(0) 7887.
	create_child: MAIN (2, 5) FAR 16120 U 0.00
expand: MAIN (2, 0) FAR  w(0) 16120
This proof contains 3 Farkas lemmas. 0 Farkas lemmas participate in the lowest cut
. F 0.00
expand: MAIN (3, 0) FAR  w(0) 7887
This proof contains 8 Farkas lemmas. 0 Farkas lemmas participate in the lowest cut
. F 0.01
expand: MAIN (4, 0) FAR  w(0) 3416.
	create_child: MAIN (3, 5) FAR 6260 U 0.00
expand: MAIN (3, 0) FAR  w(0) 6260.
	create_child: MAIN (2, 5) FAR 9809 U 0.00
expand: MAIN (2, 0) FAR  w(0) 9809.
	create_child: MAIN (1, 5) FAR 16674 U 0.00
expand: MAIN (1, 0) FAR  w(0) 16674
This proof contains 5 Farkas lemmas. 0 Farkas lemmas participate in the lowest cut
. F 0.00
expand: MAIN (2, 0) FAR  w(0) 9809
This proof contains 16 Farkas lemmas. 0 Farkas lemmas participate in the lowest cut
. F 0.01
expand: MAIN (3, 0) FAR  w(0) 6260
This proof contains 10 Farkas lemmas. 0 Farkas lemmas participate in the lowest cut
. F 0.01
expand: MAIN (4, 0) FAR  w(0) 3416
This proof contains 6 Farkas lemmas. 0 Farkas lemmas participate in the lowest cut
. F 0.00
expand: query!0 (5, 0) FAR  w(0) 1
This proof contains 0 Farkas lemmas. 0 Farkas lemmas participate in the lowest cut
. F 0.00
(spacer::context::check_reachability :time 0.08 :before-memory 7.41 :after-memory 8.02)
Propagating: 1 2 3 4 5  ! 6 
(spacer::context::propagate :time 0.02 :before-memory 8.02 :after-memory 8.12)
Entering level 6
BRUNCH_STAT max_query_lvl 5
BRUNCH_STAT num_queries 33
BRUNCH_STAT num_reach_queries 0
BRUNCH_STAT num_reach_reuse 0
BRUNCH_STAT inductive_lvl 0
BRUNCH_STAT max_depth 6
BRUNCH_STAT cex_depth 0
expand: query!0 (6, 0) FAR  w(0) 1.
	create_child: MAIN (5, 6) FAR 3416 U 0.00
expand: MAIN (5, 0) FAR  w(0) 3416.
	create_child: MAIN (4, 6) FAR 6260 U 0.00
expand: MAIN (4, 0) FAR  w(0) 6260.
	create_child: MAIN (3, 6) FAR 9809 U 0.00
expand: MAIN (3, 0) FAR  w(0) 9809.
	create_child: MAIN (2, 6) FAR 20299 U 0.00
expand: MAIN (2, 0) FAR  w(0) 20299
This proof contains 8 Farkas lemmas. 0 Farkas lemmas participate in the lowest cut
. F 0.01
expand: MAIN (3, 0) FAR  w(0) 9809
This proof contains 24 Farkas lemmas. 0 Farkas lemmas participate in the lowest cut
. F 0.01
expand: MAIN (4, 0) FAR  w(0) 6260.
	create_child: MAIN (3, 6) FAR 21200 U 0.00
expand: MAIN (3, 0) FAR  w(0) 21200
This proof contains 1 Farkas lemmas. 0 Farkas lemmas participate in the lowest cut
. F 0.00
expand: MAIN (4, 0) FAR  w(0) 6260.
	create_child: MAIN (3, 6) FAR 10143 U 0.00
expand: MAIN (3, 0) FAR  w(0) 10143.
	create_child: MAIN (2, 6) FAR 21605 U 0.00
expand: MAIN (2, 0) FAR  w(0) 21605
This proof contains 2 Farkas lemmas. 0 Farkas lemmas participate in the lowest cut
. F 0.00
expand: MAIN (3, 0) FAR  w(0) 10143
This proof contains 6 Farkas lemmas. 0 Farkas lemmas participate in the lowest cut
. F 0.01
expand: MAIN (4, 0) FAR  w(0) 6260
This proof contains 15 Farkas lemmas. 0 Farkas lemmas participate in the lowest cut
. F 0.01
expand: MAIN (5, 0) FAR  w(0) 3416.
	create_child: MAIN (4, 6) FAR 7887 U 0.00
expand: MAIN (4, 0) FAR  w(0) 7887.
	create_child: MAIN (3, 6) FAR 11804 U 0.00
expand: MAIN (3, 0) FAR  w(0) 11804
This proof contains 2 Farkas lemmas. 0 Farkas lemmas participate in the lowest cut
. F 0.00
expand: MAIN (4, 0) FAR  w(0) 7887.
	create_child: MAIN (3, 6) FAR 16120 U 0.00
expand: MAIN (3, 0) FAR  w(0) 16120
This proof contains 4 Farkas lemmas. 0 Farkas lemmas participate in the lowest cut
. F 0.01
expand: MAIN (4, 0) FAR  w(0) 7887
This proof contains 11 Farkas lemmas. 0 Farkas lemmas participate in the lowest cut
. F 0.01
expand: MAIN (5, 0) FAR  w(0) 3416
This proof contains 7 Farkas lemmas. 0 Farkas lemmas participate in the lowest cut
. F 0.00
expand: query!0 (6, 0) FAR  w(0) 1
This proof contains 0 Farkas lemmas. 0 Farkas lemmas participate in the lowest cut
. F 0.00
(spacer::context::check_reachability :time 0.08 :before-memory 8.12 :after-memory 8.70)
Propagating: 2 3 4 5 6  ! 7 
(spacer::context::propagate :time 0.02 :before-memory 8.70 :after-memory 8.70)
Entering level 7
BRUNCH_STAT max_query_lvl 6
BRUNCH_STAT num_queries 43
BRUNCH_STAT num_reach_queries 0
BRUNCH_STAT num_reach_reuse 0
BRUNCH_STAT inductive_lvl 0
BRUNCH_STAT max_depth 7
BRUNCH_STAT cex_depth 0
expand: query!0 (7, 0) FAR  w(0) 1.
	create_child: MAIN (6, 7) FAR 3416 U 0.00
expand: MAIN (6, 0) FAR  w(0) 3416.
	create_child: MAIN (5, 7) FAR 7887 U 0.00
expand: MAIN (5, 0) FAR  w(0) 7887.
	create_child: MAIN (4, 7) FAR 13633 U 0.00
expand: MAIN (4, 0) FAR  w(0) 13633.
	create_child: MAIN (3, 7) FAR 13655 U 0.00
expand: MAIN (3, 0) FAR  w(0) 13655
This proof contains 12 Farkas lemmas. 0 Farkas lemmas participate in the lowest cut
. F 0.01
expand: MAIN (4, 0) FAR  w(0) 13633.
	create_child: MAIN (3, 7) FAR 24642 U 0.00
expand: MAIN (3, 0) FAR  w(0) 24642
This proof contains 5 Farkas lemmas. 0 Farkas lemmas participate in the lowest cut
. F 0.01
expand: MAIN (4, 0) FAR  w(0) 13633.
	create_child: MAIN (3, 7) FAR 25326 U 0.00
expand: MAIN (3, 0) FAR  w(0) 25326
This proof contains 1 Farkas lemmas. 0 Farkas lemmas participate in the lowest cut
. F 0.01
expand: MAIN (4, 0) FAR  w(0) 13633
This proof contains 16 Farkas lemmas. 0 Farkas lemmas participate in the lowest cut
. F 0.01
expand: MAIN (5, 0) FAR  w(0) 7887.
	create_child: MAIN (4, 7) FAR 11804 U 0.00
expand: MAIN (4, 0) FAR  w(0) 11804.
	create_child: MAIN (3, 7) FAR 26370 U 0.00
expand: MAIN (3, 0) FAR  w(0) 26370
This proof contains 2 Farkas lemmas. 0 Farkas lemmas participate in the lowest cut
. F 0.00
expand: MAIN (4, 0) FAR  w(0) 11804
This proof contains 12 Farkas lemmas. 0 Farkas lemmas participate in the lowest cut
. F 0.01
expand: MAIN (5, 0) FAR  w(0) 7887.
	create_child: MAIN (4, 7) FAR 16120 U 0.00
expand: MAIN (4, 0) FAR  w(0) 16120
This proof contains 4 Farkas lemmas. 0 Farkas lemmas participate in the lowest cut
. F 0.01
expand: MAIN (5, 0) FAR  w(0) 7887
This proof contains 14 Farkas lemmas. 0 Farkas lemmas participate in the lowest cut
. F 0.01
expand: MAIN (6, 0) FAR  w(0) 3416.
	create_child: MAIN (5, 7) FAR 6260 U 0.00
expand: MAIN (5, 0) FAR  w(0) 6260.
	create_child: MAIN (4, 7) FAR 9809 U 0.00
expand: MAIN (4, 0) FAR  w(0) 9809.
	create_child: MAIN (3, 7) FAR 20299 U 0.00
expand: MAIN (3, 0) FAR  w(0) 20299.
	create_child: MAIN (2, 7) FAR 26909 U 0.00
expand: MAIN (2, 0) FAR  w(0) 26909
This proof contains 12 Farkas lemmas. 0 Farkas lemmas participate in the lowest cut
. F 0.01
expand: MAIN (3, 0) FAR  w(0) 20299
This proof contains 11 Farkas lemmas. 0 Farkas lemmas participate in the lowest cut
. F 0.01
expand: MAIN (4, 0) FAR  w(0) 9809.
	create_child: MAIN (3, 7) FAR 28222 U 0.00
expand: MAIN (3, 0) FAR  w(0) 28222
This proof contains 2 Farkas lemmas. 0 Farkas lemmas participate in the lowest cut
. F 0.01
expand: MAIN (4, 0) FAR  w(0) 9809.
	create_child: MAIN (3, 7) FAR 16674 U 0.00
expand: MAIN (3, 0) FAR  w(0) 16674
This proof contains 16 Farkas lemmas. 0 Farkas lemmas participate in the lowest cut
. F 0.01
expand: MAIN (4, 0) FAR  w(0) 9809
This proof contains 19 Farkas lemmas. 0 Farkas lemmas participate in the lowest cut
. F 0.01
expand: MAIN (5, 0) FAR  w(0) 6260.
	create_child: MAIN (4, 7) FAR 10143 U 0.00
expand: MAIN (4, 0) FAR  w(0) 10143
This proof contains 15 Farkas lemmas. 0 Farkas lemmas participate in the lowest cut
. F 0.01
expand: MAIN (5, 0) FAR  w(0) 6260
This proof contains 15 Farkas lemmas. 0 Farkas lemmas participate in the lowest cut
. F 0.01
expand: MAIN (6, 0) FAR  w(0) 3416
This proof contains 6 Farkas lemmas. 0 Farkas lemmas participate in the lowest cut
. F 0.00
expand: query!0 (7, 0) FAR  w(0) 1
This proof contains 0 Farkas lemmas. 0 Farkas lemmas participate in the lowest cut
. F 0.00
(spacer::context::check_reachability :time 0.15 :before-memory 8.70 :after-memory 10.40)
Propagating: 2 3 4 5 6 7  ! 8 
(spacer::context::propagate :time 0.03 :before-memory 10.40 :after-memory 10.40)
Entering level 8
BRUNCH_STAT max_query_lvl 7
BRUNCH_STAT num_queries 59
BRUNCH_STAT num_reach_queries 0
BRUNCH_STAT num_reach_reuse 0
BRUNCH_STAT inductive_lvl 0
BRUNCH_STAT max_depth 8
BRUNCH_STAT cex_depth 0
expand: query!0 (8, 0) FAR  w(0) 1.
	create_child: MAIN (7, 8) FAR 3416 U 0.00
expand: MAIN (7, 0) FAR  w(0) 3416.
	create_child: MAIN (6, 8) FAR 6260 U 0.00
expand: MAIN (6, 0) FAR  w(0) 6260.
	create_child: MAIN (5, 8) FAR 9809 U 0.00
expand: MAIN (5, 0) FAR  w(0) 9809.
	create_child: MAIN (4, 8) FAR 20299 U 0.00
expand: MAIN (4, 0) FAR  w(0) 20299.
	create_child: MAIN (3, 8) FAR 26909 U 0.00
expand: MAIN (3, 0) FAR  w(0) 26909.
	create_child: MAIN (2, 8) FAR 32178 U 0.00
expand: MAIN (2, 0) FAR  w(0) 32178
This proof contains 9 Farkas lemmas. 0 Farkas lemmas participate in the lowest cut
. F 0.01
expand: MAIN (3, 0) FAR  w(0) 26909
This proof contains 12 Farkas lemmas. 0 Farkas lemmas participate in the lowest cut
. F 0.01
expand: MAIN (4, 0) FAR  w(0) 20299.
	create_child: MAIN (3, 8) FAR 33383 U 0.00
expand: MAIN (3, 0) FAR  w(0) 33383
This proof contains 2 Farkas lemmas. 0 Farkas lemmas participate in the lowest cut
. F 0.01
expand: MAIN (4, 0) FAR  w(0) 20299.
	create_child: MAIN (3, 8) FAR 33965 U 0.00
expand: MAIN (3, 0) FAR  w(0) 33965
This proof contains 15 Farkas lemmas. 0 Farkas lemmas participate in the lowest cut
. F 0.01
expand: MAIN (4, 0) FAR  w(0) 20299
This proof contains 14 Farkas lemmas. 0 Farkas lemmas participate in the lowest cut
. F 0.01
expand: MAIN (5, 0) FAR  w(0) 9809.
	create_child: MAIN (4, 8) FAR 16674 U 0.00
expand: MAIN (4, 0) FAR  w(0) 16674.
	create_child: MAIN (3, 8) FAR 34590 U 0.00
expand: MAIN (3, 0) FAR  w(0) 34590
This proof contains 4 Farkas lemmas. 0 Farkas lemmas participate in the lowest cut
. F 0.01
expand: MAIN (4, 0) FAR  w(0) 16674
This proof contains 10 Farkas lemmas. 0 Farkas lemmas participate in the lowest cut
. F 0.01
expand: MAIN (5, 0) FAR  w(0) 9809
This proof contains 13 Farkas lemmas. 0 Farkas lemmas participate in the lowest cut
. F 0.01
expand: MAIN (6, 0) FAR  w(0) 6260.
	create_child: MAIN (5, 8) FAR 10143 U 0.00
expand: MAIN (5, 0) FAR  w(0) 10143.
	create_child: MAIN (4, 8) FAR 35943 U 0.00
expand: MAIN (4, 0) FAR  w(0) 35943
This proof contains 2 Farkas lemmas. 0 Farkas lemmas participate in the lowest cut
. F 0.01
expand: MAIN (5, 0) FAR  w(0) 10143.
	create_child: MAIN (4, 8) FAR 21605 U 0.00
expand: MAIN (4, 0) FAR  w(0) 21605
This proof contains 7 Farkas lemmas. 0 Farkas lemmas participate in the lowest cut
. F 0.01
expand: MAIN (5, 0) FAR  w(0) 10143
This proof contains 15 Farkas lemmas. 0 Farkas lemmas participate in the lowest cut
. F 0.01
expand: MAIN (6, 0) FAR  w(0) 6260
This proof contains 14 Farkas lemmas. 0 Farkas lemmas participate in the lowest cut
. F 0.01
expand: MAIN (7, 0) FAR  w(0) 3416.
	create_child: MAIN (6, 8) FAR 7887 U 0.00
expand: MAIN (6, 0) FAR  w(0) 7887.
	create_child: MAIN (5, 8) FAR 11804 U 0.00
expand: MAIN (5, 0) FAR  w(0) 11804.
	create_child: MAIN (4, 8) FAR 26370 U 0.00
expand: MAIN (4, 0) FAR  w(0) 26370
This proof contains 8 Farkas lemmas. 0 Farkas lemmas participate in the lowest cut
. F 0.01
expand: MAIN (5, 0) FAR  w(0) 11804.
	create_child: MAIN (4, 8) FAR 37988 U 0.00
expand: MAIN (4, 0) FAR  w(0) 37988
This proof contains 5 Farkas lemmas. 0 Farkas lemmas participate in the lowest cut
. F 0.01
expand: MAIN (5, 0) FAR  w(0) 11804
This proof contains 16 Farkas lemmas. 0 Farkas lemmas participate in the lowest cut
. F 0.01
expand: MAIN (6, 0) FAR  w(0) 7887
This proof contains 14 Farkas lemmas. 0 Farkas lemmas participate in the lowest cut
. F 0.01
expand: MAIN (7, 0) FAR  w(0) 3416
This proof contains 8 Farkas lemmas. 0 Farkas lemmas participate in the lowest cut
. F 0.00
expand: query!0 (8, 0) FAR  w(0) 1
This proof contains 0 Farkas lemmas. 0 Farkas lemmas participate in the lowest cut
. F 0.00
(spacer::context::check_reachability :time 0.17 :before-memory 10.40 :after-memory 11.14)
Propagating: 2 3 4 5 6 7 8  ! 9 
(spacer::context::propagate :time 0.04 :before-memory 11.14 :after-memory 11.14)
Entering level 9
BRUNCH_STAT max_query_lvl 8
BRUNCH_STAT num_queries 76
BRUNCH_STAT num_reach_queries 0
BRUNCH_STAT num_reach_reuse 0
BRUNCH_STAT inductive_lvl 0
BRUNCH_STAT max_depth 9
BRUNCH_STAT cex_depth 0
expand: query!0 (9, 0) FAR  w(0) 1.
	create_child: MAIN (8, 9) FAR 3416 U 0.00
expand: MAIN (8, 0) FAR  w(0) 3416.
	create_child: MAIN (7, 9) FAR 6260 U 0.00
expand: MAIN (7, 0) FAR  w(0) 6260.
	create_child: MAIN (6, 9) FAR 9809 U 0.00
expand: MAIN (6, 0) FAR  w(0) 9809.
	create_child: MAIN (5, 9) FAR 20299 U 0.00
expand: MAIN (5, 0) FAR  w(0) 20299.
	create_child: MAIN (4, 9) FAR 26909 U 0.00
expand: MAIN (4, 0) FAR  w(0) 26909.
	create_child: MAIN (3, 9) FAR 32178 U 0.00
expand: MAIN (3, 0) FAR  w(0) 32178.
	create_child: MAIN (2, 9) FAR 40571 U 0.00
expand: MAIN (2, 0) FAR  w(0) 40571
This proof contains 11 Farkas lemmas. 0 Farkas lemmas participate in the lowest cut
. F 0.01
expand: MAIN (3, 0) FAR  w(0) 32178
This proof contains 10 Farkas lemmas. 0 Farkas lemmas participate in the lowest cut
. F 0.01
expand: MAIN (4, 0) FAR  w(0) 26909.
	create_child: MAIN (3, 9) FAR 41380 U 0.00
expand: MAIN (3, 0) FAR  w(0) 41380
This proof contains 3 Farkas lemmas. 0 Farkas lemmas participate in the lowest cut
. F 0.01
expand: MAIN (4, 0) FAR  w(0) 26909
This proof contains 6 Farkas lemmas. 0 Farkas lemmas participate in the lowest cut
. F 0.01
expand: MAIN (5, 0) FAR  w(0) 20299.
	create_child: MAIN (4, 9) FAR 33965 U 0.00
expand: MAIN (4, 0) FAR  w(0) 33965
This proof contains 8 Farkas lemmas. 0 Farkas lemmas participate in the lowest cut
. F 0.01
expand: MAIN (5, 0) FAR  w(0) 20299
This proof contains 17 Farkas lemmas. 0 Farkas lemmas participate in the lowest cut
. F 0.01
expand: MAIN (6, 0) FAR  w(0) 9809.
	create_child: MAIN (5, 9) FAR 16674 U 0.00
expand: MAIN (5, 0) FAR  w(0) 16674.
	create_child: MAIN (4, 9) FAR 41839 U 0.00
expand: MAIN (4, 0) FAR  w(0) 41839
This proof contains 2 Farkas lemmas. 0 Farkas lemmas participate in the lowest cut
. F 0.01
expand: MAIN (5, 0) FAR  w(0) 16674.
	create_child: MAIN (4, 9) FAR 34590 U 0.00
expand: MAIN (4, 0) FAR  w(0) 34590
This proof contains 12 Farkas lemmas. 0 Farkas lemmas participate in the lowest cut
. F 0.01
expand: MAIN (5, 0) FAR  w(0) 16674
This proof contains 18 Farkas lemmas. 0 Farkas lemmas participate in the lowest cut
. F 0.01
expand: MAIN (6, 0) FAR  w(0) 9809
This proof contains 12 Farkas lemmas. 0 Farkas lemmas participate in the lowest cut
. F 0.01
expand: MAIN (7, 0) FAR  w(0) 6260.
	create_child: MAIN (6, 9) FAR 10143 U 0.00
expand: MAIN (6, 0) FAR  w(0) 10143.
	create_child: MAIN (5, 9) FAR 21605 U 0.00
expand: MAIN (5, 0) FAR  w(0) 21605.
	create_child: MAIN (4, 9) FAR 43846 U 0.00
expand: MAIN (4, 0) FAR  w(0) 43846
This proof contains 3 Farkas lemmas. 0 Farkas lemmas participate in the lowest cut
. F 0.01
expand: MAIN (5, 0) FAR  w(0) 21605.
	create_child: MAIN (4, 9) FAR 44669 U 0.00
expand: MAIN (4, 0) FAR  w(0) 44669
This proof contains 9 Farkas lemmas. 0 Farkas lemmas participate in the lowest cut
. F 0.01
expand: MAIN (5, 0) FAR  w(0) 21605
This proof contains 14 Farkas lemmas. 0 Farkas lemmas participate in the lowest cut
. F 0.01
expand: MAIN (6, 0) FAR  w(0) 10143
This proof contains 16 Farkas lemmas. 0 Farkas lemmas participate in the lowest cut
. F 0.01
expand: MAIN (7, 0) FAR  w(0) 6260
This proof contains 19 Farkas lemmas. 0 Farkas lemmas participate in the lowest cut
. F 0.01
expand: MAIN (8, 0) FAR  w(0) 3416.
	create_child: MAIN (7, 9) FAR 7887 U 0.00
expand: MAIN (7, 0) FAR  w(0) 7887.
	create_child: MAIN (6, 9) FAR 11804 U 0.00
expand: MAIN (6, 0) FAR  w(0) 11804.
	create_child: MAIN (5, 9) FAR 26370 U 0.00
expand: MAIN (5, 0) FAR  w(0) 26370.
	create_child: MAIN (4, 9) FAR 45856 U 0.00
expand: MAIN (4, 0) FAR  w(0) 45856
This proof contains 7 Farkas lemmas. 0 Farkas lemmas participate in the lowest cut
. F 0.01
expand: MAIN (5, 0) FAR  w(0) 26370.
	create_child: MAIN (4, 9) FAR 45725 U 0.00
expand: MAIN (4, 0) FAR  w(0) 45725
This proof contains 2 Farkas lemmas. 0 Farkas lemmas participate in the lowest cut
. F 0.01
expand: MAIN (5, 0) FAR  w(0) 26370
This proof contains 11 Farkas lemmas. 0 Farkas lemmas participate in the lowest cut
. F 0.01
expand: MAIN (6, 0) FAR  w(0) 11804
This proof contains 13 Farkas lemmas. 0 Farkas lemmas participate in the lowest cut
. F 0.01
expand: MAIN (7, 0) FAR  w(0) 7887
This proof contains 14 Farkas lemmas. 0 Farkas lemmas participate in the lowest cut
. F 0.01
expand: MAIN (8, 0) FAR  w(0) 3416
This proof contains 8 Farkas lemmas. 0 Farkas lemmas participate in the lowest cut
. F 0.00
expand: query!0 (9, 0) FAR  w(0) 1
This proof contains 0 Farkas lemmas. 0 Farkas lemmas participate in the lowest cut
. F 0.00
(spacer::context::check_reachability :time 0.23 :before-memory 11.14 :after-memory 12.23)
Propagating: 2 3 4 5 6 7 8 9  ! 10 
(spacer::context::propagate :time 0.14 :before-memory 12.23 :after-memory 14.60)
Entering level 10
BRUNCH_STAT max_query_lvl 9
BRUNCH_STAT num_queries 97
BRUNCH_STAT num_reach_queries 0
BRUNCH_STAT num_reach_reuse 0
BRUNCH_STAT inductive_lvl 0
BRUNCH_STAT max_depth 10
BRUNCH_STAT cex_depth 0
expand: query!0 (10, 0) FAR  w(0) 1.
	create_child: MAIN (9, 10) FAR 3416 U 0.00
expand: MAIN (9, 0) FAR  w(0) 3416.
	create_child: MAIN (8, 10) FAR 7887 U 0.00
expand: MAIN (8, 0) FAR  w(0) 7887.
	create_child: MAIN (7, 10) FAR 11804 U 0.00
expand: MAIN (7, 0) FAR  w(0) 11804.
	create_child: MAIN (6, 10) FAR 26370 U 0.00
expand: MAIN (6, 0) FAR  w(0) 26370.
	create_child: MAIN (5, 10) FAR 45856 U 0.00
expand: MAIN (5, 0) FAR  w(0) 45856
This proof contains 4 Farkas lemmas. 0 Farkas lemmas participate in the lowest cut
. F 0.01
expand: MAIN (6, 0) FAR  w(0) 26370.
	create_child: MAIN (5, 10) FAR 45725 U 0.00
expand: MAIN (5, 0) FAR  w(0) 45725
This proof contains 14 Farkas lemmas. 0 Farkas lemmas participate in the lowest cut
. F 0.01
expand: MAIN (6, 0) FAR  w(0) 26370
This proof contains 21 Farkas lemmas. 0 Farkas lemmas participate in the lowest cut
. F 0.01
expand: MAIN (7, 0) FAR  w(0) 11804
This proof contains 24 Farkas lemmas. 0 Farkas lemmas participate in the lowest cut
. F 0.01
expand: MAIN (8, 0) FAR  w(0) 7887
This proof contains 21 Farkas lemmas. 0 Farkas lemmas participate in the lowest cut
. F 0.01
expand: MAIN (9, 0) FAR  w(0) 3416
This proof contains 8 Farkas lemmas. 0 Farkas lemmas participate in the lowest cut
. F 0.00
expand: query!0 (10, 0) FAR  w(0) 1
This proof contains 0 Farkas lemmas. 0 Farkas lemmas participate in the lowest cut
. F 0.00
(spacer::context::check_reachability :time 0.07 :before-memory 14.60 :after-memory 15.29)
Propagating: 5 
(spacer::context::propagate :time 0.00 :before-memory 15.29 :after-memory 15.29)
(define-fun MAIN ((x!0 Int)
 (x!1 Int)
 (x!2 Int)
 (x!3 Int)
 (x!4 Int)
 (x!5 Int)
 (x!6 Bool)
 (x!7 Bool)
 (x!8 Bool)
 (x!9 Int)
 (x!10 Bool)
 (x!11 Bool)) Bool
  (let ((a!1 (not (>= (+ x!0 (* (- 1) x!9)) (- 5))))
        (a!2 (or (<= (+ x!0 (* (- 1) x!9)) 0) (not x!7)))
        (a!3 (not (>= (+ x!0 x!1 (* (- 1) x!9)) 0)))
        (a!4 (or (>= (+ x!9 (* (- 1) x!2)) 0) (not x!7) (<= x!0 0)))
        (a!5 (not (>= (+ x!0 (* (- 1) x!9)) (- 1))))
        (a!6 (not (>= (+ x!0 x!1 (* (- 1) x!9)) (- 1))))
        (a!7 (not (>= (+ x!0 x!1 (* (- 1) x!9)) (- 2))))
        (a!8 (+ x!9 (* (- 1) x!0) (* (- 1) x!1) (* (- 1) x!2)))
        (a!9 (not (>= (+ x!0 x!1 (* (- 1) x!9)) (- 4))))
        (a!10 (not (<= (+ x!9 (* (- 1) x!2)) 1)))
        (a!11 (not (>= (+ x!0 x!1 (* (- 1) x!9)) (- 3))))
        (a!12 (not (>= (+ x!1 x!2 (* (- 1) x!9)) (- 2))))
        (a!13 (not (>= (+ x!1 x!2 (* (- 1) x!9)) (- 3))))
        (a!14 (not (<= (+ x!9 (* (- 1) x!0) (* (- 1) x!2)) 3)))
        (a!15 (not (>= (+ x!1 x!2 (* (- 1) x!9)) (- 4))))
        (a!16 (not (>= (+ x!0 x!1 (* (- 1) x!9)) (- 5))))
        (a!17 (not (<= (+ x!9 (* (- 1) x!0) (* (- 1) x!1)) 6)))
        (a!18 (not (>= (+ x!0 (* (- 1) x!9)) (- 3))))
        (a!19 (not (<= (+ x!9 (* (- 1) x!2)) 5)))
        (a!20 (not (<= (+ x!9 (* (- 1) x!0)) 7))))
    (and (or (not (>= x!4 3)) (not x!7) (not (>= x!3 3)) a!1)
         x!11
         (not x!6)
         (not x!10)
         (not x!8)
         a!2
         (or a!3 (not x!7) (<= x!4 0))
         a!4
         (or (not (<= x!9 1)) (not (>= x!4 2)))
         (or a!5 (not x!7) (<= x!3 0) (<= x!4 0))
         (or a!6 (not x!7) (not (>= x!4 2)))
         (or (not (>= x!4 3)) (not x!7) a!7)
         (or (not (<= a!8 0)) (not x!7) (<= x!4 0))
         (or a!7 (not x!7) (<= x!3 0) (not (>= x!4 2)))
         (or a!9 (not x!7) (not (>= x!3 2)) (not (>= x!4 3)))
         (or a!10 (not x!7) (<= x!0 0) (<= x!4 0) (<= x!3 0))
         (or (not (>= x!4 4)) (not x!7) a!11)
         (or a!12 (not x!7) (<= x!0 0) (not (>= x!4 2)))
         (or a!11 (not x!7) (<= x!3 0) (not (>= x!4 3)))
         (or a!13 (not x!7) (<= x!0 0) (not (>= x!4 3)))
         (or a!9 (not x!7) (<= x!3 0) (not (>= x!4 4)))
         (or a!13 (not x!7) (<= x!0 0) (not (>= x!4 2)) (<= x!3 0))
         (or a!14 (not x!7) (not (>= x!4 2)) (not (>= x!3 2)))
         (or (not (>= x!4 5)) (not x!7))
         (or (not (>= x!4 4)) (not x!7) (<= x!0 0))
         (or a!15 (not x!7) (<= x!0 0) (<= x!3 0) (not (>= x!4 3)))
         (or a!16 (not x!7) (not (>= x!3 2)) (not (>= x!4 4)))
         (or (not (<= a!8 4)) (not x!7) (not (>= x!3 2)) (not (>= x!4 3)))
         (or (not (>= x!4 4)) (not x!7) (not (>= x!3 3)) a!17)
         (or a!18 (not x!7) (not (>= x!4 2)) (not (>= x!3 2)))
         (or a!19 (not x!7) (<= x!0 0) (not (>= x!4 3)) (not (>= x!3 3)))
         (or a!20 (not x!7) (not (>= x!4 4)) (not (>= x!3 4))))))
BRUNCH_STAT max_query_lvl 10
BRUNCH_STAT num_queries 103
BRUNCH_STAT num_reach_queries 0
BRUNCH_STAT num_reach_reuse 0
BRUNCH_STAT inductive_lvl 5
BRUNCH_STAT max_depth 10
BRUNCH_STAT cex_depth 0
(:SPACER-inductive-level               5
 :SPACER-max-depth                     10
 :SPACER-max-query-lvl                 10
 :SPACER-num-invariants                42
 :SPACER-num-lemmas                    114
 :SPACER-num-properties                52
 :SPACER-num-queries                   103
 :added-eqs                            20704
 :arith-add-rows                       24876
 :arith-assert-diseq                   12380
 :arith-assert-lower                   47807
 :arith-assert-upper                   24836
 :arith-bound-prop                     1346
 :arith-conflicts                      204
 :arith-eq-adapter                     3377
 :arith-fixed-eqs                      4449
 :arith-offset-eqs                     3534
 :arith-pivots                         2805
 :bool-inductive-gen                   103
 :bool-inductive-gen-failures          297
 :conflicts                            1643
 :decisions                            112866
 :del-clause                           266
 :final-checks                         582
 :minimized-lits                       4985
 :mk-bool-var                          4163
 :mk-clause                            5333
 :num-checks                           1146
 :propagations                         448867
 :time.itp_solver.itp_core             0.14
 :time.spacer.init_rules               0.00
 :time.spacer.init_rules.pt.init       0.00
 :time.spacer.solve                    1.14
 :time.spacer.solve.propagate          0.26
 :time.spacer.solve.reach              0.87
 :time.spacer.solve.reach.children     0.08
 :time.spacer.solve.reach.gen.bool_ind 0.37
 :time.virtual_solver.proof            0.08
 :time.virtual_solver.smt.total        0.87
 :time.virtual_solver.smt.total.sat    0.57
 :virtual_solver.checks                1146
 :virtual_solver.checks.sat            582)
BRUNCH_STAT max_query_lvl 10
BRUNCH_STAT num_queries 103
BRUNCH_STAT num_reach_queries 0
BRUNCH_STAT num_reach_reuse 0
BRUNCH_STAT inductive_lvl 5
BRUNCH_STAT max_depth 10
BRUNCH_STAT cex_depth 0

real	0m1.225s
user	0m1.196s
sys	0m0.028s
