(transform N7datalog13mk_coi_filterE...no-op 0s)
(transform N7datalog25mk_interp_tail_simplifierE...13 rules 0s)
(transform N7datalog27mk_quantifier_instantiationE...no-op 0s)
(transform N7datalog8mk_scaleE...no-op 0s)
(transform N7datalog18mk_karr_invariantsE...no-op 0s)
(transform N7datalog14mk_array_blastE...no-op 0s)
(transform N7datalog22mk_subsumption_checkerE...12 rules 0s)
(transform N7datalog12mk_bit_blastE...no-op 0s)
(transform N7datalog15mk_rule_inlinerE...3 rules 0.00342924s)
(transform N7datalog13mk_coi_filterE...no-op 0s)
(transform N7datalog25mk_interp_tail_simplifierE...3 rules 0s)
(transform N7datalog22mk_subsumption_checkerE...no-op 0s)
(transform N7datalog15mk_rule_inlinerE...no-op 0s)
(transform N7datalog13mk_coi_filterE...no-op 0s)
(transform N7datalog25mk_interp_tail_simplifierE...3 rules 0s)
(transform N7datalog22mk_subsumption_checkerE...no-op 0s)
(transform N7datalog15mk_rule_inlinerE...no-op 0s)
(transform N7datalog22mk_subsumption_checkerE...no-op 0s)
(transform N7datalog15mk_rule_inlinerE...no-op 0s)
(transform N7datalog22mk_subsumption_checkerE...no-op 0s)
(transform N7datalog15mk_rule_inlinerE...no-op 0s)
(transform N7datalog22mk_subsumption_checkerE...no-op 0s)
(transform N7datalog8mk_sliceE...no-op 0s)
expand: query!0 (0, 0) FAR  w(0) 1
This proof contains 0 Farkas lemmas. 0 Farkas lemmas participate in the lowest cut
. F 0.00
(spacer::context::check_reachability :time 0.00 :before-memory 4.32 :after-memory 4.84)
Entering level 1
BRUNCH_STAT max_query_lvl 0
BRUNCH_STAT num_queries 0
BRUNCH_STAT num_reach_queries 0
BRUNCH_STAT num_reach_reuse 0
BRUNCH_STAT inductive_lvl 0
BRUNCH_STAT max_depth 1
BRUNCH_STAT cex_depth 0
expand: query!0 (1, 0) FAR  w(0) 1.
	create_child: MAIN (0, 1) FAR 2487 U 0.00
expand: MAIN (0, 0) FAR  w(0) 2487
This proof contains 2 Farkas lemmas. 0 Farkas lemmas participate in the lowest cut
. F 0.00
expand: query!0 (1, 0) FAR  w(0) 1
This proof contains 0 Farkas lemmas. 0 Farkas lemmas participate in the lowest cut
. F 0.00
(spacer::context::check_reachability :time 0.00 :before-memory 4.84 :after-memory 5.81)
Propagating: 0 1  ! 2 
(spacer::context::propagate :time 0.00 :before-memory 5.81 :after-memory 5.81)
Entering level 2
BRUNCH_STAT max_query_lvl 1
BRUNCH_STAT num_queries 1
BRUNCH_STAT num_reach_queries 0
BRUNCH_STAT num_reach_reuse 0
BRUNCH_STAT inductive_lvl 0
BRUNCH_STAT max_depth 2
BRUNCH_STAT cex_depth 0
expand: query!0 (2, 0) FAR  w(0) 1.
	create_child: MAIN (1, 2) FAR 2487 U 0.00
expand: MAIN (1, 0) FAR  w(0) 2487.
	create_child: MAIN (0, 2) FAR 4379 U 0.00
expand: MAIN (0, 0) FAR  w(0) 4379
This proof contains 0 Farkas lemmas. 0 Farkas lemmas participate in the lowest cut
. F 0.00
expand: MAIN (1, 0) FAR  w(0) 2487.
	create_child: MAIN (0, 2) FAR 4643 U 0.00
expand: MAIN (0, 0) FAR  w(0) 4643
This proof contains 0 Farkas lemmas. 0 Farkas lemmas participate in the lowest cut
. F 0.00
expand: MAIN (1, 0) FAR  w(0) 2487.
	create_child: MAIN (0, 2) FAR 4606 U 0.00
expand: MAIN (0, 0) FAR  w(0) 4606
This proof contains 0 Farkas lemmas. 0 Farkas lemmas participate in the lowest cut
. F 0.00
expand: MAIN (1, 0) FAR  w(0) 2487.
	create_child: MAIN (0, 2) FAR 4790 UNDEF 0.00
expand: MAIN (0, 0) FAR  w(0) 4790
This proof contains 0 Farkas lemmas. 0 Farkas lemmas participate in the lowest cut
. F 0.00
expand: MAIN (1, 0) FAR  w(0) 2487.
	create_child: MAIN (0, 2) FAR 4761 U 0.00
expand: MAIN (0, 0) FAR  w(0) 4761
This proof contains 1 Farkas lemmas. 0 Farkas lemmas participate in the lowest cut
. F 0.00
expand: MAIN (1, 0) FAR  w(0) 2487
This proof contains 13 Farkas lemmas. 0 Farkas lemmas participate in the lowest cut
. F 0.00
expand: query!0 (2, 0) FAR  w(0) 1
This proof contains 0 Farkas lemmas. 0 Farkas lemmas participate in the lowest cut
. F 0.00
(spacer::context::check_reachability :time 0.01 :before-memory 5.81 :after-memory 6.00)
Propagating: 0 1 2  ! 3 
(spacer::context::propagate :time 0.00 :before-memory 6.00 :after-memory 6.00)
Entering level 3
BRUNCH_STAT max_query_lvl 2
BRUNCH_STAT num_queries 7
BRUNCH_STAT num_reach_queries 0
BRUNCH_STAT num_reach_reuse 0
BRUNCH_STAT inductive_lvl 0
BRUNCH_STAT max_depth 3
BRUNCH_STAT cex_depth 0
expand: query!0 (3, 0) FAR  w(0) 1.
	create_child: MAIN (2, 3) FAR 2487 U 0.00
expand: MAIN (2, 0) FAR  w(0) 2487.
	create_child: MAIN (1, 3) FAR 5339 U 0.00
expand: MAIN (1, 0) FAR  w(0) 5339
This proof contains 2 Farkas lemmas. 0 Farkas lemmas participate in the lowest cut
. F 0.00
expand: MAIN (2, 0) FAR  w(0) 2487.
	create_child: MAIN (1, 3) FAR 5468 U 0.00
expand: MAIN (1, 0) FAR  w(0) 5468
This proof contains 3 Farkas lemmas. 0 Farkas lemmas participate in the lowest cut
. F 0.00
expand: MAIN (2, 0) FAR  w(0) 2487.
	create_child: MAIN (1, 3) FAR 5515 U 0.00
expand: MAIN (1, 0) FAR  w(0) 5515
This proof contains 3 Farkas lemmas. 0 Farkas lemmas participate in the lowest cut
. F 0.00
expand: MAIN (2, 0) FAR  w(0) 2487.
	create_child: MAIN (1, 3) FAR 5804 U 0.00
expand: MAIN (1, 0) FAR  w(0) 5804
This proof contains 3 Farkas lemmas. 0 Farkas lemmas participate in the lowest cut
. F 0.00
expand: MAIN (2, 0) FAR  w(0) 2487.
	create_child: MAIN (1, 3) FAR 6060 U 0.00
expand: MAIN (1, 0) FAR  w(0) 6060
This proof contains 6 Farkas lemmas. 0 Farkas lemmas participate in the lowest cut
. F 0.00
expand: MAIN (2, 0) FAR  w(0) 2487
This proof contains 20 Farkas lemmas. 0 Farkas lemmas participate in the lowest cut
. F 0.00
expand: query!0 (3, 0) FAR  w(0) 1
This proof contains 0 Farkas lemmas. 0 Farkas lemmas participate in the lowest cut
. F 0.00
(spacer::context::check_reachability :time 0.02 :before-memory 6.00 :after-memory 6.46)
Propagating: 1 2 3  ! 4 
(spacer::context::propagate :time 0.01 :before-memory 6.46 :after-memory 6.46)
Entering level 4
BRUNCH_STAT max_query_lvl 3
BRUNCH_STAT num_queries 13
BRUNCH_STAT num_reach_queries 0
BRUNCH_STAT num_reach_reuse 0
BRUNCH_STAT inductive_lvl 0
BRUNCH_STAT max_depth 4
BRUNCH_STAT cex_depth 0
expand: query!0 (4, 0) FAR  w(0) 1.
	create_child: MAIN (3, 4) FAR 2487 U 0.00
expand: MAIN (3, 0) FAR  w(0) 2487.
	create_child: MAIN (2, 4) FAR 7705 UNDEF 0.00
expand: MAIN (2, 0) FAR  w(0) 7705
This proof contains 2 Farkas lemmas. 0 Farkas lemmas participate in the lowest cut
. F 0.00
expand: MAIN (3, 0) FAR  w(0) 2487.
	create_child: MAIN (2, 4) FAR 7918 U 0.00
expand: MAIN (2, 0) FAR  w(0) 7918
This proof contains 3 Farkas lemmas. 0 Farkas lemmas participate in the lowest cut
. F 0.00
expand: MAIN (3, 0) FAR  w(0) 2487.
	create_child: MAIN (2, 4) FAR 8148 U 0.00
expand: MAIN (2, 0) FAR  w(0) 8148
This proof contains 4 Farkas lemmas. 0 Farkas lemmas participate in the lowest cut
. F 0.00
expand: MAIN (3, 0) FAR  w(0) 2487.
	create_child: MAIN (2, 4) FAR 4761 U 0.00
expand: MAIN (2, 0) FAR  w(0) 4761
This proof contains 3 Farkas lemmas. 0 Farkas lemmas participate in the lowest cut
. F 0.00
expand: MAIN (3, 0) FAR  w(0) 2487.
	create_child: MAIN (2, 4) FAR 8610 U 0.00
expand: MAIN (2, 0) FAR  w(0) 8610
This proof contains 5 Farkas lemmas. 0 Farkas lemmas participate in the lowest cut
. F 0.00
expand: MAIN (3, 0) FAR  w(0) 2487.
	create_child: MAIN (2, 4) FAR 8794 U 0.00
expand: MAIN (2, 0) FAR  w(0) 8794
This proof contains 5 Farkas lemmas. 0 Farkas lemmas participate in the lowest cut
. F 0.00
expand: MAIN (3, 0) FAR  w(0) 2487.
	create_child: MAIN (2, 4) FAR 9059 U 0.00
expand: MAIN (2, 0) FAR  w(0) 9059
This proof contains 2 Farkas lemmas. 0 Farkas lemmas participate in the lowest cut
. F 0.00
expand: MAIN (3, 0) FAR  w(0) 2487.
	create_child: MAIN (2, 4) FAR 9175 UNDEF 0.00
expand: MAIN (2, 0) FAR  w(0) 9175.
	create_child: MAIN (1, 4) FAR 9176 U 0.00
expand: MAIN (1, 0) FAR  w(0) 9176. T 0.00
is-reachable: MAIN (2, 0) FAR 9175 T 0.00
is-reachable: MAIN (3, 0) FAR 2487 F 0.01
Deleting closed node: MAIN(2, 4) 9175
expand: MAIN (3, 0) FAR  w(1) 2487.
	create_child: MAIN (2, 4) FAR 9224 U 0.00
expand: MAIN (2, 0) FAR  w(0) 9224
This proof contains 2 Farkas lemmas. 0 Farkas lemmas participate in the lowest cut
. F 0.00
expand: MAIN (3, 0) FAR  w(1) 2487.
	create_child: MAIN (2, 4) FAR 12164 U 0.00
expand: MAIN (2, 0) FAR  w(0) 12164
This proof contains 27 Farkas lemmas. 0 Farkas lemmas participate in the lowest cut
. F 0.00
expand: MAIN (3, 0) FAR  w(1) 2487
This proof contains 46 Farkas lemmas. 0 Farkas lemmas participate in the lowest cut
. F 0.01
expand: query!0 (4, 0) FAR  w(0) 1
This proof contains 0 Farkas lemmas. 0 Farkas lemmas participate in the lowest cut
. F 0.00
(spacer::context::check_reachability :time 0.07 :before-memory 6.46 :after-memory 7.92)
Propagating: 2 3 4  ! 5 
(spacer::context::propagate :time 0.03 :before-memory 7.92 :after-memory 8.11)
Entering level 5
BRUNCH_STAT max_query_lvl 4
BRUNCH_STAT num_queries 25
BRUNCH_STAT num_reach_queries 2
BRUNCH_STAT num_reach_reuse 1
BRUNCH_STAT inductive_lvl 0
BRUNCH_STAT max_depth 5
BRUNCH_STAT cex_depth 0
expand: query!0 (5, 0) FAR  w(0) 1.
	create_child: MAIN (4, 5) FAR 2487 U 0.00
expand: MAIN (4, 0) FAR  w(0) 2487.
	create_child: MAIN (3, 5) FAR 17157 U 0.00
expand: MAIN (3, 0) FAR  w(0) 17157
This proof contains 10 Farkas lemmas. 0 Farkas lemmas participate in the lowest cut
. F 0.00
expand: MAIN (4, 0) FAR  w(0) 2487
This proof contains 17 Farkas lemmas. 0 Farkas lemmas participate in the lowest cut
. F 0.00
expand: query!0 (5, 0) FAR  w(0) 1
This proof contains 0 Farkas lemmas. 0 Farkas lemmas participate in the lowest cut
. F 0.00
(spacer::context::check_reachability :time 0.01 :before-memory 8.11 :after-memory 8.40)
Propagating: 3 
(spacer::context::propagate :time 0.00 :before-memory 8.40 :after-memory 8.40)
(define-fun MAIN ((x!0 Bool)
 (x!1 Bool)
 (x!2 Int)
 (x!3 Int)
 (x!4 Int)
 (x!5 Int)
 (x!6 Bool)
 (x!7 Bool)) Bool
  (let ((a!1 (not (<= (+ x!2 x!5 (* (- 1) x!3) (* (- 1) x!4)) (- 4))))
        (a!2 (not (<= (+ x!3 (* (- 1) x!2) (* (- 1) x!4) (* (- 1) x!5)) (- 4))))
        (a!3 (not (<= (+ x!2 (* (- 1) x!4) (* (- 1) x!5)) (- 4))))
        (a!4 (not (<= (+ x!3 x!4 x!5 (* (- 1) x!2)) (- 4))))
        (a!5 (not (<= (+ x!5 (* (- 1) x!2) (* (- 1) x!3) (* (- 1) x!4)) (- 4)))))
    (and a!1
         x!7
         (not x!1)
         (>= x!4 0)
         (or (= x!3 0) (= x!4 0))
         a!2
         (or (>= x!2 0) (= x!3 0))
         (or (= x!3 0) (= x!5 0))
         (not (<= x!2 (- 3)))
         a!3
         a!4
         (not (>= (+ x!2 x!3 x!4 x!5) 6))
         a!5)))
BRUNCH_STAT max_query_lvl 5
BRUNCH_STAT num_queries 27
BRUNCH_STAT num_reach_queries 2
BRUNCH_STAT num_reach_reuse 1
BRUNCH_STAT inductive_lvl 3
BRUNCH_STAT max_depth 5
BRUNCH_STAT cex_depth 0
(:SPACER-expand-node-undef             3
 :SPACER-inductive-level               3
 :SPACER-max-depth                     5
 :SPACER-max-query-lvl                 5
 :SPACER-num-invariants                15
 :SPACER-num-lemmas                    31
 :SPACER-num-properties                21
 :SPACER-num-queries                   27
 :SPACER-num-reach-queries             2
 :SPACER-num-reuse-reach-facts         1
 :added-eqs                            5345
 :arith-add-rows                       12360
 :arith-assert-diseq                   1758
 :arith-assert-lower                   4385
 :arith-assert-upper                   4477
 :arith-bound-prop                     475
 :arith-conflicts                      110
 :arith-eq-adapter                     403
 :arith-fixed-eqs                      924
 :arith-gcd-tests                      12
 :arith-ineq-splits                    1
 :arith-offset-eqs                     977
 :arith-pivots                         866
 :bool-inductive-gen                   25
 :bool-inductive-gen-failures          29
 :conflicts                            494
 :decisions                            3990
 :del-clause                           157
 :final-checks                         58
 :minimized-lits                       690
 :mk-bool-var                          1107
 :mk-clause                            2731
 :num-checks                           190
 :propagations                         57840
 :time.itp_solver.itp_core             0.02
 :time.spacer.init_rules               0.00
 :time.spacer.init_rules.pt.init       0.00
 :time.spacer.solve                    0.16
 :time.spacer.solve.propagate          0.04
 :time.spacer.solve.reach              0.12
 :time.spacer.solve.reach.children     0.01
 :time.spacer.solve.reach.gen.bool_ind 0.01
 :time.spacer.solve.reach.is-reach     0.02
 :time.virtual_solver.proof            0.01
 :time.virtual_solver.smt.total        0.12
 :time.virtual_solver.smt.total.sat    0.04
 :time.virtual_solver.smt.total.undef  0.00
 :virtual_solver.checks                190
 :virtual_solver.checks.sat            54
 :virtual_solver.checks.undef          3)
BRUNCH_STAT max_query_lvl 5
BRUNCH_STAT num_queries 27
BRUNCH_STAT num_reach_queries 2
BRUNCH_STAT num_reach_reuse 1
BRUNCH_STAT inductive_lvl 3
BRUNCH_STAT max_depth 5
BRUNCH_STAT cex_depth 0

real	0m0.207s
user	0m0.196s
sys	0m0.008s
