(transform N7datalog13mk_coi_filterE...no-op 0s)
(transform N7datalog25mk_interp_tail_simplifierE...15 rules 0s)
(transform N7datalog27mk_quantifier_instantiationE...no-op 0s)
(transform N7datalog8mk_scaleE...no-op 0s)
(transform N7datalog18mk_karr_invariantsE...no-op 0s)
(transform N7datalog14mk_array_blastE...no-op 0s)
(transform N7datalog22mk_subsumption_checkerE...14 rules 0s)
(transform N7datalog12mk_bit_blastE...no-op 0s)
(transform N7datalog15mk_rule_inlinerE...3 rules 0.00559715s)
(transform N7datalog13mk_coi_filterE...no-op 0s)
(transform N7datalog25mk_interp_tail_simplifierE...3 rules 0s)
(transform N7datalog22mk_subsumption_checkerE...no-op 0s)
(transform N7datalog15mk_rule_inlinerE...no-op 0s)
(transform N7datalog13mk_coi_filterE...no-op 0s)
(transform N7datalog25mk_interp_tail_simplifierE...3 rules 0s)
(transform N7datalog22mk_subsumption_checkerE...no-op 0s)
(transform N7datalog15mk_rule_inlinerE...no-op 0s)
(transform N7datalog22mk_subsumption_checkerE...no-op 0s)
(transform N7datalog15mk_rule_inlinerE...no-op 0s)
(transform N7datalog22mk_subsumption_checkerE...no-op 0s)
(transform N7datalog15mk_rule_inlinerE...no-op 0s)
(transform N7datalog22mk_subsumption_checkerE...no-op 0s)
(transform N7datalog8mk_sliceE...no-op 0s)
expand: query!0 (0, 0) FAR  w(0) 1
This proof contains 0 Farkas lemmas. 0 Farkas lemmas participate in the lowest cut
. F 0.00
(spacer::context::check_reachability :time 0.00 :before-memory 4.52 :after-memory 5.04)
Entering level 1
BRUNCH_STAT max_query_lvl 0
BRUNCH_STAT num_queries 0
BRUNCH_STAT num_reach_queries 0
BRUNCH_STAT num_reach_reuse 0
BRUNCH_STAT inductive_lvl 0
BRUNCH_STAT max_depth 1
BRUNCH_STAT cex_depth 0
expand: query!0 (1, 0) FAR  w(0) 1.
	create_child: MAIN (0, 1) FAR 3277 U 0.00
expand: MAIN (0, 0) FAR  w(0) 3277
This proof contains 0 Farkas lemmas. 0 Farkas lemmas participate in the lowest cut
. F 0.00
expand: query!0 (1, 0) FAR  w(0) 1
This proof contains 0 Farkas lemmas. 0 Farkas lemmas participate in the lowest cut
. F 0.00
(spacer::context::check_reachability :time 0.00 :before-memory 5.04 :after-memory 5.85)
Propagating: 0 1  ! 2 
(spacer::context::propagate :time 0.00 :before-memory 5.85 :after-memory 5.85)
Entering level 2
BRUNCH_STAT max_query_lvl 1
BRUNCH_STAT num_queries 1
BRUNCH_STAT num_reach_queries 0
BRUNCH_STAT num_reach_reuse 0
BRUNCH_STAT inductive_lvl 0
BRUNCH_STAT max_depth 2
BRUNCH_STAT cex_depth 0
expand: query!0 (2, 0) FAR  w(0) 1.
	create_child: MAIN (1, 2) FAR 3277 U 0.00
expand: MAIN (1, 0) FAR  w(0) 3277.
	create_child: MAIN (0, 2) FAR 5227 U 0.00
expand: MAIN (0, 0) FAR  w(0) 5227
This proof contains 0 Farkas lemmas. 0 Farkas lemmas participate in the lowest cut
. F 0.00
expand: MAIN (1, 0) FAR  w(0) 3277.
	create_child: MAIN (0, 2) FAR 5461 U 0.00
expand: MAIN (0, 0) FAR  w(0) 5461
This proof contains 0 Farkas lemmas. 0 Farkas lemmas participate in the lowest cut
. F 0.00
expand: MAIN (1, 0) FAR  w(0) 3277.
	create_child: MAIN (0, 2) FAR 5576 U 0.00
expand: MAIN (0, 0) FAR  w(0) 5576
This proof contains 0 Farkas lemmas. 0 Farkas lemmas participate in the lowest cut
. F 0.00
expand: MAIN (1, 0) FAR  w(0) 3277.
	create_child: MAIN (0, 2) FAR 5620 U 0.00
expand: MAIN (0, 0) FAR  w(0) 5620
This proof contains 0 Farkas lemmas. 0 Farkas lemmas participate in the lowest cut
. F 0.00
expand: MAIN (1, 0) FAR  w(0) 3277.
	create_child: MAIN (0, 2) FAR 5805 U 0.00
expand: MAIN (0, 0) FAR  w(0) 5805
This proof contains 0 Farkas lemmas. 0 Farkas lemmas participate in the lowest cut
. F 0.00
expand: MAIN (1, 0) FAR  w(0) 3277.
	create_child: MAIN (0, 2) FAR 6070 U 0.00
expand: MAIN (0, 0) FAR  w(0) 6070
This proof contains 0 Farkas lemmas. 0 Farkas lemmas participate in the lowest cut
. F 0.00
expand: MAIN (1, 0) FAR  w(0) 3277.
	create_child: MAIN (0, 2) FAR 6153 U 0.00
expand: MAIN (0, 0) FAR  w(0) 6153
This proof contains 0 Farkas lemmas. 0 Farkas lemmas participate in the lowest cut
. F 0.00
expand: MAIN (1, 0) FAR  w(0) 3277.
	create_child: MAIN (0, 2) FAR 6251 U 0.00
expand: MAIN (0, 0) FAR  w(0) 6251
This proof contains 0 Farkas lemmas. 0 Farkas lemmas participate in the lowest cut
. F 0.00
expand: MAIN (1, 0) FAR  w(0) 3277.
	create_child: MAIN (0, 2) FAR 6432 U 0.00
expand: MAIN (0, 0) FAR  w(0) 6432
This proof contains 0 Farkas lemmas. 0 Farkas lemmas participate in the lowest cut
. F 0.00
expand: MAIN (1, 0) FAR  w(0) 3277
This proof contains 1 Farkas lemmas. 0 Farkas lemmas participate in the lowest cut
. F 0.00
expand: query!0 (2, 0) FAR  w(0) 1
This proof contains 0 Farkas lemmas. 0 Farkas lemmas participate in the lowest cut
. F 0.00
(spacer::context::check_reachability :time 0.02 :before-memory 5.85 :after-memory 6.33)
Propagating: 0 1 2  ! 3 
(spacer::context::propagate :time 0.00 :before-memory 6.33 :after-memory 6.33)
Entering level 3
BRUNCH_STAT max_query_lvl 2
BRUNCH_STAT num_queries 11
BRUNCH_STAT num_reach_queries 0
BRUNCH_STAT num_reach_reuse 0
BRUNCH_STAT inductive_lvl 0
BRUNCH_STAT max_depth 3
BRUNCH_STAT cex_depth 0
expand: query!0 (3, 0) FAR  w(0) 1.
	create_child: MAIN (2, 3) FAR 3277 U 0.00
expand: MAIN (2, 0) FAR  w(0) 3277.
	create_child: MAIN (1, 3) FAR 7154 U 0.00
expand: MAIN (1, 0) FAR  w(0) 7154
This proof contains 2 Farkas lemmas. 0 Farkas lemmas participate in the lowest cut
. F 0.00
expand: MAIN (2, 0) FAR  w(0) 3277.
	create_child: MAIN (1, 3) FAR 7406 U 0.00
expand: MAIN (1, 0) FAR  w(0) 7406
This proof contains 2 Farkas lemmas. 0 Farkas lemmas participate in the lowest cut
. F 0.00
expand: MAIN (2, 0) FAR  w(0) 3277.
	create_child: MAIN (1, 3) FAR 7610 U 0.00
expand: MAIN (1, 0) FAR  w(0) 7610
This proof contains 0 Farkas lemmas. 0 Farkas lemmas participate in the lowest cut
. F 0.00
expand: MAIN (2, 0) FAR  w(0) 3277.
	create_child: MAIN (1, 3) FAR 7649 U 0.00
expand: MAIN (1, 0) FAR  w(0) 7649
This proof contains 4 Farkas lemmas. 0 Farkas lemmas participate in the lowest cut
. F 0.00
expand: MAIN (2, 0) FAR  w(0) 3277
This proof contains 1 Farkas lemmas. 0 Farkas lemmas participate in the lowest cut
. F 0.00
expand: query!0 (3, 0) FAR  w(0) 1
This proof contains 0 Farkas lemmas. 0 Farkas lemmas participate in the lowest cut
. F 0.00
(spacer::context::check_reachability :time 0.01 :before-memory 6.33 :after-memory 6.42)
Propagating: 1 2 3  ! 4 
(spacer::context::propagate :time 0.00 :before-memory 6.42 :after-memory 6.42)
Entering level 4
BRUNCH_STAT max_query_lvl 3
BRUNCH_STAT num_queries 16
BRUNCH_STAT num_reach_queries 0
BRUNCH_STAT num_reach_reuse 0
BRUNCH_STAT inductive_lvl 0
BRUNCH_STAT max_depth 4
BRUNCH_STAT cex_depth 0
expand: query!0 (4, 0) FAR  w(0) 1.
	create_child: MAIN (3, 4) FAR 3277 U 0.00
expand: MAIN (3, 0) FAR  w(0) 3277.
	create_child: MAIN (2, 4) FAR 8124 U 0.00
expand: MAIN (2, 0) FAR  w(0) 8124.
	create_child: MAIN (1, 4) FAR 8316 U 0.00
expand: MAIN (1, 0) FAR  w(0) 8316
This proof contains 2 Farkas lemmas. 0 Farkas lemmas participate in the lowest cut
. F 0.00
expand: MAIN (2, 0) FAR  w(0) 8124
This proof contains 5 Farkas lemmas. 0 Farkas lemmas participate in the lowest cut
. F 0.00
expand: MAIN (3, 0) FAR  w(0) 3277.
	create_child: MAIN (2, 4) FAR 8203 U 0.00
expand: MAIN (2, 0) FAR  w(0) 8203
This proof contains 0 Farkas lemmas. 0 Farkas lemmas participate in the lowest cut
. F 0.00
expand: MAIN (3, 0) FAR  w(0) 3277.
	create_child: MAIN (2, 4) FAR 8787 U 0.00
expand: MAIN (2, 0) FAR  w(0) 8787
This proof contains 3 Farkas lemmas. 0 Farkas lemmas participate in the lowest cut
. F 0.00
expand: MAIN (3, 0) FAR  w(0) 3277
This proof contains 2 Farkas lemmas. 0 Farkas lemmas participate in the lowest cut
. F 0.00
expand: query!0 (4, 0) FAR  w(0) 1
This proof contains 0 Farkas lemmas. 0 Farkas lemmas participate in the lowest cut
. F 0.00
(spacer::context::check_reachability :time 0.02 :before-memory 6.42 :after-memory 6.61)
Propagating: 1 2 3 4  ! 5 
(spacer::context::propagate :time 0.00 :before-memory 6.61 :after-memory 6.61)
Entering level 5
BRUNCH_STAT max_query_lvl 4
BRUNCH_STAT num_queries 21
BRUNCH_STAT num_reach_queries 0
BRUNCH_STAT num_reach_reuse 0
BRUNCH_STAT inductive_lvl 0
BRUNCH_STAT max_depth 5
BRUNCH_STAT cex_depth 0
expand: query!0 (5, 0) FAR  w(0) 1.
	create_child: MAIN (4, 5) FAR 3277 U 0.00
expand: MAIN (4, 0) FAR  w(0) 3277.
	create_child: MAIN (3, 5) FAR 9097 U 0.00
expand: MAIN (3, 0) FAR  w(0) 9097.
	create_child: MAIN (2, 5) FAR 9484 U 0.00
expand: MAIN (2, 0) FAR  w(0) 9484
This proof contains 5 Farkas lemmas. 0 Farkas lemmas participate in the lowest cut
. F 0.00
expand: MAIN (3, 0) FAR  w(0) 9097
This proof contains 4 Farkas lemmas. 0 Farkas lemmas participate in the lowest cut
. F 0.00
expand: MAIN (4, 0) FAR  w(0) 3277
This proof contains 2 Farkas lemmas. 0 Farkas lemmas participate in the lowest cut
. F 0.00
expand: query!0 (5, 0) FAR  w(0) 1
This proof contains 0 Farkas lemmas. 0 Farkas lemmas participate in the lowest cut
. F 0.00
(spacer::context::check_reachability :time 0.01 :before-memory 6.61 :after-memory 6.61)
Propagating: 2 3 4 5  ! 6 
(spacer::context::propagate :time 0.00 :before-memory 6.61 :after-memory 6.61)
Entering level 6
BRUNCH_STAT max_query_lvl 5
BRUNCH_STAT num_queries 24
BRUNCH_STAT num_reach_queries 0
BRUNCH_STAT num_reach_reuse 0
BRUNCH_STAT inductive_lvl 0
BRUNCH_STAT max_depth 6
BRUNCH_STAT cex_depth 0
expand: query!0 (6, 0) FAR  w(0) 1.
	create_child: MAIN (5, 6) FAR 3277 U 0.00
expand: MAIN (5, 0) FAR  w(0) 3277.
	create_child: MAIN (4, 6) FAR 9775 U 0.00
expand: MAIN (4, 0) FAR  w(0) 9775.
	create_child: MAIN (3, 6) FAR 9875 U 0.00
expand: MAIN (3, 0) FAR  w(0) 9875
This proof contains 3 Farkas lemmas. 0 Farkas lemmas participate in the lowest cut
. F 0.00
expand: MAIN (4, 0) FAR  w(0) 9775
This proof contains 5 Farkas lemmas. 0 Farkas lemmas participate in the lowest cut
. F 0.00
expand: MAIN (5, 0) FAR  w(0) 3277
This proof contains 2 Farkas lemmas. 0 Farkas lemmas participate in the lowest cut
. F 0.00
expand: query!0 (6, 0) FAR  w(0) 1
This proof contains 0 Farkas lemmas. 0 Farkas lemmas participate in the lowest cut
. F 0.00
(spacer::context::check_reachability :time 0.01 :before-memory 6.61 :after-memory 6.71)
Propagating: 3 4 5 6  ! 7 
(spacer::context::propagate :time 0.00 :before-memory 6.71 :after-memory 6.71)
Entering level 7
BRUNCH_STAT max_query_lvl 6
BRUNCH_STAT num_queries 27
BRUNCH_STAT num_reach_queries 0
BRUNCH_STAT num_reach_reuse 0
BRUNCH_STAT inductive_lvl 0
BRUNCH_STAT max_depth 7
BRUNCH_STAT cex_depth 0
expand: query!0 (7, 0) FAR  w(0) 1.
	create_child: MAIN (6, 7) FAR 3277 U 0.00
expand: MAIN (6, 0) FAR  w(0) 3277.
	create_child: MAIN (5, 7) FAR 9775 U 0.00
expand: MAIN (5, 0) FAR  w(0) 9775.
	create_child: MAIN (4, 7) FAR 10240 U 0.00
expand: MAIN (4, 0) FAR  w(0) 10240.
	create_child: MAIN (3, 7) FAR 10351 U 0.00
expand: MAIN (3, 0) FAR  w(0) 10351
This proof contains 4 Farkas lemmas. 0 Farkas lemmas participate in the lowest cut
. F 0.00
expand: MAIN (4, 0) FAR  w(0) 10240
This proof contains 5 Farkas lemmas. 0 Farkas lemmas participate in the lowest cut
. F 0.00
expand: MAIN (5, 0) FAR  w(0) 9775
This proof contains 5 Farkas lemmas. 0 Farkas lemmas participate in the lowest cut
. F 0.00
expand: MAIN (6, 0) FAR  w(0) 3277
This proof contains 2 Farkas lemmas. 0 Farkas lemmas participate in the lowest cut
. F 0.00
expand: query!0 (7, 0) FAR  w(0) 1
This proof contains 0 Farkas lemmas. 0 Farkas lemmas participate in the lowest cut
. F 0.00
(spacer::context::check_reachability :time 0.01 :before-memory 6.71 :after-memory 6.71)
Propagating: 3 4 5 6 7  ! 8 
(spacer::context::propagate :time 0.00 :before-memory 6.71 :after-memory 6.71)
Entering level 8
BRUNCH_STAT max_query_lvl 7
BRUNCH_STAT num_queries 31
BRUNCH_STAT num_reach_queries 0
BRUNCH_STAT num_reach_reuse 0
BRUNCH_STAT inductive_lvl 0
BRUNCH_STAT max_depth 8
BRUNCH_STAT cex_depth 0
expand: query!0 (8, 0) FAR  w(0) 1.
	create_child: MAIN (7, 8) FAR 3277 U 0.00
expand: MAIN (7, 0) FAR  w(0) 3277.
	create_child: MAIN (6, 8) FAR 10407 U 0.00
expand: MAIN (6, 0) FAR  w(0) 10407.
	create_child: MAIN (5, 8) FAR 10802 U 0.00
expand: MAIN (5, 0) FAR  w(0) 10802.
	create_child: MAIN (4, 8) FAR 10555 U 0.00
expand: MAIN (4, 0) FAR  w(0) 10555.
	create_child: MAIN (3, 8) FAR 10847 U 0.00
expand: MAIN (3, 0) FAR  w(0) 10847
This proof contains 4 Farkas lemmas. 0 Farkas lemmas participate in the lowest cut
. F 0.00
expand: MAIN (4, 0) FAR  w(0) 10555
This proof contains 5 Farkas lemmas. 0 Farkas lemmas participate in the lowest cut
. F 0.00
expand: MAIN (5, 0) FAR  w(0) 10802
This proof contains 4 Farkas lemmas. 0 Farkas lemmas participate in the lowest cut
. F 0.00
expand: MAIN (6, 0) FAR  w(0) 10407
This proof contains 5 Farkas lemmas. 0 Farkas lemmas participate in the lowest cut
. F 0.00
expand: MAIN (7, 0) FAR  w(0) 3277
This proof contains 2 Farkas lemmas. 0 Farkas lemmas participate in the lowest cut
. F 0.00
expand: query!0 (8, 0) FAR  w(0) 1
This proof contains 0 Farkas lemmas. 0 Farkas lemmas participate in the lowest cut
. F 0.00
(spacer::context::check_reachability :time 0.01 :before-memory 6.71 :after-memory 6.81)
Propagating: 3 4 5 6 7 8  ! 9 
(spacer::context::propagate :time 0.00 :before-memory 6.81 :after-memory 6.81)
Entering level 9
BRUNCH_STAT max_query_lvl 8
BRUNCH_STAT num_queries 36
BRUNCH_STAT num_reach_queries 0
BRUNCH_STAT num_reach_reuse 0
BRUNCH_STAT inductive_lvl 0
BRUNCH_STAT max_depth 9
BRUNCH_STAT cex_depth 0
expand: query!0 (9, 0) FAR  w(0) 1.
	create_child: MAIN (8, 9) FAR 3277 U 0.00
expand: MAIN (8, 0) FAR  w(0) 3277.
	create_child: MAIN (7, 9) FAR 11068 U 0.00
expand: MAIN (7, 0) FAR  w(0) 11068.
	create_child: MAIN (6, 9) FAR 11387 U 0.00
expand: MAIN (6, 0) FAR  w(0) 11387.
	create_child: MAIN (5, 9) FAR 10555 U 0.00
expand: MAIN (5, 0) FAR  w(0) 10555.
	create_child: MAIN (4, 9) FAR 10847 U 0.00
expand: MAIN (4, 0) FAR  w(0) 10847.
	create_child: MAIN (3, 9) FAR 11292 U 0.00
expand: MAIN (3, 0) FAR  w(0) 11292
This proof contains 4 Farkas lemmas. 0 Farkas lemmas participate in the lowest cut
. F 0.00
expand: MAIN (4, 0) FAR  w(0) 10847
This proof contains 5 Farkas lemmas. 0 Farkas lemmas participate in the lowest cut
. F 0.00
expand: MAIN (5, 0) FAR  w(0) 10555
This proof contains 4 Farkas lemmas. 0 Farkas lemmas participate in the lowest cut
. F 0.00
expand: MAIN (6, 0) FAR  w(0) 11387
This proof contains 4 Farkas lemmas. 0 Farkas lemmas participate in the lowest cut
. F 0.00
expand: MAIN (7, 0) FAR  w(0) 11068
This proof contains 5 Farkas lemmas. 0 Farkas lemmas participate in the lowest cut
. F 0.00
expand: MAIN (8, 0) FAR  w(0) 3277
This proof contains 2 Farkas lemmas. 0 Farkas lemmas participate in the lowest cut
. F 0.00
expand: query!0 (9, 0) FAR  w(0) 1
This proof contains 0 Farkas lemmas. 0 Farkas lemmas participate in the lowest cut
. F 0.00
(spacer::context::check_reachability :time 0.02 :before-memory 6.81 :after-memory 7.22)
Propagating: 3 4 5 6 7 8 9  ! 10 
(spacer::context::propagate :time 0.00 :before-memory 7.22 :after-memory 7.22)
Entering level 10
BRUNCH_STAT max_query_lvl 9
BRUNCH_STAT num_queries 42
BRUNCH_STAT num_reach_queries 0
BRUNCH_STAT num_reach_reuse 0
BRUNCH_STAT inductive_lvl 0
BRUNCH_STAT max_depth 10
BRUNCH_STAT cex_depth 0
expand: query!0 (10, 0) FAR  w(0) 1.
	create_child: MAIN (9, 10) FAR 3277 U 0.00
expand: MAIN (9, 0) FAR  w(0) 3277.
	create_child: MAIN (8, 10) FAR 9775 U 0.00
expand: MAIN (8, 0) FAR  w(0) 9775.
	create_child: MAIN (7, 10) FAR 9875 U 0.00
expand: MAIN (7, 0) FAR  w(0) 9875.
	create_child: MAIN (6, 10) FAR 11982 U 0.00
expand: MAIN (6, 0) FAR  w(0) 11982.
	create_child: MAIN (5, 10) FAR 11945 U 0.00
expand: MAIN (5, 0) FAR  w(0) 11945.
	create_child: MAIN (4, 10) FAR 11955 U 0.00
expand: MAIN (4, 0) FAR  w(0) 11955.
	create_child: MAIN (3, 10) FAR 11977 U 0.00
expand: MAIN (3, 0) FAR  w(0) 11977
This proof contains 4 Farkas lemmas. 0 Farkas lemmas participate in the lowest cut
. F 0.00
expand: MAIN (4, 0) FAR  w(0) 11955
This proof contains 5 Farkas lemmas. 0 Farkas lemmas participate in the lowest cut
. F 0.00
expand: MAIN (5, 0) FAR  w(0) 11945
This proof contains 4 Farkas lemmas. 0 Farkas lemmas participate in the lowest cut
. F 0.00
expand: MAIN (6, 0) FAR  w(0) 11982
This proof contains 4 Farkas lemmas. 0 Farkas lemmas participate in the lowest cut
. F 0.00
expand: MAIN (7, 0) FAR  w(0) 9875
This proof contains 4 Farkas lemmas. 0 Farkas lemmas participate in the lowest cut
. F 0.00
expand: MAIN (8, 0) FAR  w(0) 9775
This proof contains 5 Farkas lemmas. 0 Farkas lemmas participate in the lowest cut
. F 0.00
expand: MAIN (9, 0) FAR  w(0) 3277
This proof contains 2 Farkas lemmas. 0 Farkas lemmas participate in the lowest cut
. F 0.00
expand: query!0 (10, 0) FAR  w(0) 1
This proof contains 0 Farkas lemmas. 0 Farkas lemmas participate in the lowest cut
. F 0.00
(spacer::context::check_reachability :time 0.02 :before-memory 7.22 :after-memory 7.32)
Propagating: 3 4 5 6 7 8 9 10  ! 11 
(spacer::context::propagate :time 0.00 :before-memory 7.32 :after-memory 7.32)
Entering level 11
BRUNCH_STAT max_query_lvl 10
BRUNCH_STAT num_queries 49
BRUNCH_STAT num_reach_queries 0
BRUNCH_STAT num_reach_reuse 0
BRUNCH_STAT inductive_lvl 0
BRUNCH_STAT max_depth 11
BRUNCH_STAT cex_depth 0
expand: query!0 (11, 0) FAR  w(0) 1.
	create_child: MAIN (10, 11) FAR 3277 U 0.00
expand: MAIN (10, 0) FAR  w(0) 3277.
	create_child: MAIN (9, 11) FAR 12094 U 0.00
expand: MAIN (9, 0) FAR  w(0) 12094
This proof contains 2 Farkas lemmas. 0 Farkas lemmas participate in the lowest cut
. F 0.00
expand: MAIN (10, 0) FAR  w(0) 3277.
	create_child: MAIN (9, 11) FAR 12919 U 0.00
expand: MAIN (9, 0) FAR  w(0) 12919.
	create_child: MAIN (8, 11) FAR 13031 U 0.00
expand: MAIN (8, 0) FAR  w(0) 13031.
	create_child: MAIN (7, 11) FAR 12964 U 0.00
expand: MAIN (7, 0) FAR  w(0) 12964.
	create_child: MAIN (6, 11) FAR 13015 U 0.00
expand: MAIN (6, 0) FAR  w(0) 13015.
	create_child: MAIN (5, 11) FAR 12991 U 0.00
expand: MAIN (5, 0) FAR  w(0) 12991.
	create_child: MAIN (4, 11) FAR 13062 U 0.00
expand: MAIN (4, 0) FAR  w(0) 13062.
	create_child: MAIN (3, 11) FAR 13338 U 0.00
expand: MAIN (3, 0) FAR  w(0) 13338
This proof contains 4 Farkas lemmas. 0 Farkas lemmas participate in the lowest cut
. F 0.00
expand: MAIN (4, 0) FAR  w(0) 13062
This proof contains 5 Farkas lemmas. 0 Farkas lemmas participate in the lowest cut
. F 0.00
expand: MAIN (5, 0) FAR  w(0) 12991
This proof contains 4 Farkas lemmas. 0 Farkas lemmas participate in the lowest cut
. F 0.00
expand: MAIN (6, 0) FAR  w(0) 13015
This proof contains 4 Farkas lemmas. 0 Farkas lemmas participate in the lowest cut
. F 0.00
expand: MAIN (7, 0) FAR  w(0) 12964
This proof contains 4 Farkas lemmas. 0 Farkas lemmas participate in the lowest cut
. F 0.00
expand: MAIN (8, 0) FAR  w(0) 13031
This proof contains 4 Farkas lemmas. 0 Farkas lemmas participate in the lowest cut
. F 0.00
expand: MAIN (9, 0) FAR  w(0) 12919
This proof contains 4 Farkas lemmas. 0 Farkas lemmas participate in the lowest cut
. F 0.00
expand: MAIN (10, 0) FAR  w(0) 3277
This proof contains 2 Farkas lemmas. 0 Farkas lemmas participate in the lowest cut
. F 0.00
expand: query!0 (11, 0) FAR  w(0) 1
This proof contains 0 Farkas lemmas. 0 Farkas lemmas participate in the lowest cut
. F 0.00
(spacer::context::check_reachability :time 0.03 :before-memory 7.32 :after-memory 7.51)
Propagating: 3 4 5 6 7 8 9 10 11  ! 12 
(spacer::context::propagate :time 0.00 :before-memory 7.51 :after-memory 7.51)
Entering level 12
BRUNCH_STAT max_query_lvl 11
BRUNCH_STAT num_queries 58
BRUNCH_STAT num_reach_queries 0
BRUNCH_STAT num_reach_reuse 0
BRUNCH_STAT inductive_lvl 0
BRUNCH_STAT max_depth 12
BRUNCH_STAT cex_depth 0
expand: query!0 (12, 0) FAR  w(0) 1.
	create_child: MAIN (11, 12) FAR 3277 U 0.00
expand: MAIN (11, 0) FAR  w(0) 3277.
	create_child: MAIN (10, 12) FAR 10407 U 0.00
expand: MAIN (10, 0) FAR  w(0) 10407.
	create_child: MAIN (9, 12) FAR 10802 U 0.00
expand: MAIN (9, 0) FAR  w(0) 10802.
	create_child: MAIN (8, 12) FAR 10555 U 0.00
expand: MAIN (8, 0) FAR  w(0) 10555.
	create_child: MAIN (7, 12) FAR 10847 U 0.00
expand: MAIN (7, 0) FAR  w(0) 10847.
	create_child: MAIN (6, 12) FAR 11292 U 0.00
expand: MAIN (6, 0) FAR  w(0) 11292.
	create_child: MAIN (5, 12) FAR 14003 U 0.00
expand: MAIN (5, 0) FAR  w(0) 14003.
	create_child: MAIN (4, 12) FAR 13747 U 0.00
expand: MAIN (4, 0) FAR  w(0) 13747.
	create_child: MAIN (3, 12) FAR 14209 U 0.00
expand: MAIN (3, 0) FAR  w(0) 14209
This proof contains 4 Farkas lemmas. 0 Farkas lemmas participate in the lowest cut
. F 0.00
expand: MAIN (4, 0) FAR  w(0) 13747
This proof contains 5 Farkas lemmas. 0 Farkas lemmas participate in the lowest cut
. F 0.00
expand: MAIN (5, 0) FAR  w(0) 14003
This proof contains 4 Farkas lemmas. 0 Farkas lemmas participate in the lowest cut
. F 0.00
expand: MAIN (6, 0) FAR  w(0) 11292
This proof contains 4 Farkas lemmas. 0 Farkas lemmas participate in the lowest cut
. F 0.00
expand: MAIN (7, 0) FAR  w(0) 10847
This proof contains 4 Farkas lemmas. 0 Farkas lemmas participate in the lowest cut
. F 0.00
expand: MAIN (8, 0) FAR  w(0) 10555
This proof contains 4 Farkas lemmas. 0 Farkas lemmas participate in the lowest cut
. F 0.00
expand: MAIN (9, 0) FAR  w(0) 10802
This proof contains 4 Farkas lemmas. 0 Farkas lemmas participate in the lowest cut
. F 0.00
expand: MAIN (10, 0) FAR  w(0) 10407
This proof contains 5 Farkas lemmas. 0 Farkas lemmas participate in the lowest cut
. F 0.00
expand: MAIN (11, 0) FAR  w(0) 3277
This proof contains 2 Farkas lemmas. 0 Farkas lemmas participate in the lowest cut
. F 0.00
expand: query!0 (12, 0) FAR  w(0) 1
This proof contains 0 Farkas lemmas. 0 Farkas lemmas participate in the lowest cut
. F 0.00
(spacer::context::check_reachability :time 0.03 :before-memory 7.51 :after-memory 7.61)
Propagating: 3 4 5 6 7 8 9 10 11 12  ! 13 
(spacer::context::propagate :time 0.01 :before-memory 7.61 :after-memory 7.61)
Entering level 13
BRUNCH_STAT max_query_lvl 12
BRUNCH_STAT num_queries 67
BRUNCH_STAT num_reach_queries 0
BRUNCH_STAT num_reach_reuse 0
BRUNCH_STAT inductive_lvl 0
BRUNCH_STAT max_depth 13
BRUNCH_STAT cex_depth 0
expand: query!0 (13, 0) FAR  w(0) 1.
	create_child: MAIN (12, 13) FAR 3277 U 0.00
expand: MAIN (12, 0) FAR  w(0) 3277.
	create_child: MAIN (11, 13) FAR 11068 U 0.00
expand: MAIN (11, 0) FAR  w(0) 11068.
	create_child: MAIN (10, 13) FAR 11387 U 0.00
expand: MAIN (10, 0) FAR  w(0) 11387.
	create_child: MAIN (9, 13) FAR 10555 U 0.00
expand: MAIN (9, 0) FAR  w(0) 10555.
	create_child: MAIN (8, 13) FAR 10847 U 0.00
expand: MAIN (8, 0) FAR  w(0) 10847.
	create_child: MAIN (7, 13) FAR 11292 U 0.00
expand: MAIN (7, 0) FAR  w(0) 11292.
	create_child: MAIN (6, 13) FAR 14930 U 0.00
expand: MAIN (6, 0) FAR  w(0) 14930.
	create_child: MAIN (5, 13) FAR 13747 U 0.00
expand: MAIN (5, 0) FAR  w(0) 13747.
	create_child: MAIN (4, 13) FAR 14209 U 0.00
expand: MAIN (4, 0) FAR  w(0) 14209.
	create_child: MAIN (3, 13) FAR 15169 U 0.00
expand: MAIN (3, 0) FAR  w(0) 15169
This proof contains 3 Farkas lemmas. 0 Farkas lemmas participate in the lowest cut
. F 0.00
expand: MAIN (4, 0) FAR  w(0) 14209
This proof contains 5 Farkas lemmas. 0 Farkas lemmas participate in the lowest cut
. F 0.00
expand: MAIN (5, 0) FAR  w(0) 13747
This proof contains 4 Farkas lemmas. 0 Farkas lemmas participate in the lowest cut
. F 0.00
expand: MAIN (6, 0) FAR  w(0) 14930
This proof contains 4 Farkas lemmas. 0 Farkas lemmas participate in the lowest cut
. F 0.00
expand: MAIN (7, 0) FAR  w(0) 11292
This proof contains 4 Farkas lemmas. 0 Farkas lemmas participate in the lowest cut
. F 0.00
expand: MAIN (8, 0) FAR  w(0) 10847
This proof contains 4 Farkas lemmas. 0 Farkas lemmas participate in the lowest cut
. F 0.00
expand: MAIN (9, 0) FAR  w(0) 10555
This proof contains 4 Farkas lemmas. 0 Farkas lemmas participate in the lowest cut
. F 0.00
expand: MAIN (10, 0) FAR  w(0) 11387
This proof contains 4 Farkas lemmas. 0 Farkas lemmas participate in the lowest cut
. F 0.00
expand: MAIN (11, 0) FAR  w(0) 11068
This proof contains 5 Farkas lemmas. 0 Farkas lemmas participate in the lowest cut
. F 0.00
expand: MAIN (12, 0) FAR  w(0) 3277
This proof contains 2 Farkas lemmas. 0 Farkas lemmas participate in the lowest cut
. F 0.00
expand: query!0 (13, 0) FAR  w(0) 1
This proof contains 0 Farkas lemmas. 0 Farkas lemmas participate in the lowest cut
. F 0.00
(spacer::context::check_reachability :time 0.03 :before-memory 7.61 :after-memory 7.70)
Propagating: 3 4 5 6 7 8 9 10 11 12 13  ! 14 
(spacer::context::propagate :time 0.01 :before-memory 7.70 :after-memory 7.70)
Entering level 14
BRUNCH_STAT max_query_lvl 13
BRUNCH_STAT num_queries 77
BRUNCH_STAT num_reach_queries 0
BRUNCH_STAT num_reach_reuse 0
BRUNCH_STAT inductive_lvl 0
BRUNCH_STAT max_depth 14
BRUNCH_STAT cex_depth 0
expand: query!0 (14, 0) FAR  w(0) 1.
	create_child: MAIN (13, 14) FAR 3277 U 0.00
expand: MAIN (13, 0) FAR  w(0) 3277.
	create_child: MAIN (12, 14) FAR 10407 U 0.00
expand: MAIN (12, 0) FAR  w(0) 10407.
	create_child: MAIN (11, 14) FAR 11387 U 0.00
expand: MAIN (11, 0) FAR  w(0) 11387.
	create_child: MAIN (10, 14) FAR 15363 U 0.00
expand: MAIN (10, 0) FAR  w(0) 15363.
	create_child: MAIN (9, 14) FAR 10847 U 0.00
expand: MAIN (9, 0) FAR  w(0) 10847.
	create_child: MAIN (8, 14) FAR 11292 U 0.00
expand: MAIN (8, 0) FAR  w(0) 11292.
	create_child: MAIN (7, 14) FAR 14930 U 0.00
expand: MAIN (7, 0) FAR  w(0) 14930.
	create_child: MAIN (6, 14) FAR 15429 U 0.00
expand: MAIN (6, 0) FAR  w(0) 15429.
	create_child: MAIN (5, 14) FAR 15813 U 0.00
expand: MAIN (5, 0) FAR  w(0) 15813.
	create_child: MAIN (4, 14) FAR 15960 U 0.00
expand: MAIN (4, 0) FAR  w(0) 15960.
	create_child: MAIN (3, 14) FAR 15996 U 0.00
expand: MAIN (3, 0) FAR  w(0) 15996
This proof contains 3 Farkas lemmas. 0 Farkas lemmas participate in the lowest cut
. F 0.00
expand: MAIN (4, 0) FAR  w(0) 15960
This proof contains 4 Farkas lemmas. 0 Farkas lemmas participate in the lowest cut
. F 0.00
expand: MAIN (5, 0) FAR  w(0) 15813
This proof contains 4 Farkas lemmas. 0 Farkas lemmas participate in the lowest cut
. F 0.00
expand: MAIN (6, 0) FAR  w(0) 15429
This proof contains 4 Farkas lemmas. 0 Farkas lemmas participate in the lowest cut
. F 0.00
expand: MAIN (7, 0) FAR  w(0) 14930
This proof contains 4 Farkas lemmas. 0 Farkas lemmas participate in the lowest cut
. F 0.00
expand: MAIN (8, 0) FAR  w(0) 11292
This proof contains 4 Farkas lemmas. 0 Farkas lemmas participate in the lowest cut
. F 0.00
expand: MAIN (9, 0) FAR  w(0) 10847
This proof contains 4 Farkas lemmas. 0 Farkas lemmas participate in the lowest cut
. F 0.00
expand: MAIN (10, 0) FAR  w(0) 15363
This proof contains 4 Farkas lemmas. 0 Farkas lemmas participate in the lowest cut
. F 0.00
expand: MAIN (11, 0) FAR  w(0) 11387
This proof contains 4 Farkas lemmas. 0 Farkas lemmas participate in the lowest cut
. F 0.00
expand: MAIN (12, 0) FAR  w(0) 10407
This proof contains 5 Farkas lemmas. 0 Farkas lemmas participate in the lowest cut
. F 0.00
expand: MAIN (13, 0) FAR  w(0) 3277
This proof contains 2 Farkas lemmas. 0 Farkas lemmas participate in the lowest cut
. F 0.00
expand: query!0 (14, 0) FAR  w(0) 1
This proof contains 0 Farkas lemmas. 0 Farkas lemmas participate in the lowest cut
. F 0.00
(spacer::context::check_reachability :time 0.03 :before-memory 7.70 :after-memory 7.80)
Propagating: 3 4 5 6 7 8 9 10 11 12 13 14  ! 15 
(spacer::context::propagate :time 0.01 :before-memory 7.80 :after-memory 7.80)
Entering level 15
BRUNCH_STAT max_query_lvl 14
BRUNCH_STAT num_queries 88
BRUNCH_STAT num_reach_queries 0
BRUNCH_STAT num_reach_reuse 0
BRUNCH_STAT inductive_lvl 0
BRUNCH_STAT max_depth 15
BRUNCH_STAT cex_depth 0
expand: query!0 (15, 0) FAR  w(0) 1.
	create_child: MAIN (14, 15) FAR 3277 U 0.00
expand: MAIN (14, 0) FAR  w(0) 3277.
	create_child: MAIN (13, 15) FAR 11068 U 0.00
expand: MAIN (13, 0) FAR  w(0) 11068.
	create_child: MAIN (12, 15) FAR 11387 U 0.00
expand: MAIN (12, 0) FAR  w(0) 11387.
	create_child: MAIN (11, 15) FAR 10555 U 0.00
expand: MAIN (11, 0) FAR  w(0) 10555.
	create_child: MAIN (10, 15) FAR 16376 U 0.00
expand: MAIN (10, 0) FAR  w(0) 16376.
	create_child: MAIN (9, 15) FAR 11292 U 0.00
expand: MAIN (9, 0) FAR  w(0) 11292.
	create_child: MAIN (8, 15) FAR 14930 U 0.00
expand: MAIN (8, 0) FAR  w(0) 14930.
	create_child: MAIN (7, 15) FAR 15429 U 0.00
expand: MAIN (7, 0) FAR  w(0) 15429.
	create_child: MAIN (6, 15) FAR 14209 U 0.00
expand: MAIN (6, 0) FAR  w(0) 14209.
	create_child: MAIN (5, 15) FAR 15169 U 0.00
expand: MAIN (5, 0) FAR  w(0) 15169.
	create_child: MAIN (4, 15) FAR 15996 U 0.00
expand: MAIN (4, 0) FAR  w(0) 15996.
	create_child: MAIN (3, 15) FAR 16455 U 0.00
expand: MAIN (3, 0) FAR  w(0) 16455.
	create_child: MAIN (2, 15) FAR 17115 U 0.00
expand: MAIN (2, 0) FAR  w(0) 17115
This proof contains 3 Farkas lemmas. 0 Farkas lemmas participate in the lowest cut
. F 0.00
expand: MAIN (3, 0) FAR  w(0) 16455
This proof contains 3 Farkas lemmas. 0 Farkas lemmas participate in the lowest cut
. F 0.00
expand: MAIN (4, 0) FAR  w(0) 15996
This proof contains 3 Farkas lemmas. 0 Farkas lemmas participate in the lowest cut
. F 0.00
expand: MAIN (5, 0) FAR  w(0) 15169
This proof contains 3 Farkas lemmas. 0 Farkas lemmas participate in the lowest cut
. F 0.00
expand: MAIN (6, 0) FAR  w(0) 14209
This proof contains 4 Farkas lemmas. 0 Farkas lemmas participate in the lowest cut
. F 0.00
expand: MAIN (7, 0) FAR  w(0) 15429
This proof contains 4 Farkas lemmas. 0 Farkas lemmas participate in the lowest cut
. F 0.00
expand: MAIN (8, 0) FAR  w(0) 14930
This proof contains 4 Farkas lemmas. 0 Farkas lemmas participate in the lowest cut
. F 0.00
expand: MAIN (9, 0) FAR  w(0) 11292
This proof contains 4 Farkas lemmas. 0 Farkas lemmas participate in the lowest cut
. F 0.00
expand: MAIN (10, 0) FAR  w(0) 16376
This proof contains 4 Farkas lemmas. 0 Farkas lemmas participate in the lowest cut
. F 0.00
expand: MAIN (11, 0) FAR  w(0) 10555
This proof contains 4 Farkas lemmas. 0 Farkas lemmas participate in the lowest cut
. F 0.00
expand: MAIN (12, 0) FAR  w(0) 11387
This proof contains 4 Farkas lemmas. 0 Farkas lemmas participate in the lowest cut
. F 0.00
expand: MAIN (13, 0) FAR  w(0) 11068
This proof contains 5 Farkas lemmas. 0 Farkas lemmas participate in the lowest cut
. F 0.00
expand: MAIN (14, 0) FAR  w(0) 3277
This proof contains 2 Farkas lemmas. 0 Farkas lemmas participate in the lowest cut
. F 0.00
expand: query!0 (15, 0) FAR  w(0) 1
This proof contains 0 Farkas lemmas. 0 Farkas lemmas participate in the lowest cut
. F 0.00
(spacer::context::check_reachability :time 0.04 :before-memory 7.80 :after-memory 7.90)
Propagating: 2 3 4 5 6 7 8 9 10 11 12 13 14 15  ! 16 
(spacer::context::propagate :time 0.01 :before-memory 7.90 :after-memory 7.90)
Entering level 16
BRUNCH_STAT max_query_lvl 15
BRUNCH_STAT num_queries 101
BRUNCH_STAT num_reach_queries 0
BRUNCH_STAT num_reach_reuse 0
BRUNCH_STAT inductive_lvl 0
BRUNCH_STAT max_depth 16
BRUNCH_STAT cex_depth 0
expand: query!0 (16, 0) FAR  w(0) 1.
	create_child: MAIN (15, 16) FAR 3277 U 0.00
expand: MAIN (15, 0) FAR  w(0) 3277.
	create_child: MAIN (14, 16) FAR 10407 U 0.00
expand: MAIN (14, 0) FAR  w(0) 10407.
	create_child: MAIN (13, 16) FAR 10802 U 0.00
expand: MAIN (13, 0) FAR  w(0) 10802.
	create_child: MAIN (12, 16) FAR 10555 U 0.00
expand: MAIN (12, 0) FAR  w(0) 10555.
	create_child: MAIN (11, 16) FAR 10847 U 0.00
expand: MAIN (11, 0) FAR  w(0) 10847.
	create_child: MAIN (10, 16) FAR 17601 U 0.00
expand: MAIN (10, 0) FAR  w(0) 17601.
	create_child: MAIN (9, 16) FAR 14003 U 0.00
expand: MAIN (9, 0) FAR  w(0) 14003.
	create_child: MAIN (8, 16) FAR 15429 U 0.00
expand: MAIN (8, 0) FAR  w(0) 15429.
	create_child: MAIN (7, 16) FAR 15813 U 0.00
expand: MAIN (7, 0) FAR  w(0) 15813.
	create_child: MAIN (6, 16) FAR 15169 U 0.00
expand: MAIN (6, 0) FAR  w(0) 15169.
	create_child: MAIN (5, 16) FAR 17826 U 0.00
expand: MAIN (5, 0) FAR  w(0) 17826.
	create_child: MAIN (4, 16) FAR 17816 U 0.00
expand: MAIN (4, 0) FAR  w(0) 17816.
	create_child: MAIN (3, 16) FAR 17387 U 0.00
expand: MAIN (3, 0) FAR  w(0) 17387.
	create_child: MAIN (2, 16) FAR 17870 U 0.00
expand: MAIN (2, 0) FAR  w(0) 17870.
	create_child: MAIN (1, 16) FAR 18320 U 0.00
expand: MAIN (1, 0) FAR  w(0) 18320
This proof contains 4 Farkas lemmas. 0 Farkas lemmas participate in the lowest cut
. F 0.00
expand: MAIN (2, 0) FAR  w(0) 17870
This proof contains 3 Farkas lemmas. 0 Farkas lemmas participate in the lowest cut
. F 0.00
expand: MAIN (3, 0) FAR  w(0) 17387
This proof contains 4 Farkas lemmas. 0 Farkas lemmas participate in the lowest cut
. F 0.00
expand: MAIN (4, 0) FAR  w(0) 17816
This proof contains 3 Farkas lemmas. 0 Farkas lemmas participate in the lowest cut
. F 0.00
expand: MAIN (5, 0) FAR  w(0) 17826
This proof contains 3 Farkas lemmas. 0 Farkas lemmas participate in the lowest cut
. F 0.00
expand: MAIN (6, 0) FAR  w(0) 15169
This proof contains 3 Farkas lemmas. 0 Farkas lemmas participate in the lowest cut
. F 0.00
expand: MAIN (7, 0) FAR  w(0) 15813
This proof contains 4 Farkas lemmas. 0 Farkas lemmas participate in the lowest cut
. F 0.00
expand: MAIN (8, 0) FAR  w(0) 15429
This proof contains 4 Farkas lemmas. 0 Farkas lemmas participate in the lowest cut
. F 0.00
expand: MAIN (9, 0) FAR  w(0) 14003
This proof contains 4 Farkas lemmas. 0 Farkas lemmas participate in the lowest cut
. F 0.00
expand: MAIN (10, 0) FAR  w(0) 17601
This proof contains 4 Farkas lemmas. 0 Farkas lemmas participate in the lowest cut
. F 0.00
expand: MAIN (11, 0) FAR  w(0) 10847
This proof contains 4 Farkas lemmas. 0 Farkas lemmas participate in the lowest cut
. F 0.00
expand: MAIN (12, 0) FAR  w(0) 10555
This proof contains 4 Farkas lemmas. 0 Farkas lemmas participate in the lowest cut
. F 0.00
expand: MAIN (13, 0) FAR  w(0) 10802
This proof contains 4 Farkas lemmas. 0 Farkas lemmas participate in the lowest cut
. F 0.00
expand: MAIN (14, 0) FAR  w(0) 10407
This proof contains 5 Farkas lemmas. 0 Farkas lemmas participate in the lowest cut
. F 0.00
expand: MAIN (15, 0) FAR  w(0) 3277
This proof contains 2 Farkas lemmas. 0 Farkas lemmas participate in the lowest cut
. F 0.00
expand: query!0 (16, 0) FAR  w(0) 1
This proof contains 0 Farkas lemmas. 0 Farkas lemmas participate in the lowest cut
. F 0.00
(spacer::context::check_reachability :time 0.05 :before-memory 7.90 :after-memory 8.09)
Propagating: 1 2 3 4 5 6 7 8 9 10 11 12 13 14 15 16  ! 17 18 
(spacer::context::propagate :time 0.02 :before-memory 8.09 :after-memory 8.09)
Entering level 17
BRUNCH_STAT max_query_lvl 16
BRUNCH_STAT num_queries 116
BRUNCH_STAT num_reach_queries 0
BRUNCH_STAT num_reach_reuse 0
BRUNCH_STAT inductive_lvl 0
BRUNCH_STAT max_depth 17
BRUNCH_STAT cex_depth 0
expand: query!0 (17, 0) FAR  w(0) 1
This proof contains 0 Farkas lemmas. 0 Farkas lemmas participate in the lowest cut
. F 0.00
(spacer::context::check_reachability :time 0.00 :before-memory 8.09 :after-memory 8.19)
Propagating: 17  ! 18 
(spacer::context::propagate :time 0.00 :before-memory 8.19 :after-memory 8.19)
Entering level 18
BRUNCH_STAT max_query_lvl 17
BRUNCH_STAT num_queries 116
BRUNCH_STAT num_reach_queries 0
BRUNCH_STAT num_reach_reuse 0
BRUNCH_STAT inductive_lvl 0
BRUNCH_STAT max_depth 18
BRUNCH_STAT cex_depth 0
expand: query!0 (18, 0) FAR  w(0) 1.
	create_child: MAIN (17, 18) FAR 3277 U 0.00
expand: MAIN (17, 0) FAR  w(0) 3277.
	create_child: MAIN (16, 18) FAR 11068 U 0.00
expand: MAIN (16, 0) FAR  w(0) 11068.
	create_child: MAIN (15, 18) FAR 11387 U 0.00
expand: MAIN (15, 0) FAR  w(0) 11387.
	create_child: MAIN (14, 18) FAR 10555 U 0.00
expand: MAIN (14, 0) FAR  w(0) 10555.
	create_child: MAIN (13, 18) FAR 10847 U 0.00
expand: MAIN (13, 0) FAR  w(0) 10847.
	create_child: MAIN (12, 18) FAR 17601 U 0.00
expand: MAIN (12, 0) FAR  w(0) 17601.
	create_child: MAIN (11, 18) FAR 14003 U 0.00
expand: MAIN (11, 0) FAR  w(0) 14003.
	create_child: MAIN (10, 18) FAR 13747 U 0.00
expand: MAIN (10, 0) FAR  w(0) 13747.
	create_child: MAIN (9, 18) FAR 15813 U 0.00
expand: MAIN (9, 0) FAR  w(0) 15813.
	create_child: MAIN (8, 18) FAR 15169 U 0.00
expand: MAIN (8, 0) FAR  w(0) 15169.
	create_child: MAIN (7, 18) FAR 15996 U 0.00
expand: MAIN (7, 0) FAR  w(0) 15996.
	create_child: MAIN (6, 18) FAR 16455 U 0.00
expand: MAIN (6, 0) FAR  w(0) 16455.
	create_child: MAIN (5, 18) FAR 17387 U 0.00
expand: MAIN (5, 0) FAR  w(0) 17387.
	create_child: MAIN (4, 18) FAR 20063 U 0.00
expand: MAIN (4, 0) FAR  w(0) 20063.
	create_child: MAIN (3, 18) FAR 18320 U 0.00
expand: MAIN (3, 0) FAR  w(0) 18320
This proof contains 2 Farkas lemmas. 0 Farkas lemmas participate in the lowest cut
. F 0.00
expand: MAIN (4, 0) FAR  w(0) 20063
This proof contains 3 Farkas lemmas. 0 Farkas lemmas participate in the lowest cut
. F 0.00
expand: MAIN (5, 0) FAR  w(0) 17387
This proof contains 4 Farkas lemmas. 0 Farkas lemmas participate in the lowest cut
. F 0.00
expand: MAIN (6, 0) FAR  w(0) 16455
This proof contains 3 Farkas lemmas. 0 Farkas lemmas participate in the lowest cut
. F 0.00
expand: MAIN (7, 0) FAR  w(0) 15996
This proof contains 3 Farkas lemmas. 0 Farkas lemmas participate in the lowest cut
. F 0.00
expand: MAIN (8, 0) FAR  w(0) 15169
This proof contains 3 Farkas lemmas. 0 Farkas lemmas participate in the lowest cut
. F 0.00
expand: MAIN (9, 0) FAR  w(0) 15813
This proof contains 4 Farkas lemmas. 0 Farkas lemmas participate in the lowest cut
. F 0.00
expand: MAIN (10, 0) FAR  w(0) 13747
This proof contains 4 Farkas lemmas. 0 Farkas lemmas participate in the lowest cut
. F 0.00
expand: MAIN (11, 0) FAR  w(0) 14003
This proof contains 4 Farkas lemmas. 0 Farkas lemmas participate in the lowest cut
. F 0.00
expand: MAIN (12, 0) FAR  w(0) 17601
This proof contains 4 Farkas lemmas. 0 Farkas lemmas participate in the lowest cut
. F 0.00
expand: MAIN (13, 0) FAR  w(0) 10847
This proof contains 4 Farkas lemmas. 0 Farkas lemmas participate in the lowest cut
. F 0.00
expand: MAIN (14, 0) FAR  w(0) 10555
This proof contains 4 Farkas lemmas. 0 Farkas lemmas participate in the lowest cut
. F 0.00
expand: MAIN (15, 0) FAR  w(0) 11387
This proof contains 4 Farkas lemmas. 0 Farkas lemmas participate in the lowest cut
. F 0.00
expand: MAIN (16, 0) FAR  w(0) 11068
This proof contains 5 Farkas lemmas. 0 Farkas lemmas participate in the lowest cut
. F 0.00
expand: MAIN (17, 0) FAR  w(0) 3277
This proof contains 2 Farkas lemmas. 0 Farkas lemmas participate in the lowest cut
. F 0.00
expand: query!0 (18, 0) FAR  w(0) 1
This proof contains 0 Farkas lemmas. 0 Farkas lemmas participate in the lowest cut
. F 0.00
(spacer::context::check_reachability :time 0.05 :before-memory 8.19 :after-memory 8.28)
Propagating: 3 4 5 6 7 8 9 10 11 12 13 14 15 16 17 18  ! 19 20 
(spacer::context::propagate :time 0.02 :before-memory 8.28 :after-memory 8.28)
Entering level 19
BRUNCH_STAT max_query_lvl 18
BRUNCH_STAT num_queries 131
BRUNCH_STAT num_reach_queries 0
BRUNCH_STAT num_reach_reuse 0
BRUNCH_STAT inductive_lvl 0
BRUNCH_STAT max_depth 19
BRUNCH_STAT cex_depth 0
expand: query!0 (19, 0) FAR  w(0) 1
This proof contains 0 Farkas lemmas. 0 Farkas lemmas participate in the lowest cut
. F 0.00
(spacer::context::check_reachability :time 0.00 :before-memory 8.28 :after-memory 8.28)
Propagating: 19  ! 20 
(spacer::context::propagate :time 0.00 :before-memory 8.28 :after-memory 8.28)
Entering level 20
BRUNCH_STAT max_query_lvl 19
BRUNCH_STAT num_queries 131
BRUNCH_STAT num_reach_queries 0
BRUNCH_STAT num_reach_reuse 0
BRUNCH_STAT inductive_lvl 0
BRUNCH_STAT max_depth 20
BRUNCH_STAT cex_depth 0
expand: query!0 (20, 0) FAR  w(0) 1.
	create_child: MAIN (19, 20) FAR 3277 U 0.00
expand: MAIN (19, 0) FAR  w(0) 3277.
	create_child: MAIN (18, 20) FAR 10407 U 0.00
expand: MAIN (18, 0) FAR  w(0) 10407.
	create_child: MAIN (17, 20) FAR 10802 U 0.00
expand: MAIN (17, 0) FAR  w(0) 10802.
	create_child: MAIN (16, 20) FAR 15363 U 0.00
expand: MAIN (16, 0) FAR  w(0) 15363.
	create_child: MAIN (15, 20) FAR 10847 U 0.00
expand: MAIN (15, 0) FAR  w(0) 10847.
	create_child: MAIN (14, 20) FAR 17601 U 0.00
expand: MAIN (14, 0) FAR  w(0) 17601.
	create_child: MAIN (13, 20) FAR 14003 U 0.00
expand: MAIN (13, 0) FAR  w(0) 14003.
	create_child: MAIN (12, 20) FAR 15429 U 0.00
expand: MAIN (12, 0) FAR  w(0) 15429.
	create_child: MAIN (11, 20) FAR 14209 U 0.00
expand: MAIN (11, 0) FAR  w(0) 14209.
	create_child: MAIN (10, 20) FAR 15960 U 0.00
expand: MAIN (10, 0) FAR  w(0) 15960.
	create_child: MAIN (9, 20) FAR 15996 U 0.00
expand: MAIN (9, 0) FAR  w(0) 15996.
	create_child: MAIN (8, 20) FAR 17816 U 0.00
expand: MAIN (8, 0) FAR  w(0) 17816.
	create_child: MAIN (7, 20) FAR 17387 U 0.00
expand: MAIN (7, 0) FAR  w(0) 17387.
	create_child: MAIN (6, 20) FAR 20063 U 0.00
expand: MAIN (6, 0) FAR  w(0) 20063.
	create_child: MAIN (5, 20) FAR 18320 U 0.00
expand: MAIN (5, 0) FAR  w(0) 18320.
	create_child: MAIN (4, 20) FAR 21386 U 0.00
expand: MAIN (4, 0) FAR  w(0) 21386.
	create_child: MAIN (3, 20) FAR 21451 U 0.00
expand: MAIN (3, 0) FAR  w(0) 21451
This proof contains 2 Farkas lemmas. 0 Farkas lemmas participate in the lowest cut
. F 0.00
expand: MAIN (4, 0) FAR  w(0) 21386
This proof contains 3 Farkas lemmas. 0 Farkas lemmas participate in the lowest cut
. F 0.00
expand: MAIN (5, 0) FAR  w(0) 18320
This proof contains 2 Farkas lemmas. 0 Farkas lemmas participate in the lowest cut
. F 0.00
expand: MAIN (6, 0) FAR  w(0) 20063
This proof contains 2 Farkas lemmas. 0 Farkas lemmas participate in the lowest cut
. F 0.00
expand: MAIN (7, 0) FAR  w(0) 17387
This proof contains 3 Farkas lemmas. 0 Farkas lemmas participate in the lowest cut
. F 0.00
expand: MAIN (8, 0) FAR  w(0) 17816
This proof contains 3 Farkas lemmas. 0 Farkas lemmas participate in the lowest cut
. F 0.00
expand: MAIN (9, 0) FAR  w(0) 15996
This proof contains 3 Farkas lemmas. 0 Farkas lemmas participate in the lowest cut
. F 0.00
expand: MAIN (10, 0) FAR  w(0) 15960
This proof contains 3 Farkas lemmas. 0 Farkas lemmas participate in the lowest cut
. F 0.00
expand: MAIN (11, 0) FAR  w(0) 14209
This proof contains 4 Farkas lemmas. 0 Farkas lemmas participate in the lowest cut
. F 0.00
expand: MAIN (12, 0) FAR  w(0) 15429
This proof contains 4 Farkas lemmas. 0 Farkas lemmas participate in the lowest cut
. F 0.00
expand: MAIN (13, 0) FAR  w(0) 14003
This proof contains 4 Farkas lemmas. 0 Farkas lemmas participate in the lowest cut
. F 0.00
expand: MAIN (14, 0) FAR  w(0) 17601
This proof contains 4 Farkas lemmas. 0 Farkas lemmas participate in the lowest cut
. F 0.00
expand: MAIN (15, 0) FAR  w(0) 10847
This proof contains 4 Farkas lemmas. 0 Farkas lemmas participate in the lowest cut
. F 0.00
expand: MAIN (16, 0) FAR  w(0) 15363
This proof contains 4 Farkas lemmas. 0 Farkas lemmas participate in the lowest cut
. F 0.00
expand: MAIN (17, 0) FAR  w(0) 10802
This proof contains 4 Farkas lemmas. 0 Farkas lemmas participate in the lowest cut
. F 0.00
expand: MAIN (18, 0) FAR  w(0) 10407
This proof contains 5 Farkas lemmas. 0 Farkas lemmas participate in the lowest cut
. F 0.00
expand: MAIN (19, 0) FAR  w(0) 3277
This proof contains 2 Farkas lemmas. 0 Farkas lemmas participate in the lowest cut
. F 0.00
expand: query!0 (20, 0) FAR  w(0) 1
This proof contains 0 Farkas lemmas. 0 Farkas lemmas participate in the lowest cut
. F 0.00
(spacer::context::check_reachability :time 0.06 :before-memory 8.28 :after-memory 8.47)
Propagating: 3 4 5 6 7 8 9 10 11 12 13 14 15 16 17 18 19 20  ! 21 
(spacer::context::propagate :time 0.01 :before-memory 8.47 :after-memory 8.47)
Entering level 21
BRUNCH_STAT max_query_lvl 20
BRUNCH_STAT num_queries 148
BRUNCH_STAT num_reach_queries 0
BRUNCH_STAT num_reach_reuse 0
BRUNCH_STAT inductive_lvl 0
BRUNCH_STAT max_depth 21
BRUNCH_STAT cex_depth 0
expand: query!0 (21, 0) FAR  w(0) 1.
	create_child: MAIN (20, 21) FAR 3277 U 0.00
expand: MAIN (20, 0) FAR  w(0) 3277.
	create_child: MAIN (19, 21) FAR 10407 U 0.00
expand: MAIN (19, 0) FAR  w(0) 10407.
	create_child: MAIN (18, 21) FAR 10802 U 0.00
expand: MAIN (18, 0) FAR  w(0) 10802.
	create_child: MAIN (17, 21) FAR 15363 U 0.00
expand: MAIN (17, 0) FAR  w(0) 15363.
	create_child: MAIN (16, 21) FAR 16376 U 0.00
expand: MAIN (16, 0) FAR  w(0) 16376.
	create_child: MAIN (15, 21) FAR 17601 U 0.00
expand: MAIN (15, 0) FAR  w(0) 17601.
	create_child: MAIN (14, 21) FAR 14003 U 0.00
expand: MAIN (14, 0) FAR  w(0) 14003.
	create_child: MAIN (13, 21) FAR 13747 U 0.00
expand: MAIN (13, 0) FAR  w(0) 13747.
	create_child: MAIN (12, 21) FAR 14209 U 0.00
expand: MAIN (12, 0) FAR  w(0) 14209.
	create_child: MAIN (11, 21) FAR 15169 U 0.00
expand: MAIN (11, 0) FAR  w(0) 15169.
	create_child: MAIN (10, 21) FAR 15996 U 0.00
expand: MAIN (10, 0) FAR  w(0) 15996.
	create_child: MAIN (9, 21) FAR 17816 U 0.00
expand: MAIN (9, 0) FAR  w(0) 17816.
	create_child: MAIN (8, 21) FAR 17387 U 0.00
expand: MAIN (8, 0) FAR  w(0) 17387.
	create_child: MAIN (7, 21) FAR 17870 U 0.00
expand: MAIN (7, 0) FAR  w(0) 17870.
	create_child: MAIN (6, 21) FAR 22736 U 0.00
expand: MAIN (6, 0) FAR  w(0) 22736.
	create_child: MAIN (5, 21) FAR 23347 U 0.00
expand: MAIN (5, 0) FAR  w(0) 23347.
	create_child: MAIN (4, 21) FAR 21451 U 0.00
expand: MAIN (4, 0) FAR  w(0) 21451.
	create_child: MAIN (3, 21) FAR 22729 U 0.00
expand: MAIN (3, 0) FAR  w(0) 22729
This proof contains 2 Farkas lemmas. 0 Farkas lemmas participate in the lowest cut
. F 0.00
expand: MAIN (4, 0) FAR  w(0) 21451
This proof contains 3 Farkas lemmas. 0 Farkas lemmas participate in the lowest cut
. F 0.00
expand: MAIN (5, 0) FAR  w(0) 23347
This proof contains 2 Farkas lemmas. 0 Farkas lemmas participate in the lowest cut
. F 0.00
expand: MAIN (6, 0) FAR  w(0) 22736
This proof contains 2 Farkas lemmas. 0 Farkas lemmas participate in the lowest cut
. F 0.00
expand: MAIN (7, 0) FAR  w(0) 17870
This proof contains 2 Farkas lemmas. 0 Farkas lemmas participate in the lowest cut
. F 0.00
expand: MAIN (8, 0) FAR  w(0) 17387
This proof contains 3 Farkas lemmas. 0 Farkas lemmas participate in the lowest cut
. F 0.00
expand: MAIN (9, 0) FAR  w(0) 17816
This proof contains 3 Farkas lemmas. 0 Farkas lemmas participate in the lowest cut
. F 0.00
expand: MAIN (10, 0) FAR  w(0) 15996
This proof contains 3 Farkas lemmas. 0 Farkas lemmas participate in the lowest cut
. F 0.00
expand: MAIN (11, 0) FAR  w(0) 15169
This proof contains 3 Farkas lemmas. 0 Farkas lemmas participate in the lowest cut
. F 0.00
expand: MAIN (12, 0) FAR  w(0) 14209
This proof contains 4 Farkas lemmas. 0 Farkas lemmas participate in the lowest cut
. F 0.00
expand: MAIN (13, 0) FAR  w(0) 13747
This proof contains 4 Farkas lemmas. 0 Farkas lemmas participate in the lowest cut
. F 0.00
expand: MAIN (14, 0) FAR  w(0) 14003
This proof contains 4 Farkas lemmas. 0 Farkas lemmas participate in the lowest cut
. F 0.00
expand: MAIN (15, 0) FAR  w(0) 17601
This proof contains 4 Farkas lemmas. 0 Farkas lemmas participate in the lowest cut
. F 0.00
expand: MAIN (16, 0) FAR  w(0) 16376
This proof contains 4 Farkas lemmas. 0 Farkas lemmas participate in the lowest cut
. F 0.00
expand: MAIN (17, 0) FAR  w(0) 15363
This proof contains 4 Farkas lemmas. 0 Farkas lemmas participate in the lowest cut
. F 0.00
expand: MAIN (18, 0) FAR  w(0) 10802
This proof contains 4 Farkas lemmas. 0 Farkas lemmas participate in the lowest cut
. F 0.00
expand: MAIN (19, 0) FAR  w(0) 10407
This proof contains 5 Farkas lemmas. 0 Farkas lemmas participate in the lowest cut
. F 0.00
expand: MAIN (20, 0) FAR  w(0) 3277
This proof contains 2 Farkas lemmas. 0 Farkas lemmas participate in the lowest cut
. F 0.00
expand: query!0 (21, 0) FAR  w(0) 1
This proof contains 0 Farkas lemmas. 0 Farkas lemmas participate in the lowest cut
. F 0.00
(spacer::context::check_reachability :time 0.06 :before-memory 8.47 :after-memory 8.57)
Propagating: 3 4 5 6 7 8 9 10 11 12 13 14 15 16 17 18 19 20 21  ! 22 
(spacer::context::propagate :time 0.01 :before-memory 8.57 :after-memory 8.57)
Entering level 22
BRUNCH_STAT max_query_lvl 21
BRUNCH_STAT num_queries 166
BRUNCH_STAT num_reach_queries 0
BRUNCH_STAT num_reach_reuse 0
BRUNCH_STAT inductive_lvl 0
BRUNCH_STAT max_depth 22
BRUNCH_STAT cex_depth 0
expand: query!0 (22, 0) FAR  w(0) 1.
	create_child: MAIN (21, 22) FAR 3277 U 0.00
expand: MAIN (21, 0) FAR  w(0) 3277.
	create_child: MAIN (20, 22) FAR 11068 U 0.00
expand: MAIN (20, 0) FAR  w(0) 11068.
	create_child: MAIN (19, 22) FAR 11387 U 0.00
expand: MAIN (19, 0) FAR  w(0) 11387.
	create_child: MAIN (18, 22) FAR 15363 U 0.00
expand: MAIN (18, 0) FAR  w(0) 15363.
	create_child: MAIN (17, 22) FAR 10847 U 0.00
expand: MAIN (17, 0) FAR  w(0) 10847.
	create_child: MAIN (16, 22) FAR 17601 U 0.00
expand: MAIN (16, 0) FAR  w(0) 17601.
	create_child: MAIN (15, 22) FAR 14003 U 0.00
expand: MAIN (15, 0) FAR  w(0) 14003.
	create_child: MAIN (14, 22) FAR 13747 U 0.00
expand: MAIN (14, 0) FAR  w(0) 13747.
	create_child: MAIN (13, 22) FAR 15813 U 0.00
expand: MAIN (13, 0) FAR  w(0) 15813.
	create_child: MAIN (12, 22) FAR 15960 U 0.00
expand: MAIN (12, 0) FAR  w(0) 15960.
	create_child: MAIN (11, 22) FAR 17826 U 0.00
expand: MAIN (11, 0) FAR  w(0) 17826.
	create_child: MAIN (10, 22) FAR 16455 U 0.00
expand: MAIN (10, 0) FAR  w(0) 16455.
	create_child: MAIN (9, 22) FAR 17115 U 0.00
expand: MAIN (9, 0) FAR  w(0) 17115.
	create_child: MAIN (8, 22) FAR 17870 U 0.00
expand: MAIN (8, 0) FAR  w(0) 17870.
	create_child: MAIN (7, 22) FAR 22736 U 0.00
expand: MAIN (7, 0) FAR  w(0) 22736.
	create_child: MAIN (6, 22) FAR 21386 U 0.00
expand: MAIN (6, 0) FAR  w(0) 21386.
	create_child: MAIN (5, 22) FAR 21451 U 0.00
expand: MAIN (5, 0) FAR  w(0) 21451.
	create_child: MAIN (4, 22) FAR 22729 U 0.00
expand: MAIN (4, 0) FAR  w(0) 22729.
	create_child: MAIN (3, 22) FAR 24685 U 0.00
expand: MAIN (3, 0) FAR  w(0) 24685
This proof contains 2 Farkas lemmas. 0 Farkas lemmas participate in the lowest cut
. F 0.00
expand: MAIN (4, 0) FAR  w(0) 22729
This proof contains 3 Farkas lemmas. 0 Farkas lemmas participate in the lowest cut
. F 0.00
expand: MAIN (5, 0) FAR  w(0) 21451
This proof contains 2 Farkas lemmas. 0 Farkas lemmas participate in the lowest cut
. F 0.00
expand: MAIN (6, 0) FAR  w(0) 21386
This proof contains 2 Farkas lemmas. 0 Farkas lemmas participate in the lowest cut
. F 0.00
expand: MAIN (7, 0) FAR  w(0) 22736
This proof contains 2 Farkas lemmas. 0 Farkas lemmas participate in the lowest cut
. F 0.00
expand: MAIN (8, 0) FAR  w(0) 17870
This proof contains 2 Farkas lemmas. 0 Farkas lemmas participate in the lowest cut
. F 0.00
expand: MAIN (9, 0) FAR  w(0) 17115
This proof contains 3 Farkas lemmas. 0 Farkas lemmas participate in the lowest cut
. F 0.00
expand: MAIN (10, 0) FAR  w(0) 16455
This proof contains 3 Farkas lemmas. 0 Farkas lemmas participate in the lowest cut
. F 0.00
expand: MAIN (11, 0) FAR  w(0) 17826
This proof contains 3 Farkas lemmas. 0 Farkas lemmas participate in the lowest cut
. F 0.00
expand: MAIN (12, 0) FAR  w(0) 15960
This proof contains 3 Farkas lemmas. 0 Farkas lemmas participate in the lowest cut
. F 0.00
expand: MAIN (13, 0) FAR  w(0) 15813
This proof contains 4 Farkas lemmas. 0 Farkas lemmas participate in the lowest cut
. F 0.00
expand: MAIN (14, 0) FAR  w(0) 13747
This proof contains 4 Farkas lemmas. 0 Farkas lemmas participate in the lowest cut
. F 0.00
expand: MAIN (15, 0) FAR  w(0) 14003
This proof contains 4 Farkas lemmas. 0 Farkas lemmas participate in the lowest cut
. F 0.00
expand: MAIN (16, 0) FAR  w(0) 17601
This proof contains 4 Farkas lemmas. 0 Farkas lemmas participate in the lowest cut
. F 0.00
expand: MAIN (17, 0) FAR  w(0) 10847
This proof contains 4 Farkas lemmas. 0 Farkas lemmas participate in the lowest cut
. F 0.00
expand: MAIN (18, 0) FAR  w(0) 15363
This proof contains 4 Farkas lemmas. 0 Farkas lemmas participate in the lowest cut
. F 0.00
expand: MAIN (19, 0) FAR  w(0) 11387
This proof contains 4 Farkas lemmas. 0 Farkas lemmas participate in the lowest cut
. F 0.00
expand: MAIN (20, 0) FAR  w(0) 11068
This proof contains 5 Farkas lemmas. 0 Farkas lemmas participate in the lowest cut
. F 0.00
expand: MAIN (21, 0) FAR  w(0) 3277
This proof contains 2 Farkas lemmas. 0 Farkas lemmas participate in the lowest cut
. F 0.00
expand: query!0 (22, 0) FAR  w(0) 1
This proof contains 0 Farkas lemmas. 0 Farkas lemmas participate in the lowest cut
. F 0.00
(spacer::context::check_reachability :time 0.07 :before-memory 8.57 :after-memory 9.35)
Propagating: 3 4 5 6 7 8 9 10 11 12 13 14 15 16 17 18 19 20 21 22  ! 23 
(spacer::context::propagate :time 0.01 :before-memory 9.35 :after-memory 9.35)
Entering level 23
BRUNCH_STAT max_query_lvl 22
BRUNCH_STAT num_queries 185
BRUNCH_STAT num_reach_queries 0
BRUNCH_STAT num_reach_reuse 0
BRUNCH_STAT inductive_lvl 0
BRUNCH_STAT max_depth 23
BRUNCH_STAT cex_depth 0
expand: query!0 (23, 0) FAR  w(0) 1.
	create_child: MAIN (22, 23) FAR 3277 U 0.00
expand: MAIN (22, 0) FAR  w(0) 3277.
	create_child: MAIN (21, 23) FAR 10407 U 0.00
expand: MAIN (21, 0) FAR  w(0) 10407.
	create_child: MAIN (20, 23) FAR 10802 U 0.00
expand: MAIN (20, 0) FAR  w(0) 10802.
	create_child: MAIN (19, 23) FAR 15363 U 0.00
expand: MAIN (19, 0) FAR  w(0) 15363.
	create_child: MAIN (18, 23) FAR 10847 U 0.00
expand: MAIN (18, 0) FAR  w(0) 10847.
	create_child: MAIN (17, 23) FAR 17601 U 0.00
expand: MAIN (17, 0) FAR  w(0) 17601.
	create_child: MAIN (16, 23) FAR 14003 U 0.00
expand: MAIN (16, 0) FAR  w(0) 14003.
	create_child: MAIN (15, 23) FAR 15429 U 0.00
expand: MAIN (15, 0) FAR  w(0) 15429.
	create_child: MAIN (14, 23) FAR 14209 U 0.00
expand: MAIN (14, 0) FAR  w(0) 14209.
	create_child: MAIN (13, 23) FAR 15169 U 0.00
expand: MAIN (13, 0) FAR  w(0) 15169.
	create_child: MAIN (12, 23) FAR 15996 U 0.00
expand: MAIN (12, 0) FAR  w(0) 15996.
	create_child: MAIN (11, 23) FAR 16455 U 0.00
expand: MAIN (11, 0) FAR  w(0) 16455.
	create_child: MAIN (10, 23) FAR 17115 U 0.00
expand: MAIN (10, 0) FAR  w(0) 17115.
	create_child: MAIN (9, 23) FAR 20063 U 0.00
expand: MAIN (9, 0) FAR  w(0) 20063.
	create_child: MAIN (8, 23) FAR 22736 U 0.00
expand: MAIN (8, 0) FAR  w(0) 22736.
	create_child: MAIN (7, 23) FAR 23347 U 0.00
expand: MAIN (7, 0) FAR  w(0) 23347.
	create_child: MAIN (6, 23) FAR 21451 U 0.00
expand: MAIN (6, 0) FAR  w(0) 21451.
	create_child: MAIN (5, 23) FAR 25909 U 0.00
expand: MAIN (5, 0) FAR  w(0) 25909.
	create_child: MAIN (4, 23) FAR 25618 U 0.00
expand: MAIN (4, 0) FAR  w(0) 25618.
	create_child: MAIN (3, 23) FAR 25709 U 0.00
expand: MAIN (3, 0) FAR  w(0) 25709.
	create_child: MAIN (2, 23) FAR 25203 U 0.00
expand: MAIN (2, 0) FAR  w(0) 25203.
	create_child: MAIN (1, 23) FAR 25587 U 0.00
expand: MAIN (1, 0) FAR  w(0) 25587.
	create_child: MAIN (0, 23) FAR 26189 U 0.00
expand: MAIN (0, 0) FAR  w(0) 26189
This proof contains 0 Farkas lemmas. 0 Farkas lemmas participate in the lowest cut
. F 0.00
expand: MAIN (1, 0) FAR  w(0) 25587
This proof contains 0 Farkas lemmas. 0 Farkas lemmas participate in the lowest cut
. F 0.00
expand: MAIN (2, 0) FAR  w(0) 25203
This proof contains 0 Farkas lemmas. 0 Farkas lemmas participate in the lowest cut
. F 0.00
expand: MAIN (3, 0) FAR  w(0) 25709
This proof contains 0 Farkas lemmas. 0 Farkas lemmas participate in the lowest cut
. F 0.00
expand: MAIN (4, 0) FAR  w(0) 25618
This proof contains 0 Farkas lemmas. 0 Farkas lemmas participate in the lowest cut
. F 0.00
expand: MAIN (5, 0) FAR  w(0) 25909
This proof contains 0 Farkas lemmas. 0 Farkas lemmas participate in the lowest cut
. F 0.00
expand: MAIN (6, 0) FAR  w(0) 21451
This proof contains 0 Farkas lemmas. 0 Farkas lemmas participate in the lowest cut
. F 0.00
expand: MAIN (7, 0) FAR  w(0) 23347
This proof contains 0 Farkas lemmas. 0 Farkas lemmas participate in the lowest cut
. F 0.00
expand: MAIN (8, 0) FAR  w(0) 22736
This proof contains 0 Farkas lemmas. 0 Farkas lemmas participate in the lowest cut
. F 0.00
expand: MAIN (9, 0) FAR  w(0) 20063
This proof contains 0 Farkas lemmas. 0 Farkas lemmas participate in the lowest cut
. F 0.00
expand: MAIN (10, 0) FAR  w(0) 17115.
	create_child: MAIN (9, 23) FAR 26687 U 0.00
expand: MAIN (9, 0) FAR  w(0) 26687.
	create_child: MAIN (8, 23) FAR 26415 U 0.00
expand: MAIN (8, 0) FAR  w(0) 26415.
	create_child: MAIN (7, 23) FAR 25088 U 0.00
expand: MAIN (7, 0) FAR  w(0) 25088.
	create_child: MAIN (6, 23) FAR 26918 U 0.00
expand: MAIN (6, 0) FAR  w(0) 26918.
	create_child: MAIN (5, 23) FAR 26815 U 0.00
expand: MAIN (5, 0) FAR  w(0) 26815.
	create_child: MAIN (4, 23) FAR 25053 U 0.00
expand: MAIN (4, 0) FAR  w(0) 25053.
	create_child: MAIN (3, 23) FAR 26823 U 0.00
expand: MAIN (3, 0) FAR  w(0) 26823.
	create_child: MAIN (2, 23) FAR 27052 U 0.00
expand: MAIN (2, 0) FAR  w(0) 27052.
	create_child: MAIN (1, 23) FAR 26863 U 0.00
expand: MAIN (1, 0) FAR  w(0) 26863. T 0.00
is-reachable: MAIN (2, 0) FAR 27052 T 0.00
is-reachable: MAIN (3, 0) FAR 26823 T 0.00
is-reachable: MAIN (4, 0) FAR 25053 T 0.00
is-reachable: MAIN (5, 0) FAR 26815 T 0.00
is-reachable: MAIN (6, 0) FAR 26918 T 0.01
is-reachable: MAIN (7, 0) FAR 25088 T 0.00
is-reachable: MAIN (8, 0) FAR 26415 T 0.00
is-reachable: MAIN (9, 0) FAR 26687 T 0.00
is-reachable: MAIN (10, 0) FAR 17115 T 0.00
is-reachable: MAIN (11, 0) FAR 16455 T 0.00
is-reachable: MAIN (12, 0) FAR 15996 T 0.01
is-reachable: MAIN (13, 0) FAR 15169 T 0.01
is-reachable: MAIN (14, 0) FAR 14209 T 0.01
is-reachable: MAIN (15, 0) FAR 15429 T 0.01
is-reachable: MAIN (16, 0) FAR 14003 T 0.01
is-reachable: MAIN (17, 0) FAR 17601 T 0.01
is-reachable: MAIN (18, 0) FAR 10847 T 0.01
is-reachable: MAIN (19, 0) FAR 15363 T 0.01
is-reachable: MAIN (20, 0) FAR 10802 T 0.01
is-reachable: MAIN (21, 0) FAR 10407 T 0.01
is-reachable: MAIN (22, 0) FAR 3277 T 0.01
is-reachable: query!0 (23, 0) FAR 1 T 0.01
(spacer::context::check_reachability :time 0.22 :before-memory 9.35 :after-memory 11.49)
BRUNCH_STAT max_query_lvl 23
BRUNCH_STAT num_queries 217
BRUNCH_STAT num_reach_queries 23
BRUNCH_STAT num_reach_reuse 1
BRUNCH_STAT inductive_lvl 0
BRUNCH_STAT max_depth 23
BRUNCH_STAT cex_depth 23
(:SPACER-cex-depth                     23
 :SPACER-max-depth                     23
 :SPACER-max-query-lvl                 23
 :SPACER-num-invariants                11
 :SPACER-num-lemmas                    216
 :SPACER-num-properties                40
 :SPACER-num-queries                   217
 :SPACER-num-reach-queries             23
 :SPACER-num-reuse-reach-facts         1
 :added-eqs                            7847
 :arith-add-rows                       819
 :arith-assert-diseq                   5250
 :arith-assert-lower                   19177
 :arith-assert-upper                   44294
 :arith-bound-prop                     571
 :arith-conflicts                      74
 :arith-eq-adapter                     1748
 :arith-fixed-eqs                      1110
 :arith-offset-eqs                     194
 :arith-pivots                         322
 :bool-inductive-gen                   195
 :bool-inductive-gen-failures          200
 :conflicts                            661
 :decisions                            60243
 :del-clause                           1019
 :final-checks                         469
 :minimized-lits                       15
 :mk-bool-var                          4934
 :mk-clause                            7891
 :num-checks                           1041
 :propagations                         273412
 :time.itp_solver.itp_core             0.09
 :time.spacer.init_rules               0.00
 :time.spacer.init_rules.pt.init       0.00
 :time.spacer.solve                    0.91
 :time.spacer.solve.propagate          0.13
 :time.spacer.solve.reach              0.78
 :time.spacer.solve.reach.children     0.25
 :time.spacer.solve.reach.gen.bool_ind 0.03
 :time.spacer.solve.reach.is-reach     0.11
 :time.virtual_solver.proof            0.05
 :time.virtual_solver.smt.total        0.48
 :time.virtual_solver.smt.total.sat    0.34
 :virtual_solver.checks                1041
 :virtual_solver.checks.sat            469)
BRUNCH_STAT max_query_lvl 23
BRUNCH_STAT num_queries 217
BRUNCH_STAT num_reach_queries 23
BRUNCH_STAT num_reach_reuse 1
BRUNCH_STAT inductive_lvl 0
BRUNCH_STAT max_depth 23
BRUNCH_STAT cex_depth 23

real	0m1.008s
user	0m0.980s
sys	0m0.024s
