(transform N7datalog13mk_coi_filterE...no-op 0s)
(transform N7datalog25mk_interp_tail_simplifierE...15 rules 0s)
(transform N7datalog27mk_quantifier_instantiationE...no-op 0s)
(transform N7datalog8mk_scaleE...no-op 0s)
(transform N7datalog18mk_karr_invariantsE...no-op 0s)
(transform N7datalog14mk_array_blastE...no-op 0s)
(transform N7datalog22mk_subsumption_checkerE...14 rules 0s)
(transform N7datalog12mk_bit_blastE...no-op 0s)
(transform N7datalog15mk_rule_inlinerE...3 rules 0.00569468s)
(transform N7datalog13mk_coi_filterE...no-op 0s)
(transform N7datalog25mk_interp_tail_simplifierE...3 rules 0s)
(transform N7datalog22mk_subsumption_checkerE...no-op 0s)
(transform N7datalog15mk_rule_inlinerE...no-op 0s)
(transform N7datalog13mk_coi_filterE...no-op 0s)
(transform N7datalog25mk_interp_tail_simplifierE...3 rules 0s)
(transform N7datalog22mk_subsumption_checkerE...no-op 0s)
(transform N7datalog15mk_rule_inlinerE...no-op 0s)
(transform N7datalog22mk_subsumption_checkerE...no-op 0s)
(transform N7datalog15mk_rule_inlinerE...no-op 0s)
(transform N7datalog22mk_subsumption_checkerE...no-op 0s)
(transform N7datalog15mk_rule_inlinerE...no-op 0s)
(transform N7datalog22mk_subsumption_checkerE...no-op 0s)
(transform N7datalog8mk_sliceE...no-op 0s)
expand: query!0 (0, 0) FAR  w(0) 1
This proof contains 0 Farkas lemmas. 0 Farkas lemmas participate in the lowest cut
. F 0.00
(spacer::context::check_reachability :time 0.00 :before-memory 4.54 :after-memory 5.06)
Entering level 1
BRUNCH_STAT max_query_lvl 0
BRUNCH_STAT num_queries 0
BRUNCH_STAT num_reach_queries 0
BRUNCH_STAT num_reach_reuse 0
BRUNCH_STAT inductive_lvl 0
BRUNCH_STAT max_depth 1
BRUNCH_STAT cex_depth 0
expand: query!0 (1, 0) FAR  w(0) 1.
	create_child: MAIN (0, 1) FAR 3544 U 0.00
expand: MAIN (0, 0) FAR  w(0) 3544
This proof contains 0 Farkas lemmas. 0 Farkas lemmas participate in the lowest cut
. F 0.00
expand: query!0 (1, 0) FAR  w(0) 1
This proof contains 0 Farkas lemmas. 0 Farkas lemmas participate in the lowest cut
. F 0.00
(spacer::context::check_reachability :time 0.00 :before-memory 5.06 :after-memory 5.87)
Propagating: 0 1  ! 2 
(spacer::context::propagate :time 0.00 :before-memory 5.87 :after-memory 5.87)
Entering level 2
BRUNCH_STAT max_query_lvl 1
BRUNCH_STAT num_queries 1
BRUNCH_STAT num_reach_queries 0
BRUNCH_STAT num_reach_reuse 0
BRUNCH_STAT inductive_lvl 0
BRUNCH_STAT max_depth 2
BRUNCH_STAT cex_depth 0
expand: query!0 (2, 0) FAR  w(0) 1.
	create_child: MAIN (1, 2) FAR 3544 U 0.00
expand: MAIN (1, 0) FAR  w(0) 3544.
	create_child: MAIN (0, 2) FAR 5776 U 0.00
expand: MAIN (0, 0) FAR  w(0) 5776
This proof contains 0 Farkas lemmas. 0 Farkas lemmas participate in the lowest cut
. F 0.00
expand: MAIN (1, 0) FAR  w(0) 3544.
	create_child: MAIN (0, 2) FAR 6041 U 0.00
expand: MAIN (0, 0) FAR  w(0) 6041
This proof contains 0 Farkas lemmas. 0 Farkas lemmas participate in the lowest cut
. F 0.00
expand: MAIN (1, 0) FAR  w(0) 3544
This proof contains 0 Farkas lemmas. 0 Farkas lemmas participate in the lowest cut
. F 0.00
expand: query!0 (2, 0) FAR  w(0) 1
This proof contains 0 Farkas lemmas. 0 Farkas lemmas participate in the lowest cut
. F 0.00
(spacer::context::check_reachability :time 0.01 :before-memory 5.87 :after-memory 6.16)
Propagating: 0 1 2  ! 3 
(spacer::context::propagate :time 0.00 :before-memory 6.16 :after-memory 6.16)
Entering level 3
BRUNCH_STAT max_query_lvl 2
BRUNCH_STAT num_queries 4
BRUNCH_STAT num_reach_queries 0
BRUNCH_STAT num_reach_reuse 0
BRUNCH_STAT inductive_lvl 0
BRUNCH_STAT max_depth 3
BRUNCH_STAT cex_depth 0
expand: query!0 (3, 0) FAR  w(0) 1.
	create_child: MAIN (2, 3) FAR 3544 U 0.00
expand: MAIN (2, 0) FAR  w(0) 3544.
	create_child: MAIN (1, 3) FAR 6439 U 0.00
expand: MAIN (1, 0) FAR  w(0) 6439
This proof contains 0 Farkas lemmas. 0 Farkas lemmas participate in the lowest cut
. F 0.00
expand: MAIN (2, 0) FAR  w(0) 3544.
	create_child: MAIN (1, 3) FAR 6574 U 0.00
expand: MAIN (1, 0) FAR  w(0) 6574
This proof contains 0 Farkas lemmas. 0 Farkas lemmas participate in the lowest cut
. F 0.00
expand: MAIN (2, 0) FAR  w(0) 3544.
	create_child: MAIN (1, 3) FAR 6602 U 0.00
expand: MAIN (1, 0) FAR  w(0) 6602.
	create_child: MAIN (0, 3) FAR 6569 U 0.00
expand: MAIN (0, 0) FAR  w(0) 6569
This proof contains 0 Farkas lemmas. 0 Farkas lemmas participate in the lowest cut
. F 0.00
expand: MAIN (1, 0) FAR  w(0) 6602.
	create_child: MAIN (0, 3) FAR 6891 U 0.00
expand: MAIN (0, 0) FAR  w(0) 6891
This proof contains 0 Farkas lemmas. 0 Farkas lemmas participate in the lowest cut
. F 0.00
expand: MAIN (1, 0) FAR  w(0) 6602.
	create_child: MAIN (0, 3) FAR 7023 U 0.00
expand: MAIN (0, 0) FAR  w(0) 7023
This proof contains 0 Farkas lemmas. 0 Farkas lemmas participate in the lowest cut
. F 0.00
expand: MAIN (1, 0) FAR  w(0) 6602.
	create_child: MAIN (0, 3) FAR 7062 U 0.00
expand: MAIN (0, 0) FAR  w(0) 7062
This proof contains 0 Farkas lemmas. 0 Farkas lemmas participate in the lowest cut
. F 0.00
expand: MAIN (1, 0) FAR  w(0) 6602.
	create_child: MAIN (0, 3) FAR 7126 U 0.00
expand: MAIN (0, 0) FAR  w(0) 7126
This proof contains 0 Farkas lemmas. 0 Farkas lemmas participate in the lowest cut
. F 0.00
expand: MAIN (1, 0) FAR  w(0) 6602
This proof contains 1 Farkas lemmas. 0 Farkas lemmas participate in the lowest cut
. F 0.00
expand: MAIN (2, 0) FAR  w(0) 3544.
	create_child: MAIN (1, 3) FAR 6989 U 0.00
expand: MAIN (1, 0) FAR  w(0) 6989
This proof contains 0 Farkas lemmas. 0 Farkas lemmas participate in the lowest cut
. F 0.00
expand: MAIN (2, 0) FAR  w(0) 3544.
	create_child: MAIN (1, 3) FAR 7574 U 0.00
expand: MAIN (1, 0) FAR  w(0) 7574
This proof contains 0 Farkas lemmas. 0 Farkas lemmas participate in the lowest cut
. F 0.00
expand: MAIN (2, 0) FAR  w(0) 3544.
	create_child: MAIN (1, 3) FAR 7873 U 0.00
expand: MAIN (1, 0) FAR  w(0) 7873
This proof contains 0 Farkas lemmas. 0 Farkas lemmas participate in the lowest cut
. F 0.00
expand: MAIN (2, 0) FAR  w(0) 3544.
	create_child: MAIN (1, 3) FAR 7967 U 0.00
expand: MAIN (1, 0) FAR  w(0) 7967
This proof contains 0 Farkas lemmas. 0 Farkas lemmas participate in the lowest cut
. F 0.00
expand: MAIN (2, 0) FAR  w(0) 3544.
	create_child: MAIN (1, 3) FAR 8155 U 0.00
expand: MAIN (1, 0) FAR  w(0) 8155
This proof contains 0 Farkas lemmas. 0 Farkas lemmas participate in the lowest cut
. F 0.00
expand: MAIN (2, 0) FAR  w(0) 3544.
	create_child: MAIN (1, 3) FAR 8258 U 0.00
expand: MAIN (1, 0) FAR  w(0) 8258
This proof contains 0 Farkas lemmas. 0 Farkas lemmas participate in the lowest cut
. F 0.00
expand: MAIN (2, 0) FAR  w(0) 3544.
	create_child: MAIN (1, 3) FAR 8201 U 0.00
expand: MAIN (1, 0) FAR  w(0) 8201
This proof contains 0 Farkas lemmas. 0 Farkas lemmas participate in the lowest cut
. F 0.00
expand: MAIN (2, 0) FAR  w(0) 3544.
	create_child: MAIN (1, 3) FAR 8540 U 0.00
expand: MAIN (1, 0) FAR  w(0) 8540
This proof contains 2 Farkas lemmas. 0 Farkas lemmas participate in the lowest cut
. F 0.00
expand: MAIN (2, 0) FAR  w(0) 3544.
	create_child: MAIN (1, 3) FAR 8633 U 0.00
expand: MAIN (1, 0) FAR  w(0) 8633
This proof contains 0 Farkas lemmas. 0 Farkas lemmas participate in the lowest cut
. F 0.00
expand: MAIN (2, 0) FAR  w(0) 3544.
	create_child: MAIN (1, 3) FAR 8748 U 0.00
expand: MAIN (1, 0) FAR  w(0) 8748
This proof contains 1 Farkas lemmas. 0 Farkas lemmas participate in the lowest cut
. F 0.00
expand: MAIN (2, 0) FAR  w(0) 3544.
	create_child: MAIN (1, 3) FAR 9144 U 0.00
expand: MAIN (1, 0) FAR  w(0) 9144
This proof contains 0 Farkas lemmas. 0 Farkas lemmas participate in the lowest cut
. F 0.00
expand: MAIN (2, 0) FAR  w(0) 3544.
	create_child: MAIN (1, 3) FAR 9262 U 0.00
expand: MAIN (1, 0) FAR  w(0) 9262
This proof contains 4 Farkas lemmas. 0 Farkas lemmas participate in the lowest cut
. F 0.00
expand: MAIN (2, 0) FAR  w(0) 3544
This proof contains 0 Farkas lemmas. 0 Farkas lemmas participate in the lowest cut
. F 0.00
expand: query!0 (3, 0) FAR  w(0) 1
This proof contains 0 Farkas lemmas. 0 Farkas lemmas participate in the lowest cut
. F 0.00
(spacer::context::check_reachability :time 0.06 :before-memory 6.16 :after-memory 6.63)
Propagating: 0 1 2 3  ! 4 
(spacer::context::propagate :time 0.01 :before-memory 6.63 :after-memory 6.63)
Entering level 4
BRUNCH_STAT max_query_lvl 3
BRUNCH_STAT num_queries 25
BRUNCH_STAT num_reach_queries 0
BRUNCH_STAT num_reach_reuse 0
BRUNCH_STAT inductive_lvl 0
BRUNCH_STAT max_depth 4
BRUNCH_STAT cex_depth 0
expand: query!0 (4, 0) FAR  w(0) 1.
	create_child: MAIN (3, 4) FAR 3544 U 0.00
expand: MAIN (3, 0) FAR  w(0) 3544.
	create_child: MAIN (2, 4) FAR 10334 U 0.00
expand: MAIN (2, 0) FAR  w(0) 10334
This proof contains 0 Farkas lemmas. 0 Farkas lemmas participate in the lowest cut
. F 0.00
expand: MAIN (3, 0) FAR  w(0) 3544.
	create_child: MAIN (2, 4) FAR 10432 U 0.00
expand: MAIN (2, 0) FAR  w(0) 10432
This proof contains 0 Farkas lemmas. 0 Farkas lemmas participate in the lowest cut
. F 0.00
expand: MAIN (3, 0) FAR  w(0) 3544.
	create_child: MAIN (2, 4) FAR 10632 U 0.00
expand: MAIN (2, 0) FAR  w(0) 10632
This proof contains 0 Farkas lemmas. 0 Farkas lemmas participate in the lowest cut
. F 0.00
expand: MAIN (3, 0) FAR  w(0) 3544.
	create_child: MAIN (2, 4) FAR 10730 U 0.00
expand: MAIN (2, 0) FAR  w(0) 10730
This proof contains 0 Farkas lemmas. 0 Farkas lemmas participate in the lowest cut
. F 0.00
expand: MAIN (3, 0) FAR  w(0) 3544.
	create_child: MAIN (2, 4) FAR 10912 U 0.00
expand: MAIN (2, 0) FAR  w(0) 10912
This proof contains 6 Farkas lemmas. 0 Farkas lemmas participate in the lowest cut
. F 0.00
expand: MAIN (3, 0) FAR  w(0) 3544.
	create_child: MAIN (2, 4) FAR 11132 U 0.00
expand: MAIN (2, 0) FAR  w(0) 11132.
	create_child: MAIN (1, 4) FAR 11186 U 0.00
expand: MAIN (1, 0) FAR  w(0) 11186
This proof contains 2 Farkas lemmas. 0 Farkas lemmas participate in the lowest cut
. F 0.00
expand: MAIN (2, 0) FAR  w(0) 11132.
	create_child: MAIN (1, 4) FAR 11601 U 0.00
expand: MAIN (1, 0) FAR  w(0) 11601
This proof contains 0 Farkas lemmas. 0 Farkas lemmas participate in the lowest cut
. F 0.00
expand: MAIN (2, 0) FAR  w(0) 11132.
	create_child: MAIN (1, 4) FAR 11865 U 0.00
expand: MAIN (1, 0) FAR  w(0) 11865
This proof contains 0 Farkas lemmas. 0 Farkas lemmas participate in the lowest cut
. F 0.00
expand: MAIN (2, 0) FAR  w(0) 11132.
	create_child: MAIN (1, 4) FAR 11972 U 0.00
expand: MAIN (1, 0) FAR  w(0) 11972
This proof contains 1 Farkas lemmas. 0 Farkas lemmas participate in the lowest cut
. F 0.00
expand: MAIN (2, 0) FAR  w(0) 11132.
	create_child: MAIN (1, 4) FAR 12081 U 0.00
expand: MAIN (1, 0) FAR  w(0) 12081
This proof contains 1 Farkas lemmas. 0 Farkas lemmas participate in the lowest cut
. F 0.00
expand: MAIN (2, 0) FAR  w(0) 11132
This proof contains 3 Farkas lemmas. 0 Farkas lemmas participate in the lowest cut
. F 0.00
expand: MAIN (3, 0) FAR  w(0) 3544
This proof contains 1 Farkas lemmas. 0 Farkas lemmas participate in the lowest cut
. F 0.00
expand: query!0 (4, 0) FAR  w(0) 1
This proof contains 0 Farkas lemmas. 0 Farkas lemmas participate in the lowest cut
. F 0.00
(spacer::context::check_reachability :time 0.04 :before-memory 6.63 :after-memory 7.32)
Propagating: 1 2 3 
(spacer::context::propagate :time 0.00 :before-memory 7.32 :after-memory 7.32)
(define-fun MAIN ((x!0 Bool)
 (x!1 Bool)
 (x!2 Bool)
 (x!3 Bool)
 (x!4 Bool)
 (x!5 Bool)
 (x!6 Int)
 (x!7 Int)
 (x!8 Int)
 (x!9 Bool)
 (x!10 Int)
 (x!11 Bool)
 (x!12 Bool)
 (x!13 Bool)
 (x!14 Int)
 (x!15 Bool)
 (x!16 Bool)
 (x!17 Bool)
 (x!18 Bool)
 (x!19 Bool)
 (x!20 Bool)
 (x!21 Bool)
 (x!22 Bool)
 (x!23 Bool)
 (x!24 Bool)) Bool
  (let ((a!1 (not (<= (+ x!6 (* (- 1) x!8)) 0)))
        (a!2 (not (<= (+ x!6 (* (- 1) x!7)) (- 10))))
        (a!3 (not (>= (+ x!8 (* (- 1) x!6)) 10))))
    (and (or (not (<= x!8 0)) x!0)
         x!24
         (not x!19)
         (not x!12)
         (not x!16)
         (not x!23)
         (not x!22)
         (not x!4)
         (>= x!7 0)
         (or a!1 x!0 x!18)
         (or (not x!18) x!9)
         (or x!17 x!18 x!0)
         (or (not x!2) x!18)
         (or (not x!18) x!2)
         (or a!2 x!13)
         (or (not (<= x!8 0)) (not x!18))
         (or x!13 (not x!21))
         (or (not x!18) (not x!1))
         (or x!21 (not x!13))
         (or x!17 (not x!1))
         (not (<= x!8 (- 2)))
         (or x!11 (not x!17))
         (or a!3 x!18))))
BRUNCH_STAT max_query_lvl 4
BRUNCH_STAT num_queries 37
BRUNCH_STAT num_reach_queries 0
BRUNCH_STAT num_reach_reuse 0
BRUNCH_STAT inductive_lvl 3
BRUNCH_STAT max_depth 4
BRUNCH_STAT cex_depth 0
(:SPACER-inductive-level               3
 :SPACER-max-depth                     4
 :SPACER-max-query-lvl                 4
 :SPACER-num-invariants                27
 :SPACER-num-lemmas                    42
 :SPACER-num-properties                32
 :SPACER-num-queries                   37
 :added-eqs                            1685
 :arith-add-rows                       447
 :arith-assert-diseq                   878
 :arith-assert-lower                   2030
 :arith-assert-upper                   4021
 :arith-bound-prop                     153
 :arith-conflicts                      7
 :arith-eq-adapter                     554
 :arith-fixed-eqs                      290
 :arith-offset-eqs                     116
 :arith-pivots                         222
 :bool-inductive-gen                   37
 :bool-inductive-gen-failures          63
 :conflicts                            163
 :decisions                            9171
 :del-clause                           136
 :final-checks                         102
 :minimized-lits                       6
 :mk-bool-var                          1078
 :mk-clause                            1512
 :num-checks                           223
 :propagations                         41417
 :time.itp_solver.itp_core             0.01
 :time.spacer.init_rules               0.00
 :time.spacer.init_rules.pt.init       0.00
 :time.spacer.solve                    0.12
 :time.spacer.solve.propagate          0.01
 :time.spacer.solve.reach              0.11
 :time.spacer.solve.reach.children     0.03
 :time.spacer.solve.reach.gen.bool_ind 0.03
 :time.virtual_solver.proof            0.01
 :time.virtual_solver.smt.total        0.07
 :time.virtual_solver.smt.total.sat    0.05
 :virtual_solver.checks                223
 :virtual_solver.checks.sat            102)
BRUNCH_STAT max_query_lvl 4
BRUNCH_STAT num_queries 37
BRUNCH_STAT num_reach_queries 0
BRUNCH_STAT num_reach_reuse 0
BRUNCH_STAT inductive_lvl 3
BRUNCH_STAT max_depth 4
BRUNCH_STAT cex_depth 0

real	0m0.157s
user	0m0.144s
sys	0m0.012s
