(transform N7datalog13mk_coi_filterE...no-op 0s)
(transform N7datalog25mk_interp_tail_simplifierE...15 rules 0s)
(transform N7datalog27mk_quantifier_instantiationE...no-op 0s)
(transform N7datalog8mk_scaleE...no-op 0s)
(transform N7datalog18mk_karr_invariantsE...no-op 0s)
(transform N7datalog14mk_array_blastE...no-op 0s)
(transform N7datalog22mk_subsumption_checkerE...14 rules 0s)
(transform N7datalog12mk_bit_blastE...no-op 0s)
(transform N7datalog15mk_rule_inlinerE...3 rules 0.00587856s)
(transform N7datalog13mk_coi_filterE...no-op 0s)
(transform N7datalog25mk_interp_tail_simplifierE...3 rules 0s)
(transform N7datalog22mk_subsumption_checkerE...no-op 0s)
(transform N7datalog15mk_rule_inlinerE...no-op 0s)
(transform N7datalog13mk_coi_filterE...no-op 0s)
(transform N7datalog25mk_interp_tail_simplifierE...3 rules 0s)
(transform N7datalog22mk_subsumption_checkerE...no-op 0s)
(transform N7datalog15mk_rule_inlinerE...no-op 0s)
(transform N7datalog22mk_subsumption_checkerE...no-op 0s)
(transform N7datalog15mk_rule_inlinerE...no-op 0s)
(transform N7datalog22mk_subsumption_checkerE...no-op 0s)
(transform N7datalog15mk_rule_inlinerE...no-op 0s)
(transform N7datalog22mk_subsumption_checkerE...no-op 0s)
(transform N7datalog8mk_sliceE...no-op 0s)
expand: query!0 (0, 0) FAR  w(0) 1
This proof contains 0 Farkas lemmas. 0 Farkas lemmas participate in the lowest cut
. F 0.00
(spacer::context::check_reachability :time 0.00 :before-memory 4.54 :after-memory 5.06)
Entering level 1
BRUNCH_STAT max_query_lvl 0
BRUNCH_STAT num_queries 0
BRUNCH_STAT num_reach_queries 0
BRUNCH_STAT num_reach_reuse 0
BRUNCH_STAT inductive_lvl 0
BRUNCH_STAT max_depth 1
BRUNCH_STAT cex_depth 0
expand: query!0 (1, 0) FAR  w(0) 1.
	create_child: MAIN (0, 1) FAR 3575 U 0.00
expand: MAIN (0, 0) FAR  w(0) 3575
This proof contains 0 Farkas lemmas. 0 Farkas lemmas participate in the lowest cut
. F 0.00
expand: query!0 (1, 0) FAR  w(0) 1
This proof contains 0 Farkas lemmas. 0 Farkas lemmas participate in the lowest cut
. F 0.00
(spacer::context::check_reachability :time 0.00 :before-memory 5.06 :after-memory 5.88)
Propagating: 0 1  ! 2 
(spacer::context::propagate :time 0.00 :before-memory 5.88 :after-memory 5.97)
Entering level 2
BRUNCH_STAT max_query_lvl 1
BRUNCH_STAT num_queries 1
BRUNCH_STAT num_reach_queries 0
BRUNCH_STAT num_reach_reuse 0
BRUNCH_STAT inductive_lvl 0
BRUNCH_STAT max_depth 2
BRUNCH_STAT cex_depth 0
expand: query!0 (2, 0) FAR  w(0) 1.
	create_child: MAIN (1, 2) FAR 3575 U 0.00
expand: MAIN (1, 0) FAR  w(0) 3575.
	create_child: MAIN (0, 2) FAR 5753 U 0.00
expand: MAIN (0, 0) FAR  w(0) 5753
This proof contains 0 Farkas lemmas. 0 Farkas lemmas participate in the lowest cut
. F 0.00
expand: MAIN (1, 0) FAR  w(0) 3575.
	create_child: MAIN (0, 2) FAR 5904 U 0.00
expand: MAIN (0, 0) FAR  w(0) 5904
This proof contains 0 Farkas lemmas. 0 Farkas lemmas participate in the lowest cut
. F 0.00
expand: MAIN (1, 0) FAR  w(0) 3575.
	create_child: MAIN (0, 2) FAR 6137 U 0.00
expand: MAIN (0, 0) FAR  w(0) 6137
This proof contains 0 Farkas lemmas. 0 Farkas lemmas participate in the lowest cut
. F 0.00
expand: MAIN (1, 0) FAR  w(0) 3575.
	create_child: MAIN (0, 2) FAR 6238 U 0.00
expand: MAIN (0, 0) FAR  w(0) 6238
This proof contains 0 Farkas lemmas. 0 Farkas lemmas participate in the lowest cut
. F 0.00
expand: MAIN (1, 0) FAR  w(0) 3575
This proof contains 0 Farkas lemmas. 0 Farkas lemmas participate in the lowest cut
. F 0.00
expand: query!0 (2, 0) FAR  w(0) 1
This proof contains 0 Farkas lemmas. 0 Farkas lemmas participate in the lowest cut
. F 0.00
(spacer::context::check_reachability :time 0.01 :before-memory 5.97 :after-memory 6.18)
Propagating: 0 1 2  ! 3 
(spacer::context::propagate :time 0.00 :before-memory 6.18 :after-memory 6.18)
Entering level 3
BRUNCH_STAT max_query_lvl 2
BRUNCH_STAT num_queries 6
BRUNCH_STAT num_reach_queries 0
BRUNCH_STAT num_reach_reuse 0
BRUNCH_STAT inductive_lvl 0
BRUNCH_STAT max_depth 3
BRUNCH_STAT cex_depth 0
expand: query!0 (3, 0) FAR  w(0) 1.
	create_child: MAIN (2, 3) FAR 3575 U 0.00
expand: MAIN (2, 0) FAR  w(0) 3575.
	create_child: MAIN (1, 3) FAR 6701 U 0.00
expand: MAIN (1, 0) FAR  w(0) 6701
This proof contains 2 Farkas lemmas. 0 Farkas lemmas participate in the lowest cut
. F 0.00
expand: MAIN (2, 0) FAR  w(0) 3575.
	create_child: MAIN (1, 3) FAR 7014 U 0.00
expand: MAIN (1, 0) FAR  w(0) 7014
This proof contains 0 Farkas lemmas. 0 Farkas lemmas participate in the lowest cut
. F 0.00
expand: MAIN (2, 0) FAR  w(0) 3575.
	create_child: MAIN (1, 3) FAR 7296 U 0.00
expand: MAIN (1, 0) FAR  w(0) 7296
This proof contains 0 Farkas lemmas. 0 Farkas lemmas participate in the lowest cut
. F 0.00
expand: MAIN (2, 0) FAR  w(0) 3575.
	create_child: MAIN (1, 3) FAR 7610 U 0.00
expand: MAIN (1, 0) FAR  w(0) 7610
This proof contains 0 Farkas lemmas. 0 Farkas lemmas participate in the lowest cut
. F 0.00
expand: MAIN (2, 0) FAR  w(0) 3575.
	create_child: MAIN (1, 3) FAR 7261 U 0.00
expand: MAIN (1, 0) FAR  w(0) 7261
This proof contains 0 Farkas lemmas. 0 Farkas lemmas participate in the lowest cut
. F 0.00
expand: MAIN (2, 0) FAR  w(0) 3575.
	create_child: MAIN (1, 3) FAR 7847 U 0.00
expand: MAIN (1, 0) FAR  w(0) 7847
This proof contains 2 Farkas lemmas. 0 Farkas lemmas participate in the lowest cut
. F 0.00
expand: MAIN (2, 0) FAR  w(0) 3575.
	create_child: MAIN (1, 3) FAR 8240 U 0.00
expand: MAIN (1, 0) FAR  w(0) 8240
This proof contains 6 Farkas lemmas. 0 Farkas lemmas participate in the lowest cut
. F 0.00
expand: MAIN (2, 0) FAR  w(0) 3575.
	create_child: MAIN (1, 3) FAR 8844 U 0.00
expand: MAIN (1, 0) FAR  w(0) 8844
This proof contains 0 Farkas lemmas. 0 Farkas lemmas participate in the lowest cut
. F 0.00
expand: MAIN (2, 0) FAR  w(0) 3575.
	create_child: MAIN (1, 3) FAR 9173 U 0.00
expand: MAIN (1, 0) FAR  w(0) 9173
This proof contains 0 Farkas lemmas. 0 Farkas lemmas participate in the lowest cut
. F 0.00
expand: MAIN (2, 0) FAR  w(0) 3575.
	create_child: MAIN (1, 3) FAR 9270 U 0.00
expand: MAIN (1, 0) FAR  w(0) 9270.
	create_child: MAIN (0, 3) FAR 9124 U 0.00
expand: MAIN (0, 0) FAR  w(0) 9124
This proof contains 0 Farkas lemmas. 0 Farkas lemmas participate in the lowest cut
. F 0.00
expand: MAIN (1, 0) FAR  w(0) 9270.
	create_child: MAIN (0, 3) FAR 9614 U 0.00
expand: MAIN (0, 0) FAR  w(0) 9614
This proof contains 0 Farkas lemmas. 0 Farkas lemmas participate in the lowest cut
. F 0.00
expand: MAIN (1, 0) FAR  w(0) 9270.
	create_child: MAIN (0, 3) FAR 9561 U 0.00
expand: MAIN (0, 0) FAR  w(0) 9561
This proof contains 0 Farkas lemmas. 0 Farkas lemmas participate in the lowest cut
. F 0.00
expand: MAIN (1, 0) FAR  w(0) 9270.
	create_child: MAIN (0, 3) FAR 9504 U 0.00
expand: MAIN (0, 0) FAR  w(0) 9504
This proof contains 0 Farkas lemmas. 0 Farkas lemmas participate in the lowest cut
. F 0.00
expand: MAIN (1, 0) FAR  w(0) 9270
This proof contains 1 Farkas lemmas. 0 Farkas lemmas participate in the lowest cut
. F 0.00
expand: MAIN (2, 0) FAR  w(0) 3575.
	create_child: MAIN (1, 3) FAR 9511 U 0.00
expand: MAIN (1, 0) FAR  w(0) 9511.
	create_child: MAIN (0, 3) FAR 9963 U 0.00
expand: MAIN (0, 0) FAR  w(0) 9963
This proof contains 0 Farkas lemmas. 0 Farkas lemmas participate in the lowest cut
. F 0.00
expand: MAIN (1, 0) FAR  w(0) 9511
This proof contains 0 Farkas lemmas. 0 Farkas lemmas participate in the lowest cut
. F 0.00
expand: MAIN (2, 0) FAR  w(0) 3575
This proof contains 0 Farkas lemmas. 0 Farkas lemmas participate in the lowest cut
. F 0.00
expand: query!0 (3, 0) FAR  w(0) 1
This proof contains 0 Farkas lemmas. 0 Farkas lemmas participate in the lowest cut
. F 0.00
(spacer::context::check_reachability :time 0.05 :before-memory 6.18 :after-memory 6.66)
Propagating: 0 1 2 3  ! 4 
(spacer::context::propagate :time 0.00 :before-memory 6.66 :after-memory 6.66)
Entering level 4
BRUNCH_STAT max_query_lvl 3
BRUNCH_STAT num_queries 23
BRUNCH_STAT num_reach_queries 0
BRUNCH_STAT num_reach_reuse 0
BRUNCH_STAT inductive_lvl 0
BRUNCH_STAT max_depth 4
BRUNCH_STAT cex_depth 0
expand: query!0 (4, 0) FAR  w(0) 1.
	create_child: MAIN (3, 4) FAR 3575 U 0.00
expand: MAIN (3, 0) FAR  w(0) 3575.
	create_child: MAIN (2, 4) FAR 10465 U 0.00
expand: MAIN (2, 0) FAR  w(0) 10465
This proof contains 0 Farkas lemmas. 0 Farkas lemmas participate in the lowest cut
. F 0.00
expand: MAIN (3, 0) FAR  w(0) 3575.
	create_child: MAIN (2, 4) FAR 10664 U 0.00
expand: MAIN (2, 0) FAR  w(0) 10664
This proof contains 0 Farkas lemmas. 0 Farkas lemmas participate in the lowest cut
. F 0.00
expand: MAIN (3, 0) FAR  w(0) 3575.
	create_child: MAIN (2, 4) FAR 10775 U 0.00
expand: MAIN (2, 0) FAR  w(0) 10775.
	create_child: MAIN (1, 4) FAR 10724 U 0.00
expand: MAIN (1, 0) FAR  w(0) 10724
This proof contains 3 Farkas lemmas. 0 Farkas lemmas participate in the lowest cut
. F 0.00
expand: MAIN (2, 0) FAR  w(0) 10775.
	create_child: MAIN (1, 4) FAR 10892 U 0.00
expand: MAIN (1, 0) FAR  w(0) 10892
This proof contains 4 Farkas lemmas. 0 Farkas lemmas participate in the lowest cut
. F 0.00
expand: MAIN (2, 0) FAR  w(0) 10775
This proof contains 2 Farkas lemmas. 0 Farkas lemmas participate in the lowest cut
. F 0.00
expand: MAIN (3, 0) FAR  w(0) 3575
This proof contains 0 Farkas lemmas. 0 Farkas lemmas participate in the lowest cut
. F 0.00
expand: query!0 (4, 0) FAR  w(0) 1
This proof contains 0 Farkas lemmas. 0 Farkas lemmas participate in the lowest cut
. F 0.00
(spacer::context::check_reachability :time 0.02 :before-memory 6.66 :after-memory 6.85)
Propagating: 1 2 3 4  ! 5 
(spacer::context::propagate :time 0.00 :before-memory 6.85 :after-memory 6.85)
Entering level 5
BRUNCH_STAT max_query_lvl 4
BRUNCH_STAT num_queries 29
BRUNCH_STAT num_reach_queries 0
BRUNCH_STAT num_reach_reuse 0
BRUNCH_STAT inductive_lvl 0
BRUNCH_STAT max_depth 5
BRUNCH_STAT cex_depth 0
expand: query!0 (5, 0) FAR  w(0) 1.
	create_child: MAIN (4, 5) FAR 3575 U 0.00
expand: MAIN (4, 0) FAR  w(0) 3575.
	create_child: MAIN (3, 5) FAR 11248 U 0.00
expand: MAIN (3, 0) FAR  w(0) 11248.
	create_child: MAIN (2, 5) FAR 11392 U 0.00
expand: MAIN (2, 0) FAR  w(0) 11392
This proof contains 0 Farkas lemmas. 0 Farkas lemmas participate in the lowest cut
. F 0.00
expand: MAIN (3, 0) FAR  w(0) 11248
This proof contains 2 Farkas lemmas. 0 Farkas lemmas participate in the lowest cut
. F 0.00
expand: MAIN (4, 0) FAR  w(0) 3575
This proof contains 0 Farkas lemmas. 0 Farkas lemmas participate in the lowest cut
. F 0.00
expand: query!0 (5, 0) FAR  w(0) 1
This proof contains 0 Farkas lemmas. 0 Farkas lemmas participate in the lowest cut
. F 0.00
(spacer::context::check_reachability :time 0.01 :before-memory 6.85 :after-memory 6.85)
Propagating: 2 
(spacer::context::propagate :time 0.00 :before-memory 6.85 :after-memory 6.85)
(define-fun MAIN ((x!0 Bool)
 (x!1 Bool)
 (x!2 Bool)
 (x!3 Bool)
 (x!4 Bool)
 (x!5 Bool)
 (x!6 Int)
 (x!7 Int)
 (x!8 Int)
 (x!9 Bool)
 (x!10 Int)
 (x!11 Bool)
 (x!12 Bool)
 (x!13 Bool)
 (x!14 Int)
 (x!15 Bool)
 (x!16 Bool)
 (x!17 Bool)
 (x!18 Bool)
 (x!19 Bool)
 (x!20 Bool)
 (x!21 Bool)
 (x!22 Bool)
 (x!23 Bool)
 (x!24 Bool)) Bool
  (let ((a!1 (or (<= (+ x!6 (* (- 1) x!8)) 0) (not x!2)))
        (a!2 (not (>= (+ x!6 (* (- 1) x!7)) 10)))
        (a!3 (not (<= (+ x!6 (* (- 1) x!8)) (- 2)))))
    (and (or x!17 (not x!1))
         x!24
         x!0
         (not x!4)
         (not x!12)
         (not x!19)
         (not x!16)
         (not x!23)
         (not x!22)
         a!1
         (or a!2 x!20)
         (or x!13 (not x!21))
         (or (not x!18) x!2)
         (or (not x!2) x!18)
         (or x!11 (not x!1))
         (or (not x!17) (not x!18))
         (or a!3 (not x!1)))))
BRUNCH_STAT max_query_lvl 5
BRUNCH_STAT num_queries 32
BRUNCH_STAT num_reach_queries 0
BRUNCH_STAT num_reach_reuse 0
BRUNCH_STAT inductive_lvl 2
BRUNCH_STAT max_depth 5
BRUNCH_STAT cex_depth 0
(:SPACER-inductive-level               2
 :SPACER-max-depth                     5
 :SPACER-max-query-lvl                 5
 :SPACER-num-invariants                21
 :SPACER-num-lemmas                    38
 :SPACER-num-properties                22
 :SPACER-num-queries                   32
 :added-eqs                            1198
 :arith-add-rows                       356
 :arith-assert-diseq                   741
 :arith-assert-lower                   1785
 :arith-assert-upper                   2754
 :arith-bound-prop                     148
 :arith-conflicts                      7
 :arith-eq-adapter                     362
 :arith-fixed-eqs                      211
 :arith-offset-eqs                     135
 :arith-pivots                         150
 :bool-inductive-gen                   32
 :bool-inductive-gen-failures          46
 :conflicts                            148
 :decisions                            6772
 :del-clause                           65
 :final-checks                         77
 :minimized-lits                       10
 :mk-bool-var                          1110
 :mk-clause                            1402
 :num-checks                           179
 :propagations                         31811
 :time.itp_solver.itp_core             0.01
 :time.spacer.init_rules               0.00
 :time.spacer.init_rules.pt.init       0.00
 :time.spacer.solve                    0.10
 :time.spacer.solve.propagate          0.01
 :time.spacer.solve.reach              0.09
 :time.spacer.solve.reach.children     0.02
 :time.spacer.solve.reach.gen.bool_ind 0.02
 :time.virtual_solver.proof            0.01
 :time.virtual_solver.smt.total        0.06
 :time.virtual_solver.smt.total.sat    0.04
 :virtual_solver.checks                179
 :virtual_solver.checks.sat            77)
BRUNCH_STAT max_query_lvl 5
BRUNCH_STAT num_queries 32
BRUNCH_STAT num_reach_queries 0
BRUNCH_STAT num_reach_reuse 0
BRUNCH_STAT inductive_lvl 2
BRUNCH_STAT max_depth 5
BRUNCH_STAT cex_depth 0

real	0m0.138s
user	0m0.124s
sys	0m0.012s
