(transform N7datalog13mk_coi_filterE...no-op 0s)
(transform N7datalog25mk_interp_tail_simplifierE...15 rules 0s)
(transform N7datalog27mk_quantifier_instantiationE...no-op 0s)
(transform N7datalog8mk_scaleE...no-op 0s)
(transform N7datalog18mk_karr_invariantsE...no-op 0s)
(transform N7datalog14mk_array_blastE...no-op 0s)
(transform N7datalog22mk_subsumption_checkerE...14 rules 0s)
(transform N7datalog12mk_bit_blastE...no-op 0s)
(transform N7datalog15mk_rule_inlinerE...3 rules 0.00547605s)
(transform N7datalog13mk_coi_filterE...no-op 0s)
(transform N7datalog25mk_interp_tail_simplifierE...3 rules 0s)
(transform N7datalog22mk_subsumption_checkerE...no-op 0s)
(transform N7datalog15mk_rule_inlinerE...no-op 0s)
(transform N7datalog13mk_coi_filterE...no-op 0s)
(transform N7datalog25mk_interp_tail_simplifierE...3 rules 0s)
(transform N7datalog22mk_subsumption_checkerE...no-op 0s)
(transform N7datalog15mk_rule_inlinerE...no-op 0s)
(transform N7datalog22mk_subsumption_checkerE...no-op 0s)
(transform N7datalog15mk_rule_inlinerE...no-op 0s)
(transform N7datalog22mk_subsumption_checkerE...no-op 0s)
(transform N7datalog15mk_rule_inlinerE...no-op 0s)
(transform N7datalog22mk_subsumption_checkerE...no-op 0s)
(transform N7datalog8mk_sliceE...no-op 0s)
expand: query!0 (0, 0) FAR  w(0) 1
This proof contains 0 Farkas lemmas. 0 Farkas lemmas participate in the lowest cut
. F 0.00
(spacer::context::check_reachability :time 0.00 :before-memory 4.52 :after-memory 5.06)
Entering level 1
BRUNCH_STAT max_query_lvl 0
BRUNCH_STAT num_queries 0
BRUNCH_STAT num_reach_queries 0
BRUNCH_STAT num_reach_reuse 0
BRUNCH_STAT inductive_lvl 0
BRUNCH_STAT max_depth 1
BRUNCH_STAT cex_depth 0
expand: query!0 (1, 0) FAR  w(0) 1.
	create_child: MAIN (0, 1) FAR 3353 U 0.00
expand: MAIN (0, 0) FAR  w(0) 3353
This proof contains 0 Farkas lemmas. 0 Farkas lemmas participate in the lowest cut
. F 0.00
expand: query!0 (1, 0) FAR  w(0) 1
This proof contains 0 Farkas lemmas. 0 Farkas lemmas participate in the lowest cut
. F 0.00
(spacer::context::check_reachability :time 0.00 :before-memory 5.06 :after-memory 5.86)
Propagating: 0 1  ! 2 
(spacer::context::propagate :time 0.00 :before-memory 5.86 :after-memory 5.86)
Entering level 2
BRUNCH_STAT max_query_lvl 1
BRUNCH_STAT num_queries 1
BRUNCH_STAT num_reach_queries 0
BRUNCH_STAT num_reach_reuse 0
BRUNCH_STAT inductive_lvl 0
BRUNCH_STAT max_depth 2
BRUNCH_STAT cex_depth 0
expand: query!0 (2, 0) FAR  w(0) 1.
	create_child: MAIN (1, 2) FAR 3353 U 0.00
expand: MAIN (1, 0) FAR  w(0) 3353.
	create_child: MAIN (0, 2) FAR 5189 U 0.00
expand: MAIN (0, 0) FAR  w(0) 5189
This proof contains 0 Farkas lemmas. 0 Farkas lemmas participate in the lowest cut
. F 0.00
expand: MAIN (1, 0) FAR  w(0) 3353.
	create_child: MAIN (0, 2) FAR 5465 U 0.00
expand: MAIN (0, 0) FAR  w(0) 5465
This proof contains 0 Farkas lemmas. 0 Farkas lemmas participate in the lowest cut
. F 0.00
expand: MAIN (1, 0) FAR  w(0) 3353.
	create_child: MAIN (0, 2) FAR 5631 U 0.00
expand: MAIN (0, 0) FAR  w(0) 5631
This proof contains 0 Farkas lemmas. 0 Farkas lemmas participate in the lowest cut
. F 0.00
expand: MAIN (1, 0) FAR  w(0) 3353.
	create_child: MAIN (0, 2) FAR 5743 U 0.00
expand: MAIN (0, 0) FAR  w(0) 5743
This proof contains 0 Farkas lemmas. 0 Farkas lemmas participate in the lowest cut
. F 0.00
expand: MAIN (1, 0) FAR  w(0) 3353.
	create_child: MAIN (0, 2) FAR 5755 U 0.00
expand: MAIN (0, 0) FAR  w(0) 5755
This proof contains 0 Farkas lemmas. 0 Farkas lemmas participate in the lowest cut
. F 0.00
expand: MAIN (1, 0) FAR  w(0) 3353.
	create_child: MAIN (0, 2) FAR 5462 U 0.00
expand: MAIN (0, 0) FAR  w(0) 5462
This proof contains 0 Farkas lemmas. 0 Farkas lemmas participate in the lowest cut
. F 0.00
expand: MAIN (1, 0) FAR  w(0) 3353.
	create_child: MAIN (0, 2) FAR 5803 U 0.00
expand: MAIN (0, 0) FAR  w(0) 5803
This proof contains 0 Farkas lemmas. 0 Farkas lemmas participate in the lowest cut
. F 0.00
expand: MAIN (1, 0) FAR  w(0) 3353.
	create_child: MAIN (0, 2) FAR 5956 U 0.00
expand: MAIN (0, 0) FAR  w(0) 5956
This proof contains 0 Farkas lemmas. 0 Farkas lemmas participate in the lowest cut
. F 0.00
expand: MAIN (1, 0) FAR  w(0) 3353.
	create_child: MAIN (0, 2) FAR 6044 U 0.00
expand: MAIN (0, 0) FAR  w(0) 6044
This proof contains 1 Farkas lemmas. 0 Farkas lemmas participate in the lowest cut
. F 0.00
expand: MAIN (1, 0) FAR  w(0) 3353.
	create_child: MAIN (0, 2) FAR 6252 U 0.00
expand: MAIN (0, 0) FAR  w(0) 6252
This proof contains 4 Farkas lemmas. 0 Farkas lemmas participate in the lowest cut
. F 0.00
expand: MAIN (1, 0) FAR  w(0) 3353
This proof contains 1 Farkas lemmas. 0 Farkas lemmas participate in the lowest cut
. F 0.00
expand: query!0 (2, 0) FAR  w(0) 1
This proof contains 0 Farkas lemmas. 0 Farkas lemmas participate in the lowest cut
. F 0.00
(spacer::context::check_reachability :time 0.02 :before-memory 5.86 :after-memory 6.31)
Propagating: 0 1 2  ! 3 
(spacer::context::propagate :time 0.00 :before-memory 6.31 :after-memory 6.31)
Entering level 3
BRUNCH_STAT max_query_lvl 2
BRUNCH_STAT num_queries 12
BRUNCH_STAT num_reach_queries 0
BRUNCH_STAT num_reach_reuse 0
BRUNCH_STAT inductive_lvl 0
BRUNCH_STAT max_depth 3
BRUNCH_STAT cex_depth 0
expand: query!0 (3, 0) FAR  w(0) 1.
	create_child: MAIN (2, 3) FAR 3353 U 0.00
expand: MAIN (2, 0) FAR  w(0) 3353.
	create_child: MAIN (1, 3) FAR 7248 U 0.00
expand: MAIN (1, 0) FAR  w(0) 7248
This proof contains 3 Farkas lemmas. 0 Farkas lemmas participate in the lowest cut
. F 0.00
expand: MAIN (2, 0) FAR  w(0) 3353.
	create_child: MAIN (1, 3) FAR 7238 U 0.00
expand: MAIN (1, 0) FAR  w(0) 7238.
	create_child: MAIN (0, 3) FAR 7583 U 0.00
expand: MAIN (0, 0) FAR  w(0) 7583
This proof contains 1 Farkas lemmas. 0 Farkas lemmas participate in the lowest cut
. F 0.00
expand: MAIN (1, 0) FAR  w(0) 7238
This proof contains 5 Farkas lemmas. 0 Farkas lemmas participate in the lowest cut
. F 0.00
expand: MAIN (2, 0) FAR  w(0) 3353.
	create_child: MAIN (1, 3) FAR 7789 U 0.00
expand: MAIN (1, 0) FAR  w(0) 7789.
	create_child: MAIN (0, 3) FAR 8116 U 0.00
expand: MAIN (0, 0) FAR  w(0) 8116
This proof contains 1 Farkas lemmas. 0 Farkas lemmas participate in the lowest cut
. F 0.00
expand: MAIN (1, 0) FAR  w(0) 7789.
	create_child: MAIN (0, 3) FAR 8262 U 0.00
expand: MAIN (0, 0) FAR  w(0) 8262
This proof contains 2 Farkas lemmas. 0 Farkas lemmas participate in the lowest cut
. F 0.00
expand: MAIN (1, 0) FAR  w(0) 7789
This proof contains 2 Farkas lemmas. 0 Farkas lemmas participate in the lowest cut
. F 0.00
expand: MAIN (2, 0) FAR  w(0) 3353.
	create_child: MAIN (1, 3) FAR 8426 U 0.00
expand: MAIN (1, 0) FAR  w(0) 8426
This proof contains 3 Farkas lemmas. 0 Farkas lemmas participate in the lowest cut
. F 0.00
expand: MAIN (2, 0) FAR  w(0) 3353.
	create_child: MAIN (1, 3) FAR 8707 U 0.00
expand: MAIN (1, 0) FAR  w(0) 8707
This proof contains 0 Farkas lemmas. 0 Farkas lemmas participate in the lowest cut
. F 0.00
expand: MAIN (2, 0) FAR  w(0) 3353.
	create_child: MAIN (1, 3) FAR 7060 U 0.00
expand: MAIN (1, 0) FAR  w(0) 7060.
	create_child: MAIN (0, 3) FAR 8878 U 0.00
expand: MAIN (0, 0) FAR  w(0) 8878
This proof contains 0 Farkas lemmas. 0 Farkas lemmas participate in the lowest cut
. F 0.00
expand: MAIN (1, 0) FAR  w(0) 7060
This proof contains 5 Farkas lemmas. 0 Farkas lemmas participate in the lowest cut
. F 0.00
expand: MAIN (2, 0) FAR  w(0) 3353
This proof contains 3 Farkas lemmas. 0 Farkas lemmas participate in the lowest cut
. F 0.00
expand: query!0 (3, 0) FAR  w(0) 1
This proof contains 0 Farkas lemmas. 0 Farkas lemmas participate in the lowest cut
. F 0.00
(spacer::context::check_reachability :time 0.03 :before-memory 6.31 :after-memory 6.70)
Propagating: 0 1 2 3  ! 4 
(spacer::context::propagate :time 0.01 :before-memory 6.70 :after-memory 6.70)
Entering level 4
BRUNCH_STAT max_query_lvl 3
BRUNCH_STAT num_queries 23
BRUNCH_STAT num_reach_queries 0
BRUNCH_STAT num_reach_reuse 0
BRUNCH_STAT inductive_lvl 0
BRUNCH_STAT max_depth 4
BRUNCH_STAT cex_depth 0
expand: query!0 (4, 0) FAR  w(0) 1.
	create_child: MAIN (3, 4) FAR 3353 U 0.00
expand: MAIN (3, 0) FAR  w(0) 3353.
	create_child: MAIN (2, 4) FAR 9679 U 0.00
expand: MAIN (2, 0) FAR  w(0) 9679
This proof contains 0 Farkas lemmas. 0 Farkas lemmas participate in the lowest cut
. F 0.00
expand: MAIN (3, 0) FAR  w(0) 3353.
	create_child: MAIN (2, 4) FAR 9943 U 0.00
expand: MAIN (2, 0) FAR  w(0) 9943.
	create_child: MAIN (1, 4) FAR 10059 U 0.00
expand: MAIN (1, 0) FAR  w(0) 10059
This proof contains 3 Farkas lemmas. 0 Farkas lemmas participate in the lowest cut
. F 0.00
expand: MAIN (2, 0) FAR  w(0) 9943
This proof contains 3 Farkas lemmas. 0 Farkas lemmas participate in the lowest cut
. F 0.00
expand: MAIN (3, 0) FAR  w(0) 3353
This proof contains 1 Farkas lemmas. 0 Farkas lemmas participate in the lowest cut
. F 0.00
expand: query!0 (4, 0) FAR  w(0) 1
This proof contains 0 Farkas lemmas. 0 Farkas lemmas participate in the lowest cut
. F 0.00
(spacer::context::check_reachability :time 0.01 :before-memory 6.70 :after-memory 6.80)
Propagating: 1 2 3 4  ! 5 
(spacer::context::propagate :time 0.01 :before-memory 6.80 :after-memory 6.80)
Entering level 5
BRUNCH_STAT max_query_lvl 4
BRUNCH_STAT num_queries 27
BRUNCH_STAT num_reach_queries 0
BRUNCH_STAT num_reach_reuse 0
BRUNCH_STAT inductive_lvl 0
BRUNCH_STAT max_depth 5
BRUNCH_STAT cex_depth 0
expand: query!0 (5, 0) FAR  w(0) 1.
	create_child: MAIN (4, 5) FAR 3353 U 0.00
expand: MAIN (4, 0) FAR  w(0) 3353.
	create_child: MAIN (3, 5) FAR 10642 U 0.00
expand: MAIN (3, 0) FAR  w(0) 10642
This proof contains 0 Farkas lemmas. 0 Farkas lemmas participate in the lowest cut
. F 0.00
expand: MAIN (4, 0) FAR  w(0) 3353.
	create_child: MAIN (3, 5) FAR 10736 U 0.00
expand: MAIN (3, 0) FAR  w(0) 10736
This proof contains 3 Farkas lemmas. 0 Farkas lemmas participate in the lowest cut
. F 0.00
expand: MAIN (4, 0) FAR  w(0) 3353.
	create_child: MAIN (3, 5) FAR 10979 U 0.00
expand: MAIN (3, 0) FAR  w(0) 10979
This proof contains 4 Farkas lemmas. 0 Farkas lemmas participate in the lowest cut
. F 0.00
expand: MAIN (4, 0) FAR  w(0) 3353.
	create_child: MAIN (3, 5) FAR 11400 U 0.00
expand: MAIN (3, 0) FAR  w(0) 11400
This proof contains 0 Farkas lemmas. 0 Farkas lemmas participate in the lowest cut
. F 0.00
expand: MAIN (4, 0) FAR  w(0) 3353.
	create_child: MAIN (3, 5) FAR 11625 U 0.00
expand: MAIN (3, 0) FAR  w(0) 11625.
	create_child: MAIN (2, 5) FAR 11848 U 0.00
expand: MAIN (2, 0) FAR  w(0) 11848
This proof contains 5 Farkas lemmas. 0 Farkas lemmas participate in the lowest cut
. F 0.00
expand: MAIN (3, 0) FAR  w(0) 11625
This proof contains 6 Farkas lemmas. 0 Farkas lemmas participate in the lowest cut
. F 0.00
expand: MAIN (4, 0) FAR  w(0) 3353.
	create_child: MAIN (3, 5) FAR 11593 U 0.00
expand: MAIN (3, 0) FAR  w(0) 11593
This proof contains 3 Farkas lemmas. 0 Farkas lemmas participate in the lowest cut
. F 0.00
expand: MAIN (4, 0) FAR  w(0) 3353.
	create_child: MAIN (3, 5) FAR 12067 U 0.00
expand: MAIN (3, 0) FAR  w(0) 12067.
	create_child: MAIN (2, 5) FAR 12285 U 0.00
expand: MAIN (2, 0) FAR  w(0) 12285
This proof contains 1 Farkas lemmas. 0 Farkas lemmas participate in the lowest cut
. F 0.00
expand: MAIN (3, 0) FAR  w(0) 12067.
	create_child: MAIN (2, 5) FAR 12520 U 0.00
expand: MAIN (2, 0) FAR  w(0) 12520
This proof contains 4 Farkas lemmas. 0 Farkas lemmas participate in the lowest cut
. F 0.00
expand: MAIN (3, 0) FAR  w(0) 12067
This proof contains 3 Farkas lemmas. 0 Farkas lemmas participate in the lowest cut
. F 0.00
expand: MAIN (4, 0) FAR  w(0) 3353
This proof contains 1 Farkas lemmas. 0 Farkas lemmas participate in the lowest cut
. F 0.00
expand: query!0 (5, 0) FAR  w(0) 1
This proof contains 0 Farkas lemmas. 0 Farkas lemmas participate in the lowest cut
. F 0.00
(spacer::context::check_reachability :time 0.04 :before-memory 6.80 :after-memory 7.48)
Propagating: 2 3 4 5  ! 6 
(spacer::context::propagate :time 0.01 :before-memory 7.48 :after-memory 7.48)
Entering level 6
BRUNCH_STAT max_query_lvl 5
BRUNCH_STAT num_queries 38
BRUNCH_STAT num_reach_queries 0
BRUNCH_STAT num_reach_reuse 0
BRUNCH_STAT inductive_lvl 0
BRUNCH_STAT max_depth 6
BRUNCH_STAT cex_depth 0
expand: query!0 (6, 0) FAR  w(0) 1.
	create_child: MAIN (5, 6) FAR 3353 U 0.00
expand: MAIN (5, 0) FAR  w(0) 3353.
	create_child: MAIN (4, 6) FAR 13083 U 0.00
expand: MAIN (4, 0) FAR  w(0) 13083.
	create_child: MAIN (3, 6) FAR 13183 U 0.00
expand: MAIN (3, 0) FAR  w(0) 13183
This proof contains 3 Farkas lemmas. 0 Farkas lemmas participate in the lowest cut
. F 0.00
expand: MAIN (4, 0) FAR  w(0) 13083.
	create_child: MAIN (3, 6) FAR 13394 U 0.00
expand: MAIN (3, 0) FAR  w(0) 13394
This proof contains 0 Farkas lemmas. 0 Farkas lemmas participate in the lowest cut
. F 0.00
expand: MAIN (4, 0) FAR  w(0) 13083.
	create_child: MAIN (3, 6) FAR 13280 U 0.00
expand: MAIN (3, 0) FAR  w(0) 13280
This proof contains 4 Farkas lemmas. 0 Farkas lemmas participate in the lowest cut
. F 0.00
expand: MAIN (4, 0) FAR  w(0) 13083.
	create_child: MAIN (3, 6) FAR 13719 U 0.00
expand: MAIN (3, 0) FAR  w(0) 13719
This proof contains 2 Farkas lemmas. 0 Farkas lemmas participate in the lowest cut
. F 0.00
expand: MAIN (4, 0) FAR  w(0) 13083
This proof contains 7 Farkas lemmas. 0 Farkas lemmas participate in the lowest cut
. F 0.00
expand: MAIN (5, 0) FAR  w(0) 3353.
	create_child: MAIN (4, 6) FAR 13880 U 0.00
expand: MAIN (4, 0) FAR  w(0) 13880.
	create_child: MAIN (3, 6) FAR 13920 U 0.00
expand: MAIN (3, 0) FAR  w(0) 13920
This proof contains 2 Farkas lemmas. 0 Farkas lemmas participate in the lowest cut
. F 0.00
expand: MAIN (4, 0) FAR  w(0) 13880.
	create_child: MAIN (3, 6) FAR 14353 U 0.00
expand: MAIN (3, 0) FAR  w(0) 14353.
	create_child: MAIN (2, 6) FAR 14313 U 0.00
expand: MAIN (2, 0) FAR  w(0) 14313
This proof contains 4 Farkas lemmas. 0 Farkas lemmas participate in the lowest cut
. F 0.00
expand: MAIN (3, 0) FAR  w(0) 14353
This proof contains 3 Farkas lemmas. 0 Farkas lemmas participate in the lowest cut
. F 0.00
expand: MAIN (4, 0) FAR  w(0) 13880
This proof contains 3 Farkas lemmas. 0 Farkas lemmas participate in the lowest cut
. F 0.00
expand: MAIN (5, 0) FAR  w(0) 3353
This proof contains 1 Farkas lemmas. 0 Farkas lemmas participate in the lowest cut
. F 0.00
expand: query!0 (6, 0) FAR  w(0) 1
This proof contains 0 Farkas lemmas. 0 Farkas lemmas participate in the lowest cut
. F 0.00
(spacer::context::check_reachability :time 0.03 :before-memory 7.48 :after-memory 7.68)
Propagating: 2 3 4 5 6  ! 7 
(spacer::context::propagate :time 0.01 :before-memory 7.68 :after-memory 7.68)
Entering level 7
BRUNCH_STAT max_query_lvl 6
BRUNCH_STAT num_queries 48
BRUNCH_STAT num_reach_queries 0
BRUNCH_STAT num_reach_reuse 0
BRUNCH_STAT inductive_lvl 0
BRUNCH_STAT max_depth 7
BRUNCH_STAT cex_depth 0
expand: query!0 (7, 0) FAR  w(0) 1.
	create_child: MAIN (6, 7) FAR 3353 U 0.00
expand: MAIN (6, 0) FAR  w(0) 3353.
	create_child: MAIN (5, 7) FAR 15414 U 0.00
expand: MAIN (5, 0) FAR  w(0) 15414.
	create_child: MAIN (4, 7) FAR 15515 U 0.00
expand: MAIN (4, 0) FAR  w(0) 15515.
	create_child: MAIN (3, 7) FAR 15524 U 0.00
expand: MAIN (3, 0) FAR  w(0) 15524
This proof contains 4 Farkas lemmas. 0 Farkas lemmas participate in the lowest cut
. F 0.00
expand: MAIN (4, 0) FAR  w(0) 15515
This proof contains 4 Farkas lemmas. 0 Farkas lemmas participate in the lowest cut
. F 0.00
expand: MAIN (5, 0) FAR  w(0) 15414
This proof contains 7 Farkas lemmas. 0 Farkas lemmas participate in the lowest cut
. F 0.00
expand: MAIN (6, 0) FAR  w(0) 3353.
	create_child: MAIN (5, 7) FAR 15697 U 0.00
expand: MAIN (5, 0) FAR  w(0) 15697.
	create_child: MAIN (4, 7) FAR 15720 U 0.00
expand: MAIN (4, 0) FAR  w(0) 15720.
	create_child: MAIN (3, 7) FAR 15809 U 0.00
expand: MAIN (3, 0) FAR  w(0) 15809.
	create_child: MAIN (2, 7) FAR 15826 U 0.00
expand: MAIN (2, 0) FAR  w(0) 15826
This proof contains 2 Farkas lemmas. 0 Farkas lemmas participate in the lowest cut
. F 0.00
expand: MAIN (3, 0) FAR  w(0) 15809.
	create_child: MAIN (2, 7) FAR 15920 U 0.00
expand: MAIN (2, 0) FAR  w(0) 15920
This proof contains 3 Farkas lemmas. 0 Farkas lemmas participate in the lowest cut
. F 0.00
expand: MAIN (3, 0) FAR  w(0) 15809
This proof contains 4 Farkas lemmas. 0 Farkas lemmas participate in the lowest cut
. F 0.00
expand: MAIN (4, 0) FAR  w(0) 15720
This proof contains 2 Farkas lemmas. 0 Farkas lemmas participate in the lowest cut
. F 0.00
expand: MAIN (5, 0) FAR  w(0) 15697
This proof contains 3 Farkas lemmas. 0 Farkas lemmas participate in the lowest cut
. F 0.00
expand: MAIN (6, 0) FAR  w(0) 3353
This proof contains 1 Farkas lemmas. 0 Farkas lemmas participate in the lowest cut
. F 0.00
expand: query!0 (7, 0) FAR  w(0) 1
This proof contains 0 Farkas lemmas. 0 Farkas lemmas participate in the lowest cut
. F 0.00
(spacer::context::check_reachability :time 0.03 :before-memory 7.68 :after-memory 7.87)
Propagating: 2 3 4 5 6 7  ! 8 
(spacer::context::propagate :time 0.02 :before-memory 7.87 :after-memory 7.87)
Entering level 8
BRUNCH_STAT max_query_lvl 7
BRUNCH_STAT num_queries 57
BRUNCH_STAT num_reach_queries 0
BRUNCH_STAT num_reach_reuse 0
BRUNCH_STAT inductive_lvl 0
BRUNCH_STAT max_depth 8
BRUNCH_STAT cex_depth 0
expand: query!0 (8, 0) FAR  w(0) 1.
	create_child: MAIN (7, 8) FAR 3353 U 0.00
expand: MAIN (7, 0) FAR  w(0) 3353.
	create_child: MAIN (6, 8) FAR 17231 U 0.00
expand: MAIN (6, 0) FAR  w(0) 17231
This proof contains 0 Farkas lemmas. 0 Farkas lemmas participate in the lowest cut
. F 0.00
expand: MAIN (7, 0) FAR  w(0) 3353.
	create_child: MAIN (6, 8) FAR 17273 U 0.00
expand: MAIN (6, 0) FAR  w(0) 17273.
	create_child: MAIN (5, 8) FAR 17387 U 0.00
expand: MAIN (5, 0) FAR  w(0) 17387.
	create_child: MAIN (4, 8) FAR 17395 U 0.00
expand: MAIN (4, 0) FAR  w(0) 17395.
	create_child: MAIN (3, 8) FAR 17316 U 0.00
expand: MAIN (3, 0) FAR  w(0) 17316.
	create_child: MAIN (2, 8) FAR 17353 U 0.00
expand: MAIN (2, 0) FAR  w(0) 17353
This proof contains 3 Farkas lemmas. 0 Farkas lemmas participate in the lowest cut
. F 0.00
expand: MAIN (3, 0) FAR  w(0) 17316
This proof contains 4 Farkas lemmas. 0 Farkas lemmas participate in the lowest cut
. F 0.00
expand: MAIN (4, 0) FAR  w(0) 17395
This proof contains 3 Farkas lemmas. 0 Farkas lemmas participate in the lowest cut
. F 0.00
expand: MAIN (5, 0) FAR  w(0) 17387
This proof contains 2 Farkas lemmas. 0 Farkas lemmas participate in the lowest cut
. F 0.00
expand: MAIN (6, 0) FAR  w(0) 17273
This proof contains 3 Farkas lemmas. 0 Farkas lemmas participate in the lowest cut
. F 0.00
expand: MAIN (7, 0) FAR  w(0) 3353
This proof contains 1 Farkas lemmas. 0 Farkas lemmas participate in the lowest cut
. F 0.00
expand: query!0 (8, 0) FAR  w(0) 1
This proof contains 0 Farkas lemmas. 0 Farkas lemmas participate in the lowest cut
. F 0.00
(spacer::context::check_reachability :time 0.02 :before-memory 7.87 :after-memory 7.96)
Propagating: 2 3 4 5 6 7 8  ! 9 
(spacer::context::propagate :time 0.02 :before-memory 7.96 :after-memory 8.08)
Entering level 9
BRUNCH_STAT max_query_lvl 8
BRUNCH_STAT num_queries 64
BRUNCH_STAT num_reach_queries 0
BRUNCH_STAT num_reach_reuse 0
BRUNCH_STAT inductive_lvl 0
BRUNCH_STAT max_depth 9
BRUNCH_STAT cex_depth 0
expand: query!0 (9, 0) FAR  w(0) 1.
	create_child: MAIN (8, 9) FAR 3353 U 0.00
expand: MAIN (8, 0) FAR  w(0) 3353.
	create_child: MAIN (7, 9) FAR 18201 U 0.00
expand: MAIN (7, 0) FAR  w(0) 18201.
	create_child: MAIN (6, 9) FAR 18514 U 0.00
expand: MAIN (6, 0) FAR  w(0) 18514.
	create_child: MAIN (5, 9) FAR 18495 U 0.00
expand: MAIN (5, 0) FAR  w(0) 18495
This proof contains 2 Farkas lemmas. 0 Farkas lemmas participate in the lowest cut
. F 0.00
expand: MAIN (6, 0) FAR  w(0) 18514
This proof contains 3 Farkas lemmas. 0 Farkas lemmas participate in the lowest cut
. F 0.00
expand: MAIN (7, 0) FAR  w(0) 18201
This proof contains 4 Farkas lemmas. 0 Farkas lemmas participate in the lowest cut
. F 0.00
expand: MAIN (8, 0) FAR  w(0) 3353.
	create_child: MAIN (7, 9) FAR 18807 U 0.00
expand: MAIN (7, 0) FAR  w(0) 18807.
	create_child: MAIN (6, 9) FAR 19013 U 0.00
expand: MAIN (6, 0) FAR  w(0) 19013.
	create_child: MAIN (5, 9) FAR 18943 U 0.00
expand: MAIN (5, 0) FAR  w(0) 18943
This proof contains 3 Farkas lemmas. 0 Farkas lemmas participate in the lowest cut
. F 0.00
expand: MAIN (6, 0) FAR  w(0) 19013
This proof contains 3 Farkas lemmas. 0 Farkas lemmas participate in the lowest cut
. F 0.00
expand: MAIN (7, 0) FAR  w(0) 18807.
	create_child: MAIN (6, 9) FAR 19128 U 0.00
expand: MAIN (6, 0) FAR  w(0) 19128.
	create_child: MAIN (5, 9) FAR 19101 U 0.00
expand: MAIN (5, 0) FAR  w(0) 19101.
	create_child: MAIN (4, 9) FAR 19090 U 0.00
expand: MAIN (4, 0) FAR  w(0) 19090
This proof contains 3 Farkas lemmas. 0 Farkas lemmas participate in the lowest cut
. F 0.00
expand: MAIN (5, 0) FAR  w(0) 19101
This proof contains 3 Farkas lemmas. 0 Farkas lemmas participate in the lowest cut
. F 0.00
expand: MAIN (6, 0) FAR  w(0) 19128
This proof contains 3 Farkas lemmas. 0 Farkas lemmas participate in the lowest cut
. F 0.00
expand: MAIN (7, 0) FAR  w(0) 18807
This proof contains 3 Farkas lemmas. 0 Farkas lemmas participate in the lowest cut
. F 0.00
expand: MAIN (8, 0) FAR  w(0) 3353.
	create_child: MAIN (7, 9) FAR 19149 U 0.00
expand: MAIN (7, 0) FAR  w(0) 19149.
	create_child: MAIN (6, 9) FAR 19427 U 0.00
expand: MAIN (6, 0) FAR  w(0) 19427.
	create_child: MAIN (5, 9) FAR 19686 U 0.00
expand: MAIN (5, 0) FAR  w(0) 19686.
	create_child: MAIN (4, 9) FAR 19859 U 0.00
expand: MAIN (4, 0) FAR  w(0) 19859.
	create_child: MAIN (3, 9) FAR 20045 U 0.00
expand: MAIN (3, 0) FAR  w(0) 20045.
	create_child: MAIN (2, 9) FAR 20206 U 0.00
expand: MAIN (2, 0) FAR  w(0) 20206
This proof contains 4 Farkas lemmas. 0 Farkas lemmas participate in the lowest cut
. F 0.00
expand: MAIN (3, 0) FAR  w(0) 20045
This proof contains 4 Farkas lemmas. 0 Farkas lemmas participate in the lowest cut
. F 0.00
expand: MAIN (4, 0) FAR  w(0) 19859
This proof contains 4 Farkas lemmas. 0 Farkas lemmas participate in the lowest cut
. F 0.00
expand: MAIN (5, 0) FAR  w(0) 19686
This proof contains 4 Farkas lemmas. 0 Farkas lemmas participate in the lowest cut
. F 0.00
expand: MAIN (6, 0) FAR  w(0) 19427
This proof contains 3 Farkas lemmas. 0 Farkas lemmas participate in the lowest cut
. F 0.00
expand: MAIN (7, 0) FAR  w(0) 19149
This proof contains 6 Farkas lemmas. 0 Farkas lemmas participate in the lowest cut
. F 0.00
expand: MAIN (8, 0) FAR  w(0) 3353.
	create_child: MAIN (7, 9) FAR 20831 U 0.00
expand: MAIN (7, 0) FAR  w(0) 20831.
	create_child: MAIN (6, 9) FAR 20895 U 0.00
expand: MAIN (6, 0) FAR  w(0) 20895.
	create_child: MAIN (5, 9) FAR 20914 U 0.00
expand: MAIN (5, 0) FAR  w(0) 20914.
	create_child: MAIN (4, 9) FAR 20887 U 0.00
expand: MAIN (4, 0) FAR  w(0) 20887.
	create_child: MAIN (3, 9) FAR 21014 U 0.00
expand: MAIN (3, 0) FAR  w(0) 21014.
	create_child: MAIN (2, 9) FAR 20990 U 0.00
expand: MAIN (2, 0) FAR  w(0) 20990
This proof contains 4 Farkas lemmas. 0 Farkas lemmas participate in the lowest cut
. F 0.00
expand: MAIN (3, 0) FAR  w(0) 21014
This proof contains 4 Farkas lemmas. 0 Farkas lemmas participate in the lowest cut
. F 0.00
expand: MAIN (4, 0) FAR  w(0) 20887
This proof contains 3 Farkas lemmas. 0 Farkas lemmas participate in the lowest cut
. F 0.00
expand: MAIN (5, 0) FAR  w(0) 20914
This proof contains 3 Farkas lemmas. 0 Farkas lemmas participate in the lowest cut
. F 0.00
expand: MAIN (6, 0) FAR  w(0) 20895
This proof contains 2 Farkas lemmas. 0 Farkas lemmas participate in the lowest cut
. F 0.00
expand: MAIN (7, 0) FAR  w(0) 20831
This proof contains 3 Farkas lemmas. 0 Farkas lemmas participate in the lowest cut
. F 0.00
expand: MAIN (8, 0) FAR  w(0) 3353
This proof contains 1 Farkas lemmas. 0 Farkas lemmas participate in the lowest cut
. F 0.00
expand: query!0 (9, 0) FAR  w(0) 1
This proof contains 0 Farkas lemmas. 0 Farkas lemmas participate in the lowest cut
. F 0.00
(spacer::context::check_reachability :time 0.09 :before-memory 8.08 :after-memory 8.57)
Propagating: 2 3 4 5 6 7 8 9  ! 10 
(spacer::context::propagate :time 0.03 :before-memory 8.57 :after-memory 8.67)
Entering level 10
BRUNCH_STAT max_query_lvl 9
BRUNCH_STAT num_queries 86
BRUNCH_STAT num_reach_queries 0
BRUNCH_STAT num_reach_reuse 0
BRUNCH_STAT inductive_lvl 0
BRUNCH_STAT max_depth 10
BRUNCH_STAT cex_depth 0
expand: query!0 (10, 0) FAR  w(0) 1.
	create_child: MAIN (9, 10) FAR 3353 U 0.00
expand: MAIN (9, 0) FAR  w(0) 3353.
	create_child: MAIN (8, 10) FAR 23278 U 0.00
expand: MAIN (8, 0) FAR  w(0) 23278.
	create_child: MAIN (7, 10) FAR 23351 U 0.00
expand: MAIN (7, 0) FAR  w(0) 23351.
	create_child: MAIN (6, 10) FAR 23434 U 0.00
expand: MAIN (6, 0) FAR  w(0) 23434.
	create_child: MAIN (5, 10) FAR 22971 U 0.00
expand: MAIN (5, 0) FAR  w(0) 22971.
	create_child: MAIN (4, 10) FAR 23270 U 0.00
expand: MAIN (4, 0) FAR  w(0) 23270.
	create_child: MAIN (3, 10) FAR 23432 U 0.00
expand: MAIN (3, 0) FAR  w(0) 23432.
	create_child: MAIN (2, 10) FAR 23584 U 0.00
expand: MAIN (2, 0) FAR  w(0) 23584
This proof contains 3 Farkas lemmas. 0 Farkas lemmas participate in the lowest cut
. F 0.00
expand: MAIN (3, 0) FAR  w(0) 23432
This proof contains 4 Farkas lemmas. 0 Farkas lemmas participate in the lowest cut
. F 0.00
expand: MAIN (4, 0) FAR  w(0) 23270
This proof contains 4 Farkas lemmas. 0 Farkas lemmas participate in the lowest cut
. F 0.00
expand: MAIN (5, 0) FAR  w(0) 22971
This proof contains 4 Farkas lemmas. 0 Farkas lemmas participate in the lowest cut
. F 0.00
expand: MAIN (6, 0) FAR  w(0) 23434
This proof contains 4 Farkas lemmas. 0 Farkas lemmas participate in the lowest cut
. F 0.00
expand: MAIN (7, 0) FAR  w(0) 23351
This proof contains 3 Farkas lemmas. 0 Farkas lemmas participate in the lowest cut
. F 0.00
expand: MAIN (8, 0) FAR  w(0) 23278.
	create_child: MAIN (7, 10) FAR 24257 U 0.00
expand: MAIN (7, 0) FAR  w(0) 24257.
	create_child: MAIN (6, 10) FAR 24233 U 0.00
expand: MAIN (6, 0) FAR  w(0) 24233.
	create_child: MAIN (5, 10) FAR 24277 U 0.00
expand: MAIN (5, 0) FAR  w(0) 24277.
	create_child: MAIN (4, 10) FAR 24331 U 0.00
expand: MAIN (4, 0) FAR  w(0) 24331.
	create_child: MAIN (3, 10) FAR 23998 U 0.00
expand: MAIN (3, 0) FAR  w(0) 23998.
	create_child: MAIN (2, 10) FAR 24333 U 0.00
expand: MAIN (2, 0) FAR  w(0) 24333.
	create_child: MAIN (1, 10) FAR 24317 U 0.00
expand: MAIN (1, 0) FAR  w(0) 24317
This proof contains 3 Farkas lemmas. 0 Farkas lemmas participate in the lowest cut
. F 0.00
expand: MAIN (2, 0) FAR  w(0) 24333
This proof contains 3 Farkas lemmas. 0 Farkas lemmas participate in the lowest cut
. F 0.00
expand: MAIN (3, 0) FAR  w(0) 23998
This proof contains 4 Farkas lemmas. 0 Farkas lemmas participate in the lowest cut
. F 0.00
expand: MAIN (4, 0) FAR  w(0) 24331
This proof contains 3 Farkas lemmas. 0 Farkas lemmas participate in the lowest cut
. F 0.00
expand: MAIN (5, 0) FAR  w(0) 24277
This proof contains 3 Farkas lemmas. 0 Farkas lemmas participate in the lowest cut
. F 0.00
expand: MAIN (6, 0) FAR  w(0) 24233
This proof contains 3 Farkas lemmas. 0 Farkas lemmas participate in the lowest cut
. F 0.00
expand: MAIN (7, 0) FAR  w(0) 24257
This proof contains 2 Farkas lemmas. 0 Farkas lemmas participate in the lowest cut
. F 0.00
expand: MAIN (8, 0) FAR  w(0) 23278
This proof contains 3 Farkas lemmas. 0 Farkas lemmas participate in the lowest cut
. F 0.00
expand: MAIN (9, 0) FAR  w(0) 3353.
	create_child: MAIN (8, 10) FAR 17273 U 0.00
expand: MAIN (8, 0) FAR  w(0) 17273.
	create_child: MAIN (7, 10) FAR 17387 U 0.00
expand: MAIN (7, 0) FAR  w(0) 17387.
	create_child: MAIN (6, 10) FAR 25329 U 0.00
expand: MAIN (6, 0) FAR  w(0) 25329.
	create_child: MAIN (5, 10) FAR 17316 U 0.00
expand: MAIN (5, 0) FAR  w(0) 17316.
	create_child: MAIN (4, 10) FAR 25393 U 0.00
expand: MAIN (4, 0) FAR  w(0) 25393.
	create_child: MAIN (3, 10) FAR 25315 U 0.00
expand: MAIN (3, 0) FAR  w(0) 25315.
	create_child: MAIN (2, 10) FAR 25486 U 0.00
expand: MAIN (2, 0) FAR  w(0) 25486
This proof contains 3 Farkas lemmas. 0 Farkas lemmas participate in the lowest cut
. F 0.00
expand: MAIN (3, 0) FAR  w(0) 25315
This proof contains 3 Farkas lemmas. 0 Farkas lemmas participate in the lowest cut
. F 0.00
expand: MAIN (4, 0) FAR  w(0) 25393
This proof contains 3 Farkas lemmas. 0 Farkas lemmas participate in the lowest cut
. F 0.00
expand: MAIN (5, 0) FAR  w(0) 17316
This proof contains 3 Farkas lemmas. 0 Farkas lemmas participate in the lowest cut
. F 0.00
expand: MAIN (6, 0) FAR  w(0) 25329
This proof contains 3 Farkas lemmas. 0 Farkas lemmas participate in the lowest cut
. F 0.00
expand: MAIN (7, 0) FAR  w(0) 17387
This proof contains 2 Farkas lemmas. 0 Farkas lemmas participate in the lowest cut
. F 0.00
expand: MAIN (8, 0) FAR  w(0) 17273
This proof contains 3 Farkas lemmas. 0 Farkas lemmas participate in the lowest cut
. F 0.00
expand: MAIN (9, 0) FAR  w(0) 3353
This proof contains 1 Farkas lemmas. 0 Farkas lemmas participate in the lowest cut
. F 0.00
expand: query!0 (10, 0) FAR  w(0) 1
This proof contains 0 Farkas lemmas. 0 Farkas lemmas participate in the lowest cut
. F 0.00
(spacer::context::check_reachability :time 0.08 :before-memory 8.67 :after-memory 9.64)
Propagating: 1 2 3 4 5 6 7 8 9 10  ! 11 
(spacer::context::propagate :time 0.05 :before-memory 9.64 :after-memory 10.00)
Entering level 11
BRUNCH_STAT max_query_lvl 10
BRUNCH_STAT num_queries 108
BRUNCH_STAT num_reach_queries 0
BRUNCH_STAT num_reach_reuse 0
BRUNCH_STAT inductive_lvl 0
BRUNCH_STAT max_depth 11
BRUNCH_STAT cex_depth 0
expand: query!0 (11, 0) FAR  w(0) 1.
	create_child: MAIN (10, 11) FAR 3353 U 0.00
expand: MAIN (10, 0) FAR  w(0) 3353.
	create_child: MAIN (9, 11) FAR 27812 U 0.00
expand: MAIN (9, 0) FAR  w(0) 27812.
	create_child: MAIN (8, 11) FAR 28671 U 0.00
expand: MAIN (8, 0) FAR  w(0) 28671.
	create_child: MAIN (7, 11) FAR 28602 U 0.00
expand: MAIN (7, 0) FAR  w(0) 28602.
	create_child: MAIN (6, 11) FAR 27816 U 0.00
expand: MAIN (6, 0) FAR  w(0) 27816.
	create_child: MAIN (5, 11) FAR 28757 U 0.00
expand: MAIN (5, 0) FAR  w(0) 28757.
	create_child: MAIN (4, 11) FAR 28608 U 0.00
expand: MAIN (4, 0) FAR  w(0) 28608.
	create_child: MAIN (3, 11) FAR 28857 U 0.00
expand: MAIN (3, 0) FAR  w(0) 28857.
	create_child: MAIN (2, 11) FAR 28874 U 0.00
expand: MAIN (2, 0) FAR  w(0) 28874.
	create_child: MAIN (1, 11) FAR 28832 U 0.00
expand: MAIN (1, 0) FAR  w(0) 28832
This proof contains 3 Farkas lemmas. 0 Farkas lemmas participate in the lowest cut
. F 0.00
expand: MAIN (2, 0) FAR  w(0) 28874
This proof contains 3 Farkas lemmas. 0 Farkas lemmas participate in the lowest cut
. F 0.00
expand: MAIN (3, 0) FAR  w(0) 28857
This proof contains 2 Farkas lemmas. 0 Farkas lemmas participate in the lowest cut
. F 0.00
expand: MAIN (4, 0) FAR  w(0) 28608.
	create_child: MAIN (3, 11) FAR 29086 U 0.00
expand: MAIN (3, 0) FAR  w(0) 29086
This proof contains 2 Farkas lemmas. 0 Farkas lemmas participate in the lowest cut
. F 0.00
expand: MAIN (4, 0) FAR  w(0) 28608
This proof contains 4 Farkas lemmas. 0 Farkas lemmas participate in the lowest cut
. F 0.00
expand: MAIN (5, 0) FAR  w(0) 28757
This proof contains 3 Farkas lemmas. 0 Farkas lemmas participate in the lowest cut
. F 0.00
expand: MAIN (6, 0) FAR  w(0) 27816
This proof contains 3 Farkas lemmas. 0 Farkas lemmas participate in the lowest cut
. F 0.00
expand: MAIN (7, 0) FAR  w(0) 28602
This proof contains 3 Farkas lemmas. 0 Farkas lemmas participate in the lowest cut
. F 0.00
expand: MAIN (8, 0) FAR  w(0) 28671
This proof contains 2 Farkas lemmas. 0 Farkas lemmas participate in the lowest cut
. F 0.00
expand: MAIN (9, 0) FAR  w(0) 27812
This proof contains 3 Farkas lemmas. 0 Farkas lemmas participate in the lowest cut
. F 0.00
expand: MAIN (10, 0) FAR  w(0) 3353
This proof contains 1 Farkas lemmas. 0 Farkas lemmas participate in the lowest cut
. F 0.00
expand: query!0 (11, 0) FAR  w(0) 1
This proof contains 0 Farkas lemmas. 0 Farkas lemmas participate in the lowest cut
. F 0.00
(spacer::context::check_reachability :time 0.04 :before-memory 10.00 :after-memory 10.19)
Propagating: 1 2 3 4 5 6 7 8 9 10 11  ! 12 
(spacer::context::propagate :time 0.06 :before-memory 10.19 :after-memory 10.29)
Entering level 12
BRUNCH_STAT max_query_lvl 11
BRUNCH_STAT num_queries 119
BRUNCH_STAT num_reach_queries 0
BRUNCH_STAT num_reach_reuse 0
BRUNCH_STAT inductive_lvl 0
BRUNCH_STAT max_depth 12
BRUNCH_STAT cex_depth 0
expand: query!0 (12, 0) FAR  w(0) 1.
	create_child: MAIN (11, 12) FAR 3353 U 0.00
expand: MAIN (11, 0) FAR  w(0) 3353.
	create_child: MAIN (10, 12) FAR 27812 U 0.00
expand: MAIN (10, 0) FAR  w(0) 27812.
	create_child: MAIN (9, 12) FAR 28671 U 0.00
expand: MAIN (9, 0) FAR  w(0) 28671.
	create_child: MAIN (8, 12) FAR 28602 U 0.00
expand: MAIN (8, 0) FAR  w(0) 28602.
	create_child: MAIN (7, 12) FAR 31917 U 0.00
expand: MAIN (7, 0) FAR  w(0) 31917.
	create_child: MAIN (6, 12) FAR 28757 U 0.00
expand: MAIN (6, 0) FAR  w(0) 28757.
	create_child: MAIN (5, 12) FAR 28608 U 0.00
expand: MAIN (5, 0) FAR  w(0) 28608.
	create_child: MAIN (4, 12) FAR 28857 U 0.00
expand: MAIN (4, 0) FAR  w(0) 28857.
	create_child: MAIN (3, 12) FAR 32049 U 0.00
expand: MAIN (3, 0) FAR  w(0) 32049.
	create_child: MAIN (2, 12) FAR 28832 U 0.00
expand: MAIN (2, 0) FAR  w(0) 28832.
	create_child: MAIN (1, 12) FAR 31878 U 0.00
expand: MAIN (1, 0) FAR  w(0) 31878
This proof contains 5 Farkas lemmas. 0 Farkas lemmas participate in the lowest cut
. F 0.00
expand: MAIN (2, 0) FAR  w(0) 28832
This proof contains 7 Farkas lemmas. 0 Farkas lemmas participate in the lowest cut
. F 0.00
expand: MAIN (3, 0) FAR  w(0) 32049
This proof contains 3 Farkas lemmas. 0 Farkas lemmas participate in the lowest cut
. F 0.00
expand: MAIN (4, 0) FAR  w(0) 28857
This proof contains 4 Farkas lemmas. 0 Farkas lemmas participate in the lowest cut
. F 0.00
expand: MAIN (5, 0) FAR  w(0) 28608
This proof contains 3 Farkas lemmas. 0 Farkas lemmas participate in the lowest cut
. F 0.00
expand: MAIN (6, 0) FAR  w(0) 28757
This proof contains 3 Farkas lemmas. 0 Farkas lemmas participate in the lowest cut
. F 0.00
expand: MAIN (7, 0) FAR  w(0) 31917
This proof contains 3 Farkas lemmas. 0 Farkas lemmas participate in the lowest cut
. F 0.00
expand: MAIN (8, 0) FAR  w(0) 28602
This proof contains 3 Farkas lemmas. 0 Farkas lemmas participate in the lowest cut
. F 0.00
expand: MAIN (9, 0) FAR  w(0) 28671
This proof contains 2 Farkas lemmas. 0 Farkas lemmas participate in the lowest cut
. F 0.00
expand: MAIN (10, 0) FAR  w(0) 27812
This proof contains 3 Farkas lemmas. 0 Farkas lemmas participate in the lowest cut
. F 0.00
expand: MAIN (11, 0) FAR  w(0) 3353
This proof contains 1 Farkas lemmas. 0 Farkas lemmas participate in the lowest cut
. F 0.00
expand: query!0 (12, 0) FAR  w(0) 1
This proof contains 0 Farkas lemmas. 0 Farkas lemmas participate in the lowest cut
. F 0.00
(spacer::context::check_reachability :time 0.04 :before-memory 10.29 :after-memory 10.48)
Propagating: 1 2 3 4 5 6 7 8 9 10 11 12  ! 13 
(spacer::context::propagate :time 0.06 :before-memory 10.48 :after-memory 10.48)
Entering level 13
BRUNCH_STAT max_query_lvl 12
BRUNCH_STAT num_queries 130
BRUNCH_STAT num_reach_queries 0
BRUNCH_STAT num_reach_reuse 0
BRUNCH_STAT inductive_lvl 0
BRUNCH_STAT max_depth 13
BRUNCH_STAT cex_depth 0
expand: query!0 (13, 0) FAR  w(0) 1.
	create_child: MAIN (12, 13) FAR 3353 U 0.00
expand: MAIN (12, 0) FAR  w(0) 3353.
	create_child: MAIN (11, 13) FAR 34303 U 0.00
expand: MAIN (11, 0) FAR  w(0) 34303.
	create_child: MAIN (10, 13) FAR 28671 U 0.00
expand: MAIN (10, 0) FAR  w(0) 28671.
	create_child: MAIN (9, 13) FAR 28602 U 0.00
expand: MAIN (9, 0) FAR  w(0) 28602.
	create_child: MAIN (8, 13) FAR 27816 U 0.00
expand: MAIN (8, 0) FAR  w(0) 27816.
	create_child: MAIN (7, 13) FAR 34489 U 0.00
expand: MAIN (7, 0) FAR  w(0) 34489.
	create_child: MAIN (6, 13) FAR 28608 U 0.00
expand: MAIN (6, 0) FAR  w(0) 28608.
	create_child: MAIN (5, 13) FAR 28857 U 0.00
expand: MAIN (5, 0) FAR  w(0) 28857.
	create_child: MAIN (4, 13) FAR 34346 U 0.00
expand: MAIN (4, 0) FAR  w(0) 34346.
	create_child: MAIN (3, 13) FAR 34575 U 0.00
expand: MAIN (3, 0) FAR  w(0) 34575.
	create_child: MAIN (2, 13) FAR 34541 U 0.00
expand: MAIN (2, 0) FAR  w(0) 34541
This proof contains 5 Farkas lemmas. 0 Farkas lemmas participate in the lowest cut
. F 0.00
expand: MAIN (3, 0) FAR  w(0) 34575
This proof contains 4 Farkas lemmas. 0 Farkas lemmas participate in the lowest cut
. F 0.00
expand: MAIN (4, 0) FAR  w(0) 34346
This proof contains 3 Farkas lemmas. 0 Farkas lemmas participate in the lowest cut
. F 0.00
expand: MAIN (5, 0) FAR  w(0) 28857
This proof contains 3 Farkas lemmas. 0 Farkas lemmas participate in the lowest cut
. F 0.00
expand: MAIN (6, 0) FAR  w(0) 28608
This proof contains 3 Farkas lemmas. 0 Farkas lemmas participate in the lowest cut
. F 0.00
expand: MAIN (7, 0) FAR  w(0) 34489
This proof contains 3 Farkas lemmas. 0 Farkas lemmas participate in the lowest cut
. F 0.00
expand: MAIN (8, 0) FAR  w(0) 27816
This proof contains 3 Farkas lemmas. 0 Farkas lemmas participate in the lowest cut
. F 0.00
expand: MAIN (9, 0) FAR  w(0) 28602
This proof contains 3 Farkas lemmas. 0 Farkas lemmas participate in the lowest cut
. F 0.00
expand: MAIN (10, 0) FAR  w(0) 28671
This proof contains 2 Farkas lemmas. 0 Farkas lemmas participate in the lowest cut
. F 0.00
expand: MAIN (11, 0) FAR  w(0) 34303
This proof contains 3 Farkas lemmas. 0 Farkas lemmas participate in the lowest cut
. F 0.00
expand: MAIN (12, 0) FAR  w(0) 3353
This proof contains 1 Farkas lemmas. 0 Farkas lemmas participate in the lowest cut
. F 0.00
expand: query!0 (13, 0) FAR  w(0) 1
This proof contains 0 Farkas lemmas. 0 Farkas lemmas participate in the lowest cut
. F 0.00
(spacer::context::check_reachability :time 0.04 :before-memory 10.48 :after-memory 10.67)
Propagating: 2 3 4 5 6 7 8 9 10 11 12 13  ! 14 
(spacer::context::propagate :time 0.06 :before-memory 10.67 :after-memory 10.77)
Entering level 14
BRUNCH_STAT max_query_lvl 13
BRUNCH_STAT num_queries 141
BRUNCH_STAT num_reach_queries 0
BRUNCH_STAT num_reach_reuse 0
BRUNCH_STAT inductive_lvl 0
BRUNCH_STAT max_depth 14
BRUNCH_STAT cex_depth 0
expand: query!0 (14, 0) FAR  w(0) 1.
	create_child: MAIN (13, 14) FAR 3353 U 0.00
expand: MAIN (13, 0) FAR  w(0) 3353.
	create_child: MAIN (12, 14) FAR 27812 U 0.00
expand: MAIN (12, 0) FAR  w(0) 27812.
	create_child: MAIN (11, 14) FAR 36659 U 0.00
expand: MAIN (11, 0) FAR  w(0) 36659.
	create_child: MAIN (10, 14) FAR 36537 U 0.00
expand: MAIN (10, 0) FAR  w(0) 36537.
	create_child: MAIN (9, 14) FAR 31917 U 0.00
expand: MAIN (9, 0) FAR  w(0) 31917.
	create_child: MAIN (8, 14) FAR 28757 U 0.00
expand: MAIN (8, 0) FAR  w(0) 28757.
	create_child: MAIN (7, 14) FAR 28608 U 0.00
expand: MAIN (7, 0) FAR  w(0) 28608.
	create_child: MAIN (6, 14) FAR 28857 U 0.00
expand: MAIN (6, 0) FAR  w(0) 28857.
	create_child: MAIN (5, 14) FAR 34346 U 0.00
expand: MAIN (5, 0) FAR  w(0) 34346.
	create_child: MAIN (4, 14) FAR 36849 U 0.00
expand: MAIN (4, 0) FAR  w(0) 36849.
	create_child: MAIN (3, 14) FAR 36621 U 0.00
expand: MAIN (3, 0) FAR  w(0) 36621.
	create_child: MAIN (2, 14) FAR 36931 U 0.00
expand: MAIN (2, 0) FAR  w(0) 36931
This proof contains 9 Farkas lemmas. 0 Farkas lemmas participate in the lowest cut
. F 0.01
expand: MAIN (3, 0) FAR  w(0) 36621
This proof contains 6 Farkas lemmas. 0 Farkas lemmas participate in the lowest cut
. F 0.00
expand: MAIN (4, 0) FAR  w(0) 36849
This proof contains 4 Farkas lemmas. 0 Farkas lemmas participate in the lowest cut
. F 0.00
expand: MAIN (5, 0) FAR  w(0) 34346.
	create_child: MAIN (4, 14) FAR 37458 U 0.00
expand: MAIN (4, 0) FAR  w(0) 37458
This proof contains 0 Farkas lemmas. 0 Farkas lemmas participate in the lowest cut
. F 0.00
expand: MAIN (5, 0) FAR  w(0) 34346.
	create_child: MAIN (4, 14) FAR 37506 U 0.00
expand: MAIN (4, 0) FAR  w(0) 37506.
	create_child: MAIN (3, 14) FAR 37644 U 0.00
expand: MAIN (3, 0) FAR  w(0) 37644
This proof contains 4 Farkas lemmas. 0 Farkas lemmas participate in the lowest cut
. F 0.00
expand: MAIN (4, 0) FAR  w(0) 37506
This proof contains 3 Farkas lemmas. 0 Farkas lemmas participate in the lowest cut
. F 0.00
expand: MAIN (5, 0) FAR  w(0) 34346
This proof contains 3 Farkas lemmas. 0 Farkas lemmas participate in the lowest cut
. F 0.00
expand: MAIN (6, 0) FAR  w(0) 28857.
	create_child: MAIN (5, 14) FAR 37974 U 0.00
expand: MAIN (5, 0) FAR  w(0) 37974.
	create_child: MAIN (4, 14) FAR 38129 U 0.00
expand: MAIN (4, 0) FAR  w(0) 38129.
	create_child: MAIN (3, 14) FAR 37966 U 0.00
expand: MAIN (3, 0) FAR  w(0) 37966.
	create_child: MAIN (2, 14) FAR 37914 U 0.00
expand: MAIN (2, 0) FAR  w(0) 37914.
	create_child: MAIN (1, 14) FAR 38198 U 0.00
expand: MAIN (1, 0) FAR  w(0) 38198
This proof contains 2 Farkas lemmas. 0 Farkas lemmas participate in the lowest cut
. F 0.00
expand: MAIN (2, 0) FAR  w(0) 37914
This proof contains 0 Farkas lemmas. 0 Farkas lemmas participate in the lowest cut
. F 0.00
expand: MAIN (3, 0) FAR  w(0) 37966.
	create_child: MAIN (2, 14) FAR 37874 U 0.00
expand: MAIN (2, 0) FAR  w(0) 37874
This proof contains 6 Farkas lemmas. 0 Farkas lemmas participate in the lowest cut
. F 0.00
expand: MAIN (3, 0) FAR  w(0) 37966
This proof contains 3 Farkas lemmas. 0 Farkas lemmas participate in the lowest cut
. F 0.00
expand: MAIN (4, 0) FAR  w(0) 38129.
	create_child: MAIN (3, 14) FAR 38681 U 0.00
expand: MAIN (3, 0) FAR  w(0) 38681
This proof contains 5 Farkas lemmas. 0 Farkas lemmas participate in the lowest cut
. F 0.00
expand: MAIN (4, 0) FAR  w(0) 38129.
	create_child: MAIN (3, 14) FAR 38947 U 0.00
expand: MAIN (3, 0) FAR  w(0) 38947
This proof contains 0 Farkas lemmas. 0 Farkas lemmas participate in the lowest cut
. F 0.00
expand: MAIN (4, 0) FAR  w(0) 38129
This proof contains 4 Farkas lemmas. 0 Farkas lemmas participate in the lowest cut
. F 0.00
expand: MAIN (5, 0) FAR  w(0) 37974.
	create_child: MAIN (4, 14) FAR 39157 U 0.00
expand: MAIN (4, 0) FAR  w(0) 39157
This proof contains 5 Farkas lemmas. 0 Farkas lemmas participate in the lowest cut
. F 0.00
expand: MAIN (5, 0) FAR  w(0) 37974
This proof contains 4 Farkas lemmas. 0 Farkas lemmas participate in the lowest cut
. F 0.00
expand: MAIN (6, 0) FAR  w(0) 28857.
	create_child: MAIN (5, 14) FAR 39622 U 0.00
expand: MAIN (5, 0) FAR  w(0) 39622
This proof contains 4 Farkas lemmas. 0 Farkas lemmas participate in the lowest cut
. F 0.00
expand: MAIN (6, 0) FAR  w(0) 28857
This proof contains 6 Farkas lemmas. 0 Farkas lemmas participate in the lowest cut
. F 0.01
expand: MAIN (7, 0) FAR  w(0) 28608.
	create_child: MAIN (6, 14) FAR 40036 U 0.00
expand: MAIN (6, 0) FAR  w(0) 40036.
	create_child: MAIN (5, 14) FAR 40298 U 0.00
expand: MAIN (5, 0) FAR  w(0) 40298.
	create_child: MAIN (4, 14) FAR 40120 U 0.00
expand: MAIN (4, 0) FAR  w(0) 40120.
	create_child: MAIN (3, 14) FAR 40233 U 0.00
expand: MAIN (3, 0) FAR  w(0) 40233.
	create_child: MAIN (2, 14) FAR 40383 U 0.00
expand: MAIN (2, 0) FAR  w(0) 40383.
	create_child: MAIN (1, 14) FAR 40333 U 0.00
expand: MAIN (1, 0) FAR  w(0) 40333
This proof contains 4 Farkas lemmas. 0 Farkas lemmas participate in the lowest cut
. F 0.00
expand: MAIN (2, 0) FAR  w(0) 40383
This proof contains 8 Farkas lemmas. 0 Farkas lemmas participate in the lowest cut
. F 0.00
expand: MAIN (3, 0) FAR  w(0) 40233
This proof contains 5 Farkas lemmas. 0 Farkas lemmas participate in the lowest cut
. F 0.00
expand: MAIN (4, 0) FAR  w(0) 40120
This proof contains 3 Farkas lemmas. 0 Farkas lemmas participate in the lowest cut
. F 0.00
expand: MAIN (5, 0) FAR  w(0) 40298
This proof contains 3 Farkas lemmas. 0 Farkas lemmas participate in the lowest cut
. F 0.00
expand: MAIN (6, 0) FAR  w(0) 40036
This proof contains 3 Farkas lemmas. 0 Farkas lemmas participate in the lowest cut
. F 0.00
expand: MAIN (7, 0) FAR  w(0) 28608
This proof contains 3 Farkas lemmas. 0 Farkas lemmas participate in the lowest cut
. F 0.00
expand: MAIN (8, 0) FAR  w(0) 28757
This proof contains 3 Farkas lemmas. 0 Farkas lemmas participate in the lowest cut
. F 0.00
expand: MAIN (9, 0) FAR  w(0) 31917
This proof contains 3 Farkas lemmas. 0 Farkas lemmas participate in the lowest cut
. F 0.00
expand: MAIN (10, 0) FAR  w(0) 36537
This proof contains 3 Farkas lemmas. 0 Farkas lemmas participate in the lowest cut
. F 0.00
expand: MAIN (11, 0) FAR  w(0) 36659
This proof contains 2 Farkas lemmas. 0 Farkas lemmas participate in the lowest cut
. F 0.00
expand: MAIN (12, 0) FAR  w(0) 27812
This proof contains 3 Farkas lemmas. 0 Farkas lemmas participate in the lowest cut
. F 0.00
expand: MAIN (13, 0) FAR  w(0) 3353
This proof contains 1 Farkas lemmas. 0 Farkas lemmas participate in the lowest cut
. F 0.00
expand: query!0 (14, 0) FAR  w(0) 1
This proof contains 0 Farkas lemmas. 0 Farkas lemmas participate in the lowest cut
. F 0.00
(spacer::context::check_reachability :time 0.16 :before-memory 10.77 :after-memory 11.25)
Propagating: 1 2 3 4 5 6 7 8 9 10 11 12 13 14  ! 15 
(spacer::context::propagate :time 0.10 :before-memory 11.25 :after-memory 11.58)
Entering level 15
BRUNCH_STAT max_query_lvl 14
BRUNCH_STAT num_queries 172
BRUNCH_STAT num_reach_queries 0
BRUNCH_STAT num_reach_reuse 0
BRUNCH_STAT inductive_lvl 0
BRUNCH_STAT max_depth 15
BRUNCH_STAT cex_depth 0
expand: query!0 (15, 0) FAR  w(0) 1.
	create_child: MAIN (14, 15) FAR 3353 U 0.00
expand: MAIN (14, 0) FAR  w(0) 3353.
	create_child: MAIN (13, 15) FAR 43180 U 0.00
expand: MAIN (13, 0) FAR  w(0) 43180.
	create_child: MAIN (12, 15) FAR 43297 U 0.00
expand: MAIN (12, 0) FAR  w(0) 43297.
	create_child: MAIN (11, 15) FAR 43228 U 0.00
expand: MAIN (11, 0) FAR  w(0) 43228.
	create_child: MAIN (10, 15) FAR 43212 U 0.00
expand: MAIN (10, 0) FAR  w(0) 43212.
	create_child: MAIN (9, 15) FAR 43378 U 0.00
expand: MAIN (9, 0) FAR  w(0) 43378.
	create_child: MAIN (8, 15) FAR 43317 U 0.00
expand: MAIN (8, 0) FAR  w(0) 43317.
	create_child: MAIN (7, 15) FAR 43472 U 0.00
expand: MAIN (7, 0) FAR  w(0) 43472.
	create_child: MAIN (6, 15) FAR 43173 U 0.00
expand: MAIN (6, 0) FAR  w(0) 43173.
	create_child: MAIN (5, 15) FAR 43494 U 0.00
expand: MAIN (5, 0) FAR  w(0) 43494.
	create_child: MAIN (4, 15) FAR 43450 U 0.00
expand: MAIN (4, 0) FAR  w(0) 43450
This proof contains 1 Farkas lemmas. 0 Farkas lemmas participate in the lowest cut
. F 0.00
expand: MAIN (5, 0) FAR  w(0) 43494.
	create_child: MAIN (4, 15) FAR 43363 U 0.00
expand: MAIN (4, 0) FAR  w(0) 43363
This proof contains 0 Farkas lemmas. 0 Farkas lemmas participate in the lowest cut
. F 0.00
expand: MAIN (5, 0) FAR  w(0) 43494
This proof contains 5 Farkas lemmas. 0 Farkas lemmas participate in the lowest cut
. F 0.00
expand: MAIN (6, 0) FAR  w(0) 43173.
	create_child: MAIN (5, 15) FAR 43874 U 0.00
expand: MAIN (5, 0) FAR  w(0) 43874
This proof contains 4 Farkas lemmas. 0 Farkas lemmas participate in the lowest cut
. F 0.00
expand: MAIN (6, 0) FAR  w(0) 43173
This proof contains 7 Farkas lemmas. 0 Farkas lemmas participate in the lowest cut
. F 0.01
expand: MAIN (7, 0) FAR  w(0) 43472.
	create_child: MAIN (6, 15) FAR 44575 U 0.00
expand: MAIN (6, 0) FAR  w(0) 44575
This proof contains 4 Farkas lemmas. 0 Farkas lemmas participate in the lowest cut
. F 0.01
expand: MAIN (7, 0) FAR  w(0) 43472.
	create_child: MAIN (6, 15) FAR 37974 U 0.00
expand: MAIN (6, 0) FAR  w(0) 37974.
	create_child: MAIN (5, 15) FAR 45007 U 0.00
expand: MAIN (5, 0) FAR  w(0) 45007.
	create_child: MAIN (4, 15) FAR 37966 U 0.00
expand: MAIN (4, 0) FAR  w(0) 37966.
	create_child: MAIN (3, 15) FAR 45165 U 0.00
expand: MAIN (3, 0) FAR  w(0) 45165.
	create_child: MAIN (2, 15) FAR 45145 U 0.00
expand: MAIN (2, 0) FAR  w(0) 45145
This proof contains 3 Farkas lemmas. 0 Farkas lemmas participate in the lowest cut
. F 0.00
expand: MAIN (3, 0) FAR  w(0) 45165
This proof contains 4 Farkas lemmas. 0 Farkas lemmas participate in the lowest cut
. F 0.00
expand: MAIN (4, 0) FAR  w(0) 37966
This proof contains 2 Farkas lemmas. 0 Farkas lemmas participate in the lowest cut
. F 0.00
expand: MAIN (5, 0) FAR  w(0) 45007.
	create_child: MAIN (4, 15) FAR 38681 U 0.00
expand: MAIN (4, 0) FAR  w(0) 38681.
	create_child: MAIN (3, 15) FAR 45261 U 0.00
expand: MAIN (3, 0) FAR  w(0) 45261.
	create_child: MAIN (2, 15) FAR 45497 U 0.00
expand: MAIN (2, 0) FAR  w(0) 45497
This proof contains 5 Farkas lemmas. 0 Farkas lemmas participate in the lowest cut
. F 0.00
expand: MAIN (3, 0) FAR  w(0) 45261
This proof contains 4 Farkas lemmas. 0 Farkas lemmas participate in the lowest cut
. F 0.00
expand: MAIN (4, 0) FAR  w(0) 38681
This proof contains 4 Farkas lemmas. 0 Farkas lemmas participate in the lowest cut
. F 0.00
expand: MAIN (5, 0) FAR  w(0) 45007
This proof contains 2 Farkas lemmas. 0 Farkas lemmas participate in the lowest cut
. F 0.00
expand: MAIN (6, 0) FAR  w(0) 37974.
	create_child: MAIN (5, 15) FAR 39157 U 0.00
expand: MAIN (5, 0) FAR  w(0) 39157.
	create_child: MAIN (4, 15) FAR 45235 U 0.00
expand: MAIN (4, 0) FAR  w(0) 45235.
	create_child: MAIN (3, 15) FAR 44952 U 0.00
expand: MAIN (3, 0) FAR  w(0) 44952.
	create_child: MAIN (2, 15) FAR 45626 U 0.00
expand: MAIN (2, 0) FAR  w(0) 45626
This proof contains 4 Farkas lemmas. 0 Farkas lemmas participate in the lowest cut
. F 0.00
expand: MAIN (3, 0) FAR  w(0) 44952
This proof contains 6 Farkas lemmas. 0 Farkas lemmas participate in the lowest cut
. F 0.00
expand: MAIN (4, 0) FAR  w(0) 45235
This proof contains 4 Farkas lemmas. 0 Farkas lemmas participate in the lowest cut
. F 0.00
expand: MAIN (5, 0) FAR  w(0) 39157
This proof contains 4 Farkas lemmas. 0 Farkas lemmas participate in the lowest cut
. F 0.00
expand: MAIN (6, 0) FAR  w(0) 37974
This proof contains 2 Farkas lemmas. 0 Farkas lemmas participate in the lowest cut
. F 0.00
expand: MAIN (7, 0) FAR  w(0) 43472.
	create_child: MAIN (6, 15) FAR 39622 U 0.00
expand: MAIN (6, 0) FAR  w(0) 39622.
	create_child: MAIN (5, 15) FAR 45536 U 0.00
expand: MAIN (5, 0) FAR  w(0) 45536.
	create_child: MAIN (4, 15) FAR 45570 U 0.00
expand: MAIN (4, 0) FAR  w(0) 45570
This proof contains 3 Farkas lemmas. 0 Farkas lemmas participate in the lowest cut
. F 0.00
expand: MAIN (5, 0) FAR  w(0) 45536
This proof contains 3 Farkas lemmas. 0 Farkas lemmas participate in the lowest cut
. F 0.00
expand: MAIN (6, 0) FAR  w(0) 39622
This proof contains 3 Farkas lemmas. 0 Farkas lemmas participate in the lowest cut
. F 0.00
expand: MAIN (7, 0) FAR  w(0) 43472
This proof contains 2 Farkas lemmas. 0 Farkas lemmas participate in the lowest cut
. F 0.00
expand: MAIN (8, 0) FAR  w(0) 43317.
	create_child: MAIN (7, 15) FAR 40036 U 0.00
expand: MAIN (7, 0) FAR  w(0) 40036.
	create_child: MAIN (6, 15) FAR 45714 U 0.00
expand: MAIN (6, 0) FAR  w(0) 45714.
	create_child: MAIN (5, 15) FAR 45907 U 0.00
expand: MAIN (5, 0) FAR  w(0) 45907.
	create_child: MAIN (4, 15) FAR 45852 U 0.00
expand: MAIN (4, 0) FAR  w(0) 45852
This proof contains 3 Farkas lemmas. 0 Farkas lemmas participate in the lowest cut
. F 0.00
expand: MAIN (5, 0) FAR  w(0) 45907
This proof contains 4 Farkas lemmas. 0 Farkas lemmas participate in the lowest cut
. F 0.00
expand: MAIN (6, 0) FAR  w(0) 45714
This proof contains 2 Farkas lemmas. 0 Farkas lemmas participate in the lowest cut
. F 0.00
expand: MAIN (7, 0) FAR  w(0) 40036
This proof contains 3 Farkas lemmas. 0 Farkas lemmas participate in the lowest cut
. F 0.00
expand: MAIN (8, 0) FAR  w(0) 43317
This proof contains 2 Farkas lemmas. 0 Farkas lemmas participate in the lowest cut
. F 0.00
expand: MAIN (9, 0) FAR  w(0) 43378.
	create_child: MAIN (8, 15) FAR 45654 U 0.00
expand: MAIN (8, 0) FAR  w(0) 45654.
	create_child: MAIN (7, 15) FAR 45778 U 0.00
expand: MAIN (7, 0) FAR  w(0) 45778.
	create_child: MAIN (6, 15) FAR 46099 U 0.00
expand: MAIN (6, 0) FAR  w(0) 46099.
	create_child: MAIN (5, 15) FAR 46276 U 0.00
expand: MAIN (5, 0) FAR  w(0) 46276.
	create_child: MAIN (4, 15) FAR 46175 U 0.00
expand: MAIN (4, 0) FAR  w(0) 46175
This proof contains 3 Farkas lemmas. 0 Farkas lemmas participate in the lowest cut
. F 0.00
expand: MAIN (5, 0) FAR  w(0) 46276
This proof contains 3 Farkas lemmas. 0 Farkas lemmas participate in the lowest cut
. F 0.00
expand: MAIN (6, 0) FAR  w(0) 46099
This proof contains 2 Farkas lemmas. 0 Farkas lemmas participate in the lowest cut
. F 0.00
expand: MAIN (7, 0) FAR  w(0) 45778
This proof contains 2 Farkas lemmas. 0 Farkas lemmas participate in the lowest cut
. F 0.00
expand: MAIN (8, 0) FAR  w(0) 45654
This proof contains 3 Farkas lemmas. 0 Farkas lemmas participate in the lowest cut
. F 0.00
expand: MAIN (9, 0) FAR  w(0) 43378
This proof contains 2 Farkas lemmas. 0 Farkas lemmas participate in the lowest cut
. F 0.00
expand: MAIN (10, 0) FAR  w(0) 43212.
	create_child: MAIN (9, 15) FAR 46374 U 0.00
expand: MAIN (9, 0) FAR  w(0) 46374.
	create_child: MAIN (8, 15) FAR 46416 U 0.00
expand: MAIN (8, 0) FAR  w(0) 46416.
	create_child: MAIN (7, 15) FAR 46073 U 0.00
expand: MAIN (7, 0) FAR  w(0) 46073.
	create_child: MAIN (6, 15) FAR 46013 U 0.00
expand: MAIN (6, 0) FAR  w(0) 46013.
	create_child: MAIN (5, 15) FAR 45409 U 0.00
expand: MAIN (5, 0) FAR  w(0) 45409.
	create_child: MAIN (4, 15) FAR 46581 U 0.00
expand: MAIN (4, 0) FAR  w(0) 46581.
	create_child: MAIN (3, 15) FAR 46756 U 0.00
expand: MAIN (3, 0) FAR  w(0) 46756
This proof contains 5 Farkas lemmas. 0 Farkas lemmas participate in the lowest cut
. F 0.00
expand: MAIN (4, 0) FAR  w(0) 46581
This proof contains 5 Farkas lemmas. 0 Farkas lemmas participate in the lowest cut
. F 0.00
expand: MAIN (5, 0) FAR  w(0) 45409.
	create_child: MAIN (4, 15) FAR 46882 U 0.00
expand: MAIN (4, 0) FAR  w(0) 46882.
	create_child: MAIN (3, 15) FAR 46531 U 0.00
expand: MAIN (3, 0) FAR  w(0) 46531.
	create_child: MAIN (2, 15) FAR 47020 U 0.00
expand: MAIN (2, 0) FAR  w(0) 47020
This proof contains 3 Farkas lemmas. 0 Farkas lemmas participate in the lowest cut
. F 0.00
expand: MAIN (3, 0) FAR  w(0) 46531
This proof contains 4 Farkas lemmas. 0 Farkas lemmas participate in the lowest cut
. F 0.00
expand: MAIN (4, 0) FAR  w(0) 46882
This proof contains 4 Farkas lemmas. 0 Farkas lemmas participate in the lowest cut
. F 0.00
expand: MAIN (5, 0) FAR  w(0) 45409
This proof contains 2 Farkas lemmas. 0 Farkas lemmas participate in the lowest cut
. F 0.00
expand: MAIN (6, 0) FAR  w(0) 46013
This proof contains 2 Farkas lemmas. 0 Farkas lemmas participate in the lowest cut
. F 0.00
expand: MAIN (7, 0) FAR  w(0) 46073
This proof contains 3 Farkas lemmas. 0 Farkas lemmas participate in the lowest cut
. F 0.00
expand: MAIN (8, 0) FAR  w(0) 46416
This proof contains 3 Farkas lemmas. 0 Farkas lemmas participate in the lowest cut
. F 0.00
expand: MAIN (9, 0) FAR  w(0) 46374
This proof contains 3 Farkas lemmas. 0 Farkas lemmas participate in the lowest cut
. F 0.00
expand: MAIN (10, 0) FAR  w(0) 43212
This proof contains 3 Farkas lemmas. 0 Farkas lemmas participate in the lowest cut
. F 0.00
expand: MAIN (11, 0) FAR  w(0) 43228
This proof contains 3 Farkas lemmas. 0 Farkas lemmas participate in the lowest cut
. F 0.00
expand: MAIN (12, 0) FAR  w(0) 43297
This proof contains 2 Farkas lemmas. 0 Farkas lemmas participate in the lowest cut
. F 0.00
expand: MAIN (13, 0) FAR  w(0) 43180
This proof contains 3 Farkas lemmas. 0 Farkas lemmas participate in the lowest cut
. F 0.00
expand: MAIN (14, 0) FAR  w(0) 3353
This proof contains 1 Farkas lemmas. 0 Farkas lemmas participate in the lowest cut
. F 0.00
expand: query!0 (15, 0) FAR  w(0) 1
This proof contains 0 Farkas lemmas. 0 Farkas lemmas participate in the lowest cut
. F 0.01
(spacer::context::check_reachability :time 0.23 :before-memory 11.58 :after-memory 13.55)
Propagating: 2 3 4 5 6 7 8 9 10 11 12 13 14 15  ! 16 
(spacer::context::propagate :time 0.15 :before-memory 13.55 :after-memory 13.96)
Entering level 16
BRUNCH_STAT max_query_lvl 15
BRUNCH_STAT num_queries 220
BRUNCH_STAT num_reach_queries 0
BRUNCH_STAT num_reach_reuse 0
BRUNCH_STAT inductive_lvl 0
BRUNCH_STAT max_depth 16
BRUNCH_STAT cex_depth 0
expand: query!0 (16, 0) FAR  w(0) 1.
	create_child: MAIN (15, 16) FAR 3353 U 0.00
expand: MAIN (15, 0) FAR  w(0) 3353.
	create_child: MAIN (14, 16) FAR 54722 U 0.00
expand: MAIN (14, 0) FAR  w(0) 54722.
	create_child: MAIN (13, 16) FAR 54791 U 0.00
expand: MAIN (13, 0) FAR  w(0) 54791.
	create_child: MAIN (12, 16) FAR 54816 U 0.00
expand: MAIN (12, 0) FAR  w(0) 54816.
	create_child: MAIN (11, 16) FAR 54826 U 0.00
expand: MAIN (11, 0) FAR  w(0) 54826.
	create_child: MAIN (10, 16) FAR 54932 U 0.00
expand: MAIN (10, 0) FAR  w(0) 54932.
	create_child: MAIN (9, 16) FAR 54942 U 0.00
expand: MAIN (9, 0) FAR  w(0) 54942.
	create_child: MAIN (8, 16) FAR 54986 U 0.00
expand: MAIN (8, 0) FAR  w(0) 54986.
	create_child: MAIN (7, 16) FAR 55120 U 0.00
expand: MAIN (7, 0) FAR  w(0) 55120.
	create_child: MAIN (6, 16) FAR 54750 U 0.00
expand: MAIN (6, 0) FAR  w(0) 54750.
	create_child: MAIN (5, 16) FAR 55330 U 0.00
expand: MAIN (5, 0) FAR  w(0) 55330.
	create_child: MAIN (4, 16) FAR 54775 U 0.00
expand: MAIN (4, 0) FAR  w(0) 54775.
	create_child: MAIN (3, 16) FAR 55222 U 0.00
expand: MAIN (3, 0) FAR  w(0) 55222.
	create_child: MAIN (2, 16) FAR 55175 U 0.00
expand: MAIN (2, 0) FAR  w(0) 55175.
	create_child: MAIN (1, 16) FAR 55566 U 0.00
expand: MAIN (1, 0) FAR  w(0) 55566
This proof contains 4 Farkas lemmas. 0 Farkas lemmas participate in the lowest cut
. F 0.00
expand: MAIN (2, 0) FAR  w(0) 55175
This proof contains 3 Farkas lemmas. 0 Farkas lemmas participate in the lowest cut
. F 0.00
expand: MAIN (3, 0) FAR  w(0) 55222
This proof contains 4 Farkas lemmas. 0 Farkas lemmas participate in the lowest cut
. F 0.00
expand: MAIN (4, 0) FAR  w(0) 54775
This proof contains 4 Farkas lemmas. 0 Farkas lemmas participate in the lowest cut
. F 0.00
expand: MAIN (5, 0) FAR  w(0) 55330
This proof contains 5 Farkas lemmas. 0 Farkas lemmas participate in the lowest cut
. F 0.00
expand: MAIN (6, 0) FAR  w(0) 54750.
	create_child: MAIN (5, 16) FAR 55197 U 0.00
expand: MAIN (5, 0) FAR  w(0) 55197.
	create_child: MAIN (4, 16) FAR 55421 U 0.00
expand: MAIN (4, 0) FAR  w(0) 55421.
	create_child: MAIN (3, 16) FAR 55645 U 0.00
expand: MAIN (3, 0) FAR  w(0) 55645.
	create_child: MAIN (2, 16) FAR 55131 U 0.00
expand: MAIN (2, 0) FAR  w(0) 55131
This proof contains 2 Farkas lemmas. 0 Farkas lemmas participate in the lowest cut
. F 0.00
expand: MAIN (3, 0) FAR  w(0) 55645
This proof contains 2 Farkas lemmas. 0 Farkas lemmas participate in the lowest cut
. F 0.00
expand: MAIN (4, 0) FAR  w(0) 55421
This proof contains 3 Farkas lemmas. 0 Farkas lemmas participate in the lowest cut
. F 0.00
expand: MAIN (5, 0) FAR  w(0) 55197
This proof contains 4 Farkas lemmas. 0 Farkas lemmas participate in the lowest cut
. F 0.00
expand: MAIN (6, 0) FAR  w(0) 54750
This proof contains 4 Farkas lemmas. 0 Farkas lemmas participate in the lowest cut
. F 0.00
expand: MAIN (7, 0) FAR  w(0) 55120.
	create_child: MAIN (6, 16) FAR 55324 U 0.00
expand: MAIN (6, 0) FAR  w(0) 55324.
	create_child: MAIN (5, 16) FAR 55695 U 0.00
expand: MAIN (5, 0) FAR  w(0) 55695.
	create_child: MAIN (4, 16) FAR 55646 U 0.00
expand: MAIN (4, 0) FAR  w(0) 55646.
	create_child: MAIN (3, 16) FAR 56014 U 0.00
expand: MAIN (3, 0) FAR  w(0) 56014.
	create_child: MAIN (2, 16) FAR 55894 U 0.00
expand: MAIN (2, 0) FAR  w(0) 55894
This proof contains 4 Farkas lemmas. 0 Farkas lemmas participate in the lowest cut
. F 0.00
expand: MAIN (3, 0) FAR  w(0) 56014
This proof contains 5 Farkas lemmas. 0 Farkas lemmas participate in the lowest cut
. F 0.00
expand: MAIN (4, 0) FAR  w(0) 55646
This proof contains 4 Farkas lemmas. 0 Farkas lemmas participate in the lowest cut
. F 0.00
expand: MAIN (5, 0) FAR  w(0) 55695
This proof contains 3 Farkas lemmas. 0 Farkas lemmas participate in the lowest cut
. F 0.00
expand: MAIN (6, 0) FAR  w(0) 55324
This proof contains 2 Farkas lemmas. 0 Farkas lemmas participate in the lowest cut
. F 0.00
expand: MAIN (7, 0) FAR  w(0) 55120
This proof contains 5 Farkas lemmas. 0 Farkas lemmas participate in the lowest cut
. F 0.00
expand: MAIN (8, 0) FAR  w(0) 54986.
	create_child: MAIN (7, 16) FAR 56303 U 0.00
expand: MAIN (7, 0) FAR  w(0) 56303
This proof contains 3 Farkas lemmas. 0 Farkas lemmas participate in the lowest cut
. F 0.00
expand: MAIN (8, 0) FAR  w(0) 54986
This proof contains 5 Farkas lemmas. 0 Farkas lemmas participate in the lowest cut
. F 0.00
expand: MAIN (9, 0) FAR  w(0) 54942.
	create_child: MAIN (8, 16) FAR 56604 U 0.00
expand: MAIN (8, 0) FAR  w(0) 56604.
	create_child: MAIN (7, 16) FAR 56731 U 0.00
expand: MAIN (7, 0) FAR  w(0) 56731
This proof contains 2 Farkas lemmas. 0 Farkas lemmas participate in the lowest cut
. F 0.00
expand: MAIN (8, 0) FAR  w(0) 56604
This proof contains 3 Farkas lemmas. 0 Farkas lemmas participate in the lowest cut
. F 0.00
expand: MAIN (9, 0) FAR  w(0) 54942
This proof contains 3 Farkas lemmas. 0 Farkas lemmas participate in the lowest cut
. F 0.00
expand: MAIN (10, 0) FAR  w(0) 54932
This proof contains 3 Farkas lemmas. 0 Farkas lemmas participate in the lowest cut
. F 0.00
expand: MAIN (11, 0) FAR  w(0) 54826
This proof contains 3 Farkas lemmas. 0 Farkas lemmas participate in the lowest cut
. F 0.00
expand: MAIN (12, 0) FAR  w(0) 54816
This proof contains 3 Farkas lemmas. 0 Farkas lemmas participate in the lowest cut
. F 0.00
expand: MAIN (13, 0) FAR  w(0) 54791
This proof contains 2 Farkas lemmas. 0 Farkas lemmas participate in the lowest cut
. F 0.00
expand: MAIN (14, 0) FAR  w(0) 54722
This proof contains 3 Farkas lemmas. 0 Farkas lemmas participate in the lowest cut
. F 0.00
expand: MAIN (15, 0) FAR  w(0) 3353
This proof contains 1 Farkas lemmas. 0 Farkas lemmas participate in the lowest cut
. F 0.00
expand: query!0 (16, 0) FAR  w(0) 1
This proof contains 0 Farkas lemmas. 0 Farkas lemmas participate in the lowest cut
. F 0.00
(spacer::context::check_reachability :time 0.13 :before-memory 13.96 :after-memory 14.36)
Propagating: 1 2 3 4 5 6 7 8 9 10 11 12 13 14 15 16  ! 17 
(spacer::context::propagate :time 0.14 :before-memory 14.36 :after-memory 14.57)
Entering level 17
BRUNCH_STAT max_query_lvl 16
BRUNCH_STAT num_queries 247
BRUNCH_STAT num_reach_queries 0
BRUNCH_STAT num_reach_reuse 0
BRUNCH_STAT inductive_lvl 0
BRUNCH_STAT max_depth 17
BRUNCH_STAT cex_depth 0
expand: query!0 (17, 0) FAR  w(0) 1.
	create_child: MAIN (16, 17) FAR 3353 U 0.00
expand: MAIN (16, 0) FAR  w(0) 3353.
	create_child: MAIN (15, 17) FAR 60412 U 0.00
expand: MAIN (15, 0) FAR  w(0) 60412.
	create_child: MAIN (14, 17) FAR 60509 U 0.00
expand: MAIN (14, 0) FAR  w(0) 60509.
	create_child: MAIN (13, 17) FAR 60459 U 0.00
expand: MAIN (13, 0) FAR  w(0) 60459.
	create_child: MAIN (12, 17) FAR 60465 U 0.00
expand: MAIN (12, 0) FAR  w(0) 60465.
	create_child: MAIN (11, 17) FAR 60518 U 0.00
expand: MAIN (11, 0) FAR  w(0) 60518.
	create_child: MAIN (10, 17) FAR 60496 U 0.00
expand: MAIN (10, 0) FAR  w(0) 60496.
	create_child: MAIN (9, 17) FAR 60391 U 0.00
expand: MAIN (9, 0) FAR  w(0) 60391.
	create_child: MAIN (8, 17) FAR 60565 U 0.00
expand: MAIN (8, 0) FAR  w(0) 60565.
	create_child: MAIN (7, 17) FAR 60468 U 0.00
expand: MAIN (7, 0) FAR  w(0) 60468.
	create_child: MAIN (6, 17) FAR 60689 U 0.00
expand: MAIN (6, 0) FAR  w(0) 60689.
	create_child: MAIN (5, 17) FAR 60587 U 0.00
expand: MAIN (5, 0) FAR  w(0) 60587.
	create_child: MAIN (4, 17) FAR 60787 U 0.00
expand: MAIN (4, 0) FAR  w(0) 60787.
	create_child: MAIN (3, 17) FAR 60808 U 0.00
expand: MAIN (3, 0) FAR  w(0) 60808.
	create_child: MAIN (2, 17) FAR 60654 U 0.00
expand: MAIN (2, 0) FAR  w(0) 60654.
	create_child: MAIN (1, 17) FAR 60560 U 0.00
expand: MAIN (1, 0) FAR  w(0) 60560
This proof contains 4 Farkas lemmas. 0 Farkas lemmas participate in the lowest cut
. F 0.00
expand: MAIN (2, 0) FAR  w(0) 60654
This proof contains 4 Farkas lemmas. 0 Farkas lemmas participate in the lowest cut
. F 0.00
expand: MAIN (3, 0) FAR  w(0) 60808
This proof contains 5 Farkas lemmas. 0 Farkas lemmas participate in the lowest cut
. F 0.00
expand: MAIN (4, 0) FAR  w(0) 60787
This proof contains 4 Farkas lemmas. 0 Farkas lemmas participate in the lowest cut
. F 0.00
expand: MAIN (5, 0) FAR  w(0) 60587
This proof contains 3 Farkas lemmas. 0 Farkas lemmas participate in the lowest cut
. F 0.00
expand: MAIN (6, 0) FAR  w(0) 60689
This proof contains 3 Farkas lemmas. 0 Farkas lemmas participate in the lowest cut
. F 0.00
expand: MAIN (7, 0) FAR  w(0) 60468
This proof contains 2 Farkas lemmas. 0 Farkas lemmas participate in the lowest cut
. F 0.00
expand: MAIN (8, 0) FAR  w(0) 60565
This proof contains 2 Farkas lemmas. 0 Farkas lemmas participate in the lowest cut
. F 0.00
expand: MAIN (9, 0) FAR  w(0) 60391
This proof contains 3 Farkas lemmas. 0 Farkas lemmas participate in the lowest cut
. F 0.00
expand: MAIN (10, 0) FAR  w(0) 60496
This proof contains 3 Farkas lemmas. 0 Farkas lemmas participate in the lowest cut
. F 0.00
expand: MAIN (11, 0) FAR  w(0) 60518
This proof contains 3 Farkas lemmas. 0 Farkas lemmas participate in the lowest cut
. F 0.00
expand: MAIN (12, 0) FAR  w(0) 60465
This proof contains 3 Farkas lemmas. 0 Farkas lemmas participate in the lowest cut
. F 0.00
expand: MAIN (13, 0) FAR  w(0) 60459
This proof contains 3 Farkas lemmas. 0 Farkas lemmas participate in the lowest cut
. F 0.00
expand: MAIN (14, 0) FAR  w(0) 60509
This proof contains 2 Farkas lemmas. 0 Farkas lemmas participate in the lowest cut
. F 0.00
expand: MAIN (15, 0) FAR  w(0) 60412
This proof contains 3 Farkas lemmas. 0 Farkas lemmas participate in the lowest cut
. F 0.00
expand: MAIN (16, 0) FAR  w(0) 3353
This proof contains 1 Farkas lemmas. 0 Farkas lemmas participate in the lowest cut
. F 0.00
expand: query!0 (17, 0) FAR  w(0) 1
This proof contains 0 Farkas lemmas. 0 Farkas lemmas participate in the lowest cut
. F 0.00
(spacer::context::check_reachability :time 0.06 :before-memory 14.57 :after-memory 14.86)
Propagating: 1 2 3 4 5 6 7 8 9 10 11 12 13 14 15 16 17  ! 18 
(spacer::context::propagate :time 0.14 :before-memory 14.86 :after-memory 15.34)
Entering level 18
BRUNCH_STAT max_query_lvl 17
BRUNCH_STAT num_queries 263
BRUNCH_STAT num_reach_queries 0
BRUNCH_STAT num_reach_reuse 0
BRUNCH_STAT inductive_lvl 0
BRUNCH_STAT max_depth 18
BRUNCH_STAT cex_depth 0
expand: query!0 (18, 0) FAR  w(0) 1.
	create_child: MAIN (17, 18) FAR 3353 U 0.00
expand: MAIN (17, 0) FAR  w(0) 3353.
	create_child: MAIN (16, 18) FAR 64084 U 0.00
expand: MAIN (16, 0) FAR  w(0) 64084.
	create_child: MAIN (15, 18) FAR 60509 U 0.00
expand: MAIN (15, 0) FAR  w(0) 60509.
	create_child: MAIN (14, 18) FAR 64176 U 0.00
expand: MAIN (14, 0) FAR  w(0) 64176.
	create_child: MAIN (13, 18) FAR 64057 U 0.00
expand: MAIN (13, 0) FAR  w(0) 64057.
	create_child: MAIN (12, 18) FAR 60518 U 0.00
expand: MAIN (12, 0) FAR  w(0) 60518.
	create_child: MAIN (11, 18) FAR 60496 U 0.00
expand: MAIN (11, 0) FAR  w(0) 60496.
	create_child: MAIN (10, 18) FAR 60391 U 0.00
expand: MAIN (10, 0) FAR  w(0) 60391.
	create_child: MAIN (9, 18) FAR 64203 U 0.00
expand: MAIN (9, 0) FAR  w(0) 64203.
	create_child: MAIN (8, 18) FAR 60468 U 0.00
expand: MAIN (8, 0) FAR  w(0) 60468.
	create_child: MAIN (7, 18) FAR 60689 U 0.00
expand: MAIN (7, 0) FAR  w(0) 60689.
	create_child: MAIN (6, 18) FAR 60587 U 0.00
expand: MAIN (6, 0) FAR  w(0) 60587.
	create_child: MAIN (5, 18) FAR 64269 U 0.00
expand: MAIN (5, 0) FAR  w(0) 64269.
	create_child: MAIN (4, 18) FAR 64468 U 0.00
expand: MAIN (4, 0) FAR  w(0) 64468.
	create_child: MAIN (3, 18) FAR 64423 U 0.00
expand: MAIN (3, 0) FAR  w(0) 64423.
	create_child: MAIN (2, 18) FAR 64154 U 0.00
expand: MAIN (2, 0) FAR  w(0) 64154.
	create_child: MAIN (1, 18) FAR 64336 U 0.00
expand: MAIN (1, 0) FAR  w(0) 64336. T 0.00
is-reachable: MAIN (2, 0) FAR 64154 T 0.01
is-reachable: MAIN (3, 0) FAR 64423 T 0.00
is-reachable: MAIN (4, 0) FAR 64468 T 0.00
is-reachable: MAIN (5, 0) FAR 64269 T 0.00
is-reachable: MAIN (6, 0) FAR 60587 T 0.01
is-reachable: MAIN (7, 0) FAR 60689 T 0.01
is-reachable: MAIN (8, 0) FAR 60468 T 0.01
is-reachable: MAIN (9, 0) FAR 64203 T 0.01
is-reachable: MAIN (10, 0) FAR 60391 T 0.01
is-reachable: MAIN (11, 0) FAR 60496 T 0.01
is-reachable: MAIN (12, 0) FAR 60518 T 0.01
is-reachable: MAIN (13, 0) FAR 64057 T 0.01
is-reachable: MAIN (14, 0) FAR 64176 T 0.01
is-reachable: MAIN (15, 0) FAR 60509 T 0.01
is-reachable: MAIN (16, 0) FAR 64084 T 0.01
is-reachable: MAIN (17, 0) FAR 3353 T 0.01
is-reachable: query!0 (18, 0) FAR 1 T 0.01
(spacer::context::check_reachability :time 0.14 :before-memory 15.34 :after-memory 17.19)
BRUNCH_STAT max_query_lvl 18
BRUNCH_STAT num_queries 280
BRUNCH_STAT num_reach_queries 18
BRUNCH_STAT num_reach_reuse 1
BRUNCH_STAT inductive_lvl 0
BRUNCH_STAT max_depth 18
BRUNCH_STAT cex_depth 18
(:SPACER-cex-depth                     18
 :SPACER-max-depth                     18
 :SPACER-max-query-lvl                 18
 :SPACER-num-invariants                20
 :SPACER-num-lemmas                    281
 :SPACER-num-properties                133
 :SPACER-num-queries                   280
 :SPACER-num-reach-queries             18
 :SPACER-num-reuse-reach-facts         1
 :added-eqs                            31647
 :arith-add-rows                       8288
 :arith-assert-diseq                   14298
 :arith-assert-lower                   138250
 :arith-assert-upper                   80125
 :arith-bound-prop                     2563
 :arith-conflicts                      120
 :arith-eq-adapter                     6501
 :arith-fixed-eqs                      6572
 :arith-offset-eqs                     3576
 :arith-pivots                         1585
 :bool-inductive-gen                   263
 :bool-inductive-gen-failures          326
 :conflicts                            1411
 :decisions                            282570
 :del-clause                           1036
 :final-checks                         1197
 :minimized-lits                       78
 :mk-bool-var                          11510
 :mk-clause                            10530
 :num-checks                           2473
 :propagations                         857109
 :time.itp_solver.itp_core             0.11
 :time.spacer.init_rules               0.00
 :time.spacer.init_rules.pt.init       0.00
 :time.spacer.solve                    2.05
 :time.spacer.solve.propagate          0.85
 :time.spacer.solve.reach              1.20
 :time.spacer.solve.reach.children     0.29
 :time.spacer.solve.reach.gen.bool_ind 0.21
 :time.spacer.solve.reach.is-reach     0.09
 :time.virtual_solver.proof            0.05
 :time.virtual_solver.smt.total        1.55
 :time.virtual_solver.smt.total.sat    1.24
 :virtual_solver.checks                2473
 :virtual_solver.checks.sat            1197)
BRUNCH_STAT max_query_lvl 18
BRUNCH_STAT num_queries 280
BRUNCH_STAT num_reach_queries 18
BRUNCH_STAT num_reach_reuse 1
BRUNCH_STAT inductive_lvl 0
BRUNCH_STAT max_depth 18
BRUNCH_STAT cex_depth 18

real	0m2.136s
user	0m2.104s
sys	0m0.028s
