(transform N7datalog13mk_coi_filterE...no-op 0s)
(transform N7datalog25mk_interp_tail_simplifierE...7 rules 0.00180625s)
(transform N7datalog27mk_quantifier_instantiationE...no-op 0s)
(transform N7datalog8mk_scaleE...no-op 0s)
(transform N7datalog18mk_karr_invariantsE...no-op 0s)
(transform N7datalog14mk_array_blastE...no-op 0s)
(transform N7datalog22mk_subsumption_checkerE...6 rules 0s)
(transform N7datalog12mk_bit_blastE...no-op 0s)
(transform N7datalog15mk_rule_inlinerE...3 rules 0.0125645s)
(transform N7datalog13mk_coi_filterE...no-op 0s)
(transform N7datalog25mk_interp_tail_simplifierE...3 rules 0s)
(transform N7datalog22mk_subsumption_checkerE...no-op 0s)
(transform N7datalog15mk_rule_inlinerE...no-op 0s)
(transform N7datalog13mk_coi_filterE...no-op 0s)
(transform N7datalog25mk_interp_tail_simplifierE...3 rules 0s)
(transform N7datalog22mk_subsumption_checkerE...no-op 0s)
(transform N7datalog15mk_rule_inlinerE...no-op 0s)
(transform N7datalog22mk_subsumption_checkerE...no-op 0s)
(transform N7datalog15mk_rule_inlinerE...no-op 0s)
(transform N7datalog22mk_subsumption_checkerE...no-op 0s)
(transform N7datalog15mk_rule_inlinerE...no-op 0s)
(transform N7datalog22mk_subsumption_checkerE...no-op 0s)
(transform N7datalog8mk_sliceE...no-op 0s)
expand: query!0 (0, 0) FAR  w(0) 1
This proof contains 0 Farkas lemmas. 0 Farkas lemmas participate in the lowest cut
. F 0.00
(spacer::context::check_reachability :time 0.00 :before-memory 5.39 :after-memory 6.61)
Entering level 1
BRUNCH_STAT max_query_lvl 0
BRUNCH_STAT num_queries 0
BRUNCH_STAT num_reach_queries 0
BRUNCH_STAT num_reach_reuse 0
BRUNCH_STAT inductive_lvl 0
BRUNCH_STAT max_depth 1
BRUNCH_STAT cex_depth 0
expand: query!0 (1, 0) FAR  w(0) 1.
	create_child: MAIN (0, 1) FAR 12573 U 0.00
expand: MAIN (0, 0) FAR  w(0) 12573
This proof contains 0 Farkas lemmas. 0 Farkas lemmas participate in the lowest cut
. F 0.01
expand: query!0 (1, 0) FAR  w(0) 1
This proof contains 0 Farkas lemmas. 0 Farkas lemmas participate in the lowest cut
. F 0.00
(spacer::context::check_reachability :time 0.01 :before-memory 6.61 :after-memory 8.60)
Propagating: 0 1  ! 2 
(spacer::context::propagate :time 0.08 :before-memory 8.60 :after-memory 9.47)
Entering level 2
BRUNCH_STAT max_query_lvl 1
BRUNCH_STAT num_queries 1
BRUNCH_STAT num_reach_queries 0
BRUNCH_STAT num_reach_reuse 0
BRUNCH_STAT inductive_lvl 0
BRUNCH_STAT max_depth 2
BRUNCH_STAT cex_depth 0
expand: query!0 (2, 0) FAR  w(0) 1.
	create_child: MAIN (1, 2) FAR 12573 U 0.00
expand: MAIN (1, 0) FAR  w(0) 12573.
	create_child: MAIN (0, 2) FAR 21553 UNDEF 0.01
expand: MAIN (0, 0) FAR  w(0) 21553
This proof contains 0 Farkas lemmas. 0 Farkas lemmas participate in the lowest cut
. F 0.00
expand: MAIN (1, 0) FAR  w(0) 12573.
	create_child: MAIN (0, 2) FAR 22331 UNDEF 0.01
expand: MAIN (0, 0) FAR  w(0) 22331
This proof contains 0 Farkas lemmas. 0 Farkas lemmas participate in the lowest cut
. F 0.01
expand: MAIN (1, 0) FAR  w(0) 12573.
	create_child: MAIN (0, 2) FAR 22961 UNDEF 0.01
expand: MAIN (0, 0) FAR  w(0) 22961
This proof contains 0 Farkas lemmas. 0 Farkas lemmas participate in the lowest cut
. F 0.00
expand: MAIN (1, 0) FAR  w(0) 12573.
	create_child: MAIN (0, 2) FAR 23473 UNDEF 0.01
expand: MAIN (0, 0) FAR  w(0) 23473
This proof contains 0 Farkas lemmas. 0 Farkas lemmas participate in the lowest cut
. F 0.00
expand: MAIN (1, 0) FAR  w(0) 12573.
	create_child: MAIN (0, 2) FAR 23529 UNDEF 0.01
expand: MAIN (0, 0) FAR  w(0) 23529
This proof contains 0 Farkas lemmas. 0 Farkas lemmas participate in the lowest cut
. F 0.00
expand: MAIN (1, 0) FAR  w(0) 12573.
	create_child: MAIN (0, 2) FAR 23655 UNDEF 0.01
expand: MAIN (0, 0) FAR  w(0) 23655
This proof contains 0 Farkas lemmas. 0 Farkas lemmas participate in the lowest cut
. F 0.00
expand: MAIN (1, 0) FAR  w(0) 12573.
	create_child: MAIN (0, 2) FAR 23749 UNDEF 0.01
expand: MAIN (0, 0) FAR  w(0) 23749
This proof contains 0 Farkas lemmas. 0 Farkas lemmas participate in the lowest cut
. F 0.00
expand: MAIN (1, 0) FAR  w(0) 12573.
	create_child: MAIN (0, 2) FAR 23854 UNDEF 0.01
expand: MAIN (0, 0) FAR  w(0) 23854
This proof contains 0 Farkas lemmas. 0 Farkas lemmas participate in the lowest cut
. F 0.00
expand: MAIN (1, 0) FAR  w(0) 12573.
	create_child: MAIN (0, 2) FAR 23948 UNDEF 0.01
expand: MAIN (0, 0) FAR  w(0) 23948
This proof contains 1 Farkas lemmas. 0 Farkas lemmas participate in the lowest cut
. F 0.00
expand: MAIN (1, 0) FAR  w(0) 12573.
	create_child: MAIN (0, 2) FAR 24130 UNDEF 0.01
expand: MAIN (0, 0) FAR  w(0) 24130
This proof contains 1 Farkas lemmas. 0 Farkas lemmas participate in the lowest cut
. F 0.00
expand: MAIN (1, 0) FAR  w(0) 12573.
	create_child: MAIN (0, 2) FAR 22911 UNDEF 0.01
expand: MAIN (0, 0) FAR  w(0) 22911
This proof contains 0 Farkas lemmas. 0 Farkas lemmas participate in the lowest cut
. F 0.00
expand: MAIN (1, 0) FAR  w(0) 12573.
	create_child: MAIN (0, 2) FAR 24694 UNDEF 0.01
expand: MAIN (0, 0) FAR  w(0) 24694
This proof contains 0 Farkas lemmas. 0 Farkas lemmas participate in the lowest cut
. F 0.00
expand: MAIN (1, 0) FAR  w(0) 12573.
	create_child: MAIN (0, 2) FAR 24552 UNDEF 0.01
expand: MAIN (0, 0) FAR  w(0) 24552
This proof contains 0 Farkas lemmas. 0 Farkas lemmas participate in the lowest cut
. F 0.00
expand: MAIN (1, 0) FAR  w(0) 12573.
	create_child: MAIN (0, 2) FAR 24968 UNDEF 0.01
expand: MAIN (0, 0) FAR  w(0) 24968
This proof contains 0 Farkas lemmas. 0 Farkas lemmas participate in the lowest cut
. F 0.00
expand: MAIN (1, 0) FAR  w(0) 12573.
	create_child: MAIN (0, 2) FAR 24917 UNDEF 0.01
expand: MAIN (0, 0) FAR  w(0) 24917
This proof contains 0 Farkas lemmas. 0 Farkas lemmas participate in the lowest cut
. F 0.00
expand: MAIN (1, 0) FAR  w(0) 12573.
	create_child: MAIN (0, 2) FAR 23755 UNDEF 0.01
expand: MAIN (0, 0) FAR  w(0) 23755
This proof contains 0 Farkas lemmas. 0 Farkas lemmas participate in the lowest cut
. F 0.00
expand: MAIN (1, 0) FAR  w(0) 12573
This proof contains 0 Farkas lemmas. 0 Farkas lemmas participate in the lowest cut
. F 0.00
expand: query!0 (2, 0) FAR  w(0) 1
This proof contains 0 Farkas lemmas. 0 Farkas lemmas participate in the lowest cut
. F 0.00
(spacer::context::check_reachability :time 0.16 :before-memory 9.47 :after-memory 10.60)
Propagating: 0 1 2  ! 3 
(spacer::context::propagate :time 0.09 :before-memory 10.60 :after-memory 11.38)
Entering level 3
BRUNCH_STAT max_query_lvl 2
BRUNCH_STAT num_queries 18
BRUNCH_STAT num_reach_queries 0
BRUNCH_STAT num_reach_reuse 0
BRUNCH_STAT inductive_lvl 0
BRUNCH_STAT max_depth 3
BRUNCH_STAT cex_depth 0
expand: query!0 (3, 0) FAR  w(0) 1.
	create_child: MAIN (2, 3) FAR 12573 U 0.00
expand: MAIN (2, 0) FAR  w(0) 12573.
	create_child: MAIN (1, 3) FAR 29626 UNDEF 0.01
expand: MAIN (1, 0) FAR  w(0) 29626
This proof contains 0 Farkas lemmas. 0 Farkas lemmas participate in the lowest cut
. F 0.02
expand: MAIN (2, 0) FAR  w(0) 12573.
	create_child: MAIN (1, 3) FAR 30423 UNDEF 0.01
expand: MAIN (1, 0) FAR  w(0) 30423
This proof contains 0 Farkas lemmas. 0 Farkas lemmas participate in the lowest cut
. F 0.04
expand: MAIN (2, 0) FAR  w(0) 12573.
	create_child: MAIN (1, 3) FAR 31439 UNDEF 0.01
expand: MAIN (1, 0) FAR  w(0) 31439
This proof contains 0 Farkas lemmas. 0 Farkas lemmas participate in the lowest cut
. F 0.02
expand: MAIN (2, 0) FAR  w(0) 12573.
	create_child: MAIN (1, 3) FAR 31915 UNDEF 0.01
expand: MAIN (1, 0) FAR  w(0) 31915
This proof contains 1 Farkas lemmas. 0 Farkas lemmas participate in the lowest cut
. F 0.01
expand: MAIN (2, 0) FAR  w(0) 12573.
	create_child: MAIN (1, 3) FAR 29466 UNDEF 0.01
expand: MAIN (1, 0) FAR  w(0) 29466
This proof contains 0 Farkas lemmas. 0 Farkas lemmas participate in the lowest cut
. F 0.02
expand: MAIN (2, 0) FAR  w(0) 12573.
	create_child: MAIN (1, 3) FAR 33447 UNDEF 0.01
expand: MAIN (1, 0) FAR  w(0) 33447
This proof contains 0 Farkas lemmas. 0 Farkas lemmas participate in the lowest cut
. F 0.04
expand: MAIN (2, 0) FAR  w(0) 12573.
	create_child: MAIN (1, 3) FAR 34567 UNDEF 0.02
expand: MAIN (1, 0) FAR  w(0) 34567
This proof contains 0 Farkas lemmas. 0 Farkas lemmas participate in the lowest cut
. F 0.03
expand: MAIN (2, 0) FAR  w(0) 12573.
	create_child: MAIN (1, 3) FAR 35176 UNDEF 0.02
expand: MAIN (1, 0) FAR  w(0) 35176
This proof contains 2 Farkas lemmas. 0 Farkas lemmas participate in the lowest cut
. F 0.02
expand: MAIN (2, 0) FAR  w(0) 12573.
	create_child: MAIN (1, 3) FAR 35761 UNDEF 0.03
expand: MAIN (1, 0) FAR  w(0) 35761
This proof contains 0 Farkas lemmas. 0 Farkas lemmas participate in the lowest cut
. F 0.02
expand: MAIN (2, 0) FAR  w(0) 12573.
	create_child: MAIN (1, 3) FAR 36390 UNDEF 0.01
expand: MAIN (1, 0) FAR  w(0) 36390
This proof contains 0 Farkas lemmas. 0 Farkas lemmas participate in the lowest cut
. F 0.02
expand: MAIN (2, 0) FAR  w(0) 12573.
	create_child: MAIN (1, 3) FAR 36599 UNDEF 0.01
expand: MAIN (1, 0) FAR  w(0) 36599
This proof contains 0 Farkas lemmas. 0 Farkas lemmas participate in the lowest cut
. F 0.03
expand: MAIN (2, 0) FAR  w(0) 12573.
	create_child: MAIN (1, 3) FAR 37478 UNDEF 0.01
expand: MAIN (1, 0) FAR  w(0) 37478
This proof contains 7 Farkas lemmas. 0 Farkas lemmas participate in the lowest cut
. F 0.03
expand: MAIN (2, 0) FAR  w(0) 12573.
	create_child: MAIN (1, 3) FAR 37805 UNDEF 0.01
expand: MAIN (1, 0) FAR  w(0) 37805
This proof contains 7 Farkas lemmas. 0 Farkas lemmas participate in the lowest cut
. F 0.06
expand: MAIN (2, 0) FAR  w(0) 12573
This proof contains 8 Farkas lemmas. 0 Farkas lemmas participate in the lowest cut
. F 0.00
expand: query!0 (3, 0) FAR  w(0) 1
This proof contains 0 Farkas lemmas. 0 Farkas lemmas participate in the lowest cut
. F 0.00
(spacer::context::check_reachability :time 0.53 :before-memory 11.38 :after-memory 12.90)
Propagating: 1 2 
(spacer::context::propagate :time 0.03 :before-memory 12.90 :after-memory 13.00)
(define-fun MAIN ((x!0 Int)
 (x!1 Bool)
 (x!2 Bool)
 (x!3 Int)
 (x!4 Bool)
 (x!5 Bool)
 (x!6 Bool)
 (x!7 Int)
 (x!8 Bool)
 (x!9 Bool)
 (x!10 Bool)
 (x!11 Bool)
 (x!12 Bool)
 (x!13 Bool)
 (x!14 Bool)
 (x!15 Bool)
 (x!16 Bool)
 (x!17 Bool)
 (x!18 Bool)
 (x!19 Bool)
 (x!20 Int)
 (x!21 Int)
 (x!22 Int)
 (x!23 Bool)
 (x!24 Int)
 (x!25 Int)
 (x!26 Bool)
 (x!27 Bool)
 (x!28 Int)
 (x!29 Int)
 (x!30 Bool)
 (x!31 Int)
 (x!32 Bool)
 (x!33 Bool)
 (x!34 Bool)
 (x!35 Int)
 (x!36 Int)
 (x!37 Bool)
 (x!38 Int)
 (x!39 Int)
 (x!40 Int)
 (x!41 Bool)
 (x!42 Int)
 (x!43 Bool)
 (x!44 Bool)) Bool
  (let ((a!1 (= (+ (* (- 1) x!0) (div (div x!28 1) 60)) 0))
        (a!2 (not (<= (+ x!20 (* 10 x!21) (* 60 x!22)) 0))))
    (and (or (not (<= x!3 1)) (not (<= x!31 3)))
         x!32
         x!44
         (not (<= x!31 0))
         (or (not x!23) x!12)
         a!1
         (not (>= x!42 640))
         (not (>= x!36 640))
         (not (>= x!24 640))
         (not (<= x!29 0))
         (not (>= x!31 5))
         (not (>= x!39 640))
         (not (>= x!35 640))
         (or x!14 (not x!27))
         (or (not x!2) x!18)
         (or (not x!14) x!27)
         (or (not (<= x!3 1)) (not (>= x!29 2)))
         (or (not x!12) x!23)
         (or x!6 (not x!8))
         (or (not x!1) x!19)
         (or (not x!13) x!26)
         (or (= x!31 2) (not (<= x!31 3)) (= x!29 3))
         (or a!2 (<= x!28 0)))))
BRUNCH_STAT max_query_lvl 3
BRUNCH_STAT num_queries 32
BRUNCH_STAT num_reach_queries 0
BRUNCH_STAT num_reach_reuse 0
BRUNCH_STAT inductive_lvl 2
BRUNCH_STAT max_depth 3
BRUNCH_STAT cex_depth 0
(:SPACER-expand-node-undef             29
 :SPACER-inductive-level               2
 :SPACER-max-depth                     3
 :SPACER-max-query-lvl                 3
 :SPACER-num-invariants                24
 :SPACER-num-lemmas                    36
 :SPACER-num-properties                31
 :SPACER-num-queries                   32
 :added-eqs                            52828
 :arith-add-rows                       24244
 :arith-assert-diseq                   16422
 :arith-assert-lower                   25480
 :arith-assert-upper                   24783
 :arith-bound-prop                     920
 :arith-conflicts                      88
 :arith-eq-adapter                     12128
 :arith-fixed-eqs                      5128
 :arith-gcd-tests                      1583
 :arith-gomory-cuts                    35
 :arith-ineq-splits                    49
 :arith-offset-eqs                     5487
 :arith-pivots                         3072
 :bool-inductive-gen                   32
 :bool-inductive-gen-failures          45
 :conflicts                            756
 :decisions                            48493
 :del-clause                           14150
 :final-checks                         397
 :interface-eqs                        200
 :minimized-lits                       805
 :mk-bool-var                          20056
 :mk-clause                            20353
 :num-checks                           225
 :propagations                         263464
 :time.itp_solver.itp_core             0.03
 :time.spacer.init_rules               0.00
 :time.spacer.init_rules.pt.init       0.00
 :time.spacer.solve                    0.91
 :time.spacer.solve.propagate          0.20
 :time.spacer.solve.reach              0.70
 :time.spacer.solve.reach.children     0.06
 :time.spacer.solve.reach.gen.bool_ind 0.32
 :time.virtual_solver.proof            0.02
 :time.virtual_solver.smt.total        0.81
 :time.virtual_solver.smt.total.sat    0.15
 :time.virtual_solver.smt.total.undef  0.51
 :virtual_solver.checks                225
 :virtual_solver.checks.sat            14
 :virtual_solver.checks.undef          71)
BRUNCH_STAT max_query_lvl 3
BRUNCH_STAT num_queries 32
BRUNCH_STAT num_reach_queries 0
BRUNCH_STAT num_reach_reuse 0
BRUNCH_STAT inductive_lvl 2
BRUNCH_STAT max_depth 3
BRUNCH_STAT cex_depth 0

real	0m1.017s
user	0m0.992s
sys	0m0.024s
