(transform N7datalog13mk_coi_filterE...no-op 0s)
(transform N7datalog25mk_interp_tail_simplifierE...7 rules 0.00160382s)
(transform N7datalog27mk_quantifier_instantiationE...no-op 0s)
(transform N7datalog8mk_scaleE...no-op 0s)
(transform N7datalog18mk_karr_invariantsE...no-op 0s)
(transform N7datalog14mk_array_blastE...no-op 0s)
(transform N7datalog22mk_subsumption_checkerE...6 rules 0s)
(transform N7datalog12mk_bit_blastE...no-op 0s)
(transform N7datalog15mk_rule_inlinerE...3 rules 0.011226s)
(transform N7datalog13mk_coi_filterE...no-op 0s)
(transform N7datalog25mk_interp_tail_simplifierE...3 rules 0s)
(transform N7datalog22mk_subsumption_checkerE...no-op 0s)
(transform N7datalog15mk_rule_inlinerE...no-op 0s)
(transform N7datalog13mk_coi_filterE...no-op 0s)
(transform N7datalog25mk_interp_tail_simplifierE...3 rules 0s)
(transform N7datalog22mk_subsumption_checkerE...no-op 0s)
(transform N7datalog15mk_rule_inlinerE...no-op 0s)
(transform N7datalog22mk_subsumption_checkerE...no-op 0s)
(transform N7datalog15mk_rule_inlinerE...no-op 0s)
(transform N7datalog22mk_subsumption_checkerE...no-op 0s)
(transform N7datalog15mk_rule_inlinerE...no-op 0s)
(transform N7datalog22mk_subsumption_checkerE...no-op 0s)
(transform N7datalog8mk_sliceE...no-op 0s)
expand: query!0 (0, 0) FAR  w(0) 1
This proof contains 0 Farkas lemmas. 0 Farkas lemmas participate in the lowest cut
. F 0.00
(spacer::context::check_reachability :time 0.00 :before-memory 5.29 :after-memory 6.16)
Entering level 1
BRUNCH_STAT max_query_lvl 0
BRUNCH_STAT num_queries 0
BRUNCH_STAT num_reach_queries 0
BRUNCH_STAT num_reach_reuse 0
BRUNCH_STAT inductive_lvl 0
BRUNCH_STAT max_depth 1
BRUNCH_STAT cex_depth 0
expand: query!0 (1, 0) FAR  w(0) 1.
	create_child: MAIN (0, 1) FAR 11864 U 0.00
expand: MAIN (0, 0) FAR  w(0) 11864
This proof contains 0 Farkas lemmas. 0 Farkas lemmas participate in the lowest cut
. F 0.01
expand: query!0 (1, 0) FAR  w(0) 1
This proof contains 0 Farkas lemmas. 0 Farkas lemmas participate in the lowest cut
. F 0.00
(spacer::context::check_reachability :time 0.01 :before-memory 6.16 :after-memory 8.33)
Propagating: 0 1  ! 2 
(spacer::context::propagate :time 0.03 :before-memory 8.33 :after-memory 9.05)
Entering level 2
BRUNCH_STAT max_query_lvl 1
BRUNCH_STAT num_queries 1
BRUNCH_STAT num_reach_queries 0
BRUNCH_STAT num_reach_reuse 0
BRUNCH_STAT inductive_lvl 0
BRUNCH_STAT max_depth 2
BRUNCH_STAT cex_depth 0
expand: query!0 (2, 0) FAR  w(0) 1.
	create_child: MAIN (1, 2) FAR 11864 U 0.00
expand: MAIN (1, 0) FAR  w(0) 11864.
	create_child: MAIN (0, 2) FAR 20219 U 0.01
expand: MAIN (0, 0) FAR  w(0) 20219
This proof contains 0 Farkas lemmas. 0 Farkas lemmas participate in the lowest cut
. F 0.00
expand: MAIN (1, 0) FAR  w(0) 11864.
	create_child: MAIN (0, 2) FAR 20572 UNDEF 0.00
expand: MAIN (0, 0) FAR  w(0) 20572
This proof contains 0 Farkas lemmas. 0 Farkas lemmas participate in the lowest cut
. F 0.00
expand: MAIN (1, 0) FAR  w(0) 11864.
	create_child: MAIN (0, 2) FAR 20157 UNDEF 0.01
expand: MAIN (0, 0) FAR  w(0) 20157
This proof contains 0 Farkas lemmas. 0 Farkas lemmas participate in the lowest cut
. F 0.00
expand: MAIN (1, 0) FAR  w(0) 11864.
	create_child: MAIN (0, 2) FAR 21387 UNDEF 0.00
expand: MAIN (0, 0) FAR  w(0) 21387
This proof contains 0 Farkas lemmas. 0 Farkas lemmas participate in the lowest cut
. F 0.00
expand: MAIN (1, 0) FAR  w(0) 11864.
	create_child: MAIN (0, 2) FAR 21736 UNDEF 0.01
expand: MAIN (0, 0) FAR  w(0) 21736
This proof contains 0 Farkas lemmas. 0 Farkas lemmas participate in the lowest cut
. F 0.00
expand: MAIN (1, 0) FAR  w(0) 11864.
	create_child: MAIN (0, 2) FAR 21863 UNDEF 0.00
expand: MAIN (0, 0) FAR  w(0) 21863
This proof contains 0 Farkas lemmas. 0 Farkas lemmas participate in the lowest cut
. F 0.00
expand: MAIN (1, 0) FAR  w(0) 11864.
	create_child: MAIN (0, 2) FAR 22289 UNDEF 0.00
expand: MAIN (0, 0) FAR  w(0) 22289
This proof contains 0 Farkas lemmas. 0 Farkas lemmas participate in the lowest cut
. F 0.00
expand: MAIN (1, 0) FAR  w(0) 11864.
	create_child: MAIN (0, 2) FAR 22664 UNDEF 0.01
expand: MAIN (0, 0) FAR  w(0) 22664
This proof contains 0 Farkas lemmas. 0 Farkas lemmas participate in the lowest cut
. F 0.00
expand: MAIN (1, 0) FAR  w(0) 11864.
	create_child: MAIN (0, 2) FAR 22901 UNDEF 0.00
expand: MAIN (0, 0) FAR  w(0) 22901
This proof contains 0 Farkas lemmas. 0 Farkas lemmas participate in the lowest cut
. F 0.00
expand: MAIN (1, 0) FAR  w(0) 11864.
	create_child: MAIN (0, 2) FAR 22770 UNDEF 0.01
expand: MAIN (0, 0) FAR  w(0) 22770
This proof contains 0 Farkas lemmas. 0 Farkas lemmas participate in the lowest cut
. F 0.00
expand: MAIN (1, 0) FAR  w(0) 11864.
	create_child: MAIN (0, 2) FAR 23217 UNDEF 0.00
expand: MAIN (0, 0) FAR  w(0) 23217
This proof contains 0 Farkas lemmas. 0 Farkas lemmas participate in the lowest cut
. F 0.00
expand: MAIN (1, 0) FAR  w(0) 11864.
	create_child: MAIN (0, 2) FAR 23336 UNDEF 0.00
expand: MAIN (0, 0) FAR  w(0) 23336
This proof contains 0 Farkas lemmas. 0 Farkas lemmas participate in the lowest cut
. F 0.00
expand: MAIN (1, 0) FAR  w(0) 11864.
	create_child: MAIN (0, 2) FAR 23388 UNDEF 0.00
expand: MAIN (0, 0) FAR  w(0) 23388
This proof contains 0 Farkas lemmas. 0 Farkas lemmas participate in the lowest cut
. F 0.00
expand: MAIN (1, 0) FAR  w(0) 11864.
	create_child: MAIN (0, 2) FAR 22719 UNDEF 0.00
expand: MAIN (0, 0) FAR  w(0) 22719
This proof contains 0 Farkas lemmas. 0 Farkas lemmas participate in the lowest cut
. F 0.00
expand: MAIN (1, 0) FAR  w(0) 11864.
	create_child: MAIN (0, 2) FAR 23001 UNDEF 0.00
expand: MAIN (0, 0) FAR  w(0) 23001
This proof contains 0 Farkas lemmas. 0 Farkas lemmas participate in the lowest cut
. F 0.00
expand: MAIN (1, 0) FAR  w(0) 11864
This proof contains 10 Farkas lemmas. 0 Farkas lemmas participate in the lowest cut
. F 0.00
expand: query!0 (2, 0) FAR  w(0) 1
This proof contains 0 Farkas lemmas. 0 Farkas lemmas participate in the lowest cut
. F 0.00
(spacer::context::check_reachability :time 0.12 :before-memory 9.14 :after-memory 9.66)
Propagating: 0 1 2  ! 3 
(spacer::context::propagate :time 0.07 :before-memory 9.66 :after-memory 10.63)
Entering level 3
BRUNCH_STAT max_query_lvl 2
BRUNCH_STAT num_queries 17
BRUNCH_STAT num_reach_queries 0
BRUNCH_STAT num_reach_reuse 0
BRUNCH_STAT inductive_lvl 0
BRUNCH_STAT max_depth 3
BRUNCH_STAT cex_depth 0
expand: query!0 (3, 0) FAR  w(0) 1.
	create_child: MAIN (2, 3) FAR 11864 U 0.00
expand: MAIN (2, 0) FAR  w(0) 11864.
	create_child: MAIN (1, 3) FAR 27258 UNDEF 0.01
expand: MAIN (1, 0) FAR  w(0) 27258
This proof contains 1 Farkas lemmas. 0 Farkas lemmas participate in the lowest cut
. F 0.01
expand: MAIN (2, 0) FAR  w(0) 11864.
	create_child: MAIN (1, 3) FAR 28026 UNDEF 0.00
expand: MAIN (1, 0) FAR  w(0) 28026.
	create_child: MAIN (0, 3) FAR 28322 UNDEF 0.01
expand: MAIN (0, 0) FAR  w(0) 28322
This proof contains 0 Farkas lemmas. 0 Farkas lemmas participate in the lowest cut
. F 0.00
expand: MAIN (1, 0) FAR  w(0) 28026
This proof contains 2 Farkas lemmas. 0 Farkas lemmas participate in the lowest cut
. F 0.01
expand: MAIN (2, 0) FAR  w(0) 11864.
	create_child: MAIN (1, 3) FAR 28578 UNDEF 0.01
expand: MAIN (1, 0) FAR  w(0) 28578.
	create_child: MAIN (0, 3) FAR 21010 UNDEF 0.01
expand: MAIN (0, 0) FAR  w(0) 21010
This proof contains 1 Farkas lemmas. 1 Farkas lemmas participate in the lowest cut
. F 0.00
expand: MAIN (1, 0) FAR  w(0) 28578.
	create_child: MAIN (0, 3) FAR 28997 UNDEF 0.01
expand: MAIN (0, 0) FAR  w(0) 28997
This proof contains 0 Farkas lemmas. 0 Farkas lemmas participate in the lowest cut
. F 0.00
expand: MAIN (1, 0) FAR  w(0) 28578
This proof contains 2 Farkas lemmas. 0 Farkas lemmas participate in the lowest cut
. F 0.00
expand: MAIN (2, 0) FAR  w(0) 11864.
	create_child: MAIN (1, 3) FAR 28891 UNDEF 0.01
expand: MAIN (1, 0) FAR  w(0) 28891
This proof contains 0 Farkas lemmas. 0 Farkas lemmas participate in the lowest cut
. F 0.01
expand: MAIN (2, 0) FAR  w(0) 11864.
	create_child: MAIN (1, 3) FAR 29452 UNDEF 0.00
expand: MAIN (1, 0) FAR  w(0) 29452
This proof contains 11 Farkas lemmas. 0 Farkas lemmas participate in the lowest cut
. F 0.01
expand: MAIN (2, 0) FAR  w(0) 11864.
	create_child: MAIN (1, 3) FAR 29704 UNDEF 0.01
expand: MAIN (1, 0) FAR  w(0) 29704
This proof contains 9 Farkas lemmas. 0 Farkas lemmas participate in the lowest cut
. F 0.01
expand: MAIN (2, 0) FAR  w(0) 11864
This proof contains 17 Farkas lemmas. 0 Farkas lemmas participate in the lowest cut
. F 0.00
expand: query!0 (3, 0) FAR  w(0) 1
This proof contains 0 Farkas lemmas. 0 Farkas lemmas participate in the lowest cut
. F 0.00
(spacer::context::check_reachability :time 0.12 :before-memory 10.63 :after-memory 11.30)
Propagating: 0 1 2 3  ! 4 
(spacer::context::propagate :time 0.07 :before-memory 11.30 :after-memory 11.42)
Entering level 4
BRUNCH_STAT max_query_lvl 3
BRUNCH_STAT num_queries 27
BRUNCH_STAT num_reach_queries 0
BRUNCH_STAT num_reach_reuse 0
BRUNCH_STAT inductive_lvl 0
BRUNCH_STAT max_depth 4
BRUNCH_STAT cex_depth 0
expand: query!0 (4, 0) FAR  w(0) 1.
	create_child: MAIN (3, 4) FAR 11864 U 0.00
expand: MAIN (3, 0) FAR  w(0) 11864.
	create_child: MAIN (2, 4) FAR 31490 U 0.01
expand: MAIN (2, 0) FAR  w(0) 31490
This proof contains 0 Farkas lemmas. 0 Farkas lemmas participate in the lowest cut
. F 0.01
expand: MAIN (3, 0) FAR  w(0) 11864.
	create_child: MAIN (2, 4) FAR 31853 UNDEF 0.01
expand: MAIN (2, 0) FAR  w(0) 31853.
	create_child: MAIN (1, 4) FAR 32156 UNDEF 0.01
expand: MAIN (1, 0) FAR  w(0) 32156
This proof contains 1 Farkas lemmas. 0 Farkas lemmas participate in the lowest cut
. F 0.00
expand: MAIN (2, 0) FAR  w(0) 31853
This proof contains 6 Farkas lemmas. 0 Farkas lemmas participate in the lowest cut
. F 0.02
expand: MAIN (3, 0) FAR  w(0) 11864.
	create_child: MAIN (2, 4) FAR 32935 UNDEF 0.01
expand: MAIN (2, 0) FAR  w(0) 32935.
	create_child: MAIN (1, 4) FAR 33274 UNDEF 0.01
expand: MAIN (1, 0) FAR  w(0) 33274
This proof contains 13 Farkas lemmas. 0 Farkas lemmas participate in the lowest cut
. F 0.02
expand: MAIN (2, 0) FAR  w(0) 32935.
	create_child: MAIN (1, 4) FAR 33748 UNDEF 0.01
expand: MAIN (1, 0) FAR  w(0) 33748
This proof contains 7 Farkas lemmas. 0 Farkas lemmas participate in the lowest cut
. F 0.01
expand: MAIN (2, 0) FAR  w(0) 32935.
	create_child: MAIN (1, 4) FAR 34015 UNDEF 0.01
expand: MAIN (1, 0) FAR  w(0) 34015.
	create_child: MAIN (0, 4) FAR 33942 UNDEF 0.01
expand: MAIN (0, 0) FAR  w(0) 33942. UNDEF 0.00
expand: MAIN (0, 0) FAR  w(1) 33942. T 0.00
is-reachable: MAIN (1, 0) FAR 34015 T 0.03
is-reachable: MAIN (2, 0) FAR 32935 T 0.07
is-reachable: MAIN (3, 0) FAR 11864 T 0.09
is-reachable: query!0 (4, 0) FAR 1 T 0.03
(spacer::context::check_reachability :time 0.35 :before-memory 11.42 :after-memory 15.28)
BRUNCH_STAT max_query_lvl 4
BRUNCH_STAT num_queries 36
BRUNCH_STAT num_reach_queries 4
BRUNCH_STAT num_reach_reuse 0
BRUNCH_STAT inductive_lvl 0
BRUNCH_STAT max_depth 4
BRUNCH_STAT cex_depth 4
(:SPACER-cex-depth                     4
 :SPACER-expand-node-undef             31
 :SPACER-max-depth                     4
 :SPACER-max-query-lvl                 4
 :SPACER-num-invariants                16
 :SPACER-num-lemmas                    36
 :SPACER-num-properties                30
 :SPACER-num-queries                   36
 :SPACER-num-reach-queries             4
 :added-eqs                            41674
 :arith-add-rows                       12841
 :arith-assert-diseq                   14893
 :arith-assert-lower                   18866
 :arith-assert-upper                   22096
 :arith-bound-prop                     1181
 :arith-conflicts                      84
 :arith-eq-adapter                     9307
 :arith-fixed-eqs                      3322
 :arith-gcd-tests                      1267
 :arith-gomory-cuts                    37
 :arith-ineq-splits                    62
 :arith-offset-eqs                     3670
 :arith-pivots                         2264
 :bool-inductive-gen                   32
 :bool-inductive-gen-failures          32
 :conflicts                            719
 :decisions                            44793
 :del-clause                           10282
 :final-checks                         437
 :interface-eqs                        195
 :minimized-lits                       565
 :mk-bool-var                          15572
 :mk-clause                            21851
 :num-checks                           240
 :propagations                         244470
 :time.itp_solver.itp_core             0.02
 :time.spacer.init_rules               0.00
 :time.spacer.init_rules.pt.init       0.00
 :time.spacer.solve                    0.78
 :time.spacer.solve.propagate          0.17
 :time.spacer.solve.reach              0.61
 :time.spacer.solve.reach.children     0.05
 :time.spacer.solve.reach.gen.bool_ind 0.12
 :time.spacer.solve.reach.is-reach     0.22
 :time.virtual_solver.proof            0.01
 :time.virtual_solver.smt.total        0.60
 :time.virtual_solver.smt.total.sat    0.28
 :time.virtual_solver.smt.total.undef  0.21
 :virtual_solver.checks                240
 :virtual_solver.checks.sat            30
 :virtual_solver.checks.undef          65)
BRUNCH_STAT max_query_lvl 4
BRUNCH_STAT num_queries 36
BRUNCH_STAT num_reach_queries 4
BRUNCH_STAT num_reach_reuse 0
BRUNCH_STAT inductive_lvl 0
BRUNCH_STAT max_depth 4
BRUNCH_STAT cex_depth 4

real	0m0.903s
user	0m0.892s
sys	0m0.008s
