(transform N7datalog13mk_coi_filterE...no-op 0s)
(transform N7datalog25mk_interp_tail_simplifierE...12 rules 0s)
(transform N7datalog27mk_quantifier_instantiationE...no-op 0s)
(transform N7datalog8mk_scaleE...no-op 0s)
(transform N7datalog18mk_karr_invariantsE...no-op 0s)
(transform N7datalog14mk_array_blastE...no-op 0s)
(transform N7datalog22mk_subsumption_checkerE...11 rules 0s)
(transform N7datalog12mk_bit_blastE...no-op 0s)
(transform N7datalog15mk_rule_inlinerE...3 rules 0.00292442s)
(transform N7datalog13mk_coi_filterE...no-op 0s)
(transform N7datalog25mk_interp_tail_simplifierE...3 rules 0s)
(transform N7datalog22mk_subsumption_checkerE...no-op 0s)
(transform N7datalog15mk_rule_inlinerE...no-op 0s)
(transform N7datalog13mk_coi_filterE...no-op 0s)
(transform N7datalog25mk_interp_tail_simplifierE...3 rules 0s)
(transform N7datalog22mk_subsumption_checkerE...no-op 0s)
(transform N7datalog15mk_rule_inlinerE...no-op 0s)
(transform N7datalog22mk_subsumption_checkerE...no-op 0s)
(transform N7datalog15mk_rule_inlinerE...no-op 0s)
(transform N7datalog22mk_subsumption_checkerE...no-op 0s)
(transform N7datalog15mk_rule_inlinerE...no-op 0s)
(transform N7datalog22mk_subsumption_checkerE...no-op 0s)
(transform N7datalog8mk_sliceE...no-op 0s)
expand: query!0 (0, 0) FAR  w(0) 1
This proof contains 0 Farkas lemmas. 0 Farkas lemmas participate in the lowest cut
. F 0.00
(spacer::context::check_reachability :time 0.00 :before-memory 4.32 :after-memory 4.83)
Entering level 1
BRUNCH_STAT max_query_lvl 0
BRUNCH_STAT num_queries 0
BRUNCH_STAT num_reach_queries 0
BRUNCH_STAT num_reach_reuse 0
BRUNCH_STAT inductive_lvl 0
BRUNCH_STAT max_depth 1
BRUNCH_STAT cex_depth 0
expand: query!0 (1, 0) FAR  w(0) 1.
	create_child: MAIN (0, 1) FAR 2520 U 0.00
expand: MAIN (0, 0) FAR  w(0) 2520
This proof contains 0 Farkas lemmas. 0 Farkas lemmas participate in the lowest cut
. F 0.00
expand: query!0 (1, 0) FAR  w(0) 1
This proof contains 0 Farkas lemmas. 0 Farkas lemmas participate in the lowest cut
. F 0.00
(spacer::context::check_reachability :time 0.00 :before-memory 4.83 :after-memory 5.66)
Propagating: 0 1  ! 2 
(spacer::context::propagate :time 0.00 :before-memory 5.66 :after-memory 5.75)
Entering level 2
BRUNCH_STAT max_query_lvl 1
BRUNCH_STAT num_queries 1
BRUNCH_STAT num_reach_queries 0
BRUNCH_STAT num_reach_reuse 0
BRUNCH_STAT inductive_lvl 0
BRUNCH_STAT max_depth 2
BRUNCH_STAT cex_depth 0
expand: query!0 (2, 0) FAR  w(0) 1.
	create_child: MAIN (1, 2) FAR 2520 U 0.00
expand: MAIN (1, 0) FAR  w(0) 2520.
	create_child: MAIN (0, 2) FAR 5258 U 0.00
expand: MAIN (0, 0) FAR  w(0) 5258
This proof contains 0 Farkas lemmas. 0 Farkas lemmas participate in the lowest cut
. F 0.00
expand: MAIN (1, 0) FAR  w(0) 2520.
	create_child: MAIN (0, 2) FAR 5251 U 0.00
expand: MAIN (0, 0) FAR  w(0) 5251
This proof contains 0 Farkas lemmas. 0 Farkas lemmas participate in the lowest cut
. F 0.00
expand: MAIN (1, 0) FAR  w(0) 2520.
	create_child: MAIN (0, 2) FAR 5336 U 0.00
expand: MAIN (0, 0) FAR  w(0) 5336
This proof contains 0 Farkas lemmas. 0 Farkas lemmas participate in the lowest cut
. F 0.00
expand: MAIN (1, 0) FAR  w(0) 2520.
	create_child: MAIN (0, 2) FAR 5465 U 0.00
expand: MAIN (0, 0) FAR  w(0) 5465
This proof contains 2 Farkas lemmas. 0 Farkas lemmas participate in the lowest cut
. F 0.00
expand: MAIN (1, 0) FAR  w(0) 2520.
	create_child: MAIN (0, 2) FAR 5634 U 0.00
expand: MAIN (0, 0) FAR  w(0) 5634
This proof contains 1 Farkas lemmas. 1 Farkas lemmas participate in the lowest cut
. F 0.00
expand: MAIN (1, 0) FAR  w(0) 2520
This proof contains 6 Farkas lemmas. 0 Farkas lemmas participate in the lowest cut
. F 0.00
expand: query!0 (2, 0) FAR  w(0) 1
This proof contains 0 Farkas lemmas. 0 Farkas lemmas participate in the lowest cut
. F 0.00
(spacer::context::check_reachability :time 0.01 :before-memory 5.75 :after-memory 6.19)
Propagating: 0 1 2  ! 3 
(spacer::context::propagate :time 0.00 :before-memory 6.19 :after-memory 6.19)
Entering level 3
BRUNCH_STAT max_query_lvl 2
BRUNCH_STAT num_queries 7
BRUNCH_STAT num_reach_queries 0
BRUNCH_STAT num_reach_reuse 0
BRUNCH_STAT inductive_lvl 0
BRUNCH_STAT max_depth 3
BRUNCH_STAT cex_depth 0
expand: query!0 (3, 0) FAR  w(0) 1.
	create_child: MAIN (2, 3) FAR 2520 U 0.00
expand: MAIN (2, 0) FAR  w(0) 2520.
	create_child: MAIN (1, 3) FAR 6449 U 0.00
expand: MAIN (1, 0) FAR  w(0) 6449
This proof contains 0 Farkas lemmas. 0 Farkas lemmas participate in the lowest cut
. F 0.00
expand: MAIN (2, 0) FAR  w(0) 2520.
	create_child: MAIN (1, 3) FAR 6912 U 0.00
expand: MAIN (1, 0) FAR  w(0) 6912
This proof contains 1 Farkas lemmas. 0 Farkas lemmas participate in the lowest cut
. F 0.00
expand: MAIN (2, 0) FAR  w(0) 2520.
	create_child: MAIN (1, 3) FAR 7109 U 0.00
expand: MAIN (1, 0) FAR  w(0) 7109. T 0.00
is-reachable: MAIN (2, 0) FAR 2520 T 0.01
is-reachable: query!0 (3, 0) FAR 1 T 0.00
(spacer::context::check_reachability :time 0.02 :before-memory 6.19 :after-memory 6.67)
BRUNCH_STAT max_query_lvl 3
BRUNCH_STAT num_queries 11
BRUNCH_STAT num_reach_queries 3
BRUNCH_STAT num_reach_reuse 1
BRUNCH_STAT inductive_lvl 0
BRUNCH_STAT max_depth 3
BRUNCH_STAT cex_depth 3
(:SPACER-cex-depth                     3
 :SPACER-max-depth                     3
 :SPACER-max-query-lvl                 3
 :SPACER-num-invariants                5
 :SPACER-num-lemmas                    12
 :SPACER-num-properties                9
 :SPACER-num-queries                   11
 :SPACER-num-reach-queries             3
 :SPACER-num-reuse-reach-facts         1
 :added-eqs                            761
 :arith-add-rows                       259
 :arith-assert-diseq                   259
 :arith-assert-lower                   615
 :arith-assert-upper                   661
 :arith-bound-prop                     102
 :arith-conflicts                      8
 :arith-eq-adapter                     125
 :arith-fixed-eqs                      127
 :arith-offset-eqs                     108
 :arith-pivots                         75
 :bool-inductive-gen                   9
 :bool-inductive-gen-failures          9
 :conflicts                            117
 :decisions                            623
 :del-clause                           125
 :final-checks                         19
 :minimized-lits                       106
 :mk-bool-var                          684
 :mk-clause                            1693
 :num-checks                           52
 :propagations                         9310
 :time.itp_solver.itp_core             0.00
 :time.spacer.init_rules               0.00
 :time.spacer.init_rules.pt.init       0.00
 :time.spacer.solve                    0.04
 :time.spacer.solve.propagate          0.01
 :time.spacer.solve.reach              0.03
 :time.spacer.solve.reach.children     0.00
 :time.spacer.solve.reach.gen.bool_ind 0.00
 :time.spacer.solve.reach.is-reach     0.01
 :time.virtual_solver.proof            0.00
 :time.virtual_solver.smt.total        0.03
 :time.virtual_solver.smt.total.sat    0.01
 :virtual_solver.checks                52
 :virtual_solver.checks.sat            19)
BRUNCH_STAT max_query_lvl 3
BRUNCH_STAT num_queries 11
BRUNCH_STAT num_reach_queries 3
BRUNCH_STAT num_reach_reuse 1
BRUNCH_STAT inductive_lvl 0
BRUNCH_STAT max_depth 3
BRUNCH_STAT cex_depth 3

real	0m0.070s
user	0m0.064s
sys	0m0.004s
