(transform N7datalog13mk_coi_filterE...no-op 0s)
(transform N7datalog25mk_interp_tail_simplifierE...14 rules 0s)
(transform N7datalog27mk_quantifier_instantiationE...no-op 0s)
(transform N7datalog8mk_scaleE...no-op 0s)
(transform N7datalog18mk_karr_invariantsE...no-op 0s)
(transform N7datalog14mk_array_blastE...no-op 0s)
(transform N7datalog22mk_subsumption_checkerE...13 rules 0s)
(transform N7datalog12mk_bit_blastE...no-op 0s)
(transform N7datalog15mk_rule_inlinerE...3 rules 0.00517971s)
(transform N7datalog13mk_coi_filterE...no-op 0s)
(transform N7datalog25mk_interp_tail_simplifierE...3 rules 0s)
(transform N7datalog22mk_subsumption_checkerE...no-op 0s)
(transform N7datalog15mk_rule_inlinerE...no-op 0s)
(transform N7datalog13mk_coi_filterE...no-op 0s)
(transform N7datalog25mk_interp_tail_simplifierE...3 rules 0s)
(transform N7datalog22mk_subsumption_checkerE...no-op 0s)
(transform N7datalog15mk_rule_inlinerE...no-op 0s)
(transform N7datalog22mk_subsumption_checkerE...no-op 0s)
(transform N7datalog15mk_rule_inlinerE...no-op 0s)
(transform N7datalog22mk_subsumption_checkerE...no-op 0s)
(transform N7datalog15mk_rule_inlinerE...no-op 0s)
(transform N7datalog22mk_subsumption_checkerE...no-op 0s)
(transform N7datalog8mk_sliceE...no-op 0s)
expand: query!0 (0, 0) FAR  w(0) 1
This proof contains 0 Farkas lemmas. 0 Farkas lemmas participate in the lowest cut
. F 0.00
(spacer::context::check_reachability :time 0.00 :before-memory 4.50 :after-memory 5.02)
Entering level 1
BRUNCH_STAT max_query_lvl 0
BRUNCH_STAT num_queries 0
BRUNCH_STAT num_reach_queries 0
BRUNCH_STAT num_reach_reuse 0
BRUNCH_STAT inductive_lvl 0
BRUNCH_STAT max_depth 1
BRUNCH_STAT cex_depth 0
expand: query!0 (1, 0) FAR  w(0) 1.
	create_child: MAIN (0, 1) FAR 3602 U 0.00
expand: MAIN (0, 0) FAR  w(0) 3602
This proof contains 1 Farkas lemmas. 0 Farkas lemmas participate in the lowest cut
. F 0.00
expand: query!0 (1, 0) FAR  w(0) 1
This proof contains 0 Farkas lemmas. 0 Farkas lemmas participate in the lowest cut
. F 0.00
(spacer::context::check_reachability :time 0.00 :before-memory 5.02 :after-memory 5.92)
Propagating: 0 1  ! 2 
(spacer::context::propagate :time 0.00 :before-memory 5.92 :after-memory 6.17)
Entering level 2
BRUNCH_STAT max_query_lvl 1
BRUNCH_STAT num_queries 1
BRUNCH_STAT num_reach_queries 0
BRUNCH_STAT num_reach_reuse 0
BRUNCH_STAT inductive_lvl 0
BRUNCH_STAT max_depth 2
BRUNCH_STAT cex_depth 0
expand: query!0 (2, 0) FAR  w(0) 1.
	create_child: MAIN (1, 2) FAR 3602 U 0.00
expand: MAIN (1, 0) FAR  w(0) 3602.
	create_child: MAIN (0, 2) FAR 6051 U 0.00
expand: MAIN (0, 0) FAR  w(0) 6051
This proof contains 0 Farkas lemmas. 0 Farkas lemmas participate in the lowest cut
. F 0.00
expand: MAIN (1, 0) FAR  w(0) 3602.
	create_child: MAIN (0, 2) FAR 6224 U 0.00
expand: MAIN (0, 0) FAR  w(0) 6224
This proof contains 0 Farkas lemmas. 0 Farkas lemmas participate in the lowest cut
. F 0.00
expand: MAIN (1, 0) FAR  w(0) 3602.
	create_child: MAIN (0, 2) FAR 6347 U 0.00
expand: MAIN (0, 0) FAR  w(0) 6347
This proof contains 0 Farkas lemmas. 0 Farkas lemmas participate in the lowest cut
. F 0.00
expand: MAIN (1, 0) FAR  w(0) 3602.
	create_child: MAIN (0, 2) FAR 6419 U 0.00
expand: MAIN (0, 0) FAR  w(0) 6419
This proof contains 0 Farkas lemmas. 0 Farkas lemmas participate in the lowest cut
. F 0.00
expand: MAIN (1, 0) FAR  w(0) 3602
This proof contains 4 Farkas lemmas. 0 Farkas lemmas participate in the lowest cut
. F 0.00
expand: query!0 (2, 0) FAR  w(0) 1
This proof contains 0 Farkas lemmas. 0 Farkas lemmas participate in the lowest cut
. F 0.00
(spacer::context::check_reachability :time 0.01 :before-memory 6.17 :after-memory 6.26)
Propagating: 0 1 2  ! 3 
(spacer::context::propagate :time 0.00 :before-memory 6.26 :after-memory 6.26)
Entering level 3
BRUNCH_STAT max_query_lvl 2
BRUNCH_STAT num_queries 6
BRUNCH_STAT num_reach_queries 0
BRUNCH_STAT num_reach_reuse 0
BRUNCH_STAT inductive_lvl 0
BRUNCH_STAT max_depth 3
BRUNCH_STAT cex_depth 0
expand: query!0 (3, 0) FAR  w(0) 1.
	create_child: MAIN (2, 3) FAR 3602 U 0.00
expand: MAIN (2, 0) FAR  w(0) 3602.
	create_child: MAIN (1, 3) FAR 6773 U 0.00
expand: MAIN (1, 0) FAR  w(0) 6773.
	create_child: MAIN (0, 3) FAR 6823 U 0.00
expand: MAIN (0, 0) FAR  w(0) 6823
This proof contains 0 Farkas lemmas. 0 Farkas lemmas participate in the lowest cut
. F 0.00
expand: MAIN (1, 0) FAR  w(0) 6773
This proof contains 2 Farkas lemmas. 0 Farkas lemmas participate in the lowest cut
. F 0.00
expand: MAIN (2, 0) FAR  w(0) 3602
This proof contains 4 Farkas lemmas. 0 Farkas lemmas participate in the lowest cut
. F 0.00
expand: query!0 (3, 0) FAR  w(0) 1
This proof contains 0 Farkas lemmas. 0 Farkas lemmas participate in the lowest cut
. F 0.00
(spacer::context::check_reachability :time 0.01 :before-memory 6.26 :after-memory 6.38)
Propagating: 0 1 2 3  ! 4 
(spacer::context::propagate :time 0.00 :before-memory 6.38 :after-memory 6.38)
Entering level 4
BRUNCH_STAT max_query_lvl 3
BRUNCH_STAT num_queries 9
BRUNCH_STAT num_reach_queries 0
BRUNCH_STAT num_reach_reuse 0
BRUNCH_STAT inductive_lvl 0
BRUNCH_STAT max_depth 4
BRUNCH_STAT cex_depth 0
expand: query!0 (4, 0) FAR  w(0) 1.
	create_child: MAIN (3, 4) FAR 3602 U 0.00
expand: MAIN (3, 0) FAR  w(0) 3602.
	create_child: MAIN (2, 4) FAR 7114 U 0.00
expand: MAIN (2, 0) FAR  w(0) 7114.
	create_child: MAIN (1, 4) FAR 7243 U 0.00
expand: MAIN (1, 0) FAR  w(0) 7243
This proof contains 5 Farkas lemmas. 0 Farkas lemmas participate in the lowest cut
. F 0.00
expand: MAIN (2, 0) FAR  w(0) 7114
This proof contains 2 Farkas lemmas. 0 Farkas lemmas participate in the lowest cut
. F 0.00
expand: MAIN (3, 0) FAR  w(0) 3602.
	create_child: MAIN (2, 4) FAR 7732 U 0.00
expand: MAIN (2, 0) FAR  w(0) 7732.
	create_child: MAIN (1, 4) FAR 7698 U 0.00
expand: MAIN (1, 0) FAR  w(0) 7698.
	create_child: MAIN (0, 4) FAR 7859 U 0.00
expand: MAIN (0, 0) FAR  w(0) 7859
This proof contains 0 Farkas lemmas. 0 Farkas lemmas participate in the lowest cut
. F 0.00
expand: MAIN (1, 0) FAR  w(0) 7698
This proof contains 5 Farkas lemmas. 0 Farkas lemmas participate in the lowest cut
. F 0.00
expand: MAIN (2, 0) FAR  w(0) 7732
This proof contains 4 Farkas lemmas. 0 Farkas lemmas participate in the lowest cut
. F 0.00
expand: MAIN (3, 0) FAR  w(0) 3602.
	create_child: MAIN (2, 4) FAR 8313 U 0.00
expand: MAIN (2, 0) FAR  w(0) 8313.
	create_child: MAIN (1, 4) FAR 8275 U 0.00
expand: MAIN (1, 0) FAR  w(0) 8275.
	create_child: MAIN (0, 4) FAR 8159 U 0.00
expand: MAIN (0, 0) FAR  w(0) 8159
This proof contains 0 Farkas lemmas. 0 Farkas lemmas participate in the lowest cut
. F 0.00
expand: MAIN (1, 0) FAR  w(0) 8275
This proof contains 4 Farkas lemmas. 0 Farkas lemmas participate in the lowest cut
. F 0.00
expand: MAIN (2, 0) FAR  w(0) 8313
This proof contains 2 Farkas lemmas. 0 Farkas lemmas participate in the lowest cut
. F 0.00
expand: MAIN (3, 0) FAR  w(0) 3602
This proof contains 4 Farkas lemmas. 0 Farkas lemmas participate in the lowest cut
. F 0.00
expand: query!0 (4, 0) FAR  w(0) 1
This proof contains 0 Farkas lemmas. 0 Farkas lemmas participate in the lowest cut
. F 0.00
(spacer::context::check_reachability :time 0.03 :before-memory 6.38 :after-memory 6.47)
Propagating: 0 1 2 3 4  ! 5 
(spacer::context::propagate :time 0.01 :before-memory 6.47 :after-memory 6.47)
Entering level 5
BRUNCH_STAT max_query_lvl 4
BRUNCH_STAT num_queries 18
BRUNCH_STAT num_reach_queries 0
BRUNCH_STAT num_reach_reuse 0
BRUNCH_STAT inductive_lvl 0
BRUNCH_STAT max_depth 5
BRUNCH_STAT cex_depth 0
expand: query!0 (5, 0) FAR  w(0) 1.
	create_child: MAIN (4, 5) FAR 3602 U 0.00
expand: MAIN (4, 0) FAR  w(0) 3602.
	create_child: MAIN (3, 5) FAR 9014 U 0.00
expand: MAIN (3, 0) FAR  w(0) 9014.
	create_child: MAIN (2, 5) FAR 8790 U 0.00
expand: MAIN (2, 0) FAR  w(0) 8790.
	create_child: MAIN (1, 5) FAR 8986 U 0.00
expand: MAIN (1, 0) FAR  w(0) 8986.
	create_child: MAIN (0, 5) FAR 9095 U 0.00
expand: MAIN (0, 0) FAR  w(0) 9095
This proof contains 0 Farkas lemmas. 0 Farkas lemmas participate in the lowest cut
. F 0.00
expand: MAIN (1, 0) FAR  w(0) 8986
This proof contains 2 Farkas lemmas. 0 Farkas lemmas participate in the lowest cut
. F 0.00
expand: MAIN (2, 0) FAR  w(0) 8790
This proof contains 4 Farkas lemmas. 0 Farkas lemmas participate in the lowest cut
. F 0.00
expand: MAIN (3, 0) FAR  w(0) 9014
This proof contains 2 Farkas lemmas. 0 Farkas lemmas participate in the lowest cut
. F 0.00
expand: MAIN (4, 0) FAR  w(0) 3602
This proof contains 4 Farkas lemmas. 0 Farkas lemmas participate in the lowest cut
. F 0.00
expand: query!0 (5, 0) FAR  w(0) 1
This proof contains 0 Farkas lemmas. 0 Farkas lemmas participate in the lowest cut
. F 0.00
(spacer::context::check_reachability :time 0.01 :before-memory 6.47 :after-memory 6.57)
Propagating: 0 1 2 3 4 5  ! 6 7 
(spacer::context::propagate :time 0.01 :before-memory 6.57 :after-memory 6.67)
Entering level 6
BRUNCH_STAT max_query_lvl 5
BRUNCH_STAT num_queries 23
BRUNCH_STAT num_reach_queries 0
BRUNCH_STAT num_reach_reuse 0
BRUNCH_STAT inductive_lvl 0
BRUNCH_STAT max_depth 6
BRUNCH_STAT cex_depth 0
expand: query!0 (6, 0) FAR  w(0) 1
This proof contains 0 Farkas lemmas. 0 Farkas lemmas participate in the lowest cut
. F 0.00
(spacer::context::check_reachability :time 0.00 :before-memory 6.67 :after-memory 6.67)
Propagating: 6  ! 7 
(spacer::context::propagate :time 0.00 :before-memory 6.67 :after-memory 6.67)
Entering level 7
BRUNCH_STAT max_query_lvl 6
BRUNCH_STAT num_queries 23
BRUNCH_STAT num_reach_queries 0
BRUNCH_STAT num_reach_reuse 0
BRUNCH_STAT inductive_lvl 0
BRUNCH_STAT max_depth 7
BRUNCH_STAT cex_depth 0
expand: query!0 (7, 0) FAR  w(0) 1.
	create_child: MAIN (6, 7) FAR 3602 U 0.00
expand: MAIN (6, 0) FAR  w(0) 3602.
	create_child: MAIN (5, 7) FAR 9014 U 0.00
expand: MAIN (5, 0) FAR  w(0) 9014.
	create_child: MAIN (4, 7) FAR 8790 U 0.00
expand: MAIN (4, 0) FAR  w(0) 8790.
	create_child: MAIN (3, 7) FAR 8986 U 0.00
expand: MAIN (3, 0) FAR  w(0) 8986.
	create_child: MAIN (2, 7) FAR 9095 U 0.00
expand: MAIN (2, 0) FAR  w(0) 9095
This proof contains 1 Farkas lemmas. 0 Farkas lemmas participate in the lowest cut
. F 0.00
expand: MAIN (3, 0) FAR  w(0) 8986
This proof contains 1 Farkas lemmas. 0 Farkas lemmas participate in the lowest cut
. F 0.00
expand: MAIN (4, 0) FAR  w(0) 8790
This proof contains 5 Farkas lemmas. 0 Farkas lemmas participate in the lowest cut
. F 0.00
expand: MAIN (5, 0) FAR  w(0) 9014
This proof contains 3 Farkas lemmas. 0 Farkas lemmas participate in the lowest cut
. F 0.00
expand: MAIN (6, 0) FAR  w(0) 3602.
	create_child: MAIN (5, 7) FAR 10905 U 0.00
expand: MAIN (5, 0) FAR  w(0) 10905
This proof contains 0 Farkas lemmas. 0 Farkas lemmas participate in the lowest cut
. F 0.00
expand: MAIN (6, 0) FAR  w(0) 3602.
	create_child: MAIN (5, 7) FAR 11012 U 0.00
expand: MAIN (5, 0) FAR  w(0) 11012.
	create_child: MAIN (4, 7) FAR 11108 U 0.00
expand: MAIN (4, 0) FAR  w(0) 11108.
	create_child: MAIN (3, 7) FAR 11097 U 0.00
expand: MAIN (3, 0) FAR  w(0) 11097.
	create_child: MAIN (2, 7) FAR 11101 U 0.00
expand: MAIN (2, 0) FAR  w(0) 11101.
	create_child: MAIN (1, 7) FAR 11139 U 0.00
expand: MAIN (1, 0) FAR  w(0) 11139
This proof contains 4 Farkas lemmas. 0 Farkas lemmas participate in the lowest cut
. F 0.00
expand: MAIN (2, 0) FAR  w(0) 11101
This proof contains 3 Farkas lemmas. 0 Farkas lemmas participate in the lowest cut
. F 0.00
expand: MAIN (3, 0) FAR  w(0) 11097
This proof contains 4 Farkas lemmas. 0 Farkas lemmas participate in the lowest cut
. F 0.00
expand: MAIN (4, 0) FAR  w(0) 11108
This proof contains 6 Farkas lemmas. 0 Farkas lemmas participate in the lowest cut
. F 0.00
expand: MAIN (5, 0) FAR  w(0) 11012
This proof contains 4 Farkas lemmas. 0 Farkas lemmas participate in the lowest cut
. F 0.00
expand: MAIN (6, 0) FAR  w(0) 3602.
	create_child: MAIN (5, 7) FAR 6773 U 0.00
expand: MAIN (5, 0) FAR  w(0) 6773.
	create_child: MAIN (4, 7) FAR 6823 U 0.00
expand: MAIN (4, 0) FAR  w(0) 6823.
	create_child: MAIN (3, 7) FAR 11515 U 0.00
expand: MAIN (3, 0) FAR  w(0) 11515.
	create_child: MAIN (2, 7) FAR 11098 U 0.00
expand: MAIN (2, 0) FAR  w(0) 11098
This proof contains 1 Farkas lemmas. 0 Farkas lemmas participate in the lowest cut
. F 0.00
expand: MAIN (3, 0) FAR  w(0) 11515
This proof contains 4 Farkas lemmas. 0 Farkas lemmas participate in the lowest cut
. F 0.00
expand: MAIN (4, 0) FAR  w(0) 6823
This proof contains 6 Farkas lemmas. 0 Farkas lemmas participate in the lowest cut
. F 0.00
expand: MAIN (5, 0) FAR  w(0) 6773
This proof contains 3 Farkas lemmas. 0 Farkas lemmas participate in the lowest cut
. F 0.00
expand: MAIN (6, 0) FAR  w(0) 3602.
	create_child: MAIN (5, 7) FAR 11977 U 0.00
expand: MAIN (5, 0) FAR  w(0) 11977.
	create_child: MAIN (4, 7) FAR 12131 U 0.00
expand: MAIN (4, 0) FAR  w(0) 12131.
	create_child: MAIN (3, 7) FAR 12108 U 0.00
expand: MAIN (3, 0) FAR  w(0) 12108.
	create_child: MAIN (2, 7) FAR 12168 U 0.00
expand: MAIN (2, 0) FAR  w(0) 12168.
	create_child: MAIN (1, 7) FAR 12093 U 0.00
expand: MAIN (1, 0) FAR  w(0) 12093. T 0.00
is-reachable: MAIN (2, 0) FAR 12168 T 0.01
is-reachable: MAIN (3, 0) FAR 12108 T 0.01
is-reachable: MAIN (4, 0) FAR 12131 T 0.01
is-reachable: MAIN (5, 0) FAR 11977 T 0.01
is-reachable: MAIN (6, 0) FAR 3602 T 0.01
is-reachable: query!0 (7, 0) FAR 1 T 0.01
(spacer::context::check_reachability :time 0.11 :before-memory 6.67 :after-memory 8.68)
BRUNCH_STAT max_query_lvl 7
BRUNCH_STAT num_queries 43
BRUNCH_STAT num_reach_queries 7
BRUNCH_STAT num_reach_reuse 1
BRUNCH_STAT inductive_lvl 0
BRUNCH_STAT max_depth 7
BRUNCH_STAT cex_depth 7
(:SPACER-cex-depth                     7
 :SPACER-max-depth                     7
 :SPACER-max-query-lvl                 7
 :SPACER-num-invariants                3
 :SPACER-num-lemmas                    43
 :SPACER-num-properties                28
 :SPACER-num-queries                   43
 :SPACER-num-reach-queries             7
 :SPACER-num-reuse-reach-facts         1
 :added-eqs                            6065
 :arith-add-rows                       115
 :arith-assert-diseq                   2710
 :arith-assert-lower                   6184
 :arith-assert-upper                   5717
 :arith-bound-prop                     196
 :arith-conflicts                      8
 :arith-eq-adapter                     840
 :arith-fixed-eqs                      1088
 :arith-offset-eqs                     214
 :arith-pivots                         203
 :bool-inductive-gen                   37
 :bool-inductive-gen-failures          64
 :conflicts                            265
 :decisions                            9022
 :del-clause                           282
 :final-checks                         127
 :minimized-lits                       22
 :mk-bool-var                          2394
 :mk-clause                            4733
 :num-checks                           281
 :propagations                         66142
 :time.itp_solver.itp_core             0.02
 :time.spacer.init_rules               0.00
 :time.spacer.init_rules.pt.init       0.00
 :time.spacer.solve                    0.19
 :time.spacer.solve.propagate          0.02
 :time.spacer.solve.reach              0.17
 :time.spacer.solve.reach.children     0.03
 :time.spacer.solve.reach.gen.bool_ind 0.02
 :time.spacer.solve.reach.is-reach     0.05
 :time.virtual_solver.proof            0.01
 :time.virtual_solver.smt.total        0.11
 :time.virtual_solver.smt.total.sat    0.08
 :virtual_solver.checks                281
 :virtual_solver.checks.sat            127)
BRUNCH_STAT max_query_lvl 7
BRUNCH_STAT num_queries 43
BRUNCH_STAT num_reach_queries 7
BRUNCH_STAT num_reach_reuse 1
BRUNCH_STAT inductive_lvl 0
BRUNCH_STAT max_depth 7
BRUNCH_STAT cex_depth 7

real	0m0.248s
user	0m0.240s
sys	0m0.008s
