(transform N7datalog13mk_coi_filterE...no-op 0s)
(transform N7datalog25mk_interp_tail_simplifierE...21 rules 0s)
(transform N7datalog27mk_quantifier_instantiationE...no-op 0s)
(transform N7datalog8mk_scaleE...no-op 0s)
(transform N7datalog18mk_karr_invariantsE...no-op 0s)
(transform N7datalog14mk_array_blastE...no-op 0s)
(transform N7datalog22mk_subsumption_checkerE...20 rules 0s)
(transform N7datalog12mk_bit_blastE...no-op 0s)
(transform N7datalog15mk_rule_inlinerE...3 rules 0.0181489s)
(transform N7datalog13mk_coi_filterE...no-op 0s)
(transform N7datalog25mk_interp_tail_simplifierE...3 rules 0s)
(transform N7datalog22mk_subsumption_checkerE...no-op 0s)
(transform N7datalog15mk_rule_inlinerE...no-op 0s)
(transform N7datalog13mk_coi_filterE...no-op 0s)
(transform N7datalog25mk_interp_tail_simplifierE...3 rules 0s)
(transform N7datalog22mk_subsumption_checkerE...no-op 0s)
(transform N7datalog15mk_rule_inlinerE...no-op 0s)
(transform N7datalog22mk_subsumption_checkerE...no-op 0s)
(transform N7datalog15mk_rule_inlinerE...no-op 0s)
(transform N7datalog22mk_subsumption_checkerE...no-op 0s)
(transform N7datalog15mk_rule_inlinerE...no-op 0s)
(transform N7datalog22mk_subsumption_checkerE...no-op 0s)
(transform N7datalog8mk_sliceE...no-op 0s)
expand: query!0 (0, 0) FAR  w(0) 1
This proof contains 0 Farkas lemmas. 0 Farkas lemmas participate in the lowest cut
. F 0.00
(spacer::context::check_reachability :time 0.00 :before-memory 5.09 :after-memory 5.60)
Entering level 1
BRUNCH_STAT max_query_lvl 0
BRUNCH_STAT num_queries 0
BRUNCH_STAT num_reach_queries 0
BRUNCH_STAT num_reach_reuse 0
BRUNCH_STAT inductive_lvl 0
BRUNCH_STAT max_depth 1
BRUNCH_STAT cex_depth 0
expand: query!0 (1, 0) FAR  w(0) 1.
	create_child: MAIN (0, 1) FAR 6463 U 0.00
expand: MAIN (0, 0) FAR  w(0) 6463
This proof contains 0 Farkas lemmas. 0 Farkas lemmas participate in the lowest cut
. F 0.00
expand: query!0 (1, 0) FAR  w(0) 1
This proof contains 0 Farkas lemmas. 0 Farkas lemmas participate in the lowest cut
. F 0.00
(spacer::context::check_reachability :time 0.00 :before-memory 5.60 :after-memory 6.54)
Propagating: 0 1  ! 2 
(spacer::context::propagate :time 0.00 :before-memory 6.54 :after-memory 6.54)
Entering level 2
BRUNCH_STAT max_query_lvl 1
BRUNCH_STAT num_queries 1
BRUNCH_STAT num_reach_queries 0
BRUNCH_STAT num_reach_reuse 0
BRUNCH_STAT inductive_lvl 0
BRUNCH_STAT max_depth 2
BRUNCH_STAT cex_depth 0
expand: query!0 (2, 0) FAR  w(0) 1.
	create_child: MAIN (1, 2) FAR 6463 U 0.00
expand: MAIN (1, 0) FAR  w(0) 6463.
	create_child: MAIN (0, 2) FAR 10072 U 0.00
expand: MAIN (0, 0) FAR  w(0) 10072
This proof contains 0 Farkas lemmas. 0 Farkas lemmas participate in the lowest cut
. F 0.00
expand: MAIN (1, 0) FAR  w(0) 6463.
	create_child: MAIN (0, 2) FAR 10219 U 0.00
expand: MAIN (0, 0) FAR  w(0) 10219
This proof contains 0 Farkas lemmas. 0 Farkas lemmas participate in the lowest cut
. F 0.00
expand: MAIN (1, 0) FAR  w(0) 6463.
	create_child: MAIN (0, 2) FAR 10109 U 0.00
expand: MAIN (0, 0) FAR  w(0) 10109
This proof contains 0 Farkas lemmas. 0 Farkas lemmas participate in the lowest cut
. F 0.00
expand: MAIN (1, 0) FAR  w(0) 6463.
	create_child: MAIN (0, 2) FAR 10319 U 0.00
expand: MAIN (0, 0) FAR  w(0) 10319
This proof contains 0 Farkas lemmas. 0 Farkas lemmas participate in the lowest cut
. F 0.00
expand: MAIN (1, 0) FAR  w(0) 6463.
	create_child: MAIN (0, 2) FAR 10194 U 0.00
expand: MAIN (0, 0) FAR  w(0) 10194
This proof contains 0 Farkas lemmas. 0 Farkas lemmas participate in the lowest cut
. F 0.00
expand: MAIN (1, 0) FAR  w(0) 6463.
	create_child: MAIN (0, 2) FAR 10424 U 0.00
expand: MAIN (0, 0) FAR  w(0) 10424
This proof contains 0 Farkas lemmas. 0 Farkas lemmas participate in the lowest cut
. F 0.00
expand: MAIN (1, 0) FAR  w(0) 6463.
	create_child: MAIN (0, 2) FAR 10469 U 0.00
expand: MAIN (0, 0) FAR  w(0) 10469
This proof contains 0 Farkas lemmas. 0 Farkas lemmas participate in the lowest cut
. F 0.00
expand: MAIN (1, 0) FAR  w(0) 6463.
	create_child: MAIN (0, 2) FAR 10496 U 0.00
expand: MAIN (0, 0) FAR  w(0) 10496
This proof contains 0 Farkas lemmas. 0 Farkas lemmas participate in the lowest cut
. F 0.00
expand: MAIN (1, 0) FAR  w(0) 6463.
	create_child: MAIN (0, 2) FAR 10683 U 0.00
expand: MAIN (0, 0) FAR  w(0) 10683
This proof contains 0 Farkas lemmas. 0 Farkas lemmas participate in the lowest cut
. F 0.00
expand: MAIN (1, 0) FAR  w(0) 6463.
	create_child: MAIN (0, 2) FAR 10564 U 0.00
expand: MAIN (0, 0) FAR  w(0) 10564
This proof contains 0 Farkas lemmas. 0 Farkas lemmas participate in the lowest cut
. F 0.00
expand: MAIN (1, 0) FAR  w(0) 6463.
	create_child: MAIN (0, 2) FAR 10789 U 0.00
expand: MAIN (0, 0) FAR  w(0) 10789
This proof contains 0 Farkas lemmas. 0 Farkas lemmas participate in the lowest cut
. F 0.00
expand: MAIN (1, 0) FAR  w(0) 6463.
	create_child: MAIN (0, 2) FAR 10809 U 0.00
expand: MAIN (0, 0) FAR  w(0) 10809
This proof contains 0 Farkas lemmas. 0 Farkas lemmas participate in the lowest cut
. F 0.00
expand: MAIN (1, 0) FAR  w(0) 6463.
	create_child: MAIN (0, 2) FAR 10947 U 0.00
expand: MAIN (0, 0) FAR  w(0) 10947
This proof contains 0 Farkas lemmas. 0 Farkas lemmas participate in the lowest cut
. F 0.00
expand: MAIN (1, 0) FAR  w(0) 6463.
	create_child: MAIN (0, 2) FAR 10990 U 0.00
expand: MAIN (0, 0) FAR  w(0) 10990
This proof contains 0 Farkas lemmas. 0 Farkas lemmas participate in the lowest cut
. F 0.00
expand: MAIN (1, 0) FAR  w(0) 6463.
	create_child: MAIN (0, 2) FAR 11109 U 0.00
expand: MAIN (0, 0) FAR  w(0) 11109
This proof contains 0 Farkas lemmas. 0 Farkas lemmas participate in the lowest cut
. F 0.00
expand: MAIN (1, 0) FAR  w(0) 6463.
	create_child: MAIN (0, 2) FAR 11134 U 0.00
expand: MAIN (0, 0) FAR  w(0) 11134
This proof contains 0 Farkas lemmas. 0 Farkas lemmas participate in the lowest cut
. F 0.00
expand: MAIN (1, 0) FAR  w(0) 6463.
	create_child: MAIN (0, 2) FAR 11220 U 0.00
expand: MAIN (0, 0) FAR  w(0) 11220
This proof contains 0 Farkas lemmas. 0 Farkas lemmas participate in the lowest cut
. F 0.00
expand: MAIN (1, 0) FAR  w(0) 6463.
	create_child: MAIN (0, 2) FAR 11347 U 0.00
expand: MAIN (0, 0) FAR  w(0) 11347
This proof contains 0 Farkas lemmas. 0 Farkas lemmas participate in the lowest cut
. F 0.00
expand: MAIN (1, 0) FAR  w(0) 6463.
	create_child: MAIN (0, 2) FAR 11423 U 0.00
expand: MAIN (0, 0) FAR  w(0) 11423
This proof contains 0 Farkas lemmas. 0 Farkas lemmas participate in the lowest cut
. F 0.00
expand: MAIN (1, 0) FAR  w(0) 6463.
	create_child: MAIN (0, 2) FAR 11525 U 0.00
expand: MAIN (0, 0) FAR  w(0) 11525
This proof contains 0 Farkas lemmas. 0 Farkas lemmas participate in the lowest cut
. F 0.00
expand: MAIN (1, 0) FAR  w(0) 6463.
	create_child: MAIN (0, 2) FAR 11627 U 0.00
expand: MAIN (0, 0) FAR  w(0) 11627
This proof contains 0 Farkas lemmas. 0 Farkas lemmas participate in the lowest cut
. F 0.00
expand: MAIN (1, 0) FAR  w(0) 6463.
	create_child: MAIN (0, 2) FAR 11731 U 0.00
expand: MAIN (0, 0) FAR  w(0) 11731
This proof contains 0 Farkas lemmas. 0 Farkas lemmas participate in the lowest cut
. F 0.00
expand: MAIN (1, 0) FAR  w(0) 6463.
	create_child: MAIN (0, 2) FAR 11752 U 0.00
expand: MAIN (0, 0) FAR  w(0) 11752
This proof contains 0 Farkas lemmas. 0 Farkas lemmas participate in the lowest cut
. F 0.00
expand: MAIN (1, 0) FAR  w(0) 6463.
	create_child: MAIN (0, 2) FAR 11890 U 0.00
expand: MAIN (0, 0) FAR  w(0) 11890
This proof contains 0 Farkas lemmas. 0 Farkas lemmas participate in the lowest cut
. F 0.00
expand: MAIN (1, 0) FAR  w(0) 6463.
	create_child: MAIN (0, 2) FAR 12037 U 0.00
expand: MAIN (0, 0) FAR  w(0) 12037
This proof contains 0 Farkas lemmas. 0 Farkas lemmas participate in the lowest cut
. F 0.00
expand: MAIN (1, 0) FAR  w(0) 6463.
	create_child: MAIN (0, 2) FAR 12112 U 0.00
expand: MAIN (0, 0) FAR  w(0) 12112
This proof contains 0 Farkas lemmas. 0 Farkas lemmas participate in the lowest cut
. F 0.00
expand: MAIN (1, 0) FAR  w(0) 6463.
	create_child: MAIN (0, 2) FAR 12169 U 0.00
expand: MAIN (0, 0) FAR  w(0) 12169
This proof contains 0 Farkas lemmas. 0 Farkas lemmas participate in the lowest cut
. F 0.00
expand: MAIN (1, 0) FAR  w(0) 6463.
	create_child: MAIN (0, 2) FAR 12318 U 0.00
expand: MAIN (0, 0) FAR  w(0) 12318
This proof contains 0 Farkas lemmas. 0 Farkas lemmas participate in the lowest cut
. F 0.00
expand: MAIN (1, 0) FAR  w(0) 6463.
	create_child: MAIN (0, 2) FAR 12576 U 0.00
expand: MAIN (0, 0) FAR  w(0) 12576
This proof contains 0 Farkas lemmas. 0 Farkas lemmas participate in the lowest cut
. F 0.00
expand: MAIN (1, 0) FAR  w(0) 6463.
	create_child: MAIN (0, 2) FAR 12629 U 0.00
expand: MAIN (0, 0) FAR  w(0) 12629
This proof contains 0 Farkas lemmas. 0 Farkas lemmas participate in the lowest cut
. F 0.00
expand: MAIN (1, 0) FAR  w(0) 6463.
	create_child: MAIN (0, 2) FAR 12734 U 0.00
expand: MAIN (0, 0) FAR  w(0) 12734
This proof contains 0 Farkas lemmas. 0 Farkas lemmas participate in the lowest cut
. F 0.00
expand: MAIN (1, 0) FAR  w(0) 6463.
	create_child: MAIN (0, 2) FAR 12959 U 0.00
expand: MAIN (0, 0) FAR  w(0) 12959
This proof contains 0 Farkas lemmas. 0 Farkas lemmas participate in the lowest cut
. F 0.00
expand: MAIN (1, 0) FAR  w(0) 6463.
	create_child: MAIN (0, 2) FAR 13036 U 0.00
expand: MAIN (0, 0) FAR  w(0) 13036
This proof contains 0 Farkas lemmas. 0 Farkas lemmas participate in the lowest cut
. F 0.00
expand: MAIN (1, 0) FAR  w(0) 6463.
	create_child: MAIN (0, 2) FAR 13105 U 0.00
expand: MAIN (0, 0) FAR  w(0) 13105
This proof contains 0 Farkas lemmas. 0 Farkas lemmas participate in the lowest cut
. F 0.00
expand: MAIN (1, 0) FAR  w(0) 6463.
	create_child: MAIN (0, 2) FAR 13175 U 0.00
expand: MAIN (0, 0) FAR  w(0) 13175
This proof contains 0 Farkas lemmas. 0 Farkas lemmas participate in the lowest cut
. F 0.00
expand: MAIN (1, 0) FAR  w(0) 6463.
	create_child: MAIN (0, 2) FAR 13379 U 0.00
expand: MAIN (0, 0) FAR  w(0) 13379
This proof contains 0 Farkas lemmas. 0 Farkas lemmas participate in the lowest cut
. F 0.00
expand: MAIN (1, 0) FAR  w(0) 6463
This proof contains 0 Farkas lemmas. 0 Farkas lemmas participate in the lowest cut
. F 0.00
expand: query!0 (2, 0) FAR  w(0) 1
This proof contains 0 Farkas lemmas. 0 Farkas lemmas participate in the lowest cut
. F 0.00
(spacer::context::check_reachability :time 0.08 :before-memory 6.54 :after-memory 7.41)
Propagating: 0 1 2  ! 3 
(spacer::context::propagate :time 0.01 :before-memory 7.41 :after-memory 7.60)
Entering level 3
BRUNCH_STAT max_query_lvl 2
BRUNCH_STAT num_queries 38
BRUNCH_STAT num_reach_queries 0
BRUNCH_STAT num_reach_reuse 0
BRUNCH_STAT inductive_lvl 0
BRUNCH_STAT max_depth 3
BRUNCH_STAT cex_depth 0
expand: query!0 (3, 0) FAR  w(0) 1.
	create_child: MAIN (2, 3) FAR 6463 U 0.00
expand: MAIN (2, 0) FAR  w(0) 6463.
	create_child: MAIN (1, 3) FAR 18632 U 0.00
expand: MAIN (1, 0) FAR  w(0) 18632
This proof contains 0 Farkas lemmas. 0 Farkas lemmas participate in the lowest cut
. F 0.00
expand: MAIN (2, 0) FAR  w(0) 6463.
	create_child: MAIN (1, 3) FAR 18873 U 0.00
expand: MAIN (1, 0) FAR  w(0) 18873
This proof contains 0 Farkas lemmas. 0 Farkas lemmas participate in the lowest cut
. F 0.00
expand: MAIN (2, 0) FAR  w(0) 6463.
	create_child: MAIN (1, 3) FAR 19168 U 0.00
expand: MAIN (1, 0) FAR  w(0) 19168. T 0.00
is-reachable: MAIN (2, 0) FAR 6463 T 0.00
is-reachable: query!0 (3, 0) FAR 1 T 0.00
(spacer::context::check_reachability :time 0.02 :before-memory 7.60 :after-memory 8.09)
BRUNCH_STAT max_query_lvl 3
BRUNCH_STAT num_queries 42
BRUNCH_STAT num_reach_queries 3
BRUNCH_STAT num_reach_reuse 1
BRUNCH_STAT inductive_lvl 0
BRUNCH_STAT max_depth 3
BRUNCH_STAT cex_depth 3
(:SPACER-cex-depth                     3
 :SPACER-max-depth                     3
 :SPACER-max-query-lvl                 3
 :SPACER-num-invariants                29
 :SPACER-num-lemmas                    43
 :SPACER-num-properties                40
 :SPACER-num-queries                   42
 :SPACER-num-reach-queries             3
 :SPACER-num-reuse-reach-facts         1
 :bool-inductive-gen                   40
 :bool-inductive-gen-failures          66
 :conflicts                            245
 :decisions                            6946
 :final-checks                         108
 :minimized-lits                       114
 :mk-bool-var                          1480
 :mk-clause                            3002
 :num-checks                           275
 :propagations                         67674
 :time.itp_solver.itp_core             0.01
 :time.spacer.init_rules               0.00
 :time.spacer.init_rules.pt.init       0.00
 :time.spacer.solve                    0.11
 :time.spacer.solve.propagate          0.01
 :time.spacer.solve.reach              0.10
 :time.spacer.solve.reach.children     0.03
 :time.spacer.solve.reach.gen.bool_ind 0.02
 :time.spacer.solve.reach.is-reach     0.01
 :time.virtual_solver.proof            0.00
 :time.virtual_solver.smt.total        0.07
 :time.virtual_solver.smt.total.sat    0.03
 :virtual_solver.checks                275
 :virtual_solver.checks.sat            108)
BRUNCH_STAT max_query_lvl 3
BRUNCH_STAT num_queries 42
BRUNCH_STAT num_reach_queries 3
BRUNCH_STAT num_reach_reuse 1
BRUNCH_STAT inductive_lvl 0
BRUNCH_STAT max_depth 3
BRUNCH_STAT cex_depth 3

real	0m0.166s
user	0m0.156s
sys	0m0.008s
