(transform N7datalog13mk_coi_filterE...no-op 0s)
(transform N7datalog25mk_interp_tail_simplifierE...12 rules 0s)
(transform N7datalog27mk_quantifier_instantiationE...no-op 0s)
(transform N7datalog8mk_scaleE...no-op 0s)
(transform N7datalog18mk_karr_invariantsE...no-op 0s)
(transform N7datalog14mk_array_blastE...no-op 0s)
(transform N7datalog22mk_subsumption_checkerE...11 rules 0s)
(transform N7datalog12mk_bit_blastE...no-op 0s)
(transform N7datalog15mk_rule_inlinerE...3 rules 0.00161315s)
(transform N7datalog13mk_coi_filterE...no-op 0s)
(transform N7datalog25mk_interp_tail_simplifierE...3 rules 0s)
(transform N7datalog22mk_subsumption_checkerE...no-op 0s)
(transform N7datalog15mk_rule_inlinerE...no-op 0s)
(transform N7datalog13mk_coi_filterE...no-op 0s)
(transform N7datalog25mk_interp_tail_simplifierE...3 rules 0s)
(transform N7datalog22mk_subsumption_checkerE...no-op 0s)
(transform N7datalog15mk_rule_inlinerE...no-op 0s)
(transform N7datalog22mk_subsumption_checkerE...no-op 0s)
(transform N7datalog15mk_rule_inlinerE...no-op 0s)
(transform N7datalog22mk_subsumption_checkerE...no-op 0s)
(transform N7datalog15mk_rule_inlinerE...no-op 0s)
(transform N7datalog22mk_subsumption_checkerE...no-op 0s)
(transform N7datalog8mk_sliceE...no-op 0s)
expand: query!0 (0, 0) FAR  w(0) 1. F 0.00
(spacer::context::check_reachability :time 0.00 :before-memory 4.21 :after-memory 4.73)
Entering level 1
BRUNCH_STAT max_query_lvl 0
BRUNCH_STAT num_queries 0
BRUNCH_STAT num_reach_queries 0
BRUNCH_STAT num_reach_reuse 0
BRUNCH_STAT inductive_lvl 0
BRUNCH_STAT max_depth 1
BRUNCH_STAT cex_depth 0
expand: query!0 (1, 0) FAR  w(0) 1.
	create_child: MAIN (0, 1) FAR 1338 U 0.00
expand: MAIN (0, 0) FAR  w(0) 1338. F 0.00
expand: query!0 (1, 0) FAR  w(0) 1. F 0.00
(spacer::context::check_reachability :time 0.00 :before-memory 4.73 :after-memory 5.33)
Propagating: 0 1  ! 2 
(spacer::context::propagate :time 0.00 :before-memory 5.33 :after-memory 5.33)
Entering level 2
BRUNCH_STAT max_query_lvl 1
BRUNCH_STAT num_queries 1
BRUNCH_STAT num_reach_queries 0
BRUNCH_STAT num_reach_reuse 0
BRUNCH_STAT inductive_lvl 0
BRUNCH_STAT max_depth 2
BRUNCH_STAT cex_depth 0
expand: query!0 (2, 0) FAR  w(0) 1.
	create_child: MAIN (1, 2) FAR 1338 U 0.00
expand: MAIN (1, 0) FAR  w(0) 1338.
	create_child: MAIN (0, 2) FAR 2295 U 0.00
expand: MAIN (0, 0) FAR  w(0) 2295. F 0.00
expand: MAIN (1, 0) FAR  w(0) 1338. F 0.00
expand: query!0 (2, 0) FAR  w(0) 1. F 0.00
(spacer::context::check_reachability :time 0.00 :before-memory 5.33 :after-memory 5.33)
Propagating: 0 1 2  ! 3 
(spacer::context::propagate :time 0.00 :before-memory 5.33 :after-memory 5.33)
Entering level 3
BRUNCH_STAT max_query_lvl 2
BRUNCH_STAT num_queries 3
BRUNCH_STAT num_reach_queries 0
BRUNCH_STAT num_reach_reuse 0
BRUNCH_STAT inductive_lvl 0
BRUNCH_STAT max_depth 3
BRUNCH_STAT cex_depth 0
expand: query!0 (3, 0) FAR  w(0) 1.
	create_child: MAIN (2, 3) FAR 1338 U 0.00
expand: MAIN (2, 0) FAR  w(0) 1338.
	create_child: MAIN (1, 3) FAR 2545 U 0.00
expand: MAIN (1, 0) FAR  w(0) 2545. F 0.00
expand: MAIN (2, 0) FAR  w(0) 1338.
	create_child: MAIN (1, 3) FAR 2778 U 0.00
expand: MAIN (1, 0) FAR  w(0) 2778. F 0.00
expand: MAIN (2, 0) FAR  w(0) 1338.
	create_child: MAIN (1, 3) FAR 2867 U 0.00
expand: MAIN (1, 0) FAR  w(0) 2867.
	create_child: MAIN (0, 3) FAR 2900 U 0.00
expand: MAIN (0, 0) FAR  w(0) 2900. F 0.00
expand: MAIN (1, 0) FAR  w(0) 2867.
	create_child: MAIN (0, 3) FAR 3115 U 0.00
expand: MAIN (0, 0) FAR  w(0) 3115. F 0.00
expand: MAIN (1, 0) FAR  w(0) 2867.
	create_child: MAIN (0, 3) FAR 3167 U 0.00
expand: MAIN (0, 0) FAR  w(0) 3167. F 0.00
expand: MAIN (1, 0) FAR  w(0) 2867. F 0.00
expand: MAIN (2, 0) FAR  w(0) 1338.
	create_child: MAIN (1, 3) FAR 3258 U 0.00
expand: MAIN (1, 0) FAR  w(0) 3258. F 0.00
expand: MAIN (2, 0) FAR  w(0) 1338.
	create_child: MAIN (1, 3) FAR 3214 U 0.00
expand: MAIN (1, 0) FAR  w(0) 3214. F 0.00
expand: MAIN (2, 0) FAR  w(0) 1338. F 0.00
expand: query!0 (3, 0) FAR  w(0) 1. F 0.00
(spacer::context::check_reachability :time 0.01 :before-memory 5.33 :after-memory 5.59)
Propagating: 0 1 2 3  ! 4 
(spacer::context::propagate :time 0.00 :before-memory 5.59 :after-memory 5.59)
Entering level 4
BRUNCH_STAT max_query_lvl 3
BRUNCH_STAT num_queries 12
BRUNCH_STAT num_reach_queries 0
BRUNCH_STAT num_reach_reuse 0
BRUNCH_STAT inductive_lvl 0
BRUNCH_STAT max_depth 4
BRUNCH_STAT cex_depth 0
expand: query!0 (4, 0) FAR  w(0) 1.
	create_child: MAIN (3, 4) FAR 1338 U 0.00
expand: MAIN (3, 0) FAR  w(0) 1338.
	create_child: MAIN (2, 4) FAR 3618 U 0.00
expand: MAIN (2, 0) FAR  w(0) 3618. F 0.00
expand: MAIN (3, 0) FAR  w(0) 1338.
	create_child: MAIN (2, 4) FAR 3640 U 0.00
expand: MAIN (2, 0) FAR  w(0) 3640. F 0.00
expand: MAIN (3, 0) FAR  w(0) 1338.
	create_child: MAIN (2, 4) FAR 3214 U 0.00
expand: MAIN (2, 0) FAR  w(0) 3214. F 0.00
expand: MAIN (3, 0) FAR  w(0) 1338.
	create_child: MAIN (2, 4) FAR 3802 U 0.00
expand: MAIN (2, 0) FAR  w(0) 3802.
	create_child: MAIN (1, 4) FAR 3167 U 0.00
expand: MAIN (1, 0) FAR  w(0) 3167. F 0.00
expand: MAIN (2, 0) FAR  w(0) 3802. F 0.00
expand: MAIN (3, 0) FAR  w(0) 1338. F 0.00
expand: query!0 (4, 0) FAR  w(0) 1. F 0.00
(spacer::context::check_reachability :time 0.01 :before-memory 5.59 :after-memory 5.69)
Propagating: 1 2 3 4  ! 5 
(spacer::context::propagate :time 0.00 :before-memory 5.69 :after-memory 5.69)
Entering level 5
BRUNCH_STAT max_query_lvl 4
BRUNCH_STAT num_queries 18
BRUNCH_STAT num_reach_queries 0
BRUNCH_STAT num_reach_reuse 0
BRUNCH_STAT inductive_lvl 0
BRUNCH_STAT max_depth 5
BRUNCH_STAT cex_depth 0
expand: query!0 (5, 0) FAR  w(0) 1.
	create_child: MAIN (4, 5) FAR 1338 U 0.00
expand: MAIN (4, 0) FAR  w(0) 1338.
	create_child: MAIN (3, 5) FAR 3802 U 0.00
expand: MAIN (3, 0) FAR  w(0) 3802.
	create_child: MAIN (2, 5) FAR 3167 U 0.00
expand: MAIN (2, 0) FAR  w(0) 3167.
	create_child: MAIN (1, 5) FAR 4096 U 0.00
expand: MAIN (1, 0) FAR  w(0) 4096. F 0.00
expand: MAIN (2, 0) FAR  w(0) 3167. F 0.00
expand: MAIN (3, 0) FAR  w(0) 3802. F 0.00
expand: MAIN (4, 0) FAR  w(0) 1338. F 0.00
expand: query!0 (5, 0) FAR  w(0) 1. F 0.00
(spacer::context::check_reachability :time 0.01 :before-memory 5.69 :after-memory 5.69)
Propagating: 1 2 3 4 5  ! 6 
(spacer::context::propagate :time 0.00 :before-memory 5.69 :after-memory 5.69)
Entering level 6
BRUNCH_STAT max_query_lvl 5
BRUNCH_STAT num_queries 22
BRUNCH_STAT num_reach_queries 0
BRUNCH_STAT num_reach_reuse 0
BRUNCH_STAT inductive_lvl 0
BRUNCH_STAT max_depth 6
BRUNCH_STAT cex_depth 0
expand: query!0 (6, 0) FAR  w(0) 1.
	create_child: MAIN (5, 6) FAR 1338 U 0.00
expand: MAIN (5, 0) FAR  w(0) 1338.
	create_child: MAIN (4, 6) FAR 3802 U 0.00
expand: MAIN (4, 0) FAR  w(0) 3802.
	create_child: MAIN (3, 6) FAR 4836 U 0.00
expand: MAIN (3, 0) FAR  w(0) 4836. F 0.00
expand: MAIN (4, 0) FAR  w(0) 3802.
	create_child: MAIN (3, 6) FAR 3167 U 0.00
expand: MAIN (3, 0) FAR  w(0) 3167.
	create_child: MAIN (2, 6) FAR 4096 U 0.00
expand: MAIN (2, 0) FAR  w(0) 4096.
	create_child: MAIN (1, 6) FAR 4889 U 0.00
expand: MAIN (1, 0) FAR  w(0) 4889. F 0.00
expand: MAIN (2, 0) FAR  w(0) 4096. F 0.00
expand: MAIN (3, 0) FAR  w(0) 3167. F 0.00
expand: MAIN (4, 0) FAR  w(0) 3802. F 0.00
expand: MAIN (5, 0) FAR  w(0) 1338. F 0.00
expand: query!0 (6, 0) FAR  w(0) 1. F 0.00
(spacer::context::check_reachability :time 0.01 :before-memory 5.69 :after-memory 5.78)
Propagating: 1 2 3 4 5 6  ! 7 
(spacer::context::propagate :time 0.00 :before-memory 5.78 :after-memory 5.78)
Entering level 7
BRUNCH_STAT max_query_lvl 6
BRUNCH_STAT num_queries 28
BRUNCH_STAT num_reach_queries 0
BRUNCH_STAT num_reach_reuse 0
BRUNCH_STAT inductive_lvl 0
BRUNCH_STAT max_depth 7
BRUNCH_STAT cex_depth 0
expand: query!0 (7, 0) FAR  w(0) 1.
	create_child: MAIN (6, 7) FAR 1338 U 0.00
expand: MAIN (6, 0) FAR  w(0) 1338.
	create_child: MAIN (5, 7) FAR 3802 U 0.00
expand: MAIN (5, 0) FAR  w(0) 3802.
	create_child: MAIN (4, 7) FAR 3167 U 0.00
expand: MAIN (4, 0) FAR  w(0) 3167.
	create_child: MAIN (3, 7) FAR 4096 U 0.00
expand: MAIN (3, 0) FAR  w(0) 4096.
	create_child: MAIN (2, 7) FAR 4889 U 0.00
expand: MAIN (2, 0) FAR  w(0) 4889.
	create_child: MAIN (1, 7) FAR 5455 U 0.00
expand: MAIN (1, 0) FAR  w(0) 5455. F 0.00
expand: MAIN (2, 0) FAR  w(0) 4889. F 0.00
expand: MAIN (3, 0) FAR  w(0) 4096. F 0.00
expand: MAIN (4, 0) FAR  w(0) 3167. F 0.00
expand: MAIN (5, 0) FAR  w(0) 3802. F 0.00
expand: MAIN (6, 0) FAR  w(0) 1338. F 0.00
expand: query!0 (7, 0) FAR  w(0) 1. F 0.00
(spacer::context::check_reachability :time 0.01 :before-memory 5.78 :after-memory 5.88)
Propagating: 1 2 3 4 5 6 7  ! 8 
(spacer::context::propagate :time 0.00 :before-memory 5.88 :after-memory 6.05)
Entering level 8
BRUNCH_STAT max_query_lvl 7
BRUNCH_STAT num_queries 34
BRUNCH_STAT num_reach_queries 0
BRUNCH_STAT num_reach_reuse 0
BRUNCH_STAT inductive_lvl 0
BRUNCH_STAT max_depth 8
BRUNCH_STAT cex_depth 0
expand: query!0 (8, 0) FAR  w(0) 1.
	create_child: MAIN (7, 8) FAR 1338 U 0.00
expand: MAIN (7, 0) FAR  w(0) 1338.
	create_child: MAIN (6, 8) FAR 3802 U 0.00
expand: MAIN (6, 0) FAR  w(0) 3802.
	create_child: MAIN (5, 8) FAR 3167 U 0.00
expand: MAIN (5, 0) FAR  w(0) 3167.
	create_child: MAIN (4, 8) FAR 4096 U 0.00
expand: MAIN (4, 0) FAR  w(0) 4096.
	create_child: MAIN (3, 8) FAR 4889 U 0.00
expand: MAIN (3, 0) FAR  w(0) 4889.
	create_child: MAIN (2, 8) FAR 5455 U 0.00
expand: MAIN (2, 0) FAR  w(0) 5455.
	create_child: MAIN (1, 8) FAR 6034 U 0.00
expand: MAIN (1, 0) FAR  w(0) 6034. F 0.00
expand: MAIN (2, 0) FAR  w(0) 5455. F 0.00
expand: MAIN (3, 0) FAR  w(0) 4889. F 0.00
expand: MAIN (4, 0) FAR  w(0) 4096. F 0.00
expand: MAIN (5, 0) FAR  w(0) 3167. F 0.00
expand: MAIN (6, 0) FAR  w(0) 3802. F 0.00
expand: MAIN (7, 0) FAR  w(0) 1338. F 0.00
expand: query!0 (8, 0) FAR  w(0) 1. F 0.00
(spacer::context::check_reachability :time 0.01 :before-memory 6.05 :after-memory 6.05)
Propagating: 1 2 3 4 5 6 7 8  ! 9 
(spacer::context::propagate :time 0.00 :before-memory 6.05 :after-memory 6.05)
Entering level 9
BRUNCH_STAT max_query_lvl 8
BRUNCH_STAT num_queries 41
BRUNCH_STAT num_reach_queries 0
BRUNCH_STAT num_reach_reuse 0
BRUNCH_STAT inductive_lvl 0
BRUNCH_STAT max_depth 9
BRUNCH_STAT cex_depth 0
expand: query!0 (9, 0) FAR  w(0) 1.
	create_child: MAIN (8, 9) FAR 1338 U 0.00
expand: MAIN (8, 0) FAR  w(0) 1338.
	create_child: MAIN (7, 9) FAR 3802 U 0.00
expand: MAIN (7, 0) FAR  w(0) 3802.
	create_child: MAIN (6, 9) FAR 3167 U 0.00
expand: MAIN (6, 0) FAR  w(0) 3167.
	create_child: MAIN (5, 9) FAR 4096 U 0.00
expand: MAIN (5, 0) FAR  w(0) 4096.
	create_child: MAIN (4, 9) FAR 4889 U 0.00
expand: MAIN (4, 0) FAR  w(0) 4889.
	create_child: MAIN (3, 9) FAR 5455 U 0.00
expand: MAIN (3, 0) FAR  w(0) 5455.
	create_child: MAIN (2, 9) FAR 6034 U 0.00
expand: MAIN (2, 0) FAR  w(0) 6034.
	create_child: MAIN (1, 9) FAR 6611 U 0.00
expand: MAIN (1, 0) FAR  w(0) 6611. F 0.00
expand: MAIN (2, 0) FAR  w(0) 6034. F 0.00
expand: MAIN (3, 0) FAR  w(0) 5455. F 0.00
expand: MAIN (4, 0) FAR  w(0) 4889. F 0.00
expand: MAIN (5, 0) FAR  w(0) 4096. F 0.00
expand: MAIN (6, 0) FAR  w(0) 3167. F 0.00
expand: MAIN (7, 0) FAR  w(0) 3802. F 0.00
expand: MAIN (8, 0) FAR  w(0) 1338. F 0.00
expand: query!0 (9, 0) FAR  w(0) 1. F 0.00
(spacer::context::check_reachability :time 0.02 :before-memory 6.05 :after-memory 6.14)
Propagating: 1 2 3 4 5 6 7 8 9  ! 10 
(spacer::context::propagate :time 0.00 :before-memory 6.14 :after-memory 6.14)
Entering level 10
BRUNCH_STAT max_query_lvl 9
BRUNCH_STAT num_queries 49
BRUNCH_STAT num_reach_queries 0
BRUNCH_STAT num_reach_reuse 0
BRUNCH_STAT inductive_lvl 0
BRUNCH_STAT max_depth 10
BRUNCH_STAT cex_depth 0
expand: query!0 (10, 0) FAR  w(0) 1.
	create_child: MAIN (9, 10) FAR 1338 U 0.00
expand: MAIN (9, 0) FAR  w(0) 1338.
	create_child: MAIN (8, 10) FAR 3802 U 0.00
expand: MAIN (8, 0) FAR  w(0) 3802.
	create_child: MAIN (7, 10) FAR 3167 U 0.00
expand: MAIN (7, 0) FAR  w(0) 3167.
	create_child: MAIN (6, 10) FAR 4096 U 0.00
expand: MAIN (6, 0) FAR  w(0) 4096.
	create_child: MAIN (5, 10) FAR 4889 U 0.00
expand: MAIN (5, 0) FAR  w(0) 4889.
	create_child: MAIN (4, 10) FAR 5455 U 0.00
expand: MAIN (4, 0) FAR  w(0) 5455.
	create_child: MAIN (3, 10) FAR 6034 U 0.00
expand: MAIN (3, 0) FAR  w(0) 6034.
	create_child: MAIN (2, 10) FAR 6611 U 0.00
expand: MAIN (2, 0) FAR  w(0) 6611.
	create_child: MAIN (1, 10) FAR 7227 U 0.00
expand: MAIN (1, 0) FAR  w(0) 7227. F 0.00
expand: MAIN (2, 0) FAR  w(0) 6611. F 0.00
expand: MAIN (3, 0) FAR  w(0) 6034. F 0.00
expand: MAIN (4, 0) FAR  w(0) 5455. F 0.00
expand: MAIN (5, 0) FAR  w(0) 4889. F 0.00
expand: MAIN (6, 0) FAR  w(0) 4096. F 0.00
expand: MAIN (7, 0) FAR  w(0) 3167. F 0.00
expand: MAIN (8, 0) FAR  w(0) 3802. F 0.00
expand: MAIN (9, 0) FAR  w(0) 1338. F 0.00
expand: query!0 (10, 0) FAR  w(0) 1. F 0.00
(spacer::context::check_reachability :time 0.02 :before-memory 6.14 :after-memory 6.24)
Propagating: 1 2 3 4 5 6 7 8 9 10  ! 11 
(spacer::context::propagate :time 0.00 :before-memory 6.24 :after-memory 6.24)
Entering level 11
BRUNCH_STAT max_query_lvl 10
BRUNCH_STAT num_queries 58
BRUNCH_STAT num_reach_queries 0
BRUNCH_STAT num_reach_reuse 0
BRUNCH_STAT inductive_lvl 0
BRUNCH_STAT max_depth 11
BRUNCH_STAT cex_depth 0
expand: query!0 (11, 0) FAR  w(0) 1.
	create_child: MAIN (10, 11) FAR 1338 U 0.00
expand: MAIN (10, 0) FAR  w(0) 1338.
	create_child: MAIN (9, 11) FAR 3802 U 0.00
expand: MAIN (9, 0) FAR  w(0) 3802.
	create_child: MAIN (8, 11) FAR 3167 U 0.00
expand: MAIN (8, 0) FAR  w(0) 3167.
	create_child: MAIN (7, 11) FAR 4096 U 0.00
expand: MAIN (7, 0) FAR  w(0) 4096.
	create_child: MAIN (6, 11) FAR 4889 U 0.00
expand: MAIN (6, 0) FAR  w(0) 4889.
	create_child: MAIN (5, 11) FAR 5455 U 0.00
expand: MAIN (5, 0) FAR  w(0) 5455.
	create_child: MAIN (4, 11) FAR 6034 U 0.00
expand: MAIN (4, 0) FAR  w(0) 6034.
	create_child: MAIN (3, 11) FAR 6611 U 0.00
expand: MAIN (3, 0) FAR  w(0) 6611.
	create_child: MAIN (2, 11) FAR 7227 U 0.00
expand: MAIN (2, 0) FAR  w(0) 7227.
	create_child: MAIN (1, 11) FAR 7964 U 0.00
expand: MAIN (1, 0) FAR  w(0) 7964. F 0.00
expand: MAIN (2, 0) FAR  w(0) 7227. F 0.00
expand: MAIN (3, 0) FAR  w(0) 6611. F 0.00
expand: MAIN (4, 0) FAR  w(0) 6034. F 0.00
expand: MAIN (5, 0) FAR  w(0) 5455. F 0.00
expand: MAIN (6, 0) FAR  w(0) 4889. F 0.00
expand: MAIN (7, 0) FAR  w(0) 4096. F 0.00
expand: MAIN (8, 0) FAR  w(0) 3167. F 0.00
expand: MAIN (9, 0) FAR  w(0) 3802. F 0.00
expand: MAIN (10, 0) FAR  w(0) 1338. F 0.00
expand: query!0 (11, 0) FAR  w(0) 1. F 0.00
(spacer::context::check_reachability :time 0.02 :before-memory 6.24 :after-memory 6.33)
Propagating: 1 2 3 4 5 6 7 8 9 10 11  ! 12 
(spacer::context::propagate :time 0.00 :before-memory 6.33 :after-memory 6.33)
Entering level 12
BRUNCH_STAT max_query_lvl 11
BRUNCH_STAT num_queries 68
BRUNCH_STAT num_reach_queries 0
BRUNCH_STAT num_reach_reuse 0
BRUNCH_STAT inductive_lvl 0
BRUNCH_STAT max_depth 12
BRUNCH_STAT cex_depth 0
expand: query!0 (12, 0) FAR  w(0) 1.
	create_child: MAIN (11, 12) FAR 1338 U 0.00
expand: MAIN (11, 0) FAR  w(0) 1338.
	create_child: MAIN (10, 12) FAR 3802 U 0.00
expand: MAIN (10, 0) FAR  w(0) 3802.
	create_child: MAIN (9, 12) FAR 3167 U 0.00
expand: MAIN (9, 0) FAR  w(0) 3167.
	create_child: MAIN (8, 12) FAR 4096 U 0.00
expand: MAIN (8, 0) FAR  w(0) 4096.
	create_child: MAIN (7, 12) FAR 4889 U 0.00
expand: MAIN (7, 0) FAR  w(0) 4889.
	create_child: MAIN (6, 12) FAR 5455 U 0.00
expand: MAIN (6, 0) FAR  w(0) 5455.
	create_child: MAIN (5, 12) FAR 6034 U 0.00
expand: MAIN (5, 0) FAR  w(0) 6034.
	create_child: MAIN (4, 12) FAR 6611 U 0.00
expand: MAIN (4, 0) FAR  w(0) 6611.
	create_child: MAIN (3, 12) FAR 7227 U 0.00
expand: MAIN (3, 0) FAR  w(0) 7227.
	create_child: MAIN (2, 12) FAR 7964 U 0.00
expand: MAIN (2, 0) FAR  w(0) 7964.
	create_child: MAIN (1, 12) FAR 8728 U 0.00
expand: MAIN (1, 0) FAR  w(0) 8728. T 0.00
is-reachable: MAIN (2, 0) FAR 7964 T 0.00
is-reachable: MAIN (3, 0) FAR 7227 T 0.00
is-reachable: MAIN (4, 0) FAR 6611 T 0.00
is-reachable: MAIN (5, 0) FAR 6034 T 0.00
is-reachable: MAIN (6, 0) FAR 5455 T 0.00
is-reachable: MAIN (7, 0) FAR 4889 T 0.00
is-reachable: MAIN (8, 0) FAR 4096 T 0.00
is-reachable: MAIN (9, 0) FAR 3167 T 0.00
is-reachable: MAIN (10, 0) FAR 3802 T 0.00
is-reachable: MAIN (11, 0) FAR 1338 T 0.00
is-reachable: query!0 (12, 0) FAR 1 T 0.00
(spacer::context::check_reachability :time 0.04 :before-memory 6.33 :after-memory 6.92)
BRUNCH_STAT max_query_lvl 12
BRUNCH_STAT num_queries 79
BRUNCH_STAT num_reach_queries 12
BRUNCH_STAT num_reach_reuse 1
BRUNCH_STAT inductive_lvl 0
BRUNCH_STAT max_depth 12
BRUNCH_STAT cex_depth 12
(:SPACER-cex-depth                     12
 :SPACER-max-depth                     12
 :SPACER-max-query-lvl                 12
 :SPACER-num-invariants                8
 :SPACER-num-lemmas                    80
 :SPACER-num-properties                21
 :SPACER-num-queries                   79
 :SPACER-num-reach-queries             12
 :SPACER-num-reuse-reach-facts         1
 :added-eqs                            3089
 :arith-assert-diseq                   3499
 :arith-assert-lower                   3951
 :arith-assert-upper                   6368
 :arith-bound-prop                     107
 :arith-conflicts                      6
 :arith-eq-adapter                     974
 :arith-fixed-eqs                      364
 :arith-offset-eqs                     116
 :arith-pivots                         40
 :bool-inductive-gen                   68
 :bool-inductive-gen-failures          34
 :conflicts                            311
 :decisions                            8004
 :del-clause                           110
 :final-checks                         218
 :minimized-lits                       1
 :mk-bool-var                          1967
 :mk-clause                            2304
 :num-checks                           494
 :propagations                         59200
 :time.itp_solver.itp_core             0.02
 :time.spacer.init_rules               0.00
 :time.spacer.init_rules.pt.init       0.00
 :time.spacer.solve                    0.19
 :time.spacer.solve.propagate          0.02
 :time.spacer.solve.reach              0.16
 :time.spacer.solve.reach.children     0.03
 :time.spacer.solve.reach.gen.bool_ind 0.03
 :time.spacer.solve.reach.is-reach     0.03
 :time.virtual_solver.proof            0.01
 :time.virtual_solver.smt.total        0.12
 :time.virtual_solver.smt.total.sat    0.06
 :virtual_solver.checks                494
 :virtual_solver.checks.sat            218)
BRUNCH_STAT max_query_lvl 12
BRUNCH_STAT num_queries 79
BRUNCH_STAT num_reach_queries 12
BRUNCH_STAT num_reach_reuse 1
BRUNCH_STAT inductive_lvl 0
BRUNCH_STAT max_depth 12
BRUNCH_STAT cex_depth 12

real	0m0.220s
user	0m0.208s
sys	0m0.008s
