(transform N7datalog13mk_coi_filterE...no-op 0s)
(transform N7datalog25mk_interp_tail_simplifierE...12 rules 0s)
(transform N7datalog27mk_quantifier_instantiationE...no-op 0s)
(transform N7datalog8mk_scaleE...no-op 0s)
(transform N7datalog18mk_karr_invariantsE...no-op 0s)
(transform N7datalog14mk_array_blastE...no-op 0s)
(transform N7datalog22mk_subsumption_checkerE...11 rules 0s)
(transform N7datalog12mk_bit_blastE...no-op 0s)
(transform N7datalog15mk_rule_inlinerE...3 rules 0.00148198s)
(transform N7datalog13mk_coi_filterE...no-op 0s)
(transform N7datalog25mk_interp_tail_simplifierE...3 rules 0s)
(transform N7datalog22mk_subsumption_checkerE...no-op 0s)
(transform N7datalog15mk_rule_inlinerE...no-op 0s)
(transform N7datalog13mk_coi_filterE...no-op 0s)
(transform N7datalog25mk_interp_tail_simplifierE...3 rules 0s)
(transform N7datalog22mk_subsumption_checkerE...no-op 0s)
(transform N7datalog15mk_rule_inlinerE...no-op 0s)
(transform N7datalog22mk_subsumption_checkerE...no-op 0s)
(transform N7datalog15mk_rule_inlinerE...no-op 0s)
(transform N7datalog22mk_subsumption_checkerE...no-op 0s)
(transform N7datalog15mk_rule_inlinerE...no-op 0s)
(transform N7datalog22mk_subsumption_checkerE...no-op 0s)
(transform N7datalog8mk_sliceE...no-op 0s)
expand: query!0 (0, 0) FAR  w(0) 1. F 0.00
(spacer::context::check_reachability :time 0.00 :before-memory 4.19 :after-memory 4.80)
Entering level 1
BRUNCH_STAT max_query_lvl 0
BRUNCH_STAT num_queries 0
BRUNCH_STAT num_reach_queries 0
BRUNCH_STAT num_reach_reuse 0
BRUNCH_STAT inductive_lvl 0
BRUNCH_STAT max_depth 1
BRUNCH_STAT cex_depth 0
expand: query!0 (1, 0) FAR  w(0) 1.
	create_child: MAIN (0, 1) FAR 1237 U 0.00
expand: MAIN (0, 0) FAR  w(0) 1237. F 0.00
expand: query!0 (1, 0) FAR  w(0) 1. F 0.00
(spacer::context::check_reachability :time 0.00 :before-memory 4.80 :after-memory 5.31)
Propagating: 0 1  ! 2 
(spacer::context::propagate :time 0.00 :before-memory 5.31 :after-memory 5.31)
Entering level 2
BRUNCH_STAT max_query_lvl 1
BRUNCH_STAT num_queries 1
BRUNCH_STAT num_reach_queries 0
BRUNCH_STAT num_reach_reuse 0
BRUNCH_STAT inductive_lvl 0
BRUNCH_STAT max_depth 2
BRUNCH_STAT cex_depth 0
expand: query!0 (2, 0) FAR  w(0) 1.
	create_child: MAIN (1, 2) FAR 1237 U 0.00
expand: MAIN (1, 0) FAR  w(0) 1237.
	create_child: MAIN (0, 2) FAR 2107 U 0.00
expand: MAIN (0, 0) FAR  w(0) 2107. F 0.00
expand: MAIN (1, 0) FAR  w(0) 1237.
	create_child: MAIN (0, 2) FAR 2165 U 0.00
expand: MAIN (0, 0) FAR  w(0) 2165. F 0.00
expand: MAIN (1, 0) FAR  w(0) 1237. F 0.00
expand: query!0 (2, 0) FAR  w(0) 1. F 0.00
(spacer::context::check_reachability :time 0.00 :before-memory 5.31 :after-memory 5.40)
Propagating: 0 1 2  ! 3 
(spacer::context::propagate :time 0.00 :before-memory 5.40 :after-memory 5.40)
Entering level 3
BRUNCH_STAT max_query_lvl 2
BRUNCH_STAT num_queries 4
BRUNCH_STAT num_reach_queries 0
BRUNCH_STAT num_reach_reuse 0
BRUNCH_STAT inductive_lvl 0
BRUNCH_STAT max_depth 3
BRUNCH_STAT cex_depth 0
expand: query!0 (3, 0) FAR  w(0) 1.
	create_child: MAIN (2, 3) FAR 1237 U 0.00
expand: MAIN (2, 0) FAR  w(0) 1237.
	create_child: MAIN (1, 3) FAR 2165 U 0.00
expand: MAIN (1, 0) FAR  w(0) 2165.
	create_child: MAIN (0, 3) FAR 2542 U 0.00
expand: MAIN (0, 0) FAR  w(0) 2542. F 0.00
expand: MAIN (1, 0) FAR  w(0) 2165. F 0.00
expand: MAIN (2, 0) FAR  w(0) 1237. F 0.00
expand: query!0 (3, 0) FAR  w(0) 1. F 0.00
(spacer::context::check_reachability :time 0.00 :before-memory 5.40 :after-memory 5.60)
Propagating: 0 1 2 3  ! 4 
(spacer::context::propagate :time 0.00 :before-memory 5.60 :after-memory 5.60)
Entering level 4
BRUNCH_STAT max_query_lvl 3
BRUNCH_STAT num_queries 7
BRUNCH_STAT num_reach_queries 0
BRUNCH_STAT num_reach_reuse 0
BRUNCH_STAT inductive_lvl 0
BRUNCH_STAT max_depth 4
BRUNCH_STAT cex_depth 0
expand: query!0 (4, 0) FAR  w(0) 1.
	create_child: MAIN (3, 4) FAR 1237 U 0.00
expand: MAIN (3, 0) FAR  w(0) 1237.
	create_child: MAIN (2, 4) FAR 2165 U 0.00
expand: MAIN (2, 0) FAR  w(0) 2165.
	create_child: MAIN (1, 4) FAR 2542 U 0.00
expand: MAIN (1, 0) FAR  w(0) 2542.
	create_child: MAIN (0, 4) FAR 2866 U 0.00
expand: MAIN (0, 0) FAR  w(0) 2866. F 0.00
expand: MAIN (1, 0) FAR  w(0) 2542
Matrix
1, 

. F 0.00
expand: MAIN (2, 0) FAR  w(0) 2165. F 0.00
expand: MAIN (3, 0) FAR  w(0) 1237. F 0.00
expand: query!0 (4, 0) FAR  w(0) 1. F 0.00
(spacer::context::check_reachability :time 0.01 :before-memory 5.60 :after-memory 5.58)
Propagating: 0 1 2 3 4  ! 5 
(spacer::context::propagate :time 0.00 :before-memory 5.58 :after-memory 5.58)
Entering level 5
BRUNCH_STAT max_query_lvl 4
BRUNCH_STAT num_queries 11
BRUNCH_STAT num_reach_queries 0
BRUNCH_STAT num_reach_reuse 0
BRUNCH_STAT inductive_lvl 0
BRUNCH_STAT max_depth 5
BRUNCH_STAT cex_depth 0
expand: query!0 (5, 0) FAR  w(0) 1.
	create_child: MAIN (4, 5) FAR 1237 U 0.00
expand: MAIN (4, 0) FAR  w(0) 1237.
	create_child: MAIN (3, 5) FAR 2165 U 0.00
expand: MAIN (3, 0) FAR  w(0) 2165.
	create_child: MAIN (2, 5) FAR 2542 U 0.00
expand: MAIN (2, 0) FAR  w(0) 2542.
	create_child: MAIN (1, 5) FAR 2866 U 0.00
expand: MAIN (1, 0) FAR  w(0) 2866.
	create_child: MAIN (0, 5) FAR 3216 U 0.00
expand: MAIN (0, 0) FAR  w(0) 3216. F 0.00
expand: MAIN (1, 0) FAR  w(0) 2866
Matrix
1, 

. F 0.00
expand: MAIN (2, 0) FAR  w(0) 2542. F 0.00
expand: MAIN (3, 0) FAR  w(0) 2165. F 0.00
expand: MAIN (4, 0) FAR  w(0) 1237. F 0.00
expand: query!0 (5, 0) FAR  w(0) 1. F 0.00
(spacer::context::check_reachability :time 0.01 :before-memory 5.58 :after-memory 5.61)
Propagating: 0 1 2 3 4 5  ! 6 
(spacer::context::propagate :time 0.00 :before-memory 5.61 :after-memory 5.61)
Entering level 6
BRUNCH_STAT max_query_lvl 5
BRUNCH_STAT num_queries 16
BRUNCH_STAT num_reach_queries 0
BRUNCH_STAT num_reach_reuse 0
BRUNCH_STAT inductive_lvl 0
BRUNCH_STAT max_depth 6
BRUNCH_STAT cex_depth 0
expand: query!0 (6, 0) FAR  w(0) 1.
	create_child: MAIN (5, 6) FAR 1237 U 0.00
expand: MAIN (5, 0) FAR  w(0) 1237.
	create_child: MAIN (4, 6) FAR 2165 U 0.00
expand: MAIN (4, 0) FAR  w(0) 2165.
	create_child: MAIN (3, 6) FAR 2542 U 0.00
expand: MAIN (3, 0) FAR  w(0) 2542.
	create_child: MAIN (2, 6) FAR 2866 U 0.00
expand: MAIN (2, 0) FAR  w(0) 2866.
	create_child: MAIN (1, 6) FAR 3216 U 0.00
expand: MAIN (1, 0) FAR  w(0) 3216.
	create_child: MAIN (0, 6) FAR 3650 U 0.00
expand: MAIN (0, 0) FAR  w(0) 3650. F 0.00
expand: MAIN (1, 0) FAR  w(0) 3216
Matrix
1, 

. F 0.00
expand: MAIN (2, 0) FAR  w(0) 2866. F 0.00
expand: MAIN (3, 0) FAR  w(0) 2542. F 0.00
expand: MAIN (4, 0) FAR  w(0) 2165. F 0.00
expand: MAIN (5, 0) FAR  w(0) 1237. F 0.00
expand: query!0 (6, 0) FAR  w(0) 1. F 0.00
(spacer::context::check_reachability :time 0.01 :before-memory 5.61 :after-memory 5.70)
Propagating: 0 1 2 3 4 5 6  ! 7 
(spacer::context::propagate :time 0.00 :before-memory 5.70 :after-memory 5.70)
Entering level 7
BRUNCH_STAT max_query_lvl 6
BRUNCH_STAT num_queries 22
BRUNCH_STAT num_reach_queries 0
BRUNCH_STAT num_reach_reuse 0
BRUNCH_STAT inductive_lvl 0
BRUNCH_STAT max_depth 7
BRUNCH_STAT cex_depth 0
expand: query!0 (7, 0) FAR  w(0) 1.
	create_child: MAIN (6, 7) FAR 1237 U 0.00
expand: MAIN (6, 0) FAR  w(0) 1237.
	create_child: MAIN (5, 7) FAR 2165 U 0.00
expand: MAIN (5, 0) FAR  w(0) 2165.
	create_child: MAIN (4, 7) FAR 2542 U 0.00
expand: MAIN (4, 0) FAR  w(0) 2542.
	create_child: MAIN (3, 7) FAR 2866 U 0.00
expand: MAIN (3, 0) FAR  w(0) 2866.
	create_child: MAIN (2, 7) FAR 3216 U 0.00
expand: MAIN (2, 0) FAR  w(0) 3216.
	create_child: MAIN (1, 7) FAR 3650 U 0.00
expand: MAIN (1, 0) FAR  w(0) 3650.
	create_child: MAIN (0, 7) FAR 4129 U 0.00
expand: MAIN (0, 0) FAR  w(0) 4129. F 0.00
expand: MAIN (1, 0) FAR  w(0) 3650
Matrix
1, 

. F 0.00
expand: MAIN (2, 0) FAR  w(0) 3216. F 0.00
expand: MAIN (3, 0) FAR  w(0) 2866. F 0.00
expand: MAIN (4, 0) FAR  w(0) 2542. F 0.00
expand: MAIN (5, 0) FAR  w(0) 2165. F 0.00
expand: MAIN (6, 0) FAR  w(0) 1237. F 0.00
expand: query!0 (7, 0) FAR  w(0) 1. F 0.00
(spacer::context::check_reachability :time 0.01 :before-memory 5.70 :after-memory 5.75)
Propagating: 0 1 2 3 4 5 6 7  ! 8 
(spacer::context::propagate :time 0.00 :before-memory 5.75 :after-memory 5.75)
Entering level 8
BRUNCH_STAT max_query_lvl 7
BRUNCH_STAT num_queries 29
BRUNCH_STAT num_reach_queries 0
BRUNCH_STAT num_reach_reuse 0
BRUNCH_STAT inductive_lvl 0
BRUNCH_STAT max_depth 8
BRUNCH_STAT cex_depth 0
expand: query!0 (8, 0) FAR  w(0) 1.
	create_child: MAIN (7, 8) FAR 1237 U 0.00
expand: MAIN (7, 0) FAR  w(0) 1237.
	create_child: MAIN (6, 8) FAR 2165 U 0.00
expand: MAIN (6, 0) FAR  w(0) 2165.
	create_child: MAIN (5, 8) FAR 2542 U 0.00
expand: MAIN (5, 0) FAR  w(0) 2542.
	create_child: MAIN (4, 8) FAR 2866 U 0.00
expand: MAIN (4, 0) FAR  w(0) 2866.
	create_child: MAIN (3, 8) FAR 3216 U 0.00
expand: MAIN (3, 0) FAR  w(0) 3216.
	create_child: MAIN (2, 8) FAR 3650 U 0.00
expand: MAIN (2, 0) FAR  w(0) 3650.
	create_child: MAIN (1, 8) FAR 4129 U 0.00
expand: MAIN (1, 0) FAR  w(0) 4129.
	create_child: MAIN (0, 8) FAR 4658 U 0.00
expand: MAIN (0, 0) FAR  w(0) 4658. F 0.00
expand: MAIN (1, 0) FAR  w(0) 4129
Matrix
1, 

. F 0.00
expand: MAIN (2, 0) FAR  w(0) 3650. F 0.00
expand: MAIN (3, 0) FAR  w(0) 3216. F 0.00
expand: MAIN (4, 0) FAR  w(0) 2866. F 0.00
expand: MAIN (5, 0) FAR  w(0) 2542. F 0.00
expand: MAIN (6, 0) FAR  w(0) 2165. F 0.00
expand: MAIN (7, 0) FAR  w(0) 1237. F 0.00
expand: query!0 (8, 0) FAR  w(0) 1. F 0.00
(spacer::context::check_reachability :time 0.01 :before-memory 5.75 :after-memory 5.79)
Propagating: 0 1 2 3 4 5 6 7 8  ! 9 
(spacer::context::propagate :time 0.00 :before-memory 5.79 :after-memory 5.79)
Entering level 9
BRUNCH_STAT max_query_lvl 8
BRUNCH_STAT num_queries 37
BRUNCH_STAT num_reach_queries 0
BRUNCH_STAT num_reach_reuse 0
BRUNCH_STAT inductive_lvl 0
BRUNCH_STAT max_depth 9
BRUNCH_STAT cex_depth 0
expand: query!0 (9, 0) FAR  w(0) 1.
	create_child: MAIN (8, 9) FAR 1237 U 0.00
expand: MAIN (8, 0) FAR  w(0) 1237.
	create_child: MAIN (7, 9) FAR 2165 U 0.00
expand: MAIN (7, 0) FAR  w(0) 2165.
	create_child: MAIN (6, 9) FAR 2542 U 0.00
expand: MAIN (6, 0) FAR  w(0) 2542.
	create_child: MAIN (5, 9) FAR 2866 U 0.00
expand: MAIN (5, 0) FAR  w(0) 2866.
	create_child: MAIN (4, 9) FAR 3216 U 0.00
expand: MAIN (4, 0) FAR  w(0) 3216.
	create_child: MAIN (3, 9) FAR 3650 U 0.00
expand: MAIN (3, 0) FAR  w(0) 3650.
	create_child: MAIN (2, 9) FAR 4129 U 0.00
expand: MAIN (2, 0) FAR  w(0) 4129.
	create_child: MAIN (1, 9) FAR 4658 U 0.00
expand: MAIN (1, 0) FAR  w(0) 4658.
	create_child: MAIN (0, 9) FAR 5221 U 0.00
expand: MAIN (0, 0) FAR  w(0) 5221. F 0.00
expand: MAIN (1, 0) FAR  w(0) 4658
Matrix
1, 

. F 0.00
expand: MAIN (2, 0) FAR  w(0) 4129. F 0.00
expand: MAIN (3, 0) FAR  w(0) 3650. F 0.00
expand: MAIN (4, 0) FAR  w(0) 3216. F 0.00
expand: MAIN (5, 0) FAR  w(0) 2866. F 0.00
expand: MAIN (6, 0) FAR  w(0) 2542. F 0.00
expand: MAIN (7, 0) FAR  w(0) 2165. F 0.00
expand: MAIN (8, 0) FAR  w(0) 1237. F 0.00
expand: query!0 (9, 0) FAR  w(0) 1. F 0.00
(spacer::context::check_reachability :time 0.02 :before-memory 5.79 :after-memory 6.03)
Propagating: 0 1 2 3 4 5 6 7 8 9  ! 10 
(spacer::context::propagate :time 0.00 :before-memory 6.03 :after-memory 6.03)
Entering level 10
BRUNCH_STAT max_query_lvl 9
BRUNCH_STAT num_queries 46
BRUNCH_STAT num_reach_queries 0
BRUNCH_STAT num_reach_reuse 0
BRUNCH_STAT inductive_lvl 0
BRUNCH_STAT max_depth 10
BRUNCH_STAT cex_depth 0
expand: query!0 (10, 0) FAR  w(0) 1.
	create_child: MAIN (9, 10) FAR 1237 U 0.00
expand: MAIN (9, 0) FAR  w(0) 1237.
	create_child: MAIN (8, 10) FAR 2165 U 0.00
expand: MAIN (8, 0) FAR  w(0) 2165.
	create_child: MAIN (7, 10) FAR 2542 U 0.00
expand: MAIN (7, 0) FAR  w(0) 2542.
	create_child: MAIN (6, 10) FAR 2866 U 0.00
expand: MAIN (6, 0) FAR  w(0) 2866.
	create_child: MAIN (5, 10) FAR 3216 U 0.00
expand: MAIN (5, 0) FAR  w(0) 3216.
	create_child: MAIN (4, 10) FAR 3650 U 0.00
expand: MAIN (4, 0) FAR  w(0) 3650.
	create_child: MAIN (3, 10) FAR 4129 U 0.00
expand: MAIN (3, 0) FAR  w(0) 4129.
	create_child: MAIN (2, 10) FAR 4658 U 0.00
expand: MAIN (2, 0) FAR  w(0) 4658.
	create_child: MAIN (1, 10) FAR 5221 U 0.00
expand: MAIN (1, 0) FAR  w(0) 5221.
	create_child: MAIN (0, 10) FAR 5874 U 0.00
expand: MAIN (0, 0) FAR  w(0) 5874. F 0.00
expand: MAIN (1, 0) FAR  w(0) 5221. F 0.00
expand: MAIN (2, 0) FAR  w(0) 4658. F 0.00
expand: MAIN (3, 0) FAR  w(0) 4129. F 0.00
expand: MAIN (4, 0) FAR  w(0) 3650. F 0.00
expand: MAIN (5, 0) FAR  w(0) 3216. F 0.00
expand: MAIN (6, 0) FAR  w(0) 2866. F 0.00
expand: MAIN (7, 0) FAR  w(0) 2542. F 0.00
expand: MAIN (8, 0) FAR  w(0) 2165. F 0.00
expand: MAIN (9, 0) FAR  w(0) 1237. F 0.00
expand: query!0 (10, 0) FAR  w(0) 1. F 0.00
(spacer::context::check_reachability :time 0.02 :before-memory 6.03 :after-memory 6.13)
Propagating: 0 1 2 3 4 5 6 7 8 9 10  ! 11 
(spacer::context::propagate :time 0.00 :before-memory 6.13 :after-memory 6.13)
Entering level 11
BRUNCH_STAT max_query_lvl 10
BRUNCH_STAT num_queries 56
BRUNCH_STAT num_reach_queries 0
BRUNCH_STAT num_reach_reuse 0
BRUNCH_STAT inductive_lvl 0
BRUNCH_STAT max_depth 11
BRUNCH_STAT cex_depth 0
expand: query!0 (11, 0) FAR  w(0) 1.
	create_child: MAIN (10, 11) FAR 1237 U 0.00
expand: MAIN (10, 0) FAR  w(0) 1237.
	create_child: MAIN (9, 11) FAR 2165 U 0.00
expand: MAIN (9, 0) FAR  w(0) 2165.
	create_child: MAIN (8, 11) FAR 2542 U 0.00
expand: MAIN (8, 0) FAR  w(0) 2542.
	create_child: MAIN (7, 11) FAR 2866 U 0.00
expand: MAIN (7, 0) FAR  w(0) 2866.
	create_child: MAIN (6, 11) FAR 3216 U 0.00
expand: MAIN (6, 0) FAR  w(0) 3216.
	create_child: MAIN (5, 11) FAR 3650 U 0.00
expand: MAIN (5, 0) FAR  w(0) 3650.
	create_child: MAIN (4, 11) FAR 4129 U 0.00
expand: MAIN (4, 0) FAR  w(0) 4129.
	create_child: MAIN (3, 11) FAR 4658 U 0.00
expand: MAIN (3, 0) FAR  w(0) 4658.
	create_child: MAIN (2, 11) FAR 5221 U 0.00
expand: MAIN (2, 0) FAR  w(0) 5221.
	create_child: MAIN (1, 11) FAR 5874 U 0.00
expand: MAIN (1, 0) FAR  w(0) 5874. T 0.00
is-reachable: MAIN (2, 0) FAR 5221 T 0.00
is-reachable: MAIN (3, 0) FAR 4658 T 0.00
is-reachable: MAIN (4, 0) FAR 4129 T 0.00
is-reachable: MAIN (5, 0) FAR 3650 T 0.00
is-reachable: MAIN (6, 0) FAR 3216 T 0.00
is-reachable: MAIN (7, 0) FAR 2866 T 0.00
is-reachable: MAIN (8, 0) FAR 2542 T 0.00
is-reachable: MAIN (9, 0) FAR 2165 T 0.00
is-reachable: MAIN (10, 0) FAR 1237 T 0.00
is-reachable: query!0 (11, 0) FAR 1 T 0.00
(spacer::context::check_reachability :time 0.03 :before-memory 6.13 :after-memory 6.62)
BRUNCH_STAT max_query_lvl 11
BRUNCH_STAT num_queries 66
BRUNCH_STAT num_reach_queries 11
BRUNCH_STAT num_reach_reuse 1
BRUNCH_STAT inductive_lvl 0
BRUNCH_STAT max_depth 11
BRUNCH_STAT cex_depth 11
(:SPACER-cex-depth                     11
 :SPACER-max-depth                     11
 :SPACER-max-query-lvl                 11
 :SPACER-num-invariants                1
 :SPACER-num-lemmas                    67
 :SPACER-num-properties                12
 :SPACER-num-queries                   66
 :SPACER-num-reach-queries             11
 :SPACER-num-reuse-reach-facts         1
 :added-eqs                            2071
 :arith-assert-diseq                   2169
 :arith-assert-lower                   2739
 :arith-assert-upper                   3777
 :arith-bound-prop                     78
 :arith-conflicts                      14
 :arith-eq-adapter                     525
 :arith-fixed-eqs                      334
 :arith-offset-eqs                     111
 :arith-pivots                         15
 :bool-inductive-gen                   56
 :bool-inductive-gen-failures          19
 :conflicts                            216
 :decisions                            4616
 :del-clause                           82
 :final-checks                         179
 :mk-bool-var                          1823
 :mk-clause                            1929
 :num-checks                           366
 :propagations                         40158
 :time.itp_solver.itp_core             0.02
 :time.spacer.init_rules               0.00
 :time.spacer.init_rules.pt.init       0.00
 :time.spacer.solve                    0.14
 :time.spacer.solve.propagate          0.01
 :time.spacer.solve.reach              0.12
 :time.spacer.solve.reach.children     0.02
 :time.spacer.solve.reach.gen.bool_ind 0.01
 :time.spacer.solve.reach.is-reach     0.02
 :time.virtual_solver.proof            0.01
 :time.virtual_solver.smt.total        0.07
 :time.virtual_solver.smt.total.sat    0.05
 :virtual_solver.checks                366
 :virtual_solver.checks.sat            179)
BRUNCH_STAT max_query_lvl 11
BRUNCH_STAT num_queries 66
BRUNCH_STAT num_reach_queries 11
BRUNCH_STAT num_reach_reuse 1
BRUNCH_STAT inductive_lvl 0
BRUNCH_STAT max_depth 11
BRUNCH_STAT cex_depth 11

real	0m0.168s
user	0m0.140s
sys	0m0.024s
