(transform N7datalog13mk_coi_filterE...no-op 0s)
(transform N7datalog25mk_interp_tail_simplifierE...15 rules 0s)
(transform N7datalog27mk_quantifier_instantiationE...no-op 0s)
(transform N7datalog8mk_scaleE...no-op 0s)
(transform N7datalog18mk_karr_invariantsE...no-op 0s)
(transform N7datalog14mk_array_blastE...no-op 0s)
(transform N7datalog22mk_subsumption_checkerE...14 rules 0s)
(transform N7datalog12mk_bit_blastE...no-op 0s)
(transform N7datalog15mk_rule_inlinerE...3 rules 0.00197663s)
(transform N7datalog13mk_coi_filterE...no-op 0s)
(transform N7datalog25mk_interp_tail_simplifierE...3 rules 0s)
(transform N7datalog22mk_subsumption_checkerE...no-op 0s)
(transform N7datalog15mk_rule_inlinerE...no-op 0s)
(transform N7datalog13mk_coi_filterE...no-op 0s)
(transform N7datalog25mk_interp_tail_simplifierE...3 rules 0s)
(transform N7datalog22mk_subsumption_checkerE...no-op 0s)
(transform N7datalog15mk_rule_inlinerE...no-op 0s)
(transform N7datalog22mk_subsumption_checkerE...no-op 0s)
(transform N7datalog15mk_rule_inlinerE...no-op 0s)
(transform N7datalog22mk_subsumption_checkerE...no-op 0s)
(transform N7datalog15mk_rule_inlinerE...no-op 0s)
(transform N7datalog22mk_subsumption_checkerE...no-op 0s)
(transform N7datalog8mk_sliceE...no-op 0s)
expand: query!0 (0, 0) FAR  w(0) 1. F 0.00
(spacer::context::check_reachability :time 0.00 :before-memory 4.35 :after-memory 4.74)
Entering level 1
BRUNCH_STAT max_query_lvl 0
BRUNCH_STAT num_queries 0
BRUNCH_STAT num_reach_queries 0
BRUNCH_STAT num_reach_reuse 0
BRUNCH_STAT inductive_lvl 0
BRUNCH_STAT max_depth 1
BRUNCH_STAT cex_depth 0
expand: query!0 (1, 0) FAR  w(0) 1.
	create_child: MAIN (0, 1) FAR 1354 U 0.00
expand: MAIN (0, 0) FAR  w(0) 1354. F 0.00
expand: query!0 (1, 0) FAR  w(0) 1. F 0.00
(spacer::context::check_reachability :time 0.00 :before-memory 4.74 :after-memory 5.34)
Propagating: 0 1  ! 2 
(spacer::context::propagate :time 0.00 :before-memory 5.34 :after-memory 5.34)
Entering level 2
BRUNCH_STAT max_query_lvl 1
BRUNCH_STAT num_queries 1
BRUNCH_STAT num_reach_queries 0
BRUNCH_STAT num_reach_reuse 0
BRUNCH_STAT inductive_lvl 0
BRUNCH_STAT max_depth 2
BRUNCH_STAT cex_depth 0
expand: query!0 (2, 0) FAR  w(0) 1.
	create_child: MAIN (1, 2) FAR 1354 U 0.00
expand: MAIN (1, 0) FAR  w(0) 1354.
	create_child: MAIN (0, 2) FAR 2231 U 0.00
expand: MAIN (0, 0) FAR  w(0) 2231. F 0.00
expand: MAIN (1, 0) FAR  w(0) 1354.
	create_child: MAIN (0, 2) FAR 2288 U 0.00
expand: MAIN (0, 0) FAR  w(0) 2288. F 0.00
expand: MAIN (1, 0) FAR  w(0) 1354. F 0.00
expand: query!0 (2, 0) FAR  w(0) 1. F 0.00
(spacer::context::check_reachability :time 0.00 :before-memory 5.34 :after-memory 5.34)
Propagating: 0 1 2  ! 3 
(spacer::context::propagate :time 0.00 :before-memory 5.34 :after-memory 5.34)
Entering level 3
BRUNCH_STAT max_query_lvl 2
BRUNCH_STAT num_queries 4
BRUNCH_STAT num_reach_queries 0
BRUNCH_STAT num_reach_reuse 0
BRUNCH_STAT inductive_lvl 0
BRUNCH_STAT max_depth 3
BRUNCH_STAT cex_depth 0
expand: query!0 (3, 0) FAR  w(0) 1.
	create_child: MAIN (2, 3) FAR 1354 U 0.00
expand: MAIN (2, 0) FAR  w(0) 1354.
	create_child: MAIN (1, 3) FAR 2507 U 0.00
expand: MAIN (1, 0) FAR  w(0) 2507. F 0.00
expand: MAIN (2, 0) FAR  w(0) 1354.
	create_child: MAIN (1, 3) FAR 2517 U 0.00
expand: MAIN (1, 0) FAR  w(0) 2517. F 0.00
expand: MAIN (2, 0) FAR  w(0) 1354. F 0.00
expand: query!0 (3, 0) FAR  w(0) 1. F 0.00
(spacer::context::check_reachability :time 0.00 :before-memory 5.34 :after-memory 5.34)
Propagating: 1 2 3  ! 4 
(spacer::context::propagate :time 0.00 :before-memory 5.34 :after-memory 5.34)
Entering level 4
BRUNCH_STAT max_query_lvl 3
BRUNCH_STAT num_queries 7
BRUNCH_STAT num_reach_queries 0
BRUNCH_STAT num_reach_reuse 0
BRUNCH_STAT inductive_lvl 0
BRUNCH_STAT max_depth 4
BRUNCH_STAT cex_depth 0
expand: query!0 (4, 0) FAR  w(0) 1.
	create_child: MAIN (3, 4) FAR 1354 U 0.00
expand: MAIN (3, 0) FAR  w(0) 1354.
	create_child: MAIN (2, 4) FAR 2760 U 0.00
expand: MAIN (2, 0) FAR  w(0) 2760. F 0.00
expand: MAIN (3, 0) FAR  w(0) 1354.
	create_child: MAIN (2, 4) FAR 2288 U 0.00
expand: MAIN (2, 0) FAR  w(0) 2288. F 0.00
expand: MAIN (3, 0) FAR  w(0) 1354.
	create_child: MAIN (2, 4) FAR 3183 U 0.00
expand: MAIN (2, 0) FAR  w(0) 3183.
	create_child: MAIN (1, 4) FAR 3190 U 0.00
expand: MAIN (1, 0) FAR  w(0) 3190. F 0.00
expand: MAIN (2, 0) FAR  w(0) 3183
Matrix
1, 

. F 0.00
expand: MAIN (3, 0) FAR  w(0) 1354. F 0.00
expand: query!0 (4, 0) FAR  w(0) 1. F 0.00
(spacer::context::check_reachability :time 0.01 :before-memory 5.34 :after-memory 5.57)
Propagating: 1 2 3 4  ! 5 
(spacer::context::propagate :time 0.00 :before-memory 5.57 :after-memory 5.57)
Entering level 5
BRUNCH_STAT max_query_lvl 4
BRUNCH_STAT num_queries 12
BRUNCH_STAT num_reach_queries 0
BRUNCH_STAT num_reach_reuse 0
BRUNCH_STAT inductive_lvl 0
BRUNCH_STAT max_depth 5
BRUNCH_STAT cex_depth 0
expand: query!0 (5, 0) FAR  w(0) 1.
	create_child: MAIN (4, 5) FAR 1354 U 0.00
expand: MAIN (4, 0) FAR  w(0) 1354.
	create_child: MAIN (3, 5) FAR 3544 U 0.00
expand: MAIN (3, 0) FAR  w(0) 3544. F 0.00
expand: MAIN (4, 0) FAR  w(0) 1354.
	create_child: MAIN (3, 5) FAR 3669 U 0.00
expand: MAIN (3, 0) FAR  w(0) 3669. F 0.00
expand: MAIN (4, 0) FAR  w(0) 1354.
	create_child: MAIN (3, 5) FAR 3945 U 0.00
expand: MAIN (3, 0) FAR  w(0) 3945.
	create_child: MAIN (2, 5) FAR 3929 U 0.00
expand: MAIN (2, 0) FAR  w(0) 3929. F 0.00
expand: MAIN (3, 0) FAR  w(0) 3945.
	create_child: MAIN (2, 5) FAR 4014 U 0.00
expand: MAIN (2, 0) FAR  w(0) 4014.
	create_child: MAIN (1, 5) FAR 3997 U 0.00
expand: MAIN (1, 0) FAR  w(0) 3997. F 0.00
expand: MAIN (2, 0) FAR  w(0) 4014. F 0.00
expand: MAIN (3, 0) FAR  w(0) 3945. F 0.00
expand: MAIN (4, 0) FAR  w(0) 1354. F 0.00
expand: query!0 (5, 0) FAR  w(0) 1. F 0.00
(spacer::context::check_reachability :time 0.01 :before-memory 5.57 :after-memory 5.66)
Propagating: 1 2 3 4 5  ! 6 
(spacer::context::propagate :time 0.00 :before-memory 5.66 :after-memory 5.66)
Entering level 6
BRUNCH_STAT max_query_lvl 5
BRUNCH_STAT num_queries 19
BRUNCH_STAT num_reach_queries 0
BRUNCH_STAT num_reach_reuse 0
BRUNCH_STAT inductive_lvl 0
BRUNCH_STAT max_depth 6
BRUNCH_STAT cex_depth 0
expand: query!0 (6, 0) FAR  w(0) 1.
	create_child: MAIN (5, 6) FAR 1354 U 0.00
expand: MAIN (5, 0) FAR  w(0) 1354.
	create_child: MAIN (4, 6) FAR 2517 U 0.00
expand: MAIN (4, 0) FAR  w(0) 2517.
	create_child: MAIN (3, 6) FAR 4412 U 0.00
expand: MAIN (3, 0) FAR  w(0) 4412.
	create_child: MAIN (2, 6) FAR 4132 U 0.00
expand: MAIN (2, 0) FAR  w(0) 4132.
	create_child: MAIN (1, 6) FAR 4389 U 0.00
expand: MAIN (1, 0) FAR  w(0) 4389. F 0.00
expand: MAIN (2, 0) FAR  w(0) 4132.
	create_child: MAIN (1, 6) FAR 4616 U 0.00
expand: MAIN (1, 0) FAR  w(0) 4616. F 0.00
expand: MAIN (2, 0) FAR  w(0) 4132. F 0.00
expand: MAIN (3, 0) FAR  w(0) 4412. F 0.00
expand: MAIN (4, 0) FAR  w(0) 2517. F 0.00
expand: MAIN (5, 0) FAR  w(0) 1354. F 0.00
expand: query!0 (6, 0) FAR  w(0) 1. F 0.00
(spacer::context::check_reachability :time 0.01 :before-memory 5.66 :after-memory 5.76)
Propagating: 1 2 3 4 5 6  ! 7 
(spacer::context::propagate :time 0.00 :before-memory 5.76 :after-memory 5.76)
Entering level 7
BRUNCH_STAT max_query_lvl 6
BRUNCH_STAT num_queries 25
BRUNCH_STAT num_reach_queries 0
BRUNCH_STAT num_reach_reuse 0
BRUNCH_STAT inductive_lvl 0
BRUNCH_STAT max_depth 7
BRUNCH_STAT cex_depth 0
expand: query!0 (7, 0) FAR  w(0) 1.
	create_child: MAIN (6, 7) FAR 1354 U 0.00
expand: MAIN (6, 0) FAR  w(0) 1354.
	create_child: MAIN (5, 7) FAR 4933 U 0.00
expand: MAIN (5, 0) FAR  w(0) 4933.
	create_child: MAIN (4, 7) FAR 4996 U 0.00
expand: MAIN (4, 0) FAR  w(0) 4996.
	create_child: MAIN (3, 7) FAR 5062 U 0.00
expand: MAIN (3, 0) FAR  w(0) 5062.
	create_child: MAIN (2, 7) FAR 5123 U 0.00
expand: MAIN (2, 0) FAR  w(0) 5123.
	create_child: MAIN (1, 7) FAR 5195 U 0.00
expand: MAIN (1, 0) FAR  w(0) 5195
Matrix
1, 

. F 0.00
expand: MAIN (2, 0) FAR  w(0) 5123
Matrix
1, 

. F 0.00
expand: MAIN (3, 0) FAR  w(0) 5062. F 0.00
expand: MAIN (4, 0) FAR  w(0) 4996. F 0.00
expand: MAIN (5, 0) FAR  w(0) 4933. F 0.00
expand: MAIN (6, 0) FAR  w(0) 1354. F 0.00
expand: query!0 (7, 0) FAR  w(0) 1. F 0.00
(spacer::context::check_reachability :time 0.01 :before-memory 5.76 :after-memory 5.84)
Propagating: 1 2 3 4 5 6 7  ! 8 
(spacer::context::propagate :time 0.00 :before-memory 5.84 :after-memory 5.84)
Entering level 8
BRUNCH_STAT max_query_lvl 7
BRUNCH_STAT num_queries 31
BRUNCH_STAT num_reach_queries 0
BRUNCH_STAT num_reach_reuse 0
BRUNCH_STAT inductive_lvl 0
BRUNCH_STAT max_depth 8
BRUNCH_STAT cex_depth 0
expand: query!0 (8, 0) FAR  w(0) 1.
	create_child: MAIN (7, 8) FAR 1354 U 0.00
expand: MAIN (7, 0) FAR  w(0) 1354.
	create_child: MAIN (6, 8) FAR 5607 U 0.00
expand: MAIN (6, 0) FAR  w(0) 5607.
	create_child: MAIN (5, 8) FAR 5573 U 0.00
expand: MAIN (5, 0) FAR  w(0) 5573.
	create_child: MAIN (4, 8) FAR 5576 U 0.00
expand: MAIN (4, 0) FAR  w(0) 5576.
	create_child: MAIN (3, 8) FAR 5613 U 0.00
expand: MAIN (3, 0) FAR  w(0) 5613.
	create_child: MAIN (2, 8) FAR 5588 U 0.00
expand: MAIN (2, 0) FAR  w(0) 5588.
	create_child: MAIN (1, 8) FAR 5685 U 0.00
expand: MAIN (1, 0) FAR  w(0) 5685
Matrix
1, 

. F 0.00
expand: MAIN (2, 0) FAR  w(0) 5588
Matrix
1, 

. F 0.00
expand: MAIN (3, 0) FAR  w(0) 5613. F 0.00
expand: MAIN (4, 0) FAR  w(0) 5576. F 0.00
expand: MAIN (5, 0) FAR  w(0) 5573. F 0.00
expand: MAIN (6, 0) FAR  w(0) 5607. F 0.00
expand: MAIN (7, 0) FAR  w(0) 1354. F 0.00
expand: query!0 (8, 0) FAR  w(0) 1. F 0.00
(spacer::context::check_reachability :time 0.01 :before-memory 5.84 :after-memory 6.05)
Propagating: 1 2 3 4 5 6 7 8  ! 9 
(spacer::context::propagate :time 0.00 :before-memory 6.05 :after-memory 6.05)
Entering level 9
BRUNCH_STAT max_query_lvl 8
BRUNCH_STAT num_queries 38
BRUNCH_STAT num_reach_queries 0
BRUNCH_STAT num_reach_reuse 0
BRUNCH_STAT inductive_lvl 0
BRUNCH_STAT max_depth 9
BRUNCH_STAT cex_depth 0
expand: query!0 (9, 0) FAR  w(0) 1.
	create_child: MAIN (8, 9) FAR 1354 U 0.00
expand: MAIN (8, 0) FAR  w(0) 1354.
	create_child: MAIN (7, 9) FAR 2517 U 0.00
expand: MAIN (7, 0) FAR  w(0) 2517.
	create_child: MAIN (6, 9) FAR 4412 U 0.00
expand: MAIN (6, 0) FAR  w(0) 4412.
	create_child: MAIN (5, 9) FAR 4132 U 0.00
expand: MAIN (5, 0) FAR  w(0) 4132.
	create_child: MAIN (4, 9) FAR 4616 U 0.00
expand: MAIN (4, 0) FAR  w(0) 4616.
	create_child: MAIN (3, 9) FAR 5588 U 0.00
expand: MAIN (3, 0) FAR  w(0) 5588.
	create_child: MAIN (2, 9) FAR 5685 U 0.00
expand: MAIN (2, 0) FAR  w(0) 5685.
	create_child: MAIN (1, 9) FAR 6166 U 0.00
expand: MAIN (1, 0) FAR  w(0) 6166
Matrix
1, 

. F 0.00
expand: MAIN (2, 0) FAR  w(0) 5685
Matrix
1, 

. F 0.00
expand: MAIN (3, 0) FAR  w(0) 5588. F 0.00
expand: MAIN (4, 0) FAR  w(0) 4616. F 0.00
expand: MAIN (5, 0) FAR  w(0) 4132. F 0.00
expand: MAIN (6, 0) FAR  w(0) 4412. F 0.00
expand: MAIN (7, 0) FAR  w(0) 2517. F 0.00
expand: MAIN (8, 0) FAR  w(0) 1354. F 0.00
expand: query!0 (9, 0) FAR  w(0) 1. F 0.00
(spacer::context::check_reachability :time 0.01 :before-memory 6.05 :after-memory 6.13)
Propagating: 1 2 3 4 5 6 7 8 9  ! 10 
(spacer::context::propagate :time 0.00 :before-memory 6.13 :after-memory 6.13)
Entering level 10
BRUNCH_STAT max_query_lvl 9
BRUNCH_STAT num_queries 46
BRUNCH_STAT num_reach_queries 0
BRUNCH_STAT num_reach_reuse 0
BRUNCH_STAT inductive_lvl 0
BRUNCH_STAT max_depth 10
BRUNCH_STAT cex_depth 0
expand: query!0 (10, 0) FAR  w(0) 1.
	create_child: MAIN (9, 10) FAR 1354 U 0.00
expand: MAIN (9, 0) FAR  w(0) 1354.
	create_child: MAIN (8, 10) FAR 6702 U 0.00
expand: MAIN (8, 0) FAR  w(0) 6702.
	create_child: MAIN (7, 10) FAR 3190 U 0.00
expand: MAIN (7, 0) FAR  w(0) 3190.
	create_child: MAIN (6, 10) FAR 6480 U 0.00
expand: MAIN (6, 0) FAR  w(0) 6480.
	create_child: MAIN (5, 10) FAR 6725 U 0.00
expand: MAIN (5, 0) FAR  w(0) 6725.
	create_child: MAIN (4, 10) FAR 6688 U 0.00
expand: MAIN (4, 0) FAR  w(0) 6688.
	create_child: MAIN (3, 10) FAR 6754 U 0.00
expand: MAIN (3, 0) FAR  w(0) 6754.
	create_child: MAIN (2, 10) FAR 6705 U 0.00
expand: MAIN (2, 0) FAR  w(0) 6705.
	create_child: MAIN (1, 10) FAR 6757 U 0.00
expand: MAIN (1, 0) FAR  w(0) 6757. T 0.00
is-reachable: MAIN (2, 0) FAR 6705 T 0.00
is-reachable: MAIN (3, 0) FAR 6754 T 0.00
is-reachable: MAIN (4, 0) FAR 6688 T 0.00
is-reachable: MAIN (5, 0) FAR 6725 T 0.00
is-reachable: MAIN (6, 0) FAR 6480 T 0.00
is-reachable: MAIN (7, 0) FAR 3190 T 0.00
is-reachable: MAIN (8, 0) FAR 6702 T 0.00
is-reachable: MAIN (9, 0) FAR 1354 T 0.00
is-reachable: query!0 (10, 0) FAR 1 T 0.00
(spacer::context::check_reachability :time 0.03 :before-memory 6.13 :after-memory 6.71)
BRUNCH_STAT max_query_lvl 10
BRUNCH_STAT num_queries 55
BRUNCH_STAT num_reach_queries 10
BRUNCH_STAT num_reach_reuse 1
BRUNCH_STAT inductive_lvl 0
BRUNCH_STAT max_depth 10
BRUNCH_STAT cex_depth 10
(:SPACER-cex-depth                     10
 :SPACER-max-depth                     10
 :SPACER-max-query-lvl                 10
 :SPACER-num-invariants                8
 :SPACER-num-lemmas                    56
 :SPACER-num-properties                18
 :SPACER-num-queries                   55
 :SPACER-num-reach-queries             10
 :SPACER-num-reuse-reach-facts         1
 :added-eqs                            413
 :arith-add-rows                       1
 :arith-assert-diseq                   515
 :arith-assert-lower                   2684
 :arith-assert-upper                   2555
 :arith-bound-prop                     94
 :arith-conflicts                      34
 :arith-eq-adapter                     193
 :arith-fixed-eqs                      26
 :arith-offset-eqs                     10
 :arith-pivots                         58
 :bool-inductive-gen                   46
 :bool-inductive-gen-failures          53
 :conflicts                            183
 :decisions                            4276
 :del-clause                           21
 :final-checks                         124
 :minimized-lits                       4
 :mk-bool-var                          1287
 :mk-clause                            1883
 :num-checks                           275
 :propagations                         25152
 :time.itp_solver.itp_core             0.02
 :time.spacer.init_rules               0.00
 :time.spacer.init_rules.pt.init       0.00
 :time.spacer.solve                    0.13
 :time.spacer.solve.propagate          0.01
 :time.spacer.solve.reach              0.12
 :time.spacer.solve.reach.children     0.03
 :time.spacer.solve.reach.gen.bool_ind 0.01
 :time.spacer.solve.reach.is-reach     0.02
 :time.virtual_solver.proof            0.01
 :time.virtual_solver.smt.total        0.06
 :time.virtual_solver.smt.total.sat    0.04
 :virtual_solver.checks                275
 :virtual_solver.checks.sat            124)
BRUNCH_STAT max_query_lvl 10
BRUNCH_STAT num_queries 55
BRUNCH_STAT num_reach_queries 10
BRUNCH_STAT num_reach_reuse 1
BRUNCH_STAT inductive_lvl 0
BRUNCH_STAT max_depth 10
BRUNCH_STAT cex_depth 10

real	0m0.161s
user	0m0.152s
sys	0m0.008s
