(transform N7datalog13mk_coi_filterE...no-op 0s)
(transform N7datalog25mk_interp_tail_simplifierE...14 rules 0s)
(transform N7datalog27mk_quantifier_instantiationE...no-op 0s)
(transform N7datalog8mk_scaleE...no-op 0s)
(transform N7datalog18mk_karr_invariantsE...no-op 0s)
(transform N7datalog14mk_array_blastE...no-op 0s)
(transform N7datalog22mk_subsumption_checkerE...13 rules 0s)
(transform N7datalog12mk_bit_blastE...no-op 0s)
(transform N7datalog15mk_rule_inlinerE...3 rules 0.00668113s)
(transform N7datalog13mk_coi_filterE...no-op 0s)
(transform N7datalog25mk_interp_tail_simplifierE...3 rules 0s)
(transform N7datalog22mk_subsumption_checkerE...no-op 0s)
(transform N7datalog15mk_rule_inlinerE...no-op 0s)
(transform N7datalog13mk_coi_filterE...no-op 0s)
(transform N7datalog25mk_interp_tail_simplifierE...3 rules 0s)
(transform N7datalog22mk_subsumption_checkerE...no-op 0s)
(transform N7datalog15mk_rule_inlinerE...no-op 0s)
(transform N7datalog22mk_subsumption_checkerE...no-op 0s)
(transform N7datalog15mk_rule_inlinerE...no-op 0s)
(transform N7datalog22mk_subsumption_checkerE...no-op 0s)
(transform N7datalog15mk_rule_inlinerE...no-op 0s)
(transform N7datalog22mk_subsumption_checkerE...no-op 0s)
(transform N7datalog8mk_sliceE...no-op 0s)
expand: query!0 (0, 0) FAR  w(0) 1. F 0.00
(spacer::context::check_reachability :time 0.00 :before-memory 4.65 :after-memory 5.48)
Entering level 1
BRUNCH_STAT max_query_lvl 0
BRUNCH_STAT num_queries 0
BRUNCH_STAT num_reach_queries 0
BRUNCH_STAT num_reach_reuse 0
BRUNCH_STAT inductive_lvl 0
BRUNCH_STAT max_depth 1
BRUNCH_STAT cex_depth 0
expand: query!0 (1, 0) FAR  w(0) 1.
	create_child: MAIN (0, 1) FAR 6005 U 0.00
expand: MAIN (0, 0) FAR  w(0) 6005. F 0.01
expand: query!0 (1, 0) FAR  w(0) 1. F 0.00
(spacer::context::check_reachability :time 0.01 :before-memory 5.48 :after-memory 6.73)
Propagating: 0 1  ! 2 
(spacer::context::propagate :time 0.00 :before-memory 6.73 :after-memory 6.83)
Entering level 2
BRUNCH_STAT max_query_lvl 1
BRUNCH_STAT num_queries 1
BRUNCH_STAT num_reach_queries 0
BRUNCH_STAT num_reach_reuse 0
BRUNCH_STAT inductive_lvl 0
BRUNCH_STAT max_depth 2
BRUNCH_STAT cex_depth 0
expand: query!0 (2, 0) FAR  w(0) 1.
	create_child: MAIN (1, 2) FAR 6005 U 0.00
expand: MAIN (1, 0) FAR  w(0) 6005.
	create_child: MAIN (0, 2) FAR 12685 U 0.01
expand: MAIN (0, 0) FAR  w(0) 12685. F 0.00
expand: MAIN (1, 0) FAR  w(0) 6005.
	create_child: MAIN (0, 2) FAR 12776 U 0.00
expand: MAIN (0, 0) FAR  w(0) 12776. F 0.00
expand: MAIN (1, 0) FAR  w(0) 6005.
	create_child: MAIN (0, 2) FAR 12863 U 0.00
expand: MAIN (0, 0) FAR  w(0) 12863. F 0.00
expand: MAIN (1, 0) FAR  w(0) 6005.
	create_child: MAIN (0, 2) FAR 12912 U 0.00
expand: MAIN (0, 0) FAR  w(0) 12912. F 0.00
expand: MAIN (1, 0) FAR  w(0) 6005.
	create_child: MAIN (0, 2) FAR 12999 U 0.00
expand: MAIN (0, 0) FAR  w(0) 12999. F 0.00
expand: MAIN (1, 0) FAR  w(0) 6005.
	create_child: MAIN (0, 2) FAR 13073 U 0.00
expand: MAIN (0, 0) FAR  w(0) 13073. F 0.00
expand: MAIN (1, 0) FAR  w(0) 6005.
	create_child: MAIN (0, 2) FAR 13257 U 0.00
expand: MAIN (0, 0) FAR  w(0) 13257. F 0.00
expand: MAIN (1, 0) FAR  w(0) 6005.
	create_child: MAIN (0, 2) FAR 13292 U 0.00
expand: MAIN (0, 0) FAR  w(0) 13292. F 0.00
expand: MAIN (1, 0) FAR  w(0) 6005.
	create_child: MAIN (0, 2) FAR 13463 U 0.00
expand: MAIN (0, 0) FAR  w(0) 13463
Matrix
1, 

. F 0.00
expand: MAIN (1, 0) FAR  w(0) 6005.
	create_child: MAIN (0, 2) FAR 13787 U 0.00
expand: MAIN (0, 0) FAR  w(0) 13787. F 0.00
expand: MAIN (1, 0) FAR  w(0) 6005.
	create_child: MAIN (0, 2) FAR 13843 U 0.00
expand: MAIN (0, 0) FAR  w(0) 13843. F 0.00
expand: MAIN (1, 0) FAR  w(0) 6005.
	create_child: MAIN (0, 2) FAR 13825 U 0.00
expand: MAIN (0, 0) FAR  w(0) 13825. F 0.00
expand: MAIN (1, 0) FAR  w(0) 6005.
	create_child: MAIN (0, 2) FAR 14064 U 0.00
expand: MAIN (0, 0) FAR  w(0) 14064. F 0.00
expand: MAIN (1, 0) FAR  w(0) 6005. F 0.01
expand: query!0 (2, 0) FAR  w(0) 1. F 0.00
(spacer::context::check_reachability :time 0.05 :before-memory 6.83 :after-memory 7.90)
Propagating: 0 1 2  ! 3 
(spacer::context::propagate :time 0.01 :before-memory 7.90 :after-memory 8.00)
Entering level 3
BRUNCH_STAT max_query_lvl 2
BRUNCH_STAT num_queries 15
BRUNCH_STAT num_reach_queries 0
BRUNCH_STAT num_reach_reuse 0
BRUNCH_STAT inductive_lvl 0
BRUNCH_STAT max_depth 3
BRUNCH_STAT cex_depth 0
expand: query!0 (3, 0) FAR  w(0) 1.
	create_child: MAIN (2, 3) FAR 6005 U 0.00
expand: MAIN (2, 0) FAR  w(0) 6005.
	create_child: MAIN (1, 3) FAR 17831 U 0.00
expand: MAIN (1, 0) FAR  w(0) 17831. F 0.00
expand: MAIN (2, 0) FAR  w(0) 6005.
	create_child: MAIN (1, 3) FAR 17972 U 0.00
expand: MAIN (1, 0) FAR  w(0) 17972. F 0.00
expand: MAIN (2, 0) FAR  w(0) 6005.
	create_child: MAIN (1, 3) FAR 18560 U 0.00
expand: MAIN (1, 0) FAR  w(0) 18560. F 0.00
expand: MAIN (2, 0) FAR  w(0) 6005.
	create_child: MAIN (1, 3) FAR 18594 U 0.00
expand: MAIN (1, 0) FAR  w(0) 18594. F 0.00
expand: MAIN (2, 0) FAR  w(0) 6005.
	create_child: MAIN (1, 3) FAR 18917 U 0.00
expand: MAIN (1, 0) FAR  w(0) 18917. F 0.00
expand: MAIN (2, 0) FAR  w(0) 6005.
	create_child: MAIN (1, 3) FAR 18858 U 0.00
expand: MAIN (1, 0) FAR  w(0) 18858. F 0.00
expand: MAIN (2, 0) FAR  w(0) 6005.
	create_child: MAIN (1, 3) FAR 19330 U 0.00
expand: MAIN (1, 0) FAR  w(0) 19330. F 0.00
expand: MAIN (2, 0) FAR  w(0) 6005.
	create_child: MAIN (1, 3) FAR 19357 U 0.00
expand: MAIN (1, 0) FAR  w(0) 19357. F 0.00
expand: MAIN (2, 0) FAR  w(0) 6005.
	create_child: MAIN (1, 3) FAR 19640 U 0.00
expand: MAIN (1, 0) FAR  w(0) 19640. F 0.00
expand: MAIN (2, 0) FAR  w(0) 6005.
	create_child: MAIN (1, 3) FAR 19655 U 0.00
expand: MAIN (1, 0) FAR  w(0) 19655. F 0.00
expand: MAIN (2, 0) FAR  w(0) 6005.
	create_child: MAIN (1, 3) FAR 19974 U 0.00
expand: MAIN (1, 0) FAR  w(0) 19974. F 0.00
expand: MAIN (2, 0) FAR  w(0) 6005.
	create_child: MAIN (1, 3) FAR 20219 U 0.00
expand: MAIN (1, 0) FAR  w(0) 20219. F 0.00
expand: MAIN (2, 0) FAR  w(0) 6005.
	create_child: MAIN (1, 3) FAR 21686 U 0.01
expand: MAIN (1, 0) FAR  w(0) 21686. F 0.00
expand: MAIN (2, 0) FAR  w(0) 6005.
	create_child: MAIN (1, 3) FAR 22293 U 0.01
expand: MAIN (1, 0) FAR  w(0) 22293. F 0.01
expand: MAIN (2, 0) FAR  w(0) 6005.
	create_child: MAIN (1, 3) FAR 23749 U 0.01
expand: MAIN (1, 0) FAR  w(0) 23749. F 0.00
expand: MAIN (2, 0) FAR  w(0) 6005. F 0.01
expand: query!0 (3, 0) FAR  w(0) 1. F 0.00
(spacer::context::check_reachability :time 0.10 :before-memory 8.00 :after-memory 9.63)
Propagating: 1 2 3  ! 4 
(spacer::context::propagate :time 0.04 :before-memory 9.63 :after-memory 10.17)
Entering level 4
BRUNCH_STAT max_query_lvl 3
BRUNCH_STAT num_queries 31
BRUNCH_STAT num_reach_queries 0
BRUNCH_STAT num_reach_reuse 0
BRUNCH_STAT inductive_lvl 0
BRUNCH_STAT max_depth 4
BRUNCH_STAT cex_depth 0
expand: query!0 (4, 0) FAR  w(0) 1.
	create_child: MAIN (3, 4) FAR 6005 U 0.00
expand: MAIN (3, 0) FAR  w(0) 6005.
	create_child: MAIN (2, 4) FAR 21686 U 0.00
expand: MAIN (2, 0) FAR  w(0) 21686. F 0.00
expand: MAIN (3, 0) FAR  w(0) 6005.
	create_child: MAIN (2, 4) FAR 22293 U 0.00
expand: MAIN (2, 0) FAR  w(0) 22293. F 0.01
expand: MAIN (3, 0) FAR  w(0) 6005.
	create_child: MAIN (2, 4) FAR 23749 U 0.00
expand: MAIN (2, 0) FAR  w(0) 23749. F 0.01
expand: MAIN (3, 0) FAR  w(0) 6005.
	create_child: MAIN (2, 4) FAR 19640 U 0.00
expand: MAIN (2, 0) FAR  w(0) 19640. F 0.00
expand: MAIN (3, 0) FAR  w(0) 6005. F 0.01
expand: query!0 (4, 0) FAR  w(0) 1. F 0.00
(spacer::context::check_reachability :time 0.04 :before-memory 10.17 :after-memory 10.73)
Propagating: 2 3 4  ! 5 
(spacer::context::propagate :time 0.01 :before-memory 10.73 :after-memory 10.73)
Entering level 5
BRUNCH_STAT max_query_lvl 4
BRUNCH_STAT num_queries 36
BRUNCH_STAT num_reach_queries 0
BRUNCH_STAT num_reach_reuse 0
BRUNCH_STAT inductive_lvl 0
BRUNCH_STAT max_depth 5
BRUNCH_STAT cex_depth 0
expand: query!0 (5, 0) FAR  w(0) 1.
	create_child: MAIN (4, 5) FAR 6005 U 0.00
expand: MAIN (4, 0) FAR  w(0) 6005.
	create_child: MAIN (3, 5) FAR 23749 U 0.00
expand: MAIN (3, 0) FAR  w(0) 23749. F 0.01
expand: MAIN (4, 0) FAR  w(0) 6005. F 0.01
expand: query!0 (5, 0) FAR  w(0) 1. F 0.00
(spacer::context::check_reachability :time 0.01 :before-memory 10.73 :after-memory 10.82)
Propagating: 3 4 5  ! 6 
(spacer::context::propagate :time 0.01 :before-memory 10.82 :after-memory 10.82)
Entering level 6
BRUNCH_STAT max_query_lvl 5
BRUNCH_STAT num_queries 38
BRUNCH_STAT num_reach_queries 0
BRUNCH_STAT num_reach_reuse 0
BRUNCH_STAT inductive_lvl 0
BRUNCH_STAT max_depth 6
BRUNCH_STAT cex_depth 0
expand: query!0 (6, 0) FAR  w(0) 1.
	create_child: MAIN (5, 6) FAR 6005 U 0.00
expand: MAIN (5, 0) FAR  w(0) 6005.
	create_child: MAIN (4, 6) FAR 19640 U 0.00
expand: MAIN (4, 0) FAR  w(0) 19640.
	create_child: MAIN (3, 6) FAR 34084 U 0.00
expand: MAIN (3, 0) FAR  w(0) 34084. F 0.01
expand: MAIN (4, 0) FAR  w(0) 19640. F 0.00
expand: MAIN (5, 0) FAR  w(0) 6005.
	create_child: MAIN (4, 6) FAR 22293 U 0.00
expand: MAIN (4, 0) FAR  w(0) 22293. F 0.01
expand: MAIN (5, 0) FAR  w(0) 6005.
	create_child: MAIN (4, 6) FAR 23749 U 0.00
expand: MAIN (4, 0) FAR  w(0) 23749.
	create_child: MAIN (3, 6) FAR 34545 U 0.00
expand: MAIN (3, 0) FAR  w(0) 34545. F 0.01
expand: MAIN (4, 0) FAR  w(0) 23749. F 0.01
expand: MAIN (5, 0) FAR  w(0) 6005.
	create_child: MAIN (4, 6) FAR 19974 U 0.00
expand: MAIN (4, 0) FAR  w(0) 19974. F 0.01
expand: MAIN (5, 0) FAR  w(0) 6005. F 0.01
expand: query!0 (6, 0) FAR  w(0) 1. F 0.00
(spacer::context::check_reachability :time 0.05 :before-memory 10.82 :after-memory 11.00)
Propagating: 3 
(spacer::context::propagate :time 0.00 :before-memory 11.00 :after-memory 11.00)
(define-fun MAIN ((x!0 Int)
 (x!1 Int)
 (x!2 Bool)
 (x!3 Bool)
 (x!4 Int)
 (x!5 Int)
 (x!6 Int)
 (x!7 Int)
 (x!8 Int)
 (x!9 Int)
 (x!10 Bool)
 (x!11 Bool)
 (x!12 Bool)
 (x!13 Bool)) Bool
  (let ((a!1 (or (= (+ x!4 x!5 x!6 x!7 x!8 (* (- 1) x!1)) 0) (not x!11)))
        (a!2 (or (>= (+ x!4 x!5 x!7 x!8 (* (- 1) x!0)) 0) (not x!11) (<= x!5 0))))
    (and (or (<= x!6 0) (not x!11) (<= x!7 0))
         x!13
         (>= x!7 0)
         (not x!12)
         (not x!10)
         (not x!3)
         (not x!2)
         (>= x!6 0)
         (>= x!5 0)
         (or (>= x!4 0) (not x!11))
         (>= x!8 0)
         (not (>= x!7 2))
         (= (+ x!4 x!5 x!6 x!7 x!8 (* (- 1) x!0)) 0)
         a!1
         (or (<= x!8 0) (not x!11) (<= x!5 0))
         (or (<= x!7 0) (not x!11) (<= x!5 0))
         (or (not (>= x!5 2)) (not x!11))
         (or (<= x!8 0) (not x!11) (<= x!7 0))
         a!2)))
BRUNCH_STAT max_query_lvl 6
BRUNCH_STAT num_queries 45
BRUNCH_STAT num_reach_queries 0
BRUNCH_STAT num_reach_reuse 0
BRUNCH_STAT inductive_lvl 3
BRUNCH_STAT max_depth 6
BRUNCH_STAT cex_depth 0
(:SPACER-inductive-level               3
 :SPACER-max-depth                     6
 :SPACER-max-query-lvl                 6
 :SPACER-num-invariants                26
 :SPACER-num-lemmas                    52
 :SPACER-num-properties                31
 :SPACER-num-queries                   45
 :added-eqs                            10035
 :arith-add-rows                       7913
 :arith-assert-diseq                   4222
 :arith-assert-lower                   10499
 :arith-assert-upper                   9869
 :arith-bound-prop                     733
 :arith-conflicts                      56
 :arith-eq-adapter                     284
 :arith-fixed-eqs                      1744
 :arith-offset-eqs                     2134
 :arith-pivots                         654
 :bool-inductive-gen                   45
 :bool-inductive-gen-failures          79
 :conflicts                            873
 :decisions                            10965
 :del-clause                           23
 :final-checks                         139
 :minimized-lits                       3038
 :mk-bool-var                          1532
 :mk-clause                            3922
 :num-checks                           338
 :propagations                         179445
 :time.itp_solver.itp_core             0.05
 :time.spacer.init_rules               0.00
 :time.spacer.init_rules.pt.init       0.00
 :time.spacer.solve                    0.35
 :time.spacer.solve.propagate          0.08
 :time.spacer.solve.reach              0.27
 :time.spacer.solve.reach.children     0.03
 :time.spacer.solve.reach.gen.bool_ind 0.06
 :time.virtual_solver.proof            0.03
 :time.virtual_solver.smt.total        0.25
 :time.virtual_solver.smt.total.sat    0.13
 :virtual_solver.checks                338
 :virtual_solver.checks.sat            139)
BRUNCH_STAT max_query_lvl 6
BRUNCH_STAT num_queries 45
BRUNCH_STAT num_reach_queries 0
BRUNCH_STAT num_reach_reuse 0
BRUNCH_STAT inductive_lvl 3
BRUNCH_STAT max_depth 6
BRUNCH_STAT cex_depth 0

real	0m0.426s
user	0m0.416s
sys	0m0.008s
