(transform N7datalog13mk_coi_filterE...no-op 0s)
(transform N7datalog25mk_interp_tail_simplifierE...12 rules 0s)
(transform N7datalog27mk_quantifier_instantiationE...no-op 0s)
(transform N7datalog8mk_scaleE...no-op 0s)
(transform N7datalog18mk_karr_invariantsE...no-op 0s)
(transform N7datalog14mk_array_blastE...no-op 0s)
(transform N7datalog22mk_subsumption_checkerE...11 rules 0s)
(transform N7datalog12mk_bit_blastE...no-op 0s)
(transform N7datalog15mk_rule_inlinerE...3 rules 0.00431876s)
(transform N7datalog13mk_coi_filterE...no-op 0s)
(transform N7datalog25mk_interp_tail_simplifierE...3 rules 0s)
(transform N7datalog22mk_subsumption_checkerE...no-op 0s)
(transform N7datalog15mk_rule_inlinerE...no-op 0s)
(transform N7datalog13mk_coi_filterE...no-op 0s)
(transform N7datalog25mk_interp_tail_simplifierE...3 rules 0s)
(transform N7datalog22mk_subsumption_checkerE...no-op 0s)
(transform N7datalog15mk_rule_inlinerE...no-op 0s)
(transform N7datalog22mk_subsumption_checkerE...no-op 0s)
(transform N7datalog15mk_rule_inlinerE...no-op 0s)
(transform N7datalog22mk_subsumption_checkerE...no-op 0s)
(transform N7datalog15mk_rule_inlinerE...no-op 0s)
(transform N7datalog22mk_subsumption_checkerE...no-op 0s)
(transform N7datalog8mk_sliceE...no-op 0s)
expand: query!0 (0, 0) FAR  w(0) 1. F 0.00
(spacer::context::check_reachability :time 0.00 :before-memory 4.54 :after-memory 5.16)
Entering level 1
BRUNCH_STAT max_query_lvl 0
BRUNCH_STAT num_queries 0
BRUNCH_STAT num_reach_queries 0
BRUNCH_STAT num_reach_reuse 0
BRUNCH_STAT inductive_lvl 0
BRUNCH_STAT max_depth 1
BRUNCH_STAT cex_depth 0
expand: query!0 (1, 0) FAR  w(0) 1.
	create_child: MAIN (0, 1) FAR 4542 U 0.00
expand: MAIN (0, 0) FAR  w(0) 4542. F 0.00
expand: query!0 (1, 0) FAR  w(0) 1. F 0.00
(spacer::context::check_reachability :time 0.01 :before-memory 5.16 :after-memory 6.33)
Propagating: 0 1  ! 2 
(spacer::context::propagate :time 0.00 :before-memory 6.33 :after-memory 6.42)
Entering level 2
BRUNCH_STAT max_query_lvl 1
BRUNCH_STAT num_queries 1
BRUNCH_STAT num_reach_queries 0
BRUNCH_STAT num_reach_reuse 0
BRUNCH_STAT inductive_lvl 0
BRUNCH_STAT max_depth 2
BRUNCH_STAT cex_depth 0
expand: query!0 (2, 0) FAR  w(0) 1.
	create_child: MAIN (1, 2) FAR 4542 U 0.00
expand: MAIN (1, 0) FAR  w(0) 4542.
	create_child: MAIN (0, 2) FAR 8757 U 0.00
expand: MAIN (0, 0) FAR  w(0) 8757. F 0.00
expand: MAIN (1, 0) FAR  w(0) 4542. F 0.00
expand: query!0 (2, 0) FAR  w(0) 1. F 0.00
(spacer::context::check_reachability :time 0.00 :before-memory 6.42 :after-memory 6.52)
Propagating: 0 
(spacer::context::propagate :time 0.00 :before-memory 6.52 :after-memory 6.52)
(define-fun MAIN ((x!0 Int)
 (x!1 Int)
 (x!2 Int)
 (x!3 Int)
 (x!4 Int)
 (x!5 Int)
 (x!6 Bool)
 (x!7 Bool)
 (x!8 Bool)
 (x!9 Bool)) Bool
  (and (>= x!3 0) x!9))
BRUNCH_STAT max_query_lvl 2
BRUNCH_STAT num_queries 3
BRUNCH_STAT num_reach_queries 0
BRUNCH_STAT num_reach_reuse 0
BRUNCH_STAT inductive_lvl 0
BRUNCH_STAT max_depth 2
BRUNCH_STAT cex_depth 0
(:SPACER-max-depth                     2
 :SPACER-max-query-lvl                 2
 :SPACER-num-invariants                3
 :SPACER-num-lemmas                    6
 :SPACER-num-properties                3
 :SPACER-num-queries                   3
 :added-eqs                            141
 :arith-add-rows                       20
 :arith-assert-diseq                   84
 :arith-assert-lower                   145
 :arith-assert-upper                   134
 :arith-bound-prop                     34
 :arith-conflicts                      2
 :arith-eq-adapter                     54
 :arith-fixed-eqs                      18
 :arith-offset-eqs                     13
 :arith-pivots                         15
 :bool-inductive-gen                   3
 :bool-inductive-gen-failures          3
 :conflicts                            28
 :decisions                            277
 :del-clause                           128
 :final-checks                         5
 :minimized-lits                       1
 :mk-bool-var                          541
 :mk-clause                            1762
 :num-checks                           17
 :propagations                         2659
 :time.itp_solver.itp_core             0.00
 :time.spacer.init_rules               0.00
 :time.spacer.init_rules.pt.init       0.00
 :time.spacer.solve                    0.01
 :time.spacer.solve.propagate          0.00
 :time.spacer.solve.reach              0.01
 :time.spacer.solve.reach.children     0.00
 :time.spacer.solve.reach.gen.bool_ind 0.00
 :time.virtual_solver.proof            0.00
 :time.virtual_solver.smt.total        0.01
 :time.virtual_solver.smt.total.sat    0.00
 :virtual_solver.checks                17
 :virtual_solver.checks.sat            5)
BRUNCH_STAT max_query_lvl 2
BRUNCH_STAT num_queries 3
BRUNCH_STAT num_reach_queries 0
BRUNCH_STAT num_reach_reuse 0
BRUNCH_STAT inductive_lvl 0
BRUNCH_STAT max_depth 2
BRUNCH_STAT cex_depth 0

real	0m0.045s
user	0m0.036s
sys	0m0.008s
