(transform N7datalog13mk_coi_filterE...no-op 0s)
(transform N7datalog25mk_interp_tail_simplifierE...14 rules 0s)
(transform N7datalog27mk_quantifier_instantiationE...no-op 0s)
(transform N7datalog8mk_scaleE...no-op 0s)
(transform N7datalog18mk_karr_invariantsE...no-op 0s)
(transform N7datalog14mk_array_blastE...no-op 0s)
(transform N7datalog22mk_subsumption_checkerE...13 rules 0s)
(transform N7datalog12mk_bit_blastE...no-op 0s)
(transform N7datalog15mk_rule_inlinerE...3 rules 0.00604244s)
(transform N7datalog13mk_coi_filterE...no-op 0s)
(transform N7datalog25mk_interp_tail_simplifierE...3 rules 0s)
(transform N7datalog22mk_subsumption_checkerE...no-op 0s)
(transform N7datalog15mk_rule_inlinerE...no-op 0s)
(transform N7datalog13mk_coi_filterE...no-op 0s)
(transform N7datalog25mk_interp_tail_simplifierE...3 rules 0s)
(transform N7datalog22mk_subsumption_checkerE...no-op 0s)
(transform N7datalog15mk_rule_inlinerE...no-op 0s)
(transform N7datalog22mk_subsumption_checkerE...no-op 0s)
(transform N7datalog15mk_rule_inlinerE...no-op 0s)
(transform N7datalog22mk_subsumption_checkerE...no-op 0s)
(transform N7datalog15mk_rule_inlinerE...no-op 0s)
(transform N7datalog22mk_subsumption_checkerE...no-op 0s)
(transform N7datalog8mk_sliceE...no-op 0s)
expand: query!0 (0, 0) FAR  w(0) 1. F 0.00
(spacer::context::check_reachability :time 0.00 :before-memory 4.63 :after-memory 5.27)
Entering level 1
BRUNCH_STAT max_query_lvl 0
BRUNCH_STAT num_queries 0
BRUNCH_STAT num_reach_queries 0
BRUNCH_STAT num_reach_reuse 0
BRUNCH_STAT inductive_lvl 0
BRUNCH_STAT max_depth 1
BRUNCH_STAT cex_depth 0
expand: query!0 (1, 0) FAR  w(0) 1.
	create_child: MAIN (0, 1) FAR 5380 U 0.00
expand: MAIN (0, 0) FAR  w(0) 5380. F 0.01
expand: query!0 (1, 0) FAR  w(0) 1. F 0.00
(spacer::context::check_reachability :time 0.01 :before-memory 5.27 :after-memory 6.56)
Propagating: 0 1  ! 2 
(spacer::context::propagate :time 0.00 :before-memory 6.56 :after-memory 6.65)
Entering level 2
BRUNCH_STAT max_query_lvl 1
BRUNCH_STAT num_queries 1
BRUNCH_STAT num_reach_queries 0
BRUNCH_STAT num_reach_reuse 0
BRUNCH_STAT inductive_lvl 0
BRUNCH_STAT max_depth 2
BRUNCH_STAT cex_depth 0
expand: query!0 (2, 0) FAR  w(0) 1.
	create_child: MAIN (1, 2) FAR 5380 U 0.00
expand: MAIN (1, 0) FAR  w(0) 5380.
	create_child: MAIN (0, 2) FAR 11150 U 0.01
expand: MAIN (0, 0) FAR  w(0) 11150. F 0.00
expand: MAIN (1, 0) FAR  w(0) 5380.
	create_child: MAIN (0, 2) FAR 11444 U 0.00
expand: MAIN (0, 0) FAR  w(0) 11444. F 0.00
expand: MAIN (1, 0) FAR  w(0) 5380.
	create_child: MAIN (0, 2) FAR 11505 U 0.00
expand: MAIN (0, 0) FAR  w(0) 11505. F 0.00
expand: MAIN (1, 0) FAR  w(0) 5380.
	create_child: MAIN (0, 2) FAR 11546 U 0.00
expand: MAIN (0, 0) FAR  w(0) 11546. F 0.00
expand: MAIN (1, 0) FAR  w(0) 5380.
	create_child: MAIN (0, 2) FAR 11368 U 0.00
expand: MAIN (0, 0) FAR  w(0) 11368. F 0.00
expand: MAIN (1, 0) FAR  w(0) 5380.
	create_child: MAIN (0, 2) FAR 11720 U 0.00
expand: MAIN (0, 0) FAR  w(0) 11720. F 0.00
expand: MAIN (1, 0) FAR  w(0) 5380.
	create_child: MAIN (0, 2) FAR 11788 U 0.00
expand: MAIN (0, 0) FAR  w(0) 11788. F 0.00
expand: MAIN (1, 0) FAR  w(0) 5380.
	create_child: MAIN (0, 2) FAR 13044 U 0.01
expand: MAIN (0, 0) FAR  w(0) 13044. F 0.00
expand: MAIN (1, 0) FAR  w(0) 5380. F 0.01
expand: query!0 (2, 0) FAR  w(0) 1. F 0.00
(spacer::context::check_reachability :time 0.03 :before-memory 6.65 :after-memory 7.47)
Propagating: 0 1 2  ! 3 
(spacer::context::propagate :time 0.00 :before-memory 7.47 :after-memory 7.47)
Entering level 3
BRUNCH_STAT max_query_lvl 2
BRUNCH_STAT num_queries 10
BRUNCH_STAT num_reach_queries 0
BRUNCH_STAT num_reach_reuse 0
BRUNCH_STAT inductive_lvl 0
BRUNCH_STAT max_depth 3
BRUNCH_STAT cex_depth 0
expand: query!0 (3, 0) FAR  w(0) 1.
	create_child: MAIN (2, 3) FAR 5380 U 0.00
expand: MAIN (2, 0) FAR  w(0) 5380.
	create_child: MAIN (1, 3) FAR 14285 U 0.00
expand: MAIN (1, 0) FAR  w(0) 14285. F 0.00
expand: MAIN (2, 0) FAR  w(0) 5380.
	create_child: MAIN (1, 3) FAR 14554 U 0.00
expand: MAIN (1, 0) FAR  w(0) 14554. F 0.00
expand: MAIN (2, 0) FAR  w(0) 5380.
	create_child: MAIN (1, 3) FAR 16064 U 0.01
expand: MAIN (1, 0) FAR  w(0) 16064. F 0.00
expand: MAIN (2, 0) FAR  w(0) 5380. F 0.01
expand: query!0 (3, 0) FAR  w(0) 1. F 0.00
(spacer::context::check_reachability :time 0.03 :before-memory 7.47 :after-memory 7.85)
Propagating: 1 
(spacer::context::propagate :time 0.00 :before-memory 7.85 :after-memory 7.85)
(define-fun MAIN ((x!0 Int)
 (x!1 Int)
 (x!2 Bool)
 (x!3 Bool)
 (x!4 Int)
 (x!5 Int)
 (x!6 Int)
 (x!7 Int)
 (x!8 Int)
 (x!9 Int)
 (x!10 Bool)
 (x!11 Bool)
 (x!12 Bool)
 (x!13 Bool)) Bool
  (let ((a!1 (or (= (+ x!4 x!5 x!6 x!7 x!8 (* (- 1) x!1)) 0) (not x!11))))
    (and a!1
         x!13
         (not x!12)
         (not x!10)
         (not x!3)
         (not x!2)
         (>= x!7 0)
         (not (>= x!7 2))
         (= (+ x!4 x!5 x!6 x!7 x!8 (* (- 1) x!0)) 0))))
BRUNCH_STAT max_query_lvl 3
BRUNCH_STAT num_queries 14
BRUNCH_STAT num_reach_queries 0
BRUNCH_STAT num_reach_reuse 0
BRUNCH_STAT inductive_lvl 1
BRUNCH_STAT max_depth 3
BRUNCH_STAT cex_depth 0
(:SPACER-inductive-level               1
 :SPACER-max-depth                     3
 :SPACER-max-query-lvl                 3
 :SPACER-num-invariants                10
 :SPACER-num-lemmas                    18
 :SPACER-num-properties                13
 :SPACER-num-queries                   14
 :added-eqs                            1843
 :arith-add-rows                       923
 :arith-assert-diseq                   950
 :arith-assert-lower                   1858
 :arith-assert-upper                   1562
 :arith-bound-prop                     180
 :arith-conflicts                      35
 :arith-eq-adapter                     89
 :arith-fixed-eqs                      257
 :arith-offset-eqs                     377
 :arith-pivots                         158
 :bool-inductive-gen                   14
 :bool-inductive-gen-failures          15
 :conflicts                            313
 :decisions                            1690
 :del-clause                           18
 :final-checks                         24
 :minimized-lits                       523
 :mk-bool-var                          769
 :mk-clause                            2313
 :num-checks                           71
 :propagations                         33060
 :time.itp_solver.itp_core             0.01
 :time.spacer.init_rules               0.00
 :time.spacer.init_rules.pt.init       0.00
 :time.spacer.solve                    0.07
 :time.spacer.solve.propagate          0.01
 :time.spacer.solve.reach              0.07
 :time.spacer.solve.reach.children     0.01
 :time.spacer.solve.reach.gen.bool_ind 0.00
 :time.virtual_solver.proof            0.01
 :time.virtual_solver.smt.total        0.05
 :time.virtual_solver.smt.total.sat    0.02
 :virtual_solver.checks                71
 :virtual_solver.checks.sat            24)
BRUNCH_STAT max_query_lvl 3
BRUNCH_STAT num_queries 14
BRUNCH_STAT num_reach_queries 0
BRUNCH_STAT num_reach_reuse 0
BRUNCH_STAT inductive_lvl 1
BRUNCH_STAT max_depth 3
BRUNCH_STAT cex_depth 0

real	0m0.128s
user	0m0.112s
sys	0m0.012s
