(transform N7datalog13mk_coi_filterE...no-op 0s)
(transform N7datalog25mk_interp_tail_simplifierE...14 rules 0s)
(transform N7datalog27mk_quantifier_instantiationE...no-op 0s)
(transform N7datalog8mk_scaleE...no-op 0s)
(transform N7datalog18mk_karr_invariantsE...no-op 0s)
(transform N7datalog14mk_array_blastE...no-op 0s)
(transform N7datalog22mk_subsumption_checkerE...13 rules 0s)
(transform N7datalog12mk_bit_blastE...no-op 0s)
(transform N7datalog15mk_rule_inlinerE...3 rules 0.00556757s)
(transform N7datalog13mk_coi_filterE...no-op 0s)
(transform N7datalog25mk_interp_tail_simplifierE...3 rules 0s)
(transform N7datalog22mk_subsumption_checkerE...no-op 0s)
(transform N7datalog15mk_rule_inlinerE...no-op 0s)
(transform N7datalog13mk_coi_filterE...no-op 0s)
(transform N7datalog25mk_interp_tail_simplifierE...3 rules 0s)
(transform N7datalog22mk_subsumption_checkerE...no-op 0s)
(transform N7datalog15mk_rule_inlinerE...no-op 0s)
(transform N7datalog22mk_subsumption_checkerE...no-op 0s)
(transform N7datalog15mk_rule_inlinerE...no-op 0s)
(transform N7datalog22mk_subsumption_checkerE...no-op 0s)
(transform N7datalog15mk_rule_inlinerE...no-op 0s)
(transform N7datalog22mk_subsumption_checkerE...no-op 0s)
(transform N7datalog8mk_sliceE...no-op 0s)
expand: query!0 (0, 0) FAR  w(0) 1. F 0.00
(spacer::context::check_reachability :time 0.00 :before-memory 4.59 :after-memory 5.22)
Entering level 1
BRUNCH_STAT max_query_lvl 0
BRUNCH_STAT num_queries 0
BRUNCH_STAT num_reach_queries 0
BRUNCH_STAT num_reach_reuse 0
BRUNCH_STAT inductive_lvl 0
BRUNCH_STAT max_depth 1
BRUNCH_STAT cex_depth 0
expand: query!0 (1, 0) FAR  w(0) 1.
	create_child: MAIN (0, 1) FAR 5093 U 0.00
expand: MAIN (0, 0) FAR  w(0) 5093. F 0.00
expand: query!0 (1, 0) FAR  w(0) 1. F 0.00
(spacer::context::check_reachability :time 0.01 :before-memory 5.22 :after-memory 6.46)
Propagating: 0 1  ! 2 
(spacer::context::propagate :time 0.00 :before-memory 6.46 :after-memory 6.56)
Entering level 2
BRUNCH_STAT max_query_lvl 1
BRUNCH_STAT num_queries 1
BRUNCH_STAT num_reach_queries 0
BRUNCH_STAT num_reach_reuse 0
BRUNCH_STAT inductive_lvl 0
BRUNCH_STAT max_depth 2
BRUNCH_STAT cex_depth 0
expand: query!0 (2, 0) FAR  w(0) 1.
	create_child: MAIN (1, 2) FAR 5093 U 0.00
expand: MAIN (1, 0) FAR  w(0) 5093.
	create_child: MAIN (0, 2) FAR 9573 U 0.00
expand: MAIN (0, 0) FAR  w(0) 9573. F 0.00
expand: MAIN (1, 0) FAR  w(0) 5093.
	create_child: MAIN (0, 2) FAR 9815 U 0.00
expand: MAIN (0, 0) FAR  w(0) 9815. F 0.00
expand: MAIN (1, 0) FAR  w(0) 5093.
	create_child: MAIN (0, 2) FAR 9924 U 0.00
expand: MAIN (0, 0) FAR  w(0) 9924. F 0.00
expand: MAIN (1, 0) FAR  w(0) 5093.
	create_child: MAIN (0, 2) FAR 10098 U 0.00
expand: MAIN (0, 0) FAR  w(0) 10098. F 0.00
expand: MAIN (1, 0) FAR  w(0) 5093.
	create_child: MAIN (0, 2) FAR 10201 U 0.00
expand: MAIN (0, 0) FAR  w(0) 10201. F 0.00
expand: MAIN (1, 0) FAR  w(0) 5093. F 0.00
expand: query!0 (2, 0) FAR  w(0) 1. F 0.00
(spacer::context::check_reachability :time 0.01 :before-memory 6.56 :after-memory 6.75)
Propagating: 0 1 2  ! 3 
(spacer::context::propagate :time 0.00 :before-memory 6.75 :after-memory 6.75)
Entering level 3
BRUNCH_STAT max_query_lvl 2
BRUNCH_STAT num_queries 7
BRUNCH_STAT num_reach_queries 0
BRUNCH_STAT num_reach_reuse 0
BRUNCH_STAT inductive_lvl 0
BRUNCH_STAT max_depth 3
BRUNCH_STAT cex_depth 0
expand: query!0 (3, 0) FAR  w(0) 1.
	create_child: MAIN (2, 3) FAR 5093 U 0.00
expand: MAIN (2, 0) FAR  w(0) 5093.
	create_child: MAIN (1, 3) FAR 10098 U 0.00
expand: MAIN (1, 0) FAR  w(0) 10098. F 0.00
expand: MAIN (2, 0) FAR  w(0) 5093.
	create_child: MAIN (1, 3) FAR 9924 U 0.00
expand: MAIN (1, 0) FAR  w(0) 9924.
	create_child: MAIN (0, 3) FAR 11333 U 0.00
expand: MAIN (0, 0) FAR  w(0) 11333. F 0.00
expand: MAIN (1, 0) FAR  w(0) 9924.
	create_child: MAIN (0, 3) FAR 11633 U 0.00
expand: MAIN (0, 0) FAR  w(0) 11633. F 0.00
expand: MAIN (1, 0) FAR  w(0) 9924. F 0.01
expand: MAIN (2, 0) FAR  w(0) 5093. F 0.00
expand: query!0 (3, 0) FAR  w(0) 1. F 0.00
(spacer::context::check_reachability :time 0.02 :before-memory 6.75 :after-memory 7.45)
Propagating: 0 1 2 3  ! 4 
(spacer::context::propagate :time 0.00 :before-memory 7.45 :after-memory 7.35)
Entering level 4
BRUNCH_STAT max_query_lvl 3
BRUNCH_STAT num_queries 12
BRUNCH_STAT num_reach_queries 0
BRUNCH_STAT num_reach_reuse 0
BRUNCH_STAT inductive_lvl 0
BRUNCH_STAT max_depth 4
BRUNCH_STAT cex_depth 0
expand: query!0 (4, 0) FAR  w(0) 1.
	create_child: MAIN (3, 4) FAR 5093 U 0.00
expand: MAIN (3, 0) FAR  w(0) 5093.
	create_child: MAIN (2, 4) FAR 9924 U 0.00
expand: MAIN (2, 0) FAR  w(0) 9924.
	create_child: MAIN (1, 4) FAR 11633 U 0.00
expand: MAIN (1, 0) FAR  w(0) 11633. F 0.01
expand: MAIN (2, 0) FAR  w(0) 9924.
	create_child: MAIN (1, 4) FAR 14127 U 0.00
expand: MAIN (1, 0) FAR  w(0) 14127. F 0.01
expand: MAIN (2, 0) FAR  w(0) 9924. F 0.01
expand: MAIN (3, 0) FAR  w(0) 5093. F 0.00
expand: query!0 (4, 0) FAR  w(0) 1. F 0.00
(spacer::context::check_reachability :time 0.03 :before-memory 7.35 :after-memory 7.74)
Propagating: 1 2 3 4  ! 5 
(spacer::context::propagate :time 0.00 :before-memory 7.74 :after-memory 7.74)
Entering level 5
BRUNCH_STAT max_query_lvl 4
BRUNCH_STAT num_queries 16
BRUNCH_STAT num_reach_queries 0
BRUNCH_STAT num_reach_reuse 0
BRUNCH_STAT inductive_lvl 0
BRUNCH_STAT max_depth 5
BRUNCH_STAT cex_depth 0
expand: query!0 (5, 0) FAR  w(0) 1.
	create_child: MAIN (4, 5) FAR 5093 U 0.00
expand: MAIN (4, 0) FAR  w(0) 5093.
	create_child: MAIN (3, 5) FAR 9924 U 0.00
expand: MAIN (3, 0) FAR  w(0) 9924.
	create_child: MAIN (2, 5) FAR 11633 U 0.00
expand: MAIN (2, 0) FAR  w(0) 11633.
	create_child: MAIN (1, 5) FAR 15986 U 0.00
expand: MAIN (1, 0) FAR  w(0) 15986. F 0.00
expand: MAIN (2, 0) FAR  w(0) 11633.
	create_child: MAIN (1, 5) FAR 16427 U 0.00
expand: MAIN (1, 0) FAR  w(0) 16427. F 0.01
expand: MAIN (2, 0) FAR  w(0) 11633. F 0.00
expand: MAIN (3, 0) FAR  w(0) 9924.
	create_child: MAIN (2, 5) FAR 14127 U 0.00
expand: MAIN (2, 0) FAR  w(0) 14127. F 0.01
expand: MAIN (3, 0) FAR  w(0) 9924. F 0.01
expand: MAIN (4, 0) FAR  w(0) 5093. F 0.00
expand: query!0 (5, 0) FAR  w(0) 1. F 0.00
(spacer::context::check_reachability :time 0.04 :before-memory 7.74 :after-memory 8.09)
Propagating: 1 2 3 4 5  ! 6 
(spacer::context::propagate :time 0.01 :before-memory 8.09 :after-memory 8.09)
Entering level 6
BRUNCH_STAT max_query_lvl 5
BRUNCH_STAT num_queries 22
BRUNCH_STAT num_reach_queries 0
BRUNCH_STAT num_reach_reuse 0
BRUNCH_STAT inductive_lvl 0
BRUNCH_STAT max_depth 6
BRUNCH_STAT cex_depth 0
expand: query!0 (6, 0) FAR  w(0) 1.
	create_child: MAIN (5, 6) FAR 5093 U 0.00
expand: MAIN (5, 0) FAR  w(0) 5093.
	create_child: MAIN (4, 6) FAR 9924 U 0.00
expand: MAIN (4, 0) FAR  w(0) 9924.
	create_child: MAIN (3, 6) FAR 11633 U 0.00
expand: MAIN (3, 0) FAR  w(0) 11633.
	create_child: MAIN (2, 6) FAR 16427 U 0.00
expand: MAIN (2, 0) FAR  w(0) 16427. F 0.01
expand: MAIN (3, 0) FAR  w(0) 11633. F 0.00
expand: MAIN (4, 0) FAR  w(0) 9924.
	create_child: MAIN (3, 6) FAR 14127 U 0.00
expand: MAIN (3, 0) FAR  w(0) 14127. F 0.01
expand: MAIN (4, 0) FAR  w(0) 9924. F 0.00
expand: MAIN (5, 0) FAR  w(0) 5093. F 0.00
expand: query!0 (6, 0) FAR  w(0) 1. F 0.00
(spacer::context::check_reachability :time 0.03 :before-memory 8.09 :after-memory 8.37)
Propagating: 2 3 4 5 6  ! 7 
(spacer::context::propagate :time 0.00 :before-memory 8.37 :after-memory 8.37)
Entering level 7
BRUNCH_STAT max_query_lvl 6
BRUNCH_STAT num_queries 27
BRUNCH_STAT num_reach_queries 0
BRUNCH_STAT num_reach_reuse 0
BRUNCH_STAT inductive_lvl 0
BRUNCH_STAT max_depth 7
BRUNCH_STAT cex_depth 0
expand: query!0 (7, 0) FAR  w(0) 1.
	create_child: MAIN (6, 7) FAR 5093 U 0.00
expand: MAIN (6, 0) FAR  w(0) 5093.
	create_child: MAIN (5, 7) FAR 9924 U 0.00
expand: MAIN (5, 0) FAR  w(0) 9924.
	create_child: MAIN (4, 7) FAR 11633 U 0.00
expand: MAIN (4, 0) FAR  w(0) 11633.
	create_child: MAIN (3, 7) FAR 16427 U 0.00
expand: MAIN (3, 0) FAR  w(0) 16427. F 0.01
expand: MAIN (4, 0) FAR  w(0) 11633.
	create_child: MAIN (3, 7) FAR 21765 U 0.00
expand: MAIN (3, 0) FAR  w(0) 21765. F 0.01
expand: MAIN (4, 0) FAR  w(0) 11633. F 0.00
expand: MAIN (5, 0) FAR  w(0) 9924.
	create_child: MAIN (4, 7) FAR 14127 U 0.00
expand: MAIN (4, 0) FAR  w(0) 14127. F 0.01
expand: MAIN (5, 0) FAR  w(0) 9924.
	create_child: MAIN (4, 7) FAR 11333 U 0.00
expand: MAIN (4, 0) FAR  w(0) 11333. F 0.01
expand: MAIN (5, 0) FAR  w(0) 9924. F 0.00
expand: MAIN (6, 0) FAR  w(0) 5093. F 0.00
expand: query!0 (7, 0) FAR  w(0) 1. F 0.00
(spacer::context::check_reachability :time 0.06 :before-memory 8.37 :after-memory 8.65)
Propagating: 3 4 
(spacer::context::propagate :time 0.01 :before-memory 8.65 :after-memory 9.27)
(define-fun MAIN ((x!0 Int)
 (x!1 Bool)
 (x!2 Int)
 (x!3 Int)
 (x!4 Int)
 (x!5 Int)
 (x!6 Int)
 (x!7 Int)
 (x!8 Bool)
 (x!9 Bool)
 (x!10 Bool)
 (x!11 Bool)) Bool
  (let ((a!1 (not (>= (+ x!3 (* (- 1) x!0)) 0)))
        (a!3 (or (<= (+ x!4 (* (- 1) x!0)) 0) (not x!9)))
        (a!4 (or (<= (+ x!3 x!4 (* (- 1) x!0)) 0) (not x!9)))
        (a!5 (not (>= (+ x!3 x!4 (* (- 1) x!0)) 0)))
        (a!6 (not (>= (+ x!3 x!4 (* (- 1) x!0)) (- 1))))
        (a!7 (or (<= x!5 0) (not x!9) (not (>= (+ x!4 x!6) 2)))))
  (let ((a!2 (or (not (>= (+ x!4 x!6) 2)) (not x!9) a!1)))
    (and a!2
         x!11
         (not x!10)
         (not x!1)
         a!3
         a!4
         (or (not (<= x!0 0)) (not x!9))
         (or a!5 (not x!9) (<= x!5 0))
         (not (>= x!5 2))
         (or a!6 (not x!9) (<= x!5 0) (<= x!6 0) (not (<= x!4 0)))
         a!7
         (or (not (>= x!4 0)) (not x!9) a!1 (<= x!6 0))))))
BRUNCH_STAT max_query_lvl 7
BRUNCH_STAT num_queries 34
BRUNCH_STAT num_reach_queries 0
BRUNCH_STAT num_reach_reuse 0
BRUNCH_STAT inductive_lvl 4
BRUNCH_STAT max_depth 7
BRUNCH_STAT cex_depth 0
(:SPACER-inductive-level               4
 :SPACER-max-depth                     7
 :SPACER-max-query-lvl                 7
 :SPACER-num-invariants                13
 :SPACER-num-lemmas                    42
 :SPACER-num-properties                19
 :SPACER-num-queries                   34
 :added-eqs                            5784
 :arith-add-rows                       5623
 :arith-assert-diseq                   2927
 :arith-assert-lower                   7050
 :arith-assert-upper                   5215
 :arith-bound-prop                     477
 :arith-conflicts                      42
 :arith-eq-adapter                     771
 :arith-fixed-eqs                      1168
 :arith-offset-eqs                     1157
 :arith-pivots                         704
 :bool-inductive-gen                   34
 :bool-inductive-gen-failures          64
 :conflicts                            529
 :decisions                            11983
 :del-clause                           400
 :final-checks                         135
 :minimized-lits                       1188
 :mk-bool-var                          1208
 :mk-clause                            3216
 :num-checks                           281
 :propagations                         109200
 :time.itp_solver.itp_core             0.04
 :time.spacer.init_rules               0.00
 :time.spacer.init_rules.pt.init       0.00
 :time.spacer.solve                    0.23
 :time.spacer.solve.propagate          0.03
 :time.spacer.solve.reach              0.20
 :time.spacer.solve.reach.children     0.02
 :time.spacer.solve.reach.gen.bool_ind 0.07
 :time.virtual_solver.proof            0.02
 :time.virtual_solver.smt.total        0.16
 :time.virtual_solver.smt.total.sat    0.10
 :virtual_solver.checks                281
 :virtual_solver.checks.sat            135)
BRUNCH_STAT max_query_lvl 7
BRUNCH_STAT num_queries 34
BRUNCH_STAT num_reach_queries 0
BRUNCH_STAT num_reach_reuse 0
BRUNCH_STAT inductive_lvl 4
BRUNCH_STAT max_depth 7
BRUNCH_STAT cex_depth 0

real	0m0.288s
user	0m0.272s
sys	0m0.012s
