(transform N7datalog13mk_coi_filterE...no-op 0s)
(transform N7datalog25mk_interp_tail_simplifierE...14 rules 0s)
(transform N7datalog27mk_quantifier_instantiationE...no-op 0s)
(transform N7datalog8mk_scaleE...no-op 0s)
(transform N7datalog18mk_karr_invariantsE...no-op 0s)
(transform N7datalog14mk_array_blastE...no-op 0s)
(transform N7datalog22mk_subsumption_checkerE...13 rules 0s)
(transform N7datalog12mk_bit_blastE...no-op 0s)
(transform N7datalog15mk_rule_inlinerE...3 rules 0.00372421s)
(transform N7datalog13mk_coi_filterE...no-op 0s)
(transform N7datalog25mk_interp_tail_simplifierE...3 rules 0s)
(transform N7datalog22mk_subsumption_checkerE...no-op 0s)
(transform N7datalog15mk_rule_inlinerE...no-op 0s)
(transform N7datalog13mk_coi_filterE...no-op 0s)
(transform N7datalog25mk_interp_tail_simplifierE...3 rules 0s)
(transform N7datalog22mk_subsumption_checkerE...no-op 0s)
(transform N7datalog15mk_rule_inlinerE...no-op 0s)
(transform N7datalog22mk_subsumption_checkerE...no-op 0s)
(transform N7datalog15mk_rule_inlinerE...no-op 0s)
(transform N7datalog22mk_subsumption_checkerE...no-op 0s)
(transform N7datalog15mk_rule_inlinerE...no-op 0s)
(transform N7datalog22mk_subsumption_checkerE...no-op 0s)
(transform N7datalog8mk_sliceE...no-op 0s)
expand: query!0 (0, 0) FAR  w(0) 1. F 0.00
(spacer::context::check_reachability :time 0.00 :before-memory 4.45 :after-memory 4.98)
Entering level 1
BRUNCH_STAT max_query_lvl 0
BRUNCH_STAT num_queries 0
BRUNCH_STAT num_reach_queries 0
BRUNCH_STAT num_reach_reuse 0
BRUNCH_STAT inductive_lvl 0
BRUNCH_STAT max_depth 1
BRUNCH_STAT cex_depth 0
expand: query!0 (1, 0) FAR  w(0) 1.
	create_child: MAIN (0, 1) FAR 3413 U 0.00
expand: MAIN (0, 0) FAR  w(0) 3413. F 0.00
expand: query!0 (1, 0) FAR  w(0) 1. F 0.00
(spacer::context::check_reachability :time 0.00 :before-memory 4.98 :after-memory 5.86)
Propagating: 0 1  ! 2 
(spacer::context::propagate :time 0.00 :before-memory 5.86 :after-memory 6.07)
Entering level 2
BRUNCH_STAT max_query_lvl 1
BRUNCH_STAT num_queries 1
BRUNCH_STAT num_reach_queries 0
BRUNCH_STAT num_reach_reuse 0
BRUNCH_STAT inductive_lvl 0
BRUNCH_STAT max_depth 2
BRUNCH_STAT cex_depth 0
expand: query!0 (2, 0) FAR  w(0) 1.
	create_child: MAIN (1, 2) FAR 3413 U 0.00
expand: MAIN (1, 0) FAR  w(0) 3413.
	create_child: MAIN (0, 2) FAR 6105 U 0.00
expand: MAIN (0, 0) FAR  w(0) 6105. F 0.00
expand: MAIN (1, 0) FAR  w(0) 3413.
	create_child: MAIN (0, 2) FAR 6193 U 0.00
expand: MAIN (0, 0) FAR  w(0) 6193. F 0.00
expand: MAIN (1, 0) FAR  w(0) 3413.
	create_child: MAIN (0, 2) FAR 6339 U 0.00
expand: MAIN (0, 0) FAR  w(0) 6339. F 0.00
expand: MAIN (1, 0) FAR  w(0) 3413.
	create_child: MAIN (0, 2) FAR 6488 U 0.00
expand: MAIN (0, 0) FAR  w(0) 6488. F 0.00
expand: MAIN (1, 0) FAR  w(0) 3413. F 0.00
expand: query!0 (2, 0) FAR  w(0) 1. F 0.00
(spacer::context::check_reachability :time 0.01 :before-memory 6.07 :after-memory 6.18)
Propagating: 0 1 2  ! 3 
(spacer::context::propagate :time 0.00 :before-memory 6.18 :after-memory 6.18)
Entering level 3
BRUNCH_STAT max_query_lvl 2
BRUNCH_STAT num_queries 6
BRUNCH_STAT num_reach_queries 0
BRUNCH_STAT num_reach_reuse 0
BRUNCH_STAT inductive_lvl 0
BRUNCH_STAT max_depth 3
BRUNCH_STAT cex_depth 0
expand: query!0 (3, 0) FAR  w(0) 1.
	create_child: MAIN (2, 3) FAR 3413 U 0.00
expand: MAIN (2, 0) FAR  w(0) 3413.
	create_child: MAIN (1, 3) FAR 6924 U 0.00
expand: MAIN (1, 0) FAR  w(0) 6924. F 0.00
expand: MAIN (2, 0) FAR  w(0) 3413.
	create_child: MAIN (1, 3) FAR 6193 U 0.00
expand: MAIN (1, 0) FAR  w(0) 6193. F 0.00
expand: MAIN (2, 0) FAR  w(0) 3413. F 0.00
expand: query!0 (3, 0) FAR  w(0) 1. F 0.00
(spacer::context::check_reachability :time 0.01 :before-memory 6.18 :after-memory 6.27)
Propagating: 1 
(spacer::context::propagate :time 0.00 :before-memory 6.27 :after-memory 6.27)
(define-fun MAIN ((x!0 Int)
 (x!1 Int)
 (x!2 Int)
 (x!3 Int)
 (x!4 Int)
 (x!5 Int)
 (x!6 Bool)
 (x!7 Bool)
 (x!8 Bool)
 (x!9 Int)
 (x!10 Bool)
 (x!11 Bool)) Bool
  (and (>= x!2 0) x!11 (not x!10) (>= x!0 0)))
BRUNCH_STAT max_query_lvl 3
BRUNCH_STAT num_queries 9
BRUNCH_STAT num_reach_queries 0
BRUNCH_STAT num_reach_reuse 0
BRUNCH_STAT inductive_lvl 1
BRUNCH_STAT max_depth 3
BRUNCH_STAT cex_depth 0
(:SPACER-inductive-level               1
 :SPACER-max-depth                     3
 :SPACER-max-query-lvl                 3
 :SPACER-num-invariants                5
 :SPACER-num-lemmas                    13
 :SPACER-num-properties                7
 :SPACER-num-queries                   9
 :added-eqs                            357
 :arith-add-rows                       41
 :arith-assert-diseq                   139
 :arith-assert-lower                   226
 :arith-assert-upper                   312
 :arith-bound-prop                     36
 :arith-conflicts                      3
 :arith-eq-adapter                     97
 :arith-fixed-eqs                      41
 :arith-offset-eqs                     26
 :arith-pivots                         35
 :bool-inductive-gen                   9
 :bool-inductive-gen-failures          8
 :conflicts                            56
 :decisions                            757
 :del-clause                           86
 :final-checks                         17
 :mk-bool-var                          611
 :mk-clause                            1201
 :num-checks                           48
 :propagations                         5468
 :time.itp_solver.itp_core             0.00
 :time.spacer.init_rules               0.00
 :time.spacer.init_rules.pt.init       0.00
 :time.spacer.solve                    0.02
 :time.spacer.solve.propagate          0.00
 :time.spacer.solve.reach              0.02
 :time.spacer.solve.reach.children     0.00
 :time.spacer.solve.reach.gen.bool_ind 0.00
 :time.virtual_solver.proof            0.00
 :time.virtual_solver.smt.total        0.01
 :time.virtual_solver.smt.total.sat    0.01
 :virtual_solver.checks                48
 :virtual_solver.checks.sat            17)
BRUNCH_STAT max_query_lvl 3
BRUNCH_STAT num_queries 9
BRUNCH_STAT num_reach_queries 0
BRUNCH_STAT num_reach_reuse 0
BRUNCH_STAT inductive_lvl 1
BRUNCH_STAT max_depth 3
BRUNCH_STAT cex_depth 0

real	0m0.051s
user	0m0.036s
sys	0m0.012s
