(transform N7datalog13mk_coi_filterE...no-op 0s)
(transform N7datalog25mk_interp_tail_simplifierE...14 rules 0s)
(transform N7datalog27mk_quantifier_instantiationE...no-op 0s)
(transform N7datalog8mk_scaleE...no-op 0s)
(transform N7datalog18mk_karr_invariantsE...no-op 0s)
(transform N7datalog14mk_array_blastE...no-op 0s)
(transform N7datalog22mk_subsumption_checkerE...13 rules 0s)
(transform N7datalog12mk_bit_blastE...no-op 0s)
(transform N7datalog15mk_rule_inlinerE...3 rules 0.00404319s)
(transform N7datalog13mk_coi_filterE...no-op 0s)
(transform N7datalog25mk_interp_tail_simplifierE...3 rules 0s)
(transform N7datalog22mk_subsumption_checkerE...no-op 0s)
(transform N7datalog15mk_rule_inlinerE...no-op 0s)
(transform N7datalog13mk_coi_filterE...no-op 0s)
(transform N7datalog25mk_interp_tail_simplifierE...3 rules 0s)
(transform N7datalog22mk_subsumption_checkerE...no-op 0s)
(transform N7datalog15mk_rule_inlinerE...no-op 0s)
(transform N7datalog22mk_subsumption_checkerE...no-op 0s)
(transform N7datalog15mk_rule_inlinerE...no-op 0s)
(transform N7datalog22mk_subsumption_checkerE...no-op 0s)
(transform N7datalog15mk_rule_inlinerE...no-op 0s)
(transform N7datalog22mk_subsumption_checkerE...no-op 0s)
(transform N7datalog8mk_sliceE...no-op 0s)
expand: query!0 (0, 0) FAR  w(0) 1. F 0.00
(spacer::context::check_reachability :time 0.00 :before-memory 4.48 :after-memory 5.11)
Entering level 1
BRUNCH_STAT max_query_lvl 0
BRUNCH_STAT num_queries 0
BRUNCH_STAT num_reach_queries 0
BRUNCH_STAT num_reach_reuse 0
BRUNCH_STAT inductive_lvl 0
BRUNCH_STAT max_depth 1
BRUNCH_STAT cex_depth 0
expand: query!0 (1, 0) FAR  w(0) 1.
	create_child: MAIN (0, 1) FAR 3750 U 0.00
expand: MAIN (0, 0) FAR  w(0) 3750. F 0.00
expand: query!0 (1, 0) FAR  w(0) 1. F 0.00
(spacer::context::check_reachability :time 0.01 :before-memory 5.11 :after-memory 6.22)
Propagating: 0 1  ! 2 
(spacer::context::propagate :time 0.00 :before-memory 6.22 :after-memory 6.22)
Entering level 2
BRUNCH_STAT max_query_lvl 1
BRUNCH_STAT num_queries 1
BRUNCH_STAT num_reach_queries 0
BRUNCH_STAT num_reach_reuse 0
BRUNCH_STAT inductive_lvl 0
BRUNCH_STAT max_depth 2
BRUNCH_STAT cex_depth 0
expand: query!0 (2, 0) FAR  w(0) 1.
	create_child: MAIN (1, 2) FAR 3750 U 0.00
expand: MAIN (1, 0) FAR  w(0) 3750.
	create_child: MAIN (0, 2) FAR 7888 U 0.01
expand: MAIN (0, 0) FAR  w(0) 7888. F 0.00
expand: MAIN (1, 0) FAR  w(0) 3750.
	create_child: MAIN (0, 2) FAR 8115 U 0.00
expand: MAIN (0, 0) FAR  w(0) 8115. F 0.00
expand: MAIN (1, 0) FAR  w(0) 3750.
	create_child: MAIN (0, 2) FAR 8225 U 0.00
expand: MAIN (0, 0) FAR  w(0) 8225. F 0.00
expand: MAIN (1, 0) FAR  w(0) 3750.
	create_child: MAIN (0, 2) FAR 8344 U 0.00
expand: MAIN (0, 0) FAR  w(0) 8344. F 0.00
expand: MAIN (1, 0) FAR  w(0) 3750.
	create_child: MAIN (0, 2) FAR 8463 U 0.00
expand: MAIN (0, 0) FAR  w(0) 8463
Matrix
1, 1, 

. F 0.00
expand: MAIN (1, 0) FAR  w(0) 3750.
	create_child: MAIN (0, 2) FAR 8663 U 0.00
expand: MAIN (0, 0) FAR  w(0) 8663
Matrix
1, 

. F 0.00
expand: MAIN (1, 0) FAR  w(0) 3750.
	create_child: MAIN (0, 2) FAR 8764 U 0.00
expand: MAIN (0, 0) FAR  w(0) 8764
Matrix
1, 

. F 0.00
expand: MAIN (1, 0) FAR  w(0) 3750.
	create_child: MAIN (0, 2) FAR 8881 U 0.00
expand: MAIN (0, 0) FAR  w(0) 8881
Matrix
1, 1, 1, 

. F 0.00
expand: MAIN (1, 0) FAR  w(0) 3750.
	create_child: MAIN (0, 2) FAR 9332 U 0.00
expand: MAIN (0, 0) FAR  w(0) 9332. F 0.00
expand: MAIN (1, 0) FAR  w(0) 3750.
	create_child: MAIN (0, 2) FAR 9488 U 0.00
expand: MAIN (0, 0) FAR  w(0) 9488. F 0.00
expand: MAIN (1, 0) FAR  w(0) 3750.
	create_child: MAIN (0, 2) FAR 9682 U 0.00
expand: MAIN (0, 0) FAR  w(0) 9682. F 0.00
expand: MAIN (1, 0) FAR  w(0) 3750.
	create_child: MAIN (0, 2) FAR 9870 U 0.00
expand: MAIN (0, 0) FAR  w(0) 9870. F 0.00
expand: MAIN (1, 0) FAR  w(0) 3750. F 0.00
expand: query!0 (2, 0) FAR  w(0) 1. F 0.00
(spacer::context::check_reachability :time 0.04 :before-memory 6.22 :after-memory 6.81)
Propagating: 0 1 2  ! 3 
(spacer::context::propagate :time 0.01 :before-memory 6.81 :after-memory 6.91)
Entering level 3
BRUNCH_STAT max_query_lvl 2
BRUNCH_STAT num_queries 14
BRUNCH_STAT num_reach_queries 0
BRUNCH_STAT num_reach_reuse 0
BRUNCH_STAT inductive_lvl 0
BRUNCH_STAT max_depth 3
BRUNCH_STAT cex_depth 0
expand: query!0 (3, 0) FAR  w(0) 1.
	create_child: MAIN (2, 3) FAR 3750 U 0.00
expand: MAIN (2, 0) FAR  w(0) 3750.
	create_child: MAIN (1, 3) FAR 12330 U 0.00
expand: MAIN (1, 0) FAR  w(0) 12330. F 0.00
expand: MAIN (2, 0) FAR  w(0) 3750.
	create_child: MAIN (1, 3) FAR 12389 U 0.00
expand: MAIN (1, 0) FAR  w(0) 12389. F 0.01
expand: MAIN (2, 0) FAR  w(0) 3750.
	create_child: MAIN (1, 3) FAR 13138 U 0.00
expand: MAIN (1, 0) FAR  w(0) 13138. T 0.00
is-reachable: MAIN (2, 0) FAR 3750 T 0.01
is-reachable: query!0 (3, 0) FAR 1 T 0.00
(spacer::context::check_reachability :time 0.03 :before-memory 6.91 :after-memory 8.17)
BRUNCH_STAT max_query_lvl 3
BRUNCH_STAT num_queries 18
BRUNCH_STAT num_reach_queries 3
BRUNCH_STAT num_reach_reuse 1
BRUNCH_STAT inductive_lvl 0
BRUNCH_STAT max_depth 3
BRUNCH_STAT cex_depth 3
(:SPACER-cex-depth                     3
 :SPACER-max-depth                     3
 :SPACER-max-query-lvl                 3
 :SPACER-num-invariants                8
 :SPACER-num-lemmas                    19
 :SPACER-num-properties                16
 :SPACER-num-queries                   18
 :SPACER-num-reach-queries             3
 :SPACER-num-reuse-reach-facts         1
 :added-eqs                            2924
 :arith-add-rows                       1858
 :arith-assert-diseq                   853
 :arith-assert-lower                   2078
 :arith-assert-upper                   2173
 :arith-bound-prop                     303
 :arith-conflicts                      27
 :arith-eq-adapter                     351
 :arith-fixed-eqs                      468
 :arith-offset-eqs                     711
 :arith-pivots                         246
 :bool-inductive-gen                   16
 :bool-inductive-gen-failures          18
 :conflicts                            268
 :decisions                            2265
 :del-clause                           89
 :final-checks                         36
 :minimized-lits                       342
 :mk-bool-var                          1138
 :mk-clause                            3145
 :num-checks                           92
 :propagations                         31348
 :time.itp_solver.itp_core             0.01
 :time.spacer.init_rules               0.00
 :time.spacer.init_rules.pt.init       0.00
 :time.spacer.solve                    0.09
 :time.spacer.solve.propagate          0.01
 :time.spacer.solve.reach              0.08
 :time.spacer.solve.reach.children     0.01
 :time.spacer.solve.reach.gen.bool_ind 0.01
 :time.spacer.solve.reach.is-reach     0.02
 :time.virtual_solver.proof            0.00
 :time.virtual_solver.smt.total        0.06
 :time.virtual_solver.smt.total.sat    0.03
 :virtual_solver.checks                92
 :virtual_solver.checks.sat            36)
BRUNCH_STAT max_query_lvl 3
BRUNCH_STAT num_queries 18
BRUNCH_STAT num_reach_queries 3
BRUNCH_STAT num_reach_reuse 1
BRUNCH_STAT inductive_lvl 0
BRUNCH_STAT max_depth 3
BRUNCH_STAT cex_depth 3

real	0m0.127s
user	0m0.112s
sys	0m0.012s
