(transform N7datalog13mk_coi_filterE...no-op 0s)
(transform N7datalog25mk_interp_tail_simplifierE...14 rules 0s)
(transform N7datalog27mk_quantifier_instantiationE...no-op 0s)
(transform N7datalog8mk_scaleE...no-op 0s)
(transform N7datalog18mk_karr_invariantsE...no-op 0s)
(transform N7datalog14mk_array_blastE...no-op 0s)
(transform N7datalog22mk_subsumption_checkerE...13 rules 0s)
(transform N7datalog12mk_bit_blastE...no-op 0s)
(transform N7datalog15mk_rule_inlinerE...3 rules 0.00385442s)
(transform N7datalog13mk_coi_filterE...no-op 0s)
(transform N7datalog25mk_interp_tail_simplifierE...3 rules 0s)
(transform N7datalog22mk_subsumption_checkerE...no-op 0s)
(transform N7datalog15mk_rule_inlinerE...no-op 0s)
(transform N7datalog13mk_coi_filterE...no-op 0s)
(transform N7datalog25mk_interp_tail_simplifierE...3 rules 0s)
(transform N7datalog22mk_subsumption_checkerE...no-op 0s)
(transform N7datalog15mk_rule_inlinerE...no-op 0s)
(transform N7datalog22mk_subsumption_checkerE...no-op 0s)
(transform N7datalog15mk_rule_inlinerE...no-op 0s)
(transform N7datalog22mk_subsumption_checkerE...no-op 0s)
(transform N7datalog15mk_rule_inlinerE...no-op 0s)
(transform N7datalog22mk_subsumption_checkerE...no-op 0s)
(transform N7datalog8mk_sliceE...no-op 0s)
expand: query!0 (0, 0) FAR  w(0) 1. F 0.00
(spacer::context::check_reachability :time 0.00 :before-memory 4.47 :after-memory 5.08)
Entering level 1
BRUNCH_STAT max_query_lvl 0
BRUNCH_STAT num_queries 0
BRUNCH_STAT num_reach_queries 0
BRUNCH_STAT num_reach_reuse 0
BRUNCH_STAT inductive_lvl 0
BRUNCH_STAT max_depth 1
BRUNCH_STAT cex_depth 0
expand: query!0 (1, 0) FAR  w(0) 1.
	create_child: MAIN (0, 1) FAR 3632 U 0.00
expand: MAIN (0, 0) FAR  w(0) 3632. F 0.00
expand: query!0 (1, 0) FAR  w(0) 1. F 0.00
(spacer::context::check_reachability :time 0.00 :before-memory 5.08 :after-memory 6.10)
Propagating: 0 1  ! 2 
(spacer::context::propagate :time 0.00 :before-memory 6.10 :after-memory 6.10)
Entering level 2
BRUNCH_STAT max_query_lvl 1
BRUNCH_STAT num_queries 1
BRUNCH_STAT num_reach_queries 0
BRUNCH_STAT num_reach_reuse 0
BRUNCH_STAT inductive_lvl 0
BRUNCH_STAT max_depth 2
BRUNCH_STAT cex_depth 0
expand: query!0 (2, 0) FAR  w(0) 1.
	create_child: MAIN (1, 2) FAR 3632 U 0.00
expand: MAIN (1, 0) FAR  w(0) 3632.
	create_child: MAIN (0, 2) FAR 7223 U 0.00
expand: MAIN (0, 0) FAR  w(0) 7223. F 0.00
expand: MAIN (1, 0) FAR  w(0) 3632.
	create_child: MAIN (0, 2) FAR 7404 U 0.00
expand: MAIN (0, 0) FAR  w(0) 7404. F 0.00
expand: MAIN (1, 0) FAR  w(0) 3632.
	create_child: MAIN (0, 2) FAR 7439 U 0.00
expand: MAIN (0, 0) FAR  w(0) 7439. F 0.00
expand: MAIN (1, 0) FAR  w(0) 3632.
	create_child: MAIN (0, 2) FAR 7337 U 0.00
expand: MAIN (0, 0) FAR  w(0) 7337. F 0.00
expand: MAIN (1, 0) FAR  w(0) 3632.
	create_child: MAIN (0, 2) FAR 7612 U 0.00
expand: MAIN (0, 0) FAR  w(0) 7612. F 0.00
expand: MAIN (1, 0) FAR  w(0) 3632.
	create_child: MAIN (0, 2) FAR 7695 U 0.00
expand: MAIN (0, 0) FAR  w(0) 7695. F 0.00
expand: MAIN (1, 0) FAR  w(0) 3632.
	create_child: MAIN (0, 2) FAR 7956 U 0.00
expand: MAIN (0, 0) FAR  w(0) 7956. F 0.00
expand: MAIN (1, 0) FAR  w(0) 3632.
	create_child: MAIN (0, 2) FAR 7985 U 0.00
expand: MAIN (0, 0) FAR  w(0) 7985. F 0.00
expand: MAIN (1, 0) FAR  w(0) 3632.
	create_child: MAIN (0, 2) FAR 8208 U 0.00
expand: MAIN (0, 0) FAR  w(0) 8208
Matrix
1, 

. F 0.00
expand: MAIN (1, 0) FAR  w(0) 3632. F 0.00
expand: query!0 (2, 0) FAR  w(0) 1. F 0.00
(spacer::context::check_reachability :time 0.03 :before-memory 6.10 :after-memory 6.51)
Propagating: 0 1 2  ! 3 
(spacer::context::propagate :time 0.01 :before-memory 6.51 :after-memory 6.51)
Entering level 3
BRUNCH_STAT max_query_lvl 2
BRUNCH_STAT num_queries 11
BRUNCH_STAT num_reach_queries 0
BRUNCH_STAT num_reach_reuse 0
BRUNCH_STAT inductive_lvl 0
BRUNCH_STAT max_depth 3
BRUNCH_STAT cex_depth 0
expand: query!0 (3, 0) FAR  w(0) 1.
	create_child: MAIN (2, 3) FAR 3632 U 0.00
expand: MAIN (2, 0) FAR  w(0) 3632.
	create_child: MAIN (1, 3) FAR 9251 U 0.00
expand: MAIN (1, 0) FAR  w(0) 9251. F 0.00
expand: MAIN (2, 0) FAR  w(0) 3632.
	create_child: MAIN (1, 3) FAR 9795 U 0.00
expand: MAIN (1, 0) FAR  w(0) 9795. F 0.00
expand: MAIN (2, 0) FAR  w(0) 3632.
	create_child: MAIN (1, 3) FAR 8208 U 0.00
expand: MAIN (1, 0) FAR  w(0) 8208. T 0.00
is-reachable: MAIN (2, 0) FAR 3632 T 0.02
is-reachable: query!0 (3, 0) FAR 1 T 0.01
(spacer::context::check_reachability :time 0.04 :before-memory 6.51 :after-memory 8.02)
BRUNCH_STAT max_query_lvl 3
BRUNCH_STAT num_queries 15
BRUNCH_STAT num_reach_queries 3
BRUNCH_STAT num_reach_reuse 1
BRUNCH_STAT inductive_lvl 0
BRUNCH_STAT max_depth 3
BRUNCH_STAT cex_depth 3
(:SPACER-cex-depth                     3
 :SPACER-max-depth                     3
 :SPACER-max-query-lvl                 3
 :SPACER-num-invariants                4
 :SPACER-num-lemmas                    16
 :SPACER-num-properties                13
 :SPACER-num-queries                   15
 :SPACER-num-reach-queries             3
 :SPACER-num-reuse-reach-facts         1
 :added-eqs                            1931
 :arith-add-rows                       1063
 :arith-assert-diseq                   701
 :arith-assert-lower                   1605
 :arith-assert-upper                   1506
 :arith-bound-prop                     182
 :arith-conflicts                      26
 :arith-eq-adapter                     232
 :arith-fixed-eqs                      225
 :arith-offset-eqs                     224
 :arith-pivots                         201
 :bool-inductive-gen                   13
 :bool-inductive-gen-failures          14
 :conflicts                            281
 :decisions                            1919
 :del-clause                           60
 :final-checks                         32
 :minimized-lits                       551
 :mk-bool-var                          1088
 :mk-clause                            2862
 :num-checks                           77
 :propagations                         31614
 :time.itp_solver.itp_core             0.01
 :time.spacer.init_rules               0.00
 :time.spacer.init_rules.pt.init       0.00
 :time.spacer.solve                    0.08
 :time.spacer.solve.propagate          0.01
 :time.spacer.solve.reach              0.07
 :time.spacer.solve.reach.children     0.01
 :time.spacer.solve.reach.gen.bool_ind 0.00
 :time.spacer.solve.reach.is-reach     0.02
 :time.virtual_solver.proof            0.00
 :time.virtual_solver.smt.total        0.05
 :time.virtual_solver.smt.total.sat    0.03
 :virtual_solver.checks                77
 :virtual_solver.checks.sat            32)
BRUNCH_STAT max_query_lvl 3
BRUNCH_STAT num_queries 15
BRUNCH_STAT num_reach_queries 3
BRUNCH_STAT num_reach_reuse 1
BRUNCH_STAT inductive_lvl 0
BRUNCH_STAT max_depth 3
BRUNCH_STAT cex_depth 3

real	0m0.114s
user	0m0.096s
sys	0m0.016s
