(transform N7datalog13mk_coi_filterE...no-op 0s)
(transform N7datalog25mk_interp_tail_simplifierE...14 rules 0s)
(transform N7datalog27mk_quantifier_instantiationE...no-op 0s)
(transform N7datalog8mk_scaleE...no-op 0s)
(transform N7datalog18mk_karr_invariantsE...no-op 0s)
(transform N7datalog14mk_array_blastE...no-op 0s)
(transform N7datalog22mk_subsumption_checkerE...13 rules 0s)
(transform N7datalog12mk_bit_blastE...no-op 0s)
(transform N7datalog15mk_rule_inlinerE...3 rules 0.00414688s)
(transform N7datalog13mk_coi_filterE...no-op 0s)
(transform N7datalog25mk_interp_tail_simplifierE...3 rules 0s)
(transform N7datalog22mk_subsumption_checkerE...no-op 0s)
(transform N7datalog15mk_rule_inlinerE...no-op 0s)
(transform N7datalog13mk_coi_filterE...no-op 0s)
(transform N7datalog25mk_interp_tail_simplifierE...3 rules 0s)
(transform N7datalog22mk_subsumption_checkerE...no-op 0s)
(transform N7datalog15mk_rule_inlinerE...no-op 0s)
(transform N7datalog22mk_subsumption_checkerE...no-op 0s)
(transform N7datalog15mk_rule_inlinerE...no-op 0s)
(transform N7datalog22mk_subsumption_checkerE...no-op 0s)
(transform N7datalog15mk_rule_inlinerE...no-op 0s)
(transform N7datalog22mk_subsumption_checkerE...no-op 0s)
(transform N7datalog8mk_sliceE...no-op 0s)
expand: query!0 (0, 0) FAR  w(0) 1. F 0.00
(spacer::context::check_reachability :time 0.00 :before-memory 4.48 :after-memory 5.11)
Entering level 1
BRUNCH_STAT max_query_lvl 0
BRUNCH_STAT num_queries 0
BRUNCH_STAT num_reach_queries 0
BRUNCH_STAT num_reach_reuse 0
BRUNCH_STAT inductive_lvl 0
BRUNCH_STAT max_depth 1
BRUNCH_STAT cex_depth 0
expand: query!0 (1, 0) FAR  w(0) 1.
	create_child: MAIN (0, 1) FAR 3751 U 0.00
expand: MAIN (0, 0) FAR  w(0) 3751. F 0.00
expand: query!0 (1, 0) FAR  w(0) 1. F 0.00
(spacer::context::check_reachability :time 0.01 :before-memory 5.11 :after-memory 6.20)
Propagating: 0 1  ! 2 
(spacer::context::propagate :time 0.00 :before-memory 6.20 :after-memory 6.20)
Entering level 2
BRUNCH_STAT max_query_lvl 1
BRUNCH_STAT num_queries 1
BRUNCH_STAT num_reach_queries 0
BRUNCH_STAT num_reach_reuse 0
BRUNCH_STAT inductive_lvl 0
BRUNCH_STAT max_depth 2
BRUNCH_STAT cex_depth 0
expand: query!0 (2, 0) FAR  w(0) 1.
	create_child: MAIN (1, 2) FAR 3751 U 0.00
expand: MAIN (1, 0) FAR  w(0) 3751.
	create_child: MAIN (0, 2) FAR 7889 U 0.01
expand: MAIN (0, 0) FAR  w(0) 7889. F 0.00
expand: MAIN (1, 0) FAR  w(0) 3751.
	create_child: MAIN (0, 2) FAR 8115 U 0.00
expand: MAIN (0, 0) FAR  w(0) 8115. F 0.00
expand: MAIN (1, 0) FAR  w(0) 3751.
	create_child: MAIN (0, 2) FAR 8226 U 0.00
expand: MAIN (0, 0) FAR  w(0) 8226. F 0.00
expand: MAIN (1, 0) FAR  w(0) 3751.
	create_child: MAIN (0, 2) FAR 8345 U 0.00
expand: MAIN (0, 0) FAR  w(0) 8345. F 0.00
expand: MAIN (1, 0) FAR  w(0) 3751.
	create_child: MAIN (0, 2) FAR 8457 U 0.00
expand: MAIN (0, 0) FAR  w(0) 8457. F 0.00
expand: MAIN (1, 0) FAR  w(0) 3751.
	create_child: MAIN (0, 2) FAR 8503 U 0.00
expand: MAIN (0, 0) FAR  w(0) 8503
Matrix
1, 1, 

. F 0.00
expand: MAIN (1, 0) FAR  w(0) 3751.
	create_child: MAIN (0, 2) FAR 8700 U 0.00
expand: MAIN (0, 0) FAR  w(0) 8700
Matrix
1, 

. F 0.00
expand: MAIN (1, 0) FAR  w(0) 3751.
	create_child: MAIN (0, 2) FAR 8837 U 0.00
expand: MAIN (0, 0) FAR  w(0) 8837
Matrix
1, 

. F 0.00
expand: MAIN (1, 0) FAR  w(0) 3751.
	create_child: MAIN (0, 2) FAR 9035 U 0.00
expand: MAIN (0, 0) FAR  w(0) 9035
Matrix
1, 1, 1, 

. F 0.00
expand: MAIN (1, 0) FAR  w(0) 3751.
	create_child: MAIN (0, 2) FAR 9339 U 0.00
expand: MAIN (0, 0) FAR  w(0) 9339. F 0.00
expand: MAIN (1, 0) FAR  w(0) 3751.
	create_child: MAIN (0, 2) FAR 9559 U 0.00
expand: MAIN (0, 0) FAR  w(0) 9559. F 0.00
expand: MAIN (1, 0) FAR  w(0) 3751.
	create_child: MAIN (0, 2) FAR 9806 U 0.00
expand: MAIN (0, 0) FAR  w(0) 9806. F 0.00
expand: MAIN (1, 0) FAR  w(0) 3751. F 0.00
expand: query!0 (2, 0) FAR  w(0) 1. F 0.00
(spacer::context::check_reachability :time 0.04 :before-memory 6.20 :after-memory 6.80)
Propagating: 0 1 2  ! 3 
(spacer::context::propagate :time 0.01 :before-memory 6.80 :after-memory 6.90)
Entering level 3
BRUNCH_STAT max_query_lvl 2
BRUNCH_STAT num_queries 14
BRUNCH_STAT num_reach_queries 0
BRUNCH_STAT num_reach_reuse 0
BRUNCH_STAT inductive_lvl 0
BRUNCH_STAT max_depth 3
BRUNCH_STAT cex_depth 0
expand: query!0 (3, 0) FAR  w(0) 1.
	create_child: MAIN (2, 3) FAR 3751 U 0.00
expand: MAIN (2, 0) FAR  w(0) 3751.
	create_child: MAIN (1, 3) FAR 12506 U 0.00
expand: MAIN (1, 0) FAR  w(0) 12506. F 0.00
expand: MAIN (2, 0) FAR  w(0) 3751.
	create_child: MAIN (1, 3) FAR 12458 U 0.00
expand: MAIN (1, 0) FAR  w(0) 12458. F 0.00
expand: MAIN (2, 0) FAR  w(0) 3751.
	create_child: MAIN (1, 3) FAR 13517 U 0.00
expand: MAIN (1, 0) FAR  w(0) 13517. T 0.00
is-reachable: MAIN (2, 0) FAR 3751 T 0.02
is-reachable: query!0 (3, 0) FAR 1 T 0.00
(spacer::context::check_reachability :time 0.04 :before-memory 6.90 :after-memory 8.42)
BRUNCH_STAT max_query_lvl 3
BRUNCH_STAT num_queries 18
BRUNCH_STAT num_reach_queries 3
BRUNCH_STAT num_reach_reuse 1
BRUNCH_STAT inductive_lvl 0
BRUNCH_STAT max_depth 3
BRUNCH_STAT cex_depth 3
(:SPACER-cex-depth                     3
 :SPACER-max-depth                     3
 :SPACER-max-query-lvl                 3
 :SPACER-num-invariants                9
 :SPACER-num-lemmas                    19
 :SPACER-num-properties                16
 :SPACER-num-queries                   18
 :SPACER-num-reach-queries             3
 :SPACER-num-reuse-reach-facts         1
 :added-eqs                            3009
 :arith-add-rows                       1910
 :arith-assert-diseq                   991
 :arith-assert-lower                   2333
 :arith-assert-upper                   2410
 :arith-bound-prop                     295
 :arith-conflicts                      38
 :arith-eq-adapter                     397
 :arith-fixed-eqs                      466
 :arith-offset-eqs                     657
 :arith-pivots                         273
 :bool-inductive-gen                   16
 :bool-inductive-gen-failures          18
 :conflicts                            293
 :decisions                            2302
 :del-clause                           83
 :final-checks                         35
 :minimized-lits                       420
 :mk-bool-var                          1136
 :mk-clause                            3167
 :num-checks                           95
 :propagations                         35430
 :time.itp_solver.itp_core             0.01
 :time.spacer.init_rules               0.00
 :time.spacer.init_rules.pt.init       0.00
 :time.spacer.solve                    0.10
 :time.spacer.solve.propagate          0.01
 :time.spacer.solve.reach              0.09
 :time.spacer.solve.reach.children     0.01
 :time.spacer.solve.reach.gen.bool_ind 0.01
 :time.spacer.solve.reach.is-reach     0.03
 :time.virtual_solver.proof            0.00
 :time.virtual_solver.smt.total        0.07
 :time.virtual_solver.smt.total.sat    0.04
 :virtual_solver.checks                95
 :virtual_solver.checks.sat            35)
BRUNCH_STAT max_query_lvl 3
BRUNCH_STAT num_queries 18
BRUNCH_STAT num_reach_queries 3
BRUNCH_STAT num_reach_reuse 1
BRUNCH_STAT inductive_lvl 0
BRUNCH_STAT max_depth 3
BRUNCH_STAT cex_depth 3

real	0m0.141s
user	0m0.136s
sys	0m0.004s
