(transform N7datalog13mk_coi_filterE...no-op 0s)
(transform N7datalog25mk_interp_tail_simplifierE...12 rules 0s)
(transform N7datalog27mk_quantifier_instantiationE...no-op 0s)
(transform N7datalog8mk_scaleE...no-op 0s)
(transform N7datalog18mk_karr_invariantsE...no-op 0s)
(transform N7datalog14mk_array_blastE...no-op 0s)
(transform N7datalog22mk_subsumption_checkerE...11 rules 0s)
(transform N7datalog12mk_bit_blastE...no-op 0s)
(transform N7datalog15mk_rule_inlinerE...3 rules 0.00338579s)
(transform N7datalog13mk_coi_filterE...no-op 0s)
(transform N7datalog25mk_interp_tail_simplifierE...3 rules 0s)
(transform N7datalog22mk_subsumption_checkerE...no-op 0s)
(transform N7datalog15mk_rule_inlinerE...no-op 0s)
(transform N7datalog13mk_coi_filterE...no-op 0s)
(transform N7datalog25mk_interp_tail_simplifierE...3 rules 0s)
(transform N7datalog22mk_subsumption_checkerE...no-op 0s)
(transform N7datalog15mk_rule_inlinerE...no-op 0s)
(transform N7datalog22mk_subsumption_checkerE...no-op 0s)
(transform N7datalog15mk_rule_inlinerE...no-op 0s)
(transform N7datalog22mk_subsumption_checkerE...no-op 0s)
(transform N7datalog15mk_rule_inlinerE...no-op 0s)
(transform N7datalog22mk_subsumption_checkerE...no-op 0s)
(transform N7datalog8mk_sliceE...no-op 0s)
expand: query!0 (0, 0) FAR  w(0) 1. F 0.00
(spacer::context::check_reachability :time 0.00 :before-memory 4.47 :after-memory 4.97)
Entering level 1
BRUNCH_STAT max_query_lvl 0
BRUNCH_STAT num_queries 0
BRUNCH_STAT num_reach_queries 0
BRUNCH_STAT num_reach_reuse 0
BRUNCH_STAT inductive_lvl 0
BRUNCH_STAT max_depth 1
BRUNCH_STAT cex_depth 0
expand: query!0 (1, 0) FAR  w(0) 1.
	create_child: MAIN (0, 1) FAR 3327 U 0.00
expand: MAIN (0, 0) FAR  w(0) 3327. F 0.00
expand: query!0 (1, 0) FAR  w(0) 1. F 0.00
(spacer::context::check_reachability :time 0.00 :before-memory 4.97 :after-memory 5.90)
Propagating: 0 1  ! 2 
(spacer::context::propagate :time 0.00 :before-memory 5.90 :after-memory 6.10)
Entering level 2
BRUNCH_STAT max_query_lvl 1
BRUNCH_STAT num_queries 1
BRUNCH_STAT num_reach_queries 0
BRUNCH_STAT num_reach_reuse 0
BRUNCH_STAT inductive_lvl 0
BRUNCH_STAT max_depth 2
BRUNCH_STAT cex_depth 0
expand: query!0 (2, 0) FAR  w(0) 1.
	create_child: MAIN (1, 2) FAR 3327 U 0.00
expand: MAIN (1, 0) FAR  w(0) 3327.
	create_child: MAIN (0, 2) FAR 6906 U 0.00
expand: MAIN (0, 0) FAR  w(0) 6906. F 0.00
expand: MAIN (1, 0) FAR  w(0) 3327.
	create_child: MAIN (0, 2) FAR 7090 U 0.00
expand: MAIN (0, 0) FAR  w(0) 7090. F 0.00
expand: MAIN (1, 0) FAR  w(0) 3327.
	create_child: MAIN (0, 2) FAR 7177 U 0.00
expand: MAIN (0, 0) FAR  w(0) 7177. F 0.00
expand: MAIN (1, 0) FAR  w(0) 3327.
	create_child: MAIN (0, 2) FAR 7421 U 0.00
expand: MAIN (0, 0) FAR  w(0) 7421. F 0.00
expand: MAIN (1, 0) FAR  w(0) 3327. F 0.00
expand: query!0 (2, 0) FAR  w(0) 1. F 0.00
(spacer::context::check_reachability :time 0.01 :before-memory 6.10 :after-memory 6.35)
Propagating: 0 1 2  ! 3 
(spacer::context::propagate :time 0.00 :before-memory 6.35 :after-memory 6.35)
Entering level 3
BRUNCH_STAT max_query_lvl 2
BRUNCH_STAT num_queries 6
BRUNCH_STAT num_reach_queries 0
BRUNCH_STAT num_reach_reuse 0
BRUNCH_STAT inductive_lvl 0
BRUNCH_STAT max_depth 3
BRUNCH_STAT cex_depth 0
expand: query!0 (3, 0) FAR  w(0) 1.
	create_child: MAIN (2, 3) FAR 3327 U 0.00
expand: MAIN (2, 0) FAR  w(0) 3327.
	create_child: MAIN (1, 3) FAR 7421 U 0.00
expand: MAIN (1, 0) FAR  w(0) 7421. F 0.00
expand: MAIN (2, 0) FAR  w(0) 3327.
	create_child: MAIN (1, 3) FAR 9027 U 0.00
expand: MAIN (1, 0) FAR  w(0) 9027
Matrix
1, 1, 

. F 0.00
expand: MAIN (2, 0) FAR  w(0) 3327. F 0.00
expand: query!0 (3, 0) FAR  w(0) 1. F 0.00
(spacer::context::check_reachability :time 0.01 :before-memory 6.35 :after-memory 6.57)
Propagating: 1 
(spacer::context::propagate :time 0.00 :before-memory 6.57 :after-memory 6.57)
(define-fun MAIN ((x!0 Int)
 (x!1 Bool)
 (x!2 Int)
 (x!3 Int)
 (x!4 Int)
 (x!5 Int)
 (x!6 Int)
 (x!7 Int)
 (x!8 Bool)
 (x!9 Bool)
 (x!10 Bool)
 (x!11 Bool)) Bool
  (let ((a!1 (not (<= (+ x!3 x!4 x!5 x!6 (* (- 1) x!0)) (- 2)))))
    (and (>= (+ x!0
                (* (- 1) x!2)
                (* (- 1) x!3)
                (* (- 1) x!4)
                (* (- 1) x!5)
                (* (- 1) x!6))
             0)
         x!11
         (not x!10)
         (not x!8)
         (= (+ x!2 x!3 x!5 x!6 (* (- 1) x!0)) 0)
         (or a!1 (not (<= x!2 1))))))
BRUNCH_STAT max_query_lvl 3
BRUNCH_STAT num_queries 9
BRUNCH_STAT num_reach_queries 0
BRUNCH_STAT num_reach_reuse 0
BRUNCH_STAT inductive_lvl 1
BRUNCH_STAT max_depth 3
BRUNCH_STAT cex_depth 0
(:SPACER-inductive-level               1
 :SPACER-max-depth                     3
 :SPACER-max-query-lvl                 3
 :SPACER-num-invariants                7
 :SPACER-num-lemmas                    13
 :SPACER-num-properties                8
 :SPACER-num-queries                   9
 :added-eqs                            680
 :arith-add-rows                       221
 :arith-assert-diseq                   266
 :arith-assert-lower                   638
 :arith-assert-upper                   504
 :arith-bound-prop                     79
 :arith-conflicts                      20
 :arith-eq-adapter                     114
 :arith-fixed-eqs                      101
 :arith-offset-eqs                     61
 :arith-pivots                         71
 :bool-inductive-gen                   9
 :bool-inductive-gen-failures          8
 :conflicts                            108
 :decisions                            808
 :del-clause                           53
 :final-checks                         17
 :minimized-lits                       264
 :mk-bool-var                          563
 :mk-clause                            1256
 :num-checks                           49
 :propagations                         9631
 :time.itp_solver.itp_core             0.01
 :time.spacer.init_rules               0.00
 :time.spacer.init_rules.pt.init       0.00
 :time.spacer.solve                    0.03
 :time.spacer.solve.propagate          0.00
 :time.spacer.solve.reach              0.03
 :time.spacer.solve.reach.children     0.00
 :time.spacer.solve.reach.gen.bool_ind 0.00
 :time.virtual_solver.proof            0.00
 :time.virtual_solver.smt.total        0.02
 :time.virtual_solver.smt.total.sat    0.01
 :virtual_solver.checks                49
 :virtual_solver.checks.sat            17)
BRUNCH_STAT max_query_lvl 3
BRUNCH_STAT num_queries 9
BRUNCH_STAT num_reach_queries 0
BRUNCH_STAT num_reach_reuse 0
BRUNCH_STAT inductive_lvl 1
BRUNCH_STAT max_depth 3
BRUNCH_STAT cex_depth 0

real	0m0.069s
user	0m0.068s
sys	0m0.000s
