(transform N7datalog13mk_coi_filterE...no-op 0s)
(transform N7datalog25mk_interp_tail_simplifierE...14 rules 0s)
(transform N7datalog27mk_quantifier_instantiationE...no-op 0s)
(transform N7datalog8mk_scaleE...no-op 0s)
(transform N7datalog18mk_karr_invariantsE...no-op 0s)
(transform N7datalog14mk_array_blastE...no-op 0s)
(transform N7datalog22mk_subsumption_checkerE...13 rules 0s)
(transform N7datalog12mk_bit_blastE...no-op 0s)
(transform N7datalog15mk_rule_inlinerE...3 rules 0.00409798s)
(transform N7datalog13mk_coi_filterE...no-op 0s)
(transform N7datalog25mk_interp_tail_simplifierE...3 rules 0s)
(transform N7datalog22mk_subsumption_checkerE...no-op 0s)
(transform N7datalog15mk_rule_inlinerE...no-op 0s)
(transform N7datalog13mk_coi_filterE...no-op 0s)
(transform N7datalog25mk_interp_tail_simplifierE...3 rules 0s)
(transform N7datalog22mk_subsumption_checkerE...no-op 0s)
(transform N7datalog15mk_rule_inlinerE...no-op 0s)
(transform N7datalog22mk_subsumption_checkerE...no-op 0s)
(transform N7datalog15mk_rule_inlinerE...no-op 0s)
(transform N7datalog22mk_subsumption_checkerE...no-op 0s)
(transform N7datalog15mk_rule_inlinerE...no-op 0s)
(transform N7datalog22mk_subsumption_checkerE...no-op 0s)
(transform N7datalog8mk_sliceE...no-op 0s)
expand: query!0 (0, 0) FAR  w(0) 1. F 0.00
(spacer::context::check_reachability :time 0.00 :before-memory 4.48 :after-memory 5.11)
Entering level 1
BRUNCH_STAT max_query_lvl 0
BRUNCH_STAT num_queries 0
BRUNCH_STAT num_reach_queries 0
BRUNCH_STAT num_reach_reuse 0
BRUNCH_STAT inductive_lvl 0
BRUNCH_STAT max_depth 1
BRUNCH_STAT cex_depth 0
expand: query!0 (1, 0) FAR  w(0) 1.
	create_child: MAIN (0, 1) FAR 3739 U 0.00
expand: MAIN (0, 0) FAR  w(0) 3739. F 0.00
expand: query!0 (1, 0) FAR  w(0) 1. F 0.00
(spacer::context::check_reachability :time 0.01 :before-memory 5.11 :after-memory 6.22)
Propagating: 0 1  ! 2 
(spacer::context::propagate :time 0.00 :before-memory 6.22 :after-memory 6.22)
Entering level 2
BRUNCH_STAT max_query_lvl 1
BRUNCH_STAT num_queries 1
BRUNCH_STAT num_reach_queries 0
BRUNCH_STAT num_reach_reuse 0
BRUNCH_STAT inductive_lvl 0
BRUNCH_STAT max_depth 2
BRUNCH_STAT cex_depth 0
expand: query!0 (2, 0) FAR  w(0) 1.
	create_child: MAIN (1, 2) FAR 3739 U 0.00
expand: MAIN (1, 0) FAR  w(0) 3739.
	create_child: MAIN (0, 2) FAR 7873 U 0.01
expand: MAIN (0, 0) FAR  w(0) 7873. F 0.00
expand: MAIN (1, 0) FAR  w(0) 3739.
	create_child: MAIN (0, 2) FAR 8099 U 0.00
expand: MAIN (0, 0) FAR  w(0) 8099. F 0.00
expand: MAIN (1, 0) FAR  w(0) 3739.
	create_child: MAIN (0, 2) FAR 8210 U 0.00
expand: MAIN (0, 0) FAR  w(0) 8210. F 0.00
expand: MAIN (1, 0) FAR  w(0) 3739.
	create_child: MAIN (0, 2) FAR 8327 U 0.00
expand: MAIN (0, 0) FAR  w(0) 8327. F 0.00
expand: MAIN (1, 0) FAR  w(0) 3739.
	create_child: MAIN (0, 2) FAR 8440 U 0.00
expand: MAIN (0, 0) FAR  w(0) 8440. F 0.00
expand: MAIN (1, 0) FAR  w(0) 3739.
	create_child: MAIN (0, 2) FAR 8487 U 0.00
expand: MAIN (0, 0) FAR  w(0) 8487
Matrix
1, 1, 

. F 0.00
expand: MAIN (1, 0) FAR  w(0) 3739.
	create_child: MAIN (0, 2) FAR 8684 U 0.00
expand: MAIN (0, 0) FAR  w(0) 8684
Matrix
1, 

. F 0.00
expand: MAIN (1, 0) FAR  w(0) 3739.
	create_child: MAIN (0, 2) FAR 8796 U 0.00
expand: MAIN (0, 0) FAR  w(0) 8796
Matrix
1, 

. F 0.00
expand: MAIN (1, 0) FAR  w(0) 3739.
	create_child: MAIN (0, 2) FAR 9034 U 0.00
expand: MAIN (0, 0) FAR  w(0) 9034
Matrix
1, 1, 1, 

. F 0.00
expand: MAIN (1, 0) FAR  w(0) 3739.
	create_child: MAIN (0, 2) FAR 9352 U 0.00
expand: MAIN (0, 0) FAR  w(0) 9352. F 0.00
expand: MAIN (1, 0) FAR  w(0) 3739.
	create_child: MAIN (0, 2) FAR 9591 U 0.00
expand: MAIN (0, 0) FAR  w(0) 9591. F 0.00
expand: MAIN (1, 0) FAR  w(0) 3739.
	create_child: MAIN (0, 2) FAR 9872 U 0.00
expand: MAIN (0, 0) FAR  w(0) 9872. F 0.00
expand: MAIN (1, 0) FAR  w(0) 3739. F 0.00
expand: query!0 (2, 0) FAR  w(0) 1. F 0.00
(spacer::context::check_reachability :time 0.04 :before-memory 6.22 :after-memory 6.80)
Propagating: 0 1 2  ! 3 
(spacer::context::propagate :time 0.01 :before-memory 6.80 :after-memory 6.90)
Entering level 3
BRUNCH_STAT max_query_lvl 2
BRUNCH_STAT num_queries 14
BRUNCH_STAT num_reach_queries 0
BRUNCH_STAT num_reach_reuse 0
BRUNCH_STAT inductive_lvl 0
BRUNCH_STAT max_depth 3
BRUNCH_STAT cex_depth 0
expand: query!0 (3, 0) FAR  w(0) 1.
	create_child: MAIN (2, 3) FAR 3739 U 0.00
expand: MAIN (2, 0) FAR  w(0) 3739.
	create_child: MAIN (1, 3) FAR 12524 U 0.00
expand: MAIN (1, 0) FAR  w(0) 12524. F 0.00
expand: MAIN (2, 0) FAR  w(0) 3739.
	create_child: MAIN (1, 3) FAR 12589 U 0.00
expand: MAIN (1, 0) FAR  w(0) 12589. F 0.00
expand: MAIN (2, 0) FAR  w(0) 3739.
	create_child: MAIN (1, 3) FAR 12754 U 0.00
expand: MAIN (1, 0) FAR  w(0) 12754. F 0.00
expand: MAIN (2, 0) FAR  w(0) 3739.
	create_child: MAIN (1, 3) FAR 13258 U 0.00
expand: MAIN (1, 0) FAR  w(0) 13258. T 0.00
is-reachable: MAIN (2, 0) FAR 3739 T 0.02
is-reachable: query!0 (3, 0) FAR 1 T 0.00
(spacer::context::check_reachability :time 0.05 :before-memory 6.90 :after-memory 8.39)
BRUNCH_STAT max_query_lvl 3
BRUNCH_STAT num_queries 19
BRUNCH_STAT num_reach_queries 3
BRUNCH_STAT num_reach_reuse 1
BRUNCH_STAT inductive_lvl 0
BRUNCH_STAT max_depth 3
BRUNCH_STAT cex_depth 3
(:SPACER-cex-depth                     3
 :SPACER-max-depth                     3
 :SPACER-max-query-lvl                 3
 :SPACER-num-invariants                9
 :SPACER-num-lemmas                    20
 :SPACER-num-properties                17
 :SPACER-num-queries                   19
 :SPACER-num-reach-queries             3
 :SPACER-num-reuse-reach-facts         1
 :added-eqs                            2839
 :arith-add-rows                       1934
 :arith-assert-diseq                   932
 :arith-assert-lower                   2229
 :arith-assert-upper                   2223
 :arith-bound-prop                     293
 :arith-conflicts                      28
 :arith-eq-adapter                     362
 :arith-fixed-eqs                      410
 :arith-offset-eqs                     586
 :arith-pivots                         286
 :bool-inductive-gen                   17
 :bool-inductive-gen-failures          20
 :conflicts                            297
 :decisions                            2484
 :del-clause                           84
 :final-checks                         38
 :minimized-lits                       680
 :mk-bool-var                          1143
 :mk-clause                            3184
 :num-checks                           100
 :propagations                         36523
 :time.itp_solver.itp_core             0.01
 :time.spacer.init_rules               0.00
 :time.spacer.init_rules.pt.init       0.00
 :time.spacer.solve                    0.11
 :time.spacer.solve.propagate          0.01
 :time.spacer.solve.reach              0.09
 :time.spacer.solve.reach.children     0.01
 :time.spacer.solve.reach.gen.bool_ind 0.01
 :time.spacer.solve.reach.is-reach     0.03
 :time.virtual_solver.proof            0.00
 :time.virtual_solver.smt.total        0.07
 :time.virtual_solver.smt.total.sat    0.04
 :virtual_solver.checks                100
 :virtual_solver.checks.sat            38)
BRUNCH_STAT max_query_lvl 3
BRUNCH_STAT num_queries 19
BRUNCH_STAT num_reach_queries 3
BRUNCH_STAT num_reach_reuse 1
BRUNCH_STAT inductive_lvl 0
BRUNCH_STAT max_depth 3
BRUNCH_STAT cex_depth 3

real	0m0.144s
user	0m0.136s
sys	0m0.004s
