(transform N7datalog13mk_coi_filterE...no-op 0s)
(transform N7datalog25mk_interp_tail_simplifierE...14 rules 0s)
(transform N7datalog27mk_quantifier_instantiationE...no-op 0s)
(transform N7datalog8mk_scaleE...no-op 0s)
(transform N7datalog18mk_karr_invariantsE...no-op 0s)
(transform N7datalog14mk_array_blastE...no-op 0s)
(transform N7datalog22mk_subsumption_checkerE...13 rules 0s)
(transform N7datalog12mk_bit_blastE...no-op 0s)
(transform N7datalog15mk_rule_inlinerE...3 rules 0.00381588s)
(transform N7datalog13mk_coi_filterE...no-op 0s)
(transform N7datalog25mk_interp_tail_simplifierE...3 rules 0s)
(transform N7datalog22mk_subsumption_checkerE...no-op 0s)
(transform N7datalog15mk_rule_inlinerE...no-op 0s)
(transform N7datalog13mk_coi_filterE...no-op 0s)
(transform N7datalog25mk_interp_tail_simplifierE...3 rules 0s)
(transform N7datalog22mk_subsumption_checkerE...no-op 0s)
(transform N7datalog15mk_rule_inlinerE...no-op 0s)
(transform N7datalog22mk_subsumption_checkerE...no-op 0s)
(transform N7datalog15mk_rule_inlinerE...no-op 0s)
(transform N7datalog22mk_subsumption_checkerE...no-op 0s)
(transform N7datalog15mk_rule_inlinerE...no-op 0s)
(transform N7datalog22mk_subsumption_checkerE...no-op 0s)
(transform N7datalog8mk_sliceE...no-op 0s)
expand: query!0 (0, 0) FAR  w(0) 1. F 0.00
(spacer::context::check_reachability :time 0.00 :before-memory 4.47 :after-memory 4.99)
Entering level 1
BRUNCH_STAT max_query_lvl 0
BRUNCH_STAT num_queries 0
BRUNCH_STAT num_reach_queries 0
BRUNCH_STAT num_reach_reuse 0
BRUNCH_STAT inductive_lvl 0
BRUNCH_STAT max_depth 1
BRUNCH_STAT cex_depth 0
expand: query!0 (1, 0) FAR  w(0) 1.
	create_child: MAIN (0, 1) FAR 3636 U 0.00
expand: MAIN (0, 0) FAR  w(0) 3636. F 0.00
expand: query!0 (1, 0) FAR  w(0) 1. F 0.00
(spacer::context::check_reachability :time 0.00 :before-memory 4.99 :after-memory 6.11)
Propagating: 0 1  ! 2 
(spacer::context::propagate :time 0.00 :before-memory 6.11 :after-memory 6.11)
Entering level 2
BRUNCH_STAT max_query_lvl 1
BRUNCH_STAT num_queries 1
BRUNCH_STAT num_reach_queries 0
BRUNCH_STAT num_reach_reuse 0
BRUNCH_STAT inductive_lvl 0
BRUNCH_STAT max_depth 2
BRUNCH_STAT cex_depth 0
expand: query!0 (2, 0) FAR  w(0) 1.
	create_child: MAIN (1, 2) FAR 3636 U 0.00
expand: MAIN (1, 0) FAR  w(0) 3636.
	create_child: MAIN (0, 2) FAR 7360 U 0.00
expand: MAIN (0, 0) FAR  w(0) 7360. F 0.00
expand: MAIN (1, 0) FAR  w(0) 3636.
	create_child: MAIN (0, 2) FAR 7418 U 0.00
expand: MAIN (0, 0) FAR  w(0) 7418. F 0.00
expand: MAIN (1, 0) FAR  w(0) 3636.
	create_child: MAIN (0, 2) FAR 7416 U 0.00
expand: MAIN (0, 0) FAR  w(0) 7416. F 0.00
expand: MAIN (1, 0) FAR  w(0) 3636.
	create_child: MAIN (0, 2) FAR 7212 U 0.00
expand: MAIN (0, 0) FAR  w(0) 7212. F 0.00
expand: MAIN (1, 0) FAR  w(0) 3636.
	create_child: MAIN (0, 2) FAR 7652 U 0.00
expand: MAIN (0, 0) FAR  w(0) 7652. F 0.00
expand: MAIN (1, 0) FAR  w(0) 3636.
	create_child: MAIN (0, 2) FAR 7783 U 0.00
expand: MAIN (0, 0) FAR  w(0) 7783. F 0.00
expand: MAIN (1, 0) FAR  w(0) 3636.
	create_child: MAIN (0, 2) FAR 7956 U 0.00
expand: MAIN (0, 0) FAR  w(0) 7956. F 0.00
expand: MAIN (1, 0) FAR  w(0) 3636.
	create_child: MAIN (0, 2) FAR 8069 U 0.00
expand: MAIN (0, 0) FAR  w(0) 8069. F 0.00
expand: MAIN (1, 0) FAR  w(0) 3636. F 0.00
expand: query!0 (2, 0) FAR  w(0) 1. F 0.00
(spacer::context::check_reachability :time 0.03 :before-memory 6.11 :after-memory 6.46)
Propagating: 0 1 2  ! 3 
(spacer::context::propagate :time 0.00 :before-memory 6.46 :after-memory 6.46)
Entering level 3
BRUNCH_STAT max_query_lvl 2
BRUNCH_STAT num_queries 10
BRUNCH_STAT num_reach_queries 0
BRUNCH_STAT num_reach_reuse 0
BRUNCH_STAT inductive_lvl 0
BRUNCH_STAT max_depth 3
BRUNCH_STAT cex_depth 0
expand: query!0 (3, 0) FAR  w(0) 1.
	create_child: MAIN (2, 3) FAR 3636 U 0.00
expand: MAIN (2, 0) FAR  w(0) 3636.
	create_child: MAIN (1, 3) FAR 9834 U 0.00
expand: MAIN (1, 0) FAR  w(0) 9834. F 0.00
expand: MAIN (2, 0) FAR  w(0) 3636.
	create_child: MAIN (1, 3) FAR 10128 U 0.00
expand: MAIN (1, 0) FAR  w(0) 10128. F 0.00
expand: MAIN (2, 0) FAR  w(0) 3636.
	create_child: MAIN (1, 3) FAR 7212 U 0.00
expand: MAIN (1, 0) FAR  w(0) 7212. F 0.00
expand: MAIN (2, 0) FAR  w(0) 3636.
	create_child: MAIN (1, 3) FAR 10542 U 0.00
expand: MAIN (1, 0) FAR  w(0) 10542
Matrix
1, 1, 

. F 0.00
expand: MAIN (2, 0) FAR  w(0) 3636. F 0.01
expand: query!0 (3, 0) FAR  w(0) 1. F 0.00
(spacer::context::check_reachability :time 0.02 :before-memory 6.46 :after-memory 6.93)
Propagating: 1 2 3  ! 4 
(spacer::context::propagate :time 0.01 :before-memory 6.93 :after-memory 7.28)
Entering level 4
BRUNCH_STAT max_query_lvl 3
BRUNCH_STAT num_queries 15
BRUNCH_STAT num_reach_queries 0
BRUNCH_STAT num_reach_reuse 0
BRUNCH_STAT inductive_lvl 0
BRUNCH_STAT max_depth 4
BRUNCH_STAT cex_depth 0
expand: query!0 (4, 0) FAR  w(0) 1.
	create_child: MAIN (3, 4) FAR 3636 U 0.00
expand: MAIN (3, 0) FAR  w(0) 3636.
	create_child: MAIN (2, 4) FAR 7212 U 0.00
expand: MAIN (2, 0) FAR  w(0) 7212. F 0.00
expand: MAIN (3, 0) FAR  w(0) 3636. F 0.00
expand: query!0 (4, 0) FAR  w(0) 1. F 0.00
(spacer::context::check_reachability :time 0.01 :before-memory 7.28 :after-memory 7.40)
Propagating: 2 
(spacer::context::propagate :time 0.00 :before-memory 7.40 :after-memory 7.40)
(define-fun MAIN ((x!0 Int)
 (x!1 Int)
 (x!2 Int)
 (x!3 Int)
 (x!4 Int)
 (x!5 Int)
 (x!6 Bool)
 (x!7 Bool)
 (x!8 Bool)
 (x!9 Int)
 (x!10 Bool)
 (x!11 Bool)) Bool
  (let ((a!1 (or (>= (+ x!9 (* (- 1) x!2)) 0) (not x!7) (<= x!0 0)))
        (a!2 (or (<= (+ x!0 (* (- 1) x!9)) 0) (not x!7)))
        (a!3 (or (<= (+ x!0 x!1 x!3 x!4 (* (- 1) x!9)) 0) (not x!7)))
        (a!4 (or (>= (+ x!9
                        (* (- 1) x!0)
                        (* (- 1) x!1)
                        (* (- 1) x!2)
                        (* (- 1) x!3)
                        (* (- 1) x!4))
                     0)
                 (not x!7))))
    (and a!1
         x!11
         (>= x!1 0)
         (not x!6)
         (not x!10)
         (not x!8)
         (>= x!3 0)
         a!2
         a!3
         a!4)))
BRUNCH_STAT max_query_lvl 4
BRUNCH_STAT num_queries 17
BRUNCH_STAT num_reach_queries 0
BRUNCH_STAT num_reach_reuse 0
BRUNCH_STAT inductive_lvl 2
BRUNCH_STAT max_depth 4
BRUNCH_STAT cex_depth 0
(:SPACER-inductive-level               2
 :SPACER-max-depth                     4
 :SPACER-max-query-lvl                 4
 :SPACER-num-invariants                11
 :SPACER-num-lemmas                    22
 :SPACER-num-properties                15
 :SPACER-num-queries                   17
 :added-eqs                            1679
 :arith-add-rows                       1280
 :arith-assert-diseq                   691
 :arith-assert-lower                   1614
 :arith-assert-upper                   1376
 :arith-bound-prop                     147
 :arith-conflicts                      26
 :arith-eq-adapter                     197
 :arith-fixed-eqs                      210
 :arith-offset-eqs                     138
 :arith-pivots                         234
 :bool-inductive-gen                   17
 :bool-inductive-gen-failures          22
 :conflicts                            249
 :decisions                            2364
 :del-clause                           69
 :final-checks                         41
 :minimized-lits                       306
 :mk-bool-var                          782
 :mk-clause                            1656
 :num-checks                           114
 :propagations                         28146
 :time.itp_solver.itp_core             0.01
 :time.spacer.init_rules               0.00
 :time.spacer.init_rules.pt.init       0.00
 :time.spacer.solve                    0.08
 :time.spacer.solve.propagate          0.01
 :time.spacer.solve.reach              0.06
 :time.spacer.solve.reach.children     0.01
 :time.spacer.solve.reach.gen.bool_ind 0.01
 :time.virtual_solver.proof            0.01
 :time.virtual_solver.smt.total        0.05
 :time.virtual_solver.smt.total.sat    0.02
 :virtual_solver.checks                114
 :virtual_solver.checks.sat            41)
BRUNCH_STAT max_query_lvl 4
BRUNCH_STAT num_queries 17
BRUNCH_STAT num_reach_queries 0
BRUNCH_STAT num_reach_reuse 0
BRUNCH_STAT inductive_lvl 2
BRUNCH_STAT max_depth 4
BRUNCH_STAT cex_depth 0

real	0m0.116s
user	0m0.096s
sys	0m0.016s
