(transform N7datalog13mk_coi_filterE...no-op 0s)
(transform N7datalog25mk_interp_tail_simplifierE...12 rules 0s)
(transform N7datalog27mk_quantifier_instantiationE...no-op 0s)
(transform N7datalog8mk_scaleE...no-op 0s)
(transform N7datalog18mk_karr_invariantsE...no-op 0s)
(transform N7datalog14mk_array_blastE...no-op 0s)
(transform N7datalog22mk_subsumption_checkerE...11 rules 0s)
(transform N7datalog12mk_bit_blastE...no-op 0s)
(transform N7datalog15mk_rule_inlinerE...3 rules 0.00176005s)
(transform N7datalog13mk_coi_filterE...no-op 0s)
(transform N7datalog25mk_interp_tail_simplifierE...3 rules 0s)
(transform N7datalog22mk_subsumption_checkerE...no-op 0s)
(transform N7datalog15mk_rule_inlinerE...no-op 0s)
(transform N7datalog13mk_coi_filterE...no-op 0s)
(transform N7datalog25mk_interp_tail_simplifierE...3 rules 0s)
(transform N7datalog22mk_subsumption_checkerE...no-op 0s)
(transform N7datalog15mk_rule_inlinerE...no-op 0s)
(transform N7datalog22mk_subsumption_checkerE...no-op 0s)
(transform N7datalog15mk_rule_inlinerE...no-op 0s)
(transform N7datalog22mk_subsumption_checkerE...no-op 0s)
(transform N7datalog15mk_rule_inlinerE...no-op 0s)
(transform N7datalog22mk_subsumption_checkerE...no-op 0s)
(transform N7datalog8mk_sliceE...no-op 0s)
expand: query!0 (0, 0) FAR  w(0) 1. F 0.00
(spacer::context::check_reachability :time 0.00 :before-memory 4.23 :after-memory 4.72)
Entering level 1
BRUNCH_STAT max_query_lvl 0
BRUNCH_STAT num_queries 0
BRUNCH_STAT num_reach_queries 0
BRUNCH_STAT num_reach_reuse 0
BRUNCH_STAT inductive_lvl 0
BRUNCH_STAT max_depth 1
BRUNCH_STAT cex_depth 0
expand: query!0 (1, 0) FAR  w(0) 1.
	create_child: MAIN (0, 1) FAR 1587 U 0.00
expand: MAIN (0, 0) FAR  w(0) 1587. F 0.00
expand: query!0 (1, 0) FAR  w(0) 1. F 0.00
(spacer::context::check_reachability :time 0.00 :before-memory 4.72 :after-memory 5.34)
Propagating: 0 1  ! 2 
(spacer::context::propagate :time 0.00 :before-memory 5.34 :after-memory 5.34)
Entering level 2
BRUNCH_STAT max_query_lvl 1
BRUNCH_STAT num_queries 1
BRUNCH_STAT num_reach_queries 0
BRUNCH_STAT num_reach_reuse 0
BRUNCH_STAT inductive_lvl 0
BRUNCH_STAT max_depth 2
BRUNCH_STAT cex_depth 0
expand: query!0 (2, 0) FAR  w(0) 1.
	create_child: MAIN (1, 2) FAR 1587 U 0.00
expand: MAIN (1, 0) FAR  w(0) 1587.
	create_child: MAIN (0, 2) FAR 2623 U 0.00
expand: MAIN (0, 0) FAR  w(0) 2623
Matrix
1, 

. F 0.00
expand: MAIN (1, 0) FAR  w(0) 1587.
	create_child: MAIN (0, 2) FAR 2970 U 0.00
expand: MAIN (0, 0) FAR  w(0) 2970. F 0.00
expand: MAIN (1, 0) FAR  w(0) 1587. F 0.00
expand: query!0 (2, 0) FAR  w(0) 1. F 0.00
(spacer::context::check_reachability :time 0.01 :before-memory 5.34 :after-memory 5.52)
Propagating: 0 1 2  ! 3 
(spacer::context::propagate :time 0.00 :before-memory 5.52 :after-memory 5.52)
Entering level 3
BRUNCH_STAT max_query_lvl 2
BRUNCH_STAT num_queries 4
BRUNCH_STAT num_reach_queries 0
BRUNCH_STAT num_reach_reuse 0
BRUNCH_STAT inductive_lvl 0
BRUNCH_STAT max_depth 3
BRUNCH_STAT cex_depth 0
expand: query!0 (3, 0) FAR  w(0) 1.
	create_child: MAIN (2, 3) FAR 1587 U 0.00
expand: MAIN (2, 0) FAR  w(0) 1587.
	create_child: MAIN (1, 3) FAR 3403 U 0.00
expand: MAIN (1, 0) FAR  w(0) 3403. F 0.00
expand: MAIN (2, 0) FAR  w(0) 1587.
	create_child: MAIN (1, 3) FAR 3453 U 0.00
expand: MAIN (1, 0) FAR  w(0) 3453.
	create_child: MAIN (0, 3) FAR 3566 U 0.00
expand: MAIN (0, 0) FAR  w(0) 3566. F 0.00
expand: MAIN (1, 0) FAR  w(0) 3453. F 0.00
expand: MAIN (2, 0) FAR  w(0) 1587. F 0.00
expand: query!0 (3, 0) FAR  w(0) 1. F 0.00
(spacer::context::check_reachability :time 0.01 :before-memory 5.52 :after-memory 5.62)
Propagating: 0 1 2 3  ! 4 
(spacer::context::propagate :time 0.00 :before-memory 5.62 :after-memory 5.62)
Entering level 4
BRUNCH_STAT max_query_lvl 3
BRUNCH_STAT num_queries 8
BRUNCH_STAT num_reach_queries 0
BRUNCH_STAT num_reach_reuse 0
BRUNCH_STAT inductive_lvl 0
BRUNCH_STAT max_depth 4
BRUNCH_STAT cex_depth 0
expand: query!0 (4, 0) FAR  w(0) 1.
	create_child: MAIN (3, 4) FAR 1587 U 0.00
expand: MAIN (3, 0) FAR  w(0) 1587.
	create_child: MAIN (2, 4) FAR 3915 U 0.00
expand: MAIN (2, 0) FAR  w(0) 3915. F 0.00
expand: MAIN (3, 0) FAR  w(0) 1587.
	create_child: MAIN (2, 4) FAR 2623 U 0.00
expand: MAIN (2, 0) FAR  w(0) 2623.
	create_child: MAIN (1, 4) FAR 3889 U 0.00
expand: MAIN (1, 0) FAR  w(0) 3889. F 0.00
expand: MAIN (2, 0) FAR  w(0) 2623
Matrix
1, 

. F 0.00
expand: MAIN (3, 0) FAR  w(0) 1587. F 0.00
expand: query!0 (4, 0) FAR  w(0) 1. F 0.00
(spacer::context::check_reachability :time 0.01 :before-memory 5.62 :after-memory 5.70)
Propagating: 1 2 3 4  ! 5 
(spacer::context::propagate :time 0.00 :before-memory 5.70 :after-memory 5.70)
Entering level 5
BRUNCH_STAT max_query_lvl 4
BRUNCH_STAT num_queries 12
BRUNCH_STAT num_reach_queries 0
BRUNCH_STAT num_reach_reuse 0
BRUNCH_STAT inductive_lvl 0
BRUNCH_STAT max_depth 5
BRUNCH_STAT cex_depth 0
expand: query!0 (5, 0) FAR  w(0) 1.
	create_child: MAIN (4, 5) FAR 1587 U 0.00
expand: MAIN (4, 0) FAR  w(0) 1587.
	create_child: MAIN (3, 5) FAR 2623 U 0.00
expand: MAIN (3, 0) FAR  w(0) 2623.
	create_child: MAIN (2, 5) FAR 3889 U 0.00
expand: MAIN (2, 0) FAR  w(0) 3889.
	create_child: MAIN (1, 5) FAR 4495 U 0.00
expand: MAIN (1, 0) FAR  w(0) 4495. F 0.00
expand: MAIN (2, 0) FAR  w(0) 3889
Matrix
1, 

. F 0.00
expand: MAIN (3, 0) FAR  w(0) 2623. F 0.00
expand: MAIN (4, 0) FAR  w(0) 1587. F 0.00
expand: query!0 (5, 0) FAR  w(0) 1. F 0.00
(spacer::context::check_reachability :time 0.01 :before-memory 5.70 :after-memory 5.75)
Propagating: 1 2 
(spacer::context::propagate :time 0.00 :before-memory 5.75 :after-memory 5.75)
(define-fun MAIN ((x!0 Bool)
 (x!1 Bool)
 (x!2 Int)
 (x!3 Int)
 (x!4 Int)
 (x!5 Int)
 (x!6 Bool)
 (x!7 Bool)) Bool
  (and (not (>= x!4 2))
       x!7
       (not x!1)
       (>= x!3 0)
       (not (<= (+ x!3 x!4 x!5) (- 3)))
       (or (>= (+ x!3 x!4 x!5) 0) (<= x!4 0))))
BRUNCH_STAT max_query_lvl 5
BRUNCH_STAT num_queries 16
BRUNCH_STAT num_reach_queries 0
BRUNCH_STAT num_reach_reuse 0
BRUNCH_STAT inductive_lvl 2
BRUNCH_STAT max_depth 5
BRUNCH_STAT cex_depth 0
(:SPACER-inductive-level               2
 :SPACER-max-depth                     5
 :SPACER-max-query-lvl                 5
 :SPACER-num-invariants                7
 :SPACER-num-lemmas                    22
 :SPACER-num-properties                10
 :SPACER-num-queries                   16
 :added-eqs                            629
 :arith-add-rows                       261
 :arith-assert-diseq                   238
 :arith-assert-lower                   677
 :arith-assert-upper                   535
 :arith-bound-prop                     51
 :arith-conflicts                      13
 :arith-eq-adapter                     210
 :arith-fixed-eqs                      91
 :arith-offset-eqs                     54
 :arith-pivots                         104
 :bool-inductive-gen                   16
 :bool-inductive-gen-failures          17
 :conflicts                            112
 :decisions                            991
 :del-clause                           258
 :final-checks                         36
 :minimized-lits                       8
 :mk-bool-var                          580
 :mk-clause                            839
 :num-checks                           95
 :propagations                         8664
 :time.itp_solver.itp_core             0.01
 :time.spacer.init_rules               0.00
 :time.spacer.init_rules.pt.init       0.00
 :time.spacer.solve                    0.04
 :time.spacer.solve.propagate          0.01
 :time.spacer.solve.reach              0.03
 :time.spacer.solve.reach.children     0.00
 :time.spacer.solve.reach.gen.bool_ind 0.00
 :time.virtual_solver.proof            0.00
 :time.virtual_solver.smt.total        0.02
 :time.virtual_solver.smt.total.sat    0.01
 :virtual_solver.checks                95
 :virtual_solver.checks.sat            36)
BRUNCH_STAT max_query_lvl 5
BRUNCH_STAT num_queries 16
BRUNCH_STAT num_reach_queries 0
BRUNCH_STAT num_reach_reuse 0
BRUNCH_STAT inductive_lvl 2
BRUNCH_STAT max_depth 5
BRUNCH_STAT cex_depth 0

real	0m0.060s
user	0m0.048s
sys	0m0.008s
