(transform N7datalog13mk_coi_filterE...no-op 0s)
(transform N7datalog25mk_interp_tail_simplifierE...12 rules 0s)
(transform N7datalog27mk_quantifier_instantiationE...no-op 0s)
(transform N7datalog8mk_scaleE...no-op 0s)
(transform N7datalog18mk_karr_invariantsE...no-op 0s)
(transform N7datalog14mk_array_blastE...no-op 0s)
(transform N7datalog22mk_subsumption_checkerE...11 rules 0s)
(transform N7datalog12mk_bit_blastE...no-op 0s)
(transform N7datalog15mk_rule_inlinerE...3 rules 0.00204572s)
(transform N7datalog13mk_coi_filterE...no-op 0s)
(transform N7datalog25mk_interp_tail_simplifierE...3 rules 0s)
(transform N7datalog22mk_subsumption_checkerE...no-op 0s)
(transform N7datalog15mk_rule_inlinerE...no-op 0s)
(transform N7datalog13mk_coi_filterE...no-op 0s)
(transform N7datalog25mk_interp_tail_simplifierE...3 rules 0s)
(transform N7datalog22mk_subsumption_checkerE...no-op 0s)
(transform N7datalog15mk_rule_inlinerE...no-op 0s)
(transform N7datalog22mk_subsumption_checkerE...no-op 0s)
(transform N7datalog15mk_rule_inlinerE...no-op 0s)
(transform N7datalog22mk_subsumption_checkerE...no-op 0s)
(transform N7datalog15mk_rule_inlinerE...no-op 0s)
(transform N7datalog22mk_subsumption_checkerE...no-op 0s)
(transform N7datalog8mk_sliceE...no-op 0s)
expand: query!0 (0, 0) FAR  w(0) 1. F 0.00
(spacer::context::check_reachability :time 0.00 :before-memory 4.24 :after-memory 4.73)
Entering level 1
BRUNCH_STAT max_query_lvl 0
BRUNCH_STAT num_queries 0
BRUNCH_STAT num_reach_queries 0
BRUNCH_STAT num_reach_reuse 0
BRUNCH_STAT inductive_lvl 0
BRUNCH_STAT max_depth 1
BRUNCH_STAT cex_depth 0
expand: query!0 (1, 0) FAR  w(0) 1.
	create_child: MAIN (0, 1) FAR 1731 U 0.00
expand: MAIN (0, 0) FAR  w(0) 1731. F 0.00
expand: query!0 (1, 0) FAR  w(0) 1. F 0.00
(spacer::context::check_reachability :time 0.00 :before-memory 4.73 :after-memory 5.55)
Propagating: 0 1  ! 2 
(spacer::context::propagate :time 0.00 :before-memory 5.55 :after-memory 5.55)
Entering level 2
BRUNCH_STAT max_query_lvl 1
BRUNCH_STAT num_queries 1
BRUNCH_STAT num_reach_queries 0
BRUNCH_STAT num_reach_reuse 0
BRUNCH_STAT inductive_lvl 0
BRUNCH_STAT max_depth 2
BRUNCH_STAT cex_depth 0
expand: query!0 (2, 0) FAR  w(0) 1.
	create_child: MAIN (1, 2) FAR 1731 U 0.00
expand: MAIN (1, 0) FAR  w(0) 1731.
	create_child: MAIN (0, 2) FAR 3045 U 0.00
expand: MAIN (0, 0) FAR  w(0) 3045. F 0.00
expand: MAIN (1, 0) FAR  w(0) 1731.
	create_child: MAIN (0, 2) FAR 3152 U 0.00
expand: MAIN (0, 0) FAR  w(0) 3152. F 0.00
expand: MAIN (1, 0) FAR  w(0) 1731. F 0.00
expand: query!0 (2, 0) FAR  w(0) 1. F 0.00
(spacer::context::check_reachability :time 0.00 :before-memory 5.55 :after-memory 5.55)
Propagating: 0 1 2  ! 3 
(spacer::context::propagate :time 0.00 :before-memory 5.55 :after-memory 5.55)
Entering level 3
BRUNCH_STAT max_query_lvl 2
BRUNCH_STAT num_queries 4
BRUNCH_STAT num_reach_queries 0
BRUNCH_STAT num_reach_reuse 0
BRUNCH_STAT inductive_lvl 0
BRUNCH_STAT max_depth 3
BRUNCH_STAT cex_depth 0
expand: query!0 (3, 0) FAR  w(0) 1.
	create_child: MAIN (2, 3) FAR 1731 U 0.00
expand: MAIN (2, 0) FAR  w(0) 1731.
	create_child: MAIN (1, 3) FAR 3501 U 0.00
expand: MAIN (1, 0) FAR  w(0) 3501. F 0.00
expand: MAIN (2, 0) FAR  w(0) 1731. F 0.00
expand: query!0 (3, 0) FAR  w(0) 1. F 0.00
(spacer::context::check_reachability :time 0.00 :before-memory 5.55 :after-memory 5.55)
Propagating: 1 2 3  ! 4 
(spacer::context::propagate :time 0.00 :before-memory 5.55 :after-memory 5.55)
Entering level 4
BRUNCH_STAT max_query_lvl 3
BRUNCH_STAT num_queries 6
BRUNCH_STAT num_reach_queries 0
BRUNCH_STAT num_reach_reuse 0
BRUNCH_STAT inductive_lvl 0
BRUNCH_STAT max_depth 4
BRUNCH_STAT cex_depth 0
expand: query!0 (4, 0) FAR  w(0) 1.
	create_child: MAIN (3, 4) FAR 1731 U 0.00
expand: MAIN (3, 0) FAR  w(0) 1731.
	create_child: MAIN (2, 4) FAR 3609 U 0.00
expand: MAIN (2, 0) FAR  w(0) 3609. F 0.00
expand: MAIN (3, 0) FAR  w(0) 1731. F 0.00
expand: query!0 (4, 0) FAR  w(0) 1. F 0.00
(spacer::context::check_reachability :time 0.00 :before-memory 5.55 :after-memory 5.64)
Propagating: 2 
(spacer::context::propagate :time 0.00 :before-memory 5.64 :after-memory 5.64)
(define-fun MAIN ((x!0 Bool)
 (x!1 Bool)
 (x!2 Int)
 (x!3 Int)
 (x!4 Int)
 (x!5 Int)
 (x!6 Bool)
 (x!7 Bool)) Bool
  (and (<= x!5 0) x!7 (>= x!4 0)))
BRUNCH_STAT max_query_lvl 4
BRUNCH_STAT num_queries 8
BRUNCH_STAT num_reach_queries 0
BRUNCH_STAT num_reach_reuse 0
BRUNCH_STAT inductive_lvl 2
BRUNCH_STAT max_depth 4
BRUNCH_STAT cex_depth 0
(:SPACER-inductive-level               2
 :SPACER-max-depth                     4
 :SPACER-max-query-lvl                 4
 :SPACER-num-invariants                4
 :SPACER-num-lemmas                    13
 :SPACER-num-properties                6
 :SPACER-num-queries                   8
 :added-eqs                            256
 :arith-add-rows                       30
 :arith-assert-diseq                   106
 :arith-assert-lower                   224
 :arith-assert-upper                   197
 :arith-bound-prop                     38
 :arith-conflicts                      1
 :arith-eq-adapter                     71
 :arith-fixed-eqs                      40
 :arith-offset-eqs                     18
 :arith-pivots                         30
 :bool-inductive-gen                   8
 :bool-inductive-gen-failures          8
 :conflicts                            52
 :decisions                            487
 :del-clause                           111
 :final-checks                         17
 :minimized-lits                       4
 :mk-bool-var                          360
 :mk-clause                            631
 :num-checks                           47
 :propagations                         3407
 :time.itp_solver.itp_core             0.00
 :time.spacer.init_rules               0.00
 :time.spacer.init_rules.pt.init       0.00
 :time.spacer.solve                    0.02
 :time.spacer.solve.propagate          0.00
 :time.spacer.solve.reach              0.01
 :time.spacer.solve.reach.children     0.00
 :time.spacer.solve.reach.gen.bool_ind 0.00
 :time.virtual_solver.proof            0.00
 :time.virtual_solver.smt.total        0.01
 :time.virtual_solver.smt.total.sat    0.00
 :virtual_solver.checks                47
 :virtual_solver.checks.sat            17)
BRUNCH_STAT max_query_lvl 4
BRUNCH_STAT num_queries 8
BRUNCH_STAT num_reach_queries 0
BRUNCH_STAT num_reach_reuse 0
BRUNCH_STAT inductive_lvl 2
BRUNCH_STAT max_depth 4
BRUNCH_STAT cex_depth 0

real	0m0.040s
user	0m0.036s
sys	0m0.000s
