(transform N7datalog13mk_coi_filterE...no-op 0s)
(transform N7datalog25mk_interp_tail_simplifierE...12 rules 0s)
(transform N7datalog27mk_quantifier_instantiationE...no-op 0s)
(transform N7datalog8mk_scaleE...no-op 0s)
(transform N7datalog18mk_karr_invariantsE...no-op 0s)
(transform N7datalog14mk_array_blastE...no-op 0s)
(transform N7datalog22mk_subsumption_checkerE...11 rules 0s)
(transform N7datalog12mk_bit_blastE...no-op 0s)
(transform N7datalog15mk_rule_inlinerE...3 rules 0.00176974s)
(transform N7datalog13mk_coi_filterE...no-op 0s)
(transform N7datalog25mk_interp_tail_simplifierE...3 rules 0s)
(transform N7datalog22mk_subsumption_checkerE...no-op 0s)
(transform N7datalog15mk_rule_inlinerE...no-op 0s)
(transform N7datalog13mk_coi_filterE...no-op 0s)
(transform N7datalog25mk_interp_tail_simplifierE...3 rules 0s)
(transform N7datalog22mk_subsumption_checkerE...no-op 0s)
(transform N7datalog15mk_rule_inlinerE...no-op 0s)
(transform N7datalog22mk_subsumption_checkerE...no-op 0s)
(transform N7datalog15mk_rule_inlinerE...no-op 0s)
(transform N7datalog22mk_subsumption_checkerE...no-op 0s)
(transform N7datalog15mk_rule_inlinerE...no-op 0s)
(transform N7datalog22mk_subsumption_checkerE...no-op 0s)
(transform N7datalog8mk_sliceE...no-op 0s)
expand: query!0 (0, 0) FAR  w(0) 1. F 0.00
(spacer::context::check_reachability :time 0.00 :before-memory 4.33 :after-memory 4.72)
Entering level 1
BRUNCH_STAT max_query_lvl 0
BRUNCH_STAT num_queries 0
BRUNCH_STAT num_reach_queries 0
BRUNCH_STAT num_reach_reuse 0
BRUNCH_STAT inductive_lvl 0
BRUNCH_STAT max_depth 1
BRUNCH_STAT cex_depth 0
expand: query!0 (1, 0) FAR  w(0) 1.
	create_child: MAIN (0, 1) FAR 1586 U 0.00
expand: MAIN (0, 0) FAR  w(0) 1586. F 0.00
expand: query!0 (1, 0) FAR  w(0) 1. F 0.00
(spacer::context::check_reachability :time 0.00 :before-memory 4.72 :after-memory 5.34)
Propagating: 0 1  ! 2 
(spacer::context::propagate :time 0.00 :before-memory 5.34 :after-memory 5.34)
Entering level 2
BRUNCH_STAT max_query_lvl 1
BRUNCH_STAT num_queries 1
BRUNCH_STAT num_reach_queries 0
BRUNCH_STAT num_reach_reuse 0
BRUNCH_STAT inductive_lvl 0
BRUNCH_STAT max_depth 2
BRUNCH_STAT cex_depth 0
expand: query!0 (2, 0) FAR  w(0) 1.
	create_child: MAIN (1, 2) FAR 1586 U 0.00
expand: MAIN (1, 0) FAR  w(0) 1586.
	create_child: MAIN (0, 2) FAR 2828 U 0.00
expand: MAIN (0, 0) FAR  w(0) 2828. F 0.00
expand: MAIN (1, 0) FAR  w(0) 1586.
	create_child: MAIN (0, 2) FAR 2781 U 0.00
expand: MAIN (0, 0) FAR  w(0) 2781. F 0.00
expand: MAIN (1, 0) FAR  w(0) 1586. F 0.00
expand: query!0 (2, 0) FAR  w(0) 1. F 0.00
(spacer::context::check_reachability :time 0.00 :before-memory 5.34 :after-memory 5.50)
Propagating: 0 1 2  ! 3 
(spacer::context::propagate :time 0.00 :before-memory 5.50 :after-memory 5.50)
Entering level 3
BRUNCH_STAT max_query_lvl 2
BRUNCH_STAT num_queries 4
BRUNCH_STAT num_reach_queries 0
BRUNCH_STAT num_reach_reuse 0
BRUNCH_STAT inductive_lvl 0
BRUNCH_STAT max_depth 3
BRUNCH_STAT cex_depth 0
expand: query!0 (3, 0) FAR  w(0) 1.
	create_child: MAIN (2, 3) FAR 1586 U 0.00
expand: MAIN (2, 0) FAR  w(0) 1586.
	create_child: MAIN (1, 3) FAR 2781 U 0.00
expand: MAIN (1, 0) FAR  w(0) 2781. T 0.00
is-reachable: MAIN (2, 0) FAR 1586 T 0.00
is-reachable: query!0 (3, 0) FAR 1 T 0.00
(spacer::context::check_reachability :time 0.01 :before-memory 5.50 :after-memory 5.78)
BRUNCH_STAT max_query_lvl 3
BRUNCH_STAT num_queries 6
BRUNCH_STAT num_reach_queries 3
BRUNCH_STAT num_reach_reuse 1
BRUNCH_STAT inductive_lvl 0
BRUNCH_STAT max_depth 3
BRUNCH_STAT cex_depth 3
(:SPACER-cex-depth                     3
 :SPACER-max-depth                     3
 :SPACER-max-query-lvl                 3
 :SPACER-num-lemmas                    7
 :SPACER-num-properties                4
 :SPACER-num-queries                   6
 :SPACER-num-reach-queries             3
 :SPACER-num-reuse-reach-facts         1
 :added-eqs                            228
 :arith-add-rows                       21
 :arith-assert-diseq                   78
 :arith-assert-lower                   157
 :arith-assert-upper                   168
 :arith-bound-prop                     28
 :arith-eq-adapter                     73
 :arith-fixed-eqs                      28
 :arith-offset-eqs                     37
 :arith-pivots                         30
 :bool-inductive-gen                   4
 :bool-inductive-gen-failures          4
 :conflicts                            40
 :decisions                            339
 :del-clause                           82
 :final-checks                         15
 :minimized-lits                       3
 :mk-bool-var                          424
 :mk-clause                            864
 :num-checks                           30
 :propagations                         2297
 :time.itp_solver.itp_core             0.00
 :time.spacer.init_rules               0.00
 :time.spacer.init_rules.pt.init       0.00
 :time.spacer.solve                    0.02
 :time.spacer.solve.propagate          0.00
 :time.spacer.solve.reach              0.01
 :time.spacer.solve.reach.children     0.00
 :time.spacer.solve.reach.gen.bool_ind 0.00
 :time.spacer.solve.reach.is-reach     0.00
 :time.virtual_solver.proof            0.00
 :time.virtual_solver.smt.total        0.01
 :time.virtual_solver.smt.total.sat    0.01
 :virtual_solver.checks                30
 :virtual_solver.checks.sat            15)
BRUNCH_STAT max_query_lvl 3
BRUNCH_STAT num_queries 6
BRUNCH_STAT num_reach_queries 3
BRUNCH_STAT num_reach_reuse 1
BRUNCH_STAT inductive_lvl 0
BRUNCH_STAT max_depth 3
BRUNCH_STAT cex_depth 3

real	0m0.038s
user	0m0.032s
sys	0m0.004s
