(transform N7datalog13mk_coi_filterE...no-op 0s)
(transform N7datalog25mk_interp_tail_simplifierE...15 rules 0s)
(transform N7datalog27mk_quantifier_instantiationE...no-op 0s)
(transform N7datalog8mk_scaleE...no-op 0s)
(transform N7datalog18mk_karr_invariantsE...no-op 0s)
(transform N7datalog14mk_array_blastE...no-op 0s)
(transform N7datalog22mk_subsumption_checkerE...14 rules 0s)
(transform N7datalog12mk_bit_blastE...no-op 0s)
(transform N7datalog15mk_rule_inlinerE...3 rules 0.00535446s)
(transform N7datalog13mk_coi_filterE...no-op 0s)
(transform N7datalog25mk_interp_tail_simplifierE...3 rules 0s)
(transform N7datalog22mk_subsumption_checkerE...no-op 0s)
(transform N7datalog15mk_rule_inlinerE...no-op 0s)
(transform N7datalog13mk_coi_filterE...no-op 0s)
(transform N7datalog25mk_interp_tail_simplifierE...3 rules 0s)
(transform N7datalog22mk_subsumption_checkerE...no-op 0s)
(transform N7datalog15mk_rule_inlinerE...no-op 0s)
(transform N7datalog22mk_subsumption_checkerE...no-op 0s)
(transform N7datalog15mk_rule_inlinerE...no-op 0s)
(transform N7datalog22mk_subsumption_checkerE...no-op 0s)
(transform N7datalog15mk_rule_inlinerE...no-op 0s)
(transform N7datalog22mk_subsumption_checkerE...no-op 0s)
(transform N7datalog8mk_sliceE...no-op 0s)
expand: query!0 (0, 0) FAR  w(0) 1. F 0.00
(spacer::context::check_reachability :time 0.00 :before-memory 4.52 :after-memory 5.04)
Entering level 1
BRUNCH_STAT max_query_lvl 0
BRUNCH_STAT num_queries 0
BRUNCH_STAT num_reach_queries 0
BRUNCH_STAT num_reach_reuse 0
BRUNCH_STAT inductive_lvl 0
BRUNCH_STAT max_depth 1
BRUNCH_STAT cex_depth 0
expand: query!0 (1, 0) FAR  w(0) 1.
	create_child: MAIN (0, 1) FAR 3271 U 0.00
expand: MAIN (0, 0) FAR  w(0) 3271. F 0.00
expand: query!0 (1, 0) FAR  w(0) 1. F 0.00
(spacer::context::check_reachability :time 0.00 :before-memory 5.04 :after-memory 5.84)
Propagating: 0 1  ! 2 
(spacer::context::propagate :time 0.00 :before-memory 5.84 :after-memory 5.84)
Entering level 2
BRUNCH_STAT max_query_lvl 1
BRUNCH_STAT num_queries 1
BRUNCH_STAT num_reach_queries 0
BRUNCH_STAT num_reach_reuse 0
BRUNCH_STAT inductive_lvl 0
BRUNCH_STAT max_depth 2
BRUNCH_STAT cex_depth 0
expand: query!0 (2, 0) FAR  w(0) 1.
	create_child: MAIN (1, 2) FAR 3271 U 0.00
expand: MAIN (1, 0) FAR  w(0) 3271.
	create_child: MAIN (0, 2) FAR 5066 U 0.00
expand: MAIN (0, 0) FAR  w(0) 5066. F 0.00
expand: MAIN (1, 0) FAR  w(0) 3271.
	create_child: MAIN (0, 2) FAR 5263 U 0.00
expand: MAIN (0, 0) FAR  w(0) 5263. F 0.00
expand: MAIN (1, 0) FAR  w(0) 3271.
	create_child: MAIN (0, 2) FAR 5320 U 0.00
expand: MAIN (0, 0) FAR  w(0) 5320. F 0.00
expand: MAIN (1, 0) FAR  w(0) 3271.
	create_child: MAIN (0, 2) FAR 5519 U 0.00
expand: MAIN (0, 0) FAR  w(0) 5519. F 0.00
expand: MAIN (1, 0) FAR  w(0) 3271.
	create_child: MAIN (0, 2) FAR 5717 U 0.00
expand: MAIN (0, 0) FAR  w(0) 5717. F 0.00
expand: MAIN (1, 0) FAR  w(0) 3271.
	create_child: MAIN (0, 2) FAR 5953 U 0.00
expand: MAIN (0, 0) FAR  w(0) 5953. F 0.00
expand: MAIN (1, 0) FAR  w(0) 3271.
	create_child: MAIN (0, 2) FAR 6070 U 0.00
expand: MAIN (0, 0) FAR  w(0) 6070. F 0.00
expand: MAIN (1, 0) FAR  w(0) 3271.
	create_child: MAIN (0, 2) FAR 6165 U 0.00
expand: MAIN (0, 0) FAR  w(0) 6165. F 0.00
expand: MAIN (1, 0) FAR  w(0) 3271.
	create_child: MAIN (0, 2) FAR 6346 U 0.00
expand: MAIN (0, 0) FAR  w(0) 6346. F 0.00
expand: MAIN (1, 0) FAR  w(0) 3271.
	create_child: MAIN (0, 2) FAR 6330 U 0.00
expand: MAIN (0, 0) FAR  w(0) 6330. F 0.00
expand: MAIN (1, 0) FAR  w(0) 3271. F 0.00
expand: query!0 (2, 0) FAR  w(0) 1. F 0.00
(spacer::context::check_reachability :time 0.02 :before-memory 5.84 :after-memory 6.33)
Propagating: 0 1 2  ! 3 
(spacer::context::propagate :time 0.00 :before-memory 6.33 :after-memory 6.33)
Entering level 3
BRUNCH_STAT max_query_lvl 2
BRUNCH_STAT num_queries 12
BRUNCH_STAT num_reach_queries 0
BRUNCH_STAT num_reach_reuse 0
BRUNCH_STAT inductive_lvl 0
BRUNCH_STAT max_depth 3
BRUNCH_STAT cex_depth 0
expand: query!0 (3, 0) FAR  w(0) 1.
	create_child: MAIN (2, 3) FAR 3271 U 0.00
expand: MAIN (2, 0) FAR  w(0) 3271.
	create_child: MAIN (1, 3) FAR 7197 U 0.00
expand: MAIN (1, 0) FAR  w(0) 7197. F 0.00
expand: MAIN (2, 0) FAR  w(0) 3271.
	create_child: MAIN (1, 3) FAR 7488 U 0.00
expand: MAIN (1, 0) FAR  w(0) 7488. F 0.00
expand: MAIN (2, 0) FAR  w(0) 3271.
	create_child: MAIN (1, 3) FAR 7797 U 0.00
expand: MAIN (1, 0) FAR  w(0) 7797. F 0.00
expand: MAIN (2, 0) FAR  w(0) 3271.
	create_child: MAIN (1, 3) FAR 8162 U 0.00
expand: MAIN (1, 0) FAR  w(0) 8162. F 0.00
expand: MAIN (2, 0) FAR  w(0) 3271.
	create_child: MAIN (1, 3) FAR 8259 U 0.00
expand: MAIN (1, 0) FAR  w(0) 8259. F 0.00
expand: MAIN (2, 0) FAR  w(0) 3271.
	create_child: MAIN (1, 3) FAR 8333 U 0.00
expand: MAIN (1, 0) FAR  w(0) 8333. F 0.00
expand: MAIN (2, 0) FAR  w(0) 3271.
	create_child: MAIN (1, 3) FAR 8440 U 0.00
expand: MAIN (1, 0) FAR  w(0) 8440.
	create_child: MAIN (0, 3) FAR 8630 U 0.00
expand: MAIN (0, 0) FAR  w(0) 8630. F 0.00
expand: MAIN (1, 0) FAR  w(0) 8440. F 0.00
expand: MAIN (2, 0) FAR  w(0) 3271. F 0.00
expand: query!0 (3, 0) FAR  w(0) 1. F 0.00
(spacer::context::check_reachability :time 0.03 :before-memory 6.33 :after-memory 6.53)
Propagating: 0 1 2 3  ! 4 
(spacer::context::propagate :time 0.00 :before-memory 6.53 :after-memory 6.53)
Entering level 4
BRUNCH_STAT max_query_lvl 3
BRUNCH_STAT num_queries 21
BRUNCH_STAT num_reach_queries 0
BRUNCH_STAT num_reach_reuse 0
BRUNCH_STAT inductive_lvl 0
BRUNCH_STAT max_depth 4
BRUNCH_STAT cex_depth 0
expand: query!0 (4, 0) FAR  w(0) 1.
	create_child: MAIN (3, 4) FAR 3271 U 0.00
expand: MAIN (3, 0) FAR  w(0) 3271.
	create_child: MAIN (2, 4) FAR 9243 U 0.00
expand: MAIN (2, 0) FAR  w(0) 9243.
	create_child: MAIN (1, 4) FAR 9525 U 0.00
expand: MAIN (1, 0) FAR  w(0) 9525. F 0.00
expand: MAIN (2, 0) FAR  w(0) 9243.
	create_child: MAIN (1, 4) FAR 9904 U 0.00
expand: MAIN (1, 0) FAR  w(0) 9904. F 0.00
expand: MAIN (2, 0) FAR  w(0) 9243. F 0.00
expand: MAIN (3, 0) FAR  w(0) 3271. F 0.00
expand: query!0 (4, 0) FAR  w(0) 1. F 0.00
(spacer::context::check_reachability :time 0.01 :before-memory 6.53 :after-memory 6.62)
Propagating: 1 2 3 4  ! 5 
(spacer::context::propagate :time 0.00 :before-memory 6.62 :after-memory 6.62)
Entering level 5
BRUNCH_STAT max_query_lvl 4
BRUNCH_STAT num_queries 25
BRUNCH_STAT num_reach_queries 0
BRUNCH_STAT num_reach_reuse 0
BRUNCH_STAT inductive_lvl 0
BRUNCH_STAT max_depth 5
BRUNCH_STAT cex_depth 0
expand: query!0 (5, 0) FAR  w(0) 1.
	create_child: MAIN (4, 5) FAR 3271 U 0.00
expand: MAIN (4, 0) FAR  w(0) 3271.
	create_child: MAIN (3, 5) FAR 10013 U 0.00
expand: MAIN (3, 0) FAR  w(0) 10013.
	create_child: MAIN (2, 5) FAR 10190 U 0.00
expand: MAIN (2, 0) FAR  w(0) 10190
Matrix
1, 

. F 0.00
expand: MAIN (3, 0) FAR  w(0) 10013
Matrix
1, 

. F 0.00
expand: MAIN (4, 0) FAR  w(0) 3271. F 0.00
expand: query!0 (5, 0) FAR  w(0) 1. F 0.00
(spacer::context::check_reachability :time 0.01 :before-memory 6.62 :after-memory 6.74)
Propagating: 2 3 4 5  ! 6 
(spacer::context::propagate :time 0.00 :before-memory 6.74 :after-memory 6.74)
Entering level 6
BRUNCH_STAT max_query_lvl 5
BRUNCH_STAT num_queries 28
BRUNCH_STAT num_reach_queries 0
BRUNCH_STAT num_reach_reuse 0
BRUNCH_STAT inductive_lvl 0
BRUNCH_STAT max_depth 6
BRUNCH_STAT cex_depth 0
expand: query!0 (6, 0) FAR  w(0) 1.
	create_child: MAIN (5, 6) FAR 3271 U 0.00
expand: MAIN (5, 0) FAR  w(0) 3271.
	create_child: MAIN (4, 6) FAR 10488 U 0.00
expand: MAIN (4, 0) FAR  w(0) 10488.
	create_child: MAIN (3, 6) FAR 10635 U 0.00
expand: MAIN (3, 0) FAR  w(0) 10635.
	create_child: MAIN (2, 6) FAR 10671 U 0.00
expand: MAIN (2, 0) FAR  w(0) 10671
Matrix
1, 

. F 0.00
expand: MAIN (3, 0) FAR  w(0) 10635
Matrix
1, 

. F 0.00
expand: MAIN (4, 0) FAR  w(0) 10488. F 0.00
expand: MAIN (5, 0) FAR  w(0) 3271. F 0.00
expand: query!0 (6, 0) FAR  w(0) 1. F 0.00
(spacer::context::check_reachability :time 0.01 :before-memory 6.74 :after-memory 6.82)
Propagating: 2 3 4 5 6  ! 7 8 
(spacer::context::propagate :time 0.00 :before-memory 6.82 :after-memory 6.82)
Entering level 7
BRUNCH_STAT max_query_lvl 6
BRUNCH_STAT num_queries 32
BRUNCH_STAT num_reach_queries 0
BRUNCH_STAT num_reach_reuse 0
BRUNCH_STAT inductive_lvl 0
BRUNCH_STAT max_depth 7
BRUNCH_STAT cex_depth 0
expand: query!0 (7, 0) FAR  w(0) 1. F 0.00
(spacer::context::check_reachability :time 0.00 :before-memory 6.82 :after-memory 6.82)
Propagating: 7  ! 8 
(spacer::context::propagate :time 0.00 :before-memory 6.82 :after-memory 6.82)
Entering level 8
BRUNCH_STAT max_query_lvl 7
BRUNCH_STAT num_queries 32
BRUNCH_STAT num_reach_queries 0
BRUNCH_STAT num_reach_reuse 0
BRUNCH_STAT inductive_lvl 0
BRUNCH_STAT max_depth 8
BRUNCH_STAT cex_depth 0
expand: query!0 (8, 0) FAR  w(0) 1.
	create_child: MAIN (7, 8) FAR 3271 U 0.00
expand: MAIN (7, 0) FAR  w(0) 3271.
	create_child: MAIN (6, 8) FAR 11491 U 0.00
expand: MAIN (6, 0) FAR  w(0) 11491.
	create_child: MAIN (5, 8) FAR 11564 U 0.00
expand: MAIN (5, 0) FAR  w(0) 11564.
	create_child: MAIN (4, 8) FAR 11332 U 0.00
expand: MAIN (4, 0) FAR  w(0) 11332.
	create_child: MAIN (3, 8) FAR 11676 U 0.00
expand: MAIN (3, 0) FAR  w(0) 11676
Matrix
1, 

. F 0.00
expand: MAIN (4, 0) FAR  w(0) 11332
Matrix
1, 

. F 0.00
expand: MAIN (5, 0) FAR  w(0) 11564. F 0.00
expand: MAIN (6, 0) FAR  w(0) 11491. F 0.00
expand: MAIN (7, 0) FAR  w(0) 3271. F 0.00
expand: query!0 (8, 0) FAR  w(0) 1. F 0.00
(spacer::context::check_reachability :time 0.01 :before-memory 6.82 :after-memory 7.25)
Propagating: 3 4 5 6 7 8  ! 9 
(spacer::context::propagate :time 0.00 :before-memory 7.25 :after-memory 7.25)
Entering level 9
BRUNCH_STAT max_query_lvl 8
BRUNCH_STAT num_queries 37
BRUNCH_STAT num_reach_queries 0
BRUNCH_STAT num_reach_reuse 0
BRUNCH_STAT inductive_lvl 0
BRUNCH_STAT max_depth 9
BRUNCH_STAT cex_depth 0
expand: query!0 (9, 0) FAR  w(0) 1.
	create_child: MAIN (8, 9) FAR 3271 U 0.00
expand: MAIN (8, 0) FAR  w(0) 3271.
	create_child: MAIN (7, 9) FAR 11491 U 0.00
expand: MAIN (7, 0) FAR  w(0) 11491.
	create_child: MAIN (6, 9) FAR 11564 U 0.00
expand: MAIN (6, 0) FAR  w(0) 11564.
	create_child: MAIN (5, 9) FAR 11332 U 0.00
expand: MAIN (5, 0) FAR  w(0) 11332.
	create_child: MAIN (4, 9) FAR 11676 U 0.00
expand: MAIN (4, 0) FAR  w(0) 11676.
	create_child: MAIN (3, 9) FAR 12410 U 0.00
expand: MAIN (3, 0) FAR  w(0) 12410
Matrix
1, 

. F 0.00
expand: MAIN (4, 0) FAR  w(0) 11676
Matrix
1, 

. F 0.00
expand: MAIN (5, 0) FAR  w(0) 11332. F 0.00
expand: MAIN (6, 0) FAR  w(0) 11564. F 0.00
expand: MAIN (7, 0) FAR  w(0) 11491. F 0.00
expand: MAIN (8, 0) FAR  w(0) 3271. F 0.00
expand: query!0 (9, 0) FAR  w(0) 1. F 0.00
(spacer::context::check_reachability :time 0.02 :before-memory 7.25 :after-memory 7.36)
Propagating: 3 4 5 6 7 8 9  ! 10 
(spacer::context::propagate :time 0.00 :before-memory 7.36 :after-memory 7.36)
Entering level 10
BRUNCH_STAT max_query_lvl 9
BRUNCH_STAT num_queries 43
BRUNCH_STAT num_reach_queries 0
BRUNCH_STAT num_reach_reuse 0
BRUNCH_STAT inductive_lvl 0
BRUNCH_STAT max_depth 10
BRUNCH_STAT cex_depth 0
expand: query!0 (10, 0) FAR  w(0) 1.
	create_child: MAIN (9, 10) FAR 3271 U 0.00
expand: MAIN (9, 0) FAR  w(0) 3271.
	create_child: MAIN (8, 10) FAR 11491 U 0.00
expand: MAIN (8, 0) FAR  w(0) 11491.
	create_child: MAIN (7, 10) FAR 11564 U 0.00
expand: MAIN (7, 0) FAR  w(0) 11564.
	create_child: MAIN (6, 10) FAR 11332 U 0.00
expand: MAIN (6, 0) FAR  w(0) 11332.
	create_child: MAIN (5, 10) FAR 11676 U 0.00
expand: MAIN (5, 0) FAR  w(0) 11676.
	create_child: MAIN (4, 10) FAR 12410 U 0.00
expand: MAIN (4, 0) FAR  w(0) 12410.
	create_child: MAIN (3, 10) FAR 13120 U 0.00
expand: MAIN (3, 0) FAR  w(0) 13120.
	create_child: MAIN (2, 10) FAR 12998 U 0.00
expand: MAIN (2, 0) FAR  w(0) 12998.
	create_child: MAIN (1, 10) FAR 13454 U 0.00
expand: MAIN (1, 0) FAR  w(0) 13454. F 0.00
expand: MAIN (2, 0) FAR  w(0) 12998.
	create_child: MAIN (1, 10) FAR 13389 U 0.00
expand: MAIN (1, 0) FAR  w(0) 13389. F 0.00
expand: MAIN (2, 0) FAR  w(0) 12998. F 0.00
expand: MAIN (3, 0) FAR  w(0) 13120.
	create_child: MAIN (2, 10) FAR 13611 U 0.00
expand: MAIN (2, 0) FAR  w(0) 13611.
	create_child: MAIN (1, 10) FAR 12862 U 0.00
expand: MAIN (1, 0) FAR  w(0) 12862
Matrix
1, 

. F 0.00
expand: MAIN (2, 0) FAR  w(0) 13611
Matrix
1, 

. F 0.00
expand: MAIN (3, 0) FAR  w(0) 13120. F 0.00
expand: MAIN (4, 0) FAR  w(0) 12410.
	create_child: MAIN (3, 10) FAR 14250 U 0.00
expand: MAIN (3, 0) FAR  w(0) 14250.
	create_child: MAIN (2, 10) FAR 14342 U 0.00
expand: MAIN (2, 0) FAR  w(0) 14342.
	create_child: MAIN (1, 10) FAR 14403 U 0.00
expand: MAIN (1, 0) FAR  w(0) 14403
Matrix
1, 

. F 0.00
expand: MAIN (2, 0) FAR  w(0) 14342
Matrix
1, 

. F 0.00
expand: MAIN (3, 0) FAR  w(0) 14250. F 0.00
expand: MAIN (4, 0) FAR  w(0) 12410. F 0.00
expand: MAIN (5, 0) FAR  w(0) 11676.
	create_child: MAIN (4, 10) FAR 14705 U 0.00
expand: MAIN (4, 0) FAR  w(0) 14705.
	create_child: MAIN (3, 10) FAR 14786 U 0.00
expand: MAIN (3, 0) FAR  w(0) 14786.
	create_child: MAIN (2, 10) FAR 14838 U 0.00
expand: MAIN (2, 0) FAR  w(0) 14838.
	create_child: MAIN (1, 10) FAR 14982 U 0.00
expand: MAIN (1, 0) FAR  w(0) 14982. F 0.00
expand: MAIN (2, 0) FAR  w(0) 14838
Matrix
1, 

. F 0.00
expand: MAIN (3, 0) FAR  w(0) 14786. F 0.00
expand: MAIN (4, 0) FAR  w(0) 14705. F 0.00
expand: MAIN (5, 0) FAR  w(0) 11676. F 0.00
expand: MAIN (6, 0) FAR  w(0) 11332. F 0.00
expand: MAIN (7, 0) FAR  w(0) 11564. F 0.00
expand: MAIN (8, 0) FAR  w(0) 11491. F 0.00
expand: MAIN (9, 0) FAR  w(0) 3271. F 0.00
expand: query!0 (10, 0) FAR  w(0) 1. F 0.00
(spacer::context::check_reachability :time 0.06 :before-memory 7.36 :after-memory 7.63)
Propagating: 1 2 3 4 5 6 7 8 9 10  ! 11 
(spacer::context::propagate :time 0.01 :before-memory 7.63 :after-memory 7.63)
Entering level 11
BRUNCH_STAT max_query_lvl 10
BRUNCH_STAT num_queries 62
BRUNCH_STAT num_reach_queries 0
BRUNCH_STAT num_reach_reuse 0
BRUNCH_STAT inductive_lvl 0
BRUNCH_STAT max_depth 11
BRUNCH_STAT cex_depth 0
expand: query!0 (11, 0) FAR  w(0) 1.
	create_child: MAIN (10, 11) FAR 3271 U 0.00
expand: MAIN (10, 0) FAR  w(0) 3271.
	create_child: MAIN (9, 11) FAR 10013 U 0.00
expand: MAIN (9, 0) FAR  w(0) 10013.
	create_child: MAIN (8, 11) FAR 10190 U 0.00
expand: MAIN (8, 0) FAR  w(0) 10190.
	create_child: MAIN (7, 11) FAR 15946 U 0.00
expand: MAIN (7, 0) FAR  w(0) 15946.
	create_child: MAIN (6, 11) FAR 16152 U 0.00
expand: MAIN (6, 0) FAR  w(0) 16152.
	create_child: MAIN (5, 11) FAR 15848 U 0.00
expand: MAIN (5, 0) FAR  w(0) 15848.
	create_child: MAIN (4, 11) FAR 16338 U 0.00
expand: MAIN (4, 0) FAR  w(0) 16338.
	create_child: MAIN (3, 11) FAR 16261 U 0.00
expand: MAIN (3, 0) FAR  w(0) 16261.
	create_child: MAIN (2, 11) FAR 16025 U 0.00
expand: MAIN (2, 0) FAR  w(0) 16025.
	create_child: MAIN (1, 11) FAR 16195 U 0.00
expand: MAIN (1, 0) FAR  w(0) 16195. F 0.00
expand: MAIN (2, 0) FAR  w(0) 16025
Matrix
1, 

. F 0.00
expand: MAIN (3, 0) FAR  w(0) 16261. F 0.00
expand: MAIN (4, 0) FAR  w(0) 16338. F 0.00
expand: MAIN (5, 0) FAR  w(0) 15848. F 0.00
expand: MAIN (6, 0) FAR  w(0) 16152. F 0.00
expand: MAIN (7, 0) FAR  w(0) 15946. F 0.00
expand: MAIN (8, 0) FAR  w(0) 10190. F 0.00
expand: MAIN (9, 0) FAR  w(0) 10013. F 0.00
expand: MAIN (10, 0) FAR  w(0) 3271. F 0.00
expand: query!0 (11, 0) FAR  w(0) 1. F 0.00
(spacer::context::check_reachability :time 0.03 :before-memory 7.63 :after-memory 7.85)
Propagating: 1 2 3 4 5 6 7 8 9 10 11  ! 12 
(spacer::context::propagate :time 0.01 :before-memory 7.85 :after-memory 7.85)
Entering level 12
BRUNCH_STAT max_query_lvl 11
BRUNCH_STAT num_queries 72
BRUNCH_STAT num_reach_queries 0
BRUNCH_STAT num_reach_reuse 0
BRUNCH_STAT inductive_lvl 0
BRUNCH_STAT max_depth 12
BRUNCH_STAT cex_depth 0
expand: query!0 (12, 0) FAR  w(0) 1.
	create_child: MAIN (11, 12) FAR 3271 U 0.00
expand: MAIN (11, 0) FAR  w(0) 3271.
	create_child: MAIN (10, 12) FAR 10013 U 0.00
expand: MAIN (10, 0) FAR  w(0) 10013.
	create_child: MAIN (9, 12) FAR 10190 U 0.00
expand: MAIN (9, 0) FAR  w(0) 10190.
	create_child: MAIN (8, 12) FAR 15946 U 0.00
expand: MAIN (8, 0) FAR  w(0) 15946.
	create_child: MAIN (7, 12) FAR 16152 U 0.00
expand: MAIN (7, 0) FAR  w(0) 16152.
	create_child: MAIN (6, 12) FAR 15848 U 0.00
expand: MAIN (6, 0) FAR  w(0) 15848.
	create_child: MAIN (5, 12) FAR 16338 U 0.00
expand: MAIN (5, 0) FAR  w(0) 16338.
	create_child: MAIN (4, 12) FAR 18030 U 0.00
expand: MAIN (4, 0) FAR  w(0) 18030.
	create_child: MAIN (3, 12) FAR 18193 U 0.00
expand: MAIN (3, 0) FAR  w(0) 18193.
	create_child: MAIN (2, 12) FAR 17504 U 0.00
expand: MAIN (2, 0) FAR  w(0) 17504.
	create_child: MAIN (1, 12) FAR 17993 U 0.00
expand: MAIN (1, 0) FAR  w(0) 17993
Matrix
1, 

. F 0.00
expand: MAIN (2, 0) FAR  w(0) 17504
Matrix
1, 

. F 0.00
expand: MAIN (3, 0) FAR  w(0) 18193
Matrix
1, 

. F 0.00
expand: MAIN (4, 0) FAR  w(0) 18030
Matrix
1, 

. F 0.00
expand: MAIN (5, 0) FAR  w(0) 16338. F 0.00
expand: MAIN (6, 0) FAR  w(0) 15848. F 0.00
expand: MAIN (7, 0) FAR  w(0) 16152. F 0.00
expand: MAIN (8, 0) FAR  w(0) 15946. F 0.00
expand: MAIN (9, 0) FAR  w(0) 10190. F 0.00
expand: MAIN (10, 0) FAR  w(0) 10013. F 0.00
expand: MAIN (11, 0) FAR  w(0) 3271. F 0.00
expand: query!0 (12, 0) FAR  w(0) 1. F 0.00
(spacer::context::check_reachability :time 0.04 :before-memory 7.85 :after-memory 8.01)
Propagating: 1 2 3 4 5 6 7 8 9 10 11 12  ! 13 
(spacer::context::propagate :time 0.01 :before-memory 8.01 :after-memory 8.01)
Entering level 13
BRUNCH_STAT max_query_lvl 12
BRUNCH_STAT num_queries 83
BRUNCH_STAT num_reach_queries 0
BRUNCH_STAT num_reach_reuse 0
BRUNCH_STAT inductive_lvl 0
BRUNCH_STAT max_depth 13
BRUNCH_STAT cex_depth 0
expand: query!0 (13, 0) FAR  w(0) 1.
	create_child: MAIN (12, 13) FAR 3271 U 0.00
expand: MAIN (12, 0) FAR  w(0) 3271.
	create_child: MAIN (11, 13) FAR 10013 U 0.00
expand: MAIN (11, 0) FAR  w(0) 10013.
	create_child: MAIN (10, 13) FAR 10190 U 0.00
expand: MAIN (10, 0) FAR  w(0) 10190.
	create_child: MAIN (9, 13) FAR 15946 U 0.00
expand: MAIN (9, 0) FAR  w(0) 15946.
	create_child: MAIN (8, 13) FAR 16152 U 0.00
expand: MAIN (8, 0) FAR  w(0) 16152.
	create_child: MAIN (7, 13) FAR 15848 U 0.00
expand: MAIN (7, 0) FAR  w(0) 15848.
	create_child: MAIN (6, 13) FAR 16338 U 0.00
expand: MAIN (6, 0) FAR  w(0) 16338.
	create_child: MAIN (5, 13) FAR 18030 U 0.00
expand: MAIN (5, 0) FAR  w(0) 18030.
	create_child: MAIN (4, 13) FAR 19207 U 0.00
expand: MAIN (4, 0) FAR  w(0) 19207.
	create_child: MAIN (3, 13) FAR 19531 U 0.00
expand: MAIN (3, 0) FAR  w(0) 19531.
	create_child: MAIN (2, 13) FAR 19577 U 0.00
expand: MAIN (2, 0) FAR  w(0) 19577.
	create_child: MAIN (1, 13) FAR 19615 U 0.00
expand: MAIN (1, 0) FAR  w(0) 19615.
	create_child: MAIN (0, 13) FAR 19997 U 0.00
expand: MAIN (0, 0) FAR  w(0) 19997. F 0.00
expand: MAIN (1, 0) FAR  w(0) 19615.
	create_child: MAIN (0, 13) FAR 18955 U 0.00
expand: MAIN (0, 0) FAR  w(0) 18955. F 0.00
expand: MAIN (1, 0) FAR  w(0) 19615. F 0.00
expand: MAIN (2, 0) FAR  w(0) 19577. F 0.00
expand: MAIN (3, 0) FAR  w(0) 19531. F 0.00
expand: MAIN (4, 0) FAR  w(0) 19207. F 0.00
expand: MAIN (5, 0) FAR  w(0) 18030.
	create_child: MAIN (4, 13) FAR 19741 U 0.00
expand: MAIN (4, 0) FAR  w(0) 19741. F 0.00
expand: MAIN (5, 0) FAR  w(0) 18030.
	create_child: MAIN (4, 13) FAR 19124 U 0.00
expand: MAIN (4, 0) FAR  w(0) 19124.
	create_child: MAIN (3, 13) FAR 18776 U 0.00
expand: MAIN (3, 0) FAR  w(0) 18776.
	create_child: MAIN (2, 13) FAR 20283 U 0.00
expand: MAIN (2, 0) FAR  w(0) 20283.
	create_child: MAIN (1, 13) FAR 19466 U 0.00
expand: MAIN (1, 0) FAR  w(0) 19466.
	create_child: MAIN (0, 13) FAR 19508 U 0.00
expand: MAIN (0, 0) FAR  w(0) 19508. F 0.00
expand: MAIN (1, 0) FAR  w(0) 19466. F 0.00
expand: MAIN (2, 0) FAR  w(0) 20283.
	create_child: MAIN (1, 13) FAR 19355 U 0.00
expand: MAIN (1, 0) FAR  w(0) 19355. T 0.00
is-reachable: MAIN (2, 0) FAR 20283 T 0.00
is-reachable: MAIN (3, 0) FAR 18776 T 0.00
is-reachable: MAIN (4, 0) FAR 19124 T 0.00
is-reachable: MAIN (5, 0) FAR 18030 T 0.00
is-reachable: MAIN (6, 0) FAR 16338 T 0.00
is-reachable: MAIN (7, 0) FAR 15848 T 0.00
is-reachable: MAIN (8, 0) FAR 16152 T 0.00
is-reachable: MAIN (9, 0) FAR 15946 T 0.01
is-reachable: MAIN (10, 0) FAR 10190 T 0.00
is-reachable: MAIN (11, 0) FAR 10013 T 0.00
is-reachable: MAIN (12, 0) FAR 3271 T 0.00
is-reachable: query!0 (13, 0) FAR 1 T 0.00
(spacer::context::check_reachability :time 0.12 :before-memory 8.01 :after-memory 9.98)
BRUNCH_STAT max_query_lvl 13
BRUNCH_STAT num_queries 104
BRUNCH_STAT num_reach_queries 13
BRUNCH_STAT num_reach_reuse 1
BRUNCH_STAT inductive_lvl 0
BRUNCH_STAT max_depth 13
BRUNCH_STAT cex_depth 13
(:SPACER-cex-depth                     13
 :SPACER-max-depth                     13
 :SPACER-max-query-lvl                 13
 :SPACER-num-invariants                14
 :SPACER-num-lemmas                    104
 :SPACER-num-properties                43
 :SPACER-num-queries                   104
 :SPACER-num-reach-queries             13
 :SPACER-num-reuse-reach-facts         1
 :added-eqs                            5556
 :arith-add-rows                       864
 :arith-assert-diseq                   2122
 :arith-assert-lower                   12435
 :arith-assert-upper                   16709
 :arith-bound-prop                     568
 :arith-conflicts                      63
 :arith-eq-adapter                     1309
 :arith-fixed-eqs                      936
 :arith-offset-eqs                     1033
 :arith-pivots                         331
 :bool-inductive-gen                   92
 :bool-inductive-gen-failures          100
 :conflicts                            421
 :decisions                            25303
 :del-clause                           162
 :final-checks                         242
 :minimized-lits                       16
 :mk-bool-var                          2798
 :mk-clause                            4840
 :num-checks                           579
 :propagations                         143212
 :time.itp_solver.itp_core             0.05
 :time.spacer.init_rules               0.00
 :time.spacer.init_rules.pt.init       0.00
 :time.spacer.solve                    0.43
 :time.spacer.solve.propagate          0.06
 :time.spacer.solve.reach              0.38
 :time.spacer.solve.reach.children     0.10
 :time.spacer.solve.reach.gen.bool_ind 0.03
 :time.spacer.solve.reach.is-reach     0.06
 :time.virtual_solver.proof            0.02
 :time.virtual_solver.smt.total        0.24
 :time.virtual_solver.smt.total.sat    0.16
 :virtual_solver.checks                579
 :virtual_solver.checks.sat            242)
BRUNCH_STAT max_query_lvl 13
BRUNCH_STAT num_queries 104
BRUNCH_STAT num_reach_queries 13
BRUNCH_STAT num_reach_reuse 1
BRUNCH_STAT inductive_lvl 0
BRUNCH_STAT max_depth 13
BRUNCH_STAT cex_depth 13

real	0m0.497s
user	0m0.480s
sys	0m0.016s
