(transform N7datalog13mk_coi_filterE...no-op 0s)
(transform N7datalog25mk_interp_tail_simplifierE...15 rules 0s)
(transform N7datalog27mk_quantifier_instantiationE...no-op 0s)
(transform N7datalog8mk_scaleE...no-op 0s)
(transform N7datalog18mk_karr_invariantsE...no-op 0s)
(transform N7datalog14mk_array_blastE...no-op 0s)
(transform N7datalog22mk_subsumption_checkerE...14 rules 0s)
(transform N7datalog12mk_bit_blastE...no-op 0s)
(transform N7datalog15mk_rule_inlinerE...3 rules 0.00542906s)
(transform N7datalog13mk_coi_filterE...no-op 0s)
(transform N7datalog25mk_interp_tail_simplifierE...3 rules 0s)
(transform N7datalog22mk_subsumption_checkerE...no-op 0s)
(transform N7datalog15mk_rule_inlinerE...no-op 0s)
(transform N7datalog13mk_coi_filterE...no-op 0s)
(transform N7datalog25mk_interp_tail_simplifierE...3 rules 0s)
(transform N7datalog22mk_subsumption_checkerE...no-op 0s)
(transform N7datalog15mk_rule_inlinerE...no-op 0s)
(transform N7datalog22mk_subsumption_checkerE...no-op 0s)
(transform N7datalog15mk_rule_inlinerE...no-op 0s)
(transform N7datalog22mk_subsumption_checkerE...no-op 0s)
(transform N7datalog15mk_rule_inlinerE...no-op 0s)
(transform N7datalog22mk_subsumption_checkerE...no-op 0s)
(transform N7datalog8mk_sliceE...no-op 0s)
expand: query!0 (0, 0) FAR  w(0) 1. F 0.00
(spacer::context::check_reachability :time 0.00 :before-memory 4.52 :after-memory 5.04)
Entering level 1
BRUNCH_STAT max_query_lvl 0
BRUNCH_STAT num_queries 0
BRUNCH_STAT num_reach_queries 0
BRUNCH_STAT num_reach_reuse 0
BRUNCH_STAT inductive_lvl 0
BRUNCH_STAT max_depth 1
BRUNCH_STAT cex_depth 0
expand: query!0 (1, 0) FAR  w(0) 1.
	create_child: MAIN (0, 1) FAR 3265 U 0.00
expand: MAIN (0, 0) FAR  w(0) 3265. F 0.00
expand: query!0 (1, 0) FAR  w(0) 1. F 0.00
(spacer::context::check_reachability :time 0.00 :before-memory 5.04 :after-memory 5.84)
Propagating: 0 1  ! 2 
(spacer::context::propagate :time 0.00 :before-memory 5.84 :after-memory 5.84)
Entering level 2
BRUNCH_STAT max_query_lvl 1
BRUNCH_STAT num_queries 1
BRUNCH_STAT num_reach_queries 0
BRUNCH_STAT num_reach_reuse 0
BRUNCH_STAT inductive_lvl 0
BRUNCH_STAT max_depth 2
BRUNCH_STAT cex_depth 0
expand: query!0 (2, 0) FAR  w(0) 1.
	create_child: MAIN (1, 2) FAR 3265 U 0.00
expand: MAIN (1, 0) FAR  w(0) 3265.
	create_child: MAIN (0, 2) FAR 5107 U 0.00
expand: MAIN (0, 0) FAR  w(0) 5107. F 0.00
expand: MAIN (1, 0) FAR  w(0) 3265.
	create_child: MAIN (0, 2) FAR 5221 U 0.00
expand: MAIN (0, 0) FAR  w(0) 5221. F 0.00
expand: MAIN (1, 0) FAR  w(0) 3265.
	create_child: MAIN (0, 2) FAR 5478 U 0.00
expand: MAIN (0, 0) FAR  w(0) 5478. F 0.00
expand: MAIN (1, 0) FAR  w(0) 3265.
	create_child: MAIN (0, 2) FAR 5653 U 0.00
expand: MAIN (0, 0) FAR  w(0) 5653. F 0.00
expand: MAIN (1, 0) FAR  w(0) 3265.
	create_child: MAIN (0, 2) FAR 5640 U 0.00
expand: MAIN (0, 0) FAR  w(0) 5640. F 0.00
expand: MAIN (1, 0) FAR  w(0) 3265.
	create_child: MAIN (0, 2) FAR 5786 U 0.00
expand: MAIN (0, 0) FAR  w(0) 5786. F 0.00
expand: MAIN (1, 0) FAR  w(0) 3265.
	create_child: MAIN (0, 2) FAR 6061 U 0.00
expand: MAIN (0, 0) FAR  w(0) 6061. F 0.00
expand: MAIN (1, 0) FAR  w(0) 3265.
	create_child: MAIN (0, 2) FAR 6211 U 0.00
expand: MAIN (0, 0) FAR  w(0) 6211. F 0.00
expand: MAIN (1, 0) FAR  w(0) 3265.
	create_child: MAIN (0, 2) FAR 6382 U 0.00
expand: MAIN (0, 0) FAR  w(0) 6382. F 0.00
expand: MAIN (1, 0) FAR  w(0) 3265. F 0.00
expand: query!0 (2, 0) FAR  w(0) 1. F 0.00
(spacer::context::check_reachability :time 0.02 :before-memory 5.84 :after-memory 6.26)
Propagating: 0 1 2  ! 3 
(spacer::context::propagate :time 0.00 :before-memory 6.26 :after-memory 6.26)
Entering level 3
BRUNCH_STAT max_query_lvl 2
BRUNCH_STAT num_queries 11
BRUNCH_STAT num_reach_queries 0
BRUNCH_STAT num_reach_reuse 0
BRUNCH_STAT inductive_lvl 0
BRUNCH_STAT max_depth 3
BRUNCH_STAT cex_depth 0
expand: query!0 (3, 0) FAR  w(0) 1.
	create_child: MAIN (2, 3) FAR 3265 U 0.00
expand: MAIN (2, 0) FAR  w(0) 3265.
	create_child: MAIN (1, 3) FAR 7102 U 0.00
expand: MAIN (1, 0) FAR  w(0) 7102. F 0.00
expand: MAIN (2, 0) FAR  w(0) 3265.
	create_child: MAIN (1, 3) FAR 7225 U 0.00
expand: MAIN (1, 0) FAR  w(0) 7225.
	create_child: MAIN (0, 3) FAR 7380 U 0.00
expand: MAIN (0, 0) FAR  w(0) 7380. F 0.00
expand: MAIN (1, 0) FAR  w(0) 7225.
	create_child: MAIN (0, 3) FAR 7652 U 0.00
expand: MAIN (0, 0) FAR  w(0) 7652. F 0.00
expand: MAIN (1, 0) FAR  w(0) 7225. F 0.00
expand: MAIN (2, 0) FAR  w(0) 3265.
	create_child: MAIN (1, 3) FAR 7622 U 0.00
expand: MAIN (1, 0) FAR  w(0) 7622.
	create_child: MAIN (0, 3) FAR 7865 U 0.00
expand: MAIN (0, 0) FAR  w(0) 7865. F 0.00
expand: MAIN (1, 0) FAR  w(0) 7622.
	create_child: MAIN (0, 3) FAR 8081 U 0.00
expand: MAIN (0, 0) FAR  w(0) 8081. F 0.00
expand: MAIN (1, 0) FAR  w(0) 7622. F 0.00
expand: MAIN (2, 0) FAR  w(0) 3265. F 0.00
expand: query!0 (3, 0) FAR  w(0) 1. F 0.00
(spacer::context::check_reachability :time 0.02 :before-memory 6.26 :after-memory 6.46)
Propagating: 0 1 2 3  ! 4 
(spacer::context::propagate :time 0.00 :before-memory 6.46 :after-memory 6.46)
Entering level 4
BRUNCH_STAT max_query_lvl 3
BRUNCH_STAT num_queries 19
BRUNCH_STAT num_reach_queries 0
BRUNCH_STAT num_reach_reuse 0
BRUNCH_STAT inductive_lvl 0
BRUNCH_STAT max_depth 4
BRUNCH_STAT cex_depth 0
expand: query!0 (4, 0) FAR  w(0) 1.
	create_child: MAIN (3, 4) FAR 3265 U 0.00
expand: MAIN (3, 0) FAR  w(0) 3265.
	create_child: MAIN (2, 4) FAR 8469 U 0.00
expand: MAIN (2, 0) FAR  w(0) 8469.
	create_child: MAIN (1, 4) FAR 8657 U 0.00
expand: MAIN (1, 0) FAR  w(0) 8657. F 0.00
expand: MAIN (2, 0) FAR  w(0) 8469. F 0.00
expand: MAIN (3, 0) FAR  w(0) 3265.
	create_child: MAIN (2, 4) FAR 8889 U 0.00
expand: MAIN (2, 0) FAR  w(0) 8889.
	create_child: MAIN (1, 4) FAR 9044 U 0.00
expand: MAIN (1, 0) FAR  w(0) 9044. F 0.00
expand: MAIN (2, 0) FAR  w(0) 8889. F 0.00
expand: MAIN (3, 0) FAR  w(0) 3265. F 0.00
expand: query!0 (4, 0) FAR  w(0) 1. F 0.00
(spacer::context::check_reachability :time 0.01 :before-memory 6.46 :after-memory 6.55)
Propagating: 1 2 3 4  ! 5 
(spacer::context::propagate :time 0.00 :before-memory 6.55 :after-memory 6.55)
Entering level 5
BRUNCH_STAT max_query_lvl 4
BRUNCH_STAT num_queries 24
BRUNCH_STAT num_reach_queries 0
BRUNCH_STAT num_reach_reuse 0
BRUNCH_STAT inductive_lvl 0
BRUNCH_STAT max_depth 5
BRUNCH_STAT cex_depth 0
expand: query!0 (5, 0) FAR  w(0) 1.
	create_child: MAIN (4, 5) FAR 3265 U 0.00
expand: MAIN (4, 0) FAR  w(0) 3265.
	create_child: MAIN (3, 5) FAR 9051 U 0.00
expand: MAIN (3, 0) FAR  w(0) 9051.
	create_child: MAIN (2, 5) FAR 9564 U 0.00
expand: MAIN (2, 0) FAR  w(0) 9564. F 0.00
expand: MAIN (3, 0) FAR  w(0) 9051
Matrix
1, 

. F 0.00
expand: MAIN (4, 0) FAR  w(0) 3265. F 0.00
expand: query!0 (5, 0) FAR  w(0) 1. F 0.00
(spacer::context::check_reachability :time 0.01 :before-memory 6.55 :after-memory 6.64)
Propagating: 2 3 4 5  ! 6 
(spacer::context::propagate :time 0.00 :before-memory 6.64 :after-memory 6.64)
Entering level 6
BRUNCH_STAT max_query_lvl 5
BRUNCH_STAT num_queries 27
BRUNCH_STAT num_reach_queries 0
BRUNCH_STAT num_reach_reuse 0
BRUNCH_STAT inductive_lvl 0
BRUNCH_STAT max_depth 6
BRUNCH_STAT cex_depth 0
expand: query!0 (6, 0) FAR  w(0) 1.
	create_child: MAIN (5, 6) FAR 3265 U 0.00
expand: MAIN (5, 0) FAR  w(0) 3265.
	create_child: MAIN (4, 6) FAR 9770 U 0.00
expand: MAIN (4, 0) FAR  w(0) 9770.
	create_child: MAIN (3, 6) FAR 9836 U 0.00
expand: MAIN (3, 0) FAR  w(0) 9836. F 0.00
expand: MAIN (4, 0) FAR  w(0) 9770
Matrix
1, 

. F 0.00
expand: MAIN (5, 0) FAR  w(0) 3265. F 0.00
expand: query!0 (6, 0) FAR  w(0) 1. F 0.00
(spacer::context::check_reachability :time 0.01 :before-memory 6.64 :after-memory 6.68)
Propagating: 3 4 5 6  ! 7 
(spacer::context::propagate :time 0.00 :before-memory 6.68 :after-memory 6.68)
Entering level 7
BRUNCH_STAT max_query_lvl 6
BRUNCH_STAT num_queries 30
BRUNCH_STAT num_reach_queries 0
BRUNCH_STAT num_reach_reuse 0
BRUNCH_STAT inductive_lvl 0
BRUNCH_STAT max_depth 7
BRUNCH_STAT cex_depth 0
expand: query!0 (7, 0) FAR  w(0) 1.
	create_child: MAIN (6, 7) FAR 3265 U 0.00
expand: MAIN (6, 0) FAR  w(0) 3265.
	create_child: MAIN (5, 7) FAR 10184 U 0.00
expand: MAIN (5, 0) FAR  w(0) 10184.
	create_child: MAIN (4, 7) FAR 10291 U 0.00
expand: MAIN (4, 0) FAR  w(0) 10291.
	create_child: MAIN (3, 7) FAR 10194 U 0.00
expand: MAIN (3, 0) FAR  w(0) 10194
Matrix
1, 

. F 0.00
expand: MAIN (4, 0) FAR  w(0) 10291
Matrix
1, 

. F 0.00
expand: MAIN (5, 0) FAR  w(0) 10184. F 0.00
expand: MAIN (6, 0) FAR  w(0) 3265. F 0.00
expand: query!0 (7, 0) FAR  w(0) 1. F 0.00
(spacer::context::check_reachability :time 0.01 :before-memory 6.68 :after-memory 6.72)
Propagating: 3 4 5 6 7  ! 8 
(spacer::context::propagate :time 0.00 :before-memory 6.72 :after-memory 6.72)
Entering level 8
BRUNCH_STAT max_query_lvl 7
BRUNCH_STAT num_queries 34
BRUNCH_STAT num_reach_queries 0
BRUNCH_STAT num_reach_reuse 0
BRUNCH_STAT inductive_lvl 0
BRUNCH_STAT max_depth 8
BRUNCH_STAT cex_depth 0
expand: query!0 (8, 0) FAR  w(0) 1.
	create_child: MAIN (7, 8) FAR 3265 U 0.00
expand: MAIN (7, 0) FAR  w(0) 3265.
	create_child: MAIN (6, 8) FAR 10184 U 0.00
expand: MAIN (6, 0) FAR  w(0) 10184.
	create_child: MAIN (5, 8) FAR 10291 U 0.00
expand: MAIN (5, 0) FAR  w(0) 10291.
	create_child: MAIN (4, 8) FAR 10194 U 0.00
expand: MAIN (4, 0) FAR  w(0) 10194.
	create_child: MAIN (3, 8) FAR 10974 U 0.00
expand: MAIN (3, 0) FAR  w(0) 10974
Matrix
1, 

. F 0.00
expand: MAIN (4, 0) FAR  w(0) 10194
Matrix
1, 

. F 0.00
expand: MAIN (5, 0) FAR  w(0) 10291. F 0.00
expand: MAIN (6, 0) FAR  w(0) 10184. F 0.00
expand: MAIN (7, 0) FAR  w(0) 3265. F 0.00
expand: query!0 (8, 0) FAR  w(0) 1. F 0.00
(spacer::context::check_reachability :time 0.02 :before-memory 6.72 :after-memory 6.78)
Propagating: 3 4 5 6 7 8  ! 9 
(spacer::context::propagate :time 0.00 :before-memory 6.78 :after-memory 6.78)
Entering level 9
BRUNCH_STAT max_query_lvl 8
BRUNCH_STAT num_queries 39
BRUNCH_STAT num_reach_queries 0
BRUNCH_STAT num_reach_reuse 0
BRUNCH_STAT inductive_lvl 0
BRUNCH_STAT max_depth 9
BRUNCH_STAT cex_depth 0
expand: query!0 (9, 0) FAR  w(0) 1.
	create_child: MAIN (8, 9) FAR 3265 U 0.00
expand: MAIN (8, 0) FAR  w(0) 3265.
	create_child: MAIN (7, 9) FAR 9770 U 0.00
expand: MAIN (7, 0) FAR  w(0) 9770.
	create_child: MAIN (6, 9) FAR 9836 U 0.00
expand: MAIN (6, 0) FAR  w(0) 9836.
	create_child: MAIN (5, 9) FAR 11617 U 0.00
expand: MAIN (5, 0) FAR  w(0) 11617.
	create_child: MAIN (4, 9) FAR 11135 U 0.00
expand: MAIN (4, 0) FAR  w(0) 11135.
	create_child: MAIN (3, 9) FAR 11716 U 0.00
expand: MAIN (3, 0) FAR  w(0) 11716
Matrix
1, 

. F 0.00
expand: MAIN (4, 0) FAR  w(0) 11135
Matrix
1, 

. F 0.00
expand: MAIN (5, 0) FAR  w(0) 11617. F 0.00
expand: MAIN (6, 0) FAR  w(0) 9836. F 0.00
expand: MAIN (7, 0) FAR  w(0) 9770. F 0.00
expand: MAIN (8, 0) FAR  w(0) 3265. F 0.00
expand: query!0 (9, 0) FAR  w(0) 1. F 0.00
(spacer::context::check_reachability :time 0.02 :before-memory 6.78 :after-memory 7.20)
Propagating: 3 4 5 6 7 8 9  ! 10 
(spacer::context::propagate :time 0.00 :before-memory 7.20 :after-memory 7.20)
Entering level 10
BRUNCH_STAT max_query_lvl 9
BRUNCH_STAT num_queries 45
BRUNCH_STAT num_reach_queries 0
BRUNCH_STAT num_reach_reuse 0
BRUNCH_STAT inductive_lvl 0
BRUNCH_STAT max_depth 10
BRUNCH_STAT cex_depth 0
expand: query!0 (10, 0) FAR  w(0) 1.
	create_child: MAIN (9, 10) FAR 3265 U 0.00
expand: MAIN (9, 0) FAR  w(0) 3265.
	create_child: MAIN (8, 10) FAR 9770 U 0.00
expand: MAIN (8, 0) FAR  w(0) 9770.
	create_child: MAIN (7, 10) FAR 9836 U 0.00
expand: MAIN (7, 0) FAR  w(0) 9836.
	create_child: MAIN (6, 10) FAR 11617 U 0.00
expand: MAIN (6, 0) FAR  w(0) 11617.
	create_child: MAIN (5, 10) FAR 11135 U 0.00
expand: MAIN (5, 0) FAR  w(0) 11135.
	create_child: MAIN (4, 10) FAR 11716 U 0.00
expand: MAIN (4, 0) FAR  w(0) 11716.
	create_child: MAIN (3, 10) FAR 12472 U 0.00
expand: MAIN (3, 0) FAR  w(0) 12472
Matrix
1, 

. F 0.00
expand: MAIN (4, 0) FAR  w(0) 11716
Matrix
1, 

. F 0.00
expand: MAIN (5, 0) FAR  w(0) 11135. F 0.00
expand: MAIN (6, 0) FAR  w(0) 11617. F 0.00
expand: MAIN (7, 0) FAR  w(0) 9836. F 0.00
expand: MAIN (8, 0) FAR  w(0) 9770. F 0.00
expand: MAIN (9, 0) FAR  w(0) 3265. F 0.00
expand: query!0 (10, 0) FAR  w(0) 1. F 0.00
(spacer::context::check_reachability :time 0.02 :before-memory 7.20 :after-memory 7.33)
Propagating: 3 4 5 6 7 8 9 10  ! 11 
(spacer::context::propagate :time 0.00 :before-memory 7.33 :after-memory 7.33)
Entering level 11
BRUNCH_STAT max_query_lvl 10
BRUNCH_STAT num_queries 52
BRUNCH_STAT num_reach_queries 0
BRUNCH_STAT num_reach_reuse 0
BRUNCH_STAT inductive_lvl 0
BRUNCH_STAT max_depth 11
BRUNCH_STAT cex_depth 0
expand: query!0 (11, 0) FAR  w(0) 1.
	create_child: MAIN (10, 11) FAR 3265 U 0.00
expand: MAIN (10, 0) FAR  w(0) 3265.
	create_child: MAIN (9, 11) FAR 9770 U 0.00
expand: MAIN (9, 0) FAR  w(0) 9770.
	create_child: MAIN (8, 11) FAR 9836 U 0.00
expand: MAIN (8, 0) FAR  w(0) 9836.
	create_child: MAIN (7, 11) FAR 11617 U 0.00
expand: MAIN (7, 0) FAR  w(0) 11617.
	create_child: MAIN (6, 11) FAR 11135 U 0.00
expand: MAIN (6, 0) FAR  w(0) 11135.
	create_child: MAIN (5, 11) FAR 11716 U 0.00
expand: MAIN (5, 0) FAR  w(0) 11716.
	create_child: MAIN (4, 11) FAR 12472 U 0.00
expand: MAIN (4, 0) FAR  w(0) 12472.
	create_child: MAIN (3, 11) FAR 13317 U 0.00
expand: MAIN (3, 0) FAR  w(0) 13317
Matrix
1, 

. F 0.00
expand: MAIN (4, 0) FAR  w(0) 12472
Matrix
1, 

. F 0.00
expand: MAIN (5, 0) FAR  w(0) 11716. F 0.00
expand: MAIN (6, 0) FAR  w(0) 11135. F 0.00
expand: MAIN (7, 0) FAR  w(0) 11617. F 0.00
expand: MAIN (8, 0) FAR  w(0) 9836. F 0.00
expand: MAIN (9, 0) FAR  w(0) 9770. F 0.00
expand: MAIN (10, 0) FAR  w(0) 3265. F 0.00
expand: query!0 (11, 0) FAR  w(0) 1. F 0.00
(spacer::context::check_reachability :time 0.02 :before-memory 7.33 :after-memory 7.40)
Propagating: 3 4 5 6 7 8 9 10 11  ! 12 
(spacer::context::propagate :time 0.00 :before-memory 7.40 :after-memory 7.40)
Entering level 12
BRUNCH_STAT max_query_lvl 11
BRUNCH_STAT num_queries 60
BRUNCH_STAT num_reach_queries 0
BRUNCH_STAT num_reach_reuse 0
BRUNCH_STAT inductive_lvl 0
BRUNCH_STAT max_depth 12
BRUNCH_STAT cex_depth 0
expand: query!0 (12, 0) FAR  w(0) 1.
	create_child: MAIN (11, 12) FAR 3265 U 0.00
expand: MAIN (11, 0) FAR  w(0) 3265.
	create_child: MAIN (10, 12) FAR 10184 U 0.00
expand: MAIN (10, 0) FAR  w(0) 10184.
	create_child: MAIN (9, 12) FAR 10291 U 0.00
expand: MAIN (9, 0) FAR  w(0) 10291.
	create_child: MAIN (8, 12) FAR 10194 U 0.00
expand: MAIN (8, 0) FAR  w(0) 10194.
	create_child: MAIN (7, 12) FAR 10974 U 0.00
expand: MAIN (7, 0) FAR  w(0) 10974.
	create_child: MAIN (6, 12) FAR 13505 U 0.00
expand: MAIN (6, 0) FAR  w(0) 13505.
	create_child: MAIN (5, 12) FAR 14086 U 0.00
expand: MAIN (5, 0) FAR  w(0) 14086.
	create_child: MAIN (4, 12) FAR 14162 U 0.00
expand: MAIN (4, 0) FAR  w(0) 14162.
	create_child: MAIN (3, 12) FAR 13877 U 0.00
expand: MAIN (3, 0) FAR  w(0) 13877
Matrix
1, 

. F 0.00
expand: MAIN (4, 0) FAR  w(0) 14162
Matrix
1, 

. F 0.00
expand: MAIN (5, 0) FAR  w(0) 14086. F 0.00
expand: MAIN (6, 0) FAR  w(0) 13505. F 0.00
expand: MAIN (7, 0) FAR  w(0) 10974. F 0.00
expand: MAIN (8, 0) FAR  w(0) 10194. F 0.00
expand: MAIN (9, 0) FAR  w(0) 10291. F 0.00
expand: MAIN (10, 0) FAR  w(0) 10184. F 0.00
expand: MAIN (11, 0) FAR  w(0) 3265. F 0.00
expand: query!0 (12, 0) FAR  w(0) 1. F 0.00
(spacer::context::check_reachability :time 0.03 :before-memory 7.40 :after-memory 7.48)
Propagating: 3 4 5 6 7 8 9 10 11 12  ! 13 
(spacer::context::propagate :time 0.01 :before-memory 7.48 :after-memory 7.48)
Entering level 13
BRUNCH_STAT max_query_lvl 12
BRUNCH_STAT num_queries 69
BRUNCH_STAT num_reach_queries 0
BRUNCH_STAT num_reach_reuse 0
BRUNCH_STAT inductive_lvl 0
BRUNCH_STAT max_depth 13
BRUNCH_STAT cex_depth 0
expand: query!0 (13, 0) FAR  w(0) 1.
	create_child: MAIN (12, 13) FAR 3265 U 0.00
expand: MAIN (12, 0) FAR  w(0) 3265.
	create_child: MAIN (11, 13) FAR 10184 U 0.00
expand: MAIN (11, 0) FAR  w(0) 10184.
	create_child: MAIN (10, 13) FAR 10291 U 0.00
expand: MAIN (10, 0) FAR  w(0) 10291.
	create_child: MAIN (9, 13) FAR 10194 U 0.00
expand: MAIN (9, 0) FAR  w(0) 10194.
	create_child: MAIN (8, 13) FAR 10974 U 0.00
expand: MAIN (8, 0) FAR  w(0) 10974.
	create_child: MAIN (7, 13) FAR 13505 U 0.00
expand: MAIN (7, 0) FAR  w(0) 13505.
	create_child: MAIN (6, 13) FAR 14086 U 0.00
expand: MAIN (6, 0) FAR  w(0) 14086.
	create_child: MAIN (5, 13) FAR 14162 U 0.00
expand: MAIN (5, 0) FAR  w(0) 14162.
	create_child: MAIN (4, 13) FAR 13877 U 0.00
expand: MAIN (4, 0) FAR  w(0) 13877.
	create_child: MAIN (3, 13) FAR 15061 U 0.00
expand: MAIN (3, 0) FAR  w(0) 15061
Matrix
1, 

. F 0.00
expand: MAIN (4, 0) FAR  w(0) 13877
Matrix
1, 

. F 0.00
expand: MAIN (5, 0) FAR  w(0) 14162. F 0.00
expand: MAIN (6, 0) FAR  w(0) 14086. F 0.00
expand: MAIN (7, 0) FAR  w(0) 13505. F 0.00
expand: MAIN (8, 0) FAR  w(0) 10974. F 0.00
expand: MAIN (9, 0) FAR  w(0) 10194. F 0.00
expand: MAIN (10, 0) FAR  w(0) 10291. F 0.00
expand: MAIN (11, 0) FAR  w(0) 10184. F 0.00
expand: MAIN (12, 0) FAR  w(0) 3265. F 0.00
expand: query!0 (13, 0) FAR  w(0) 1. F 0.00
(spacer::context::check_reachability :time 0.03 :before-memory 7.48 :after-memory 7.58)
Propagating: 3 4 5 6 7 8 9 10 11 12 13  ! 14 
(spacer::context::propagate :time 0.01 :before-memory 7.58 :after-memory 7.58)
Entering level 14
BRUNCH_STAT max_query_lvl 13
BRUNCH_STAT num_queries 79
BRUNCH_STAT num_reach_queries 0
BRUNCH_STAT num_reach_reuse 0
BRUNCH_STAT inductive_lvl 0
BRUNCH_STAT max_depth 14
BRUNCH_STAT cex_depth 0
expand: query!0 (14, 0) FAR  w(0) 1.
	create_child: MAIN (13, 14) FAR 3265 U 0.00
expand: MAIN (13, 0) FAR  w(0) 3265.
	create_child: MAIN (12, 14) FAR 10184 U 0.00
expand: MAIN (12, 0) FAR  w(0) 10184.
	create_child: MAIN (11, 14) FAR 10291 U 0.00
expand: MAIN (11, 0) FAR  w(0) 10291.
	create_child: MAIN (10, 14) FAR 10194 U 0.00
expand: MAIN (10, 0) FAR  w(0) 10194.
	create_child: MAIN (9, 14) FAR 10974 U 0.00
expand: MAIN (9, 0) FAR  w(0) 10974.
	create_child: MAIN (8, 14) FAR 13505 U 0.00
expand: MAIN (8, 0) FAR  w(0) 13505.
	create_child: MAIN (7, 14) FAR 14086 U 0.00
expand: MAIN (7, 0) FAR  w(0) 14086.
	create_child: MAIN (6, 14) FAR 14162 U 0.00
expand: MAIN (6, 0) FAR  w(0) 14162.
	create_child: MAIN (5, 14) FAR 13877 U 0.00
expand: MAIN (5, 0) FAR  w(0) 13877.
	create_child: MAIN (4, 14) FAR 15061 U 0.00
expand: MAIN (4, 0) FAR  w(0) 15061.
	create_child: MAIN (3, 14) FAR 15854 U 0.00
expand: MAIN (3, 0) FAR  w(0) 15854
Matrix
1, 

. F 0.00
expand: MAIN (4, 0) FAR  w(0) 15061
Matrix
1, 

. F 0.00
expand: MAIN (5, 0) FAR  w(0) 13877. F 0.00
expand: MAIN (6, 0) FAR  w(0) 14162. F 0.00
expand: MAIN (7, 0) FAR  w(0) 14086. F 0.00
expand: MAIN (8, 0) FAR  w(0) 13505. F 0.00
expand: MAIN (9, 0) FAR  w(0) 10974. F 0.00
expand: MAIN (10, 0) FAR  w(0) 10194. F 0.00
expand: MAIN (11, 0) FAR  w(0) 10291. F 0.00
expand: MAIN (12, 0) FAR  w(0) 10184. F 0.00
expand: MAIN (13, 0) FAR  w(0) 3265. F 0.00
expand: query!0 (14, 0) FAR  w(0) 1. F 0.00
(spacer::context::check_reachability :time 0.03 :before-memory 7.58 :after-memory 7.67)
Propagating: 3 4 5 6 7 8 9 10 11 12 13 14  ! 15 
(spacer::context::propagate :time 0.01 :before-memory 7.67 :after-memory 7.67)
Entering level 15
BRUNCH_STAT max_query_lvl 14
BRUNCH_STAT num_queries 90
BRUNCH_STAT num_reach_queries 0
BRUNCH_STAT num_reach_reuse 0
BRUNCH_STAT inductive_lvl 0
BRUNCH_STAT max_depth 15
BRUNCH_STAT cex_depth 0
expand: query!0 (15, 0) FAR  w(0) 1.
	create_child: MAIN (14, 15) FAR 3265 U 0.00
expand: MAIN (14, 0) FAR  w(0) 3265.
	create_child: MAIN (13, 15) FAR 10184 U 0.00
expand: MAIN (13, 0) FAR  w(0) 10184.
	create_child: MAIN (12, 15) FAR 10291 U 0.00
expand: MAIN (12, 0) FAR  w(0) 10291.
	create_child: MAIN (11, 15) FAR 10194 U 0.00
expand: MAIN (11, 0) FAR  w(0) 10194.
	create_child: MAIN (10, 15) FAR 10974 U 0.00
expand: MAIN (10, 0) FAR  w(0) 10974.
	create_child: MAIN (9, 15) FAR 13505 U 0.00
expand: MAIN (9, 0) FAR  w(0) 13505.
	create_child: MAIN (8, 15) FAR 14086 U 0.00
expand: MAIN (8, 0) FAR  w(0) 14086.
	create_child: MAIN (7, 15) FAR 14162 U 0.00
expand: MAIN (7, 0) FAR  w(0) 14162.
	create_child: MAIN (6, 15) FAR 13877 U 0.00
expand: MAIN (6, 0) FAR  w(0) 13877.
	create_child: MAIN (5, 15) FAR 15061 U 0.00
expand: MAIN (5, 0) FAR  w(0) 15061.
	create_child: MAIN (4, 15) FAR 15854 U 0.00
expand: MAIN (4, 0) FAR  w(0) 15854.
	create_child: MAIN (3, 15) FAR 16957 U 0.00
expand: MAIN (3, 0) FAR  w(0) 16957.
	create_child: MAIN (2, 15) FAR 17785 U 0.00
expand: MAIN (2, 0) FAR  w(0) 17785.
	create_child: MAIN (1, 15) FAR 17968 U 0.00
expand: MAIN (1, 0) FAR  w(0) 17968. F 0.00
expand: MAIN (2, 0) FAR  w(0) 17785
Matrix
1, 

. F 0.00
expand: MAIN (3, 0) FAR  w(0) 16957. F 0.00
expand: MAIN (4, 0) FAR  w(0) 15854. F 0.00
expand: MAIN (5, 0) FAR  w(0) 15061. F 0.00
expand: MAIN (6, 0) FAR  w(0) 13877. F 0.00
expand: MAIN (7, 0) FAR  w(0) 14162. F 0.00
expand: MAIN (8, 0) FAR  w(0) 14086. F 0.00
expand: MAIN (9, 0) FAR  w(0) 13505. F 0.00
expand: MAIN (10, 0) FAR  w(0) 10974. F 0.00
expand: MAIN (11, 0) FAR  w(0) 10194. F 0.00
expand: MAIN (12, 0) FAR  w(0) 10291. F 0.00
expand: MAIN (13, 0) FAR  w(0) 10184. F 0.00
expand: MAIN (14, 0) FAR  w(0) 3265. F 0.00
expand: query!0 (15, 0) FAR  w(0) 1. F 0.00
(spacer::context::check_reachability :time 0.05 :before-memory 7.67 :after-memory 7.80)
Propagating: 1 2 3 4 5 6 7 8 9 10 11 12 13 14 15  ! 16 
(spacer::context::propagate :time 0.01 :before-memory 7.80 :after-memory 7.80)
Entering level 16
BRUNCH_STAT max_query_lvl 15
BRUNCH_STAT num_queries 104
BRUNCH_STAT num_reach_queries 0
BRUNCH_STAT num_reach_reuse 0
BRUNCH_STAT inductive_lvl 0
BRUNCH_STAT max_depth 16
BRUNCH_STAT cex_depth 0
expand: query!0 (16, 0) FAR  w(0) 1.
	create_child: MAIN (15, 16) FAR 3265 U 0.00
expand: MAIN (15, 0) FAR  w(0) 3265.
	create_child: MAIN (14, 16) FAR 9770 U 0.00
expand: MAIN (14, 0) FAR  w(0) 9770.
	create_child: MAIN (13, 16) FAR 9836 U 0.00
expand: MAIN (13, 0) FAR  w(0) 9836.
	create_child: MAIN (12, 16) FAR 11617 U 0.00
expand: MAIN (12, 0) FAR  w(0) 11617.
	create_child: MAIN (11, 16) FAR 11135 U 0.00
expand: MAIN (11, 0) FAR  w(0) 11135.
	create_child: MAIN (10, 16) FAR 11716 U 0.00
expand: MAIN (10, 0) FAR  w(0) 11716.
	create_child: MAIN (9, 16) FAR 12472 U 0.00
expand: MAIN (9, 0) FAR  w(0) 12472.
	create_child: MAIN (8, 16) FAR 13317 U 0.00
expand: MAIN (8, 0) FAR  w(0) 13317.
	create_child: MAIN (7, 16) FAR 18796 U 0.00
expand: MAIN (7, 0) FAR  w(0) 18796.
	create_child: MAIN (6, 16) FAR 19042 U 0.00
expand: MAIN (6, 0) FAR  w(0) 19042.
	create_child: MAIN (5, 16) FAR 18644 U 0.00
expand: MAIN (5, 0) FAR  w(0) 18644.
	create_child: MAIN (4, 16) FAR 19038 U 0.00
expand: MAIN (4, 0) FAR  w(0) 19038.
	create_child: MAIN (3, 16) FAR 18447 U 0.00
expand: MAIN (3, 0) FAR  w(0) 18447.
	create_child: MAIN (2, 16) FAR 18451 U 0.00
expand: MAIN (2, 0) FAR  w(0) 18451. F 0.00
expand: MAIN (3, 0) FAR  w(0) 18447
Matrix
1, 

. F 0.00
expand: MAIN (4, 0) FAR  w(0) 19038. F 0.00
expand: MAIN (5, 0) FAR  w(0) 18644. F 0.00
expand: MAIN (6, 0) FAR  w(0) 19042. F 0.00
expand: MAIN (7, 0) FAR  w(0) 18796. F 0.00
expand: MAIN (8, 0) FAR  w(0) 13317. F 0.00
expand: MAIN (9, 0) FAR  w(0) 12472. F 0.00
expand: MAIN (10, 0) FAR  w(0) 11716. F 0.00
expand: MAIN (11, 0) FAR  w(0) 11135. F 0.00
expand: MAIN (12, 0) FAR  w(0) 11617. F 0.00
expand: MAIN (13, 0) FAR  w(0) 9836. F 0.00
expand: MAIN (14, 0) FAR  w(0) 9770. F 0.00
expand: MAIN (15, 0) FAR  w(0) 3265. F 0.00
expand: query!0 (16, 0) FAR  w(0) 1. F 0.00
(spacer::context::check_reachability :time 0.04 :before-memory 7.80 :after-memory 8.00)
Propagating: 2 3 4 5 6 7 8 9 10 11 12 13 14 15 16  ! 17 
(spacer::context::propagate :time 0.01 :before-memory 8.00 :after-memory 8.00)
Entering level 17
BRUNCH_STAT max_query_lvl 16
BRUNCH_STAT num_queries 118
BRUNCH_STAT num_reach_queries 0
BRUNCH_STAT num_reach_reuse 0
BRUNCH_STAT inductive_lvl 0
BRUNCH_STAT max_depth 17
BRUNCH_STAT cex_depth 0
expand: query!0 (17, 0) FAR  w(0) 1.
	create_child: MAIN (16, 17) FAR 3265 U 0.00
expand: MAIN (16, 0) FAR  w(0) 3265.
	create_child: MAIN (15, 17) FAR 9770 U 0.00
expand: MAIN (15, 0) FAR  w(0) 9770.
	create_child: MAIN (14, 17) FAR 9836 U 0.00
expand: MAIN (14, 0) FAR  w(0) 9836.
	create_child: MAIN (13, 17) FAR 11617 U 0.00
expand: MAIN (13, 0) FAR  w(0) 11617.
	create_child: MAIN (12, 17) FAR 11135 U 0.00
expand: MAIN (12, 0) FAR  w(0) 11135.
	create_child: MAIN (11, 17) FAR 11716 U 0.00
expand: MAIN (11, 0) FAR  w(0) 11716.
	create_child: MAIN (10, 17) FAR 12472 U 0.00
expand: MAIN (10, 0) FAR  w(0) 12472.
	create_child: MAIN (9, 17) FAR 13317 U 0.00
expand: MAIN (9, 0) FAR  w(0) 13317.
	create_child: MAIN (8, 17) FAR 18796 U 0.00
expand: MAIN (8, 0) FAR  w(0) 18796.
	create_child: MAIN (7, 17) FAR 19042 U 0.00
expand: MAIN (7, 0) FAR  w(0) 19042.
	create_child: MAIN (6, 17) FAR 18644 U 0.00
expand: MAIN (6, 0) FAR  w(0) 18644.
	create_child: MAIN (5, 17) FAR 19038 U 0.00
expand: MAIN (5, 0) FAR  w(0) 19038.
	create_child: MAIN (4, 17) FAR 18447 U 0.00
expand: MAIN (4, 0) FAR  w(0) 18447.
	create_child: MAIN (3, 17) FAR 18451 U 0.00
expand: MAIN (3, 0) FAR  w(0) 18451. F 0.00
expand: MAIN (4, 0) FAR  w(0) 18447
Matrix
1, 

. F 0.00
expand: MAIN (5, 0) FAR  w(0) 19038. F 0.00
expand: MAIN (6, 0) FAR  w(0) 18644. F 0.00
expand: MAIN (7, 0) FAR  w(0) 19042. F 0.00
expand: MAIN (8, 0) FAR  w(0) 18796. F 0.00
expand: MAIN (9, 0) FAR  w(0) 13317. F 0.00
expand: MAIN (10, 0) FAR  w(0) 12472. F 0.00
expand: MAIN (11, 0) FAR  w(0) 11716. F 0.00
expand: MAIN (12, 0) FAR  w(0) 11135. F 0.00
expand: MAIN (13, 0) FAR  w(0) 11617. F 0.00
expand: MAIN (14, 0) FAR  w(0) 9836. F 0.00
expand: MAIN (15, 0) FAR  w(0) 9770. F 0.00
expand: MAIN (16, 0) FAR  w(0) 3265. F 0.00
expand: query!0 (17, 0) FAR  w(0) 1. F 0.00
(spacer::context::check_reachability :time 0.04 :before-memory 8.00 :after-memory 8.07)
Propagating: 3 4 5 6 7 8 9 10 11 12 13 14 15 16 17  ! 18 
(spacer::context::propagate :time 0.01 :before-memory 8.07 :after-memory 8.07)
Entering level 18
BRUNCH_STAT max_query_lvl 17
BRUNCH_STAT num_queries 132
BRUNCH_STAT num_reach_queries 0
BRUNCH_STAT num_reach_reuse 0
BRUNCH_STAT inductive_lvl 0
BRUNCH_STAT max_depth 18
BRUNCH_STAT cex_depth 0
expand: query!0 (18, 0) FAR  w(0) 1.
	create_child: MAIN (17, 18) FAR 3265 U 0.00
expand: MAIN (17, 0) FAR  w(0) 3265.
	create_child: MAIN (16, 18) FAR 9770 U 0.00
expand: MAIN (16, 0) FAR  w(0) 9770.
	create_child: MAIN (15, 18) FAR 9836 U 0.00
expand: MAIN (15, 0) FAR  w(0) 9836.
	create_child: MAIN (14, 18) FAR 11617 U 0.00
expand: MAIN (14, 0) FAR  w(0) 11617.
	create_child: MAIN (13, 18) FAR 11135 U 0.00
expand: MAIN (13, 0) FAR  w(0) 11135.
	create_child: MAIN (12, 18) FAR 11716 U 0.00
expand: MAIN (12, 0) FAR  w(0) 11716.
	create_child: MAIN (11, 18) FAR 12472 U 0.00
expand: MAIN (11, 0) FAR  w(0) 12472.
	create_child: MAIN (10, 18) FAR 13317 U 0.00
expand: MAIN (10, 0) FAR  w(0) 13317.
	create_child: MAIN (9, 18) FAR 18796 U 0.00
expand: MAIN (9, 0) FAR  w(0) 18796.
	create_child: MAIN (8, 18) FAR 19042 U 0.00
expand: MAIN (8, 0) FAR  w(0) 19042.
	create_child: MAIN (7, 18) FAR 18644 U 0.00
expand: MAIN (7, 0) FAR  w(0) 18644.
	create_child: MAIN (6, 18) FAR 19038 U 0.00
expand: MAIN (6, 0) FAR  w(0) 19038.
	create_child: MAIN (5, 18) FAR 18447 U 0.00
expand: MAIN (5, 0) FAR  w(0) 18447.
	create_child: MAIN (4, 18) FAR 18451 U 0.00
expand: MAIN (4, 0) FAR  w(0) 18451.
	create_child: MAIN (3, 18) FAR 21131 U 0.00
expand: MAIN (3, 0) FAR  w(0) 21131.
	create_child: MAIN (2, 18) FAR 20545 U 0.00
expand: MAIN (2, 0) FAR  w(0) 20545. F 0.00
expand: MAIN (3, 0) FAR  w(0) 21131
Matrix
1, 

. F 0.00
expand: MAIN (4, 0) FAR  w(0) 18451. F 0.00
expand: MAIN (5, 0) FAR  w(0) 18447. F 0.00
expand: MAIN (6, 0) FAR  w(0) 19038. F 0.00
expand: MAIN (7, 0) FAR  w(0) 18644. F 0.00
expand: MAIN (8, 0) FAR  w(0) 19042. F 0.00
expand: MAIN (9, 0) FAR  w(0) 18796. F 0.00
expand: MAIN (10, 0) FAR  w(0) 13317. F 0.00
expand: MAIN (11, 0) FAR  w(0) 12472. F 0.00
expand: MAIN (12, 0) FAR  w(0) 11716. F 0.00
expand: MAIN (13, 0) FAR  w(0) 11135. F 0.00
expand: MAIN (14, 0) FAR  w(0) 11617. F 0.00
expand: MAIN (15, 0) FAR  w(0) 9836. F 0.00
expand: MAIN (16, 0) FAR  w(0) 9770. F 0.00
expand: MAIN (17, 0) FAR  w(0) 3265. F 0.00
expand: query!0 (18, 0) FAR  w(0) 1. F 0.00
(spacer::context::check_reachability :time 0.05 :before-memory 8.07 :after-memory 8.18)
Propagating: 2 3 4 5 6 7 8 9 10 11 12 13 14 15 16 17 18  ! 19 
(spacer::context::propagate :time 0.01 :before-memory 8.18 :after-memory 8.18)
Entering level 19
BRUNCH_STAT max_query_lvl 18
BRUNCH_STAT num_queries 148
BRUNCH_STAT num_reach_queries 0
BRUNCH_STAT num_reach_reuse 0
BRUNCH_STAT inductive_lvl 0
BRUNCH_STAT max_depth 19
BRUNCH_STAT cex_depth 0
expand: query!0 (19, 0) FAR  w(0) 1.
	create_child: MAIN (18, 19) FAR 3265 U 0.00
expand: MAIN (18, 0) FAR  w(0) 3265.
	create_child: MAIN (17, 19) FAR 10184 U 0.00
expand: MAIN (17, 0) FAR  w(0) 10184.
	create_child: MAIN (16, 19) FAR 10291 U 0.00
expand: MAIN (16, 0) FAR  w(0) 10291.
	create_child: MAIN (15, 19) FAR 10194 U 0.00
expand: MAIN (15, 0) FAR  w(0) 10194.
	create_child: MAIN (14, 19) FAR 10974 U 0.00
expand: MAIN (14, 0) FAR  w(0) 10974.
	create_child: MAIN (13, 19) FAR 13505 U 0.00
expand: MAIN (13, 0) FAR  w(0) 13505.
	create_child: MAIN (12, 19) FAR 14086 U 0.00
expand: MAIN (12, 0) FAR  w(0) 14086.
	create_child: MAIN (11, 19) FAR 14162 U 0.00
expand: MAIN (11, 0) FAR  w(0) 14162.
	create_child: MAIN (10, 19) FAR 13877 U 0.00
expand: MAIN (10, 0) FAR  w(0) 13877.
	create_child: MAIN (9, 19) FAR 15061 U 0.00
expand: MAIN (9, 0) FAR  w(0) 15061.
	create_child: MAIN (8, 19) FAR 15854 U 0.00
expand: MAIN (8, 0) FAR  w(0) 15854.
	create_child: MAIN (7, 19) FAR 16957 U 0.00
expand: MAIN (7, 0) FAR  w(0) 16957.
	create_child: MAIN (6, 19) FAR 17785 U 0.00
expand: MAIN (6, 0) FAR  w(0) 17785.
	create_child: MAIN (5, 19) FAR 17968 U 0.00
expand: MAIN (5, 0) FAR  w(0) 17968.
	create_child: MAIN (4, 19) FAR 22801 U 0.00
expand: MAIN (4, 0) FAR  w(0) 22801.
	create_child: MAIN (3, 19) FAR 22680 U 0.00
expand: MAIN (3, 0) FAR  w(0) 22680.
	create_child: MAIN (2, 19) FAR 22311 U 0.00
expand: MAIN (2, 0) FAR  w(0) 22311. F 0.00
expand: MAIN (3, 0) FAR  w(0) 22680. F 0.00
expand: MAIN (4, 0) FAR  w(0) 22801. F 0.00
expand: MAIN (5, 0) FAR  w(0) 17968. F 0.00
expand: MAIN (6, 0) FAR  w(0) 17785. F 0.00
expand: MAIN (7, 0) FAR  w(0) 16957. F 0.00
expand: MAIN (8, 0) FAR  w(0) 15854. F 0.00
expand: MAIN (9, 0) FAR  w(0) 15061. F 0.00
expand: MAIN (10, 0) FAR  w(0) 13877. F 0.00
expand: MAIN (11, 0) FAR  w(0) 14162. F 0.00
expand: MAIN (12, 0) FAR  w(0) 14086. F 0.00
expand: MAIN (13, 0) FAR  w(0) 13505. F 0.00
expand: MAIN (14, 0) FAR  w(0) 10974. F 0.00
expand: MAIN (15, 0) FAR  w(0) 10194. F 0.00
expand: MAIN (16, 0) FAR  w(0) 10291. F 0.00
expand: MAIN (17, 0) FAR  w(0) 10184. F 0.00
expand: MAIN (18, 0) FAR  w(0) 3265. F 0.00
expand: query!0 (19, 0) FAR  w(0) 1. F 0.00
(spacer::context::check_reachability :time 0.06 :before-memory 8.18 :after-memory 8.28)
Propagating: 2 3 4 5 6 7 8 9 10 11 12 13 14 15 16 17 18 19  ! 20 
(spacer::context::propagate :time 0.01 :before-memory 8.28 :after-memory 8.28)
Entering level 20
BRUNCH_STAT max_query_lvl 19
BRUNCH_STAT num_queries 165
BRUNCH_STAT num_reach_queries 0
BRUNCH_STAT num_reach_reuse 0
BRUNCH_STAT inductive_lvl 0
BRUNCH_STAT max_depth 20
BRUNCH_STAT cex_depth 0
expand: query!0 (20, 0) FAR  w(0) 1.
	create_child: MAIN (19, 20) FAR 3265 U 0.00
expand: MAIN (19, 0) FAR  w(0) 3265.
	create_child: MAIN (18, 20) FAR 9770 U 0.00
expand: MAIN (18, 0) FAR  w(0) 9770.
	create_child: MAIN (17, 20) FAR 9836 U 0.00
expand: MAIN (17, 0) FAR  w(0) 9836.
	create_child: MAIN (16, 20) FAR 11617 U 0.00
expand: MAIN (16, 0) FAR  w(0) 11617.
	create_child: MAIN (15, 20) FAR 11135 U 0.00
expand: MAIN (15, 0) FAR  w(0) 11135.
	create_child: MAIN (14, 20) FAR 11716 U 0.00
expand: MAIN (14, 0) FAR  w(0) 11716.
	create_child: MAIN (13, 20) FAR 12472 U 0.00
expand: MAIN (13, 0) FAR  w(0) 12472.
	create_child: MAIN (12, 20) FAR 13317 U 0.00
expand: MAIN (12, 0) FAR  w(0) 13317.
	create_child: MAIN (11, 20) FAR 18796 U 0.00
expand: MAIN (11, 0) FAR  w(0) 18796.
	create_child: MAIN (10, 20) FAR 19042 U 0.00
expand: MAIN (10, 0) FAR  w(0) 19042.
	create_child: MAIN (9, 20) FAR 18644 U 0.00
expand: MAIN (9, 0) FAR  w(0) 18644.
	create_child: MAIN (8, 20) FAR 19038 U 0.00
expand: MAIN (8, 0) FAR  w(0) 19038.
	create_child: MAIN (7, 20) FAR 18447 U 0.00
expand: MAIN (7, 0) FAR  w(0) 18447.
	create_child: MAIN (6, 20) FAR 18451 U 0.00
expand: MAIN (6, 0) FAR  w(0) 18451.
	create_child: MAIN (5, 20) FAR 21131 U 0.00
expand: MAIN (5, 0) FAR  w(0) 21131.
	create_child: MAIN (4, 20) FAR 20545 U 0.00
expand: MAIN (4, 0) FAR  w(0) 20545.
	create_child: MAIN (3, 20) FAR 23913 U 0.00
expand: MAIN (3, 0) FAR  w(0) 23913.
	create_child: MAIN (2, 20) FAR 23775 U 0.00
expand: MAIN (2, 0) FAR  w(0) 23775. F 0.00
expand: MAIN (3, 0) FAR  w(0) 23913
Matrix
1, 

. F 0.00
expand: MAIN (4, 0) FAR  w(0) 20545. F 0.00
expand: MAIN (5, 0) FAR  w(0) 21131. F 0.00
expand: MAIN (6, 0) FAR  w(0) 18451. F 0.00
expand: MAIN (7, 0) FAR  w(0) 18447. F 0.00
expand: MAIN (8, 0) FAR  w(0) 19038. F 0.00
expand: MAIN (9, 0) FAR  w(0) 18644. F 0.00
expand: MAIN (10, 0) FAR  w(0) 19042. F 0.00
expand: MAIN (11, 0) FAR  w(0) 18796. F 0.00
expand: MAIN (12, 0) FAR  w(0) 13317. F 0.00
expand: MAIN (13, 0) FAR  w(0) 12472. F 0.00
expand: MAIN (14, 0) FAR  w(0) 11716. F 0.00
expand: MAIN (15, 0) FAR  w(0) 11135. F 0.00
expand: MAIN (16, 0) FAR  w(0) 11617. F 0.00
expand: MAIN (17, 0) FAR  w(0) 9836. F 0.00
expand: MAIN (18, 0) FAR  w(0) 9770. F 0.00
expand: MAIN (19, 0) FAR  w(0) 3265. F 0.00
expand: query!0 (20, 0) FAR  w(0) 1. F 0.00
(spacer::context::check_reachability :time 0.06 :before-memory 8.28 :after-memory 9.04)
Propagating: 2 3 4 5 6 7 8 9 10 11 12 13 14 15 16 17 18 19 20  ! 21 
(spacer::context::propagate :time 0.01 :before-memory 9.04 :after-memory 9.04)
Entering level 21
BRUNCH_STAT max_query_lvl 20
BRUNCH_STAT num_queries 183
BRUNCH_STAT num_reach_queries 0
BRUNCH_STAT num_reach_reuse 0
BRUNCH_STAT inductive_lvl 0
BRUNCH_STAT max_depth 21
BRUNCH_STAT cex_depth 0
expand: query!0 (21, 0) FAR  w(0) 1.
	create_child: MAIN (20, 21) FAR 3265 U 0.00
expand: MAIN (20, 0) FAR  w(0) 3265.
	create_child: MAIN (19, 21) FAR 9770 U 0.00
expand: MAIN (19, 0) FAR  w(0) 9770.
	create_child: MAIN (18, 21) FAR 9836 U 0.00
expand: MAIN (18, 0) FAR  w(0) 9836.
	create_child: MAIN (17, 21) FAR 11617 U 0.00
expand: MAIN (17, 0) FAR  w(0) 11617.
	create_child: MAIN (16, 21) FAR 11135 U 0.00
expand: MAIN (16, 0) FAR  w(0) 11135.
	create_child: MAIN (15, 21) FAR 11716 U 0.00
expand: MAIN (15, 0) FAR  w(0) 11716.
	create_child: MAIN (14, 21) FAR 12472 U 0.00
expand: MAIN (14, 0) FAR  w(0) 12472.
	create_child: MAIN (13, 21) FAR 13317 U 0.00
expand: MAIN (13, 0) FAR  w(0) 13317.
	create_child: MAIN (12, 21) FAR 18796 U 0.00
expand: MAIN (12, 0) FAR  w(0) 18796.
	create_child: MAIN (11, 21) FAR 19042 U 0.00
expand: MAIN (11, 0) FAR  w(0) 19042.
	create_child: MAIN (10, 21) FAR 18644 U 0.00
expand: MAIN (10, 0) FAR  w(0) 18644.
	create_child: MAIN (9, 21) FAR 19038 U 0.00
expand: MAIN (9, 0) FAR  w(0) 19038.
	create_child: MAIN (8, 21) FAR 18447 U 0.00
expand: MAIN (8, 0) FAR  w(0) 18447.
	create_child: MAIN (7, 21) FAR 18451 U 0.00
expand: MAIN (7, 0) FAR  w(0) 18451.
	create_child: MAIN (6, 21) FAR 21131 U 0.00
expand: MAIN (6, 0) FAR  w(0) 21131.
	create_child: MAIN (5, 21) FAR 20545 U 0.00
expand: MAIN (5, 0) FAR  w(0) 20545.
	create_child: MAIN (4, 21) FAR 23913 U 0.00
expand: MAIN (4, 0) FAR  w(0) 23913.
	create_child: MAIN (3, 21) FAR 23775 U 0.00
expand: MAIN (3, 0) FAR  w(0) 23775.
	create_child: MAIN (2, 21) FAR 25344 U 0.00
expand: MAIN (2, 0) FAR  w(0) 25344. F 0.00
expand: MAIN (3, 0) FAR  w(0) 23775
Matrix
1, 

. F 0.00
expand: MAIN (4, 0) FAR  w(0) 23913. F 0.00
expand: MAIN (5, 0) FAR  w(0) 20545. F 0.00
expand: MAIN (6, 0) FAR  w(0) 21131. F 0.00
expand: MAIN (7, 0) FAR  w(0) 18451. F 0.00
expand: MAIN (8, 0) FAR  w(0) 18447. F 0.00
expand: MAIN (9, 0) FAR  w(0) 19038. F 0.00
expand: MAIN (10, 0) FAR  w(0) 18644. F 0.00
expand: MAIN (11, 0) FAR  w(0) 19042. F 0.00
expand: MAIN (12, 0) FAR  w(0) 18796. F 0.00
expand: MAIN (13, 0) FAR  w(0) 13317. F 0.00
expand: MAIN (14, 0) FAR  w(0) 12472. F 0.00
expand: MAIN (15, 0) FAR  w(0) 11716. F 0.00
expand: MAIN (16, 0) FAR  w(0) 11135. F 0.00
expand: MAIN (17, 0) FAR  w(0) 11617. F 0.00
expand: MAIN (18, 0) FAR  w(0) 9836. F 0.00
expand: MAIN (19, 0) FAR  w(0) 9770. F 0.00
expand: MAIN (20, 0) FAR  w(0) 3265. F 0.00
expand: query!0 (21, 0) FAR  w(0) 1. F 0.00
(spacer::context::check_reachability :time 0.06 :before-memory 9.04 :after-memory 9.14)
Propagating: 2 3 4 5 6 7 8 9 10 11 12 13 14 15 16 17 18 19 20 21  ! 22 
(spacer::context::propagate :time 0.01 :before-memory 9.14 :after-memory 9.14)
Entering level 22
BRUNCH_STAT max_query_lvl 21
BRUNCH_STAT num_queries 202
BRUNCH_STAT num_reach_queries 0
BRUNCH_STAT num_reach_reuse 0
BRUNCH_STAT inductive_lvl 0
BRUNCH_STAT max_depth 22
BRUNCH_STAT cex_depth 0
expand: query!0 (22, 0) FAR  w(0) 1.
	create_child: MAIN (21, 22) FAR 3265 U 0.00
expand: MAIN (21, 0) FAR  w(0) 3265.
	create_child: MAIN (20, 22) FAR 10184 U 0.00
expand: MAIN (20, 0) FAR  w(0) 10184.
	create_child: MAIN (19, 22) FAR 10291 U 0.00
expand: MAIN (19, 0) FAR  w(0) 10291.
	create_child: MAIN (18, 22) FAR 10194 U 0.00
expand: MAIN (18, 0) FAR  w(0) 10194.
	create_child: MAIN (17, 22) FAR 10974 U 0.00
expand: MAIN (17, 0) FAR  w(0) 10974.
	create_child: MAIN (16, 22) FAR 13505 U 0.00
expand: MAIN (16, 0) FAR  w(0) 13505.
	create_child: MAIN (15, 22) FAR 14086 U 0.00
expand: MAIN (15, 0) FAR  w(0) 14086.
	create_child: MAIN (14, 22) FAR 14162 U 0.00
expand: MAIN (14, 0) FAR  w(0) 14162.
	create_child: MAIN (13, 22) FAR 13877 U 0.00
expand: MAIN (13, 0) FAR  w(0) 13877.
	create_child: MAIN (12, 22) FAR 15061 U 0.00
expand: MAIN (12, 0) FAR  w(0) 15061.
	create_child: MAIN (11, 22) FAR 15854 U 0.00
expand: MAIN (11, 0) FAR  w(0) 15854.
	create_child: MAIN (10, 22) FAR 16957 U 0.00
expand: MAIN (10, 0) FAR  w(0) 16957.
	create_child: MAIN (9, 22) FAR 17785 U 0.00
expand: MAIN (9, 0) FAR  w(0) 17785.
	create_child: MAIN (8, 22) FAR 17968 U 0.00
expand: MAIN (8, 0) FAR  w(0) 17968.
	create_child: MAIN (7, 22) FAR 22801 U 0.00
expand: MAIN (7, 0) FAR  w(0) 22801.
	create_child: MAIN (6, 22) FAR 22680 U 0.00
expand: MAIN (6, 0) FAR  w(0) 22680.
	create_child: MAIN (5, 22) FAR 22311 U 0.00
expand: MAIN (5, 0) FAR  w(0) 22311.
	create_child: MAIN (4, 22) FAR 27087 U 0.00
expand: MAIN (4, 0) FAR  w(0) 27087.
	create_child: MAIN (3, 22) FAR 27397 U 0.00
expand: MAIN (3, 0) FAR  w(0) 27397.
	create_child: MAIN (2, 22) FAR 27436 U 0.00
expand: MAIN (2, 0) FAR  w(0) 27436. F 0.00
expand: MAIN (3, 0) FAR  w(0) 27397
Matrix
1, 

. F 0.00
expand: MAIN (4, 0) FAR  w(0) 27087. F 0.00
expand: MAIN (5, 0) FAR  w(0) 22311. F 0.00
expand: MAIN (6, 0) FAR  w(0) 22680. F 0.00
expand: MAIN (7, 0) FAR  w(0) 22801. F 0.00
expand: MAIN (8, 0) FAR  w(0) 17968. F 0.00
expand: MAIN (9, 0) FAR  w(0) 17785. F 0.00
expand: MAIN (10, 0) FAR  w(0) 16957. F 0.00
expand: MAIN (11, 0) FAR  w(0) 15854. F 0.00
expand: MAIN (12, 0) FAR  w(0) 15061. F 0.00
expand: MAIN (13, 0) FAR  w(0) 13877. F 0.00
expand: MAIN (14, 0) FAR  w(0) 14162. F 0.00
expand: MAIN (15, 0) FAR  w(0) 14086. F 0.00
expand: MAIN (16, 0) FAR  w(0) 13505. F 0.00
expand: MAIN (17, 0) FAR  w(0) 10974. F 0.00
expand: MAIN (18, 0) FAR  w(0) 10194. F 0.00
expand: MAIN (19, 0) FAR  w(0) 10291. F 0.00
expand: MAIN (20, 0) FAR  w(0) 10184. F 0.00
expand: MAIN (21, 0) FAR  w(0) 3265. F 0.00
expand: query!0 (22, 0) FAR  w(0) 1. F 0.00
(spacer::context::check_reachability :time 0.07 :before-memory 9.14 :after-memory 9.37)
Propagating: 2 3 4 5 6 7 8 9 10 11 12 13 14 15 16 17 18 19 20 21 22  ! 23 
(spacer::context::propagate :time 0.01 :before-memory 9.37 :after-memory 9.37)
Entering level 23
BRUNCH_STAT max_query_lvl 22
BRUNCH_STAT num_queries 222
BRUNCH_STAT num_reach_queries 0
BRUNCH_STAT num_reach_reuse 0
BRUNCH_STAT inductive_lvl 0
BRUNCH_STAT max_depth 23
BRUNCH_STAT cex_depth 0
expand: query!0 (23, 0) FAR  w(0) 1.
	create_child: MAIN (22, 23) FAR 3265 U 0.00
expand: MAIN (22, 0) FAR  w(0) 3265.
	create_child: MAIN (21, 23) FAR 9770 U 0.00
expand: MAIN (21, 0) FAR  w(0) 9770.
	create_child: MAIN (20, 23) FAR 9836 U 0.00
expand: MAIN (20, 0) FAR  w(0) 9836.
	create_child: MAIN (19, 23) FAR 11617 U 0.00
expand: MAIN (19, 0) FAR  w(0) 11617.
	create_child: MAIN (18, 23) FAR 11135 U 0.00
expand: MAIN (18, 0) FAR  w(0) 11135.
	create_child: MAIN (17, 23) FAR 11716 U 0.00
expand: MAIN (17, 0) FAR  w(0) 11716.
	create_child: MAIN (16, 23) FAR 12472 U 0.00
expand: MAIN (16, 0) FAR  w(0) 12472.
	create_child: MAIN (15, 23) FAR 13317 U 0.00
expand: MAIN (15, 0) FAR  w(0) 13317.
	create_child: MAIN (14, 23) FAR 18796 U 0.00
expand: MAIN (14, 0) FAR  w(0) 18796.
	create_child: MAIN (13, 23) FAR 19042 U 0.00
expand: MAIN (13, 0) FAR  w(0) 19042.
	create_child: MAIN (12, 23) FAR 18644 U 0.00
expand: MAIN (12, 0) FAR  w(0) 18644.
	create_child: MAIN (11, 23) FAR 19038 U 0.00
expand: MAIN (11, 0) FAR  w(0) 19038.
	create_child: MAIN (10, 23) FAR 18447 U 0.00
expand: MAIN (10, 0) FAR  w(0) 18447.
	create_child: MAIN (9, 23) FAR 18451 U 0.00
expand: MAIN (9, 0) FAR  w(0) 18451.
	create_child: MAIN (8, 23) FAR 21131 U 0.00
expand: MAIN (8, 0) FAR  w(0) 21131.
	create_child: MAIN (7, 23) FAR 20545 U 0.00
expand: MAIN (7, 0) FAR  w(0) 20545.
	create_child: MAIN (6, 23) FAR 23913 U 0.00
expand: MAIN (6, 0) FAR  w(0) 23913.
	create_child: MAIN (5, 23) FAR 23775 U 0.00
expand: MAIN (5, 0) FAR  w(0) 23775.
	create_child: MAIN (4, 23) FAR 25344 U 0.00
expand: MAIN (4, 0) FAR  w(0) 25344.
	create_child: MAIN (3, 23) FAR 28650 U 0.00
expand: MAIN (3, 0) FAR  w(0) 28650.
	create_child: MAIN (2, 23) FAR 28904 U 0.00
expand: MAIN (2, 0) FAR  w(0) 28904.
	create_child: MAIN (1, 23) FAR 28726 U 0.00
expand: MAIN (1, 0) FAR  w(0) 28726.
	create_child: MAIN (0, 23) FAR 28651 U 0.00
expand: MAIN (0, 0) FAR  w(0) 28651. F 0.00
expand: MAIN (1, 0) FAR  w(0) 28726. F 0.00
expand: MAIN (2, 0) FAR  w(0) 28904. F 0.00
expand: MAIN (3, 0) FAR  w(0) 28650. F 0.00
expand: MAIN (4, 0) FAR  w(0) 25344. F 0.00
expand: MAIN (5, 0) FAR  w(0) 23775. F 0.00
expand: MAIN (6, 0) FAR  w(0) 23913. F 0.00
expand: MAIN (7, 0) FAR  w(0) 20545. F 0.00
expand: MAIN (8, 0) FAR  w(0) 21131. F 0.00
expand: MAIN (9, 0) FAR  w(0) 18451. F 0.00
expand: MAIN (10, 0) FAR  w(0) 18447.
	create_child: MAIN (9, 23) FAR 29242 U 0.00
expand: MAIN (9, 0) FAR  w(0) 29242.
	create_child: MAIN (8, 23) FAR 28321 U 0.00
expand: MAIN (8, 0) FAR  w(0) 28321.
	create_child: MAIN (7, 23) FAR 29523 U 0.00
expand: MAIN (7, 0) FAR  w(0) 29523.
	create_child: MAIN (6, 23) FAR 29166 U 0.00
expand: MAIN (6, 0) FAR  w(0) 29166.
	create_child: MAIN (5, 23) FAR 29606 U 0.00
expand: MAIN (5, 0) FAR  w(0) 29606.
	create_child: MAIN (4, 23) FAR 28343 U 0.00
expand: MAIN (4, 0) FAR  w(0) 28343.
	create_child: MAIN (3, 23) FAR 29096 U 0.00
expand: MAIN (3, 0) FAR  w(0) 29096.
	create_child: MAIN (2, 23) FAR 28618 U 0.00
expand: MAIN (2, 0) FAR  w(0) 28618.
	create_child: MAIN (1, 23) FAR 28407 U 0.00
expand: MAIN (1, 0) FAR  w(0) 28407. T 0.00
is-reachable: MAIN (2, 0) FAR 28618 T 0.00
is-reachable: MAIN (3, 0) FAR 29096 T 0.00
is-reachable: MAIN (4, 0) FAR 28343 T 0.00
is-reachable: MAIN (5, 0) FAR 29606 T 0.00
is-reachable: MAIN (6, 0) FAR 29166 T 0.00
is-reachable: MAIN (7, 0) FAR 29523 T 0.00
is-reachable: MAIN (8, 0) FAR 28321 T 0.00
is-reachable: MAIN (9, 0) FAR 29242 T 0.00
is-reachable: MAIN (10, 0) FAR 18447 T 0.00
is-reachable: MAIN (11, 0) FAR 19038 T 0.00
is-reachable: MAIN (12, 0) FAR 18644 T 0.00
is-reachable: MAIN (13, 0) FAR 19042 T 0.00
is-reachable: MAIN (14, 0) FAR 18796 T 0.01
is-reachable: MAIN (15, 0) FAR 13317 T 0.01
is-reachable: MAIN (16, 0) FAR 12472 T 0.01
is-reachable: MAIN (17, 0) FAR 11716 T 0.00
is-reachable: MAIN (18, 0) FAR 11135 T 0.01
is-reachable: MAIN (19, 0) FAR 11617 T 0.01
is-reachable: MAIN (20, 0) FAR 9836 T 0.01
is-reachable: MAIN (21, 0) FAR 9770 T 0.00
is-reachable: MAIN (22, 0) FAR 3265 T 0.00
is-reachable: query!0 (23, 0) FAR 1 T 0.01
(spacer::context::check_reachability :time 0.20 :before-memory 9.37 :after-memory 11.30)
BRUNCH_STAT max_query_lvl 23
BRUNCH_STAT num_queries 254
BRUNCH_STAT num_reach_queries 23
BRUNCH_STAT num_reach_reuse 1
BRUNCH_STAT inductive_lvl 0
BRUNCH_STAT max_depth 23
BRUNCH_STAT cex_depth 23
(:SPACER-cex-depth                     23
 :SPACER-max-depth                     23
 :SPACER-max-query-lvl                 23
 :SPACER-num-invariants                11
 :SPACER-num-lemmas                    255
 :SPACER-num-properties                39
 :SPACER-num-queries                   254
 :SPACER-num-reach-queries             23
 :SPACER-num-reuse-reach-facts         1
 :added-eqs                            9826
 :arith-add-rows                       1087
 :arith-assert-diseq                   5319
 :arith-assert-lower                   15796
 :arith-assert-upper                   50616
 :arith-bound-prop                     457
 :arith-conflicts                      90
 :arith-eq-adapter                     2684
 :arith-fixed-eqs                      1610
 :arith-offset-eqs                     1135
 :arith-pivots                         352
 :bool-inductive-gen                   232
 :bool-inductive-gen-failures          236
 :conflicts                            887
 :decisions                            59609
 :del-clause                           1193
 :final-checks                         522
 :minimized-lits                       5
 :mk-bool-var                          5590
 :mk-clause                            7295
 :num-checks                           1338
 :propagations                         360206
 :time.itp_solver.itp_core             0.12
 :time.spacer.init_rules               0.00
 :time.spacer.init_rules.pt.init       0.00
 :time.spacer.solve                    1.03
 :time.spacer.solve.propagate          0.14
 :time.spacer.solve.reach              0.89
 :time.spacer.solve.reach.children     0.27
 :time.spacer.solve.reach.gen.bool_ind 0.03
 :time.spacer.solve.reach.is-reach     0.11
 :time.virtual_solver.proof            0.05
 :time.virtual_solver.smt.total        0.54
 :time.virtual_solver.smt.total.sat    0.35
 :virtual_solver.checks                1338
 :virtual_solver.checks.sat            522)
BRUNCH_STAT max_query_lvl 23
BRUNCH_STAT num_queries 254
BRUNCH_STAT num_reach_queries 23
BRUNCH_STAT num_reach_reuse 1
BRUNCH_STAT inductive_lvl 0
BRUNCH_STAT max_depth 23
BRUNCH_STAT cex_depth 23

real	0m1.125s
user	0m1.100s
sys	0m0.024s
