(transform N7datalog13mk_coi_filterE...no-op 0s)
(transform N7datalog25mk_interp_tail_simplifierE...15 rules 0s)
(transform N7datalog27mk_quantifier_instantiationE...no-op 0s)
(transform N7datalog8mk_scaleE...no-op 0s)
(transform N7datalog18mk_karr_invariantsE...no-op 0s)
(transform N7datalog14mk_array_blastE...no-op 0s)
(transform N7datalog22mk_subsumption_checkerE...14 rules 0s)
(transform N7datalog12mk_bit_blastE...no-op 0s)
(transform N7datalog15mk_rule_inlinerE...3 rules 0.00550497s)
(transform N7datalog13mk_coi_filterE...no-op 0s)
(transform N7datalog25mk_interp_tail_simplifierE...3 rules 0s)
(transform N7datalog22mk_subsumption_checkerE...no-op 0s)
(transform N7datalog15mk_rule_inlinerE...no-op 0s)
(transform N7datalog13mk_coi_filterE...no-op 0s)
(transform N7datalog25mk_interp_tail_simplifierE...3 rules 0s)
(transform N7datalog22mk_subsumption_checkerE...no-op 0s)
(transform N7datalog15mk_rule_inlinerE...no-op 0s)
(transform N7datalog22mk_subsumption_checkerE...no-op 0s)
(transform N7datalog15mk_rule_inlinerE...no-op 0s)
(transform N7datalog22mk_subsumption_checkerE...no-op 0s)
(transform N7datalog15mk_rule_inlinerE...no-op 0s)
(transform N7datalog22mk_subsumption_checkerE...no-op 0s)
(transform N7datalog8mk_sliceE...no-op 0s)
expand: query!0 (0, 0) FAR  w(0) 1. F 0.00
(spacer::context::check_reachability :time 0.00 :before-memory 4.52 :after-memory 5.06)
Entering level 1
BRUNCH_STAT max_query_lvl 0
BRUNCH_STAT num_queries 0
BRUNCH_STAT num_reach_queries 0
BRUNCH_STAT num_reach_reuse 0
BRUNCH_STAT inductive_lvl 0
BRUNCH_STAT max_depth 1
BRUNCH_STAT cex_depth 0
expand: query!0 (1, 0) FAR  w(0) 1.
	create_child: MAIN (0, 1) FAR 3363 U 0.00
expand: MAIN (0, 0) FAR  w(0) 3363. F 0.00
expand: query!0 (1, 0) FAR  w(0) 1. F 0.00
(spacer::context::check_reachability :time 0.00 :before-memory 5.06 :after-memory 5.86)
Propagating: 0 1  ! 2 
(spacer::context::propagate :time 0.00 :before-memory 5.86 :after-memory 5.86)
Entering level 2
BRUNCH_STAT max_query_lvl 1
BRUNCH_STAT num_queries 1
BRUNCH_STAT num_reach_queries 0
BRUNCH_STAT num_reach_reuse 0
BRUNCH_STAT inductive_lvl 0
BRUNCH_STAT max_depth 2
BRUNCH_STAT cex_depth 0
expand: query!0 (2, 0) FAR  w(0) 1.
	create_child: MAIN (1, 2) FAR 3363 U 0.00
expand: MAIN (1, 0) FAR  w(0) 3363.
	create_child: MAIN (0, 2) FAR 5236 U 0.00
expand: MAIN (0, 0) FAR  w(0) 5236. F 0.00
expand: MAIN (1, 0) FAR  w(0) 3363.
	create_child: MAIN (0, 2) FAR 5380 U 0.00
expand: MAIN (0, 0) FAR  w(0) 5380. F 0.00
expand: MAIN (1, 0) FAR  w(0) 3363.
	create_child: MAIN (0, 2) FAR 5597 U 0.00
expand: MAIN (0, 0) FAR  w(0) 5597. F 0.00
expand: MAIN (1, 0) FAR  w(0) 3363.
	create_child: MAIN (0, 2) FAR 5784 U 0.00
expand: MAIN (0, 0) FAR  w(0) 5784. F 0.00
expand: MAIN (1, 0) FAR  w(0) 3363.
	create_child: MAIN (0, 2) FAR 5889 U 0.00
expand: MAIN (0, 0) FAR  w(0) 5889. F 0.00
expand: MAIN (1, 0) FAR  w(0) 3363.
	create_child: MAIN (0, 2) FAR 5996 U 0.00
expand: MAIN (0, 0) FAR  w(0) 5996. F 0.00
expand: MAIN (1, 0) FAR  w(0) 3363.
	create_child: MAIN (0, 2) FAR 6002 U 0.00
expand: MAIN (0, 0) FAR  w(0) 6002. F 0.00
expand: MAIN (1, 0) FAR  w(0) 3363.
	create_child: MAIN (0, 2) FAR 6140 U 0.00
expand: MAIN (0, 0) FAR  w(0) 6140. F 0.00
expand: MAIN (1, 0) FAR  w(0) 3363.
	create_child: MAIN (0, 2) FAR 6324 U 0.00
expand: MAIN (0, 0) FAR  w(0) 6324. F 0.00
expand: MAIN (1, 0) FAR  w(0) 3363.
	create_child: MAIN (0, 2) FAR 6351 U 0.00
expand: MAIN (0, 0) FAR  w(0) 6351. F 0.00
expand: MAIN (1, 0) FAR  w(0) 3363.
	create_child: MAIN (0, 2) FAR 6335 U 0.00
expand: MAIN (0, 0) FAR  w(0) 6335. F 0.00
expand: MAIN (1, 0) FAR  w(0) 3363. F 0.00
expand: query!0 (2, 0) FAR  w(0) 1. F 0.00
(spacer::context::check_reachability :time 0.02 :before-memory 5.86 :after-memory 6.30)
Propagating: 0 1 2  ! 3 
(spacer::context::propagate :time 0.01 :before-memory 6.30 :after-memory 6.40)
Entering level 3
BRUNCH_STAT max_query_lvl 2
BRUNCH_STAT num_queries 13
BRUNCH_STAT num_reach_queries 0
BRUNCH_STAT num_reach_reuse 0
BRUNCH_STAT inductive_lvl 0
BRUNCH_STAT max_depth 3
BRUNCH_STAT cex_depth 0
expand: query!0 (3, 0) FAR  w(0) 1.
	create_child: MAIN (2, 3) FAR 3363 U 0.00
expand: MAIN (2, 0) FAR  w(0) 3363.
	create_child: MAIN (1, 3) FAR 7876 U 0.00
expand: MAIN (1, 0) FAR  w(0) 7876.
	create_child: MAIN (0, 3) FAR 7847 U 0.00
expand: MAIN (0, 0) FAR  w(0) 7847. F 0.00
expand: MAIN (1, 0) FAR  w(0) 7876
Matrix
1, 

. F 0.00
expand: MAIN (2, 0) FAR  w(0) 3363. F 0.00
expand: query!0 (3, 0) FAR  w(0) 1. F 0.00
(spacer::context::check_reachability :time 0.01 :before-memory 6.40 :after-memory 6.51)
Propagating: 0 1 2 3  ! 4 
(spacer::context::propagate :time 0.00 :before-memory 6.51 :after-memory 6.51)
Entering level 4
BRUNCH_STAT max_query_lvl 3
BRUNCH_STAT num_queries 16
BRUNCH_STAT num_reach_queries 0
BRUNCH_STAT num_reach_reuse 0
BRUNCH_STAT inductive_lvl 0
BRUNCH_STAT max_depth 4
BRUNCH_STAT cex_depth 0
expand: query!0 (4, 0) FAR  w(0) 1.
	create_child: MAIN (3, 4) FAR 3363 U 0.00
expand: MAIN (3, 0) FAR  w(0) 3363.
	create_child: MAIN (2, 4) FAR 8345 U 0.00
expand: MAIN (2, 0) FAR  w(0) 8345. F 0.00
expand: MAIN (3, 0) FAR  w(0) 3363.
	create_child: MAIN (2, 4) FAR 8256 U 0.00
expand: MAIN (2, 0) FAR  w(0) 8256. F 0.00
expand: MAIN (3, 0) FAR  w(0) 3363.
	create_child: MAIN (2, 4) FAR 8646 U 0.00
expand: MAIN (2, 0) FAR  w(0) 8646.
	create_child: MAIN (1, 4) FAR 8697 U 0.00
expand: MAIN (1, 0) FAR  w(0) 8697. F 0.00
expand: MAIN (2, 0) FAR  w(0) 8646. F 0.00
expand: MAIN (3, 0) FAR  w(0) 3363. F 0.00
expand: query!0 (4, 0) FAR  w(0) 1. F 0.00
(spacer::context::check_reachability :time 0.01 :before-memory 6.51 :after-memory 6.61)
Propagating: 1 2 3 4  ! 5 
(spacer::context::propagate :time 0.00 :before-memory 6.61 :after-memory 6.61)
Entering level 5
BRUNCH_STAT max_query_lvl 4
BRUNCH_STAT num_queries 21
BRUNCH_STAT num_reach_queries 0
BRUNCH_STAT num_reach_reuse 0
BRUNCH_STAT inductive_lvl 0
BRUNCH_STAT max_depth 5
BRUNCH_STAT cex_depth 0
expand: query!0 (5, 0) FAR  w(0) 1.
	create_child: MAIN (4, 5) FAR 3363 U 0.00
expand: MAIN (4, 0) FAR  w(0) 3363.
	create_child: MAIN (3, 5) FAR 9067 U 0.00
expand: MAIN (3, 0) FAR  w(0) 9067.
	create_child: MAIN (2, 5) FAR 9144 U 0.00
expand: MAIN (2, 0) FAR  w(0) 9144. F 0.00
expand: MAIN (3, 0) FAR  w(0) 9067. F 0.00
expand: MAIN (4, 0) FAR  w(0) 3363. F 0.00
expand: query!0 (5, 0) FAR  w(0) 1. F 0.00
(spacer::context::check_reachability :time 0.01 :before-memory 6.61 :after-memory 6.61)
Propagating: 2 
(spacer::context::propagate :time 0.00 :before-memory 6.61 :after-memory 6.61)
(define-fun MAIN ((x!0 Int)
 (x!1 Int)
 (x!2 Bool)
 (x!3 Bool)
 (x!4 Bool)
 (x!5 Int)
 (x!6 Int)
 (x!7 Int)
 (x!8 Bool)
 (x!9 Int)
 (x!10 Bool)
 (x!11 Bool)
 (x!12 Bool)
 (x!13 Int)
 (x!14 Bool)
 (x!15 Bool)
 (x!16 Bool)
 (x!17 Bool)
 (x!18 Bool)
 (x!19 Bool)
 (x!20 Bool)
 (x!21 Bool)
 (x!22 Bool)
 (x!23 Bool)) Bool
  (let ((a!1 (not (<= (+ x!6 (* (- 1) x!7)) (- 41))))
        (a!2 (not (<= (+ x!0 (* (- 1) x!1)) (- 41)))))
    (and a!1
         (not x!17)
         x!23
         (not x!18)
         (not x!22)
         (not x!4)
         (not x!21)
         (not x!11)
         (>= (+ x!5 (* (- 1) x!7)) 0)
         a!2
         (or (not x!16) x!10))))
BRUNCH_STAT max_query_lvl 5
BRUNCH_STAT num_queries 24
BRUNCH_STAT num_reach_queries 0
BRUNCH_STAT num_reach_reuse 0
BRUNCH_STAT inductive_lvl 2
BRUNCH_STAT max_depth 5
BRUNCH_STAT cex_depth 0
(:SPACER-inductive-level               2
 :SPACER-max-depth                     5
 :SPACER-max-query-lvl                 5
 :SPACER-num-invariants                13
 :SPACER-num-lemmas                    30
 :SPACER-num-properties                17
 :SPACER-num-queries                   24
 :added-eqs                            1717
 :arith-add-rows                       758
 :arith-assert-diseq                   613
 :arith-assert-lower                   1507
 :arith-assert-upper                   2026
 :arith-bound-prop                     74
 :arith-conflicts                      26
 :arith-eq-adapter                     562
 :arith-fixed-eqs                      247
 :arith-offset-eqs                     188
 :arith-pivots                         240
 :bool-inductive-gen                   24
 :bool-inductive-gen-failures          27
 :conflicts                            120
 :decisions                            3472
 :del-clause                           327
 :final-checks                         52
 :minimized-lits                       4
 :mk-bool-var                          1196
 :mk-clause                            1377
 :num-checks                           132
 :propagations                         19912
 :time.itp_solver.itp_core             0.01
 :time.spacer.init_rules               0.00
 :time.spacer.init_rules.pt.init       0.00
 :time.spacer.solve                    0.07
 :time.spacer.solve.propagate          0.01
 :time.spacer.solve.reach              0.06
 :time.spacer.solve.reach.children     0.01
 :time.spacer.solve.reach.gen.bool_ind 0.01
 :time.virtual_solver.proof            0.00
 :time.virtual_solver.smt.total        0.05
 :time.virtual_solver.smt.total.sat    0.02
 :virtual_solver.checks                132
 :virtual_solver.checks.sat            52)
BRUNCH_STAT max_query_lvl 5
BRUNCH_STAT num_queries 24
BRUNCH_STAT num_reach_queries 0
BRUNCH_STAT num_reach_reuse 0
BRUNCH_STAT inductive_lvl 2
BRUNCH_STAT max_depth 5
BRUNCH_STAT cex_depth 0

real	0m0.104s
user	0m0.096s
sys	0m0.004s
