(transform N7datalog13mk_coi_filterE...no-op 0s)
(transform N7datalog25mk_interp_tail_simplifierE...15 rules 0s)
(transform N7datalog27mk_quantifier_instantiationE...no-op 0s)
(transform N7datalog8mk_scaleE...no-op 0s)
(transform N7datalog18mk_karr_invariantsE...no-op 0s)
(transform N7datalog14mk_array_blastE...no-op 0s)
(transform N7datalog22mk_subsumption_checkerE...14 rules 0s)
(transform N7datalog12mk_bit_blastE...no-op 0s)
(transform N7datalog15mk_rule_inlinerE...3 rules 0.0055132s)
(transform N7datalog13mk_coi_filterE...no-op 0s)
(transform N7datalog25mk_interp_tail_simplifierE...3 rules 0s)
(transform N7datalog22mk_subsumption_checkerE...no-op 0s)
(transform N7datalog15mk_rule_inlinerE...no-op 0s)
(transform N7datalog13mk_coi_filterE...no-op 0s)
(transform N7datalog25mk_interp_tail_simplifierE...3 rules 0s)
(transform N7datalog22mk_subsumption_checkerE...no-op 0s)
(transform N7datalog15mk_rule_inlinerE...no-op 0s)
(transform N7datalog22mk_subsumption_checkerE...no-op 0s)
(transform N7datalog15mk_rule_inlinerE...no-op 0s)
(transform N7datalog22mk_subsumption_checkerE...no-op 0s)
(transform N7datalog15mk_rule_inlinerE...no-op 0s)
(transform N7datalog22mk_subsumption_checkerE...no-op 0s)
(transform N7datalog8mk_sliceE...no-op 0s)
expand: query!0 (0, 0) FAR  w(0) 1. F 0.00
(spacer::context::check_reachability :time 0.00 :before-memory 4.52 :after-memory 5.06)
Entering level 1
BRUNCH_STAT max_query_lvl 0
BRUNCH_STAT num_queries 0
BRUNCH_STAT num_reach_queries 0
BRUNCH_STAT num_reach_reuse 0
BRUNCH_STAT inductive_lvl 0
BRUNCH_STAT max_depth 1
BRUNCH_STAT cex_depth 0
expand: query!0 (1, 0) FAR  w(0) 1.
	create_child: MAIN (0, 1) FAR 3331 U 0.00
expand: MAIN (0, 0) FAR  w(0) 3331. F 0.00
expand: query!0 (1, 0) FAR  w(0) 1. F 0.00
(spacer::context::check_reachability :time 0.00 :before-memory 5.06 :after-memory 5.85)
Propagating: 0 1  ! 2 
(spacer::context::propagate :time 0.00 :before-memory 5.85 :after-memory 5.85)
Entering level 2
BRUNCH_STAT max_query_lvl 1
BRUNCH_STAT num_queries 1
BRUNCH_STAT num_reach_queries 0
BRUNCH_STAT num_reach_reuse 0
BRUNCH_STAT inductive_lvl 0
BRUNCH_STAT max_depth 2
BRUNCH_STAT cex_depth 0
expand: query!0 (2, 0) FAR  w(0) 1.
	create_child: MAIN (1, 2) FAR 3331 U 0.00
expand: MAIN (1, 0) FAR  w(0) 3331.
	create_child: MAIN (0, 2) FAR 5070 U 0.00
expand: MAIN (0, 0) FAR  w(0) 5070. F 0.00
expand: MAIN (1, 0) FAR  w(0) 3331.
	create_child: MAIN (0, 2) FAR 5251 U 0.00
expand: MAIN (0, 0) FAR  w(0) 5251. F 0.00
expand: MAIN (1, 0) FAR  w(0) 3331.
	create_child: MAIN (0, 2) FAR 5422 U 0.00
expand: MAIN (0, 0) FAR  w(0) 5422. F 0.00
expand: MAIN (1, 0) FAR  w(0) 3331.
	create_child: MAIN (0, 2) FAR 5513 U 0.00
expand: MAIN (0, 0) FAR  w(0) 5513. F 0.00
expand: MAIN (1, 0) FAR  w(0) 3331.
	create_child: MAIN (0, 2) FAR 5609 U 0.00
expand: MAIN (0, 0) FAR  w(0) 5609. F 0.00
expand: MAIN (1, 0) FAR  w(0) 3331.
	create_child: MAIN (0, 2) FAR 5784 U 0.00
expand: MAIN (0, 0) FAR  w(0) 5784. F 0.00
expand: MAIN (1, 0) FAR  w(0) 3331. F 0.00
expand: query!0 (2, 0) FAR  w(0) 1. F 0.00
(spacer::context::check_reachability :time 0.01 :before-memory 5.85 :after-memory 6.20)
Propagating: 0 1 2  ! 3 
(spacer::context::propagate :time 0.00 :before-memory 6.20 :after-memory 6.20)
Entering level 3
BRUNCH_STAT max_query_lvl 2
BRUNCH_STAT num_queries 8
BRUNCH_STAT num_reach_queries 0
BRUNCH_STAT num_reach_reuse 0
BRUNCH_STAT inductive_lvl 0
BRUNCH_STAT max_depth 3
BRUNCH_STAT cex_depth 0
expand: query!0 (3, 0) FAR  w(0) 1.
	create_child: MAIN (2, 3) FAR 3331 U 0.00
expand: MAIN (2, 0) FAR  w(0) 3331.
	create_child: MAIN (1, 3) FAR 6272 U 0.00
expand: MAIN (1, 0) FAR  w(0) 6272.
	create_child: MAIN (0, 3) FAR 6547 U 0.00
expand: MAIN (0, 0) FAR  w(0) 6547. F 0.00
expand: MAIN (1, 0) FAR  w(0) 6272.
	create_child: MAIN (0, 3) FAR 6750 U 0.00
expand: MAIN (0, 0) FAR  w(0) 6750. F 0.00
expand: MAIN (1, 0) FAR  w(0) 6272. F 0.00
expand: MAIN (2, 0) FAR  w(0) 3331.
	create_child: MAIN (1, 3) FAR 6890 U 0.00
expand: MAIN (1, 0) FAR  w(0) 6890. F 0.00
expand: MAIN (2, 0) FAR  w(0) 3331.
	create_child: MAIN (1, 3) FAR 7108 U 0.00
expand: MAIN (1, 0) FAR  w(0) 7108. F 0.00
expand: MAIN (2, 0) FAR  w(0) 3331.
	create_child: MAIN (1, 3) FAR 7158 U 0.00
expand: MAIN (1, 0) FAR  w(0) 7158. F 0.00
expand: MAIN (2, 0) FAR  w(0) 3331.
	create_child: MAIN (1, 3) FAR 7362 U 0.00
expand: MAIN (1, 0) FAR  w(0) 7362. F 0.00
expand: MAIN (2, 0) FAR  w(0) 3331.
	create_child: MAIN (1, 3) FAR 7455 U 0.00
expand: MAIN (1, 0) FAR  w(0) 7455.
	create_child: MAIN (0, 3) FAR 7651 U 0.00
expand: MAIN (0, 0) FAR  w(0) 7651. F 0.00
expand: MAIN (1, 0) FAR  w(0) 7455. F 0.00
expand: MAIN (2, 0) FAR  w(0) 3331. F 0.00
expand: query!0 (3, 0) FAR  w(0) 1. F 0.00
(spacer::context::check_reachability :time 0.03 :before-memory 6.20 :after-memory 6.49)
Propagating: 0 1 2 3  ! 4 
(spacer::context::propagate :time 0.01 :before-memory 6.49 :after-memory 6.49)
Entering level 4
BRUNCH_STAT max_query_lvl 3
BRUNCH_STAT num_queries 18
BRUNCH_STAT num_reach_queries 0
BRUNCH_STAT num_reach_reuse 0
BRUNCH_STAT inductive_lvl 0
BRUNCH_STAT max_depth 4
BRUNCH_STAT cex_depth 0
expand: query!0 (4, 0) FAR  w(0) 1.
	create_child: MAIN (3, 4) FAR 3331 U 0.00
expand: MAIN (3, 0) FAR  w(0) 3331.
	create_child: MAIN (2, 4) FAR 9525 U 0.00
expand: MAIN (2, 0) FAR  w(0) 9525. F 0.00
expand: MAIN (3, 0) FAR  w(0) 3331.
	create_child: MAIN (2, 4) FAR 9713 U 0.00
expand: MAIN (2, 0) FAR  w(0) 9713. F 0.00
expand: MAIN (3, 0) FAR  w(0) 3331.
	create_child: MAIN (2, 4) FAR 9968 U 0.00
expand: MAIN (2, 0) FAR  w(0) 9968.
	create_child: MAIN (1, 4) FAR 10061 U 0.00
expand: MAIN (1, 0) FAR  w(0) 10061. F 0.00
expand: MAIN (2, 0) FAR  w(0) 9968.
	create_child: MAIN (1, 4) FAR 10229 U 0.00
expand: MAIN (1, 0) FAR  w(0) 10229. F 0.00
expand: MAIN (2, 0) FAR  w(0) 9968.
	create_child: MAIN (1, 4) FAR 10189 U 0.00
expand: MAIN (1, 0) FAR  w(0) 10189. F 0.00
expand: MAIN (2, 0) FAR  w(0) 9968. F 0.00
expand: MAIN (3, 0) FAR  w(0) 3331. F 0.00
expand: query!0 (4, 0) FAR  w(0) 1. F 0.00
(spacer::context::check_reachability :time 0.02 :before-memory 6.49 :after-memory 6.78)
Propagating: 1 
(spacer::context::propagate :time 0.00 :before-memory 6.78 :after-memory 6.78)
(define-fun MAIN ((x!0 Int)
 (x!1 Int)
 (x!2 Bool)
 (x!3 Bool)
 (x!4 Bool)
 (x!5 Int)
 (x!6 Int)
 (x!7 Int)
 (x!8 Bool)
 (x!9 Int)
 (x!10 Bool)
 (x!11 Bool)
 (x!12 Bool)
 (x!13 Int)
 (x!14 Bool)
 (x!15 Bool)
 (x!16 Bool)
 (x!17 Bool)
 (x!18 Bool)
 (x!19 Bool)
 (x!20 Bool)
 (x!21 Bool)
 (x!22 Bool)
 (x!23 Bool)) Bool
  (let ((a!1 (not (>= (+ x!7 (* (- 1) x!6)) 31)))
        (a!2 (not (>= (+ x!7 (* (- 1) x!5)) 10)))
        (a!3 (not (<= (+ x!0 (* (- 1) x!1)) (- 31))))
        (a!4 (not (<= (+ x!6 (* (- 1) x!5)) (- 10)))))
    (and a!1
         x!23
         (not x!18)
         (not x!22)
         (not x!4)
         (not x!21)
         (not x!15)
         (not x!8)
         a!2
         a!3
         (or (not x!17) x!8)
         (or (not x!14) x!19)
         (or a!4 x!14))))
BRUNCH_STAT max_query_lvl 4
BRUNCH_STAT num_queries 25
BRUNCH_STAT num_reach_queries 0
BRUNCH_STAT num_reach_reuse 0
BRUNCH_STAT inductive_lvl 1
BRUNCH_STAT max_depth 4
BRUNCH_STAT cex_depth 0
(:SPACER-inductive-level               1
 :SPACER-max-depth                     4
 :SPACER-max-query-lvl                 4
 :SPACER-num-invariants                18
 :SPACER-num-lemmas                    30
 :SPACER-num-properties                16
 :SPACER-num-queries                   25
 :added-eqs                            1499
 :arith-add-rows                       667
 :arith-assert-diseq                   473
 :arith-assert-lower                   1453
 :arith-assert-upper                   1981
 :arith-bound-prop                     131
 :arith-conflicts                      9
 :arith-eq-adapter                     416
 :arith-fixed-eqs                      262
 :arith-offset-eqs                     147
 :arith-pivots                         177
 :bool-inductive-gen                   25
 :bool-inductive-gen-failures          31
 :conflicts                            137
 :decisions                            3700
 :del-clause                           275
 :final-checks                         50
 :minimized-lits                       2
 :mk-bool-var                          1157
 :mk-clause                            1448
 :num-checks                           146
 :propagations                         21852
 :time.itp_solver.itp_core             0.01
 :time.spacer.init_rules               0.00
 :time.spacer.init_rules.pt.init       0.00
 :time.spacer.solve                    0.08
 :time.spacer.solve.propagate          0.01
 :time.spacer.solve.reach              0.07
 :time.spacer.solve.reach.children     0.02
 :time.spacer.solve.reach.gen.bool_ind 0.01
 :time.virtual_solver.proof            0.00
 :time.virtual_solver.smt.total        0.05
 :time.virtual_solver.smt.total.sat    0.02
 :virtual_solver.checks                146
 :virtual_solver.checks.sat            50)
BRUNCH_STAT max_query_lvl 4
BRUNCH_STAT num_queries 25
BRUNCH_STAT num_reach_queries 0
BRUNCH_STAT num_reach_reuse 0
BRUNCH_STAT inductive_lvl 1
BRUNCH_STAT max_depth 4
BRUNCH_STAT cex_depth 0

real	0m0.113s
user	0m0.100s
sys	0m0.012s
