(transform N7datalog13mk_coi_filterE...no-op 0s)
(transform N7datalog25mk_interp_tail_simplifierE...15 rules 0s)
(transform N7datalog27mk_quantifier_instantiationE...no-op 0s)
(transform N7datalog8mk_scaleE...no-op 0s)
(transform N7datalog18mk_karr_invariantsE...no-op 0s)
(transform N7datalog14mk_array_blastE...no-op 0s)
(transform N7datalog22mk_subsumption_checkerE...14 rules 0s)
(transform N7datalog12mk_bit_blastE...no-op 0s)
(transform N7datalog15mk_rule_inlinerE...3 rules 0.00553621s)
(transform N7datalog13mk_coi_filterE...no-op 0s)
(transform N7datalog25mk_interp_tail_simplifierE...3 rules 0s)
(transform N7datalog22mk_subsumption_checkerE...no-op 0s)
(transform N7datalog15mk_rule_inlinerE...no-op 0s)
(transform N7datalog13mk_coi_filterE...no-op 0s)
(transform N7datalog25mk_interp_tail_simplifierE...3 rules 0s)
(transform N7datalog22mk_subsumption_checkerE...no-op 0s)
(transform N7datalog15mk_rule_inlinerE...no-op 0s)
(transform N7datalog22mk_subsumption_checkerE...no-op 0s)
(transform N7datalog15mk_rule_inlinerE...no-op 0s)
(transform N7datalog22mk_subsumption_checkerE...no-op 0s)
(transform N7datalog15mk_rule_inlinerE...no-op 0s)
(transform N7datalog22mk_subsumption_checkerE...no-op 0s)
(transform N7datalog8mk_sliceE...no-op 0s)
expand: query!0 (0, 0) FAR  w(0) 1. F 0.00
(spacer::context::check_reachability :time 0.00 :before-memory 4.52 :after-memory 5.04)
Entering level 1
BRUNCH_STAT max_query_lvl 0
BRUNCH_STAT num_queries 0
BRUNCH_STAT num_reach_queries 0
BRUNCH_STAT num_reach_reuse 0
BRUNCH_STAT inductive_lvl 0
BRUNCH_STAT max_depth 1
BRUNCH_STAT cex_depth 0
expand: query!0 (1, 0) FAR  w(0) 1.
	create_child: MAIN (0, 1) FAR 3281 U 0.00
expand: MAIN (0, 0) FAR  w(0) 3281. F 0.00
expand: query!0 (1, 0) FAR  w(0) 1. F 0.00
(spacer::context::check_reachability :time 0.00 :before-memory 5.04 :after-memory 5.86)
Propagating: 0 1  ! 2 
(spacer::context::propagate :time 0.00 :before-memory 5.86 :after-memory 5.86)
Entering level 2
BRUNCH_STAT max_query_lvl 1
BRUNCH_STAT num_queries 1
BRUNCH_STAT num_reach_queries 0
BRUNCH_STAT num_reach_reuse 0
BRUNCH_STAT inductive_lvl 0
BRUNCH_STAT max_depth 2
BRUNCH_STAT cex_depth 0
expand: query!0 (2, 0) FAR  w(0) 1.
	create_child: MAIN (1, 2) FAR 3281 U 0.00
expand: MAIN (1, 0) FAR  w(0) 3281.
	create_child: MAIN (0, 2) FAR 5184 U 0.00
expand: MAIN (0, 0) FAR  w(0) 5184. F 0.00
expand: MAIN (1, 0) FAR  w(0) 3281.
	create_child: MAIN (0, 2) FAR 5397 U 0.00
expand: MAIN (0, 0) FAR  w(0) 5397. F 0.00
expand: MAIN (1, 0) FAR  w(0) 3281.
	create_child: MAIN (0, 2) FAR 5569 U 0.00
expand: MAIN (0, 0) FAR  w(0) 5569. F 0.00
expand: MAIN (1, 0) FAR  w(0) 3281.
	create_child: MAIN (0, 2) FAR 5685 U 0.00
expand: MAIN (0, 0) FAR  w(0) 5685. F 0.00
expand: MAIN (1, 0) FAR  w(0) 3281.
	create_child: MAIN (0, 2) FAR 5773 U 0.00
expand: MAIN (0, 0) FAR  w(0) 5773. F 0.00
expand: MAIN (1, 0) FAR  w(0) 3281.
	create_child: MAIN (0, 2) FAR 5956 U 0.00
expand: MAIN (0, 0) FAR  w(0) 5956. F 0.00
expand: MAIN (1, 0) FAR  w(0) 3281.
	create_child: MAIN (0, 2) FAR 5953 U 0.00
expand: MAIN (0, 0) FAR  w(0) 5953
Matrix
1, 

. F 0.00
expand: MAIN (1, 0) FAR  w(0) 3281. F 0.00
expand: query!0 (2, 0) FAR  w(0) 1. F 0.00
(spacer::context::check_reachability :time 0.02 :before-memory 5.86 :after-memory 6.25)
Propagating: 0 1 2  ! 3 
(spacer::context::propagate :time 0.00 :before-memory 6.25 :after-memory 6.25)
Entering level 3
BRUNCH_STAT max_query_lvl 2
BRUNCH_STAT num_queries 9
BRUNCH_STAT num_reach_queries 0
BRUNCH_STAT num_reach_reuse 0
BRUNCH_STAT inductive_lvl 0
BRUNCH_STAT max_depth 3
BRUNCH_STAT cex_depth 0
expand: query!0 (3, 0) FAR  w(0) 1.
	create_child: MAIN (2, 3) FAR 3281 U 0.00
expand: MAIN (2, 0) FAR  w(0) 3281.
	create_child: MAIN (1, 3) FAR 6776 U 0.00
expand: MAIN (1, 0) FAR  w(0) 6776. F 0.00
expand: MAIN (2, 0) FAR  w(0) 3281.
	create_child: MAIN (1, 3) FAR 7023 U 0.00
expand: MAIN (1, 0) FAR  w(0) 7023. F 0.00
expand: MAIN (2, 0) FAR  w(0) 3281.
	create_child: MAIN (1, 3) FAR 7156 U 0.00
expand: MAIN (1, 0) FAR  w(0) 7156. F 0.00
expand: MAIN (2, 0) FAR  w(0) 3281.
	create_child: MAIN (1, 3) FAR 7300 U 0.00
expand: MAIN (1, 0) FAR  w(0) 7300.
	create_child: MAIN (0, 3) FAR 7407 U 0.00
expand: MAIN (0, 0) FAR  w(0) 7407. F 0.00
expand: MAIN (1, 0) FAR  w(0) 7300. F 0.00
expand: MAIN (2, 0) FAR  w(0) 3281. F 0.00
expand: query!0 (3, 0) FAR  w(0) 1. F 0.00
(spacer::context::check_reachability :time 0.01 :before-memory 6.25 :after-memory 6.44)
Propagating: 0 1 2 3  ! 4 
(spacer::context::propagate :time 0.00 :before-memory 6.44 :after-memory 6.44)
Entering level 4
BRUNCH_STAT max_query_lvl 3
BRUNCH_STAT num_queries 15
BRUNCH_STAT num_reach_queries 0
BRUNCH_STAT num_reach_reuse 0
BRUNCH_STAT inductive_lvl 0
BRUNCH_STAT max_depth 4
BRUNCH_STAT cex_depth 0
expand: query!0 (4, 0) FAR  w(0) 1.
	create_child: MAIN (3, 4) FAR 3281 U 0.00
expand: MAIN (3, 0) FAR  w(0) 3281.
	create_child: MAIN (2, 4) FAR 7850 U 0.00
expand: MAIN (2, 0) FAR  w(0) 7850. F 0.00
expand: MAIN (3, 0) FAR  w(0) 3281.
	create_child: MAIN (2, 4) FAR 7999 U 0.00
expand: MAIN (2, 0) FAR  w(0) 7999. F 0.00
expand: MAIN (3, 0) FAR  w(0) 3281.
	create_child: MAIN (2, 4) FAR 8084 U 0.00
expand: MAIN (2, 0) FAR  w(0) 8084. F 0.00
expand: MAIN (3, 0) FAR  w(0) 3281.
	create_child: MAIN (2, 4) FAR 8192 U 0.00
expand: MAIN (2, 0) FAR  w(0) 8192. F 0.00
expand: MAIN (3, 0) FAR  w(0) 3281.
	create_child: MAIN (2, 4) FAR 8278 U 0.00
expand: MAIN (2, 0) FAR  w(0) 8278. F 0.00
expand: MAIN (3, 0) FAR  w(0) 3281.
	create_child: MAIN (2, 4) FAR 8460 U 0.00
expand: MAIN (2, 0) FAR  w(0) 8460.
	create_child: MAIN (1, 4) FAR 8653 U 0.00
expand: MAIN (1, 0) FAR  w(0) 8653. F 0.00
expand: MAIN (2, 0) FAR  w(0) 8460. F 0.00
expand: MAIN (3, 0) FAR  w(0) 3281.
	create_child: MAIN (2, 4) FAR 8782 U 0.00
expand: MAIN (2, 0) FAR  w(0) 8782. F 0.00
expand: MAIN (3, 0) FAR  w(0) 3281.
	create_child: MAIN (2, 4) FAR 8764 U 0.00
expand: MAIN (2, 0) FAR  w(0) 8764. F 0.00
expand: MAIN (3, 0) FAR  w(0) 3281.
	create_child: MAIN (2, 4) FAR 8976 U 0.00
expand: MAIN (2, 0) FAR  w(0) 8976.
	create_child: MAIN (1, 4) FAR 9024 U 0.00
expand: MAIN (1, 0) FAR  w(0) 9024. F 0.00
expand: MAIN (2, 0) FAR  w(0) 8976.
	create_child: MAIN (1, 4) FAR 9159 U 0.00
expand: MAIN (1, 0) FAR  w(0) 9159. F 0.00
expand: MAIN (2, 0) FAR  w(0) 8976.
	create_child: MAIN (1, 4) FAR 9385 U 0.00
expand: MAIN (1, 0) FAR  w(0) 9385. F 0.00
expand: MAIN (2, 0) FAR  w(0) 8976. F 0.00
expand: MAIN (3, 0) FAR  w(0) 3281. F 0.00
expand: query!0 (4, 0) FAR  w(0) 1. F 0.00
(spacer::context::check_reachability :time 0.04 :before-memory 6.44 :after-memory 6.63)
Propagating: 1 2 3 4  ! 5 
(spacer::context::propagate :time 0.00 :before-memory 6.63 :after-memory 6.63)
Entering level 5
BRUNCH_STAT max_query_lvl 4
BRUNCH_STAT num_queries 29
BRUNCH_STAT num_reach_queries 0
BRUNCH_STAT num_reach_reuse 0
BRUNCH_STAT inductive_lvl 0
BRUNCH_STAT max_depth 5
BRUNCH_STAT cex_depth 0
expand: query!0 (5, 0) FAR  w(0) 1.
	create_child: MAIN (4, 5) FAR 3281 U 0.00
expand: MAIN (4, 0) FAR  w(0) 3281.
	create_child: MAIN (3, 5) FAR 9310 U 0.00
expand: MAIN (3, 0) FAR  w(0) 9310.
	create_child: MAIN (2, 5) FAR 10361 U 0.00
expand: MAIN (2, 0) FAR  w(0) 10361. F 0.00
expand: MAIN (3, 0) FAR  w(0) 9310.
	create_child: MAIN (2, 5) FAR 10387 U 0.00
expand: MAIN (2, 0) FAR  w(0) 10387
Matrix
1, 

. F 0.00
expand: MAIN (3, 0) FAR  w(0) 9310. F 0.00
expand: MAIN (4, 0) FAR  w(0) 3281. F 0.00
expand: query!0 (5, 0) FAR  w(0) 1. F 0.00
(spacer::context::check_reachability :time 0.01 :before-memory 6.63 :after-memory 6.80)
Propagating: 2 3 4 5  ! 6 
(spacer::context::propagate :time 0.00 :before-memory 6.80 :after-memory 6.80)
Entering level 6
BRUNCH_STAT max_query_lvl 5
BRUNCH_STAT num_queries 33
BRUNCH_STAT num_reach_queries 0
BRUNCH_STAT num_reach_reuse 0
BRUNCH_STAT inductive_lvl 0
BRUNCH_STAT max_depth 6
BRUNCH_STAT cex_depth 0
expand: query!0 (6, 0) FAR  w(0) 1.
	create_child: MAIN (5, 6) FAR 3281 U 0.00
expand: MAIN (5, 0) FAR  w(0) 3281.
	create_child: MAIN (4, 6) FAR 10390 U 0.00
expand: MAIN (4, 0) FAR  w(0) 10390.
	create_child: MAIN (3, 6) FAR 10885 U 0.00
expand: MAIN (3, 0) FAR  w(0) 10885.
	create_child: MAIN (2, 6) FAR 11048 U 0.00
expand: MAIN (2, 0) FAR  w(0) 11048
Matrix
1, 

. F 0.00
expand: MAIN (3, 0) FAR  w(0) 10885
Matrix
1, 

. F 0.00
expand: MAIN (4, 0) FAR  w(0) 10390. F 0.00
expand: MAIN (5, 0) FAR  w(0) 3281. F 0.00
expand: query!0 (6, 0) FAR  w(0) 1. F 0.00
(spacer::context::check_reachability :time 0.01 :before-memory 6.80 :after-memory 6.91)
Propagating: 2 3 4 5 6  ! 7 
(spacer::context::propagate :time 0.00 :before-memory 6.91 :after-memory 6.91)
Entering level 7
BRUNCH_STAT max_query_lvl 6
BRUNCH_STAT num_queries 37
BRUNCH_STAT num_reach_queries 0
BRUNCH_STAT num_reach_reuse 0
BRUNCH_STAT inductive_lvl 0
BRUNCH_STAT max_depth 7
BRUNCH_STAT cex_depth 0
expand: query!0 (7, 0) FAR  w(0) 1.
	create_child: MAIN (6, 7) FAR 3281 U 0.00
expand: MAIN (6, 0) FAR  w(0) 3281.
	create_child: MAIN (5, 7) FAR 11506 U 0.00
expand: MAIN (5, 0) FAR  w(0) 11506.
	create_child: MAIN (4, 7) FAR 11625 U 0.00
expand: MAIN (4, 0) FAR  w(0) 11625.
	create_child: MAIN (3, 7) FAR 11596 U 0.00
expand: MAIN (3, 0) FAR  w(0) 11596.
	create_child: MAIN (2, 7) FAR 11657 U 0.00
expand: MAIN (2, 0) FAR  w(0) 11657
Matrix
1, 

. F 0.00
expand: MAIN (3, 0) FAR  w(0) 11596
Matrix
1, 

. F 0.00
expand: MAIN (4, 0) FAR  w(0) 11625. F 0.00
expand: MAIN (5, 0) FAR  w(0) 11506. F 0.00
expand: MAIN (6, 0) FAR  w(0) 3281. F 0.00
expand: query!0 (7, 0) FAR  w(0) 1. F 0.00
(spacer::context::check_reachability :time 0.02 :before-memory 6.91 :after-memory 7.30)
Propagating: 2 3 4 5 6 7  ! 8 
(spacer::context::propagate :time 0.00 :before-memory 7.30 :after-memory 7.30)
Entering level 8
BRUNCH_STAT max_query_lvl 7
BRUNCH_STAT num_queries 42
BRUNCH_STAT num_reach_queries 0
BRUNCH_STAT num_reach_reuse 0
BRUNCH_STAT inductive_lvl 0
BRUNCH_STAT max_depth 8
BRUNCH_STAT cex_depth 0
expand: query!0 (8, 0) FAR  w(0) 1.
	create_child: MAIN (7, 8) FAR 3281 U 0.00
expand: MAIN (7, 0) FAR  w(0) 3281.
	create_child: MAIN (6, 8) FAR 11506 U 0.00
expand: MAIN (6, 0) FAR  w(0) 11506.
	create_child: MAIN (5, 8) FAR 11625 U 0.00
expand: MAIN (5, 0) FAR  w(0) 11625.
	create_child: MAIN (4, 8) FAR 11596 U 0.00
expand: MAIN (4, 0) FAR  w(0) 11596.
	create_child: MAIN (3, 8) FAR 11657 U 0.00
expand: MAIN (3, 0) FAR  w(0) 11657.
	create_child: MAIN (2, 8) FAR 12208 U 0.00
expand: MAIN (2, 0) FAR  w(0) 12208
Matrix
1, 

. F 0.00
expand: MAIN (3, 0) FAR  w(0) 11657
Matrix
1, 

. F 0.00
expand: MAIN (4, 0) FAR  w(0) 11596. F 0.00
expand: MAIN (5, 0) FAR  w(0) 11625. F 0.00
expand: MAIN (6, 0) FAR  w(0) 11506. F 0.00
expand: MAIN (7, 0) FAR  w(0) 3281. F 0.00
expand: query!0 (8, 0) FAR  w(0) 1. F 0.00
(spacer::context::check_reachability :time 0.02 :before-memory 7.30 :after-memory 7.42)
Propagating: 2 3 4 5 6 7 8  ! 9 
(spacer::context::propagate :time 0.00 :before-memory 7.42 :after-memory 7.42)
Entering level 9
BRUNCH_STAT max_query_lvl 8
BRUNCH_STAT num_queries 48
BRUNCH_STAT num_reach_queries 0
BRUNCH_STAT num_reach_reuse 0
BRUNCH_STAT inductive_lvl 0
BRUNCH_STAT max_depth 9
BRUNCH_STAT cex_depth 0
expand: query!0 (9, 0) FAR  w(0) 1.
	create_child: MAIN (8, 9) FAR 3281 U 0.00
expand: MAIN (8, 0) FAR  w(0) 3281.
	create_child: MAIN (7, 9) FAR 11506 U 0.00
expand: MAIN (7, 0) FAR  w(0) 11506.
	create_child: MAIN (6, 9) FAR 11625 U 0.00
expand: MAIN (6, 0) FAR  w(0) 11625.
	create_child: MAIN (5, 9) FAR 11596 U 0.00
expand: MAIN (5, 0) FAR  w(0) 11596.
	create_child: MAIN (4, 9) FAR 11657 U 0.00
expand: MAIN (4, 0) FAR  w(0) 11657.
	create_child: MAIN (3, 9) FAR 12208 U 0.00
expand: MAIN (3, 0) FAR  w(0) 12208.
	create_child: MAIN (2, 9) FAR 12756 U 0.00
expand: MAIN (2, 0) FAR  w(0) 12756.
	create_child: MAIN (1, 9) FAR 13067 U 0.00
expand: MAIN (1, 0) FAR  w(0) 13067. F 0.00
expand: MAIN (2, 0) FAR  w(0) 12756. F 0.00
expand: MAIN (3, 0) FAR  w(0) 12208. F 0.00
expand: MAIN (4, 0) FAR  w(0) 11657. F 0.00
expand: MAIN (5, 0) FAR  w(0) 11596. F 0.00
expand: MAIN (6, 0) FAR  w(0) 11625. F 0.00
expand: MAIN (7, 0) FAR  w(0) 11506. F 0.00
expand: MAIN (8, 0) FAR  w(0) 3281. F 0.00
expand: query!0 (9, 0) FAR  w(0) 1. F 0.00
(spacer::context::check_reachability :time 0.02 :before-memory 7.42 :after-memory 7.51)
Propagating: 1 2 3 4 5 6 7 8 9  ! 10 11 
(spacer::context::propagate :time 0.01 :before-memory 7.51 :after-memory 7.51)
Entering level 10
BRUNCH_STAT max_query_lvl 9
BRUNCH_STAT num_queries 56
BRUNCH_STAT num_reach_queries 0
BRUNCH_STAT num_reach_reuse 0
BRUNCH_STAT inductive_lvl 0
BRUNCH_STAT max_depth 10
BRUNCH_STAT cex_depth 0
expand: query!0 (10, 0) FAR  w(0) 1. F 0.00
(spacer::context::check_reachability :time 0.00 :before-memory 7.51 :after-memory 7.51)
Propagating: 10  ! 11 
(spacer::context::propagate :time 0.00 :before-memory 7.51 :after-memory 7.51)
Entering level 11
BRUNCH_STAT max_query_lvl 10
BRUNCH_STAT num_queries 56
BRUNCH_STAT num_reach_queries 0
BRUNCH_STAT num_reach_reuse 0
BRUNCH_STAT inductive_lvl 0
BRUNCH_STAT max_depth 11
BRUNCH_STAT cex_depth 0
expand: query!0 (11, 0) FAR  w(0) 1.
	create_child: MAIN (10, 11) FAR 3281 U 0.00
expand: MAIN (10, 0) FAR  w(0) 3281.
	create_child: MAIN (9, 11) FAR 11506 U 0.00
expand: MAIN (9, 0) FAR  w(0) 11506.
	create_child: MAIN (8, 11) FAR 11625 U 0.00
expand: MAIN (8, 0) FAR  w(0) 11625.
	create_child: MAIN (7, 11) FAR 11596 U 0.00
expand: MAIN (7, 0) FAR  w(0) 11596.
	create_child: MAIN (6, 11) FAR 11657 U 0.00
expand: MAIN (6, 0) FAR  w(0) 11657.
	create_child: MAIN (5, 11) FAR 12208 U 0.00
expand: MAIN (5, 0) FAR  w(0) 12208.
	create_child: MAIN (4, 11) FAR 12756 U 0.00
expand: MAIN (4, 0) FAR  w(0) 12756.
	create_child: MAIN (3, 11) FAR 13067 U 0.00
expand: MAIN (3, 0) FAR  w(0) 13067.
	create_child: MAIN (2, 11) FAR 14614 U 0.00
expand: MAIN (2, 0) FAR  w(0) 14614. F 0.00
expand: MAIN (3, 0) FAR  w(0) 13067. F 0.00
expand: MAIN (4, 0) FAR  w(0) 12756. F 0.00
expand: MAIN (5, 0) FAR  w(0) 12208. F 0.00
expand: MAIN (6, 0) FAR  w(0) 11657. F 0.00
expand: MAIN (7, 0) FAR  w(0) 11596. F 0.00
expand: MAIN (8, 0) FAR  w(0) 11625. F 0.00
expand: MAIN (9, 0) FAR  w(0) 11506. F 0.00
expand: MAIN (10, 0) FAR  w(0) 3281. F 0.00
expand: query!0 (11, 0) FAR  w(0) 1. F 0.00
(spacer::context::check_reachability :time 0.03 :before-memory 7.51 :after-memory 7.61)
Propagating: 2 3 4 5 6 7 8 9 10 11  ! 12 
(spacer::context::propagate :time 0.01 :before-memory 7.61 :after-memory 7.61)
Entering level 12
BRUNCH_STAT max_query_lvl 11
BRUNCH_STAT num_queries 65
BRUNCH_STAT num_reach_queries 0
BRUNCH_STAT num_reach_reuse 0
BRUNCH_STAT inductive_lvl 0
BRUNCH_STAT max_depth 12
BRUNCH_STAT cex_depth 0
expand: query!0 (12, 0) FAR  w(0) 1.
	create_child: MAIN (11, 12) FAR 3281 U 0.00
expand: MAIN (11, 0) FAR  w(0) 3281.
	create_child: MAIN (10, 12) FAR 11506 U 0.00
expand: MAIN (10, 0) FAR  w(0) 11506.
	create_child: MAIN (9, 12) FAR 11625 U 0.00
expand: MAIN (9, 0) FAR  w(0) 11625.
	create_child: MAIN (8, 12) FAR 11596 U 0.00
expand: MAIN (8, 0) FAR  w(0) 11596.
	create_child: MAIN (7, 12) FAR 11657 U 0.00
expand: MAIN (7, 0) FAR  w(0) 11657.
	create_child: MAIN (6, 12) FAR 12208 U 0.00
expand: MAIN (6, 0) FAR  w(0) 12208.
	create_child: MAIN (5, 12) FAR 12756 U 0.00
expand: MAIN (5, 0) FAR  w(0) 12756.
	create_child: MAIN (4, 12) FAR 13067 U 0.00
expand: MAIN (4, 0) FAR  w(0) 13067.
	create_child: MAIN (3, 12) FAR 14614 U 0.00
expand: MAIN (3, 0) FAR  w(0) 14614.
	create_child: MAIN (2, 12) FAR 15348 U 0.00
expand: MAIN (2, 0) FAR  w(0) 15348.
	create_child: MAIN (1, 12) FAR 15079 U 0.00
expand: MAIN (1, 0) FAR  w(0) 15079
Matrix
1, 

. F 0.00
expand: MAIN (2, 0) FAR  w(0) 15348
Matrix
1, 

. F 0.00
expand: MAIN (3, 0) FAR  w(0) 14614
Matrix
1, 

. F 0.00
expand: MAIN (4, 0) FAR  w(0) 13067
Matrix
1, 

. F 0.00
expand: MAIN (5, 0) FAR  w(0) 12756
Matrix
1, 

. F 0.00
expand: MAIN (6, 0) FAR  w(0) 12208. F 0.00
expand: MAIN (7, 0) FAR  w(0) 11657. F 0.00
expand: MAIN (8, 0) FAR  w(0) 11596. F 0.00
expand: MAIN (9, 0) FAR  w(0) 11625. F 0.00
expand: MAIN (10, 0) FAR  w(0) 11506. F 0.00
expand: MAIN (11, 0) FAR  w(0) 3281. F 0.00
expand: query!0 (12, 0) FAR  w(0) 1. F 0.00
(spacer::context::check_reachability :time 0.04 :before-memory 7.61 :after-memory 7.75)
Propagating: 1 2 3 4 5 6 7 8 9 10 11 12  ! 13 
(spacer::context::propagate :time 0.01 :before-memory 7.75 :after-memory 7.75)
Entering level 13
BRUNCH_STAT max_query_lvl 12
BRUNCH_STAT num_queries 76
BRUNCH_STAT num_reach_queries 0
BRUNCH_STAT num_reach_reuse 0
BRUNCH_STAT inductive_lvl 0
BRUNCH_STAT max_depth 13
BRUNCH_STAT cex_depth 0
expand: query!0 (13, 0) FAR  w(0) 1.
	create_child: MAIN (12, 13) FAR 3281 U 0.00
expand: MAIN (12, 0) FAR  w(0) 3281.
	create_child: MAIN (11, 13) FAR 11506 U 0.00
expand: MAIN (11, 0) FAR  w(0) 11506.
	create_child: MAIN (10, 13) FAR 11625 U 0.00
expand: MAIN (10, 0) FAR  w(0) 11625.
	create_child: MAIN (9, 13) FAR 11596 U 0.00
expand: MAIN (9, 0) FAR  w(0) 11596.
	create_child: MAIN (8, 13) FAR 11657 U 0.00
expand: MAIN (8, 0) FAR  w(0) 11657.
	create_child: MAIN (7, 13) FAR 12208 U 0.00
expand: MAIN (7, 0) FAR  w(0) 12208.
	create_child: MAIN (6, 13) FAR 12756 U 0.00
expand: MAIN (6, 0) FAR  w(0) 12756.
	create_child: MAIN (5, 13) FAR 13067 U 0.00
expand: MAIN (5, 0) FAR  w(0) 13067.
	create_child: MAIN (4, 13) FAR 14614 U 0.00
expand: MAIN (4, 0) FAR  w(0) 14614.
	create_child: MAIN (3, 13) FAR 15348 U 0.00
expand: MAIN (3, 0) FAR  w(0) 15348.
	create_child: MAIN (2, 13) FAR 15079 U 0.00
expand: MAIN (2, 0) FAR  w(0) 15079.
	create_child: MAIN (1, 13) FAR 16688 U 0.00
expand: MAIN (1, 0) FAR  w(0) 16688.
	create_child: MAIN (0, 13) FAR 16788 U 0.00
expand: MAIN (0, 0) FAR  w(0) 16788. F 0.00
expand: MAIN (1, 0) FAR  w(0) 16688. F 0.00
expand: MAIN (2, 0) FAR  w(0) 15079. F 0.00
expand: MAIN (3, 0) FAR  w(0) 15348. F 0.00
expand: MAIN (4, 0) FAR  w(0) 14614. F 0.00
expand: MAIN (5, 0) FAR  w(0) 13067.
	create_child: MAIN (4, 13) FAR 16684 U 0.00
expand: MAIN (4, 0) FAR  w(0) 16684. F 0.00
expand: MAIN (5, 0) FAR  w(0) 13067. F 0.00
expand: MAIN (6, 0) FAR  w(0) 12756. F 0.00
expand: MAIN (7, 0) FAR  w(0) 12208
Matrix
1, 

. F 0.00
expand: MAIN (8, 0) FAR  w(0) 11657
Matrix
1, 

. F 0.00
expand: MAIN (9, 0) FAR  w(0) 11596
Matrix
1, 

. F 0.00
expand: MAIN (10, 0) FAR  w(0) 11625. F 0.00
expand: MAIN (11, 0) FAR  w(0) 11506.
	create_child: MAIN (10, 13) FAR 17679 U 0.00
expand: MAIN (10, 0) FAR  w(0) 17679. F 0.00
expand: MAIN (11, 0) FAR  w(0) 11506. F 0.00
expand: MAIN (12, 0) FAR  w(0) 3281.
	create_child: MAIN (11, 13) FAR 17889 U 0.00
expand: MAIN (11, 0) FAR  w(0) 17889.
	create_child: MAIN (10, 13) FAR 18021 U 0.00
expand: MAIN (10, 0) FAR  w(0) 18021.
	create_child: MAIN (9, 13) FAR 18096 U 0.00
expand: MAIN (9, 0) FAR  w(0) 18096.
	create_child: MAIN (8, 13) FAR 17919 U 0.00
expand: MAIN (8, 0) FAR  w(0) 17919.
	create_child: MAIN (7, 13) FAR 18031 U 0.00
expand: MAIN (7, 0) FAR  w(0) 18031.
	create_child: MAIN (6, 13) FAR 17955 U 0.00
expand: MAIN (6, 0) FAR  w(0) 17955.
	create_child: MAIN (5, 13) FAR 17986 U 0.00
expand: MAIN (5, 0) FAR  w(0) 17986.
	create_child: MAIN (4, 13) FAR 18268 U 0.00
expand: MAIN (4, 0) FAR  w(0) 18268.
	create_child: MAIN (3, 13) FAR 18147 U 0.00
expand: MAIN (3, 0) FAR  w(0) 18147.
	create_child: MAIN (2, 13) FAR 17954 U 0.00
expand: MAIN (2, 0) FAR  w(0) 17954.
	create_child: MAIN (1, 13) FAR 17696 U 0.00
expand: MAIN (1, 0) FAR  w(0) 17696. T 0.00
is-reachable: MAIN (2, 0) FAR 17954 T 0.01
is-reachable: MAIN (3, 0) FAR 18147 T 0.00
is-reachable: MAIN (4, 0) FAR 18268 T 0.00
is-reachable: MAIN (5, 0) FAR 17986 T 0.00
is-reachable: MAIN (6, 0) FAR 17955 T 0.01
is-reachable: MAIN (7, 0) FAR 18031 T 0.01
is-reachable: MAIN (8, 0) FAR 17919 T 0.01
is-reachable: MAIN (9, 0) FAR 18096 T 0.01
is-reachable: MAIN (10, 0) FAR 18021 T 0.01
is-reachable: MAIN (11, 0) FAR 17889 T 0.01
is-reachable: MAIN (12, 0) FAR 3281 T 0.01
is-reachable: query!0 (13, 0) FAR 1 T 0.01
(spacer::context::check_reachability :time 0.16 :before-memory 7.75 :after-memory 9.92)
BRUNCH_STAT max_query_lvl 13
BRUNCH_STAT num_queries 102
BRUNCH_STAT num_reach_queries 13
BRUNCH_STAT num_reach_reuse 1
BRUNCH_STAT inductive_lvl 0
BRUNCH_STAT max_depth 13
BRUNCH_STAT cex_depth 13
(:SPACER-cex-depth                     13
 :SPACER-max-depth                     13
 :SPACER-max-query-lvl                 13
 :SPACER-num-invariants                19
 :SPACER-num-lemmas                    102
 :SPACER-num-properties                48
 :SPACER-num-queries                   102
 :SPACER-num-reach-queries             13
 :SPACER-num-reuse-reach-facts         1
 :added-eqs                            3988
 :arith-add-rows                       945
 :arith-assert-diseq                   2528
 :arith-assert-lower                   9639
 :arith-assert-upper                   16960
 :arith-bound-prop                     511
 :arith-conflicts                      56
 :arith-eq-adapter                     1117
 :arith-fixed-eqs                      742
 :arith-offset-eqs                     148
 :arith-pivots                         344
 :bool-inductive-gen                   90
 :bool-inductive-gen-failures          109
 :conflicts                            391
 :decisions                            27062
 :del-clause                           109
 :final-checks                         249
 :minimized-lits                       17
 :mk-bool-var                          2732
 :mk-clause                            4798
 :num-checks                           546
 :propagations                         143296
 :time.itp_solver.itp_core             0.05
 :time.spacer.init_rules               0.00
 :time.spacer.init_rules.pt.init       0.00
 :time.spacer.solve                    0.43
 :time.spacer.solve.propagate          0.05
 :time.spacer.solve.reach              0.38
 :time.spacer.solve.reach.children     0.09
 :time.spacer.solve.reach.gen.bool_ind 0.04
 :time.spacer.solve.reach.is-reach     0.07
 :time.virtual_solver.proof            0.02
 :time.virtual_solver.smt.total        0.24
 :time.virtual_solver.smt.total.sat    0.17
 :virtual_solver.checks                546
 :virtual_solver.checks.sat            249)
BRUNCH_STAT max_query_lvl 13
BRUNCH_STAT num_queries 102
BRUNCH_STAT num_reach_queries 13
BRUNCH_STAT num_reach_reuse 1
BRUNCH_STAT inductive_lvl 0
BRUNCH_STAT max_depth 13
BRUNCH_STAT cex_depth 13

real	0m0.499s
user	0m0.488s
sys	0m0.008s
