(transform N7datalog13mk_coi_filterE...no-op 0s)
(transform N7datalog25mk_interp_tail_simplifierE...15 rules 0s)
(transform N7datalog27mk_quantifier_instantiationE...no-op 0s)
(transform N7datalog8mk_scaleE...no-op 0s)
(transform N7datalog18mk_karr_invariantsE...no-op 0s)
(transform N7datalog14mk_array_blastE...no-op 0s)
(transform N7datalog22mk_subsumption_checkerE...14 rules 0s)
(transform N7datalog12mk_bit_blastE...no-op 0s)
(transform N7datalog15mk_rule_inlinerE...3 rules 0.00553711s)
(transform N7datalog13mk_coi_filterE...no-op 0s)
(transform N7datalog25mk_interp_tail_simplifierE...3 rules 0s)
(transform N7datalog22mk_subsumption_checkerE...no-op 0s)
(transform N7datalog15mk_rule_inlinerE...no-op 0s)
(transform N7datalog13mk_coi_filterE...no-op 0s)
(transform N7datalog25mk_interp_tail_simplifierE...3 rules 0s)
(transform N7datalog22mk_subsumption_checkerE...no-op 0s)
(transform N7datalog15mk_rule_inlinerE...no-op 0s)
(transform N7datalog22mk_subsumption_checkerE...no-op 0s)
(transform N7datalog15mk_rule_inlinerE...no-op 0s)
(transform N7datalog22mk_subsumption_checkerE...no-op 0s)
(transform N7datalog15mk_rule_inlinerE...no-op 0s)
(transform N7datalog22mk_subsumption_checkerE...no-op 0s)
(transform N7datalog8mk_sliceE...no-op 0s)
expand: query!0 (0, 0) FAR  w(0) 1. F 0.00
(spacer::context::check_reachability :time 0.00 :before-memory 4.52 :after-memory 5.06)
Entering level 1
BRUNCH_STAT max_query_lvl 0
BRUNCH_STAT num_queries 0
BRUNCH_STAT num_reach_queries 0
BRUNCH_STAT num_reach_reuse 0
BRUNCH_STAT inductive_lvl 0
BRUNCH_STAT max_depth 1
BRUNCH_STAT cex_depth 0
expand: query!0 (1, 0) FAR  w(0) 1.
	create_child: MAIN (0, 1) FAR 3353 U 0.00
expand: MAIN (0, 0) FAR  w(0) 3353. F 0.00
expand: query!0 (1, 0) FAR  w(0) 1. F 0.00
(spacer::context::check_reachability :time 0.00 :before-memory 5.06 :after-memory 5.86)
Propagating: 0 1  ! 2 
(spacer::context::propagate :time 0.00 :before-memory 5.86 :after-memory 5.86)
Entering level 2
BRUNCH_STAT max_query_lvl 1
BRUNCH_STAT num_queries 1
BRUNCH_STAT num_reach_queries 0
BRUNCH_STAT num_reach_reuse 0
BRUNCH_STAT inductive_lvl 0
BRUNCH_STAT max_depth 2
BRUNCH_STAT cex_depth 0
expand: query!0 (2, 0) FAR  w(0) 1.
	create_child: MAIN (1, 2) FAR 3353 U 0.00
expand: MAIN (1, 0) FAR  w(0) 3353.
	create_child: MAIN (0, 2) FAR 5189 U 0.00
expand: MAIN (0, 0) FAR  w(0) 5189. F 0.00
expand: MAIN (1, 0) FAR  w(0) 3353.
	create_child: MAIN (0, 2) FAR 5465 U 0.00
expand: MAIN (0, 0) FAR  w(0) 5465. F 0.00
expand: MAIN (1, 0) FAR  w(0) 3353.
	create_child: MAIN (0, 2) FAR 5631 U 0.00
expand: MAIN (0, 0) FAR  w(0) 5631. F 0.00
expand: MAIN (1, 0) FAR  w(0) 3353.
	create_child: MAIN (0, 2) FAR 5743 U 0.00
expand: MAIN (0, 0) FAR  w(0) 5743. F 0.00
expand: MAIN (1, 0) FAR  w(0) 3353.
	create_child: MAIN (0, 2) FAR 5755 U 0.00
expand: MAIN (0, 0) FAR  w(0) 5755. F 0.00
expand: MAIN (1, 0) FAR  w(0) 3353.
	create_child: MAIN (0, 2) FAR 5462 U 0.00
expand: MAIN (0, 0) FAR  w(0) 5462. F 0.00
expand: MAIN (1, 0) FAR  w(0) 3353.
	create_child: MAIN (0, 2) FAR 5803 U 0.00
expand: MAIN (0, 0) FAR  w(0) 5803. F 0.00
expand: MAIN (1, 0) FAR  w(0) 3353.
	create_child: MAIN (0, 2) FAR 5956 U 0.00
expand: MAIN (0, 0) FAR  w(0) 5956. F 0.00
expand: MAIN (1, 0) FAR  w(0) 3353.
	create_child: MAIN (0, 2) FAR 6044 U 0.00
expand: MAIN (0, 0) FAR  w(0) 6044. F 0.00
expand: MAIN (1, 0) FAR  w(0) 3353.
	create_child: MAIN (0, 2) FAR 6252 U 0.00
expand: MAIN (0, 0) FAR  w(0) 6252. F 0.00
expand: MAIN (1, 0) FAR  w(0) 3353. F 0.00
expand: query!0 (2, 0) FAR  w(0) 1. F 0.00
(spacer::context::check_reachability :time 0.02 :before-memory 5.86 :after-memory 6.31)
Propagating: 0 1 2  ! 3 
(spacer::context::propagate :time 0.00 :before-memory 6.31 :after-memory 6.31)
Entering level 3
BRUNCH_STAT max_query_lvl 2
BRUNCH_STAT num_queries 12
BRUNCH_STAT num_reach_queries 0
BRUNCH_STAT num_reach_reuse 0
BRUNCH_STAT inductive_lvl 0
BRUNCH_STAT max_depth 3
BRUNCH_STAT cex_depth 0
expand: query!0 (3, 0) FAR  w(0) 1.
	create_child: MAIN (2, 3) FAR 3353 U 0.00
expand: MAIN (2, 0) FAR  w(0) 3353.
	create_child: MAIN (1, 3) FAR 7248 U 0.00
expand: MAIN (1, 0) FAR  w(0) 7248. F 0.00
expand: MAIN (2, 0) FAR  w(0) 3353.
	create_child: MAIN (1, 3) FAR 7238 U 0.00
expand: MAIN (1, 0) FAR  w(0) 7238.
	create_child: MAIN (0, 3) FAR 7583 U 0.00
expand: MAIN (0, 0) FAR  w(0) 7583. F 0.00
expand: MAIN (1, 0) FAR  w(0) 7238. F 0.00
expand: MAIN (2, 0) FAR  w(0) 3353.
	create_child: MAIN (1, 3) FAR 7789 U 0.00
expand: MAIN (1, 0) FAR  w(0) 7789.
	create_child: MAIN (0, 3) FAR 8116 U 0.00
expand: MAIN (0, 0) FAR  w(0) 8116. F 0.00
expand: MAIN (1, 0) FAR  w(0) 7789.
	create_child: MAIN (0, 3) FAR 8262 U 0.00
expand: MAIN (0, 0) FAR  w(0) 8262. F 0.00
expand: MAIN (1, 0) FAR  w(0) 7789. F 0.00
expand: MAIN (2, 0) FAR  w(0) 3353.
	create_child: MAIN (1, 3) FAR 8426 U 0.00
expand: MAIN (1, 0) FAR  w(0) 8426. F 0.00
expand: MAIN (2, 0) FAR  w(0) 3353.
	create_child: MAIN (1, 3) FAR 8707 U 0.00
expand: MAIN (1, 0) FAR  w(0) 8707. F 0.00
expand: MAIN (2, 0) FAR  w(0) 3353.
	create_child: MAIN (1, 3) FAR 7060 U 0.00
expand: MAIN (1, 0) FAR  w(0) 7060.
	create_child: MAIN (0, 3) FAR 8878 U 0.00
expand: MAIN (0, 0) FAR  w(0) 8878. F 0.00
expand: MAIN (1, 0) FAR  w(0) 7060
Matrix
1, 

. F 0.00
expand: MAIN (2, 0) FAR  w(0) 3353. F 0.00
expand: query!0 (3, 0) FAR  w(0) 1. F 0.00
(spacer::context::check_reachability :time 0.03 :before-memory 6.31 :after-memory 6.67)
Propagating: 0 1 2 3  ! 4 
(spacer::context::propagate :time 0.01 :before-memory 6.67 :after-memory 6.67)
Entering level 4
BRUNCH_STAT max_query_lvl 3
BRUNCH_STAT num_queries 23
BRUNCH_STAT num_reach_queries 0
BRUNCH_STAT num_reach_reuse 0
BRUNCH_STAT inductive_lvl 0
BRUNCH_STAT max_depth 4
BRUNCH_STAT cex_depth 0
expand: query!0 (4, 0) FAR  w(0) 1.
	create_child: MAIN (3, 4) FAR 3353 U 0.00
expand: MAIN (3, 0) FAR  w(0) 3353.
	create_child: MAIN (2, 4) FAR 9679 U 0.00
expand: MAIN (2, 0) FAR  w(0) 9679. F 0.00
expand: MAIN (3, 0) FAR  w(0) 3353.
	create_child: MAIN (2, 4) FAR 9943 U 0.00
expand: MAIN (2, 0) FAR  w(0) 9943.
	create_child: MAIN (1, 4) FAR 10059 U 0.00
expand: MAIN (1, 0) FAR  w(0) 10059. F 0.00
expand: MAIN (2, 0) FAR  w(0) 9943. F 0.00
expand: MAIN (3, 0) FAR  w(0) 3353. F 0.00
expand: query!0 (4, 0) FAR  w(0) 1. F 0.00
(spacer::context::check_reachability :time 0.01 :before-memory 6.67 :after-memory 6.77)
Propagating: 1 2 3 4  ! 5 
(spacer::context::propagate :time 0.01 :before-memory 6.77 :after-memory 6.77)
Entering level 5
BRUNCH_STAT max_query_lvl 4
BRUNCH_STAT num_queries 27
BRUNCH_STAT num_reach_queries 0
BRUNCH_STAT num_reach_reuse 0
BRUNCH_STAT inductive_lvl 0
BRUNCH_STAT max_depth 5
BRUNCH_STAT cex_depth 0
expand: query!0 (5, 0) FAR  w(0) 1.
	create_child: MAIN (4, 5) FAR 3353 U 0.00
expand: MAIN (4, 0) FAR  w(0) 3353.
	create_child: MAIN (3, 5) FAR 10642 U 0.00
expand: MAIN (3, 0) FAR  w(0) 10642. F 0.00
expand: MAIN (4, 0) FAR  w(0) 3353.
	create_child: MAIN (3, 5) FAR 10736 U 0.00
expand: MAIN (3, 0) FAR  w(0) 10736. F 0.00
expand: MAIN (4, 0) FAR  w(0) 3353.
	create_child: MAIN (3, 5) FAR 10979 U 0.00
expand: MAIN (3, 0) FAR  w(0) 10979. F 0.00
expand: MAIN (4, 0) FAR  w(0) 3353.
	create_child: MAIN (3, 5) FAR 11400 U 0.00
expand: MAIN (3, 0) FAR  w(0) 11400. F 0.00
expand: MAIN (4, 0) FAR  w(0) 3353.
	create_child: MAIN (3, 5) FAR 11625 U 0.00
expand: MAIN (3, 0) FAR  w(0) 11625.
	create_child: MAIN (2, 5) FAR 11848 U 0.00
expand: MAIN (2, 0) FAR  w(0) 11848. F 0.00
expand: MAIN (3, 0) FAR  w(0) 11625
Matrix
1, 

. F 0.00
expand: MAIN (4, 0) FAR  w(0) 3353.
	create_child: MAIN (3, 5) FAR 11593 U 0.00
expand: MAIN (3, 0) FAR  w(0) 11593. F 0.00
expand: MAIN (4, 0) FAR  w(0) 3353.
	create_child: MAIN (3, 5) FAR 12067 U 0.00
expand: MAIN (3, 0) FAR  w(0) 12067.
	create_child: MAIN (2, 5) FAR 12285 U 0.00
expand: MAIN (2, 0) FAR  w(0) 12285. F 0.00
expand: MAIN (3, 0) FAR  w(0) 12067.
	create_child: MAIN (2, 5) FAR 12520 U 0.00
expand: MAIN (2, 0) FAR  w(0) 12520. F 0.00
expand: MAIN (3, 0) FAR  w(0) 12067. F 0.00
expand: MAIN (4, 0) FAR  w(0) 3353. F 0.00
expand: query!0 (5, 0) FAR  w(0) 1. F 0.00
(spacer::context::check_reachability :time 0.04 :before-memory 6.77 :after-memory 7.44)
Propagating: 2 3 4 5  ! 6 
(spacer::context::propagate :time 0.01 :before-memory 7.44 :after-memory 7.44)
Entering level 6
BRUNCH_STAT max_query_lvl 5
BRUNCH_STAT num_queries 38
BRUNCH_STAT num_reach_queries 0
BRUNCH_STAT num_reach_reuse 0
BRUNCH_STAT inductive_lvl 0
BRUNCH_STAT max_depth 6
BRUNCH_STAT cex_depth 0
expand: query!0 (6, 0) FAR  w(0) 1.
	create_child: MAIN (5, 6) FAR 3353 U 0.00
expand: MAIN (5, 0) FAR  w(0) 3353.
	create_child: MAIN (4, 6) FAR 13083 U 0.00
expand: MAIN (4, 0) FAR  w(0) 13083.
	create_child: MAIN (3, 6) FAR 13183 U 0.00
expand: MAIN (3, 0) FAR  w(0) 13183. F 0.00
expand: MAIN (4, 0) FAR  w(0) 13083.
	create_child: MAIN (3, 6) FAR 13394 U 0.00
expand: MAIN (3, 0) FAR  w(0) 13394. F 0.00
expand: MAIN (4, 0) FAR  w(0) 13083.
	create_child: MAIN (3, 6) FAR 13280 U 0.00
expand: MAIN (3, 0) FAR  w(0) 13280. F 0.00
expand: MAIN (4, 0) FAR  w(0) 13083.
	create_child: MAIN (3, 6) FAR 13719 U 0.00
expand: MAIN (3, 0) FAR  w(0) 13719. F 0.00
expand: MAIN (4, 0) FAR  w(0) 13083. F 0.00
expand: MAIN (5, 0) FAR  w(0) 3353.
	create_child: MAIN (4, 6) FAR 13880 U 0.00
expand: MAIN (4, 0) FAR  w(0) 13880.
	create_child: MAIN (3, 6) FAR 13920 U 0.00
expand: MAIN (3, 0) FAR  w(0) 13920. F 0.00
expand: MAIN (4, 0) FAR  w(0) 13880.
	create_child: MAIN (3, 6) FAR 14353 U 0.00
expand: MAIN (3, 0) FAR  w(0) 14353.
	create_child: MAIN (2, 6) FAR 14313 U 0.00
expand: MAIN (2, 0) FAR  w(0) 14313
Matrix
1, 

. F 0.00
expand: MAIN (3, 0) FAR  w(0) 14353
Matrix
1, 

. F 0.00
expand: MAIN (4, 0) FAR  w(0) 13880. F 0.00
expand: MAIN (5, 0) FAR  w(0) 3353. F 0.00
expand: query!0 (6, 0) FAR  w(0) 1. F 0.00
(spacer::context::check_reachability :time 0.04 :before-memory 7.44 :after-memory 7.71)
Propagating: 2 3 4 5 6  ! 7 
(spacer::context::propagate :time 0.01 :before-memory 7.71 :after-memory 7.71)
Entering level 7
BRUNCH_STAT max_query_lvl 6
BRUNCH_STAT num_queries 48
BRUNCH_STAT num_reach_queries 0
BRUNCH_STAT num_reach_reuse 0
BRUNCH_STAT inductive_lvl 0
BRUNCH_STAT max_depth 7
BRUNCH_STAT cex_depth 0
expand: query!0 (7, 0) FAR  w(0) 1.
	create_child: MAIN (6, 7) FAR 3353 U 0.00
expand: MAIN (6, 0) FAR  w(0) 3353.
	create_child: MAIN (5, 7) FAR 15414 U 0.00
expand: MAIN (5, 0) FAR  w(0) 15414.
	create_child: MAIN (4, 7) FAR 15515 U 0.00
expand: MAIN (4, 0) FAR  w(0) 15515.
	create_child: MAIN (3, 7) FAR 15524 U 0.00
expand: MAIN (3, 0) FAR  w(0) 15524. F 0.00
expand: MAIN (4, 0) FAR  w(0) 15515
Matrix
1, 

. F 0.00
expand: MAIN (5, 0) FAR  w(0) 15414. F 0.00
expand: MAIN (6, 0) FAR  w(0) 3353.
	create_child: MAIN (5, 7) FAR 15697 U 0.00
expand: MAIN (5, 0) FAR  w(0) 15697.
	create_child: MAIN (4, 7) FAR 15720 U 0.00
expand: MAIN (4, 0) FAR  w(0) 15720.
	create_child: MAIN (3, 7) FAR 15809 U 0.00
expand: MAIN (3, 0) FAR  w(0) 15809.
	create_child: MAIN (2, 7) FAR 15826 U 0.00
expand: MAIN (2, 0) FAR  w(0) 15826. F 0.00
expand: MAIN (3, 0) FAR  w(0) 15809.
	create_child: MAIN (2, 7) FAR 15920 U 0.00
expand: MAIN (2, 0) FAR  w(0) 15920
Matrix
1, 

. F 0.00
expand: MAIN (3, 0) FAR  w(0) 15809
Matrix
1, 

. F 0.00
expand: MAIN (4, 0) FAR  w(0) 15720. F 0.00
expand: MAIN (5, 0) FAR  w(0) 15697. F 0.00
expand: MAIN (6, 0) FAR  w(0) 3353. F 0.00
expand: query!0 (7, 0) FAR  w(0) 1. F 0.00
(spacer::context::check_reachability :time 0.03 :before-memory 7.71 :after-memory 7.88)
Propagating: 2 3 4 5 6 7  ! 8 
(spacer::context::propagate :time 0.02 :before-memory 7.88 :after-memory 7.88)
Entering level 8
BRUNCH_STAT max_query_lvl 7
BRUNCH_STAT num_queries 57
BRUNCH_STAT num_reach_queries 0
BRUNCH_STAT num_reach_reuse 0
BRUNCH_STAT inductive_lvl 0
BRUNCH_STAT max_depth 8
BRUNCH_STAT cex_depth 0
expand: query!0 (8, 0) FAR  w(0) 1.
	create_child: MAIN (7, 8) FAR 3353 U 0.00
expand: MAIN (7, 0) FAR  w(0) 3353.
	create_child: MAIN (6, 8) FAR 17231 U 0.00
expand: MAIN (6, 0) FAR  w(0) 17231. F 0.00
expand: MAIN (7, 0) FAR  w(0) 3353.
	create_child: MAIN (6, 8) FAR 17273 U 0.00
expand: MAIN (6, 0) FAR  w(0) 17273.
	create_child: MAIN (5, 8) FAR 17387 U 0.00
expand: MAIN (5, 0) FAR  w(0) 17387.
	create_child: MAIN (4, 8) FAR 17395 U 0.00
expand: MAIN (4, 0) FAR  w(0) 17395.
	create_child: MAIN (3, 8) FAR 17316 U 0.00
expand: MAIN (3, 0) FAR  w(0) 17316.
	create_child: MAIN (2, 8) FAR 17353 U 0.00
expand: MAIN (2, 0) FAR  w(0) 17353
Matrix
1, 

. F 0.00
expand: MAIN (3, 0) FAR  w(0) 17316
Matrix
1, 

. F 0.00
expand: MAIN (4, 0) FAR  w(0) 17395. F 0.00
expand: MAIN (5, 0) FAR  w(0) 17387. F 0.00
expand: MAIN (6, 0) FAR  w(0) 17273. F 0.00
expand: MAIN (7, 0) FAR  w(0) 3353. F 0.00
expand: query!0 (8, 0) FAR  w(0) 1. F 0.00
(spacer::context::check_reachability :time 0.02 :before-memory 7.88 :after-memory 8.05)
Propagating: 2 3 4 5 6 7 8  ! 9 
(spacer::context::propagate :time 0.01 :before-memory 8.05 :after-memory 8.15)
Entering level 9
BRUNCH_STAT max_query_lvl 8
BRUNCH_STAT num_queries 64
BRUNCH_STAT num_reach_queries 0
BRUNCH_STAT num_reach_reuse 0
BRUNCH_STAT inductive_lvl 0
BRUNCH_STAT max_depth 9
BRUNCH_STAT cex_depth 0
expand: query!0 (9, 0) FAR  w(0) 1.
	create_child: MAIN (8, 9) FAR 3353 U 0.00
expand: MAIN (8, 0) FAR  w(0) 3353.
	create_child: MAIN (7, 9) FAR 18201 U 0.00
expand: MAIN (7, 0) FAR  w(0) 18201.
	create_child: MAIN (6, 9) FAR 18514 U 0.00
expand: MAIN (6, 0) FAR  w(0) 18514.
	create_child: MAIN (5, 9) FAR 18495 U 0.00
expand: MAIN (5, 0) FAR  w(0) 18495. F 0.00
expand: MAIN (6, 0) FAR  w(0) 18514. F 0.00
expand: MAIN (7, 0) FAR  w(0) 18201. F 0.00
expand: MAIN (8, 0) FAR  w(0) 3353.
	create_child: MAIN (7, 9) FAR 18807 U 0.00
expand: MAIN (7, 0) FAR  w(0) 18807.
	create_child: MAIN (6, 9) FAR 19013 U 0.00
expand: MAIN (6, 0) FAR  w(0) 19013.
	create_child: MAIN (5, 9) FAR 18943 U 0.00
expand: MAIN (5, 0) FAR  w(0) 18943. F 0.00
expand: MAIN (6, 0) FAR  w(0) 19013. F 0.00
expand: MAIN (7, 0) FAR  w(0) 18807.
	create_child: MAIN (6, 9) FAR 19128 U 0.00
expand: MAIN (6, 0) FAR  w(0) 19128.
	create_child: MAIN (5, 9) FAR 19101 U 0.00
expand: MAIN (5, 0) FAR  w(0) 19101.
	create_child: MAIN (4, 9) FAR 19090 U 0.00
expand: MAIN (4, 0) FAR  w(0) 19090. F 0.00
expand: MAIN (5, 0) FAR  w(0) 19101. F 0.00
expand: MAIN (6, 0) FAR  w(0) 19128. F 0.00
expand: MAIN (7, 0) FAR  w(0) 18807. F 0.00
expand: MAIN (8, 0) FAR  w(0) 3353.
	create_child: MAIN (7, 9) FAR 19149 U 0.00
expand: MAIN (7, 0) FAR  w(0) 19149.
	create_child: MAIN (6, 9) FAR 19427 U 0.00
expand: MAIN (6, 0) FAR  w(0) 19427.
	create_child: MAIN (5, 9) FAR 19686 U 0.00
expand: MAIN (5, 0) FAR  w(0) 19686.
	create_child: MAIN (4, 9) FAR 19859 U 0.00
expand: MAIN (4, 0) FAR  w(0) 19859.
	create_child: MAIN (3, 9) FAR 20045 U 0.00
expand: MAIN (3, 0) FAR  w(0) 20045.
	create_child: MAIN (2, 9) FAR 20206 U 0.00
expand: MAIN (2, 0) FAR  w(0) 20206
Matrix
1, 1, 

. F 0.00
expand: MAIN (3, 0) FAR  w(0) 20045
Matrix
1, 1, 

. F 0.00
expand: MAIN (4, 0) FAR  w(0) 19859
Matrix
1, 1, 

. F 0.00
expand: MAIN (5, 0) FAR  w(0) 19686
Matrix
1, 1, 

. F 0.00
expand: MAIN (6, 0) FAR  w(0) 19427
Matrix
1, 1, 

. F 0.00
expand: MAIN (7, 0) FAR  w(0) 19149
Matrix
1, 

. F 0.00
expand: MAIN (8, 0) FAR  w(0) 3353.
	create_child: MAIN (7, 9) FAR 20831 U 0.00
expand: MAIN (7, 0) FAR  w(0) 20831.
	create_child: MAIN (6, 9) FAR 20895 U 0.00
expand: MAIN (6, 0) FAR  w(0) 20895.
	create_child: MAIN (5, 9) FAR 20914 U 0.00
expand: MAIN (5, 0) FAR  w(0) 20914.
	create_child: MAIN (4, 9) FAR 20887 U 0.00
expand: MAIN (4, 0) FAR  w(0) 20887.
	create_child: MAIN (3, 9) FAR 21014 U 0.00
expand: MAIN (3, 0) FAR  w(0) 21014.
	create_child: MAIN (2, 9) FAR 20990 U 0.00
expand: MAIN (2, 0) FAR  w(0) 20990
Matrix
1, 

. F 0.00
expand: MAIN (3, 0) FAR  w(0) 21014
Matrix
1, 

. F 0.00
expand: MAIN (4, 0) FAR  w(0) 20887. F 0.00
expand: MAIN (5, 0) FAR  w(0) 20914. F 0.00
expand: MAIN (6, 0) FAR  w(0) 20895. F 0.00
expand: MAIN (7, 0) FAR  w(0) 20831. F 0.00
expand: MAIN (8, 0) FAR  w(0) 3353. F 0.00
expand: query!0 (9, 0) FAR  w(0) 1. F 0.00
(spacer::context::check_reachability :time 0.09 :before-memory 8.15 :after-memory 8.58)
Propagating: 2 3 4 5 6 7 8 9  ! 10 
(spacer::context::propagate :time 0.03 :before-memory 8.58 :after-memory 8.68)
Entering level 10
BRUNCH_STAT max_query_lvl 9
BRUNCH_STAT num_queries 86
BRUNCH_STAT num_reach_queries 0
BRUNCH_STAT num_reach_reuse 0
BRUNCH_STAT inductive_lvl 0
BRUNCH_STAT max_depth 10
BRUNCH_STAT cex_depth 0
expand: query!0 (10, 0) FAR  w(0) 1.
	create_child: MAIN (9, 10) FAR 3353 U 0.00
expand: MAIN (9, 0) FAR  w(0) 3353.
	create_child: MAIN (8, 10) FAR 23278 U 0.00
expand: MAIN (8, 0) FAR  w(0) 23278.
	create_child: MAIN (7, 10) FAR 23351 U 0.00
expand: MAIN (7, 0) FAR  w(0) 23351.
	create_child: MAIN (6, 10) FAR 23463 U 0.00
expand: MAIN (6, 0) FAR  w(0) 23463.
	create_child: MAIN (5, 10) FAR 23402 U 0.00
expand: MAIN (5, 0) FAR  w(0) 23402.
	create_child: MAIN (4, 10) FAR 23309 U 0.00
expand: MAIN (4, 0) FAR  w(0) 23309.
	create_child: MAIN (3, 10) FAR 23432 U 0.00
expand: MAIN (3, 0) FAR  w(0) 23432.
	create_child: MAIN (2, 10) FAR 23589 U 0.00
expand: MAIN (2, 0) FAR  w(0) 23589
Matrix
1, 1, 

. F 0.00
expand: MAIN (3, 0) FAR  w(0) 23432
Matrix
1, 1, 

. F 0.00
expand: MAIN (4, 0) FAR  w(0) 23309
Matrix
1, 1, 

. F 0.00
expand: MAIN (5, 0) FAR  w(0) 23402
Matrix
1, 1, 

. F 0.00
expand: MAIN (6, 0) FAR  w(0) 23463
Matrix
1, 1, 

. F 0.00
expand: MAIN (7, 0) FAR  w(0) 23351
Matrix
1, 1, 

. F 0.00
expand: MAIN (8, 0) FAR  w(0) 23278.
	create_child: MAIN (7, 10) FAR 24262 U 0.00
expand: MAIN (7, 0) FAR  w(0) 24262.
	create_child: MAIN (6, 10) FAR 24253 U 0.00
expand: MAIN (6, 0) FAR  w(0) 24253.
	create_child: MAIN (5, 10) FAR 24006 U 0.00
expand: MAIN (5, 0) FAR  w(0) 24006.
	create_child: MAIN (4, 10) FAR 24059 U 0.00
expand: MAIN (4, 0) FAR  w(0) 24059.
	create_child: MAIN (3, 10) FAR 24291 U 0.00
expand: MAIN (3, 0) FAR  w(0) 24291.
	create_child: MAIN (2, 10) FAR 24352 U 0.00
expand: MAIN (2, 0) FAR  w(0) 24352.
	create_child: MAIN (1, 10) FAR 24360 U 0.00
expand: MAIN (1, 0) FAR  w(0) 24360. F 0.00
expand: MAIN (2, 0) FAR  w(0) 24352. F 0.00
expand: MAIN (3, 0) FAR  w(0) 24291. F 0.00
expand: MAIN (4, 0) FAR  w(0) 24059. F 0.00
expand: MAIN (5, 0) FAR  w(0) 24006. F 0.00
expand: MAIN (6, 0) FAR  w(0) 24253. F 0.00
expand: MAIN (7, 0) FAR  w(0) 24262. F 0.00
expand: MAIN (8, 0) FAR  w(0) 23278. F 0.00
expand: MAIN (9, 0) FAR  w(0) 3353.
	create_child: MAIN (8, 10) FAR 17273 U 0.00
expand: MAIN (8, 0) FAR  w(0) 17273.
	create_child: MAIN (7, 10) FAR 25318 U 0.00
expand: MAIN (7, 0) FAR  w(0) 25318.
	create_child: MAIN (6, 10) FAR 25328 U 0.00
expand: MAIN (6, 0) FAR  w(0) 25328.
	create_child: MAIN (5, 10) FAR 17316 U 0.00
expand: MAIN (5, 0) FAR  w(0) 17316.
	create_child: MAIN (4, 10) FAR 25396 U 0.00
expand: MAIN (4, 0) FAR  w(0) 25396.
	create_child: MAIN (3, 10) FAR 25243 U 0.00
expand: MAIN (3, 0) FAR  w(0) 25243.
	create_child: MAIN (2, 10) FAR 25489 U 0.00
expand: MAIN (2, 0) FAR  w(0) 25489. F 0.00
expand: MAIN (3, 0) FAR  w(0) 25243. F 0.00
expand: MAIN (4, 0) FAR  w(0) 25396. F 0.00
expand: MAIN (5, 0) FAR  w(0) 17316. F 0.00
expand: MAIN (6, 0) FAR  w(0) 25328. F 0.00
expand: MAIN (7, 0) FAR  w(0) 25318. F 0.00
expand: MAIN (8, 0) FAR  w(0) 17273. F 0.00
expand: MAIN (9, 0) FAR  w(0) 3353. F 0.00
expand: query!0 (10, 0) FAR  w(0) 1. F 0.00
(spacer::context::check_reachability :time 0.08 :before-memory 8.68 :after-memory 9.62)
Propagating: 1 2 3 4 5 6 7 8 9 10  ! 11 
(spacer::context::propagate :time 0.05 :before-memory 9.62 :after-memory 10.00)
Entering level 11
BRUNCH_STAT max_query_lvl 10
BRUNCH_STAT num_queries 108
BRUNCH_STAT num_reach_queries 0
BRUNCH_STAT num_reach_reuse 0
BRUNCH_STAT inductive_lvl 0
BRUNCH_STAT max_depth 11
BRUNCH_STAT cex_depth 0
expand: query!0 (11, 0) FAR  w(0) 1.
	create_child: MAIN (10, 11) FAR 3353 U 0.00
expand: MAIN (10, 0) FAR  w(0) 3353.
	create_child: MAIN (9, 11) FAR 27815 U 0.00
expand: MAIN (9, 0) FAR  w(0) 27815.
	create_child: MAIN (8, 11) FAR 28679 U 0.00
expand: MAIN (8, 0) FAR  w(0) 28679.
	create_child: MAIN (7, 11) FAR 28580 U 0.00
expand: MAIN (7, 0) FAR  w(0) 28580.
	create_child: MAIN (6, 11) FAR 27814 U 0.00
expand: MAIN (6, 0) FAR  w(0) 27814.
	create_child: MAIN (5, 11) FAR 28723 U 0.00
expand: MAIN (5, 0) FAR  w(0) 28723.
	create_child: MAIN (4, 11) FAR 27801 U 0.00
expand: MAIN (4, 0) FAR  w(0) 27801.
	create_child: MAIN (3, 11) FAR 28860 U 0.00
expand: MAIN (3, 0) FAR  w(0) 28860.
	create_child: MAIN (2, 11) FAR 28877 U 0.00
expand: MAIN (2, 0) FAR  w(0) 28877.
	create_child: MAIN (1, 11) FAR 28862 U 0.00
expand: MAIN (1, 0) FAR  w(0) 28862. F 0.00
expand: MAIN (2, 0) FAR  w(0) 28877
Matrix
1, 

. F 0.00
expand: MAIN (3, 0) FAR  w(0) 28860. F 0.00
expand: MAIN (4, 0) FAR  w(0) 27801.
	create_child: MAIN (3, 11) FAR 29089 U 0.00
expand: MAIN (3, 0) FAR  w(0) 29089. F 0.00
expand: MAIN (4, 0) FAR  w(0) 27801
Matrix
1, 

. F 0.00
expand: MAIN (5, 0) FAR  w(0) 28723. F 0.00
expand: MAIN (6, 0) FAR  w(0) 27814. F 0.00
expand: MAIN (7, 0) FAR  w(0) 28580. F 0.00
expand: MAIN (8, 0) FAR  w(0) 28679. F 0.00
expand: MAIN (9, 0) FAR  w(0) 27815. F 0.00
expand: MAIN (10, 0) FAR  w(0) 3353. F 0.00
expand: query!0 (11, 0) FAR  w(0) 1. F 0.00
(spacer::context::check_reachability :time 0.04 :before-memory 10.00 :after-memory 10.15)
Propagating: 1 2 3 4 5 6 7 8 9 10 11  ! 12 
(spacer::context::propagate :time 0.06 :before-memory 10.15 :after-memory 10.35)
Entering level 12
BRUNCH_STAT max_query_lvl 11
BRUNCH_STAT num_queries 119
BRUNCH_STAT num_reach_queries 0
BRUNCH_STAT num_reach_reuse 0
BRUNCH_STAT inductive_lvl 0
BRUNCH_STAT max_depth 12
BRUNCH_STAT cex_depth 0
expand: query!0 (12, 0) FAR  w(0) 1.
	create_child: MAIN (11, 12) FAR 3353 U 0.00
expand: MAIN (11, 0) FAR  w(0) 3353.
	create_child: MAIN (10, 12) FAR 27815 U 0.00
expand: MAIN (10, 0) FAR  w(0) 27815.
	create_child: MAIN (9, 12) FAR 31945 U 0.00
expand: MAIN (9, 0) FAR  w(0) 31945.
	create_child: MAIN (8, 12) FAR 31963 U 0.00
expand: MAIN (8, 0) FAR  w(0) 31963.
	create_child: MAIN (7, 12) FAR 31005 U 0.00
expand: MAIN (7, 0) FAR  w(0) 31005.
	create_child: MAIN (6, 12) FAR 28723 U 0.00
expand: MAIN (6, 0) FAR  w(0) 28723.
	create_child: MAIN (5, 12) FAR 31864 U 0.00
expand: MAIN (5, 0) FAR  w(0) 31864.
	create_child: MAIN (4, 12) FAR 28860 U 0.00
expand: MAIN (4, 0) FAR  w(0) 28860.
	create_child: MAIN (3, 12) FAR 31903 U 0.00
expand: MAIN (3, 0) FAR  w(0) 31903.
	create_child: MAIN (2, 12) FAR 28862 U 0.00
expand: MAIN (2, 0) FAR  w(0) 28862.
	create_child: MAIN (1, 12) FAR 31886 U 0.00
expand: MAIN (1, 0) FAR  w(0) 31886. F 0.00
expand: MAIN (2, 0) FAR  w(0) 28862. F 0.00
expand: MAIN (3, 0) FAR  w(0) 31903
Matrix
1, 

. F 0.00
expand: MAIN (4, 0) FAR  w(0) 28860
Matrix
1, 

. F 0.00
expand: MAIN (5, 0) FAR  w(0) 31864. F 0.00
expand: MAIN (6, 0) FAR  w(0) 28723. F 0.00
expand: MAIN (7, 0) FAR  w(0) 31005. F 0.00
expand: MAIN (8, 0) FAR  w(0) 31963. F 0.00
expand: MAIN (9, 0) FAR  w(0) 31945. F 0.00
expand: MAIN (10, 0) FAR  w(0) 27815. F 0.00
expand: MAIN (11, 0) FAR  w(0) 3353. F 0.00
expand: query!0 (12, 0) FAR  w(0) 1. F 0.00
(spacer::context::check_reachability :time 0.04 :before-memory 10.35 :after-memory 10.48)
Propagating: 1 2 3 4 5 6 7 8 9 10 11 12  ! 13 
(spacer::context::propagate :time 0.06 :before-memory 10.48 :after-memory 10.48)
Entering level 13
BRUNCH_STAT max_query_lvl 12
BRUNCH_STAT num_queries 130
BRUNCH_STAT num_reach_queries 0
BRUNCH_STAT num_reach_reuse 0
BRUNCH_STAT inductive_lvl 0
BRUNCH_STAT max_depth 13
BRUNCH_STAT cex_depth 0
expand: query!0 (13, 0) FAR  w(0) 1.
	create_child: MAIN (12, 13) FAR 3353 U 0.00
expand: MAIN (12, 0) FAR  w(0) 3353.
	create_child: MAIN (11, 13) FAR 27815 U 0.00
expand: MAIN (11, 0) FAR  w(0) 27815.
	create_child: MAIN (10, 13) FAR 28679 U 0.00
expand: MAIN (10, 0) FAR  w(0) 28679.
	create_child: MAIN (9, 13) FAR 28580 U 0.00
expand: MAIN (9, 0) FAR  w(0) 28580.
	create_child: MAIN (8, 13) FAR 27814 U 0.00
expand: MAIN (8, 0) FAR  w(0) 27814.
	create_child: MAIN (7, 13) FAR 34376 U 0.00
expand: MAIN (7, 0) FAR  w(0) 34376.
	create_child: MAIN (6, 13) FAR 27801 U 0.00
expand: MAIN (6, 0) FAR  w(0) 27801.
	create_child: MAIN (5, 13) FAR 28860 U 0.00
expand: MAIN (5, 0) FAR  w(0) 28860.
	create_child: MAIN (4, 13) FAR 34507 U 0.00
expand: MAIN (4, 0) FAR  w(0) 34507.
	create_child: MAIN (3, 13) FAR 34382 U 0.00
expand: MAIN (3, 0) FAR  w(0) 34382.
	create_child: MAIN (2, 13) FAR 34521 U 0.00
expand: MAIN (2, 0) FAR  w(0) 34521. F 0.00
expand: MAIN (3, 0) FAR  w(0) 34382
Matrix
1, 

. F 0.00
expand: MAIN (4, 0) FAR  w(0) 34507. F 0.00
expand: MAIN (5, 0) FAR  w(0) 28860. F 0.00
expand: MAIN (6, 0) FAR  w(0) 27801. F 0.00
expand: MAIN (7, 0) FAR  w(0) 34376. F 0.00
expand: MAIN (8, 0) FAR  w(0) 27814. F 0.00
expand: MAIN (9, 0) FAR  w(0) 28580. F 0.00
expand: MAIN (10, 0) FAR  w(0) 28679. F 0.00
expand: MAIN (11, 0) FAR  w(0) 27815. F 0.00
expand: MAIN (12, 0) FAR  w(0) 3353. F 0.00
expand: query!0 (13, 0) FAR  w(0) 1. F 0.00
(spacer::context::check_reachability :time 0.04 :before-memory 10.48 :after-memory 10.66)
Propagating: 2 3 4 5 6 7 8 9 10 11 12 13  ! 14 
(spacer::context::propagate :time 0.06 :before-memory 10.66 :after-memory 10.76)
Entering level 14
BRUNCH_STAT max_query_lvl 13
BRUNCH_STAT num_queries 141
BRUNCH_STAT num_reach_queries 0
BRUNCH_STAT num_reach_reuse 0
BRUNCH_STAT inductive_lvl 0
BRUNCH_STAT max_depth 14
BRUNCH_STAT cex_depth 0
expand: query!0 (14, 0) FAR  w(0) 1.
	create_child: MAIN (13, 14) FAR 3353 U 0.00
expand: MAIN (13, 0) FAR  w(0) 3353.
	create_child: MAIN (12, 14) FAR 27815 U 0.00
expand: MAIN (12, 0) FAR  w(0) 27815.
	create_child: MAIN (11, 14) FAR 28679 U 0.00
expand: MAIN (11, 0) FAR  w(0) 28679.
	create_child: MAIN (10, 14) FAR 28580 U 0.00
expand: MAIN (10, 0) FAR  w(0) 28580.
	create_child: MAIN (9, 14) FAR 27814 U 0.00
expand: MAIN (9, 0) FAR  w(0) 27814.
	create_child: MAIN (8, 14) FAR 28723 U 0.00
expand: MAIN (8, 0) FAR  w(0) 28723.
	create_child: MAIN (7, 14) FAR 27801 U 0.00
expand: MAIN (7, 0) FAR  w(0) 27801.
	create_child: MAIN (6, 14) FAR 28860 U 0.00
expand: MAIN (6, 0) FAR  w(0) 28860.
	create_child: MAIN (5, 14) FAR 36600 U 0.00
expand: MAIN (5, 0) FAR  w(0) 36600.
	create_child: MAIN (4, 14) FAR 36585 U 0.00
expand: MAIN (4, 0) FAR  w(0) 36585.
	create_child: MAIN (3, 14) FAR 36854 U 0.00
expand: MAIN (3, 0) FAR  w(0) 36854.
	create_child: MAIN (2, 14) FAR 36928 U 0.00
expand: MAIN (2, 0) FAR  w(0) 36928
Matrix
1, 

. F 0.01
expand: MAIN (3, 0) FAR  w(0) 36854
Matrix
1, 

. F 0.01
expand: MAIN (4, 0) FAR  w(0) 36585. F 0.00
expand: MAIN (5, 0) FAR  w(0) 36600.
	create_child: MAIN (4, 14) FAR 37509 U 0.00
expand: MAIN (4, 0) FAR  w(0) 37509. F 0.00
expand: MAIN (5, 0) FAR  w(0) 36600.
	create_child: MAIN (4, 14) FAR 37684 U 0.00
expand: MAIN (4, 0) FAR  w(0) 37684.
	create_child: MAIN (3, 14) FAR 37473 U 0.00
expand: MAIN (3, 0) FAR  w(0) 37473. F 0.00
expand: MAIN (4, 0) FAR  w(0) 37684. F 0.00
expand: MAIN (5, 0) FAR  w(0) 36600. F 0.00
expand: MAIN (6, 0) FAR  w(0) 28860.
	create_child: MAIN (5, 14) FAR 37964 U 0.00
expand: MAIN (5, 0) FAR  w(0) 37964.
	create_child: MAIN (4, 14) FAR 38140 U 0.00
expand: MAIN (4, 0) FAR  w(0) 38140.
	create_child: MAIN (3, 14) FAR 37460 U 0.00
expand: MAIN (3, 0) FAR  w(0) 37460.
	create_child: MAIN (2, 14) FAR 37983 U 0.00
expand: MAIN (2, 0) FAR  w(0) 37983.
	create_child: MAIN (1, 14) FAR 38085 U 0.00
expand: MAIN (1, 0) FAR  w(0) 38085. F 0.00
expand: MAIN (2, 0) FAR  w(0) 37983. F 0.00
expand: MAIN (3, 0) FAR  w(0) 37460.
	create_child: MAIN (2, 14) FAR 38128 U 0.00
expand: MAIN (2, 0) FAR  w(0) 38128. F 0.00
expand: MAIN (3, 0) FAR  w(0) 37460. F 0.00
expand: MAIN (4, 0) FAR  w(0) 38140.
	create_child: MAIN (3, 14) FAR 38677 U 0.00
expand: MAIN (3, 0) FAR  w(0) 38677. F 0.00
expand: MAIN (4, 0) FAR  w(0) 38140.
	create_child: MAIN (3, 14) FAR 38937 U 0.00
expand: MAIN (3, 0) FAR  w(0) 38937. F 0.00
expand: MAIN (4, 0) FAR  w(0) 38140. F 0.00
expand: MAIN (5, 0) FAR  w(0) 37964.
	create_child: MAIN (4, 14) FAR 39149 U 0.00
expand: MAIN (4, 0) FAR  w(0) 39149
Matrix
1, 

. F 0.01
expand: MAIN (5, 0) FAR  w(0) 37964. F 0.00
expand: MAIN (6, 0) FAR  w(0) 28860.
	create_child: MAIN (5, 14) FAR 39615 U 0.00
expand: MAIN (5, 0) FAR  w(0) 39615. F 0.00
expand: MAIN (6, 0) FAR  w(0) 28860. F 0.00
expand: MAIN (7, 0) FAR  w(0) 27801.
	create_child: MAIN (6, 14) FAR 40105 U 0.00
expand: MAIN (6, 0) FAR  w(0) 40105.
	create_child: MAIN (5, 14) FAR 40314 U 0.00
expand: MAIN (5, 0) FAR  w(0) 40314.
	create_child: MAIN (4, 14) FAR 40183 U 0.00
expand: MAIN (4, 0) FAR  w(0) 40183.
	create_child: MAIN (3, 14) FAR 40250 U 0.00
expand: MAIN (3, 0) FAR  w(0) 40250.
	create_child: MAIN (2, 14) FAR 40043 U 0.00
expand: MAIN (2, 0) FAR  w(0) 40043.
	create_child: MAIN (1, 14) FAR 40056 U 0.00
expand: MAIN (1, 0) FAR  w(0) 40056. F 0.00
expand: MAIN (2, 0) FAR  w(0) 40043. F 0.00
expand: MAIN (3, 0) FAR  w(0) 40250. F 0.00
expand: MAIN (4, 0) FAR  w(0) 40183. F 0.00
expand: MAIN (5, 0) FAR  w(0) 40314. F 0.00
expand: MAIN (6, 0) FAR  w(0) 40105. F 0.00
expand: MAIN (7, 0) FAR  w(0) 27801. F 0.00
expand: MAIN (8, 0) FAR  w(0) 28723. F 0.00
expand: MAIN (9, 0) FAR  w(0) 27814. F 0.00
expand: MAIN (10, 0) FAR  w(0) 28580. F 0.00
expand: MAIN (11, 0) FAR  w(0) 28679. F 0.00
expand: MAIN (12, 0) FAR  w(0) 27815. F 0.00
expand: MAIN (13, 0) FAR  w(0) 3353. F 0.00
expand: query!0 (14, 0) FAR  w(0) 1. F 0.00
(spacer::context::check_reachability :time 0.16 :before-memory 10.76 :after-memory 11.23)
Propagating: 1 2 3 4 5 6 7 8 9 10 11 12 13 14  ! 15 
(spacer::context::propagate :time 0.09 :before-memory 11.23 :after-memory 11.56)
Entering level 15
BRUNCH_STAT max_query_lvl 14
BRUNCH_STAT num_queries 172
BRUNCH_STAT num_reach_queries 0
BRUNCH_STAT num_reach_reuse 0
BRUNCH_STAT inductive_lvl 0
BRUNCH_STAT max_depth 15
BRUNCH_STAT cex_depth 0
expand: query!0 (15, 0) FAR  w(0) 1.
	create_child: MAIN (14, 15) FAR 3353 U 0.00
expand: MAIN (14, 0) FAR  w(0) 3353.
	create_child: MAIN (13, 15) FAR 43154 U 0.00
expand: MAIN (13, 0) FAR  w(0) 43154.
	create_child: MAIN (12, 15) FAR 43275 U 0.00
expand: MAIN (12, 0) FAR  w(0) 43275.
	create_child: MAIN (11, 15) FAR 43292 U 0.00
expand: MAIN (11, 0) FAR  w(0) 43292.
	create_child: MAIN (10, 15) FAR 43248 U 0.00
expand: MAIN (10, 0) FAR  w(0) 43248.
	create_child: MAIN (9, 15) FAR 43350 U 0.00
expand: MAIN (9, 0) FAR  w(0) 43350.
	create_child: MAIN (8, 15) FAR 43256 U 0.00
expand: MAIN (8, 0) FAR  w(0) 43256.
	create_child: MAIN (7, 15) FAR 43445 U 0.00
expand: MAIN (7, 0) FAR  w(0) 43445.
	create_child: MAIN (6, 15) FAR 43186 U 0.00
expand: MAIN (6, 0) FAR  w(0) 43186.
	create_child: MAIN (5, 15) FAR 43468 U 0.00
expand: MAIN (5, 0) FAR  w(0) 43468.
	create_child: MAIN (4, 15) FAR 43345 U 0.00
expand: MAIN (4, 0) FAR  w(0) 43345. F 0.00
expand: MAIN (5, 0) FAR  w(0) 43468.
	create_child: MAIN (4, 15) FAR 43430 U 0.00
expand: MAIN (4, 0) FAR  w(0) 43430. F 0.00
expand: MAIN (5, 0) FAR  w(0) 43468. F 0.00
expand: MAIN (6, 0) FAR  w(0) 43186.
	create_child: MAIN (5, 15) FAR 43911 U 0.00
expand: MAIN (5, 0) FAR  w(0) 43911. F 0.00
expand: MAIN (6, 0) FAR  w(0) 43186. F 0.01
expand: MAIN (7, 0) FAR  w(0) 43445.
	create_child: MAIN (6, 15) FAR 44543 U 0.00
expand: MAIN (6, 0) FAR  w(0) 44543. F 0.01
expand: MAIN (7, 0) FAR  w(0) 43445.
	create_child: MAIN (6, 15) FAR 37964 U 0.00
expand: MAIN (6, 0) FAR  w(0) 37964.
	create_child: MAIN (5, 15) FAR 38140 U 0.00
expand: MAIN (5, 0) FAR  w(0) 38140.
	create_child: MAIN (4, 15) FAR 37460 U 0.00
expand: MAIN (4, 0) FAR  w(0) 37460.
	create_child: MAIN (3, 15) FAR 45030 U 0.00
expand: MAIN (3, 0) FAR  w(0) 45030.
	create_child: MAIN (2, 15) FAR 45074 U 0.00
expand: MAIN (2, 0) FAR  w(0) 45074.
	create_child: MAIN (1, 15) FAR 45275 U 0.00
expand: MAIN (1, 0) FAR  w(0) 45275. F 0.00
expand: MAIN (2, 0) FAR  w(0) 45074. F 0.00
expand: MAIN (3, 0) FAR  w(0) 45030. F 0.00
expand: MAIN (4, 0) FAR  w(0) 37460.
	create_child: MAIN (3, 15) FAR 45344 U 0.00
expand: MAIN (3, 0) FAR  w(0) 45344.
	create_child: MAIN (2, 15) FAR 45162 U 0.00
expand: MAIN (2, 0) FAR  w(0) 45162.
	create_child: MAIN (1, 15) FAR 44291 U 0.00
expand: MAIN (1, 0) FAR  w(0) 44291. F 0.00
expand: MAIN (2, 0) FAR  w(0) 45162
Matrix
1, 1, 

. F 0.01
expand: MAIN (3, 0) FAR  w(0) 45344. F 0.00
expand: MAIN (4, 0) FAR  w(0) 37460. F 0.00
expand: MAIN (5, 0) FAR  w(0) 38140. F 0.00
expand: MAIN (6, 0) FAR  w(0) 37964. F 0.00
expand: MAIN (7, 0) FAR  w(0) 43445. F 0.00
expand: MAIN (8, 0) FAR  w(0) 43256. F 0.00
expand: MAIN (9, 0) FAR  w(0) 43350. F 0.00
expand: MAIN (10, 0) FAR  w(0) 43248. F 0.00
expand: MAIN (11, 0) FAR  w(0) 43292. F 0.00
expand: MAIN (12, 0) FAR  w(0) 43275. F 0.00
expand: MAIN (13, 0) FAR  w(0) 43154. F 0.00
expand: MAIN (14, 0) FAR  w(0) 3353. F 0.00
expand: query!0 (15, 0) FAR  w(0) 1. F 0.00
(spacer::context::check_reachability :time 0.12 :before-memory 11.56 :after-memory 12.04)
Propagating: 1 2 3 4 5 6 7 8 9 10 11 12 13 14 15  ! 16 
(spacer::context::propagate :time 0.12 :before-memory 12.04 :after-memory 13.49)
Entering level 16
BRUNCH_STAT max_query_lvl 15
BRUNCH_STAT num_queries 195
BRUNCH_STAT num_reach_queries 0
BRUNCH_STAT num_reach_reuse 0
BRUNCH_STAT inductive_lvl 0
BRUNCH_STAT max_depth 16
BRUNCH_STAT cex_depth 0
expand: query!0 (16, 0) FAR  w(0) 1.
	create_child: MAIN (15, 16) FAR 3353 U 0.00
expand: MAIN (15, 0) FAR  w(0) 3353.
	create_child: MAIN (14, 16) FAR 49320 U 0.00
expand: MAIN (14, 0) FAR  w(0) 49320.
	create_child: MAIN (13, 16) FAR 49381 U 0.00
expand: MAIN (13, 0) FAR  w(0) 49381.
	create_child: MAIN (12, 16) FAR 49388 U 0.00
expand: MAIN (12, 0) FAR  w(0) 49388.
	create_child: MAIN (11, 16) FAR 49411 U 0.00
expand: MAIN (11, 0) FAR  w(0) 49411.
	create_child: MAIN (10, 16) FAR 49442 U 0.00
expand: MAIN (10, 0) FAR  w(0) 49442.
	create_child: MAIN (9, 16) FAR 49501 U 0.00
expand: MAIN (9, 0) FAR  w(0) 49501.
	create_child: MAIN (8, 16) FAR 49429 U 0.00
expand: MAIN (8, 0) FAR  w(0) 49429.
	create_child: MAIN (7, 16) FAR 49365 U 0.00
expand: MAIN (7, 0) FAR  w(0) 49365.
	create_child: MAIN (6, 16) FAR 49502 U 0.00
expand: MAIN (6, 0) FAR  w(0) 49502.
	create_child: MAIN (5, 16) FAR 49612 U 0.00
expand: MAIN (5, 0) FAR  w(0) 49612.
	create_child: MAIN (4, 16) FAR 49418 U 0.00
expand: MAIN (4, 0) FAR  w(0) 49418.
	create_child: MAIN (3, 16) FAR 49603 U 0.00
expand: MAIN (3, 0) FAR  w(0) 49603.
	create_child: MAIN (2, 16) FAR 49459 U 0.00
expand: MAIN (2, 0) FAR  w(0) 49459.
	create_child: MAIN (1, 16) FAR 49629 U 0.00
expand: MAIN (1, 0) FAR  w(0) 49629. F 0.00
expand: MAIN (2, 0) FAR  w(0) 49459. F 0.00
expand: MAIN (3, 0) FAR  w(0) 49603
Matrix
1, 

. F 0.00
expand: MAIN (4, 0) FAR  w(0) 49418. F 0.00
expand: MAIN (5, 0) FAR  w(0) 49612. F 0.00
expand: MAIN (6, 0) FAR  w(0) 49502. F 0.00
expand: MAIN (7, 0) FAR  w(0) 49365. F 0.00
expand: MAIN (8, 0) FAR  w(0) 49429. F 0.00
expand: MAIN (9, 0) FAR  w(0) 49501. F 0.00
expand: MAIN (10, 0) FAR  w(0) 49442. F 0.00
expand: MAIN (11, 0) FAR  w(0) 49411. F 0.00
expand: MAIN (12, 0) FAR  w(0) 49388. F 0.00
expand: MAIN (13, 0) FAR  w(0) 49381. F 0.00
expand: MAIN (14, 0) FAR  w(0) 49320. F 0.00
expand: MAIN (15, 0) FAR  w(0) 3353. F 0.00
expand: query!0 (16, 0) FAR  w(0) 1. F 0.00
(spacer::context::check_reachability :time 0.06 :before-memory 13.49 :after-memory 13.59)
Propagating: 1 2 3 4 5 6 7 8 9 10 11 12 13 14 15 16  ! 17 
(spacer::context::propagate :time 0.12 :before-memory 13.59 :after-memory 13.88)
Entering level 17
BRUNCH_STAT max_query_lvl 16
BRUNCH_STAT num_queries 210
BRUNCH_STAT num_reach_queries 0
BRUNCH_STAT num_reach_reuse 0
BRUNCH_STAT inductive_lvl 0
BRUNCH_STAT max_depth 17
BRUNCH_STAT cex_depth 0
expand: query!0 (17, 0) FAR  w(0) 1.
	create_child: MAIN (16, 17) FAR 3353 U 0.00
expand: MAIN (16, 0) FAR  w(0) 3353.
	create_child: MAIN (15, 17) FAR 49320 U 0.00
expand: MAIN (15, 0) FAR  w(0) 49320.
	create_child: MAIN (14, 17) FAR 49381 U 0.00
expand: MAIN (14, 0) FAR  w(0) 49381.
	create_child: MAIN (13, 17) FAR 52060 U 0.00
expand: MAIN (13, 0) FAR  w(0) 52060.
	create_child: MAIN (12, 17) FAR 53119 U 0.00
expand: MAIN (12, 0) FAR  w(0) 53119.
	create_child: MAIN (11, 17) FAR 49442 U 0.01
expand: MAIN (11, 0) FAR  w(0) 49442.
	create_child: MAIN (10, 17) FAR 49501 U 0.01
expand: MAIN (10, 0) FAR  w(0) 49501.
	create_child: MAIN (9, 17) FAR 49429 U 0.00
expand: MAIN (9, 0) FAR  w(0) 49429.
	create_child: MAIN (8, 17) FAR 49365 U 0.00
expand: MAIN (8, 0) FAR  w(0) 49365.
	create_child: MAIN (7, 17) FAR 53263 U 0.00
expand: MAIN (7, 0) FAR  w(0) 53263.
	create_child: MAIN (6, 17) FAR 53358 U 0.00
expand: MAIN (6, 0) FAR  w(0) 53358.
	create_child: MAIN (5, 17) FAR 49418 U 0.00
expand: MAIN (5, 0) FAR  w(0) 49418.
	create_child: MAIN (4, 17) FAR 53303 U 0.00
expand: MAIN (4, 0) FAR  w(0) 53303.
	create_child: MAIN (3, 17) FAR 53257 U 0.00
expand: MAIN (3, 0) FAR  w(0) 53257.
	create_child: MAIN (2, 17) FAR 53229 U 0.00
expand: MAIN (2, 0) FAR  w(0) 53229. F 0.00
expand: MAIN (3, 0) FAR  w(0) 53257. F 0.00
expand: MAIN (4, 0) FAR  w(0) 53303.
	create_child: MAIN (3, 17) FAR 53527 U 0.00
expand: MAIN (3, 0) FAR  w(0) 53527. F 0.00
expand: MAIN (4, 0) FAR  w(0) 53303.
	create_child: MAIN (3, 17) FAR 53635 U 0.00
expand: MAIN (3, 0) FAR  w(0) 53635.
	create_child: MAIN (2, 17) FAR 53813 U 0.00
expand: MAIN (2, 0) FAR  w(0) 53813.
	create_child: MAIN (1, 17) FAR 53287 U 0.00
expand: MAIN (1, 0) FAR  w(0) 53287. F 0.00
expand: MAIN (2, 0) FAR  w(0) 53813. F 0.00
expand: MAIN (3, 0) FAR  w(0) 53635. F 0.00
expand: MAIN (4, 0) FAR  w(0) 53303. F 0.00
expand: MAIN (5, 0) FAR  w(0) 49418.
	create_child: MAIN (4, 17) FAR 53599 U 0.00
expand: MAIN (4, 0) FAR  w(0) 53599.
	create_child: MAIN (3, 17) FAR 53667 U 0.00
expand: MAIN (3, 0) FAR  w(0) 53667.
	create_child: MAIN (2, 17) FAR 54138 U 0.00
expand: MAIN (2, 0) FAR  w(0) 54138.
	create_child: MAIN (1, 17) FAR 54096 U 0.00
expand: MAIN (1, 0) FAR  w(0) 54096. F 0.00
expand: MAIN (2, 0) FAR  w(0) 54138. F 0.00
expand: MAIN (3, 0) FAR  w(0) 53667. F 0.00
expand: MAIN (4, 0) FAR  w(0) 53599. F 0.00
expand: MAIN (5, 0) FAR  w(0) 49418.
	create_child: MAIN (4, 17) FAR 53174 U 0.00
expand: MAIN (4, 0) FAR  w(0) 53174.
	create_child: MAIN (3, 17) FAR 49459 U 0.00
expand: MAIN (3, 0) FAR  w(0) 49459.
	create_child: MAIN (2, 17) FAR 53420 U 0.00
expand: MAIN (2, 0) FAR  w(0) 53420
Matrix
1, 

. F 0.01
expand: MAIN (3, 0) FAR  w(0) 49459
Matrix
1, 

. F 0.01
expand: MAIN (4, 0) FAR  w(0) 53174. F 0.00
expand: MAIN (5, 0) FAR  w(0) 49418. F 0.00
expand: MAIN (6, 0) FAR  w(0) 53358.
	create_child: MAIN (5, 17) FAR 54771 U 0.00
expand: MAIN (5, 0) FAR  w(0) 54771.
	create_child: MAIN (4, 17) FAR 54929 U 0.00
expand: MAIN (4, 0) FAR  w(0) 54929.
	create_child: MAIN (3, 17) FAR 54965 U 0.00
expand: MAIN (3, 0) FAR  w(0) 54965.
	create_child: MAIN (2, 17) FAR 54829 U 0.00
expand: MAIN (2, 0) FAR  w(0) 54829.
	create_child: MAIN (1, 17) FAR 54693 U 0.00
expand: MAIN (1, 0) FAR  w(0) 54693. F 0.00
expand: MAIN (2, 0) FAR  w(0) 54829
Matrix
1, 

. F 0.00
expand: MAIN (3, 0) FAR  w(0) 54965. F 0.00
expand: MAIN (4, 0) FAR  w(0) 54929. F 0.00
expand: MAIN (5, 0) FAR  w(0) 54771. F 0.00
expand: MAIN (6, 0) FAR  w(0) 53358. F 0.00
expand: MAIN (7, 0) FAR  w(0) 53263. F 0.00
expand: MAIN (8, 0) FAR  w(0) 49365. F 0.00
expand: MAIN (9, 0) FAR  w(0) 49429. F 0.00
expand: MAIN (10, 0) FAR  w(0) 49501. F 0.00
expand: MAIN (11, 0) FAR  w(0) 49442. F 0.00
expand: MAIN (12, 0) FAR  w(0) 53119. F 0.00
expand: MAIN (13, 0) FAR  w(0) 52060. F 0.00
expand: MAIN (14, 0) FAR  w(0) 49381. F 0.00
expand: MAIN (15, 0) FAR  w(0) 49320. F 0.00
expand: MAIN (16, 0) FAR  w(0) 3353. F 0.00
expand: query!0 (17, 0) FAR  w(0) 1. F 0.00
(spacer::context::check_reachability :time 0.20 :before-memory 13.88 :after-memory 14.33)
Propagating: 1 2 3 4 5 6 7 8 9 10 11 12 13 14 15 16 17  ! 18 
(spacer::context::propagate :time 0.19 :before-memory 14.33 :after-memory 14.62)
Entering level 18
BRUNCH_STAT max_query_lvl 17
BRUNCH_STAT num_queries 241
BRUNCH_STAT num_reach_queries 0
BRUNCH_STAT num_reach_reuse 0
BRUNCH_STAT inductive_lvl 0
BRUNCH_STAT max_depth 18
BRUNCH_STAT cex_depth 0
expand: query!0 (18, 0) FAR  w(0) 1.
	create_child: MAIN (17, 18) FAR 3353 U 0.00
expand: MAIN (17, 0) FAR  w(0) 3353.
	create_child: MAIN (16, 18) FAR 60529 U 0.00
expand: MAIN (16, 0) FAR  w(0) 60529.
	create_child: MAIN (15, 18) FAR 60589 U 0.00
expand: MAIN (15, 0) FAR  w(0) 60589.
	create_child: MAIN (14, 18) FAR 60596 U 0.00
expand: MAIN (14, 0) FAR  w(0) 60596.
	create_child: MAIN (13, 18) FAR 60664 U 0.00
expand: MAIN (13, 0) FAR  w(0) 60664.
	create_child: MAIN (12, 18) FAR 60652 U 0.00
expand: MAIN (12, 0) FAR  w(0) 60652.
	create_child: MAIN (11, 18) FAR 60711 U 0.00
expand: MAIN (11, 0) FAR  w(0) 60711.
	create_child: MAIN (10, 18) FAR 60516 U 0.00
expand: MAIN (10, 0) FAR  w(0) 60516.
	create_child: MAIN (9, 18) FAR 60684 U 0.00
expand: MAIN (9, 0) FAR  w(0) 60684.
	create_child: MAIN (8, 18) FAR 60643 U 0.00
expand: MAIN (8, 0) FAR  w(0) 60643.
	create_child: MAIN (7, 18) FAR 60808 U 0.00
expand: MAIN (7, 0) FAR  w(0) 60808.
	create_child: MAIN (6, 18) FAR 60570 U 0.00
expand: MAIN (6, 0) FAR  w(0) 60570.
	create_child: MAIN (5, 18) FAR 60676 U 0.00
expand: MAIN (5, 0) FAR  w(0) 60676.
	create_child: MAIN (4, 18) FAR 60904 U 0.00
expand: MAIN (4, 0) FAR  w(0) 60904.
	create_child: MAIN (3, 18) FAR 60967 U 0.00
expand: MAIN (3, 0) FAR  w(0) 60967.
	create_child: MAIN (2, 18) FAR 60893 U 0.00
expand: MAIN (2, 0) FAR  w(0) 60893.
	create_child: MAIN (1, 18) FAR 60668 U 0.00
expand: MAIN (1, 0) FAR  w(0) 60668. T 0.00
is-reachable: MAIN (2, 0) FAR 60893 T 0.01
is-reachable: MAIN (3, 0) FAR 60967 T 0.01
is-reachable: MAIN (4, 0) FAR 60904 T 0.01
is-reachable: MAIN (5, 0) FAR 60676 T 0.01
is-reachable: MAIN (6, 0) FAR 60570 T 0.01
is-reachable: MAIN (7, 0) FAR 60808 T 0.01
is-reachable: MAIN (8, 0) FAR 60643 T 0.01
is-reachable: MAIN (9, 0) FAR 60684 T 0.01
is-reachable: MAIN (10, 0) FAR 60516 T 0.01
is-reachable: MAIN (11, 0) FAR 60711 T 0.01
is-reachable: MAIN (12, 0) FAR 60652 T 0.01
is-reachable: MAIN (13, 0) FAR 60664 T 0.01
is-reachable: MAIN (14, 0) FAR 60596 T 0.01
is-reachable: MAIN (15, 0) FAR 60589 T 0.01
is-reachable: MAIN (16, 0) FAR 60529 T 0.01
is-reachable: MAIN (17, 0) FAR 3353 T 0.01
is-reachable: query!0 (18, 0) FAR 1 T 0.01
(spacer::context::check_reachability :time 0.16 :before-memory 14.62 :after-memory 17.13)
BRUNCH_STAT max_query_lvl 18
BRUNCH_STAT num_queries 258
BRUNCH_STAT num_reach_queries 18
BRUNCH_STAT num_reach_reuse 1
BRUNCH_STAT inductive_lvl 0
BRUNCH_STAT max_depth 18
BRUNCH_STAT cex_depth 18
(:SPACER-cex-depth                     18
 :SPACER-max-depth                     18
 :SPACER-max-query-lvl                 18
 :SPACER-num-invariants                21
 :SPACER-num-lemmas                    259
 :SPACER-num-properties                126
 :SPACER-num-queries                   258
 :SPACER-num-reach-queries             18
 :SPACER-num-reuse-reach-facts         1
 :added-eqs                            30303
 :arith-add-rows                       7887
 :arith-assert-diseq                   14028
 :arith-assert-lower                   132302
 :arith-assert-upper                   72294
 :arith-bound-prop                     2858
 :arith-conflicts                      115
 :arith-eq-adapter                     6203
 :arith-fixed-eqs                      6178
 :arith-offset-eqs                     3627
 :arith-pivots                         1489
 :bool-inductive-gen                   241
 :bool-inductive-gen-failures          304
 :conflicts                            1297
 :decisions                            262506
 :del-clause                           978
 :final-checks                         1138
 :minimized-lits                       70
 :mk-bool-var                          10976
 :mk-clause                            10946
 :num-checks                           2293
 :propagations                         787324
 :time.itp_solver.itp_core             0.13
 :time.spacer.init_rules               0.00
 :time.spacer.init_rules.pt.init       0.00
 :time.spacer.solve                    2.04
 :time.spacer.solve.propagate          0.85
 :time.spacer.solve.reach              1.19
 :time.spacer.solve.reach.children     0.27
 :time.spacer.solve.reach.gen.bool_ind 0.20
 :time.spacer.solve.reach.is-reach     0.11
 :time.virtual_solver.proof            0.05
 :time.virtual_solver.smt.total        1.53
 :time.virtual_solver.smt.total.sat    1.24
 :virtual_solver.checks                2293
 :virtual_solver.checks.sat            1138)
BRUNCH_STAT max_query_lvl 18
BRUNCH_STAT num_queries 258
BRUNCH_STAT num_reach_queries 18
BRUNCH_STAT num_reach_reuse 1
BRUNCH_STAT inductive_lvl 0
BRUNCH_STAT max_depth 18
BRUNCH_STAT cex_depth 18

real	0m2.174s
user	0m2.072s
sys	0m0.044s
