(transform N7datalog13mk_coi_filterE...no-op 0s)
(transform N7datalog25mk_interp_tail_simplifierE...15 rules 0s)
(transform N7datalog27mk_quantifier_instantiationE...no-op 0s)
(transform N7datalog8mk_scaleE...no-op 0s)
(transform N7datalog18mk_karr_invariantsE...no-op 0s)
(transform N7datalog14mk_array_blastE...no-op 0s)
(transform N7datalog22mk_subsumption_checkerE...14 rules 0s)
(transform N7datalog12mk_bit_blastE...no-op 0s)
(transform N7datalog15mk_rule_inlinerE...3 rules 0.00641048s)
(transform N7datalog13mk_coi_filterE...no-op 0s)
(transform N7datalog25mk_interp_tail_simplifierE...3 rules 0s)
(transform N7datalog22mk_subsumption_checkerE...no-op 0s)
(transform N7datalog15mk_rule_inlinerE...no-op 0s)
(transform N7datalog13mk_coi_filterE...no-op 0s)
(transform N7datalog25mk_interp_tail_simplifierE...3 rules 0s)
(transform N7datalog22mk_subsumption_checkerE...no-op 0s)
(transform N7datalog15mk_rule_inlinerE...no-op 0s)
(transform N7datalog22mk_subsumption_checkerE...no-op 0s)
(transform N7datalog15mk_rule_inlinerE...no-op 0s)
(transform N7datalog22mk_subsumption_checkerE...no-op 0s)
(transform N7datalog15mk_rule_inlinerE...no-op 0s)
(transform N7datalog22mk_subsumption_checkerE...no-op 0s)
(transform N7datalog8mk_sliceE...no-op 0s)
expand: query!0 (0, 0) FAR  w(0) 1. F 0.00
(spacer::context::check_reachability :time 0.00 :before-memory 4.52 :after-memory 5.06)
Entering level 1
BRUNCH_STAT max_query_lvl 0
BRUNCH_STAT num_queries 0
BRUNCH_STAT num_reach_queries 0
BRUNCH_STAT num_reach_reuse 0
BRUNCH_STAT inductive_lvl 0
BRUNCH_STAT max_depth 1
BRUNCH_STAT cex_depth 0
expand: query!0 (1, 0) FAR  w(0) 1.
	create_child: MAIN (0, 1) FAR 3379 U 0.00
expand: MAIN (0, 0) FAR  w(0) 3379. F 0.00
expand: query!0 (1, 0) FAR  w(0) 1. F 0.00
(spacer::context::check_reachability :time 0.00 :before-memory 5.06 :after-memory 5.86)
Propagating: 0 1  ! 2 
(spacer::context::propagate :time 0.00 :before-memory 5.86 :after-memory 5.86)
Entering level 2
BRUNCH_STAT max_query_lvl 1
BRUNCH_STAT num_queries 1
BRUNCH_STAT num_reach_queries 0
BRUNCH_STAT num_reach_reuse 0
BRUNCH_STAT inductive_lvl 0
BRUNCH_STAT max_depth 2
BRUNCH_STAT cex_depth 0
expand: query!0 (2, 0) FAR  w(0) 1.
	create_child: MAIN (1, 2) FAR 3379 U 0.00
expand: MAIN (1, 0) FAR  w(0) 3379.
	create_child: MAIN (0, 2) FAR 5236 U 0.00
expand: MAIN (0, 0) FAR  w(0) 5236. F 0.00
expand: MAIN (1, 0) FAR  w(0) 3379.
	create_child: MAIN (0, 2) FAR 5387 U 0.00
expand: MAIN (0, 0) FAR  w(0) 5387. F 0.00
expand: MAIN (1, 0) FAR  w(0) 3379.
	create_child: MAIN (0, 2) FAR 5395 U 0.00
expand: MAIN (0, 0) FAR  w(0) 5395. F 0.00
expand: MAIN (1, 0) FAR  w(0) 3379.
	create_child: MAIN (0, 2) FAR 5652 U 0.00
expand: MAIN (0, 0) FAR  w(0) 5652. F 0.00
expand: MAIN (1, 0) FAR  w(0) 3379.
	create_child: MAIN (0, 2) FAR 5765 U 0.00
expand: MAIN (0, 0) FAR  w(0) 5765. F 0.00
expand: MAIN (1, 0) FAR  w(0) 3379.
	create_child: MAIN (0, 2) FAR 5881 U 0.00
expand: MAIN (0, 0) FAR  w(0) 5881. F 0.00
expand: MAIN (1, 0) FAR  w(0) 3379.
	create_child: MAIN (0, 2) FAR 5936 U 0.00
expand: MAIN (0, 0) FAR  w(0) 5936. F 0.00
expand: MAIN (1, 0) FAR  w(0) 3379.
	create_child: MAIN (0, 2) FAR 5996 U 0.00
expand: MAIN (0, 0) FAR  w(0) 5996. F 0.00
expand: MAIN (1, 0) FAR  w(0) 3379.
	create_child: MAIN (0, 2) FAR 6150 U 0.00
expand: MAIN (0, 0) FAR  w(0) 6150. F 0.00
expand: MAIN (1, 0) FAR  w(0) 3379. F 0.00
expand: query!0 (2, 0) FAR  w(0) 1. F 0.00
(spacer::context::check_reachability :time 0.02 :before-memory 5.86 :after-memory 6.28)
Propagating: 0 1 2  ! 3 4 
(spacer::context::propagate :time 0.01 :before-memory 6.28 :after-memory 6.38)
Entering level 3
BRUNCH_STAT max_query_lvl 2
BRUNCH_STAT num_queries 11
BRUNCH_STAT num_reach_queries 0
BRUNCH_STAT num_reach_reuse 0
BRUNCH_STAT inductive_lvl 0
BRUNCH_STAT max_depth 3
BRUNCH_STAT cex_depth 0
expand: query!0 (3, 0) FAR  w(0) 1. F 0.00
(spacer::context::check_reachability :time 0.00 :before-memory 6.38 :after-memory 6.38)
Propagating: 3  ! 4 
(spacer::context::propagate :time 0.00 :before-memory 6.38 :after-memory 6.38)
Entering level 4
BRUNCH_STAT max_query_lvl 3
BRUNCH_STAT num_queries 11
BRUNCH_STAT num_reach_queries 0
BRUNCH_STAT num_reach_reuse 0
BRUNCH_STAT inductive_lvl 0
BRUNCH_STAT max_depth 4
BRUNCH_STAT cex_depth 0
expand: query!0 (4, 0) FAR  w(0) 1.
	create_child: MAIN (3, 4) FAR 3379 U 0.00
expand: MAIN (3, 0) FAR  w(0) 3379.
	create_child: MAIN (2, 4) FAR 7059 U 0.00
expand: MAIN (2, 0) FAR  w(0) 7059. F 0.00
expand: MAIN (3, 0) FAR  w(0) 3379.
	create_child: MAIN (2, 4) FAR 7590 U 0.00
expand: MAIN (2, 0) FAR  w(0) 7590. F 0.00
expand: MAIN (3, 0) FAR  w(0) 3379.
	create_child: MAIN (2, 4) FAR 7654 U 0.00
expand: MAIN (2, 0) FAR  w(0) 7654. F 0.00
expand: MAIN (3, 0) FAR  w(0) 3379.
	create_child: MAIN (2, 4) FAR 7838 U 0.00
expand: MAIN (2, 0) FAR  w(0) 7838. F 0.00
expand: MAIN (3, 0) FAR  w(0) 3379.
	create_child: MAIN (2, 4) FAR 7852 U 0.00
expand: MAIN (2, 0) FAR  w(0) 7852. F 0.00
expand: MAIN (3, 0) FAR  w(0) 3379.
	create_child: MAIN (2, 4) FAR 8184 U 0.00
expand: MAIN (2, 0) FAR  w(0) 8184.
	create_child: MAIN (1, 4) FAR 8473 U 0.00
expand: MAIN (1, 0) FAR  w(0) 8473
Matrix
1, 1, 

. F 0.00
expand: MAIN (2, 0) FAR  w(0) 8184.
	create_child: MAIN (1, 4) FAR 8508 U 0.00
expand: MAIN (1, 0) FAR  w(0) 8508
Matrix
1, 1, 

. F 0.00
expand: MAIN (2, 0) FAR  w(0) 8184
Matrix
1, 

. F 0.00
expand: MAIN (3, 0) FAR  w(0) 3379.
	create_child: MAIN (2, 4) FAR 8763 U 0.00
expand: MAIN (2, 0) FAR  w(0) 8763.
	create_child: MAIN (1, 4) FAR 8917 U 0.00
expand: MAIN (1, 0) FAR  w(0) 8917. F 0.00
expand: MAIN (2, 0) FAR  w(0) 8763. F 0.00
expand: MAIN (3, 0) FAR  w(0) 3379. F 0.00
expand: query!0 (4, 0) FAR  w(0) 1. F 0.00
(spacer::context::check_reachability :time 0.04 :before-memory 6.38 :after-memory 6.73)
Propagating: 1 2 3 4  ! 5 
(spacer::context::propagate :time 0.00 :before-memory 6.73 :after-memory 6.73)
Entering level 5
BRUNCH_STAT max_query_lvl 4
BRUNCH_STAT num_queries 22
BRUNCH_STAT num_reach_queries 0
BRUNCH_STAT num_reach_reuse 0
BRUNCH_STAT inductive_lvl 0
BRUNCH_STAT max_depth 5
BRUNCH_STAT cex_depth 0
expand: query!0 (5, 0) FAR  w(0) 1.
	create_child: MAIN (4, 5) FAR 3379 U 0.00
expand: MAIN (4, 0) FAR  w(0) 3379.
	create_child: MAIN (3, 5) FAR 9431 U 0.00
expand: MAIN (3, 0) FAR  w(0) 9431. F 0.00
expand: MAIN (4, 0) FAR  w(0) 3379.
	create_child: MAIN (3, 5) FAR 9521 U 0.00
expand: MAIN (3, 0) FAR  w(0) 9521.
	create_child: MAIN (2, 5) FAR 9583 U 0.00
expand: MAIN (2, 0) FAR  w(0) 9583. F 0.00
expand: MAIN (3, 0) FAR  w(0) 9521. F 0.00
expand: MAIN (4, 0) FAR  w(0) 3379. F 0.00
expand: query!0 (5, 0) FAR  w(0) 1. F 0.00
(spacer::context::check_reachability :time 0.01 :before-memory 6.73 :after-memory 6.73)
Propagating: 2 3 4 5  ! 6 
(spacer::context::propagate :time 0.00 :before-memory 6.73 :after-memory 6.73)
Entering level 6
BRUNCH_STAT max_query_lvl 5
BRUNCH_STAT num_queries 26
BRUNCH_STAT num_reach_queries 0
BRUNCH_STAT num_reach_reuse 0
BRUNCH_STAT inductive_lvl 0
BRUNCH_STAT max_depth 6
BRUNCH_STAT cex_depth 0
expand: query!0 (6, 0) FAR  w(0) 1.
	create_child: MAIN (5, 6) FAR 3379 U 0.00
expand: MAIN (5, 0) FAR  w(0) 3379.
	create_child: MAIN (4, 6) FAR 10043 U 0.00
expand: MAIN (4, 0) FAR  w(0) 10043.
	create_child: MAIN (3, 6) FAR 10171 U 0.00
expand: MAIN (3, 0) FAR  w(0) 10171.
	create_child: MAIN (2, 6) FAR 10095 U 0.00
expand: MAIN (2, 0) FAR  w(0) 10095.
	create_child: MAIN (1, 6) FAR 10423 U 0.00
expand: MAIN (1, 0) FAR  w(0) 10423
Matrix
1, 

. F 0.00
expand: MAIN (2, 0) FAR  w(0) 10095
Matrix
1, 

. F 0.00
expand: MAIN (3, 0) FAR  w(0) 10171
Matrix
1, 

. F 0.00
expand: MAIN (4, 0) FAR  w(0) 10043. F 0.00
expand: MAIN (5, 0) FAR  w(0) 3379. F 0.00
expand: query!0 (6, 0) FAR  w(0) 1. F 0.00
(spacer::context::check_reachability :time 0.02 :before-memory 6.73 :after-memory 6.89)
Propagating: 1 2 3 4 5 6  ! 7 
(spacer::context::propagate :time 0.01 :before-memory 6.89 :after-memory 6.89)
Entering level 7
BRUNCH_STAT max_query_lvl 6
BRUNCH_STAT num_queries 31
BRUNCH_STAT num_reach_queries 0
BRUNCH_STAT num_reach_reuse 0
BRUNCH_STAT inductive_lvl 0
BRUNCH_STAT max_depth 7
BRUNCH_STAT cex_depth 0
expand: query!0 (7, 0) FAR  w(0) 1.
	create_child: MAIN (6, 7) FAR 3379 U 0.00
expand: MAIN (6, 0) FAR  w(0) 3379.
	create_child: MAIN (5, 7) FAR 10809 U 0.00
expand: MAIN (5, 0) FAR  w(0) 10809. F 0.00
expand: MAIN (6, 0) FAR  w(0) 3379.
	create_child: MAIN (5, 7) FAR 10913 U 0.00
expand: MAIN (5, 0) FAR  w(0) 10913.
	create_child: MAIN (4, 7) FAR 10971 U 0.00
expand: MAIN (4, 0) FAR  w(0) 10971.
	create_child: MAIN (3, 7) FAR 10961 U 0.00
expand: MAIN (3, 0) FAR  w(0) 10961.
	create_child: MAIN (2, 7) FAR 10823 U 0.00
expand: MAIN (2, 0) FAR  w(0) 10823
Matrix
1, 1, 

. F 0.00
expand: MAIN (3, 0) FAR  w(0) 10961.
	create_child: MAIN (2, 7) FAR 11158 U 0.00
expand: MAIN (2, 0) FAR  w(0) 11158. F 0.00
expand: MAIN (3, 0) FAR  w(0) 10961. F 0.00
expand: MAIN (4, 0) FAR  w(0) 10971.
	create_child: MAIN (3, 7) FAR 11817 U 0.00
expand: MAIN (3, 0) FAR  w(0) 11817. F 0.00
expand: MAIN (4, 0) FAR  w(0) 10971.
	create_child: MAIN (3, 7) FAR 11887 U 0.00
expand: MAIN (3, 0) FAR  w(0) 11887. F 0.00
expand: MAIN (4, 0) FAR  w(0) 10971. F 0.01
expand: MAIN (5, 0) FAR  w(0) 10913. F 0.01
expand: MAIN (6, 0) FAR  w(0) 3379.
	create_child: MAIN (5, 7) FAR 11749 U 0.00
expand: MAIN (5, 0) FAR  w(0) 11749.
	create_child: MAIN (4, 7) FAR 13134 U 0.00
expand: MAIN (4, 0) FAR  w(0) 13134.
	create_child: MAIN (3, 7) FAR 13114 U 0.00
expand: MAIN (3, 0) FAR  w(0) 13114.
	create_child: MAIN (2, 7) FAR 13282 U 0.00
expand: MAIN (2, 0) FAR  w(0) 13282. F 0.00
expand: MAIN (3, 0) FAR  w(0) 13114. F 0.00
expand: MAIN (4, 0) FAR  w(0) 13134. F 0.00
expand: MAIN (5, 0) FAR  w(0) 11749. F 0.00
expand: MAIN (6, 0) FAR  w(0) 3379.
	create_child: MAIN (5, 7) FAR 14322 U 0.00
expand: MAIN (5, 0) FAR  w(0) 14322.
	create_child: MAIN (4, 7) FAR 14335 U 0.00
expand: MAIN (4, 0) FAR  w(0) 14335.
	create_child: MAIN (3, 7) FAR 14390 U 0.00
expand: MAIN (3, 0) FAR  w(0) 14390.
	create_child: MAIN (2, 7) FAR 14484 U 0.00
expand: MAIN (2, 0) FAR  w(0) 14484. F 0.00
expand: MAIN (3, 0) FAR  w(0) 14390. F 0.00
expand: MAIN (4, 0) FAR  w(0) 14335.
	create_child: MAIN (3, 7) FAR 14344 U 0.00
expand: MAIN (3, 0) FAR  w(0) 14344. F 0.00
expand: MAIN (4, 0) FAR  w(0) 14335.
	create_child: MAIN (3, 7) FAR 14782 U 0.00
expand: MAIN (3, 0) FAR  w(0) 14782. F 0.00
expand: MAIN (4, 0) FAR  w(0) 14335. F 0.00
expand: MAIN (5, 0) FAR  w(0) 14322.
	create_child: MAIN (4, 7) FAR 15060 U 0.00
expand: MAIN (4, 0) FAR  w(0) 15060. F 0.00
expand: MAIN (5, 0) FAR  w(0) 14322. F 0.00
expand: MAIN (6, 0) FAR  w(0) 3379.
	create_child: MAIN (5, 7) FAR 15127 U 0.00
expand: MAIN (5, 0) FAR  w(0) 15127. F 0.00
expand: MAIN (6, 0) FAR  w(0) 3379.
	create_child: MAIN (5, 7) FAR 15460 U 0.00
expand: MAIN (5, 0) FAR  w(0) 15460.
	create_child: MAIN (4, 7) FAR 15531 U 0.00
expand: MAIN (4, 0) FAR  w(0) 15531.
	create_child: MAIN (3, 7) FAR 15640 U 0.00
expand: MAIN (3, 0) FAR  w(0) 15640.
	create_child: MAIN (2, 7) FAR 15476 U 0.00
expand: MAIN (2, 0) FAR  w(0) 15476.
	create_child: MAIN (1, 7) FAR 15762 U 0.00
expand: MAIN (1, 0) FAR  w(0) 15762. F 0.00
expand: MAIN (2, 0) FAR  w(0) 15476. F 0.00
expand: MAIN (3, 0) FAR  w(0) 15640. F 0.00
expand: MAIN (4, 0) FAR  w(0) 15531. F 0.00
expand: MAIN (5, 0) FAR  w(0) 15460. F 0.00
expand: MAIN (6, 0) FAR  w(0) 3379. F 0.00
expand: query!0 (7, 0) FAR  w(0) 1. F 0.00
(spacer::context::check_reachability :time 0.13 :before-memory 6.89 :after-memory 7.90)
Propagating: 1 2 3 4 5 6 7  ! 8 
(spacer::context::propagate :time 0.02 :before-memory 7.90 :after-memory 7.99)
Entering level 8
BRUNCH_STAT max_query_lvl 7
BRUNCH_STAT num_queries 57
BRUNCH_STAT num_reach_queries 0
BRUNCH_STAT num_reach_reuse 0
BRUNCH_STAT inductive_lvl 0
BRUNCH_STAT max_depth 8
BRUNCH_STAT cex_depth 0
expand: query!0 (8, 0) FAR  w(0) 1.
	create_child: MAIN (7, 8) FAR 3379 U 0.00
expand: MAIN (7, 0) FAR  w(0) 3379.
	create_child: MAIN (6, 8) FAR 19680 U 0.00
expand: MAIN (6, 0) FAR  w(0) 19680.
	create_child: MAIN (5, 8) FAR 19766 U 0.00
expand: MAIN (5, 0) FAR  w(0) 19766.
	create_child: MAIN (4, 8) FAR 19721 U 0.00
expand: MAIN (4, 0) FAR  w(0) 19721. F 0.00
expand: MAIN (5, 0) FAR  w(0) 19766. F 0.00
expand: MAIN (6, 0) FAR  w(0) 19680. F 0.00
expand: MAIN (7, 0) FAR  w(0) 3379.
	create_child: MAIN (6, 8) FAR 19926 U 0.00
expand: MAIN (6, 0) FAR  w(0) 19926. F 0.00
expand: MAIN (7, 0) FAR  w(0) 3379.
	create_child: MAIN (6, 8) FAR 20350 U 0.00
expand: MAIN (6, 0) FAR  w(0) 20350.
	create_child: MAIN (5, 8) FAR 20458 U 0.00
expand: MAIN (5, 0) FAR  w(0) 20458.
	create_child: MAIN (4, 8) FAR 20520 U 0.00
expand: MAIN (4, 0) FAR  w(0) 20520.
	create_child: MAIN (3, 8) FAR 20374 U 0.00
expand: MAIN (3, 0) FAR  w(0) 20374.
	create_child: MAIN (2, 8) FAR 20523 U 0.00
expand: MAIN (2, 0) FAR  w(0) 20523. F 0.00
expand: MAIN (3, 0) FAR  w(0) 20374.
	create_child: MAIN (2, 8) FAR 20433 U 0.00
expand: MAIN (2, 0) FAR  w(0) 20433.
	create_child: MAIN (1, 8) FAR 20638 U 0.00
expand: MAIN (1, 0) FAR  w(0) 20638
Matrix
1, 

. F 0.00
expand: MAIN (2, 0) FAR  w(0) 20433
Matrix
1, 

. F 0.00
expand: MAIN (3, 0) FAR  w(0) 20374
Matrix
1, 

. F 0.00
expand: MAIN (4, 0) FAR  w(0) 20520. F 0.00
expand: MAIN (5, 0) FAR  w(0) 20458. F 0.00
expand: MAIN (6, 0) FAR  w(0) 20350. F 0.00
expand: MAIN (7, 0) FAR  w(0) 3379. F 0.00
expand: query!0 (8, 0) FAR  w(0) 1. F 0.00
(spacer::context::check_reachability :time 0.05 :before-memory 7.99 :after-memory 8.44)
Propagating: 1 2 3 4 5 6 7 8  ! 9 
(spacer::context::propagate :time 0.02 :before-memory 8.44 :after-memory 8.44)
Entering level 9
BRUNCH_STAT max_query_lvl 8
BRUNCH_STAT num_queries 69
BRUNCH_STAT num_reach_queries 0
BRUNCH_STAT num_reach_reuse 0
BRUNCH_STAT inductive_lvl 0
BRUNCH_STAT max_depth 9
BRUNCH_STAT cex_depth 0
expand: query!0 (9, 0) FAR  w(0) 1.
	create_child: MAIN (8, 9) FAR 3379 U 0.00
expand: MAIN (8, 0) FAR  w(0) 3379.
	create_child: MAIN (7, 9) FAR 20350 U 0.00
expand: MAIN (7, 0) FAR  w(0) 20350.
	create_child: MAIN (6, 9) FAR 20458 U 0.00
expand: MAIN (6, 0) FAR  w(0) 20458.
	create_child: MAIN (5, 9) FAR 20520 U 0.00
expand: MAIN (5, 0) FAR  w(0) 20520.
	create_child: MAIN (4, 9) FAR 20374 U 0.00
expand: MAIN (4, 0) FAR  w(0) 20374.
	create_child: MAIN (3, 9) FAR 20523 U 0.00
expand: MAIN (3, 0) FAR  w(0) 20523.
	create_child: MAIN (2, 9) FAR 22268 U 0.00
expand: MAIN (2, 0) FAR  w(0) 22268.
	create_child: MAIN (1, 9) FAR 22314 U 0.00
expand: MAIN (1, 0) FAR  w(0) 22314. F 0.00
expand: MAIN (2, 0) FAR  w(0) 22268. F 0.00
expand: MAIN (3, 0) FAR  w(0) 20523. F 0.00
expand: MAIN (4, 0) FAR  w(0) 20374.
	create_child: MAIN (3, 9) FAR 20433 U 0.00
expand: MAIN (3, 0) FAR  w(0) 20433.
	create_child: MAIN (2, 9) FAR 20638 U 0.00
expand: MAIN (2, 0) FAR  w(0) 20638. F 0.00
expand: MAIN (3, 0) FAR  w(0) 20433. F 0.00
expand: MAIN (4, 0) FAR  w(0) 20374. F 0.00
expand: MAIN (5, 0) FAR  w(0) 20520. F 0.00
expand: MAIN (6, 0) FAR  w(0) 20458. F 0.00
expand: MAIN (7, 0) FAR  w(0) 20350. F 0.00
expand: MAIN (8, 0) FAR  w(0) 3379. F 0.00
expand: query!0 (9, 0) FAR  w(0) 1. F 0.00
(spacer::context::check_reachability :time 0.03 :before-memory 8.44 :after-memory 8.63)
Propagating: 1 2 3 4 5 6 7 8 9  ! 10 
(spacer::context::propagate :time 0.02 :before-memory 8.63 :after-memory 8.63)
Entering level 10
BRUNCH_STAT max_query_lvl 9
BRUNCH_STAT num_queries 79
BRUNCH_STAT num_reach_queries 0
BRUNCH_STAT num_reach_reuse 0
BRUNCH_STAT inductive_lvl 0
BRUNCH_STAT max_depth 10
BRUNCH_STAT cex_depth 0
expand: query!0 (10, 0) FAR  w(0) 1.
	create_child: MAIN (9, 10) FAR 3379 U 0.00
expand: MAIN (9, 0) FAR  w(0) 3379.
	create_child: MAIN (8, 10) FAR 20350 U 0.00
expand: MAIN (8, 0) FAR  w(0) 20350.
	create_child: MAIN (7, 10) FAR 20458 U 0.00
expand: MAIN (7, 0) FAR  w(0) 20458.
	create_child: MAIN (6, 10) FAR 20520 U 0.00
expand: MAIN (6, 0) FAR  w(0) 20520.
	create_child: MAIN (5, 10) FAR 20374 U 0.00
expand: MAIN (5, 0) FAR  w(0) 20374.
	create_child: MAIN (4, 10) FAR 20523 U 0.00
expand: MAIN (4, 0) FAR  w(0) 20523.
	create_child: MAIN (3, 10) FAR 22268 U 0.00
expand: MAIN (3, 0) FAR  w(0) 22268.
	create_child: MAIN (2, 10) FAR 22314 U 0.00
expand: MAIN (2, 0) FAR  w(0) 22314. F 0.00
expand: MAIN (3, 0) FAR  w(0) 22268. F 0.00
expand: MAIN (4, 0) FAR  w(0) 20523. F 0.00
expand: MAIN (5, 0) FAR  w(0) 20374.
	create_child: MAIN (4, 10) FAR 20433 U 0.00
expand: MAIN (4, 0) FAR  w(0) 20433.
	create_child: MAIN (3, 10) FAR 20638 U 0.00
expand: MAIN (3, 0) FAR  w(0) 20638. F 0.00
expand: MAIN (4, 0) FAR  w(0) 20433. F 0.00
expand: MAIN (5, 0) FAR  w(0) 20374. F 0.00
expand: MAIN (6, 0) FAR  w(0) 20520. F 0.00
expand: MAIN (7, 0) FAR  w(0) 20458. F 0.00
expand: MAIN (8, 0) FAR  w(0) 20350. F 0.00
expand: MAIN (9, 0) FAR  w(0) 3379. F 0.00
expand: query!0 (10, 0) FAR  w(0) 1. F 0.00
(spacer::context::check_reachability :time 0.04 :before-memory 8.63 :after-memory 9.31)
Propagating: 2 3 4 5 6 7 8 9 10  ! 11 
(spacer::context::propagate :time 0.02 :before-memory 9.31 :after-memory 9.31)
Entering level 11
BRUNCH_STAT max_query_lvl 10
BRUNCH_STAT num_queries 89
BRUNCH_STAT num_reach_queries 0
BRUNCH_STAT num_reach_reuse 0
BRUNCH_STAT inductive_lvl 0
BRUNCH_STAT max_depth 11
BRUNCH_STAT cex_depth 0
expand: query!0 (11, 0) FAR  w(0) 1.
	create_child: MAIN (10, 11) FAR 3379 U 0.00
expand: MAIN (10, 0) FAR  w(0) 3379.
	create_child: MAIN (9, 11) FAR 20350 U 0.00
expand: MAIN (9, 0) FAR  w(0) 20350.
	create_child: MAIN (8, 11) FAR 20458 U 0.00
expand: MAIN (8, 0) FAR  w(0) 20458.
	create_child: MAIN (7, 11) FAR 20520 U 0.00
expand: MAIN (7, 0) FAR  w(0) 20520.
	create_child: MAIN (6, 11) FAR 20374 U 0.00
expand: MAIN (6, 0) FAR  w(0) 20374.
	create_child: MAIN (5, 11) FAR 20523 U 0.00
expand: MAIN (5, 0) FAR  w(0) 20523.
	create_child: MAIN (4, 11) FAR 22268 U 0.00
expand: MAIN (4, 0) FAR  w(0) 22268.
	create_child: MAIN (3, 11) FAR 22314 U 0.00
expand: MAIN (3, 0) FAR  w(0) 22314. F 0.00
expand: MAIN (4, 0) FAR  w(0) 22268. F 0.00
expand: MAIN (5, 0) FAR  w(0) 20523. F 0.00
expand: MAIN (6, 0) FAR  w(0) 20374.
	create_child: MAIN (5, 11) FAR 20433 U 0.00
expand: MAIN (5, 0) FAR  w(0) 20433.
	create_child: MAIN (4, 11) FAR 20638 U 0.00
expand: MAIN (4, 0) FAR  w(0) 20638.
	create_child: MAIN (3, 11) FAR 25147 U 0.00
expand: MAIN (3, 0) FAR  w(0) 25147.
	create_child: MAIN (2, 11) FAR 24736 U 0.00
expand: MAIN (2, 0) FAR  w(0) 24736
Matrix
1, 

. F 0.00
expand: MAIN (3, 0) FAR  w(0) 25147
Matrix
1, 

. F 0.00
expand: MAIN (4, 0) FAR  w(0) 20638
Matrix
1, 

. F 0.00
expand: MAIN (5, 0) FAR  w(0) 20433. F 0.00
expand: MAIN (6, 0) FAR  w(0) 20374. F 0.00
expand: MAIN (7, 0) FAR  w(0) 20520. F 0.00
expand: MAIN (8, 0) FAR  w(0) 20458. F 0.00
expand: MAIN (9, 0) FAR  w(0) 20350. F 0.00
expand: MAIN (10, 0) FAR  w(0) 3379. F 0.00
expand: query!0 (11, 0) FAR  w(0) 1. F 0.00
(spacer::context::check_reachability :time 0.04 :before-memory 9.31 :after-memory 9.49)
Propagating: 2 3 4 5 6 7 8 9 10 11  ! 12 
(spacer::context::propagate :time 0.03 :before-memory 9.49 :after-memory 9.49)
Entering level 12
BRUNCH_STAT max_query_lvl 11
BRUNCH_STAT num_queries 101
BRUNCH_STAT num_reach_queries 0
BRUNCH_STAT num_reach_reuse 0
BRUNCH_STAT inductive_lvl 0
BRUNCH_STAT max_depth 12
BRUNCH_STAT cex_depth 0
expand: query!0 (12, 0) FAR  w(0) 1.
	create_child: MAIN (11, 12) FAR 3379 U 0.00
expand: MAIN (11, 0) FAR  w(0) 3379.
	create_child: MAIN (10, 12) FAR 20350 U 0.00
expand: MAIN (10, 0) FAR  w(0) 20350.
	create_child: MAIN (9, 12) FAR 20458 U 0.00
expand: MAIN (9, 0) FAR  w(0) 20458.
	create_child: MAIN (8, 12) FAR 20520 U 0.00
expand: MAIN (8, 0) FAR  w(0) 20520.
	create_child: MAIN (7, 12) FAR 20374 U 0.00
expand: MAIN (7, 0) FAR  w(0) 20374.
	create_child: MAIN (6, 12) FAR 20523 U 0.00
expand: MAIN (6, 0) FAR  w(0) 20523.
	create_child: MAIN (5, 12) FAR 22268 U 0.00
expand: MAIN (5, 0) FAR  w(0) 22268.
	create_child: MAIN (4, 12) FAR 22314 U 0.00
expand: MAIN (4, 0) FAR  w(0) 22314.
	create_child: MAIN (3, 12) FAR 26588 U 0.00
expand: MAIN (3, 0) FAR  w(0) 26588.
	create_child: MAIN (2, 12) FAR 26891 U 0.00
expand: MAIN (2, 0) FAR  w(0) 26891
Matrix
1, 

. F 0.00
expand: MAIN (3, 0) FAR  w(0) 26588
Matrix
1, 

. F 0.00
expand: MAIN (4, 0) FAR  w(0) 22314. F 0.00
expand: MAIN (5, 0) FAR  w(0) 22268. F 0.00
expand: MAIN (6, 0) FAR  w(0) 20523. F 0.00
expand: MAIN (7, 0) FAR  w(0) 20374.
	create_child: MAIN (6, 12) FAR 20433 U 0.00
expand: MAIN (6, 0) FAR  w(0) 20433.
	create_child: MAIN (5, 12) FAR 20638 U 0.00
expand: MAIN (5, 0) FAR  w(0) 20638.
	create_child: MAIN (4, 12) FAR 25147 U 0.00
expand: MAIN (4, 0) FAR  w(0) 25147.
	create_child: MAIN (3, 12) FAR 24736 U 0.00
expand: MAIN (3, 0) FAR  w(0) 24736.
	create_child: MAIN (2, 12) FAR 27549 U 0.00
expand: MAIN (2, 0) FAR  w(0) 27549
Matrix
1, 

. F 0.00
expand: MAIN (3, 0) FAR  w(0) 24736
Matrix
1, 

. F 0.00
expand: MAIN (4, 0) FAR  w(0) 25147. F 0.00
expand: MAIN (5, 0) FAR  w(0) 20638. F 0.00
expand: MAIN (6, 0) FAR  w(0) 20433. F 0.00
expand: MAIN (7, 0) FAR  w(0) 20374. F 0.00
expand: MAIN (8, 0) FAR  w(0) 20520. F 0.00
expand: MAIN (9, 0) FAR  w(0) 20458. F 0.00
expand: MAIN (10, 0) FAR  w(0) 20350. F 0.00
expand: MAIN (11, 0) FAR  w(0) 3379. F 0.00
expand: query!0 (12, 0) FAR  w(0) 1. F 0.00
(spacer::context::check_reachability :time 0.05 :before-memory 9.49 :after-memory 9.78)
Propagating: 2 3 4 5 6 7 8 9 10 11 12  ! 13 
(spacer::context::propagate :time 0.03 :before-memory 9.78 :after-memory 9.87)
Entering level 13
BRUNCH_STAT max_query_lvl 12
BRUNCH_STAT num_queries 116
BRUNCH_STAT num_reach_queries 0
BRUNCH_STAT num_reach_reuse 0
BRUNCH_STAT inductive_lvl 0
BRUNCH_STAT max_depth 13
BRUNCH_STAT cex_depth 0
expand: query!0 (13, 0) FAR  w(0) 1.
	create_child: MAIN (12, 13) FAR 3379 U 0.00
expand: MAIN (12, 0) FAR  w(0) 3379.
	create_child: MAIN (11, 13) FAR 20350 U 0.00
expand: MAIN (11, 0) FAR  w(0) 20350.
	create_child: MAIN (10, 13) FAR 20458 U 0.00
expand: MAIN (10, 0) FAR  w(0) 20458.
	create_child: MAIN (9, 13) FAR 20520 U 0.00
expand: MAIN (9, 0) FAR  w(0) 20520.
	create_child: MAIN (8, 13) FAR 20374 U 0.00
expand: MAIN (8, 0) FAR  w(0) 20374.
	create_child: MAIN (7, 13) FAR 20523 U 0.00
expand: MAIN (7, 0) FAR  w(0) 20523.
	create_child: MAIN (6, 13) FAR 22268 U 0.00
expand: MAIN (6, 0) FAR  w(0) 22268.
	create_child: MAIN (5, 13) FAR 22314 U 0.00
expand: MAIN (5, 0) FAR  w(0) 22314.
	create_child: MAIN (4, 13) FAR 26588 U 0.00
expand: MAIN (4, 0) FAR  w(0) 26588.
	create_child: MAIN (3, 13) FAR 26891 U 0.00
expand: MAIN (3, 0) FAR  w(0) 26891.
	create_child: MAIN (2, 13) FAR 28811 U 0.00
expand: MAIN (2, 0) FAR  w(0) 28811
Matrix
1, 

. F 0.00
expand: MAIN (3, 0) FAR  w(0) 26891
Matrix
1, 

. F 0.00
expand: MAIN (4, 0) FAR  w(0) 26588. F 0.00
expand: MAIN (5, 0) FAR  w(0) 22314. F 0.00
expand: MAIN (6, 0) FAR  w(0) 22268. F 0.00
expand: MAIN (7, 0) FAR  w(0) 20523. F 0.00
expand: MAIN (8, 0) FAR  w(0) 20374.
	create_child: MAIN (7, 13) FAR 20433 U 0.00
expand: MAIN (7, 0) FAR  w(0) 20433.
	create_child: MAIN (6, 13) FAR 20638 U 0.00
expand: MAIN (6, 0) FAR  w(0) 20638.
	create_child: MAIN (5, 13) FAR 25147 U 0.00
expand: MAIN (5, 0) FAR  w(0) 25147.
	create_child: MAIN (4, 13) FAR 24736 U 0.00
expand: MAIN (4, 0) FAR  w(0) 24736.
	create_child: MAIN (3, 13) FAR 27549 U 0.00
expand: MAIN (3, 0) FAR  w(0) 27549.
	create_child: MAIN (2, 13) FAR 29744 U 0.00
expand: MAIN (2, 0) FAR  w(0) 29744
Matrix
1, 

. F 0.00
expand: MAIN (3, 0) FAR  w(0) 27549
Matrix
1, 

. F 0.00
expand: MAIN (4, 0) FAR  w(0) 24736. F 0.00
expand: MAIN (5, 0) FAR  w(0) 25147. F 0.00
expand: MAIN (6, 0) FAR  w(0) 20638. F 0.00
expand: MAIN (7, 0) FAR  w(0) 20433. F 0.00
expand: MAIN (8, 0) FAR  w(0) 20374. F 0.00
expand: MAIN (9, 0) FAR  w(0) 20520. F 0.00
expand: MAIN (10, 0) FAR  w(0) 20458. F 0.00
expand: MAIN (11, 0) FAR  w(0) 20350. F 0.00
expand: MAIN (12, 0) FAR  w(0) 3379. F 0.00
expand: query!0 (13, 0) FAR  w(0) 1. F 0.00
(spacer::context::check_reachability :time 0.06 :before-memory 9.87 :after-memory 10.13)
Propagating: 2 3 4 5 6 7 8 9 10 11 12 13  ! 14 
(spacer::context::propagate :time 0.03 :before-memory 10.13 :after-memory 10.13)
Entering level 14
BRUNCH_STAT max_query_lvl 13
BRUNCH_STAT num_queries 133
BRUNCH_STAT num_reach_queries 0
BRUNCH_STAT num_reach_reuse 0
BRUNCH_STAT inductive_lvl 0
BRUNCH_STAT max_depth 14
BRUNCH_STAT cex_depth 0
expand: query!0 (14, 0) FAR  w(0) 1.
	create_child: MAIN (13, 14) FAR 3379 U 0.00
expand: MAIN (13, 0) FAR  w(0) 3379.
	create_child: MAIN (12, 14) FAR 20350 U 0.00
expand: MAIN (12, 0) FAR  w(0) 20350.
	create_child: MAIN (11, 14) FAR 20458 U 0.00
expand: MAIN (11, 0) FAR  w(0) 20458.
	create_child: MAIN (10, 14) FAR 20520 U 0.00
expand: MAIN (10, 0) FAR  w(0) 20520.
	create_child: MAIN (9, 14) FAR 20374 U 0.00
expand: MAIN (9, 0) FAR  w(0) 20374.
	create_child: MAIN (8, 14) FAR 20523 U 0.00
expand: MAIN (8, 0) FAR  w(0) 20523.
	create_child: MAIN (7, 14) FAR 22268 U 0.00
expand: MAIN (7, 0) FAR  w(0) 22268.
	create_child: MAIN (6, 14) FAR 22314 U 0.00
expand: MAIN (6, 0) FAR  w(0) 22314.
	create_child: MAIN (5, 14) FAR 26588 U 0.00
expand: MAIN (5, 0) FAR  w(0) 26588.
	create_child: MAIN (4, 14) FAR 26891 U 0.00
expand: MAIN (4, 0) FAR  w(0) 26891.
	create_child: MAIN (3, 14) FAR 28811 U 0.00
expand: MAIN (3, 0) FAR  w(0) 28811.
	create_child: MAIN (2, 14) FAR 31171 U 0.00
expand: MAIN (2, 0) FAR  w(0) 31171
Matrix
1, 

. F 0.00
expand: MAIN (3, 0) FAR  w(0) 28811
Matrix
1, 

. F 0.00
expand: MAIN (4, 0) FAR  w(0) 26891. F 0.00
expand: MAIN (5, 0) FAR  w(0) 26588. F 0.00
expand: MAIN (6, 0) FAR  w(0) 22314. F 0.00
expand: MAIN (7, 0) FAR  w(0) 22268. F 0.00
expand: MAIN (8, 0) FAR  w(0) 20523. F 0.00
expand: MAIN (9, 0) FAR  w(0) 20374.
	create_child: MAIN (8, 14) FAR 20433 U 0.00
expand: MAIN (8, 0) FAR  w(0) 20433.
	create_child: MAIN (7, 14) FAR 20638 U 0.00
expand: MAIN (7, 0) FAR  w(0) 20638.
	create_child: MAIN (6, 14) FAR 25147 U 0.00
expand: MAIN (6, 0) FAR  w(0) 25147.
	create_child: MAIN (5, 14) FAR 24736 U 0.00
expand: MAIN (5, 0) FAR  w(0) 24736.
	create_child: MAIN (4, 14) FAR 27549 U 0.00
expand: MAIN (4, 0) FAR  w(0) 27549.
	create_child: MAIN (3, 14) FAR 29744 U 0.00
expand: MAIN (3, 0) FAR  w(0) 29744.
	create_child: MAIN (2, 14) FAR 31971 U 0.00
expand: MAIN (2, 0) FAR  w(0) 31971.
	create_child: MAIN (1, 14) FAR 32089 U 0.00
expand: MAIN (1, 0) FAR  w(0) 32089
Matrix
1, 

. F 0.00
expand: MAIN (2, 0) FAR  w(0) 31971
Matrix
1, 

. F 0.00
expand: MAIN (3, 0) FAR  w(0) 29744
Matrix
1, 

. F 0.00
expand: MAIN (4, 0) FAR  w(0) 27549. F 0.00
expand: MAIN (5, 0) FAR  w(0) 24736. F 0.00
expand: MAIN (6, 0) FAR  w(0) 25147. F 0.00
expand: MAIN (7, 0) FAR  w(0) 20638. F 0.00
expand: MAIN (8, 0) FAR  w(0) 20433. F 0.00
expand: MAIN (9, 0) FAR  w(0) 20374. F 0.00
expand: MAIN (10, 0) FAR  w(0) 20520. F 0.00
expand: MAIN (11, 0) FAR  w(0) 20458. F 0.00
expand: MAIN (12, 0) FAR  w(0) 20350. F 0.00
expand: MAIN (13, 0) FAR  w(0) 3379. F 0.00
expand: query!0 (14, 0) FAR  w(0) 1. F 0.00
(spacer::context::check_reachability :time 0.07 :before-memory 10.13 :after-memory 10.38)
Propagating: 1 2 3 4 5 6 7 8 9 10 11 12 13 14  ! 15 
(spacer::context::propagate :time 0.04 :before-memory 10.38 :after-memory 10.38)
Entering level 15
BRUNCH_STAT max_query_lvl 14
BRUNCH_STAT num_queries 153
BRUNCH_STAT num_reach_queries 0
BRUNCH_STAT num_reach_reuse 0
BRUNCH_STAT inductive_lvl 0
BRUNCH_STAT max_depth 15
BRUNCH_STAT cex_depth 0
expand: query!0 (15, 0) FAR  w(0) 1.
	create_child: MAIN (14, 15) FAR 3379 U 0.00
expand: MAIN (14, 0) FAR  w(0) 3379.
	create_child: MAIN (13, 15) FAR 20350 U 0.00
expand: MAIN (13, 0) FAR  w(0) 20350.
	create_child: MAIN (12, 15) FAR 20458 U 0.00
expand: MAIN (12, 0) FAR  w(0) 20458.
	create_child: MAIN (11, 15) FAR 20520 U 0.00
expand: MAIN (11, 0) FAR  w(0) 20520.
	create_child: MAIN (10, 15) FAR 20374 U 0.00
expand: MAIN (10, 0) FAR  w(0) 20374.
	create_child: MAIN (9, 15) FAR 20523 U 0.00
expand: MAIN (9, 0) FAR  w(0) 20523.
	create_child: MAIN (8, 15) FAR 22268 U 0.00
expand: MAIN (8, 0) FAR  w(0) 22268.
	create_child: MAIN (7, 15) FAR 22314 U 0.00
expand: MAIN (7, 0) FAR  w(0) 22314.
	create_child: MAIN (6, 15) FAR 26588 U 0.00
expand: MAIN (6, 0) FAR  w(0) 26588.
	create_child: MAIN (5, 15) FAR 26891 U 0.00
expand: MAIN (5, 0) FAR  w(0) 26891.
	create_child: MAIN (4, 15) FAR 28811 U 0.00
expand: MAIN (4, 0) FAR  w(0) 28811.
	create_child: MAIN (3, 15) FAR 31171 U 0.00
expand: MAIN (3, 0) FAR  w(0) 31171.
	create_child: MAIN (2, 15) FAR 34304 U 0.00
expand: MAIN (2, 0) FAR  w(0) 34304.
	create_child: MAIN (1, 15) FAR 34328 U 0.00
expand: MAIN (1, 0) FAR  w(0) 34328
Matrix
1, 

. F 0.00
expand: MAIN (2, 0) FAR  w(0) 34304
Matrix
1, 

. F 0.00
expand: MAIN (3, 0) FAR  w(0) 31171. F 0.00
expand: MAIN (4, 0) FAR  w(0) 28811. F 0.00
expand: MAIN (5, 0) FAR  w(0) 26891. F 0.00
expand: MAIN (6, 0) FAR  w(0) 26588. F 0.00
expand: MAIN (7, 0) FAR  w(0) 22314. F 0.00
expand: MAIN (8, 0) FAR  w(0) 22268. F 0.00
expand: MAIN (9, 0) FAR  w(0) 20523. F 0.00
expand: MAIN (10, 0) FAR  w(0) 20374. F 0.00
expand: MAIN (11, 0) FAR  w(0) 20520. F 0.00
expand: MAIN (12, 0) FAR  w(0) 20458. F 0.00
expand: MAIN (13, 0) FAR  w(0) 20350. F 0.00
expand: MAIN (14, 0) FAR  w(0) 3379. F 0.00
expand: query!0 (15, 0) FAR  w(0) 1. F 0.00
(spacer::context::check_reachability :time 0.05 :before-memory 10.38 :after-memory 10.59)
Propagating: 1 2 3 4 5 6 7 8 9 10 11 12 13 14 15  ! 16 
(spacer::context::propagate :time 0.04 :before-memory 10.59 :after-memory 10.59)
Entering level 16
BRUNCH_STAT max_query_lvl 15
BRUNCH_STAT num_queries 167
BRUNCH_STAT num_reach_queries 0
BRUNCH_STAT num_reach_reuse 0
BRUNCH_STAT inductive_lvl 0
BRUNCH_STAT max_depth 16
BRUNCH_STAT cex_depth 0
expand: query!0 (16, 0) FAR  w(0) 1.
	create_child: MAIN (15, 16) FAR 3379 U 0.00
expand: MAIN (15, 0) FAR  w(0) 3379.
	create_child: MAIN (14, 16) FAR 19680 U 0.00
expand: MAIN (14, 0) FAR  w(0) 19680.
	create_child: MAIN (13, 16) FAR 19766 U 0.00
expand: MAIN (13, 0) FAR  w(0) 19766. F 0.00
expand: MAIN (14, 0) FAR  w(0) 19680. F 0.00
expand: MAIN (15, 0) FAR  w(0) 3379.
	create_child: MAIN (14, 16) FAR 20350 U 0.00
expand: MAIN (14, 0) FAR  w(0) 20350.
	create_child: MAIN (13, 16) FAR 20458 U 0.00
expand: MAIN (13, 0) FAR  w(0) 20458.
	create_child: MAIN (12, 16) FAR 20520 U 0.00
expand: MAIN (12, 0) FAR  w(0) 20520.
	create_child: MAIN (11, 16) FAR 20374 U 0.00
expand: MAIN (11, 0) FAR  w(0) 20374.
	create_child: MAIN (10, 16) FAR 20433 U 0.00
expand: MAIN (10, 0) FAR  w(0) 20433.
	create_child: MAIN (9, 16) FAR 35594 U 0.00
expand: MAIN (9, 0) FAR  w(0) 35594.
	create_child: MAIN (8, 16) FAR 35644 U 0.00
expand: MAIN (8, 0) FAR  w(0) 35644.
	create_child: MAIN (7, 16) FAR 35744 U 0.00
expand: MAIN (7, 0) FAR  w(0) 35744.
	create_child: MAIN (6, 16) FAR 35706 U 0.00
expand: MAIN (6, 0) FAR  w(0) 35706.
	create_child: MAIN (5, 16) FAR 35830 U 0.00
expand: MAIN (5, 0) FAR  w(0) 35830.
	create_child: MAIN (4, 16) FAR 35899 U 0.00
expand: MAIN (4, 0) FAR  w(0) 35899.
	create_child: MAIN (3, 16) FAR 35469 U 0.00
expand: MAIN (3, 0) FAR  w(0) 35469.
	create_child: MAIN (2, 16) FAR 35486 U 0.00
expand: MAIN (2, 0) FAR  w(0) 35486.
	create_child: MAIN (1, 16) FAR 35536 U 0.00
expand: MAIN (1, 0) FAR  w(0) 35536
Matrix
1, 

. F 0.00
expand: MAIN (2, 0) FAR  w(0) 35486
Matrix
1, 

. F 0.00
expand: MAIN (3, 0) FAR  w(0) 35469. F 0.00
expand: MAIN (4, 0) FAR  w(0) 35899. F 0.00
expand: MAIN (5, 0) FAR  w(0) 35830. F 0.00
expand: MAIN (6, 0) FAR  w(0) 35706. F 0.00
expand: MAIN (7, 0) FAR  w(0) 35744. F 0.00
expand: MAIN (8, 0) FAR  w(0) 35644. F 0.00
expand: MAIN (9, 0) FAR  w(0) 35594. F 0.00
expand: MAIN (10, 0) FAR  w(0) 20433. F 0.00
expand: MAIN (11, 0) FAR  w(0) 20374. F 0.00
expand: MAIN (12, 0) FAR  w(0) 20520. F 0.00
expand: MAIN (13, 0) FAR  w(0) 20458. F 0.00
expand: MAIN (14, 0) FAR  w(0) 20350. F 0.00
expand: MAIN (15, 0) FAR  w(0) 3379. F 0.00
expand: query!0 (16, 0) FAR  w(0) 1. F 0.00
(spacer::context::check_reachability :time 0.06 :before-memory 10.59 :after-memory 10.77)
Propagating: 1 2 3 4 5 6 7 8 9 10 11 12 13 14 15 16  ! 17 
(spacer::context::propagate :time 0.05 :before-memory 10.77 :after-memory 10.77)
Entering level 17
BRUNCH_STAT max_query_lvl 16
BRUNCH_STAT num_queries 184
BRUNCH_STAT num_reach_queries 0
BRUNCH_STAT num_reach_reuse 0
BRUNCH_STAT inductive_lvl 0
BRUNCH_STAT max_depth 17
BRUNCH_STAT cex_depth 0
expand: query!0 (17, 0) FAR  w(0) 1.
	create_child: MAIN (16, 17) FAR 3379 U 0.00
expand: MAIN (16, 0) FAR  w(0) 3379.
	create_child: MAIN (15, 17) FAR 36979 U 0.00
expand: MAIN (15, 0) FAR  w(0) 36979.
	create_child: MAIN (14, 17) FAR 37081 U 0.00
expand: MAIN (14, 0) FAR  w(0) 37081.
	create_child: MAIN (13, 17) FAR 37112 U 0.00
expand: MAIN (13, 0) FAR  w(0) 37112.
	create_child: MAIN (12, 17) FAR 37213 U 0.00
expand: MAIN (12, 0) FAR  w(0) 37213.
	create_child: MAIN (11, 17) FAR 37049 U 0.00
expand: MAIN (11, 0) FAR  w(0) 37049. F 0.00
expand: MAIN (12, 0) FAR  w(0) 37213. F 0.00
expand: MAIN (13, 0) FAR  w(0) 37112. F 0.00
expand: MAIN (14, 0) FAR  w(0) 37081. F 0.00
expand: MAIN (15, 0) FAR  w(0) 36979. F 0.00
expand: MAIN (16, 0) FAR  w(0) 3379.
	create_child: MAIN (15, 17) FAR 19680 U 0.00
expand: MAIN (15, 0) FAR  w(0) 19680.
	create_child: MAIN (14, 17) FAR 19766 U 0.00
expand: MAIN (14, 0) FAR  w(0) 19766.
	create_child: MAIN (13, 17) FAR 19721 U 0.00
expand: MAIN (13, 0) FAR  w(0) 19721.
	create_child: MAIN (12, 17) FAR 37552 U 0.00
expand: MAIN (12, 0) FAR  w(0) 37552.
	create_child: MAIN (11, 17) FAR 37566 U 0.00
expand: MAIN (11, 0) FAR  w(0) 37566. F 0.00
expand: MAIN (12, 0) FAR  w(0) 37552. F 0.00
expand: MAIN (13, 0) FAR  w(0) 19721. F 0.00
expand: MAIN (14, 0) FAR  w(0) 19766. F 0.00
expand: MAIN (15, 0) FAR  w(0) 19680. F 0.00
expand: MAIN (16, 0) FAR  w(0) 3379.
	create_child: MAIN (15, 17) FAR 20350 U 0.00
expand: MAIN (15, 0) FAR  w(0) 20350.
	create_child: MAIN (14, 17) FAR 20458 U 0.00
expand: MAIN (14, 0) FAR  w(0) 20458.
	create_child: MAIN (13, 17) FAR 20520 U 0.00
expand: MAIN (13, 0) FAR  w(0) 20520.
	create_child: MAIN (12, 17) FAR 20374 U 0.00
expand: MAIN (12, 0) FAR  w(0) 20374.
	create_child: MAIN (11, 17) FAR 20433 U 0.00
expand: MAIN (11, 0) FAR  w(0) 20433.
	create_child: MAIN (10, 17) FAR 20638 U 0.00
expand: MAIN (10, 0) FAR  w(0) 20638.
	create_child: MAIN (9, 17) FAR 25147 U 0.00
expand: MAIN (9, 0) FAR  w(0) 25147.
	create_child: MAIN (8, 17) FAR 24736 U 0.00
expand: MAIN (8, 0) FAR  w(0) 24736.
	create_child: MAIN (7, 17) FAR 27549 U 0.00
expand: MAIN (7, 0) FAR  w(0) 27549.
	create_child: MAIN (6, 17) FAR 29744 U 0.00
expand: MAIN (6, 0) FAR  w(0) 29744.
	create_child: MAIN (5, 17) FAR 31971 U 0.00
expand: MAIN (5, 0) FAR  w(0) 31971.
	create_child: MAIN (4, 17) FAR 32089 U 0.00
expand: MAIN (4, 0) FAR  w(0) 32089.
	create_child: MAIN (3, 17) FAR 37390 U 0.00
expand: MAIN (3, 0) FAR  w(0) 37390.
	create_child: MAIN (2, 17) FAR 38443 U 0.00
expand: MAIN (2, 0) FAR  w(0) 38443.
	create_child: MAIN (1, 17) FAR 37977 U 0.00
expand: MAIN (1, 0) FAR  w(0) 37977
Matrix
1, 

. F 0.00
expand: MAIN (2, 0) FAR  w(0) 38443
Matrix
1, 

. F 0.00
expand: MAIN (3, 0) FAR  w(0) 37390. F 0.00
expand: MAIN (4, 0) FAR  w(0) 32089. F 0.00
expand: MAIN (5, 0) FAR  w(0) 31971. F 0.00
expand: MAIN (6, 0) FAR  w(0) 29744. F 0.00
expand: MAIN (7, 0) FAR  w(0) 27549. F 0.00
expand: MAIN (8, 0) FAR  w(0) 24736. F 0.00
expand: MAIN (9, 0) FAR  w(0) 25147. F 0.00
expand: MAIN (10, 0) FAR  w(0) 20638. F 0.00
expand: MAIN (11, 0) FAR  w(0) 20433. F 0.00
expand: MAIN (12, 0) FAR  w(0) 20374. F 0.00
expand: MAIN (13, 0) FAR  w(0) 20520. F 0.00
expand: MAIN (14, 0) FAR  w(0) 20458. F 0.00
expand: MAIN (15, 0) FAR  w(0) 20350. F 0.00
expand: MAIN (16, 0) FAR  w(0) 3379. F 0.00
expand: query!0 (17, 0) FAR  w(0) 1. F 0.00
(spacer::context::check_reachability :time 0.12 :before-memory 10.77 :after-memory 10.90)
Propagating: 1 2 3 4 5 6 7 8 9 10 11 12 13 14 15 16 17  ! 18 
(spacer::context::propagate :time 0.06 :before-memory 10.90 :after-memory 11.00)
Entering level 18
BRUNCH_STAT max_query_lvl 17
BRUNCH_STAT num_queries 210
BRUNCH_STAT num_reach_queries 0
BRUNCH_STAT num_reach_reuse 0
BRUNCH_STAT inductive_lvl 0
BRUNCH_STAT max_depth 18
BRUNCH_STAT cex_depth 0
expand: query!0 (18, 0) FAR  w(0) 1.
	create_child: MAIN (17, 18) FAR 3379 U 0.00
expand: MAIN (17, 0) FAR  w(0) 3379.
	create_child: MAIN (16, 18) FAR 19680 U 0.00
expand: MAIN (16, 0) FAR  w(0) 19680.
	create_child: MAIN (15, 18) FAR 19766 U 0.00
expand: MAIN (15, 0) FAR  w(0) 19766.
	create_child: MAIN (14, 18) FAR 19721 U 0.00
expand: MAIN (14, 0) FAR  w(0) 19721. F 0.00
expand: MAIN (15, 0) FAR  w(0) 19766. F 0.00
expand: MAIN (16, 0) FAR  w(0) 19680. F 0.00
expand: MAIN (17, 0) FAR  w(0) 3379.
	create_child: MAIN (16, 18) FAR 20350 U 0.00
expand: MAIN (16, 0) FAR  w(0) 20350.
	create_child: MAIN (15, 18) FAR 20458 U 0.00
expand: MAIN (15, 0) FAR  w(0) 20458.
	create_child: MAIN (14, 18) FAR 20520 U 0.00
expand: MAIN (14, 0) FAR  w(0) 20520.
	create_child: MAIN (13, 18) FAR 20374 U 0.00
expand: MAIN (13, 0) FAR  w(0) 20374.
	create_child: MAIN (12, 18) FAR 20433 U 0.00
expand: MAIN (12, 0) FAR  w(0) 20433.
	create_child: MAIN (11, 18) FAR 20638 U 0.00
expand: MAIN (11, 0) FAR  w(0) 20638.
	create_child: MAIN (10, 18) FAR 25147 U 0.00
expand: MAIN (10, 0) FAR  w(0) 25147.
	create_child: MAIN (9, 18) FAR 24736 U 0.00
expand: MAIN (9, 0) FAR  w(0) 24736.
	create_child: MAIN (8, 18) FAR 27549 U 0.00
expand: MAIN (8, 0) FAR  w(0) 27549.
	create_child: MAIN (7, 18) FAR 29744 U 0.00
expand: MAIN (7, 0) FAR  w(0) 29744.
	create_child: MAIN (6, 18) FAR 31971 U 0.00
expand: MAIN (6, 0) FAR  w(0) 31971.
	create_child: MAIN (5, 18) FAR 32089 U 0.00
expand: MAIN (5, 0) FAR  w(0) 32089.
	create_child: MAIN (4, 18) FAR 37390 U 0.00
expand: MAIN (4, 0) FAR  w(0) 37390.
	create_child: MAIN (3, 18) FAR 38443 U 0.00
expand: MAIN (3, 0) FAR  w(0) 38443.
	create_child: MAIN (2, 18) FAR 37977 U 0.00
expand: MAIN (2, 0) FAR  w(0) 37977.
	create_child: MAIN (1, 18) FAR 41063 U 0.00
expand: MAIN (1, 0) FAR  w(0) 41063
Matrix
1, 

. F 0.00
expand: MAIN (2, 0) FAR  w(0) 37977
Matrix
1, 

. F 0.00
expand: MAIN (3, 0) FAR  w(0) 38443. F 0.00
expand: MAIN (4, 0) FAR  w(0) 37390. F 0.00
expand: MAIN (5, 0) FAR  w(0) 32089. F 0.00
expand: MAIN (6, 0) FAR  w(0) 31971. F 0.00
expand: MAIN (7, 0) FAR  w(0) 29744. F 0.00
expand: MAIN (8, 0) FAR  w(0) 27549. F 0.00
expand: MAIN (9, 0) FAR  w(0) 24736. F 0.00
expand: MAIN (10, 0) FAR  w(0) 25147. F 0.00
expand: MAIN (11, 0) FAR  w(0) 20638. F 0.00
expand: MAIN (12, 0) FAR  w(0) 20433. F 0.00
expand: MAIN (13, 0) FAR  w(0) 20374. F 0.00
expand: MAIN (14, 0) FAR  w(0) 20520. F 0.00
expand: MAIN (15, 0) FAR  w(0) 20458. F 0.00
expand: MAIN (16, 0) FAR  w(0) 20350. F 0.00
expand: MAIN (17, 0) FAR  w(0) 3379. F 0.00
expand: query!0 (18, 0) FAR  w(0) 1. F 0.00
(spacer::context::check_reachability :time 0.08 :before-memory 11.00 :after-memory 11.13)
Propagating: 1 2 3 4 5 6 7 8 9 10 11 12 13 14 15 16 17 18  ! 19 
(spacer::context::propagate :time 0.06 :before-memory 11.13 :after-memory 11.38)
Entering level 19
BRUNCH_STAT max_query_lvl 18
BRUNCH_STAT num_queries 230
BRUNCH_STAT num_reach_queries 0
BRUNCH_STAT num_reach_reuse 0
BRUNCH_STAT inductive_lvl 0
BRUNCH_STAT max_depth 19
BRUNCH_STAT cex_depth 0
expand: query!0 (19, 0) FAR  w(0) 1.
	create_child: MAIN (18, 19) FAR 3379 U 0.00
expand: MAIN (18, 0) FAR  w(0) 3379.
	create_child: MAIN (17, 19) FAR 36979 U 0.00
expand: MAIN (17, 0) FAR  w(0) 36979.
	create_child: MAIN (16, 19) FAR 37081 U 0.00
expand: MAIN (16, 0) FAR  w(0) 37081.
	create_child: MAIN (15, 19) FAR 37112 U 0.00
expand: MAIN (15, 0) FAR  w(0) 37112.
	create_child: MAIN (14, 19) FAR 37213 U 0.00
expand: MAIN (14, 0) FAR  w(0) 37213.
	create_child: MAIN (13, 19) FAR 37049 U 0.00
expand: MAIN (13, 0) FAR  w(0) 37049.
	create_child: MAIN (12, 19) FAR 42235 U 0.00
expand: MAIN (12, 0) FAR  w(0) 42235. F 0.00
expand: MAIN (13, 0) FAR  w(0) 37049. F 0.00
expand: MAIN (14, 0) FAR  w(0) 37213. F 0.00
expand: MAIN (15, 0) FAR  w(0) 37112. F 0.00
expand: MAIN (16, 0) FAR  w(0) 37081. F 0.00
expand: MAIN (17, 0) FAR  w(0) 36979. F 0.00
expand: MAIN (18, 0) FAR  w(0) 3379.
	create_child: MAIN (17, 19) FAR 19680 U 0.00
expand: MAIN (17, 0) FAR  w(0) 19680.
	create_child: MAIN (16, 19) FAR 19766 U 0.00
expand: MAIN (16, 0) FAR  w(0) 19766.
	create_child: MAIN (15, 19) FAR 19721 U 0.00
expand: MAIN (15, 0) FAR  w(0) 19721.
	create_child: MAIN (14, 19) FAR 37552 U 0.00
expand: MAIN (14, 0) FAR  w(0) 37552. F 0.00
expand: MAIN (15, 0) FAR  w(0) 19721. F 0.00
expand: MAIN (16, 0) FAR  w(0) 19766. F 0.00
expand: MAIN (17, 0) FAR  w(0) 19680. F 0.00
expand: MAIN (18, 0) FAR  w(0) 3379.
	create_child: MAIN (17, 19) FAR 20350 U 0.00
expand: MAIN (17, 0) FAR  w(0) 20350.
	create_child: MAIN (16, 19) FAR 20458 U 0.00
expand: MAIN (16, 0) FAR  w(0) 20458.
	create_child: MAIN (15, 19) FAR 20520 U 0.00
expand: MAIN (15, 0) FAR  w(0) 20520.
	create_child: MAIN (14, 19) FAR 20374 U 0.00
expand: MAIN (14, 0) FAR  w(0) 20374.
	create_child: MAIN (13, 19) FAR 20433 U 0.00
expand: MAIN (13, 0) FAR  w(0) 20433.
	create_child: MAIN (12, 19) FAR 20638 U 0.00
expand: MAIN (12, 0) FAR  w(0) 20638.
	create_child: MAIN (11, 19) FAR 25147 U 0.00
expand: MAIN (11, 0) FAR  w(0) 25147.
	create_child: MAIN (10, 19) FAR 24736 U 0.00
expand: MAIN (10, 0) FAR  w(0) 24736.
	create_child: MAIN (9, 19) FAR 27549 U 0.00
expand: MAIN (9, 0) FAR  w(0) 27549.
	create_child: MAIN (8, 19) FAR 29744 U 0.00
expand: MAIN (8, 0) FAR  w(0) 29744.
	create_child: MAIN (7, 19) FAR 31971 U 0.00
expand: MAIN (7, 0) FAR  w(0) 31971.
	create_child: MAIN (6, 19) FAR 32089 U 0.00
expand: MAIN (6, 0) FAR  w(0) 32089.
	create_child: MAIN (5, 19) FAR 37390 U 0.00
expand: MAIN (5, 0) FAR  w(0) 37390.
	create_child: MAIN (4, 19) FAR 38443 U 0.00
expand: MAIN (4, 0) FAR  w(0) 38443.
	create_child: MAIN (3, 19) FAR 37977 U 0.00
expand: MAIN (3, 0) FAR  w(0) 37977.
	create_child: MAIN (2, 19) FAR 41063 U 0.00
expand: MAIN (2, 0) FAR  w(0) 41063.
	create_child: MAIN (1, 19) FAR 43032 U 0.00
expand: MAIN (1, 0) FAR  w(0) 43032
Matrix
1, 

. F 0.01
expand: MAIN (2, 0) FAR  w(0) 41063
Matrix
1, 

. F 0.00
expand: MAIN (3, 0) FAR  w(0) 37977. F 0.00
expand: MAIN (4, 0) FAR  w(0) 38443. F 0.00
expand: MAIN (5, 0) FAR  w(0) 37390. F 0.00
expand: MAIN (6, 0) FAR  w(0) 32089. F 0.00
expand: MAIN (7, 0) FAR  w(0) 31971. F 0.00
expand: MAIN (8, 0) FAR  w(0) 29744. F 0.00
expand: MAIN (9, 0) FAR  w(0) 27549. F 0.00
expand: MAIN (10, 0) FAR  w(0) 24736. F 0.00
expand: MAIN (11, 0) FAR  w(0) 25147. F 0.00
expand: MAIN (12, 0) FAR  w(0) 20638. F 0.00
expand: MAIN (13, 0) FAR  w(0) 20433. F 0.00
expand: MAIN (14, 0) FAR  w(0) 20374. F 0.00
expand: MAIN (15, 0) FAR  w(0) 20520. F 0.00
expand: MAIN (16, 0) FAR  w(0) 20458. F 0.00
expand: MAIN (17, 0) FAR  w(0) 20350. F 0.00
expand: MAIN (18, 0) FAR  w(0) 3379. F 0.00
expand: query!0 (19, 0) FAR  w(0) 1. F 0.00
(spacer::context::check_reachability :time 0.14 :before-memory 11.38 :after-memory 11.66)
Propagating: 1 2 3 4 5 6 7 8 9 10 11 12 13 14 15 16 17 18 19  ! 20 
(spacer::context::propagate :time 0.08 :before-memory 11.66 :after-memory 11.76)
Entering level 20
BRUNCH_STAT max_query_lvl 19
BRUNCH_STAT num_queries 258
BRUNCH_STAT num_reach_queries 0
BRUNCH_STAT num_reach_reuse 0
BRUNCH_STAT inductive_lvl 0
BRUNCH_STAT max_depth 20
BRUNCH_STAT cex_depth 0
expand: query!0 (20, 0) FAR  w(0) 1.
	create_child: MAIN (19, 20) FAR 3379 U 0.00
expand: MAIN (19, 0) FAR  w(0) 3379.
	create_child: MAIN (18, 20) FAR 36979 U 0.00
expand: MAIN (18, 0) FAR  w(0) 36979.
	create_child: MAIN (17, 20) FAR 37081 U 0.00
expand: MAIN (17, 0) FAR  w(0) 37081.
	create_child: MAIN (16, 20) FAR 37112 U 0.00
expand: MAIN (16, 0) FAR  w(0) 37112.
	create_child: MAIN (15, 20) FAR 37213 U 0.00
expand: MAIN (15, 0) FAR  w(0) 37213.
	create_child: MAIN (14, 20) FAR 37049 U 0.00
expand: MAIN (14, 0) FAR  w(0) 37049.
	create_child: MAIN (13, 20) FAR 42235 U 0.00
expand: MAIN (13, 0) FAR  w(0) 42235.
	create_child: MAIN (12, 20) FAR 44971 U 0.00
expand: MAIN (12, 0) FAR  w(0) 44971. F 0.00
expand: MAIN (13, 0) FAR  w(0) 42235. F 0.00
expand: MAIN (14, 0) FAR  w(0) 37049. F 0.00
expand: MAIN (15, 0) FAR  w(0) 37213. F 0.00
expand: MAIN (16, 0) FAR  w(0) 37112. F 0.00
expand: MAIN (17, 0) FAR  w(0) 37081. F 0.00
expand: MAIN (18, 0) FAR  w(0) 36979. F 0.00
expand: MAIN (19, 0) FAR  w(0) 3379.
	create_child: MAIN (18, 20) FAR 19680 U 0.00
expand: MAIN (18, 0) FAR  w(0) 19680.
	create_child: MAIN (17, 20) FAR 19766 U 0.00
expand: MAIN (17, 0) FAR  w(0) 19766.
	create_child: MAIN (16, 20) FAR 19721 U 0.00
expand: MAIN (16, 0) FAR  w(0) 19721.
	create_child: MAIN (15, 20) FAR 37552 U 0.00
expand: MAIN (15, 0) FAR  w(0) 37552.
	create_child: MAIN (14, 20) FAR 37566 U 0.00
expand: MAIN (14, 0) FAR  w(0) 37566. F 0.00
expand: MAIN (15, 0) FAR  w(0) 37552. F 0.00
expand: MAIN (16, 0) FAR  w(0) 19721. F 0.00
expand: MAIN (17, 0) FAR  w(0) 19766. F 0.00
expand: MAIN (18, 0) FAR  w(0) 19680. F 0.00
expand: MAIN (19, 0) FAR  w(0) 3379.
	create_child: MAIN (18, 20) FAR 20350 U 0.00
expand: MAIN (18, 0) FAR  w(0) 20350.
	create_child: MAIN (17, 20) FAR 20458 U 0.00
expand: MAIN (17, 0) FAR  w(0) 20458.
	create_child: MAIN (16, 20) FAR 20520 U 0.00
expand: MAIN (16, 0) FAR  w(0) 20520.
	create_child: MAIN (15, 20) FAR 20374 U 0.00
expand: MAIN (15, 0) FAR  w(0) 20374.
	create_child: MAIN (14, 20) FAR 20433 U 0.00
expand: MAIN (14, 0) FAR  w(0) 20433.
	create_child: MAIN (13, 20) FAR 20638 U 0.00
expand: MAIN (13, 0) FAR  w(0) 20638.
	create_child: MAIN (12, 20) FAR 25147 U 0.00
expand: MAIN (12, 0) FAR  w(0) 25147.
	create_child: MAIN (11, 20) FAR 24736 U 0.00
expand: MAIN (11, 0) FAR  w(0) 24736.
	create_child: MAIN (10, 20) FAR 27549 U 0.00
expand: MAIN (10, 0) FAR  w(0) 27549.
	create_child: MAIN (9, 20) FAR 29744 U 0.00
expand: MAIN (9, 0) FAR  w(0) 29744.
	create_child: MAIN (8, 20) FAR 31971 U 0.00
expand: MAIN (8, 0) FAR  w(0) 31971.
	create_child: MAIN (7, 20) FAR 32089 U 0.00
expand: MAIN (7, 0) FAR  w(0) 32089.
	create_child: MAIN (6, 20) FAR 37390 U 0.00
expand: MAIN (6, 0) FAR  w(0) 37390.
	create_child: MAIN (5, 20) FAR 38443 U 0.00
expand: MAIN (5, 0) FAR  w(0) 38443.
	create_child: MAIN (4, 20) FAR 37977 U 0.00
expand: MAIN (4, 0) FAR  w(0) 37977.
	create_child: MAIN (3, 20) FAR 41063 U 0.00
expand: MAIN (3, 0) FAR  w(0) 41063.
	create_child: MAIN (2, 20) FAR 43032 U 0.00
expand: MAIN (2, 0) FAR  w(0) 43032.
	create_child: MAIN (1, 20) FAR 46288 U 0.00
expand: MAIN (1, 0) FAR  w(0) 46288
Matrix
1, 

. F 0.01
expand: MAIN (2, 0) FAR  w(0) 43032
Matrix
1, 

. F 0.01
expand: MAIN (3, 0) FAR  w(0) 41063. F 0.00
expand: MAIN (4, 0) FAR  w(0) 37977. F 0.00
expand: MAIN (5, 0) FAR  w(0) 38443. F 0.00
expand: MAIN (6, 0) FAR  w(0) 37390. F 0.00
expand: MAIN (7, 0) FAR  w(0) 32089. F 0.00
expand: MAIN (8, 0) FAR  w(0) 31971. F 0.00
expand: MAIN (9, 0) FAR  w(0) 29744. F 0.00
expand: MAIN (10, 0) FAR  w(0) 27549. F 0.00
expand: MAIN (11, 0) FAR  w(0) 24736. F 0.00
expand: MAIN (12, 0) FAR  w(0) 25147. F 0.00
expand: MAIN (13, 0) FAR  w(0) 20638. F 0.00
expand: MAIN (14, 0) FAR  w(0) 20433. F 0.00
expand: MAIN (15, 0) FAR  w(0) 20374. F 0.00
expand: MAIN (16, 0) FAR  w(0) 20520. F 0.00
expand: MAIN (17, 0) FAR  w(0) 20458. F 0.00
expand: MAIN (18, 0) FAR  w(0) 20350. F 0.00
expand: MAIN (19, 0) FAR  w(0) 3379. F 0.00
expand: query!0 (20, 0) FAR  w(0) 1. F 0.00
(spacer::context::check_reachability :time 0.17 :before-memory 11.76 :after-memory 11.96)
Propagating: 1 2 3 4 5 6 7 8 9 10 11 12 13 14 15 16 17 18 19 20  ! 21 
(spacer::context::propagate :time 0.09 :before-memory 11.96 :after-memory 13.29)
Entering level 21
BRUNCH_STAT max_query_lvl 20
BRUNCH_STAT num_queries 289
BRUNCH_STAT num_reach_queries 0
BRUNCH_STAT num_reach_reuse 0
BRUNCH_STAT inductive_lvl 0
BRUNCH_STAT max_depth 21
BRUNCH_STAT cex_depth 0
expand: query!0 (21, 0) FAR  w(0) 1.
	create_child: MAIN (20, 21) FAR 3379 U 0.00
expand: MAIN (20, 0) FAR  w(0) 3379.
	create_child: MAIN (19, 21) FAR 36979 U 0.00
expand: MAIN (19, 0) FAR  w(0) 36979.
	create_child: MAIN (18, 21) FAR 37081 U 0.00
expand: MAIN (18, 0) FAR  w(0) 37081.
	create_child: MAIN (17, 21) FAR 37112 U 0.00
expand: MAIN (17, 0) FAR  w(0) 37112.
	create_child: MAIN (16, 21) FAR 37213 U 0.00
expand: MAIN (16, 0) FAR  w(0) 37213.
	create_child: MAIN (15, 21) FAR 37049 U 0.00
expand: MAIN (15, 0) FAR  w(0) 37049.
	create_child: MAIN (14, 21) FAR 42235 U 0.00
expand: MAIN (14, 0) FAR  w(0) 42235.
	create_child: MAIN (13, 21) FAR 44971 U 0.00
expand: MAIN (13, 0) FAR  w(0) 44971.
	create_child: MAIN (12, 21) FAR 47949 U 0.00
expand: MAIN (12, 0) FAR  w(0) 47949. F 0.00
expand: MAIN (13, 0) FAR  w(0) 44971. F 0.00
expand: MAIN (14, 0) FAR  w(0) 42235. F 0.00
expand: MAIN (15, 0) FAR  w(0) 37049. F 0.00
expand: MAIN (16, 0) FAR  w(0) 37213. F 0.00
expand: MAIN (17, 0) FAR  w(0) 37112. F 0.00
expand: MAIN (18, 0) FAR  w(0) 37081. F 0.00
expand: MAIN (19, 0) FAR  w(0) 36979. F 0.00
expand: MAIN (20, 0) FAR  w(0) 3379.
	create_child: MAIN (19, 21) FAR 19680 U 0.00
expand: MAIN (19, 0) FAR  w(0) 19680.
	create_child: MAIN (18, 21) FAR 19766 U 0.00
expand: MAIN (18, 0) FAR  w(0) 19766.
	create_child: MAIN (17, 21) FAR 19721 U 0.00
expand: MAIN (17, 0) FAR  w(0) 19721.
	create_child: MAIN (16, 21) FAR 37552 U 0.00
expand: MAIN (16, 0) FAR  w(0) 37552.
	create_child: MAIN (15, 21) FAR 37566 U 0.00
expand: MAIN (15, 0) FAR  w(0) 37566.
	create_child: MAIN (14, 21) FAR 48434 U 0.00
expand: MAIN (14, 0) FAR  w(0) 48434. F 0.00
expand: MAIN (15, 0) FAR  w(0) 37566. F 0.00
expand: MAIN (16, 0) FAR  w(0) 37552. F 0.00
expand: MAIN (17, 0) FAR  w(0) 19721. F 0.00
expand: MAIN (18, 0) FAR  w(0) 19766. F 0.00
expand: MAIN (19, 0) FAR  w(0) 19680. F 0.00
expand: MAIN (20, 0) FAR  w(0) 3379.
	create_child: MAIN (19, 21) FAR 20350 U 0.00
expand: MAIN (19, 0) FAR  w(0) 20350.
	create_child: MAIN (18, 21) FAR 20458 U 0.00
expand: MAIN (18, 0) FAR  w(0) 20458.
	create_child: MAIN (17, 21) FAR 20520 U 0.00
expand: MAIN (17, 0) FAR  w(0) 20520.
	create_child: MAIN (16, 21) FAR 20374 U 0.00
expand: MAIN (16, 0) FAR  w(0) 20374.
	create_child: MAIN (15, 21) FAR 20433 U 0.00
expand: MAIN (15, 0) FAR  w(0) 20433.
	create_child: MAIN (14, 21) FAR 20638 U 0.00
expand: MAIN (14, 0) FAR  w(0) 20638.
	create_child: MAIN (13, 21) FAR 25147 U 0.00
expand: MAIN (13, 0) FAR  w(0) 25147.
	create_child: MAIN (12, 21) FAR 24736 U 0.00
expand: MAIN (12, 0) FAR  w(0) 24736.
	create_child: MAIN (11, 21) FAR 27549 U 0.00
expand: MAIN (11, 0) FAR  w(0) 27549.
	create_child: MAIN (10, 21) FAR 29744 U 0.00
expand: MAIN (10, 0) FAR  w(0) 29744.
	create_child: MAIN (9, 21) FAR 31971 U 0.00
expand: MAIN (9, 0) FAR  w(0) 31971.
	create_child: MAIN (8, 21) FAR 32089 U 0.00
expand: MAIN (8, 0) FAR  w(0) 32089.
	create_child: MAIN (7, 21) FAR 37390 U 0.00
expand: MAIN (7, 0) FAR  w(0) 37390.
	create_child: MAIN (6, 21) FAR 38443 U 0.01
expand: MAIN (6, 0) FAR  w(0) 38443.
	create_child: MAIN (5, 21) FAR 37977 U 0.01
expand: MAIN (5, 0) FAR  w(0) 37977.
	create_child: MAIN (4, 21) FAR 41063 U 0.01
expand: MAIN (4, 0) FAR  w(0) 41063.
	create_child: MAIN (3, 21) FAR 43032 U 0.01
expand: MAIN (3, 0) FAR  w(0) 43032.
	create_child: MAIN (2, 21) FAR 46288 U 0.00
expand: MAIN (2, 0) FAR  w(0) 46288.
	create_child: MAIN (1, 21) FAR 48748 U 0.00
expand: MAIN (1, 0) FAR  w(0) 48748
Matrix
1, 

. F 0.00
expand: MAIN (2, 0) FAR  w(0) 46288
Matrix
1, 

. F 0.00
expand: MAIN (3, 0) FAR  w(0) 43032. F 0.00
expand: MAIN (4, 0) FAR  w(0) 41063. F 0.00
expand: MAIN (5, 0) FAR  w(0) 37977. F 0.00
expand: MAIN (6, 0) FAR  w(0) 38443. F 0.00
expand: MAIN (7, 0) FAR  w(0) 37390. F 0.00
expand: MAIN (8, 0) FAR  w(0) 32089. F 0.00
expand: MAIN (9, 0) FAR  w(0) 31971. F 0.00
expand: MAIN (10, 0) FAR  w(0) 29744. F 0.00
expand: MAIN (11, 0) FAR  w(0) 27549. F 0.00
expand: MAIN (12, 0) FAR  w(0) 24736. F 0.00
expand: MAIN (13, 0) FAR  w(0) 25147. F 0.00
expand: MAIN (14, 0) FAR  w(0) 20638. F 0.00
expand: MAIN (15, 0) FAR  w(0) 20433. F 0.00
expand: MAIN (16, 0) FAR  w(0) 20374. F 0.00
expand: MAIN (17, 0) FAR  w(0) 20520. F 0.00
expand: MAIN (18, 0) FAR  w(0) 20458. F 0.00
expand: MAIN (19, 0) FAR  w(0) 20350. F 0.00
expand: MAIN (20, 0) FAR  w(0) 3379. F 0.00
expand: query!0 (21, 0) FAR  w(0) 1. F 0.00
(spacer::context::check_reachability :time 0.19 :before-memory 13.29 :after-memory 13.52)
Propagating: 1 2 3 4 5 6 7 8 9 10 11 12 13 14 15 16 17 18 19 20 21  ! 22 
(spacer::context::propagate :time 0.07 :before-memory 13.52 :after-memory 13.52)
Entering level 22
BRUNCH_STAT max_query_lvl 21
BRUNCH_STAT num_queries 323
BRUNCH_STAT num_reach_queries 0
BRUNCH_STAT num_reach_reuse 0
BRUNCH_STAT inductive_lvl 0
BRUNCH_STAT max_depth 22
BRUNCH_STAT cex_depth 0
expand: query!0 (22, 0) FAR  w(0) 1.
	create_child: MAIN (21, 22) FAR 3379 U 0.00
expand: MAIN (21, 0) FAR  w(0) 3379.
	create_child: MAIN (20, 22) FAR 36979 U 0.00
expand: MAIN (20, 0) FAR  w(0) 36979.
	create_child: MAIN (19, 22) FAR 37081 U 0.00
expand: MAIN (19, 0) FAR  w(0) 37081.
	create_child: MAIN (18, 22) FAR 37112 U 0.00
expand: MAIN (18, 0) FAR  w(0) 37112.
	create_child: MAIN (17, 22) FAR 37213 U 0.00
expand: MAIN (17, 0) FAR  w(0) 37213.
	create_child: MAIN (16, 22) FAR 37049 U 0.00
expand: MAIN (16, 0) FAR  w(0) 37049.
	create_child: MAIN (15, 22) FAR 42235 U 0.00
expand: MAIN (15, 0) FAR  w(0) 42235.
	create_child: MAIN (14, 22) FAR 44971 U 0.00
expand: MAIN (14, 0) FAR  w(0) 44971.
	create_child: MAIN (13, 22) FAR 47949 U 0.00
expand: MAIN (13, 0) FAR  w(0) 47949.
	create_child: MAIN (12, 22) FAR 51034 U 0.00
expand: MAIN (12, 0) FAR  w(0) 51034. F 0.00
expand: MAIN (13, 0) FAR  w(0) 47949. F 0.00
expand: MAIN (14, 0) FAR  w(0) 44971. F 0.00
expand: MAIN (15, 0) FAR  w(0) 42235. F 0.00
expand: MAIN (16, 0) FAR  w(0) 37049. F 0.00
expand: MAIN (17, 0) FAR  w(0) 37213. F 0.00
expand: MAIN (18, 0) FAR  w(0) 37112. F 0.00
expand: MAIN (19, 0) FAR  w(0) 37081. F 0.00
expand: MAIN (20, 0) FAR  w(0) 36979. F 0.00
expand: MAIN (21, 0) FAR  w(0) 3379.
	create_child: MAIN (20, 22) FAR 19680 U 0.00
expand: MAIN (20, 0) FAR  w(0) 19680.
	create_child: MAIN (19, 22) FAR 19766 U 0.00
expand: MAIN (19, 0) FAR  w(0) 19766.
	create_child: MAIN (18, 22) FAR 19721 U 0.00
expand: MAIN (18, 0) FAR  w(0) 19721.
	create_child: MAIN (17, 22) FAR 37552 U 0.00
expand: MAIN (17, 0) FAR  w(0) 37552.
	create_child: MAIN (16, 22) FAR 37566 U 0.00
expand: MAIN (16, 0) FAR  w(0) 37566.
	create_child: MAIN (15, 22) FAR 48434 U 0.00
expand: MAIN (15, 0) FAR  w(0) 48434.
	create_child: MAIN (14, 22) FAR 51651 U 0.00
expand: MAIN (14, 0) FAR  w(0) 51651. F 0.00
expand: MAIN (15, 0) FAR  w(0) 48434. F 0.00
expand: MAIN (16, 0) FAR  w(0) 37566. F 0.00
expand: MAIN (17, 0) FAR  w(0) 37552. F 0.00
expand: MAIN (18, 0) FAR  w(0) 19721. F 0.00
expand: MAIN (19, 0) FAR  w(0) 19766. F 0.00
expand: MAIN (20, 0) FAR  w(0) 19680. F 0.00
expand: MAIN (21, 0) FAR  w(0) 3379.
	create_child: MAIN (20, 22) FAR 20350 U 0.00
expand: MAIN (20, 0) FAR  w(0) 20350.
	create_child: MAIN (19, 22) FAR 20458 U 0.00
expand: MAIN (19, 0) FAR  w(0) 20458.
	create_child: MAIN (18, 22) FAR 20520 U 0.00
expand: MAIN (18, 0) FAR  w(0) 20520.
	create_child: MAIN (17, 22) FAR 20374 U 0.00
expand: MAIN (17, 0) FAR  w(0) 20374.
	create_child: MAIN (16, 22) FAR 20433 U 0.00
expand: MAIN (16, 0) FAR  w(0) 20433.
	create_child: MAIN (15, 22) FAR 20638 U 0.00
expand: MAIN (15, 0) FAR  w(0) 20638.
	create_child: MAIN (14, 22) FAR 25147 U 0.00
expand: MAIN (14, 0) FAR  w(0) 25147.
	create_child: MAIN (13, 22) FAR 24736 U 0.00
expand: MAIN (13, 0) FAR  w(0) 24736.
	create_child: MAIN (12, 22) FAR 27549 U 0.00
expand: MAIN (12, 0) FAR  w(0) 27549.
	create_child: MAIN (11, 22) FAR 29744 U 0.00
expand: MAIN (11, 0) FAR  w(0) 29744.
	create_child: MAIN (10, 22) FAR 31971 U 0.00
expand: MAIN (10, 0) FAR  w(0) 31971.
	create_child: MAIN (9, 22) FAR 32089 U 0.00
expand: MAIN (9, 0) FAR  w(0) 32089.
	create_child: MAIN (8, 22) FAR 37390 U 0.00
expand: MAIN (8, 0) FAR  w(0) 37390.
	create_child: MAIN (7, 22) FAR 38443 U 0.00
expand: MAIN (7, 0) FAR  w(0) 38443.
	create_child: MAIN (6, 22) FAR 37977 U 0.00
expand: MAIN (6, 0) FAR  w(0) 37977.
	create_child: MAIN (5, 22) FAR 41063 U 0.00
expand: MAIN (5, 0) FAR  w(0) 41063.
	create_child: MAIN (4, 22) FAR 43032 U 0.00
expand: MAIN (4, 0) FAR  w(0) 43032.
	create_child: MAIN (3, 22) FAR 46288 U 0.00
expand: MAIN (3, 0) FAR  w(0) 46288.
	create_child: MAIN (2, 22) FAR 48748 U 0.00
expand: MAIN (2, 0) FAR  w(0) 48748.
	create_child: MAIN (1, 22) FAR 52026 U 0.00
expand: MAIN (1, 0) FAR  w(0) 52026
Matrix
1, 

. F 0.00
expand: MAIN (2, 0) FAR  w(0) 48748
Matrix
1, 

. F 0.00
expand: MAIN (3, 0) FAR  w(0) 46288. F 0.00
expand: MAIN (4, 0) FAR  w(0) 43032. F 0.00
expand: MAIN (5, 0) FAR  w(0) 41063. F 0.00
expand: MAIN (6, 0) FAR  w(0) 37977. F 0.00
expand: MAIN (7, 0) FAR  w(0) 38443. F 0.00
expand: MAIN (8, 0) FAR  w(0) 37390. F 0.00
expand: MAIN (9, 0) FAR  w(0) 32089. F 0.00
expand: MAIN (10, 0) FAR  w(0) 31971. F 0.00
expand: MAIN (11, 0) FAR  w(0) 29744. F 0.00
expand: MAIN (12, 0) FAR  w(0) 27549. F 0.00
expand: MAIN (13, 0) FAR  w(0) 24736. F 0.00
expand: MAIN (14, 0) FAR  w(0) 25147. F 0.00
expand: MAIN (15, 0) FAR  w(0) 20638. F 0.00
expand: MAIN (16, 0) FAR  w(0) 20433. F 0.00
expand: MAIN (17, 0) FAR  w(0) 20374. F 0.00
expand: MAIN (18, 0) FAR  w(0) 20520. F 0.00
expand: MAIN (19, 0) FAR  w(0) 20458. F 0.00
expand: MAIN (20, 0) FAR  w(0) 20350. F 0.00
expand: MAIN (21, 0) FAR  w(0) 3379. F 0.00
expand: query!0 (22, 0) FAR  w(0) 1. F 0.00
(spacer::context::check_reachability :time 0.18 :before-memory 13.52 :after-memory 13.75)
Propagating: 1 2 3 4 5 6 7 8 9 10 11 12 13 14 15 16 17 18 19 20 21 22  ! 23 
(spacer::context::propagate :time 0.08 :before-memory 13.75 :after-memory 13.85)
Entering level 23
BRUNCH_STAT max_query_lvl 22
BRUNCH_STAT num_queries 360
BRUNCH_STAT num_reach_queries 0
BRUNCH_STAT num_reach_reuse 0
BRUNCH_STAT inductive_lvl 0
BRUNCH_STAT max_depth 23
BRUNCH_STAT cex_depth 0
expand: query!0 (23, 0) FAR  w(0) 1.
	create_child: MAIN (22, 23) FAR 3379 U 0.00
expand: MAIN (22, 0) FAR  w(0) 3379.
	create_child: MAIN (21, 23) FAR 36979 U 0.00
expand: MAIN (21, 0) FAR  w(0) 36979.
	create_child: MAIN (20, 23) FAR 37081 U 0.00
expand: MAIN (20, 0) FAR  w(0) 37081.
	create_child: MAIN (19, 23) FAR 37112 U 0.00
expand: MAIN (19, 0) FAR  w(0) 37112.
	create_child: MAIN (18, 23) FAR 37213 U 0.00
expand: MAIN (18, 0) FAR  w(0) 37213.
	create_child: MAIN (17, 23) FAR 37049 U 0.00
expand: MAIN (17, 0) FAR  w(0) 37049.
	create_child: MAIN (16, 23) FAR 42235 U 0.00
expand: MAIN (16, 0) FAR  w(0) 42235.
	create_child: MAIN (15, 23) FAR 44971 U 0.00
expand: MAIN (15, 0) FAR  w(0) 44971.
	create_child: MAIN (14, 23) FAR 47949 U 0.00
expand: MAIN (14, 0) FAR  w(0) 47949.
	create_child: MAIN (13, 23) FAR 51034 U 0.00
expand: MAIN (13, 0) FAR  w(0) 51034.
	create_child: MAIN (12, 23) FAR 54292 U 0.00
expand: MAIN (12, 0) FAR  w(0) 54292. F 0.00
expand: MAIN (13, 0) FAR  w(0) 51034. F 0.00
expand: MAIN (14, 0) FAR  w(0) 47949. F 0.00
expand: MAIN (15, 0) FAR  w(0) 44971. F 0.00
expand: MAIN (16, 0) FAR  w(0) 42235. F 0.00
expand: MAIN (17, 0) FAR  w(0) 37049. F 0.00
expand: MAIN (18, 0) FAR  w(0) 37213. F 0.00
expand: MAIN (19, 0) FAR  w(0) 37112. F 0.00
expand: MAIN (20, 0) FAR  w(0) 37081. F 0.00
expand: MAIN (21, 0) FAR  w(0) 36979. F 0.00
expand: MAIN (22, 0) FAR  w(0) 3379.
	create_child: MAIN (21, 23) FAR 19680 U 0.00
expand: MAIN (21, 0) FAR  w(0) 19680.
	create_child: MAIN (20, 23) FAR 19766 U 0.00
expand: MAIN (20, 0) FAR  w(0) 19766.
	create_child: MAIN (19, 23) FAR 19721 U 0.00
expand: MAIN (19, 0) FAR  w(0) 19721.
	create_child: MAIN (18, 23) FAR 37552 U 0.00
expand: MAIN (18, 0) FAR  w(0) 37552.
	create_child: MAIN (17, 23) FAR 37566 U 0.00
expand: MAIN (17, 0) FAR  w(0) 37566.
	create_child: MAIN (16, 23) FAR 48434 U 0.00
expand: MAIN (16, 0) FAR  w(0) 48434.
	create_child: MAIN (15, 23) FAR 51651 U 0.00
expand: MAIN (15, 0) FAR  w(0) 51651.
	create_child: MAIN (14, 23) FAR 54976 U 0.00
expand: MAIN (14, 0) FAR  w(0) 54976. F 0.00
expand: MAIN (15, 0) FAR  w(0) 51651. F 0.00
expand: MAIN (16, 0) FAR  w(0) 48434. F 0.00
expand: MAIN (17, 0) FAR  w(0) 37566. F 0.00
expand: MAIN (18, 0) FAR  w(0) 37552. F 0.00
expand: MAIN (19, 0) FAR  w(0) 19721. F 0.00
expand: MAIN (20, 0) FAR  w(0) 19766. F 0.00
expand: MAIN (21, 0) FAR  w(0) 19680. F 0.00
expand: MAIN (22, 0) FAR  w(0) 3379.
	create_child: MAIN (21, 23) FAR 20350 U 0.00
expand: MAIN (21, 0) FAR  w(0) 20350.
	create_child: MAIN (20, 23) FAR 20458 U 0.00
expand: MAIN (20, 0) FAR  w(0) 20458.
	create_child: MAIN (19, 23) FAR 20520 U 0.00
expand: MAIN (19, 0) FAR  w(0) 20520.
	create_child: MAIN (18, 23) FAR 20374 U 0.00
expand: MAIN (18, 0) FAR  w(0) 20374.
	create_child: MAIN (17, 23) FAR 20433 U 0.00
expand: MAIN (17, 0) FAR  w(0) 20433.
	create_child: MAIN (16, 23) FAR 20638 U 0.00
expand: MAIN (16, 0) FAR  w(0) 20638.
	create_child: MAIN (15, 23) FAR 25147 U 0.00
expand: MAIN (15, 0) FAR  w(0) 25147.
	create_child: MAIN (14, 23) FAR 24736 U 0.00
expand: MAIN (14, 0) FAR  w(0) 24736.
	create_child: MAIN (13, 23) FAR 27549 U 0.00
expand: MAIN (13, 0) FAR  w(0) 27549.
	create_child: MAIN (12, 23) FAR 29744 U 0.00
expand: MAIN (12, 0) FAR  w(0) 29744.
	create_child: MAIN (11, 23) FAR 31971 U 0.00
expand: MAIN (11, 0) FAR  w(0) 31971.
	create_child: MAIN (10, 23) FAR 32089 U 0.00
expand: MAIN (10, 0) FAR  w(0) 32089.
	create_child: MAIN (9, 23) FAR 37390 U 0.00
expand: MAIN (9, 0) FAR  w(0) 37390.
	create_child: MAIN (8, 23) FAR 38443 U 0.00
expand: MAIN (8, 0) FAR  w(0) 38443.
	create_child: MAIN (7, 23) FAR 37977 U 0.00
expand: MAIN (7, 0) FAR  w(0) 37977.
	create_child: MAIN (6, 23) FAR 41063 U 0.00
expand: MAIN (6, 0) FAR  w(0) 41063.
	create_child: MAIN (5, 23) FAR 43032 U 0.00
expand: MAIN (5, 0) FAR  w(0) 43032.
	create_child: MAIN (4, 23) FAR 46288 U 0.00
expand: MAIN (4, 0) FAR  w(0) 46288.
	create_child: MAIN (3, 23) FAR 48748 U 0.00
expand: MAIN (3, 0) FAR  w(0) 48748.
	create_child: MAIN (2, 23) FAR 52026 U 0.00
expand: MAIN (2, 0) FAR  w(0) 52026.
	create_child: MAIN (1, 23) FAR 56046 U 0.00
expand: MAIN (1, 0) FAR  w(0) 56046
Matrix
1, 

. F 0.00
expand: MAIN (2, 0) FAR  w(0) 52026
Matrix
1, 

. F 0.00
expand: MAIN (3, 0) FAR  w(0) 48748. F 0.00
expand: MAIN (4, 0) FAR  w(0) 46288. F 0.00
expand: MAIN (5, 0) FAR  w(0) 43032. F 0.00
expand: MAIN (6, 0) FAR  w(0) 41063. F 0.00
expand: MAIN (7, 0) FAR  w(0) 37977. F 0.00
expand: MAIN (8, 0) FAR  w(0) 38443. F 0.00
expand: MAIN (9, 0) FAR  w(0) 37390. F 0.00
expand: MAIN (10, 0) FAR  w(0) 32089. F 0.00
expand: MAIN (11, 0) FAR  w(0) 31971. F 0.00
expand: MAIN (12, 0) FAR  w(0) 29744. F 0.00
expand: MAIN (13, 0) FAR  w(0) 27549. F 0.00
expand: MAIN (14, 0) FAR  w(0) 24736. F 0.00
expand: MAIN (15, 0) FAR  w(0) 25147. F 0.00
expand: MAIN (16, 0) FAR  w(0) 20638. F 0.00
expand: MAIN (17, 0) FAR  w(0) 20433. F 0.00
expand: MAIN (18, 0) FAR  w(0) 20374. F 0.00
expand: MAIN (19, 0) FAR  w(0) 20520. F 0.00
expand: MAIN (20, 0) FAR  w(0) 20458. F 0.00
expand: MAIN (21, 0) FAR  w(0) 20350. F 0.00
expand: MAIN (22, 0) FAR  w(0) 3379. F 0.00
expand: query!0 (23, 0) FAR  w(0) 1. F 0.00
(spacer::context::check_reachability :time 0.20 :before-memory 13.85 :after-memory 14.16)
Propagating: 1 2 3 4 5 6 7 8 9 10 11 12 13 14 15 16 17 18 19 20 21 22 23  ! 24 
(spacer::context::propagate :time 0.09 :before-memory 14.16 :after-memory 14.26)
Entering level 24
BRUNCH_STAT max_query_lvl 23
BRUNCH_STAT num_queries 400
BRUNCH_STAT num_reach_queries 0
BRUNCH_STAT num_reach_reuse 0
BRUNCH_STAT inductive_lvl 0
BRUNCH_STAT max_depth 24
BRUNCH_STAT cex_depth 0
expand: query!0 (24, 0) FAR  w(0) 1.
	create_child: MAIN (23, 24) FAR 3379 U 0.00
expand: MAIN (23, 0) FAR  w(0) 3379.
	create_child: MAIN (22, 24) FAR 36979 U 0.00
expand: MAIN (22, 0) FAR  w(0) 36979.
	create_child: MAIN (21, 24) FAR 37081 U 0.00
expand: MAIN (21, 0) FAR  w(0) 37081.
	create_child: MAIN (20, 24) FAR 37112 U 0.00
expand: MAIN (20, 0) FAR  w(0) 37112.
	create_child: MAIN (19, 24) FAR 37213 U 0.00
expand: MAIN (19, 0) FAR  w(0) 37213.
	create_child: MAIN (18, 24) FAR 37049 U 0.00
expand: MAIN (18, 0) FAR  w(0) 37049.
	create_child: MAIN (17, 24) FAR 42235 U 0.00
expand: MAIN (17, 0) FAR  w(0) 42235.
	create_child: MAIN (16, 24) FAR 44971 U 0.00
expand: MAIN (16, 0) FAR  w(0) 44971.
	create_child: MAIN (15, 24) FAR 47949 U 0.00
expand: MAIN (15, 0) FAR  w(0) 47949.
	create_child: MAIN (14, 24) FAR 51034 U 0.00
expand: MAIN (14, 0) FAR  w(0) 51034.
	create_child: MAIN (13, 24) FAR 54292 U 0.00
expand: MAIN (13, 0) FAR  w(0) 54292.
	create_child: MAIN (12, 24) FAR 58278 U 0.00
expand: MAIN (12, 0) FAR  w(0) 58278.
	create_child: MAIN (11, 24) FAR 58027 U 0.00
expand: MAIN (11, 0) FAR  w(0) 58027.
	create_child: MAIN (10, 24) FAR 58399 U 0.00
expand: MAIN (10, 0) FAR  w(0) 58399.
	create_child: MAIN (9, 24) FAR 57884 U 0.00
expand: MAIN (9, 0) FAR  w(0) 57884.
	create_child: MAIN (8, 24) FAR 58084 U 0.00
expand: MAIN (8, 0) FAR  w(0) 58084.
	create_child: MAIN (7, 24) FAR 58223 U 0.00
expand: MAIN (7, 0) FAR  w(0) 58223.
	create_child: MAIN (6, 24) FAR 58324 U 0.00
expand: MAIN (6, 0) FAR  w(0) 58324.
	create_child: MAIN (5, 24) FAR 58127 U 0.00
expand: MAIN (5, 0) FAR  w(0) 58127.
	create_child: MAIN (4, 24) FAR 58289 U 0.00
expand: MAIN (4, 0) FAR  w(0) 58289.
	create_child: MAIN (3, 24) FAR 58615 U 0.00
expand: MAIN (3, 0) FAR  w(0) 58615.
	create_child: MAIN (2, 24) FAR 58762 U 0.00
expand: MAIN (2, 0) FAR  w(0) 58762.
	create_child: MAIN (1, 24) FAR 58285 U 0.00
expand: MAIN (1, 0) FAR  w(0) 58285.
	create_child: MAIN (0, 24) FAR 58271 U 0.00
expand: MAIN (0, 0) FAR  w(0) 58271. F 0.00
expand: MAIN (1, 0) FAR  w(0) 58285. F 0.00
expand: MAIN (2, 0) FAR  w(0) 58762. F 0.00
expand: MAIN (3, 0) FAR  w(0) 58615. F 0.00
expand: MAIN (4, 0) FAR  w(0) 58289. F 0.00
expand: MAIN (5, 0) FAR  w(0) 58127. F 0.00
expand: MAIN (6, 0) FAR  w(0) 58324. F 0.00
expand: MAIN (7, 0) FAR  w(0) 58223. F 0.00
expand: MAIN (8, 0) FAR  w(0) 58084. F 0.00
expand: MAIN (9, 0) FAR  w(0) 57884. F 0.00
expand: MAIN (10, 0) FAR  w(0) 58399. F 0.00
expand: MAIN (11, 0) FAR  w(0) 58027. F 0.01
expand: MAIN (12, 0) FAR  w(0) 58278. F 0.01
expand: MAIN (13, 0) FAR  w(0) 54292. F 0.01
expand: MAIN (14, 0) FAR  w(0) 51034. F 0.01
expand: MAIN (15, 0) FAR  w(0) 47949. F 0.01
expand: MAIN (16, 0) FAR  w(0) 44971. F 0.01
expand: MAIN (17, 0) FAR  w(0) 42235. F 0.01
expand: MAIN (18, 0) FAR  w(0) 37049. F 0.01
expand: MAIN (19, 0) FAR  w(0) 37213. F 0.01
expand: MAIN (20, 0) FAR  w(0) 37112. F 0.01
expand: MAIN (21, 0) FAR  w(0) 37081. F 0.01
expand: MAIN (22, 0) FAR  w(0) 36979. F 0.01
expand: MAIN (23, 0) FAR  w(0) 3379.
	create_child: MAIN (22, 24) FAR 19680 U 0.00
expand: MAIN (22, 0) FAR  w(0) 19680.
	create_child: MAIN (21, 24) FAR 19766 U 0.00
expand: MAIN (21, 0) FAR  w(0) 19766.
	create_child: MAIN (20, 24) FAR 19721 U 0.00
expand: MAIN (20, 0) FAR  w(0) 19721.
	create_child: MAIN (19, 24) FAR 37552 U 0.00
expand: MAIN (19, 0) FAR  w(0) 37552.
	create_child: MAIN (18, 24) FAR 37566 U 0.00
expand: MAIN (18, 0) FAR  w(0) 37566. F 0.01
expand: MAIN (19, 0) FAR  w(0) 37552. F 0.01
expand: MAIN (20, 0) FAR  w(0) 19721. F 0.01
expand: MAIN (21, 0) FAR  w(0) 19766. F 0.01
expand: MAIN (22, 0) FAR  w(0) 19680. F 0.01
expand: MAIN (23, 0) FAR  w(0) 3379.
	create_child: MAIN (22, 24) FAR 20350 U 0.00
expand: MAIN (22, 0) FAR  w(0) 20350.
	create_child: MAIN (21, 24) FAR 20458 U 0.00
expand: MAIN (21, 0) FAR  w(0) 20458.
	create_child: MAIN (20, 24) FAR 20520 U 0.00
expand: MAIN (20, 0) FAR  w(0) 20520.
	create_child: MAIN (19, 24) FAR 20374 U 0.00
expand: MAIN (19, 0) FAR  w(0) 20374.
	create_child: MAIN (18, 24) FAR 20433 U 0.00
expand: MAIN (18, 0) FAR  w(0) 20433.
	create_child: MAIN (17, 24) FAR 35594 U 0.00
expand: MAIN (17, 0) FAR  w(0) 35594.
	create_child: MAIN (16, 24) FAR 35644 U 0.00
expand: MAIN (16, 0) FAR  w(0) 35644.
	create_child: MAIN (15, 24) FAR 35744 U 0.00
expand: MAIN (15, 0) FAR  w(0) 35744.
	create_child: MAIN (14, 24) FAR 35706 U 0.00
expand: MAIN (14, 0) FAR  w(0) 35706.
	create_child: MAIN (13, 24) FAR 35830 U 0.00
expand: MAIN (13, 0) FAR  w(0) 35830.
	create_child: MAIN (12, 24) FAR 35899 U 0.00
expand: MAIN (12, 0) FAR  w(0) 35899.
	create_child: MAIN (11, 24) FAR 35469 U 0.00
expand: MAIN (11, 0) FAR  w(0) 35469.
	create_child: MAIN (10, 24) FAR 35486 U 0.00
expand: MAIN (10, 0) FAR  w(0) 35486.
	create_child: MAIN (9, 24) FAR 35536 U 0.00
expand: MAIN (9, 0) FAR  w(0) 35536.
	create_child: MAIN (8, 24) FAR 62654 U 0.00
expand: MAIN (8, 0) FAR  w(0) 62654.
	create_child: MAIN (7, 24) FAR 62645 U 0.00
expand: MAIN (7, 0) FAR  w(0) 62645.
	create_child: MAIN (6, 24) FAR 62731 U 0.00
expand: MAIN (6, 0) FAR  w(0) 62731.
	create_child: MAIN (5, 24) FAR 62708 U 0.00
expand: MAIN (5, 0) FAR  w(0) 62708.
	create_child: MAIN (4, 24) FAR 62937 U 0.00
expand: MAIN (4, 0) FAR  w(0) 62937.
	create_child: MAIN (3, 24) FAR 62306 U 0.00
expand: MAIN (3, 0) FAR  w(0) 62306.
	create_child: MAIN (2, 24) FAR 62063 U 0.00
expand: MAIN (2, 0) FAR  w(0) 62063.
	create_child: MAIN (1, 24) FAR 62134 U 0.00
expand: MAIN (1, 0) FAR  w(0) 62134. F 0.00
expand: MAIN (2, 0) FAR  w(0) 62063
Matrix
1, 

. F 0.00
expand: MAIN (3, 0) FAR  w(0) 62306
Matrix
1, 

. F 0.00
expand: MAIN (4, 0) FAR  w(0) 62937
Matrix
1, 

. F 0.01
expand: MAIN (5, 0) FAR  w(0) 62708. F 0.01
expand: MAIN (6, 0) FAR  w(0) 62731. F 0.01
expand: MAIN (7, 0) FAR  w(0) 62645. F 0.01
expand: MAIN (8, 0) FAR  w(0) 62654. F 0.01
expand: MAIN (9, 0) FAR  w(0) 35536. F 0.01
expand: MAIN (10, 0) FAR  w(0) 35486. F 0.01
expand: MAIN (11, 0) FAR  w(0) 35469. F 0.01
expand: MAIN (12, 0) FAR  w(0) 35899. F 0.01
expand: MAIN (13, 0) FAR  w(0) 35830. F 0.01
expand: MAIN (14, 0) FAR  w(0) 35706. F 0.01
expand: MAIN (15, 0) FAR  w(0) 35744. F 0.01
expand: MAIN (16, 0) FAR  w(0) 35644. F 0.01
expand: MAIN (17, 0) FAR  w(0) 35594. F 0.01
expand: MAIN (18, 0) FAR  w(0) 20433. F 0.01
expand: MAIN (19, 0) FAR  w(0) 20374.
	create_child: MAIN (18, 24) FAR 20523 U 0.00
expand: MAIN (18, 0) FAR  w(0) 20523. F 0.01
expand: MAIN (19, 0) FAR  w(0) 20374. F 0.01
expand: MAIN (20, 0) FAR  w(0) 20520.
	create_child: MAIN (19, 24) FAR 68668 U 0.00
expand: MAIN (19, 0) FAR  w(0) 68668. F 0.01
expand: MAIN (20, 0) FAR  w(0) 20520. F 0.01
expand: MAIN (21, 0) FAR  w(0) 20458. F 0.01
expand: MAIN (22, 0) FAR  w(0) 20350. F 0.01
expand: MAIN (23, 0) FAR  w(0) 3379.
	create_child: MAIN (22, 24) FAR 69256 U 0.00
expand: MAIN (22, 0) FAR  w(0) 69256.
	create_child: MAIN (21, 24) FAR 69247 U 0.00
expand: MAIN (21, 0) FAR  w(0) 69247.
	create_child: MAIN (20, 24) FAR 69101 U 0.00
expand: MAIN (20, 0) FAR  w(0) 69101.
	create_child: MAIN (19, 24) FAR 69456 U 0.00
expand: MAIN (19, 0) FAR  w(0) 69456.
	create_child: MAIN (18, 24) FAR 69347 U 0.00
expand: MAIN (18, 0) FAR  w(0) 69347.
	create_child: MAIN (17, 24) FAR 69379 U 0.00
expand: MAIN (17, 0) FAR  w(0) 69379. F 0.01
expand: MAIN (18, 0) FAR  w(0) 69347. F 0.01
expand: MAIN (19, 0) FAR  w(0) 69456. F 0.01
expand: MAIN (20, 0) FAR  w(0) 69101. F 0.01
expand: MAIN (21, 0) FAR  w(0) 69247. F 0.01
expand: MAIN (22, 0) FAR  w(0) 69256. F 0.01
expand: MAIN (23, 0) FAR  w(0) 3379.
	create_child: MAIN (22, 24) FAR 70286 U 0.00
expand: MAIN (22, 0) FAR  w(0) 70286.
	create_child: MAIN (21, 24) FAR 70450 U 0.00
expand: MAIN (21, 0) FAR  w(0) 70450.
	create_child: MAIN (20, 24) FAR 70399 U 0.00
expand: MAIN (20, 0) FAR  w(0) 70399.
	create_child: MAIN (19, 24) FAR 70480 U 0.00
expand: MAIN (19, 0) FAR  w(0) 70480.
	create_child: MAIN (18, 24) FAR 70388 U 0.00
expand: MAIN (18, 0) FAR  w(0) 70388.
	create_child: MAIN (17, 24) FAR 70525 U 0.00
expand: MAIN (17, 0) FAR  w(0) 70525. F 0.01
expand: MAIN (18, 0) FAR  w(0) 70388. F 0.01
expand: MAIN (19, 0) FAR  w(0) 70480. F 0.01
expand: MAIN (20, 0) FAR  w(0) 70399. F 0.01
expand: MAIN (21, 0) FAR  w(0) 70450. F 0.01
expand: MAIN (22, 0) FAR  w(0) 70286. F 0.01
expand: MAIN (23, 0) FAR  w(0) 3379.
	create_child: MAIN (22, 24) FAR 70804 U 0.00
expand: MAIN (22, 0) FAR  w(0) 70804.
	create_child: MAIN (21, 24) FAR 71087 U 0.00
expand: MAIN (21, 0) FAR  w(0) 71087.
	create_child: MAIN (20, 24) FAR 70944 U 0.00
expand: MAIN (20, 0) FAR  w(0) 70944.
	create_child: MAIN (19, 24) FAR 71107 U 0.00
expand: MAIN (19, 0) FAR  w(0) 71107.
	create_child: MAIN (18, 24) FAR 71115 U 0.00
expand: MAIN (18, 0) FAR  w(0) 71115.
	create_child: MAIN (17, 24) FAR 71192 U 0.00
expand: MAIN (17, 0) FAR  w(0) 71192.
	create_child: MAIN (16, 24) FAR 71188 U 0.00
expand: MAIN (16, 0) FAR  w(0) 71188.
	create_child: MAIN (15, 24) FAR 71044 U 0.00
expand: MAIN (15, 0) FAR  w(0) 71044.
	create_child: MAIN (14, 24) FAR 71130 U 0.00
expand: MAIN (14, 0) FAR  w(0) 71130.
	create_child: MAIN (13, 24) FAR 71179 U 0.00
expand: MAIN (13, 0) FAR  w(0) 71179.
	create_child: MAIN (12, 24) FAR 71246 U 0.00
expand: MAIN (12, 0) FAR  w(0) 71246.
	create_child: MAIN (11, 24) FAR 70870 U 0.00
expand: MAIN (11, 0) FAR  w(0) 70870.
	create_child: MAIN (10, 24) FAR 71391 U 0.00
expand: MAIN (10, 0) FAR  w(0) 71391.
	create_child: MAIN (9, 24) FAR 71302 U 0.00
expand: MAIN (9, 0) FAR  w(0) 71302.
	create_child: MAIN (8, 24) FAR 71067 U 0.00
expand: MAIN (8, 0) FAR  w(0) 71067.
	create_child: MAIN (7, 24) FAR 71248 U 0.00
expand: MAIN (7, 0) FAR  w(0) 71248.
	create_child: MAIN (6, 24) FAR 71219 U 0.00
expand: MAIN (6, 0) FAR  w(0) 71219.
	create_child: MAIN (5, 24) FAR 71380 U 0.00
expand: MAIN (5, 0) FAR  w(0) 71380.
	create_child: MAIN (4, 24) FAR 71463 U 0.00
expand: MAIN (4, 0) FAR  w(0) 71463. F 0.01
expand: MAIN (5, 0) FAR  w(0) 71380. F 0.01
expand: MAIN (6, 0) FAR  w(0) 71219. F 0.01
expand: MAIN (7, 0) FAR  w(0) 71248. F 0.01
expand: MAIN (8, 0) FAR  w(0) 71067. F 0.01
expand: MAIN (9, 0) FAR  w(0) 71302. F 0.01
expand: MAIN (10, 0) FAR  w(0) 71391. F 0.01
expand: MAIN (11, 0) FAR  w(0) 70870. F 0.01
expand: MAIN (12, 0) FAR  w(0) 71246. F 0.01
expand: MAIN (13, 0) FAR  w(0) 71179. F 0.01
expand: MAIN (14, 0) FAR  w(0) 71130. F 0.01
expand: MAIN (15, 0) FAR  w(0) 71044. F 0.01
expand: MAIN (16, 0) FAR  w(0) 71188. F 0.01
expand: MAIN (17, 0) FAR  w(0) 71192. F 0.01
expand: MAIN (18, 0) FAR  w(0) 71115. F 0.01
expand: MAIN (19, 0) FAR  w(0) 71107. F 0.01
expand: MAIN (20, 0) FAR  w(0) 70944. F 0.01
expand: MAIN (21, 0) FAR  w(0) 71087. F 0.01
expand: MAIN (22, 0) FAR  w(0) 70804. F 0.01
expand: MAIN (23, 0) FAR  w(0) 3379. F 0.00
expand: query!0 (24, 0) FAR  w(0) 1. F 0.00
(spacer::context::check_reachability :time 0.84 :before-memory 14.26 :after-memory 16.45)
Propagating: 0 1 2 3 4 5 6 7 8 9 10 11 12 13 14 15 16 17 18 19 20 21 22 23 24  ! 25 
(spacer::context::propagate :time 0.26 :before-memory 16.45 :after-memory 16.54)
Entering level 25
BRUNCH_STAT max_query_lvl 24
BRUNCH_STAT num_queries 484
BRUNCH_STAT num_reach_queries 0
BRUNCH_STAT num_reach_reuse 0
BRUNCH_STAT inductive_lvl 0
BRUNCH_STAT max_depth 25
BRUNCH_STAT cex_depth 0
expand: query!0 (25, 0) FAR  w(0) 1.
	create_child: MAIN (24, 25) FAR 3379 U 0.00
expand: MAIN (24, 0) FAR  w(0) 3379.
	create_child: MAIN (23, 25) FAR 20350 U 0.00
expand: MAIN (23, 0) FAR  w(0) 20350.
	create_child: MAIN (22, 25) FAR 20458 U 0.00
expand: MAIN (22, 0) FAR  w(0) 20458.
	create_child: MAIN (21, 25) FAR 20520 U 0.00
expand: MAIN (21, 0) FAR  w(0) 20520.
	create_child: MAIN (20, 25) FAR 20374 U 0.00
expand: MAIN (20, 0) FAR  w(0) 20374.
	create_child: MAIN (19, 25) FAR 20433 U 0.00
expand: MAIN (19, 0) FAR  w(0) 20433.
	create_child: MAIN (18, 25) FAR 35594 U 0.00
expand: MAIN (18, 0) FAR  w(0) 35594.
	create_child: MAIN (17, 25) FAR 35644 U 0.00
expand: MAIN (17, 0) FAR  w(0) 35644.
	create_child: MAIN (16, 25) FAR 35744 U 0.00
expand: MAIN (16, 0) FAR  w(0) 35744.
	create_child: MAIN (15, 25) FAR 35706 U 0.00
expand: MAIN (15, 0) FAR  w(0) 35706.
	create_child: MAIN (14, 25) FAR 35830 U 0.00
expand: MAIN (14, 0) FAR  w(0) 35830.
	create_child: MAIN (13, 25) FAR 35899 U 0.00
expand: MAIN (13, 0) FAR  w(0) 35899.
	create_child: MAIN (12, 25) FAR 35469 U 0.00
expand: MAIN (12, 0) FAR  w(0) 35469.
	create_child: MAIN (11, 25) FAR 35486 U 0.00
expand: MAIN (11, 0) FAR  w(0) 35486.
	create_child: MAIN (10, 25) FAR 35536 U 0.00
expand: MAIN (10, 0) FAR  w(0) 35536.
	create_child: MAIN (9, 25) FAR 62654 U 0.00
expand: MAIN (9, 0) FAR  w(0) 62654.
	create_child: MAIN (8, 25) FAR 62645 U 0.00
expand: MAIN (8, 0) FAR  w(0) 62645.
	create_child: MAIN (7, 25) FAR 62731 U 0.00
expand: MAIN (7, 0) FAR  w(0) 62731.
	create_child: MAIN (6, 25) FAR 62708 U 0.00
expand: MAIN (6, 0) FAR  w(0) 62708.
	create_child: MAIN (5, 25) FAR 62937 U 0.00
expand: MAIN (5, 0) FAR  w(0) 62937.
	create_child: MAIN (4, 25) FAR 62306 U 0.00
expand: MAIN (4, 0) FAR  w(0) 62306. F 0.00
expand: MAIN (5, 0) FAR  w(0) 62937. F 0.01
expand: MAIN (6, 0) FAR  w(0) 62708. F 0.01
expand: MAIN (7, 0) FAR  w(0) 62731. F 0.01
expand: MAIN (8, 0) FAR  w(0) 62645. F 0.01
expand: MAIN (9, 0) FAR  w(0) 62654. F 0.01
expand: MAIN (10, 0) FAR  w(0) 35536. F 0.01
expand: MAIN (11, 0) FAR  w(0) 35486. F 0.01
expand: MAIN (12, 0) FAR  w(0) 35469. F 0.01
expand: MAIN (13, 0) FAR  w(0) 35899. F 0.01
expand: MAIN (14, 0) FAR  w(0) 35830. F 0.01
expand: MAIN (15, 0) FAR  w(0) 35706. F 0.01
expand: MAIN (16, 0) FAR  w(0) 35744. F 0.01
expand: MAIN (17, 0) FAR  w(0) 35644. F 0.01
expand: MAIN (18, 0) FAR  w(0) 35594. F 0.01
expand: MAIN (19, 0) FAR  w(0) 20433. F 0.01
expand: MAIN (20, 0) FAR  w(0) 20374.
	create_child: MAIN (19, 25) FAR 20523 U 0.00
expand: MAIN (19, 0) FAR  w(0) 20523. F 0.01
expand: MAIN (20, 0) FAR  w(0) 20374. F 0.01
expand: MAIN (21, 0) FAR  w(0) 20520.
	create_child: MAIN (20, 25) FAR 68668 U 0.00
expand: MAIN (20, 0) FAR  w(0) 68668. F 0.01
expand: MAIN (21, 0) FAR  w(0) 20520. F 0.01
expand: MAIN (22, 0) FAR  w(0) 20458. F 0.01
expand: MAIN (23, 0) FAR  w(0) 20350. F 0.01
expand: MAIN (24, 0) FAR  w(0) 3379.
	create_child: MAIN (23, 25) FAR 70804 U 0.00
expand: MAIN (23, 0) FAR  w(0) 70804.
	create_child: MAIN (22, 25) FAR 71087 U 0.00
expand: MAIN (22, 0) FAR  w(0) 71087.
	create_child: MAIN (21, 25) FAR 70944 U 0.00
expand: MAIN (21, 0) FAR  w(0) 70944.
	create_child: MAIN (20, 25) FAR 71107 U 0.00
expand: MAIN (20, 0) FAR  w(0) 71107.
	create_child: MAIN (19, 25) FAR 71115 U 0.00
expand: MAIN (19, 0) FAR  w(0) 71115.
	create_child: MAIN (18, 25) FAR 71192 U 0.00
expand: MAIN (18, 0) FAR  w(0) 71192.
	create_child: MAIN (17, 25) FAR 71188 U 0.00
expand: MAIN (17, 0) FAR  w(0) 71188.
	create_child: MAIN (16, 25) FAR 71044 U 0.00
expand: MAIN (16, 0) FAR  w(0) 71044.
	create_child: MAIN (15, 25) FAR 71130 U 0.00
expand: MAIN (15, 0) FAR  w(0) 71130.
	create_child: MAIN (14, 25) FAR 71179 U 0.00
expand: MAIN (14, 0) FAR  w(0) 71179.
	create_child: MAIN (13, 25) FAR 71246 U 0.00
expand: MAIN (13, 0) FAR  w(0) 71246.
	create_child: MAIN (12, 25) FAR 70870 U 0.00
expand: MAIN (12, 0) FAR  w(0) 70870.
	create_child: MAIN (11, 25) FAR 71391 U 0.00
expand: MAIN (11, 0) FAR  w(0) 71391.
	create_child: MAIN (10, 25) FAR 71302 U 0.00
expand: MAIN (10, 0) FAR  w(0) 71302.
	create_child: MAIN (9, 25) FAR 71067 U 0.00
expand: MAIN (9, 0) FAR  w(0) 71067.
	create_child: MAIN (8, 25) FAR 71248 U 0.00
expand: MAIN (8, 0) FAR  w(0) 71248.
	create_child: MAIN (7, 25) FAR 71219 U 0.00
expand: MAIN (7, 0) FAR  w(0) 71219.
	create_child: MAIN (6, 25) FAR 71380 U 0.00
expand: MAIN (6, 0) FAR  w(0) 71380.
	create_child: MAIN (5, 25) FAR 71463 U 0.00
expand: MAIN (5, 0) FAR  w(0) 71463.
	create_child: MAIN (4, 25) FAR 82573 U 0.00
expand: MAIN (4, 0) FAR  w(0) 82573. F 0.01
expand: MAIN (5, 0) FAR  w(0) 71463. F 0.01
expand: MAIN (6, 0) FAR  w(0) 71380. F 0.01
expand: MAIN (7, 0) FAR  w(0) 71219. F 0.01
expand: MAIN (8, 0) FAR  w(0) 71248. F 0.01
expand: MAIN (9, 0) FAR  w(0) 71067. F 0.01
expand: MAIN (10, 0) FAR  w(0) 71302. F 0.01
expand: MAIN (11, 0) FAR  w(0) 71391. F 0.01
expand: MAIN (12, 0) FAR  w(0) 70870. F 0.01
expand: MAIN (13, 0) FAR  w(0) 71246. F 0.01
expand: MAIN (14, 0) FAR  w(0) 71179. F 0.01
expand: MAIN (15, 0) FAR  w(0) 71130. F 0.01
expand: MAIN (16, 0) FAR  w(0) 71044. F 0.01
expand: MAIN (17, 0) FAR  w(0) 71188. F 0.01
expand: MAIN (18, 0) FAR  w(0) 71192. F 0.01
expand: MAIN (19, 0) FAR  w(0) 71115. F 0.01
expand: MAIN (20, 0) FAR  w(0) 71107. F 0.01
expand: MAIN (21, 0) FAR  w(0) 70944. F 0.01
expand: MAIN (22, 0) FAR  w(0) 71087. F 0.01
expand: MAIN (23, 0) FAR  w(0) 70804. F 0.01
expand: MAIN (24, 0) FAR  w(0) 3379. F 0.00
expand: query!0 (25, 0) FAR  w(0) 1. F 0.00
(spacer::context::check_reachability :time 0.48 :before-memory 16.54 :after-memory 17.02)
Propagating: 4 5 6 7 8 9 10 11 12 13 14 15 16 17 18 19 20 21 22 23 24 
(spacer::context::propagate :time 0.22 :before-memory 17.02 :after-memory 17.22)
(define-fun MAIN ((x!0 Int)
 (x!1 Int)
 (x!2 Bool)
 (x!3 Bool)
 (x!4 Bool)
 (x!5 Int)
 (x!6 Int)
 (x!7 Int)
 (x!8 Bool)
 (x!9 Int)
 (x!10 Bool)
 (x!11 Bool)
 (x!12 Bool)
 (x!13 Int)
 (x!14 Bool)
 (x!15 Bool)
 (x!16 Bool)
 (x!17 Bool)
 (x!18 Bool)
 (x!19 Bool)
 (x!20 Bool)
 (x!21 Bool)
 (x!22 Bool)
 (x!23 Bool)) Bool
  (let ((a!1 (not (<= (+ x!6 (* (- 1) x!5)) (- 11))))
        (a!2 (not (<= (+ x!7 (* (- 1) x!5)) 10)))
        (a!3 (not (>= (+ x!1 (* (- 1) x!0)) 31)))
        (a!4 (not (>= (+ x!7 (* (- 1) x!5)) 10)))
        (a!5 (not (<= (+ x!6 (* (- 1) x!5)) (- 10))))
        (a!6 (or (>= (+ x!7 (* (- 1) x!5)) 0) (not x!17)))
        (a!7 (not (>= (+ x!6 (* (- 1) x!5)) 0)))
        (a!8 (not (<= (+ x!7 (* (- 1) x!5)) 9)))
        (a!9 (not (>= (+ x!6 (* (- 1) x!5)) (- 10))))
        (a!10 (not (<= (+ x!6 (* (- 1) x!7)) (- 26))))
        (a!11 (not (<= (+ x!6 (* (- 1) x!7)) (- 27))))
        (a!12 (not (<= (+ x!6 (* (- 1) x!7)) (- 28))))
        (a!13 (not (<= (+ x!6 (* (- 1) x!7)) (- 29))))
        (a!14 (not (<= (+ x!6 (* (- 1) x!7)) (- 30)))))
    (and (or a!1 (not x!3))
         x!23
         (not x!18)
         (not x!22)
         (not x!15)
         (not x!4)
         (not x!21)
         (not x!11)
         (or a!2 x!14 a!3)
         (or (not x!20) x!12)
         (or a!4 x!8)
         (>= (+ x!1 x!6 (* (- 1) x!0) (* (- 1) x!7)) 0)
         (or (not x!17) x!8)
         (or (not x!8) x!17)
         (or a!5 x!14)
         a!6
         (or a!7 (not x!14))
         (or x!19 (not x!14))
         (or x!14 (not x!19))
         (or a!8 a!9 a!3)
         (or a!3 (not x!3))
         (or (= x!9 0) (not (<= x!9 0)))
         (or (not (<= x!9 0)) (not x!3) a!10)
         (or (not (<= x!9 2)) (not x!3) a!11)
         (or (not (<= x!9 4)) (not x!3) a!12)
         (or (not (<= x!9 6)) (not x!3) a!13)
         (or (not (<= x!9 8)) (not x!3) a!14))))
BRUNCH_STAT max_query_lvl 25
BRUNCH_STAT num_queries 527
BRUNCH_STAT num_reach_queries 0
BRUNCH_STAT num_reach_reuse 0
BRUNCH_STAT inductive_lvl 24
BRUNCH_STAT max_depth 25
BRUNCH_STAT cex_depth 0
(:SPACER-inductive-level               24
 :SPACER-max-depth                     25
 :SPACER-max-query-lvl                 25
 :SPACER-num-invariants                86
 :SPACER-num-lemmas                    552
 :SPACER-num-properties                87
 :SPACER-num-queries                   527
 :added-eqs                            59753
 :arith-add-rows                       10004
 :arith-assert-diseq                   24414
 :arith-assert-lower                   198491
 :arith-assert-upper                   172328
 :arith-bound-prop                     2074
 :arith-conflicts                      129
 :arith-eq-adapter                     6642
 :arith-fixed-eqs                      14359
 :arith-offset-eqs                     9327
 :arith-pivots                         1971
 :bool-inductive-gen                   527
 :bool-inductive-gen-failures          873
 :conflicts                            2622
 :decisions                            663763
 :del-clause                           442
 :final-checks                         2124
 :minimized-lits                       167
 :mk-bool-var                          13976
 :mk-clause                            7512
 :num-checks                           4605
 :propagations                         1774392
 :time.itp_solver.itp_core             0.26
 :time.spacer.init_rules               0.00
 :time.spacer.init_rules.pt.init       0.00
 :time.spacer.solve                    4.41
 :time.spacer.solve.propagate          1.33
 :time.spacer.solve.reach              3.08
 :time.spacer.solve.reach.children     0.60
 :time.spacer.solve.reach.gen.bool_ind 1.05
 :time.virtual_solver.proof            0.12
 :time.virtual_solver.smt.total        3.40
 :time.virtual_solver.smt.total.sat    2.57
 :virtual_solver.checks                4605
 :virtual_solver.checks.sat            2124)
BRUNCH_STAT max_query_lvl 25
BRUNCH_STAT num_queries 527
BRUNCH_STAT num_reach_queries 0
BRUNCH_STAT num_reach_reuse 0
BRUNCH_STAT inductive_lvl 24
BRUNCH_STAT max_depth 25
BRUNCH_STAT cex_depth 0

real	0m4.527s
user	0m4.440s
sys	0m0.064s
