(transform N7datalog13mk_coi_filterE...no-op 0s)
(transform N7datalog25mk_interp_tail_simplifierE...7 rules 0.0016668s)
(transform N7datalog27mk_quantifier_instantiationE...no-op 0s)
(transform N7datalog8mk_scaleE...no-op 0s)
(transform N7datalog18mk_karr_invariantsE...no-op 0s)
(transform N7datalog14mk_array_blastE...no-op 0s)
(transform N7datalog22mk_subsumption_checkerE...6 rules 0s)
(transform N7datalog12mk_bit_blastE...no-op 0s)
(transform N7datalog15mk_rule_inlinerE...3 rules 0.0126899s)
(transform N7datalog13mk_coi_filterE...no-op 0s)
(transform N7datalog25mk_interp_tail_simplifierE...3 rules 0s)
(transform N7datalog22mk_subsumption_checkerE...no-op 0s)
(transform N7datalog15mk_rule_inlinerE...no-op 0s)
(transform N7datalog13mk_coi_filterE...no-op 0s)
(transform N7datalog25mk_interp_tail_simplifierE...3 rules 0s)
(transform N7datalog22mk_subsumption_checkerE...no-op 0s)
(transform N7datalog15mk_rule_inlinerE...no-op 0s)
(transform N7datalog22mk_subsumption_checkerE...no-op 0s)
(transform N7datalog15mk_rule_inlinerE...no-op 0s)
(transform N7datalog22mk_subsumption_checkerE...no-op 0s)
(transform N7datalog15mk_rule_inlinerE...no-op 0s)
(transform N7datalog22mk_subsumption_checkerE...no-op 0s)
(transform N7datalog8mk_sliceE...no-op 0s)
expand: query!0 (0, 0) FAR  w(0) 1. F 0.00
(spacer::context::check_reachability :time 0.00 :before-memory 5.37 :after-memory 6.56)
Entering level 1
BRUNCH_STAT max_query_lvl 0
BRUNCH_STAT num_queries 0
BRUNCH_STAT num_reach_queries 0
BRUNCH_STAT num_reach_reuse 0
BRUNCH_STAT inductive_lvl 0
BRUNCH_STAT max_depth 1
BRUNCH_STAT cex_depth 0
expand: query!0 (1, 0) FAR  w(0) 1.
	create_child: MAIN (0, 1) FAR 12286 U 0.00
expand: MAIN (0, 0) FAR  w(0) 12286. F 0.01
expand: query!0 (1, 0) FAR  w(0) 1. F 0.00
(spacer::context::check_reachability :time 0.01 :before-memory 6.56 :after-memory 8.50)
Propagating: 0 1  ! 2 
(spacer::context::propagate :time 0.01 :before-memory 8.50 :after-memory 9.01)
Entering level 2
BRUNCH_STAT max_query_lvl 1
BRUNCH_STAT num_queries 1
BRUNCH_STAT num_reach_queries 0
BRUNCH_STAT num_reach_reuse 0
BRUNCH_STAT inductive_lvl 0
BRUNCH_STAT max_depth 2
BRUNCH_STAT cex_depth 0
expand: query!0 (2, 0) FAR  w(0) 1.
	create_child: MAIN (1, 2) FAR 12286 U 0.00
expand: MAIN (1, 0) FAR  w(0) 12286.
	create_child: MAIN (0, 2) FAR 20837 U 0.01
expand: MAIN (0, 0) FAR  w(0) 20837. F 0.00
expand: MAIN (1, 0) FAR  w(0) 12286.
	create_child: MAIN (0, 2) FAR 21034 U 0.01
expand: MAIN (0, 0) FAR  w(0) 21034. F 0.01
expand: MAIN (1, 0) FAR  w(0) 12286.
	create_child: MAIN (0, 2) FAR 21288 UNDEF 0.01
expand: MAIN (0, 0) FAR  w(0) 21288. F 0.00
expand: MAIN (1, 0) FAR  w(0) 12286.
	create_child: MAIN (0, 2) FAR 21764 UNDEF 0.01
expand: MAIN (0, 0) FAR  w(0) 21764. F 0.00
expand: MAIN (1, 0) FAR  w(0) 12286.
	create_child: MAIN (0, 2) FAR 21404 UNDEF 0.01
expand: MAIN (0, 0) FAR  w(0) 21404. F 0.00
expand: MAIN (1, 0) FAR  w(0) 12286.
	create_child: MAIN (0, 2) FAR 21629 UNDEF 0.01
expand: MAIN (0, 0) FAR  w(0) 21629. F 0.00
expand: MAIN (1, 0) FAR  w(0) 12286.
	create_child: MAIN (0, 2) FAR 22156 UNDEF 0.01
expand: MAIN (0, 0) FAR  w(0) 22156. F 0.00
expand: MAIN (1, 0) FAR  w(0) 12286.
	create_child: MAIN (0, 2) FAR 22634 UNDEF 0.01
expand: MAIN (0, 0) FAR  w(0) 22634. F 0.00
expand: MAIN (1, 0) FAR  w(0) 12286.
	create_child: MAIN (0, 2) FAR 22672 UNDEF 0.01
expand: MAIN (0, 0) FAR  w(0) 22672. F 0.01
expand: MAIN (1, 0) FAR  w(0) 12286.
	create_child: MAIN (0, 2) FAR 23043 UNDEF 0.01
expand: MAIN (0, 0) FAR  w(0) 23043. F 0.00
expand: MAIN (1, 0) FAR  w(0) 12286.
	create_child: MAIN (0, 2) FAR 23082 UNDEF 0.01
expand: MAIN (0, 0) FAR  w(0) 23082. F 0.00
expand: MAIN (1, 0) FAR  w(0) 12286.
	create_child: MAIN (0, 2) FAR 23296 UNDEF 0.01
expand: MAIN (0, 0) FAR  w(0) 23296. F 0.00
expand: MAIN (1, 0) FAR  w(0) 12286. F 0.00
expand: query!0 (2, 0) FAR  w(0) 1. F 0.00
(spacer::context::check_reachability :time 0.11 :before-memory 9.01 :after-memory 9.57)
Propagating: 0 1 2  ! 3 
(spacer::context::propagate :time 0.07 :before-memory 9.57 :after-memory 10.61)
Entering level 3
BRUNCH_STAT max_query_lvl 2
BRUNCH_STAT num_queries 14
BRUNCH_STAT num_reach_queries 0
BRUNCH_STAT num_reach_reuse 0
BRUNCH_STAT inductive_lvl 0
BRUNCH_STAT max_depth 3
BRUNCH_STAT cex_depth 0
expand: query!0 (3, 0) FAR  w(0) 1.
	create_child: MAIN (2, 3) FAR 12286 U 0.00
expand: MAIN (2, 0) FAR  w(0) 12286.
	create_child: MAIN (1, 3) FAR 27591 UNDEF 0.01
expand: MAIN (1, 0) FAR  w(0) 27591. F 0.01
expand: MAIN (2, 0) FAR  w(0) 12286.
	create_child: MAIN (1, 3) FAR 27752 UNDEF 0.01
expand: MAIN (1, 0) FAR  w(0) 27752. F 0.01
expand: MAIN (2, 0) FAR  w(0) 12286.
	create_child: MAIN (1, 3) FAR 28207 UNDEF 0.01
expand: MAIN (1, 0) FAR  w(0) 28207. F 0.01
expand: MAIN (2, 0) FAR  w(0) 12286.
	create_child: MAIN (1, 3) FAR 28188 UNDEF 0.01
expand: MAIN (1, 0) FAR  w(0) 28188. F 0.01
expand: MAIN (2, 0) FAR  w(0) 12286.
	create_child: MAIN (1, 3) FAR 27253 UNDEF 0.01
expand: MAIN (1, 0) FAR  w(0) 27253.
	create_child: MAIN (0, 3) FAR 28718 UNDEF 0.01
expand: MAIN (0, 0) FAR  w(0) 28718. UNDEF 0.00
expand: MAIN (0, 0) FAR  w(1) 28718. T 0.01
is-reachable: MAIN (1, 0) FAR 27253 T 0.08
is-reachable: MAIN (2, 0) FAR 12286 F 0.18
Deleting closed node: MAIN(1, 3) 27253
expand: MAIN (2, 0) FAR  w(1) 12286.
	create_child: MAIN (1, 3) FAR 41405 U 0.19
expand: MAIN (1, 0) FAR  w(0) 41405. F 0.00
expand: MAIN (2, 0) FAR  w(1) 12286.
	create_child: MAIN (1, 3) FAR 41625 U 0.07
expand: MAIN (1, 0) FAR  w(0) 41625. F 0.03
expand: MAIN (2, 0) FAR  w(1) 12286.
	create_child: MAIN (1, 3) FAR 42524 U 0.03
expand: MAIN (1, 0) FAR  w(0) 42524. F 0.07
expand: MAIN (2, 0) FAR  w(1) 12286.
	create_child: MAIN (1, 3) FAR 44085 U 0.05
expand: MAIN (1, 0) FAR  w(0) 44085. F 0.01
expand: MAIN (2, 0) FAR  w(1) 12286.
	create_child: MAIN (1, 3) FAR 44811 U 0.15
expand: MAIN (1, 0) FAR  w(0) 44811. UNDEF 0.01
expand: MAIN (1, 0) FAR  w(1) 44811. T 0.47
is-reachable: MAIN (2, 0) FAR 12286 T 0.11
is-reachable: query!0 (3, 0) FAR 1 T 0.03
(spacer::context::check_reachability :time 1.56 :before-memory 10.61 :after-memory 19.58)
BRUNCH_STAT max_query_lvl 3
BRUNCH_STAT num_queries 26
BRUNCH_STAT num_reach_queries 4
BRUNCH_STAT num_reach_reuse 1
BRUNCH_STAT inductive_lvl 0
BRUNCH_STAT max_depth 3
BRUNCH_STAT cex_depth 3
(:SPACER-cex-depth                     3
 :SPACER-expand-node-undef             18
 :SPACER-max-depth                     3
 :SPACER-max-query-lvl                 3
 :SPACER-num-invariants                8
 :SPACER-num-lemmas                    25
 :SPACER-num-properties                22
 :SPACER-num-queries                   26
 :SPACER-num-reach-queries             4
 :SPACER-num-reuse-reach-facts         1
 :added-eqs                            89775
 :arith-add-rows                       36086
 :arith-assert-diseq                   33631
 :arith-assert-lower                   49699
 :arith-assert-upper                   42345
 :arith-bound-prop                     2424
 :arith-conflicts                      150
 :arith-eq-adapter                     15718
 :arith-fixed-eqs                      9786
 :arith-gcd-tests                      8232
 :arith-gomory-cuts                    61
 :arith-ineq-splits                    132
 :arith-offset-eqs                     10072
 :arith-pivots                         3727
 :bool-inductive-gen                   22
 :bool-inductive-gen-failures          22
 :conflicts                            1203
 :decisions                            140394
 :del-clause                           17765
 :final-checks                         900
 :interface-eqs                        293
 :minimized-lits                       3352
 :mk-bool-var                          26719
 :mk-clause                            31889
 :num-checks                           164
 :propagations                         609445
 :restarts                             4
 :time.itp_solver.itp_core             0.02
 :time.spacer.init_rules               0.00
 :time.spacer.init_rules.pt.init       0.00
 :time.spacer.solve                    1.77
 :time.spacer.solve.propagate          0.08
 :time.spacer.solve.reach              1.69
 :time.spacer.solve.reach.children     0.04
 :time.spacer.solve.reach.gen.bool_ind 0.13
 :time.spacer.solve.reach.is-reach     0.39
 :time.virtual_solver.proof            0.01
 :time.virtual_solver.smt.total        1.61
 :time.virtual_solver.smt.total.sat    0.94
 :time.virtual_solver.smt.total.undef  0.19
 :virtual_solver.checks                164
 :virtual_solver.checks.sat            26
 :virtual_solver.checks.undef          40)
BRUNCH_STAT max_query_lvl 3
BRUNCH_STAT num_queries 26
BRUNCH_STAT num_reach_queries 4
BRUNCH_STAT num_reach_reuse 1
BRUNCH_STAT inductive_lvl 0
BRUNCH_STAT max_depth 3
BRUNCH_STAT cex_depth 3

real	0m1.893s
user	0m1.876s
sys	0m0.016s
