(transform N7datalog13mk_coi_filterE...no-op 0s)
(transform N7datalog25mk_interp_tail_simplifierE...7 rules 0.0016916s)
(transform N7datalog27mk_quantifier_instantiationE...no-op 0s)
(transform N7datalog8mk_scaleE...no-op 0s)
(transform N7datalog18mk_karr_invariantsE...no-op 0s)
(transform N7datalog14mk_array_blastE...no-op 0s)
(transform N7datalog22mk_subsumption_checkerE...6 rules 0s)
(transform N7datalog12mk_bit_blastE...no-op 0s)
(transform N7datalog15mk_rule_inlinerE...3 rules 0.0119231s)
(transform N7datalog13mk_coi_filterE...no-op 0s)
(transform N7datalog25mk_interp_tail_simplifierE...3 rules 0s)
(transform N7datalog22mk_subsumption_checkerE...no-op 0s)
(transform N7datalog15mk_rule_inlinerE...no-op 0s)
(transform N7datalog13mk_coi_filterE...no-op 0s)
(transform N7datalog25mk_interp_tail_simplifierE...3 rules 0s)
(transform N7datalog22mk_subsumption_checkerE...no-op 0s)
(transform N7datalog15mk_rule_inlinerE...no-op 0s)
(transform N7datalog22mk_subsumption_checkerE...no-op 0s)
(transform N7datalog15mk_rule_inlinerE...no-op 0s)
(transform N7datalog22mk_subsumption_checkerE...no-op 0s)
(transform N7datalog15mk_rule_inlinerE...no-op 0s)
(transform N7datalog22mk_subsumption_checkerE...no-op 0s)
(transform N7datalog8mk_sliceE...no-op 0s)
expand: query!0 (0, 0) FAR  w(0) 1. F 0.00
(spacer::context::check_reachability :time 0.00 :before-memory 5.38 :after-memory 6.62)
Entering level 1
BRUNCH_STAT max_query_lvl 0
BRUNCH_STAT num_queries 0
BRUNCH_STAT num_reach_queries 0
BRUNCH_STAT num_reach_reuse 0
BRUNCH_STAT inductive_lvl 0
BRUNCH_STAT max_depth 1
BRUNCH_STAT cex_depth 0
expand: query!0 (1, 0) FAR  w(0) 1.
	create_child: MAIN (0, 1) FAR 12541 U 0.00
expand: MAIN (0, 0) FAR  w(0) 12541. F 0.01
expand: query!0 (1, 0) FAR  w(0) 1. F 0.00
(spacer::context::check_reachability :time 0.01 :before-memory 6.62 :after-memory 8.62)
Propagating: 0 1  ! 2 
(spacer::context::propagate :time 0.02 :before-memory 8.62 :after-memory 9.12)
Entering level 2
BRUNCH_STAT max_query_lvl 1
BRUNCH_STAT num_queries 1
BRUNCH_STAT num_reach_queries 0
BRUNCH_STAT num_reach_reuse 0
BRUNCH_STAT inductive_lvl 0
BRUNCH_STAT max_depth 2
BRUNCH_STAT cex_depth 0
expand: query!0 (2, 0) FAR  w(0) 1.
	create_child: MAIN (1, 2) FAR 12541 U 0.00
expand: MAIN (1, 0) FAR  w(0) 12541.
	create_child: MAIN (0, 2) FAR 21564 UNDEF 0.01
expand: MAIN (0, 0) FAR  w(0) 21564. F 0.00
expand: MAIN (1, 0) FAR  w(0) 12541.
	create_child: MAIN (0, 2) FAR 21552 UNDEF 0.00
expand: MAIN (0, 0) FAR  w(0) 21552. F 0.00
expand: MAIN (1, 0) FAR  w(0) 12541.
	create_child: MAIN (0, 2) FAR 21769 UNDEF 0.01
expand: MAIN (0, 0) FAR  w(0) 21769. F 0.00
expand: MAIN (1, 0) FAR  w(0) 12541.
	create_child: MAIN (0, 2) FAR 22610 UNDEF 0.01
expand: MAIN (0, 0) FAR  w(0) 22610. F 0.00
expand: MAIN (1, 0) FAR  w(0) 12541. F 0.00
expand: query!0 (2, 0) FAR  w(0) 1. F 0.00
(spacer::context::check_reachability :time 0.04 :before-memory 9.12 :after-memory 9.37)
Propagating: 0 1 2  ! 3 
(spacer::context::propagate :time 0.03 :before-memory 9.37 :after-memory 9.60)
Entering level 3
BRUNCH_STAT max_query_lvl 2
BRUNCH_STAT num_queries 6
BRUNCH_STAT num_reach_queries 0
BRUNCH_STAT num_reach_reuse 0
BRUNCH_STAT inductive_lvl 0
BRUNCH_STAT max_depth 3
BRUNCH_STAT cex_depth 0
expand: query!0 (3, 0) FAR  w(0) 1.
	create_child: MAIN (2, 3) FAR 12541 U 0.00
expand: MAIN (2, 0) FAR  w(0) 12541.
	create_child: MAIN (1, 3) FAR 24033 U 0.01
expand: MAIN (1, 0) FAR  w(0) 24033. F 0.00
expand: MAIN (2, 0) FAR  w(0) 12541.
	create_child: MAIN (1, 3) FAR 24227 U 0.01
expand: MAIN (1, 0) FAR  w(0) 24227. F 0.00
expand: MAIN (2, 0) FAR  w(0) 12541.
	create_child: MAIN (1, 3) FAR 24793 U 0.01
expand: MAIN (1, 0) FAR  w(0) 24793. F 0.01
expand: MAIN (2, 0) FAR  w(0) 12541.
	create_child: MAIN (1, 3) FAR 25605 UNDEF 0.01
expand: MAIN (1, 0) FAR  w(0) 25605. F 0.02
expand: MAIN (2, 0) FAR  w(0) 12541.
	create_child: MAIN (1, 3) FAR 26718 UNDEF 0.00
expand: MAIN (1, 0) FAR  w(0) 26718. F 0.01
expand: MAIN (2, 0) FAR  w(0) 12541.
	create_child: MAIN (1, 3) FAR 26614 UNDEF 0.00
expand: MAIN (1, 0) FAR  w(0) 26614.
	create_child: MAIN (0, 3) FAR 27126 UNDEF 0.01
expand: MAIN (0, 0) FAR  w(0) 27126. F 0.00
expand: MAIN (1, 0) FAR  w(0) 26614.
	create_child: MAIN (0, 3) FAR 27783 UNDEF 0.01
expand: MAIN (0, 0) FAR  w(0) 27783. F 0.01
expand: MAIN (1, 0) FAR  w(0) 26614
Matrix
1, 

. F 0.00
expand: MAIN (2, 0) FAR  w(0) 12541.
	create_child: MAIN (1, 3) FAR 27862 UNDEF 0.00
expand: MAIN (1, 0) FAR  w(0) 27862.
	create_child: MAIN (0, 3) FAR 27715 UNDEF 0.01
expand: MAIN (0, 0) FAR  w(0) 27715. F 0.01
expand: MAIN (1, 0) FAR  w(0) 27862.
	create_child: MAIN (0, 3) FAR 28671 UNDEF 0.01
expand: MAIN (0, 0) FAR  w(0) 28671. F 0.01
expand: MAIN (1, 0) FAR  w(0) 27862
Matrix
1, 

. F 0.00
expand: MAIN (2, 0) FAR  w(0) 12541.
	create_child: MAIN (1, 3) FAR 29549 UNDEF 0.01
expand: MAIN (1, 0) FAR  w(0) 29549. F 0.01
expand: MAIN (2, 0) FAR  w(0) 12541.
	create_child: MAIN (1, 3) FAR 29721 UNDEF 0.01
expand: MAIN (1, 0) FAR  w(0) 29721. F 0.02
expand: MAIN (2, 0) FAR  w(0) 12541.
	create_child: MAIN (1, 3) FAR 30548 UNDEF 0.01
expand: MAIN (1, 0) FAR  w(0) 30548. F 0.03
expand: MAIN (2, 0) FAR  w(0) 12541.
	create_child: MAIN (1, 3) FAR 31005 UNDEF 0.01
expand: MAIN (1, 0) FAR  w(0) 31005. F 0.02
expand: MAIN (2, 0) FAR  w(0) 12541.
	create_child: MAIN (1, 3) FAR 31577 UNDEF 0.01
expand: MAIN (1, 0) FAR  w(0) 31577. F 0.01
expand: MAIN (2, 0) FAR  w(0) 12541.
	create_child: MAIN (1, 3) FAR 32529 UNDEF 0.01
expand: MAIN (1, 0) FAR  w(0) 32529. F 0.01
expand: MAIN (2, 0) FAR  w(0) 12541.
	create_child: MAIN (1, 3) FAR 32889 UNDEF 0.01
expand: MAIN (1, 0) FAR  w(0) 32889.
	create_child: MAIN (0, 3) FAR 33228 UNDEF 0.01
expand: MAIN (0, 0) FAR  w(0) 33228. F 0.01
expand: MAIN (1, 0) FAR  w(0) 32889.
	create_child: MAIN (0, 3) FAR 33470 UNDEF 0.01
expand: MAIN (0, 0) FAR  w(0) 33470. F 0.00
expand: MAIN (1, 0) FAR  w(0) 32889. F 0.01
expand: MAIN (2, 0) FAR  w(0) 12541.
	create_child: MAIN (1, 3) FAR 33661 UNDEF 0.01
expand: MAIN (1, 0) FAR  w(0) 33661.
	create_child: MAIN (0, 3) FAR 33763 UNDEF 0.01
expand: MAIN (0, 0) FAR  w(0) 33763. UNDEF 0.02
expand: MAIN (0, 0) FAR  w(1) 33763. F 0.06
expand: MAIN (1, 0) FAR  w(0) 33661.
	create_child: MAIN (0, 3) FAR 35463 UNDEF 0.02
expand: MAIN (0, 0) FAR  w(0) 35463. UNDEF 0.01
expand: MAIN (0, 0) FAR  w(1) 35463. T 0.00
is-reachable: MAIN (1, 0) FAR 33661 T 0.08
is-reachable: MAIN (2, 0) FAR 12541 F 0.32
Deleting closed node: MAIN(1, 3) 33661
expand: MAIN (2, 0) FAR  w(1) 12541.
	create_child: MAIN (1, 3) FAR 45329 U 0.14
expand: MAIN (1, 0) FAR  w(0) 45329.
	create_child: MAIN (0, 3) FAR 46347 UNDEF 0.05
expand: MAIN (0, 0) FAR  w(0) 46347. UNDEF 0.01
expand: MAIN (0, 0) FAR  w(1) 46347
Matrix
60, 

. F 0.11
expand: MAIN (1, 0) FAR  w(0) 45329.
	create_child: MAIN (0, 3) FAR 46720 UNDEF 0.04
expand: MAIN (0, 0) FAR  w(0) 46720. UNDEF 0.01
expand: MAIN (0, 0) FAR  w(1) 46720. T 0.01
is-reachable: MAIN (1, 0) FAR 45329 T 0.50
is-reachable: MAIN (2, 0) FAR 12541 T 0.23
is-reachable: query!0 (3, 0) FAR 1 T 0.03
(spacer::context::check_reachability :time 2.03 :before-memory 9.60 :after-memory 21.83)
BRUNCH_STAT max_query_lvl 3
BRUNCH_STAT num_queries 33
BRUNCH_STAT num_reach_queries 4
BRUNCH_STAT num_reach_reuse 0
BRUNCH_STAT inductive_lvl 0
BRUNCH_STAT max_depth 3
BRUNCH_STAT cex_depth 3
(:SPACER-cex-depth                     3
 :SPACER-expand-node-undef             30
 :SPACER-max-depth                     3
 :SPACER-max-query-lvl                 3
 :SPACER-num-invariants                7
 :SPACER-num-lemmas                    31
 :SPACER-num-properties                28
 :SPACER-num-queries                   33
 :SPACER-num-reach-queries             4
 :added-eqs                            103923
 :arith-add-rows                       63203
 :arith-assert-diseq                   27071
 :arith-assert-lower                   48685
 :arith-assert-upper                   47772
 :arith-bound-prop                     3478
 :arith-conflicts                      230
 :arith-eq-adapter                     21764
 :arith-fixed-eqs                      12635
 :arith-gcd-tests                      8691
 :arith-gomory-cuts                    61
 :arith-ineq-splits                    126
 :arith-offset-eqs                     14759
 :arith-pivots                         6850
 :bool-inductive-gen                   28
 :bool-inductive-gen-failures          32
 :conflicts                            1205
 :decisions                            129894
 :del-clause                           30084
 :final-checks                         1103
 :interface-eqs                        666
 :minimized-lits                       2014
 :mk-bool-var                          43022
 :mk-clause                            46210
 :num-checks                           194
 :propagations                         525744
 :restarts                             1
 :time.itp_solver.itp_core             0.03
 :time.spacer.init_rules               0.00
 :time.spacer.init_rules.pt.init       0.00
 :time.spacer.solve                    2.13
 :time.spacer.solve.propagate          0.05
 :time.spacer.solve.reach              2.08
 :time.spacer.solve.reach.children     0.05
 :time.spacer.solve.reach.gen.bool_ind 0.29
 :time.spacer.solve.reach.is-reach     1.16
 :time.virtual_solver.proof            0.02
 :time.virtual_solver.smt.total        1.96
 :time.virtual_solver.smt.total.sat    1.32
 :time.virtual_solver.smt.total.undef  0.38
 :virtual_solver.checks                194
 :virtual_solver.checks.sat            24
 :virtual_solver.checks.undef          53)
BRUNCH_STAT max_query_lvl 3
BRUNCH_STAT num_queries 33
BRUNCH_STAT num_reach_queries 4
BRUNCH_STAT num_reach_reuse 0
BRUNCH_STAT inductive_lvl 0
BRUNCH_STAT max_depth 3
BRUNCH_STAT cex_depth 3

real	0m2.296s
user	0m2.284s
sys	0m0.012s
