(transform N7datalog13mk_coi_filterE...no-op 0s)
(transform N7datalog25mk_interp_tail_simplifierE...7 rules 0.00164401s)
(transform N7datalog27mk_quantifier_instantiationE...no-op 0s)
(transform N7datalog8mk_scaleE...no-op 0s)
(transform N7datalog18mk_karr_invariantsE...no-op 0s)
(transform N7datalog14mk_array_blastE...no-op 0s)
(transform N7datalog22mk_subsumption_checkerE...6 rules 0s)
(transform N7datalog12mk_bit_blastE...no-op 0s)
(transform N7datalog15mk_rule_inlinerE...3 rules 0.0112103s)
(transform N7datalog13mk_coi_filterE...no-op 0s)
(transform N7datalog25mk_interp_tail_simplifierE...3 rules 0s)
(transform N7datalog22mk_subsumption_checkerE...no-op 0s)
(transform N7datalog15mk_rule_inlinerE...no-op 0s)
(transform N7datalog13mk_coi_filterE...no-op 0s)
(transform N7datalog25mk_interp_tail_simplifierE...3 rules 0s)
(transform N7datalog22mk_subsumption_checkerE...no-op 0s)
(transform N7datalog15mk_rule_inlinerE...no-op 0s)
(transform N7datalog22mk_subsumption_checkerE...no-op 0s)
(transform N7datalog15mk_rule_inlinerE...no-op 0s)
(transform N7datalog22mk_subsumption_checkerE...no-op 0s)
(transform N7datalog15mk_rule_inlinerE...no-op 0s)
(transform N7datalog22mk_subsumption_checkerE...no-op 0s)
(transform N7datalog8mk_sliceE...no-op 0s)
expand: query!0 (0, 0) FAR  w(0) 1. F 0.00
(spacer::context::check_reachability :time 0.00 :before-memory 5.30 :after-memory 6.50)
Entering level 1
BRUNCH_STAT max_query_lvl 0
BRUNCH_STAT num_queries 0
BRUNCH_STAT num_reach_queries 0
BRUNCH_STAT num_reach_reuse 0
BRUNCH_STAT inductive_lvl 0
BRUNCH_STAT max_depth 1
BRUNCH_STAT cex_depth 0
expand: query!0 (1, 0) FAR  w(0) 1.
	create_child: MAIN (0, 1) FAR 11987 U 0.00
expand: MAIN (0, 0) FAR  w(0) 11987. F 0.01
expand: query!0 (1, 0) FAR  w(0) 1. F 0.00
(spacer::context::check_reachability :time 0.01 :before-memory 6.50 :after-memory 8.39)
Propagating: 0 1  ! 2 
(spacer::context::propagate :time 0.02 :before-memory 8.39 :after-memory 9.02)
Entering level 2
BRUNCH_STAT max_query_lvl 1
BRUNCH_STAT num_queries 1
BRUNCH_STAT num_reach_queries 0
BRUNCH_STAT num_reach_reuse 0
BRUNCH_STAT inductive_lvl 0
BRUNCH_STAT max_depth 2
BRUNCH_STAT cex_depth 0
expand: query!0 (2, 0) FAR  w(0) 1.
	create_child: MAIN (1, 2) FAR 11987 U 0.00
expand: MAIN (1, 0) FAR  w(0) 11987.
	create_child: MAIN (0, 2) FAR 20255 UNDEF 0.01
expand: MAIN (0, 0) FAR  w(0) 20255. UNDEF 0.00
expand: MAIN (0, 0) FAR  w(1) 20255. T 0.01
is-reachable: MAIN (1, 0) FAR 11987 F 0.08
expand: MAIN (1, 0) FAR  w(1) 11987.
	create_child: MAIN (0, 2) FAR 21418 U 0.01
expand: MAIN (0, 0) FAR  w(0) 21418. F 0.00
expand: MAIN (1, 0) FAR  w(1) 11987.
	create_child: MAIN (0, 2) FAR 22389 U 0.01
expand: MAIN (0, 0) FAR  w(0) 22389. F 0.00
expand: MAIN (1, 0) FAR  w(1) 11987.
	create_child: MAIN (0, 2) FAR 21623 U 0.02
expand: MAIN (0, 0) FAR  w(0) 21623. F 0.01
expand: MAIN (1, 0) FAR  w(1) 11987.
	create_child: MAIN (0, 2) FAR 22666 U 0.02
expand: MAIN (0, 0) FAR  w(0) 22666. F 0.01
expand: MAIN (1, 0) FAR  w(1) 11987.
	create_child: MAIN (0, 2) FAR 24199 U 0.17
expand: MAIN (0, 0) FAR  w(0) 24199. F 0.00
expand: MAIN (1, 0) FAR  w(1) 11987.
	create_child: MAIN (0, 2) FAR 24921 U 0.04
expand: MAIN (0, 0) FAR  w(0) 24921. F 0.00
expand: MAIN (1, 0) FAR  w(1) 11987.
	create_child: MAIN (0, 2) FAR 25407 U 0.06
expand: MAIN (0, 0) FAR  w(0) 25407. F 0.00
expand: MAIN (1, 0) FAR  w(1) 11987.
	create_child: MAIN (0, 2) FAR 24949 U 0.02
expand: MAIN (0, 0) FAR  w(0) 24949. F 0.01
expand: MAIN (1, 0) FAR  w(1) 11987.
	create_child: MAIN (0, 2) FAR 25700 U 0.01
expand: MAIN (0, 0) FAR  w(0) 25700. F 0.00
expand: MAIN (1, 0) FAR  w(1) 11987.
	create_child: MAIN (0, 2) FAR 23678 U 0.01
expand: MAIN (0, 0) FAR  w(0) 23678. F 0.00
expand: MAIN (1, 0) FAR  w(1) 11987.
	create_child: MAIN (0, 2) FAR 23789 U 0.01
expand: MAIN (0, 0) FAR  w(0) 23789. F 0.00
expand: MAIN (1, 0) FAR  w(1) 11987.
	create_child: MAIN (0, 2) FAR 25697 U 0.01
expand: MAIN (0, 0) FAR  w(0) 25697. F 0.00
expand: MAIN (1, 0) FAR  w(1) 11987.
	create_child: MAIN (0, 2) FAR 24570 U 0.04
expand: MAIN (0, 0) FAR  w(0) 24570. F 0.00
expand: MAIN (1, 0) FAR  w(1) 11987.
	create_child: MAIN (0, 2) FAR 26292 U 0.01
expand: MAIN (0, 0) FAR  w(0) 26292. F 0.00
expand: MAIN (1, 0) FAR  w(1) 11987. F 0.00
expand: query!0 (2, 0) FAR  w(0) 1. F 0.00
(spacer::context::check_reachability :time 0.58 :before-memory 9.02 :after-memory 11.28)
Propagating: 0 1 2  ! 3 
(spacer::context::propagate :time 0.24 :before-memory 11.28 :after-memory 11.97)
Entering level 3
BRUNCH_STAT max_query_lvl 2
BRUNCH_STAT num_queries 17
BRUNCH_STAT num_reach_queries 0
BRUNCH_STAT num_reach_reuse 0
BRUNCH_STAT inductive_lvl 0
BRUNCH_STAT max_depth 3
BRUNCH_STAT cex_depth 0
expand: query!0 (3, 0) FAR  w(0) 1.
	create_child: MAIN (2, 3) FAR 11987 U 0.00
expand: MAIN (2, 0) FAR  w(0) 11987.
	create_child: MAIN (1, 3) FAR 29174 UNDEF 0.01
expand: MAIN (1, 0) FAR  w(0) 29174. F 0.02
expand: MAIN (2, 0) FAR  w(0) 11987.
	create_child: MAIN (1, 3) FAR 30477 UNDEF 0.01
expand: MAIN (1, 0) FAR  w(0) 30477. F 0.01
expand: MAIN (2, 0) FAR  w(0) 11987.
	create_child: MAIN (1, 3) FAR 30872 UNDEF 0.01
expand: MAIN (1, 0) FAR  w(0) 30872. F 0.01
expand: MAIN (2, 0) FAR  w(0) 11987.
	create_child: MAIN (1, 3) FAR 31239 UNDEF 0.01
expand: MAIN (1, 0) FAR  w(0) 31239. F 0.01
expand: MAIN (2, 0) FAR  w(0) 11987.
	create_child: MAIN (1, 3) FAR 31531 UNDEF 0.01
expand: MAIN (1, 0) FAR  w(0) 31531. F 0.03
expand: MAIN (2, 0) FAR  w(0) 11987.
	create_child: MAIN (1, 3) FAR 32375 UNDEF 0.01
expand: MAIN (1, 0) FAR  w(0) 32375.
	create_child: MAIN (0, 3) FAR 32596 UNDEF 0.02
expand: MAIN (0, 0) FAR  w(0) 32596. F 0.01
expand: MAIN (1, 0) FAR  w(0) 32375
Matrix
1, 

. F 0.01
expand: MAIN (2, 0) FAR  w(0) 11987.
	create_child: MAIN (1, 3) FAR 33146 UNDEF 0.01
expand: MAIN (1, 0) FAR  w(0) 33146. F 0.02
expand: MAIN (2, 0) FAR  w(0) 11987.
	create_child: MAIN (1, 3) FAR 33520 UNDEF 0.01
expand: MAIN (1, 0) FAR  w(0) 33520. F 0.01
expand: MAIN (2, 0) FAR  w(0) 11987.
	create_child: MAIN (1, 3) FAR 34203 UNDEF 0.01
expand: MAIN (1, 0) FAR  w(0) 34203.
	create_child: MAIN (0, 3) FAR 34423 UNDEF 0.01
expand: MAIN (0, 0) FAR  w(0) 34423. F 0.00
expand: MAIN (1, 0) FAR  w(0) 34203. F 0.00
expand: MAIN (2, 0) FAR  w(0) 11987.
	create_child: MAIN (1, 3) FAR 34327 UNDEF 0.01
expand: MAIN (1, 0) FAR  w(0) 34327.
	create_child: MAIN (0, 3) FAR 34599 UNDEF 0.01
expand: MAIN (0, 0) FAR  w(0) 34599. F 0.00
expand: MAIN (1, 0) FAR  w(0) 34327. F 0.00
expand: MAIN (2, 0) FAR  w(0) 11987.
	create_child: MAIN (1, 3) FAR 34842 UNDEF 0.01
expand: MAIN (1, 0) FAR  w(0) 34842.
	create_child: MAIN (0, 3) FAR 33876 UNDEF 0.01
expand: MAIN (0, 0) FAR  w(0) 33876. F 0.00
expand: MAIN (1, 0) FAR  w(0) 34842.
	create_child: MAIN (0, 3) FAR 34940 UNDEF 0.01
expand: MAIN (0, 0) FAR  w(0) 34940. F 0.00
expand: MAIN (1, 0) FAR  w(0) 34842.
	create_child: MAIN (0, 3) FAR 35061 UNDEF 0.01
expand: MAIN (0, 0) FAR  w(0) 35061. F 0.00
expand: MAIN (1, 0) FAR  w(0) 34842. F 0.00
expand: MAIN (2, 0) FAR  w(0) 11987. F 0.00
expand: query!0 (3, 0) FAR  w(0) 1. F 0.00
(spacer::context::check_reachability :time 0.27 :before-memory 11.97 :after-memory 12.55)
Propagating: 0 1 2 3  ! 4 
(spacer::context::propagate :time 0.91 :before-memory 12.55 :after-memory 13.76)
Entering level 4
BRUNCH_STAT max_query_lvl 3
BRUNCH_STAT num_queries 35
BRUNCH_STAT num_reach_queries 0
BRUNCH_STAT num_reach_reuse 0
BRUNCH_STAT inductive_lvl 0
BRUNCH_STAT max_depth 4
BRUNCH_STAT cex_depth 0
expand: query!0 (4, 0) FAR  w(0) 1.
	create_child: MAIN (3, 4) FAR 11987 U 0.00
expand: MAIN (3, 0) FAR  w(0) 11987.
	create_child: MAIN (2, 4) FAR 38691 UNDEF 0.01
expand: MAIN (2, 0) FAR  w(0) 38691.
	create_child: MAIN (1, 4) FAR 38610 UNDEF 0.01
expand: MAIN (1, 0) FAR  w(0) 38610. F 0.02
expand: MAIN (2, 0) FAR  w(0) 38691.
	create_child: MAIN (1, 4) FAR 38649 UNDEF 0.01
expand: MAIN (1, 0) FAR  w(0) 38649. F 0.02
expand: MAIN (2, 0) FAR  w(0) 38691.
	create_child: MAIN (1, 4) FAR 39104 UNDEF 0.01
expand: MAIN (1, 0) FAR  w(0) 39104. F 0.00
expand: MAIN (2, 0) FAR  w(0) 38691
Matrix
1, 

. F 0.00
expand: MAIN (3, 0) FAR  w(0) 11987.
	create_child: MAIN (2, 4) FAR 39094 UNDEF 0.01
expand: MAIN (2, 0) FAR  w(0) 39094.
	create_child: MAIN (1, 4) FAR 39360 UNDEF 0.01
expand: MAIN (1, 0) FAR  w(0) 39360. F 0.00
expand: MAIN (2, 0) FAR  w(0) 39094
Matrix
1, 

. F 0.03
expand: MAIN (3, 0) FAR  w(0) 11987.
	create_child: MAIN (2, 4) FAR 39261 UNDEF 0.01
expand: MAIN (2, 0) FAR  w(0) 39261.
	create_child: MAIN (1, 4) FAR 39692 UNDEF 0.01
expand: MAIN (1, 0) FAR  w(0) 39692. F 0.00
expand: MAIN (2, 0) FAR  w(0) 39261. F 0.02
expand: MAIN (3, 0) FAR  w(0) 11987.
	create_child: MAIN (2, 4) FAR 40321 U 0.01
expand: MAIN (2, 0) FAR  w(0) 40321.
	create_child: MAIN (1, 4) FAR 39935 U 0.01
expand: MAIN (1, 0) FAR  w(0) 39935. F 0.03
expand: MAIN (2, 0) FAR  w(0) 40321.
	create_child: MAIN (1, 4) FAR 40613 UNDEF 0.01
expand: MAIN (1, 0) FAR  w(0) 40613.
	create_child: MAIN (0, 4) FAR 40618 UNDEF 0.01
expand: MAIN (0, 0) FAR  w(0) 40618. T 0.00
is-reachable: MAIN (1, 0) FAR 40613 T 0.04
is-reachable: MAIN (2, 0) FAR 40321 T 0.08
is-reachable: MAIN (3, 0) FAR 11987 T 0.08
is-reachable: query!0 (4, 0) FAR 1 T 0.03
(spacer::context::check_reachability :time 0.45 :before-memory 13.76 :after-memory 19.12)
BRUNCH_STAT max_query_lvl 4
BRUNCH_STAT num_queries 48
BRUNCH_STAT num_reach_queries 4
BRUNCH_STAT num_reach_reuse 0
BRUNCH_STAT inductive_lvl 0
BRUNCH_STAT max_depth 4
BRUNCH_STAT cex_depth 4
(:SPACER-cex-depth                     4
 :SPACER-expand-node-undef             29
 :SPACER-max-depth                     4
 :SPACER-max-query-lvl                 4
 :SPACER-num-invariants                18
 :SPACER-num-lemmas                    47
 :SPACER-num-properties                39
 :SPACER-num-queries                   48
 :SPACER-num-reach-queries             4
 :added-eqs                            75968
 :arith-add-rows                       83856
 :arith-assert-diseq                   31842
 :arith-assert-lower                   38811
 :arith-assert-upper                   41725
 :arith-bound-prop                     2006
 :arith-conflicts                      227
 :arith-eq-adapter                     16796
 :arith-fixed-eqs                      6890
 :arith-gcd-tests                      32459
 :arith-gomory-cuts                    332
 :arith-ineq-splits                    433
 :arith-offset-eqs                     7213
 :arith-pivots                         3823
 :bool-inductive-gen                   43
 :bool-inductive-gen-failures          46
 :conflicts                            1140
 :decisions                            100308
 :del-clause                           13672
 :final-checks                         1411
 :interface-eqs                        290
 :minimized-lits                       1730
 :mk-bool-var                          23304
 :mk-clause                            27039
 :num-checks                           321
 :propagations                         478224
 :time.itp_solver.itp_core             0.04
 :time.spacer.init_rules               0.00
 :time.spacer.init_rules.pt.init       0.00
 :time.spacer.solve                    2.48
 :time.spacer.solve.propagate          1.16
 :time.spacer.solve.reach              1.32
 :time.spacer.solve.reach.children     0.07
 :time.spacer.solve.reach.gen.bool_ind 0.23
 :time.spacer.solve.reach.is-reach     0.31
 :time.virtual_solver.proof            0.02
 :time.virtual_solver.smt.total        2.25
 :time.virtual_solver.smt.total.sat    1.67
 :time.virtual_solver.smt.total.undef  0.32
 :virtual_solver.checks                321
 :virtual_solver.checks.sat            59
 :virtual_solver.checks.undef          67)
BRUNCH_STAT max_query_lvl 4
BRUNCH_STAT num_queries 48
BRUNCH_STAT num_reach_queries 4
BRUNCH_STAT num_reach_reuse 0
BRUNCH_STAT inductive_lvl 0
BRUNCH_STAT max_depth 4
BRUNCH_STAT cex_depth 4

real	0m2.604s
user	0m2.580s
sys	0m0.024s
