(transform N7datalog13mk_coi_filterE...no-op 0s)
(transform N7datalog25mk_interp_tail_simplifierE...7 rules 0.00164909s)
(transform N7datalog27mk_quantifier_instantiationE...no-op 0s)
(transform N7datalog8mk_scaleE...no-op 0s)
(transform N7datalog18mk_karr_invariantsE...no-op 0s)
(transform N7datalog14mk_array_blastE...no-op 0s)
(transform N7datalog22mk_subsumption_checkerE...6 rules 0s)
(transform N7datalog12mk_bit_blastE...no-op 0s)
(transform N7datalog15mk_rule_inlinerE...3 rules 0.0118034s)
(transform N7datalog13mk_coi_filterE...no-op 0s)
(transform N7datalog25mk_interp_tail_simplifierE...3 rules 0s)
(transform N7datalog22mk_subsumption_checkerE...no-op 0s)
(transform N7datalog15mk_rule_inlinerE...no-op 0s)
(transform N7datalog13mk_coi_filterE...no-op 0s)
(transform N7datalog25mk_interp_tail_simplifierE...3 rules 0s)
(transform N7datalog22mk_subsumption_checkerE...no-op 0s)
(transform N7datalog15mk_rule_inlinerE...no-op 0s)
(transform N7datalog22mk_subsumption_checkerE...no-op 0s)
(transform N7datalog15mk_rule_inlinerE...no-op 0s)
(transform N7datalog22mk_subsumption_checkerE...no-op 0s)
(transform N7datalog15mk_rule_inlinerE...no-op 0s)
(transform N7datalog22mk_subsumption_checkerE...no-op 0s)
(transform N7datalog8mk_sliceE...no-op 0s)
expand: query!0 (0, 0) FAR  w(0) 1. F 0.00
(spacer::context::check_reachability :time 0.00 :before-memory 5.37 :after-memory 6.55)
Entering level 1
BRUNCH_STAT max_query_lvl 0
BRUNCH_STAT num_queries 0
BRUNCH_STAT num_reach_queries 0
BRUNCH_STAT num_reach_reuse 0
BRUNCH_STAT inductive_lvl 0
BRUNCH_STAT max_depth 1
BRUNCH_STAT cex_depth 0
expand: query!0 (1, 0) FAR  w(0) 1.
	create_child: MAIN (0, 1) FAR 12516 UNDEF 0.00
expand: MAIN (0, 0) FAR  w(0) 12516. UNDEF 0.01
expand: MAIN (0, 0) FAR  w(1) 12516. F 0.00
expand: query!0 (1, 0) FAR  w(0) 1. F 0.00
(spacer::context::check_reachability :time 0.02 :before-memory 6.55 :after-memory 8.89)
Propagating: 0 1  ! 2 
(spacer::context::propagate :time 0.01 :before-memory 8.89 :after-memory 9.18)
Entering level 2
BRUNCH_STAT max_query_lvl 1
BRUNCH_STAT num_queries 1
BRUNCH_STAT num_reach_queries 0
BRUNCH_STAT num_reach_reuse 0
BRUNCH_STAT inductive_lvl 0
BRUNCH_STAT max_depth 2
BRUNCH_STAT cex_depth 0
expand: query!0 (2, 0) FAR  w(0) 1.
	create_child: MAIN (1, 2) FAR 12516 U 0.00
expand: MAIN (1, 0) FAR  w(0) 12516. UNDEF 0.00
expand: MAIN (1, 0) FAR  w(1) 12516.
	create_child: MAIN (0, 2) FAR 21508 U 0.02
expand: MAIN (0, 0) FAR  w(0) 21508. F 0.00
expand: MAIN (1, 0) FAR  w(1) 12516.
	create_child: MAIN (0, 2) FAR 22079 U 0.02
expand: MAIN (0, 0) FAR  w(0) 22079. F 0.00
expand: MAIN (1, 0) FAR  w(1) 12516.
	create_child: MAIN (0, 2) FAR 22670 U 0.02
expand: MAIN (0, 0) FAR  w(0) 22670. F 0.00
expand: MAIN (1, 0) FAR  w(1) 12516.
	create_child: MAIN (0, 2) FAR 22974 U 0.02
expand: MAIN (0, 0) FAR  w(0) 22974. F 0.00
expand: MAIN (1, 0) FAR  w(1) 12516. F 0.00
expand: query!0 (2, 0) FAR  w(0) 1. F 0.00
(spacer::context::check_reachability :time 0.09 :before-memory 9.18 :after-memory 9.70)
Propagating: 0 1 2  ! 3 
(spacer::context::propagate :time 0.09 :before-memory 9.70 :after-memory 10.01)
Entering level 3
BRUNCH_STAT max_query_lvl 2
BRUNCH_STAT num_queries 6
BRUNCH_STAT num_reach_queries 0
BRUNCH_STAT num_reach_reuse 0
BRUNCH_STAT inductive_lvl 0
BRUNCH_STAT max_depth 3
BRUNCH_STAT cex_depth 0
expand: query!0 (3, 0) FAR  w(0) 1.
	create_child: MAIN (2, 3) FAR 12516 U 0.00
expand: MAIN (2, 0) FAR  w(0) 12516.
	create_child: MAIN (1, 3) FAR 24287 UNDEF 0.01
expand: MAIN (1, 0) FAR  w(0) 24287. F 0.01
expand: MAIN (2, 0) FAR  w(0) 12516.
	create_child: MAIN (1, 3) FAR 24899 UNDEF 0.01
expand: MAIN (1, 0) FAR  w(0) 24899. F 0.01
expand: MAIN (2, 0) FAR  w(0) 12516.
	create_child: MAIN (1, 3) FAR 25272 UNDEF 0.00
expand: MAIN (1, 0) FAR  w(0) 25272. F 0.03
expand: MAIN (2, 0) FAR  w(0) 12516.
	create_child: MAIN (1, 3) FAR 26371 UNDEF 0.01
expand: MAIN (1, 0) FAR  w(0) 26371
Matrix
1, 1, 

. F 0.00
expand: MAIN (2, 0) FAR  w(0) 12516.
	create_child: MAIN (1, 3) FAR 27072 UNDEF 0.01
expand: MAIN (1, 0) FAR  w(0) 27072.
	create_child: MAIN (0, 3) FAR 27293 UNDEF 0.00
expand: MAIN (0, 0) FAR  w(0) 27293. F 0.00
expand: MAIN (1, 0) FAR  w(0) 27072. F 0.01
expand: MAIN (2, 0) FAR  w(0) 12516.
	create_child: MAIN (1, 3) FAR 27251 UNDEF 0.01
expand: MAIN (1, 0) FAR  w(0) 27251
Matrix
1, 

. F 0.01
expand: MAIN (2, 0) FAR  w(0) 12516. F 0.00
expand: query!0 (3, 0) FAR  w(0) 1. F 0.00
(spacer::context::check_reachability :time 0.13 :before-memory 10.01 :after-memory 11.30)
Propagating: 0 1 
(spacer::context::propagate :time 0.06 :before-memory 11.30 :after-memory 11.59)
(define-fun MAIN ((x!0 Int)
 (x!1 Bool)
 (x!2 Bool)
 (x!3 Int)
 (x!4 Bool)
 (x!5 Bool)
 (x!6 Bool)
 (x!7 Bool)
 (x!8 Bool)
 (x!9 Bool)
 (x!10 Bool)
 (x!11 Bool)
 (x!12 Bool)
 (x!13 Bool)
 (x!14 Bool)
 (x!15 Bool)
 (x!16 Bool)
 (x!17 Int)
 (x!18 Int)
 (x!19 Int)
 (x!20 Int)
 (x!21 Bool)
 (x!22 Bool)
 (x!23 Bool)
 (x!24 Int)
 (x!25 Int)
 (x!26 Int)
 (x!27 Bool)
 (x!28 Bool)
 (x!29 Bool)
 (x!30 Bool)
 (x!31 Int)
 (x!32 Int)
 (x!33 Int)
 (x!34 Bool)
 (x!35 Bool)
 (x!36 Int)
 (x!37 Bool)
 (x!38 Int)
 (x!39 Int)
 (x!40 Bool)
 (x!41 Int)
 (x!42 Bool)
 (x!43 Bool)) Bool
  (and (not (>= x!26 5))
       x!27
       x!43
       (not (>= x!41 640))
       (or (not (>= x!25 2)) (not (<= x!0 1)))
       (or (not (<= x!25 1)) (not (<= x!26 3)))
       (>= (+ x!25 (* (- 1) x!0)) 0)))
BRUNCH_STAT max_query_lvl 3
BRUNCH_STAT num_queries 14
BRUNCH_STAT num_reach_queries 0
BRUNCH_STAT num_reach_reuse 0
BRUNCH_STAT inductive_lvl 1
BRUNCH_STAT max_depth 3
BRUNCH_STAT cex_depth 0
(:SPACER-expand-node-undef             10
 :SPACER-inductive-level               1
 :SPACER-max-depth                     3
 :SPACER-max-query-lvl                 3
 :SPACER-num-invariants                9
 :SPACER-num-lemmas                    18
 :SPACER-num-properties                12
 :SPACER-num-queries                   14
 :added-eqs                            28734
 :arith-add-rows                       7311
 :arith-assert-diseq                   9521
 :arith-assert-lower                   11980
 :arith-assert-upper                   14200
 :arith-bound-prop                     501
 :arith-conflicts                      48
 :arith-eq-adapter                     6648
 :arith-fixed-eqs                      2234
 :arith-gcd-tests                      1538
 :arith-gomory-cuts                    38
 :arith-ineq-splits                    64
 :arith-offset-eqs                     2018
 :arith-pivots                         1143
 :bool-inductive-gen                   14
 :bool-inductive-gen-failures          10
 :conflicts                            497
 :decisions                            35450
 :del-clause                           8630
 :final-checks                         307
 :interface-eqs                        92
 :minimized-lits                       798
 :mk-bool-var                          10964
 :mk-clause                            13880
 :num-checks                           96
 :propagations                         150702
 :restarts                             1
 :time.itp_solver.itp_core             0.01
 :time.spacer.init_rules               0.00
 :time.spacer.init_rules.pt.init       0.00
 :time.spacer.solve                    0.40
 :time.spacer.solve.propagate          0.16
 :time.spacer.solve.reach              0.24
 :time.spacer.solve.reach.children     0.02
 :time.spacer.solve.reach.gen.bool_ind 0.06
 :time.virtual_solver.proof            0.01
 :time.virtual_solver.smt.total        0.36
 :time.virtual_solver.smt.total.sat    0.19
 :time.virtual_solver.smt.total.undef  0.08
 :virtual_solver.checks                96
 :virtual_solver.checks.sat            17
 :virtual_solver.checks.undef          19)
BRUNCH_STAT max_query_lvl 3
BRUNCH_STAT num_queries 14
BRUNCH_STAT num_reach_queries 0
BRUNCH_STAT num_reach_reuse 0
BRUNCH_STAT inductive_lvl 1
BRUNCH_STAT max_depth 3
BRUNCH_STAT cex_depth 0

real	0m0.475s
user	0m0.468s
sys	0m0.004s
