(transform N7datalog13mk_coi_filterE...no-op 0s)
(transform N7datalog25mk_interp_tail_simplifierE...12 rules 0s)
(transform N7datalog27mk_quantifier_instantiationE...no-op 0s)
(transform N7datalog8mk_scaleE...no-op 0s)
(transform N7datalog18mk_karr_invariantsE...no-op 0s)
(transform N7datalog14mk_array_blastE...no-op 0s)
(transform N7datalog22mk_subsumption_checkerE...11 rules 0s)
(transform N7datalog12mk_bit_blastE...no-op 0s)
(transform N7datalog15mk_rule_inlinerE...3 rules 0.00284219s)
(transform N7datalog13mk_coi_filterE...no-op 0s)
(transform N7datalog25mk_interp_tail_simplifierE...3 rules 0s)
(transform N7datalog22mk_subsumption_checkerE...no-op 0s)
(transform N7datalog15mk_rule_inlinerE...no-op 0s)
(transform N7datalog13mk_coi_filterE...no-op 0s)
(transform N7datalog25mk_interp_tail_simplifierE...3 rules 0s)
(transform N7datalog22mk_subsumption_checkerE...no-op 0s)
(transform N7datalog15mk_rule_inlinerE...no-op 0s)
(transform N7datalog22mk_subsumption_checkerE...no-op 0s)
(transform N7datalog15mk_rule_inlinerE...no-op 0s)
(transform N7datalog22mk_subsumption_checkerE...no-op 0s)
(transform N7datalog15mk_rule_inlinerE...no-op 0s)
(transform N7datalog22mk_subsumption_checkerE...no-op 0s)
(transform N7datalog8mk_sliceE...no-op 0s)
expand: query!0 (0, 0) FAR  w(0) 1. F 0.00
(spacer::context::check_reachability :time 0.00 :before-memory 4.32 :after-memory 4.83)
Entering level 1
BRUNCH_STAT max_query_lvl 0
BRUNCH_STAT num_queries 0
BRUNCH_STAT num_reach_queries 0
BRUNCH_STAT num_reach_reuse 0
BRUNCH_STAT inductive_lvl 0
BRUNCH_STAT max_depth 1
BRUNCH_STAT cex_depth 0
expand: query!0 (1, 0) FAR  w(0) 1.
	create_child: MAIN (0, 1) FAR 2489 U 0.00
expand: MAIN (0, 0) FAR  w(0) 2489. F 0.00
expand: query!0 (1, 0) FAR  w(0) 1. F 0.00
(spacer::context::check_reachability :time 0.00 :before-memory 4.83 :after-memory 5.64)
Propagating: 0 1  ! 2 
(spacer::context::propagate :time 0.00 :before-memory 5.64 :after-memory 5.75)
Entering level 2
BRUNCH_STAT max_query_lvl 1
BRUNCH_STAT num_queries 1
BRUNCH_STAT num_reach_queries 0
BRUNCH_STAT num_reach_reuse 0
BRUNCH_STAT inductive_lvl 0
BRUNCH_STAT max_depth 2
BRUNCH_STAT cex_depth 0
expand: query!0 (2, 0) FAR  w(0) 1.
	create_child: MAIN (1, 2) FAR 2489 U 0.00
expand: MAIN (1, 0) FAR  w(0) 2489.
	create_child: MAIN (0, 2) FAR 5109 U 0.00
expand: MAIN (0, 0) FAR  w(0) 5109. F 0.00
expand: MAIN (1, 0) FAR  w(0) 2489.
	create_child: MAIN (0, 2) FAR 5142 U 0.00
expand: MAIN (0, 0) FAR  w(0) 5142. F 0.00
expand: MAIN (1, 0) FAR  w(0) 2489.
	create_child: MAIN (0, 2) FAR 5471 U 0.00
expand: MAIN (0, 0) FAR  w(0) 5471
Matrix
1, 

. F 0.00
expand: MAIN (1, 0) FAR  w(0) 2489.
	create_child: MAIN (0, 2) FAR 5616 U 0.00
expand: MAIN (0, 0) FAR  w(0) 5616
Matrix
1, 

. F 0.00
expand: MAIN (1, 0) FAR  w(0) 2489. F 0.00
expand: query!0 (2, 0) FAR  w(0) 1. F 0.00
(spacer::context::check_reachability :time 0.01 :before-memory 5.75 :after-memory 6.10)
Propagating: 0 1 2  ! 3 
(spacer::context::propagate :time 0.00 :before-memory 6.10 :after-memory 6.10)
Entering level 3
BRUNCH_STAT max_query_lvl 2
BRUNCH_STAT num_queries 6
BRUNCH_STAT num_reach_queries 0
BRUNCH_STAT num_reach_reuse 0
BRUNCH_STAT inductive_lvl 0
BRUNCH_STAT max_depth 3
BRUNCH_STAT cex_depth 0
expand: query!0 (3, 0) FAR  w(0) 1.
	create_child: MAIN (2, 3) FAR 2489 U 0.00
expand: MAIN (2, 0) FAR  w(0) 2489.
	create_child: MAIN (1, 3) FAR 6634 U 0.00
expand: MAIN (1, 0) FAR  w(0) 6634. F 0.00
expand: MAIN (2, 0) FAR  w(0) 2489.
	create_child: MAIN (1, 3) FAR 6780 U 0.00
expand: MAIN (1, 0) FAR  w(0) 6780. T 0.00
is-reachable: MAIN (2, 0) FAR 2489 T 0.01
is-reachable: query!0 (3, 0) FAR 1 T 0.00
(spacer::context::check_reachability :time 0.01 :before-memory 6.10 :after-memory 6.68)
BRUNCH_STAT max_query_lvl 3
BRUNCH_STAT num_queries 9
BRUNCH_STAT num_reach_queries 3
BRUNCH_STAT num_reach_reuse 1
BRUNCH_STAT inductive_lvl 0
BRUNCH_STAT max_depth 3
BRUNCH_STAT cex_depth 3
(:SPACER-cex-depth                     3
 :SPACER-max-depth                     3
 :SPACER-max-query-lvl                 3
 :SPACER-num-invariants                4
 :SPACER-num-lemmas                    10
 :SPACER-num-properties                7
 :SPACER-num-queries                   9
 :SPACER-num-reach-queries             3
 :SPACER-num-reuse-reach-facts         1
 :added-eqs                            617
 :arith-add-rows                       270
 :arith-assert-diseq                   201
 :arith-assert-lower                   481
 :arith-assert-upper                   511
 :arith-bound-prop                     100
 :arith-conflicts                      11
 :arith-eq-adapter                     118
 :arith-fixed-eqs                      92
 :arith-offset-eqs                     74
 :arith-pivots                         73
 :bool-inductive-gen                   7
 :bool-inductive-gen-failures          7
 :conflicts                            96
 :decisions                            526
 :del-clause                           134
 :final-checks                         17
 :minimized-lits                       46
 :mk-bool-var                          670
 :mk-clause                            1661
 :num-checks                           43
 :propagations                         7164
 :time.itp_solver.itp_core             0.00
 :time.spacer.init_rules               0.00
 :time.spacer.init_rules.pt.init       0.00
 :time.spacer.solve                    0.03
 :time.spacer.solve.propagate          0.01
 :time.spacer.solve.reach              0.03
 :time.spacer.solve.reach.children     0.00
 :time.spacer.solve.reach.gen.bool_ind 0.00
 :time.spacer.solve.reach.is-reach     0.01
 :time.virtual_solver.proof            0.00
 :time.virtual_solver.smt.total        0.02
 :time.virtual_solver.smt.total.sat    0.01
 :virtual_solver.checks                43
 :virtual_solver.checks.sat            17)
BRUNCH_STAT max_query_lvl 3
BRUNCH_STAT num_queries 9
BRUNCH_STAT num_reach_queries 3
BRUNCH_STAT num_reach_reuse 1
BRUNCH_STAT inductive_lvl 0
BRUNCH_STAT max_depth 3
BRUNCH_STAT cex_depth 3

real	0m0.062s
user	0m0.048s
sys	0m0.012s
