(transform N7datalog13mk_coi_filterE...no-op 0s)
(transform N7datalog25mk_interp_tail_simplifierE...12 rules 0s)
(transform N7datalog27mk_quantifier_instantiationE...no-op 0s)
(transform N7datalog8mk_scaleE...no-op 0s)
(transform N7datalog18mk_karr_invariantsE...no-op 0s)
(transform N7datalog14mk_array_blastE...no-op 0s)
(transform N7datalog22mk_subsumption_checkerE...11 rules 0s)
(transform N7datalog12mk_bit_blastE...no-op 0s)
(transform N7datalog15mk_rule_inlinerE...3 rules 0.00281567s)
(transform N7datalog13mk_coi_filterE...no-op 0s)
(transform N7datalog25mk_interp_tail_simplifierE...3 rules 0s)
(transform N7datalog22mk_subsumption_checkerE...no-op 0s)
(transform N7datalog15mk_rule_inlinerE...no-op 0s)
(transform N7datalog13mk_coi_filterE...no-op 0s)
(transform N7datalog25mk_interp_tail_simplifierE...3 rules 0s)
(transform N7datalog22mk_subsumption_checkerE...no-op 0s)
(transform N7datalog15mk_rule_inlinerE...no-op 0s)
(transform N7datalog22mk_subsumption_checkerE...no-op 0s)
(transform N7datalog15mk_rule_inlinerE...no-op 0s)
(transform N7datalog22mk_subsumption_checkerE...no-op 0s)
(transform N7datalog15mk_rule_inlinerE...no-op 0s)
(transform N7datalog22mk_subsumption_checkerE...no-op 0s)
(transform N7datalog8mk_sliceE...no-op 0s)
expand: query!0 (0, 0) FAR  w(0) 1. F 0.00
(spacer::context::check_reachability :time 0.00 :before-memory 4.32 :after-memory 4.83)
Entering level 1
BRUNCH_STAT max_query_lvl 0
BRUNCH_STAT num_queries 0
BRUNCH_STAT num_reach_queries 0
BRUNCH_STAT num_reach_reuse 0
BRUNCH_STAT inductive_lvl 0
BRUNCH_STAT max_depth 1
BRUNCH_STAT cex_depth 0
expand: query!0 (1, 0) FAR  w(0) 1.
	create_child: MAIN (0, 1) FAR 2458 U 0.00
expand: MAIN (0, 0) FAR  w(0) 2458. F 0.00
expand: query!0 (1, 0) FAR  w(0) 1. F 0.00
(spacer::context::check_reachability :time 0.00 :before-memory 4.83 :after-memory 5.64)
Propagating: 0 1  ! 2 
(spacer::context::propagate :time 0.00 :before-memory 5.64 :after-memory 5.73)
Entering level 2
BRUNCH_STAT max_query_lvl 1
BRUNCH_STAT num_queries 1
BRUNCH_STAT num_reach_queries 0
BRUNCH_STAT num_reach_reuse 0
BRUNCH_STAT inductive_lvl 0
BRUNCH_STAT max_depth 2
BRUNCH_STAT cex_depth 0
expand: query!0 (2, 0) FAR  w(0) 1.
	create_child: MAIN (1, 2) FAR 2458 U 0.00
expand: MAIN (1, 0) FAR  w(0) 2458.
	create_child: MAIN (0, 2) FAR 4749 U 0.00
expand: MAIN (0, 0) FAR  w(0) 4749. F 0.00
expand: MAIN (1, 0) FAR  w(0) 2458.
	create_child: MAIN (0, 2) FAR 4863 U 0.00
expand: MAIN (0, 0) FAR  w(0) 4863. F 0.00
expand: MAIN (1, 0) FAR  w(0) 2458.
	create_child: MAIN (0, 2) FAR 5192 U 0.00
expand: MAIN (0, 0) FAR  w(0) 5192. F 0.00
expand: MAIN (1, 0) FAR  w(0) 2458. F 0.00
expand: query!0 (2, 0) FAR  w(0) 1. F 0.00
(spacer::context::check_reachability :time 0.01 :before-memory 5.73 :after-memory 5.86)
Propagating: 0 
(spacer::context::propagate :time 0.00 :before-memory 5.86 :after-memory 5.86)
(define-fun MAIN ((x!0 Int)
 (x!1 Bool)
 (x!2 Bool)
 (x!3 Bool)
 (x!4 Int)
 (x!5 Int)
 (x!6 Int)
 (x!7 Int)
 (x!8 Int)
 (x!9 Bool)
 (x!10 Bool)) Bool
  (and (= (+ x!4 x!5 x!6 x!7 x!8 (* (- 1) x!0)) 0) x!10 (not x!9) (not x!3)))
BRUNCH_STAT max_query_lvl 2
BRUNCH_STAT num_queries 5
BRUNCH_STAT num_reach_queries 0
BRUNCH_STAT num_reach_reuse 0
BRUNCH_STAT inductive_lvl 0
BRUNCH_STAT max_depth 2
BRUNCH_STAT cex_depth 0
(:SPACER-max-depth                     2
 :SPACER-max-query-lvl                 2
 :SPACER-num-invariants                5
 :SPACER-num-lemmas                    8
 :SPACER-num-properties                5
 :SPACER-num-queries                   5
 :added-eqs                            255
 :arith-add-rows                       71
 :arith-assert-diseq                   108
 :arith-assert-lower                   175
 :arith-assert-upper                   286
 :arith-bound-prop                     57
 :arith-conflicts                      8
 :arith-eq-adapter                     56
 :arith-fixed-eqs                      44
 :arith-offset-eqs                     24
 :arith-pivots                         25
 :bool-inductive-gen                   5
 :bool-inductive-gen-failures          5
 :conflicts                            57
 :decisions                            225
 :del-clause                           59
 :final-checks                         7
 :minimized-lits                       22
 :mk-bool-var                          358
 :mk-clause                            721
 :num-checks                           24
 :propagations                         2874
 :time.itp_solver.itp_core             0.00
 :time.spacer.init_rules               0.00
 :time.spacer.init_rules.pt.init       0.00
 :time.spacer.solve                    0.01
 :time.spacer.solve.propagate          0.00
 :time.spacer.solve.reach              0.01
 :time.spacer.solve.reach.children     0.00
 :time.spacer.solve.reach.gen.bool_ind 0.00
 :time.virtual_solver.proof            0.00
 :time.virtual_solver.smt.total        0.01
 :time.virtual_solver.smt.total.sat    0.00
 :virtual_solver.checks                24
 :virtual_solver.checks.sat            7)
BRUNCH_STAT max_query_lvl 2
BRUNCH_STAT num_queries 5
BRUNCH_STAT num_reach_queries 0
BRUNCH_STAT num_reach_reuse 0
BRUNCH_STAT inductive_lvl 0
BRUNCH_STAT max_depth 2
BRUNCH_STAT cex_depth 0

real	0m0.044s
user	0m0.032s
sys	0m0.008s
