(transform N7datalog13mk_coi_filterE...no-op 0s)
(transform N7datalog25mk_interp_tail_simplifierE...16 rules 0s)
(transform N7datalog27mk_quantifier_instantiationE...no-op 0s)
(transform N7datalog8mk_scaleE...no-op 0s)
(transform N7datalog18mk_karr_invariantsE...no-op 0s)
(transform N7datalog14mk_array_blastE...no-op 0s)
(transform N7datalog22mk_subsumption_checkerE...15 rules 0s)
(transform N7datalog12mk_bit_blastE...no-op 0s)
(transform N7datalog15mk_rule_inlinerE...3 rules 0.00315177s)
(transform N7datalog13mk_coi_filterE...no-op 0s)
(transform N7datalog25mk_interp_tail_simplifierE...3 rules 0s)
(transform N7datalog22mk_subsumption_checkerE...no-op 0s)
(transform N7datalog15mk_rule_inlinerE...no-op 0s)
(transform N7datalog13mk_coi_filterE...no-op 0s)
(transform N7datalog25mk_interp_tail_simplifierE...3 rules 0s)
(transform N7datalog22mk_subsumption_checkerE...no-op 0s)
(transform N7datalog15mk_rule_inlinerE...no-op 0s)
(transform N7datalog22mk_subsumption_checkerE...no-op 0s)
(transform N7datalog15mk_rule_inlinerE...no-op 0s)
(transform N7datalog22mk_subsumption_checkerE...no-op 0s)
(transform N7datalog15mk_rule_inlinerE...no-op 0s)
(transform N7datalog22mk_subsumption_checkerE...no-op 0s)
(transform N7datalog8mk_sliceE...no-op 0s)
expand: query!0 (0, 0) FAR  w(0) 1. F 0.00
(spacer::context::check_reachability :time 0.00 :before-memory 4.30 :after-memory 4.82)
Entering level 1
BRUNCH_STAT max_query_lvl 0
BRUNCH_STAT num_queries 0
BRUNCH_STAT num_reach_queries 0
BRUNCH_STAT num_reach_reuse 0
BRUNCH_STAT inductive_lvl 0
BRUNCH_STAT max_depth 1
BRUNCH_STAT cex_depth 0
expand: query!0 (1, 0) FAR  w(0) 1.
	create_child: MAIN (0, 1) FAR 2141 U 0.00
expand: MAIN (0, 0) FAR  w(0) 2141. F 0.00
expand: query!0 (1, 0) FAR  w(0) 1. F 0.00
(spacer::context::check_reachability :time 0.00 :before-memory 4.82 :after-memory 5.54)
Propagating: 0 1  ! 2 
(spacer::context::propagate :time 0.00 :before-memory 5.54 :after-memory 5.64)
Entering level 2
BRUNCH_STAT max_query_lvl 1
BRUNCH_STAT num_queries 1
BRUNCH_STAT num_reach_queries 0
BRUNCH_STAT num_reach_reuse 0
BRUNCH_STAT inductive_lvl 0
BRUNCH_STAT max_depth 2
BRUNCH_STAT cex_depth 0
expand: query!0 (2, 0) FAR  w(0) 1.
	create_child: MAIN (1, 2) FAR 2141 U 0.00
expand: MAIN (1, 0) FAR  w(0) 2141.
	create_child: MAIN (0, 2) FAR 3512 U 0.00
expand: MAIN (0, 0) FAR  w(0) 3512. F 0.00
expand: MAIN (1, 0) FAR  w(0) 2141.
	create_child: MAIN (0, 2) FAR 3716 U 0.00
expand: MAIN (0, 0) FAR  w(0) 3716. F 0.00
expand: MAIN (1, 0) FAR  w(0) 2141.
	create_child: MAIN (0, 2) FAR 3692 U 0.00
expand: MAIN (0, 0) FAR  w(0) 3692. F 0.00
expand: MAIN (1, 0) FAR  w(0) 2141.
	create_child: MAIN (0, 2) FAR 3876 U 0.00
expand: MAIN (0, 0) FAR  w(0) 3876. F 0.00
expand: MAIN (1, 0) FAR  w(0) 2141.
	create_child: MAIN (0, 2) FAR 4157 U 0.00
expand: MAIN (0, 0) FAR  w(0) 4157. F 0.00
expand: MAIN (1, 0) FAR  w(0) 2141.
	create_child: MAIN (0, 2) FAR 4228 U 0.00
expand: MAIN (0, 0) FAR  w(0) 4228. F 0.00
expand: MAIN (1, 0) FAR  w(0) 2141. F 0.00
expand: query!0 (2, 0) FAR  w(0) 1. F 0.00
(spacer::context::check_reachability :time 0.01 :before-memory 5.64 :after-memory 5.73)
Propagating: 0 1 2  ! 3 
(spacer::context::propagate :time 0.00 :before-memory 5.73 :after-memory 5.83)
Entering level 3
BRUNCH_STAT max_query_lvl 2
BRUNCH_STAT num_queries 8
BRUNCH_STAT num_reach_queries 0
BRUNCH_STAT num_reach_reuse 0
BRUNCH_STAT inductive_lvl 0
BRUNCH_STAT max_depth 3
BRUNCH_STAT cex_depth 0
expand: query!0 (3, 0) FAR  w(0) 1.
	create_child: MAIN (2, 3) FAR 2141 U 0.00
expand: MAIN (2, 0) FAR  w(0) 2141.
	create_child: MAIN (1, 3) FAR 4511 U 0.00
expand: MAIN (1, 0) FAR  w(0) 4511. F 0.00
expand: MAIN (2, 0) FAR  w(0) 2141.
	create_child: MAIN (1, 3) FAR 5026 U 0.00
expand: MAIN (1, 0) FAR  w(0) 5026. F 0.00
expand: MAIN (2, 0) FAR  w(0) 2141. F 0.00
expand: query!0 (3, 0) FAR  w(0) 1. F 0.00
(spacer::context::check_reachability :time 0.01 :before-memory 5.83 :after-memory 5.83)
Propagating: 1 
(spacer::context::propagate :time 0.00 :before-memory 5.83 :after-memory 5.83)
(define-fun MAIN ((x!0 Int)
 (x!1 Bool)
 (x!2 Bool)
 (x!3 Int)
 (x!4 Int)
 (x!5 Int)
 (x!6 Int)
 (x!7 Int)
 (x!8 Bool)
 (x!9 Int)
 (x!10 Bool)
 (x!11 Bool)
 (x!12 Bool)
 (x!13 Bool)
 (x!14 Bool)
 (x!15 Bool)) Bool
  (and (or (>= x!7 0) (<= x!9 0))
       x!15
       (not x!10)
       (not x!8)
       (not x!14)
       (not x!2)
       (>= (+ x!0 (* (- 1) x!4)) 0)
       (<= (+ x!0 (* (- 1) x!4)) 0)))
BRUNCH_STAT max_query_lvl 3
BRUNCH_STAT num_queries 11
BRUNCH_STAT num_reach_queries 0
BRUNCH_STAT num_reach_reuse 0
BRUNCH_STAT inductive_lvl 1
BRUNCH_STAT max_depth 3
BRUNCH_STAT cex_depth 0
(:SPACER-inductive-level               1
 :SPACER-max-depth                     3
 :SPACER-max-query-lvl                 3
 :SPACER-num-invariants                9
 :SPACER-num-lemmas                    15
 :SPACER-num-properties                10
 :SPACER-num-queries                   11
 :added-eqs                            684
 :arith-add-rows                       76
 :arith-assert-diseq                   148
 :arith-assert-lower                   361
 :arith-assert-upper                   344
 :arith-bound-prop                     29
 :arith-conflicts                      5
 :arith-eq-adapter                     196
 :arith-fixed-eqs                      77
 :arith-offset-eqs                     53
 :arith-pivots                         47
 :bool-inductive-gen                   11
 :bool-inductive-gen-failures          13
 :conflicts                            58
 :decisions                            723
 :del-clause                           221
 :final-checks                         20
 :minimized-lits                       2
 :mk-bool-var                          603
 :mk-clause                            851
 :num-checks                           60
 :propagations                         5201
 :time.itp_solver.itp_core             0.00
 :time.spacer.init_rules               0.00
 :time.spacer.init_rules.pt.init       0.00
 :time.spacer.solve                    0.03
 :time.spacer.solve.propagate          0.00
 :time.spacer.solve.reach              0.02
 :time.spacer.solve.reach.children     0.00
 :time.spacer.solve.reach.gen.bool_ind 0.00
 :time.virtual_solver.proof            0.00
 :time.virtual_solver.smt.total        0.02
 :time.virtual_solver.smt.total.sat    0.01
 :virtual_solver.checks                60
 :virtual_solver.checks.sat            20)
BRUNCH_STAT max_query_lvl 3
BRUNCH_STAT num_queries 11
BRUNCH_STAT num_reach_queries 0
BRUNCH_STAT num_reach_reuse 0
BRUNCH_STAT inductive_lvl 1
BRUNCH_STAT max_depth 3
BRUNCH_STAT cex_depth 0

real	0m0.051s
user	0m0.032s
sys	0m0.016s
