(transform N7datalog13mk_coi_filterE...no-op 0s)
(transform N7datalog25mk_interp_tail_simplifierE...13 rules 0s)
(transform N7datalog27mk_quantifier_instantiationE...no-op 0s)
(transform N7datalog8mk_scaleE...no-op 0s)
(transform N7datalog18mk_karr_invariantsE...no-op 0s)
(transform N7datalog14mk_array_blastE...no-op 0s)
(transform N7datalog22mk_subsumption_checkerE...12 rules 0s)
(transform N7datalog12mk_bit_blastE...no-op 0s)
(transform N7datalog15mk_rule_inlinerE...3 rules 0.00439041s)
(transform N7datalog13mk_coi_filterE...no-op 0s)
(transform N7datalog25mk_interp_tail_simplifierE...3 rules 0s)
(transform N7datalog22mk_subsumption_checkerE...no-op 0s)
(transform N7datalog15mk_rule_inlinerE...no-op 0s)
(transform N7datalog13mk_coi_filterE...no-op 0s)
(transform N7datalog25mk_interp_tail_simplifierE...3 rules 0s)
(transform N7datalog22mk_subsumption_checkerE...no-op 0s)
(transform N7datalog15mk_rule_inlinerE...no-op 0s)
(transform N7datalog22mk_subsumption_checkerE...no-op 0s)
(transform N7datalog15mk_rule_inlinerE...no-op 0s)
(transform N7datalog22mk_subsumption_checkerE...no-op 0s)
(transform N7datalog15mk_rule_inlinerE...no-op 0s)
(transform N7datalog22mk_subsumption_checkerE...no-op 0s)
(transform N7datalog8mk_sliceE...no-op 0s)
expand: query!0 (0, 0) FAR  w(0) 1. F 0.00
(spacer::context::check_reachability :time 0.00 :before-memory 4.36 :after-memory 4.87)
Entering level 1
BRUNCH_STAT max_query_lvl 0
BRUNCH_STAT num_queries 0
BRUNCH_STAT num_reach_queries 0
BRUNCH_STAT num_reach_reuse 0
BRUNCH_STAT inductive_lvl 0
BRUNCH_STAT max_depth 1
BRUNCH_STAT cex_depth 0
expand: query!0 (1, 0) FAR  w(0) 1.
	create_child: MAIN (0, 1) FAR 2107 U 0.00
expand: MAIN (0, 0) FAR  w(0) 2107. F 0.00
expand: query!0 (1, 0) FAR  w(0) 1. F 0.00
(spacer::context::check_reachability :time 0.00 :before-memory 4.87 :after-memory 5.54)
Propagating: 0 1  ! 2 
(spacer::context::propagate :time 0.00 :before-memory 5.54 :after-memory 5.54)
Entering level 2
BRUNCH_STAT max_query_lvl 1
BRUNCH_STAT num_queries 1
BRUNCH_STAT num_reach_queries 0
BRUNCH_STAT num_reach_reuse 0
BRUNCH_STAT inductive_lvl 0
BRUNCH_STAT max_depth 2
BRUNCH_STAT cex_depth 0
expand: query!0 (2, 0) FAR  w(0) 1.
	create_child: MAIN (1, 2) FAR 2107 U 0.00
expand: MAIN (1, 0) FAR  w(0) 2107.
	create_child: MAIN (0, 2) FAR 3712 U 0.00
expand: MAIN (0, 0) FAR  w(0) 3712. F 0.00
expand: MAIN (1, 0) FAR  w(0) 2107.
	create_child: MAIN (0, 2) FAR 3817 U 0.00
expand: MAIN (0, 0) FAR  w(0) 3817. F 0.00
expand: MAIN (1, 0) FAR  w(0) 2107.
	create_child: MAIN (0, 2) FAR 3936 U 0.00
expand: MAIN (0, 0) FAR  w(0) 3936. F 0.00
expand: MAIN (1, 0) FAR  w(0) 2107.
	create_child: MAIN (0, 2) FAR 3953 U 0.00
expand: MAIN (0, 0) FAR  w(0) 3953. F 0.00
expand: MAIN (1, 0) FAR  w(0) 2107.
	create_child: MAIN (0, 2) FAR 4009 U 0.00
expand: MAIN (0, 0) FAR  w(0) 4009. F 0.00
expand: MAIN (1, 0) FAR  w(0) 2107.
	create_child: MAIN (0, 2) FAR 4130 U 0.00
expand: MAIN (0, 0) FAR  w(0) 4130. F 0.00
expand: MAIN (1, 0) FAR  w(0) 2107.
	create_child: MAIN (0, 2) FAR 4333 U 0.00
expand: MAIN (0, 0) FAR  w(0) 4333. F 0.00
expand: MAIN (1, 0) FAR  w(0) 2107.
	create_child: MAIN (0, 2) FAR 4315 U 0.00
expand: MAIN (0, 0) FAR  w(0) 4315. F 0.00
expand: MAIN (1, 0) FAR  w(0) 2107.
	create_child: MAIN (0, 2) FAR 4421 U 0.00
expand: MAIN (0, 0) FAR  w(0) 4421. F 0.00
expand: MAIN (1, 0) FAR  w(0) 2107. F 0.00
expand: query!0 (2, 0) FAR  w(0) 1. F 0.00
(spacer::context::check_reachability :time 0.01 :before-memory 5.54 :after-memory 5.63)
Propagating: 0 
(spacer::context::propagate :time 0.00 :before-memory 5.63 :after-memory 5.63)
(define-fun MAIN ((x!0 Bool)
 (x!1 Bool)
 (x!2 Bool)
 (x!3 Bool)
 (x!4 Bool)
 (x!5 Bool)
 (x!6 Bool)
 (x!7 Bool)
 (x!8 Bool)
 (x!9 Bool)
 (x!10 Bool)
 (x!11 Bool)
 (x!12 Bool)
 (x!13 Bool)
 (x!14 Bool)
 (x!15 Bool)
 (x!16 Bool)
 (x!17 Bool)) Bool
  (and (or x!2 (not x!0))
       x!17
       (not x!16)
       (not x!14)
       (not x!9)
       (not x!11)
       (or (not x!6) x!15 x!13)
       (or (not x!13) (not x!0))
       (or x!4 (not x!1))
       (or (not x!1) (not x!15))))
BRUNCH_STAT max_query_lvl 2
BRUNCH_STAT num_queries 11
BRUNCH_STAT num_reach_queries 0
BRUNCH_STAT num_reach_reuse 0
BRUNCH_STAT inductive_lvl 0
BRUNCH_STAT max_depth 2
BRUNCH_STAT cex_depth 0
(:SPACER-max-depth                     2
 :SPACER-max-query-lvl                 2
 :SPACER-num-invariants                11
 :SPACER-num-lemmas                    14
 :SPACER-num-properties                11
 :SPACER-num-queries                   11
 :bool-inductive-gen                   11
 :bool-inductive-gen-failures          17
 :conflicts                            55
 :decisions                            700
 :final-checks                         24
 :minimized-lits                       24
 :mk-bool-var                          370
 :mk-clause                            567
 :num-checks                           59
 :propagations                         5236
 :time.itp_solver.itp_core             0.00
 :time.spacer.init_rules               0.00
 :time.spacer.init_rules.pt.init       0.00
 :time.spacer.solve                    0.02
 :time.spacer.solve.propagate          0.00
 :time.spacer.solve.reach              0.02
 :time.spacer.solve.reach.children     0.00
 :time.spacer.solve.reach.gen.bool_ind 0.00
 :time.virtual_solver.proof            0.00
 :time.virtual_solver.smt.total        0.01
 :time.virtual_solver.smt.total.sat    0.00
 :virtual_solver.checks                59
 :virtual_solver.checks.sat            24)
BRUNCH_STAT max_query_lvl 2
BRUNCH_STAT num_queries 11
BRUNCH_STAT num_reach_queries 0
BRUNCH_STAT num_reach_reuse 0
BRUNCH_STAT inductive_lvl 0
BRUNCH_STAT max_depth 2
BRUNCH_STAT cex_depth 0

real	0m0.044s
user	0m0.032s
sys	0m0.008s
