(transform N7datalog13mk_coi_filterE...51 rules 0s)
(transform N7datalog25mk_interp_tail_simplifierE...51 rules 0.00188921s)
(transform N7datalog27mk_quantifier_instantiationE...no-op 0s)
(transform N7datalog8mk_scaleE...no-op 0s)
(transform N7datalog18mk_karr_invariantsE...no-op 0s)
(transform N7datalog14mk_array_blastE...no-op 0s)
(transform N7datalog22mk_subsumption_checkerE...50 rules 0s)
(transform N7datalog12mk_bit_blastE...no-op 0s)
(transform N7datalog15mk_rule_inlinerE...3 rules 0.066944s)
(transform N7datalog13mk_coi_filterE...no-op 0s)
(transform N7datalog25mk_interp_tail_simplifierE...3 rules 0s)
(transform N7datalog22mk_subsumption_checkerE...no-op 0s)
(transform N7datalog15mk_rule_inlinerE...no-op 0s)
(transform N7datalog13mk_coi_filterE...no-op 0s)
(transform N7datalog25mk_interp_tail_simplifierE...3 rules 0s)
(transform N7datalog22mk_subsumption_checkerE...no-op 0s)
(transform N7datalog15mk_rule_inlinerE...no-op 0s)
(transform N7datalog22mk_subsumption_checkerE...no-op 0s)
(transform N7datalog15mk_rule_inlinerE...no-op 0s)
(transform N7datalog22mk_subsumption_checkerE...no-op 0s)
(transform N7datalog15mk_rule_inlinerE...no-op 0s)
(transform N7datalog22mk_subsumption_checkerE...no-op 0s)
(transform N7datalog8mk_sliceE...no-op 0s)
expand: query!0 (0, 0) FAR  w(0) 1. F 0.00
(spacer::context::check_reachability :time 0.00 :before-memory 7.00 :after-memory 7.98)
Entering level 1
BRUNCH_STAT max_query_lvl 0
BRUNCH_STAT num_queries 0
BRUNCH_STAT num_reach_queries 0
BRUNCH_STAT num_reach_reuse 0
BRUNCH_STAT inductive_lvl 0
BRUNCH_STAT max_depth 1
BRUNCH_STAT cex_depth 0
expand: query!0 (1, 0) FAR  w(0) 1.
	create_child: MAIN (0, 1) FAR 23060 U 0.00
expand: MAIN (0, 0) FAR  w(0) 23060. F 0.02
expand: query!0 (1, 0) FAR  w(0) 1. F 0.00
(spacer::context::check_reachability :time 0.02 :before-memory 7.98 :after-memory 10.95)
Propagating: 0 
(spacer::context::propagate :time 0.00 :before-memory 10.95 :after-memory 11.14)
(define-fun MAIN ((x!0 Int)
 (x!1 Int)
 (x!2 Int)
 (x!3 Int)
 (x!4 Int)
 (x!5 Int)
 (x!6 Bool)
 (x!7 Int)
 (x!8 Bool)
 (x!9 Bool)
 (x!10 Int)
 (x!11 Bool)
 (x!12 Int)
 (x!13 Int)
 (x!14 Bool)
 (x!15 Int)
 (x!16 Int)
 (x!17 Bool)
 (x!18 Int)
 (x!19 Int)
 (x!20 Bool)
 (x!21 Int)
 (x!22 Int)
 (x!23 Bool)
 (x!24 Int)
 (x!25 Int)
 (x!26 Int)
 (x!27 Int)
 (x!28 Int)
 (x!29 Int)
 (x!30 Int)
 (x!31 Int)
 (x!32 Int)
 (x!33 Int)
 (x!34 Int)
 (x!35 Int)
 (x!36 Bool)
 (x!37 Int)
 (x!38 Int)
 (x!39 Int)
 (x!40 Int)
 (x!41 Int)
 (x!42 Int)
 (x!43 Bool)
 (x!44 Int)
 (x!45 Bool)
 (x!46 Int)
 (x!47 Bool)
 (x!48 Bool)) Bool
  x!48)
BRUNCH_STAT max_query_lvl 1
BRUNCH_STAT num_queries 1
BRUNCH_STAT num_reach_queries 0
BRUNCH_STAT num_reach_reuse 0
BRUNCH_STAT inductive_lvl 0
BRUNCH_STAT max_depth 1
BRUNCH_STAT cex_depth 0
(:SPACER-max-depth                     1
 :SPACER-max-query-lvl                 1
 :SPACER-num-invariants                2
 :SPACER-num-lemmas                    3
 :SPACER-num-properties                2
 :SPACER-num-queries                   1
 :added-eqs                            533
 :arith-add-rows                       4
 :arith-assert-diseq                   46
 :arith-assert-lower                   58
 :arith-assert-upper                   59
 :arith-bound-prop                     5
 :arith-eq-adapter                     128
 :arith-fixed-eqs                      9
 :arith-offset-eqs                     14
 :arith-pivots                         3
 :bool-inductive-gen                   1
 :bool-inductive-gen-failures          1
 :conflicts                            56
 :decisions                            740
 :del-clause                           185
 :final-checks                         1
 :minimized-lits                       5
 :mk-bool-var                          2203
 :mk-clause                            4642
 :num-checks                           6
 :propagations                         2981
 :time.itp_solver.itp_core             0.00
 :time.spacer.init_rules               0.00
 :time.spacer.init_rules.pt.init       0.00
 :time.spacer.solve                    0.03
 :time.spacer.solve.propagate          0.00
 :time.spacer.solve.reach              0.02
 :time.spacer.solve.reach.children     0.00
 :time.spacer.solve.reach.gen.bool_ind 0.00
 :time.virtual_solver.proof            0.00
 :time.virtual_solver.smt.total        0.02
 :time.virtual_solver.smt.total.sat    0.00
 :virtual_solver.checks                6
 :virtual_solver.checks.sat            1)
BRUNCH_STAT max_query_lvl 1
BRUNCH_STAT num_queries 1
BRUNCH_STAT num_reach_queries 0
BRUNCH_STAT num_reach_reuse 0
BRUNCH_STAT inductive_lvl 0
BRUNCH_STAT max_depth 1
BRUNCH_STAT cex_depth 0

real	0m0.195s
user	0m0.144s
sys	0m0.004s
