(transform N7datalog13mk_coi_filterE...no-op 0s)
(transform N7datalog25mk_interp_tail_simplifierE...14 rules 0.00127385s)
(transform N7datalog27mk_quantifier_instantiationE...no-op 0s)
(transform N7datalog8mk_scaleE...no-op 0s)
(transform N7datalog18mk_karr_invariantsE...no-op 0s)
(transform N7datalog14mk_array_blastE...no-op 0s)
(transform N7datalog22mk_subsumption_checkerE...13 rules 0s)
(transform N7datalog12mk_bit_blastE...no-op 0s)
(transform N7datalog15mk_rule_inlinerE...3 rules 0.0104885s)
(transform N7datalog13mk_coi_filterE...no-op 0s)
(transform N7datalog25mk_interp_tail_simplifierE...3 rules 0s)
(transform N7datalog22mk_subsumption_checkerE...no-op 0s)
(transform N7datalog15mk_rule_inlinerE...no-op 0s)
(transform N7datalog13mk_coi_filterE...no-op 0s)
(transform N7datalog25mk_interp_tail_simplifierE...3 rules 0s)
(transform N7datalog22mk_subsumption_checkerE...no-op 0s)
(transform N7datalog15mk_rule_inlinerE...no-op 0s)
(transform N7datalog22mk_subsumption_checkerE...no-op 0s)
(transform N7datalog15mk_rule_inlinerE...no-op 0s)
(transform N7datalog22mk_subsumption_checkerE...no-op 0s)
(transform N7datalog15mk_rule_inlinerE...no-op 0s)
(transform N7datalog22mk_subsumption_checkerE...no-op 0s)
(transform N7datalog8mk_sliceE...no-op 0s)
expand: query!0 (0, 0) FAR  w(0) 1. F 0.00
(spacer::context::check_reachability :time 0.00 :before-memory 4.50 :after-memory 5.13)
Entering level 1
BRUNCH_STAT max_query_lvl 0
BRUNCH_STAT num_queries 0
BRUNCH_STAT num_reach_queries 0
BRUNCH_STAT num_reach_reuse 0
BRUNCH_STAT inductive_lvl 0
BRUNCH_STAT max_depth 1
BRUNCH_STAT cex_depth 0
expand: query!0 (1, 0) FAR  w(0) 1.
	create_child: MAIN (0, 1) FAR 3682 U 0.00
expand: MAIN (0, 0) FAR  w(0) 3682. F 0.01
expand: query!0 (1, 0) FAR  w(0) 1. F 0.00
(spacer::context::check_reachability :time 0.01 :before-memory 5.13 :after-memory 6.16)
Propagating: 0 1  ! 2 
(spacer::context::propagate :time 0.00 :before-memory 6.16 :after-memory 6.16)
Entering level 2
BRUNCH_STAT max_query_lvl 1
BRUNCH_STAT num_queries 1
BRUNCH_STAT num_reach_queries 0
BRUNCH_STAT num_reach_reuse 0
BRUNCH_STAT inductive_lvl 0
BRUNCH_STAT max_depth 2
BRUNCH_STAT cex_depth 0
expand: query!0 (2, 0) FAR  w(0) 1.
	create_child: MAIN (1, 2) FAR 3682 U 0.00
expand: MAIN (1, 0) FAR  w(0) 3682.
	create_child: MAIN (0, 2) FAR 6456 U 0.01
expand: MAIN (0, 0) FAR  w(0) 6456. F 0.00
expand: MAIN (1, 0) FAR  w(0) 3682.
	create_child: MAIN (0, 2) FAR 6689 U 0.00
expand: MAIN (0, 0) FAR  w(0) 6689. F 0.00
expand: MAIN (1, 0) FAR  w(0) 3682.
	create_child: MAIN (0, 2) FAR 6760 U 0.00
expand: MAIN (0, 0) FAR  w(0) 6760. F 0.00
expand: MAIN (1, 0) FAR  w(0) 3682.
	create_child: MAIN (0, 2) FAR 6741 U 0.00
expand: MAIN (0, 0) FAR  w(0) 6741. F 0.00
expand: MAIN (1, 0) FAR  w(0) 3682.
	create_child: MAIN (0, 2) FAR 6902 U 0.00
expand: MAIN (0, 0) FAR  w(0) 6902. F 0.00
expand: MAIN (1, 0) FAR  w(0) 3682.
	create_child: MAIN (0, 2) FAR 7090 U 0.00
expand: MAIN (0, 0) FAR  w(0) 7090. F 0.00
expand: MAIN (1, 0) FAR  w(0) 3682.
	create_child: MAIN (0, 2) FAR 7138 U 0.00
expand: MAIN (0, 0) FAR  w(0) 7138. F 0.00
expand: MAIN (1, 0) FAR  w(0) 3682. F 0.00
expand: query!0 (2, 0) FAR  w(0) 1. F 0.00
(spacer::context::check_reachability :time 0.04 :before-memory 6.16 :after-memory 6.45)
Propagating: 0 1 2  ! 3 4 
(spacer::context::propagate :time 0.01 :before-memory 6.45 :after-memory 6.55)
Entering level 3
BRUNCH_STAT max_query_lvl 2
BRUNCH_STAT num_queries 9
BRUNCH_STAT num_reach_queries 0
BRUNCH_STAT num_reach_reuse 0
BRUNCH_STAT inductive_lvl 0
BRUNCH_STAT max_depth 3
BRUNCH_STAT cex_depth 0
expand: query!0 (3, 0) FAR  w(0) 1.
	create_child: MAIN (2, 3) FAR 3682 U 0.00
expand: MAIN (2, 0) FAR  w(0) 3682.
	create_child: MAIN (1, 3) FAR 7090 U 0.00
expand: MAIN (1, 0) FAR  w(0) 7090. F 0.01
expand: MAIN (2, 0) FAR  w(0) 3682.
	create_child: MAIN (1, 3) FAR 8918 U 0.00
expand: MAIN (1, 0) FAR  w(0) 8918. F 0.00
expand: MAIN (2, 0) FAR  w(0) 3682. F 0.00
expand: query!0 (3, 0) FAR  w(0) 1. F 0.00
(spacer::context::check_reachability :time 0.01 :before-memory 6.55 :after-memory 6.78)
Propagating: 1 2 3  ! 4 
(spacer::context::propagate :time 0.00 :before-memory 6.78 :after-memory 6.78)
Entering level 4
BRUNCH_STAT max_query_lvl 3
BRUNCH_STAT num_queries 12
BRUNCH_STAT num_reach_queries 0
BRUNCH_STAT num_reach_reuse 0
BRUNCH_STAT inductive_lvl 0
BRUNCH_STAT max_depth 4
BRUNCH_STAT cex_depth 0
expand: query!0 (4, 0) FAR  w(0) 1.
	create_child: MAIN (3, 4) FAR 3682 U 0.00
expand: MAIN (3, 0) FAR  w(0) 3682.
	create_child: MAIN (2, 4) FAR 9368 U 0.00
expand: MAIN (2, 0) FAR  w(0) 9368. F 0.00
expand: MAIN (3, 0) FAR  w(0) 3682.
	create_child: MAIN (2, 4) FAR 9735 U 0.00
expand: MAIN (2, 0) FAR  w(0) 9735.
	create_child: MAIN (1, 4) FAR 9788 U 0.00
expand: MAIN (1, 0) FAR  w(0) 9788. F 0.00
expand: MAIN (2, 0) FAR  w(0) 9735. F 0.01
expand: MAIN (3, 0) FAR  w(0) 3682. F 0.00
expand: query!0 (4, 0) FAR  w(0) 1. F 0.00
(spacer::context::check_reachability :time 0.02 :before-memory 6.78 :after-memory 6.88)
Propagating: 1 2 3 4  ! 5 
(spacer::context::propagate :time 0.01 :before-memory 6.88 :after-memory 6.88)
Entering level 5
BRUNCH_STAT max_query_lvl 4
BRUNCH_STAT num_queries 16
BRUNCH_STAT num_reach_queries 0
BRUNCH_STAT num_reach_reuse 0
BRUNCH_STAT inductive_lvl 0
BRUNCH_STAT max_depth 5
BRUNCH_STAT cex_depth 0
expand: query!0 (5, 0) FAR  w(0) 1.
	create_child: MAIN (4, 5) FAR 3682 U 0.00
expand: MAIN (4, 0) FAR  w(0) 3682.
	create_child: MAIN (3, 5) FAR 11878 U 0.00
expand: MAIN (3, 0) FAR  w(0) 11878
Matrix
1, 1, 

. F 0.01
expand: MAIN (4, 0) FAR  w(0) 3682.
	create_child: MAIN (3, 5) FAR 12426 U 0.00
expand: MAIN (3, 0) FAR  w(0) 12426.
	create_child: MAIN (2, 5) FAR 12489 U 0.00
expand: MAIN (2, 0) FAR  w(0) 12489.
	create_child: MAIN (1, 5) FAR 12436 U 0.00
expand: MAIN (1, 0) FAR  w(0) 12436.
	create_child: MAIN (0, 5) FAR 12640 U 0.00
expand: MAIN (0, 0) FAR  w(0) 12640. F 0.00
expand: MAIN (1, 0) FAR  w(0) 12436. F 0.00
expand: MAIN (2, 0) FAR  w(0) 12489. F 0.00
expand: MAIN (3, 0) FAR  w(0) 12426. F 0.00
expand: MAIN (4, 0) FAR  w(0) 3682.
	create_child: MAIN (3, 5) FAR 9735 U 0.00
expand: MAIN (3, 0) FAR  w(0) 9735.
	create_child: MAIN (2, 5) FAR 9788 U 0.00
expand: MAIN (2, 0) FAR  w(0) 9788. F 0.00
expand: MAIN (3, 0) FAR  w(0) 9735. F 0.00
expand: MAIN (4, 0) FAR  w(0) 3682. F 0.00
expand: query!0 (5, 0) FAR  w(0) 1. F 0.00
(spacer::context::check_reachability :time 0.04 :before-memory 6.88 :after-memory 7.58)
Propagating: 0 1 2 3 4 5  ! 6 
(spacer::context::propagate :time 0.02 :before-memory 7.58 :after-memory 7.58)
Entering level 6
BRUNCH_STAT max_query_lvl 5
BRUNCH_STAT num_queries 24
BRUNCH_STAT num_reach_queries 0
BRUNCH_STAT num_reach_reuse 0
BRUNCH_STAT inductive_lvl 0
BRUNCH_STAT max_depth 6
BRUNCH_STAT cex_depth 0
expand: query!0 (6, 0) FAR  w(0) 1.
	create_child: MAIN (5, 6) FAR 3682 U 0.00
expand: MAIN (5, 0) FAR  w(0) 3682.
	create_child: MAIN (4, 6) FAR 14328 U 0.00
expand: MAIN (4, 0) FAR  w(0) 14328. F 0.01
expand: MAIN (5, 0) FAR  w(0) 3682.
	create_child: MAIN (4, 6) FAR 12426 U 0.00
expand: MAIN (4, 0) FAR  w(0) 12426.
	create_child: MAIN (3, 6) FAR 12489 U 0.00
expand: MAIN (3, 0) FAR  w(0) 12489.
	create_child: MAIN (2, 6) FAR 12436 U 0.00
expand: MAIN (2, 0) FAR  w(0) 12436.
	create_child: MAIN (1, 6) FAR 12640 U 0.00
expand: MAIN (1, 0) FAR  w(0) 12640. T 0.00
is-reachable: MAIN (2, 0) FAR 12436 T 0.01
is-reachable: MAIN (3, 0) FAR 12489 T 0.01
is-reachable: MAIN (4, 0) FAR 12426 T 0.01
is-reachable: MAIN (5, 0) FAR 3682 T 0.02
is-reachable: query!0 (6, 0) FAR 1 T 0.01
(spacer::context::check_reachability :time 0.08 :before-memory 7.58 :after-memory 9.20)
BRUNCH_STAT max_query_lvl 6
BRUNCH_STAT num_queries 30
BRUNCH_STAT num_reach_queries 6
BRUNCH_STAT num_reach_reuse 1
BRUNCH_STAT inductive_lvl 0
BRUNCH_STAT max_depth 6
BRUNCH_STAT cex_depth 6
(:SPACER-cex-depth                     6
 :SPACER-max-depth                     6
 :SPACER-max-query-lvl                 6
 :SPACER-num-invariants                3
 :SPACER-num-lemmas                    31
 :SPACER-num-properties                21
 :SPACER-num-queries                   30
 :SPACER-num-reach-queries             6
 :SPACER-num-reuse-reach-facts         1
 :added-eqs                            7910
 :arith-add-rows                       1791
 :arith-assert-diseq                   3103
 :arith-assert-lower                   6725
 :arith-assert-upper                   6624
 :arith-bound-prop                     328
 :arith-conflicts                      68
 :arith-eq-adapter                     1261
 :arith-fixed-eqs                      1364
 :arith-offset-eqs                     472
 :arith-pivots                         555
 :bool-inductive-gen                   25
 :bool-inductive-gen-failures          38
 :conflicts                            391
 :decisions                            7085
 :del-clause                           997
 :final-checks                         98
 :minimized-lits                       813
 :mk-bool-var                          2617
 :mk-clause                            5452
 :num-checks                           207
 :propagations                         72557
 :time.itp_solver.itp_core             0.02
 :time.spacer.init_rules               0.00
 :time.spacer.init_rules.pt.init       0.00
 :time.spacer.solve                    0.24
 :time.spacer.solve.propagate          0.04
 :time.spacer.solve.reach              0.20
 :time.spacer.solve.reach.children     0.02
 :time.spacer.solve.reach.gen.bool_ind 0.03
 :time.spacer.solve.reach.is-reach     0.06
 :time.virtual_solver.proof            0.01
 :time.virtual_solver.smt.total        0.17
 :time.virtual_solver.smt.total.sat    0.11
 :virtual_solver.checks                207
 :virtual_solver.checks.sat            98)
BRUNCH_STAT max_query_lvl 6
BRUNCH_STAT num_queries 30
BRUNCH_STAT num_reach_queries 6
BRUNCH_STAT num_reach_reuse 1
BRUNCH_STAT inductive_lvl 0
BRUNCH_STAT max_depth 6
BRUNCH_STAT cex_depth 6

real	0m0.320s
user	0m0.300s
sys	0m0.016s
