(transform N7datalog13mk_coi_filterE...no-op 0s)
(transform N7datalog25mk_interp_tail_simplifierE...12 rules 0s)
(transform N7datalog27mk_quantifier_instantiationE...no-op 0s)
(transform N7datalog8mk_scaleE...no-op 0s)
(transform N7datalog18mk_karr_invariantsE...no-op 0s)
(transform N7datalog14mk_array_blastE...no-op 0s)
(transform N7datalog22mk_subsumption_checkerE...11 rules 0s)
(transform N7datalog12mk_bit_blastE...no-op 0s)
(transform N7datalog15mk_rule_inlinerE...3 rules 0.00166537s)
(transform N7datalog13mk_coi_filterE...no-op 0s)
(transform N7datalog25mk_interp_tail_simplifierE...3 rules 0s)
(transform N7datalog22mk_subsumption_checkerE...no-op 0s)
(transform N7datalog15mk_rule_inlinerE...no-op 0s)
(transform N7datalog13mk_coi_filterE...no-op 0s)
(transform N7datalog25mk_interp_tail_simplifierE...3 rules 0s)
(transform N7datalog22mk_subsumption_checkerE...no-op 0s)
(transform N7datalog15mk_rule_inlinerE...no-op 0s)
(transform N7datalog22mk_subsumption_checkerE...no-op 0s)
(transform N7datalog15mk_rule_inlinerE...no-op 0s)
(transform N7datalog22mk_subsumption_checkerE...no-op 0s)
(transform N7datalog15mk_rule_inlinerE...no-op 0s)
(transform N7datalog22mk_subsumption_checkerE...no-op 0s)
(transform N7datalog8mk_sliceE...no-op 0s)
expand: query!0 (0, 0) FAR  w(0) 1. F 0.00
(spacer::context::check_reachability :time 0.00 :before-memory 4.33 :after-memory 4.72)
Entering level 1
BRUNCH_STAT max_query_lvl 0
BRUNCH_STAT num_queries 0
BRUNCH_STAT num_reach_queries 0
BRUNCH_STAT num_reach_reuse 0
BRUNCH_STAT inductive_lvl 0
BRUNCH_STAT max_depth 1
BRUNCH_STAT cex_depth 0
expand: query!0 (1, 0) FAR  w(0) 1.
	create_child: MAIN (0, 1) FAR 1394 U 0.00
expand: MAIN (0, 0) FAR  w(0) 1394. F 0.00
expand: query!0 (1, 0) FAR  w(0) 1. F 0.00
(spacer::context::check_reachability :time 0.00 :before-memory 4.72 :after-memory 5.34)
Propagating: 0 1  ! 2 
(spacer::context::propagate :time 0.00 :before-memory 5.34 :after-memory 5.34)
Entering level 2
BRUNCH_STAT max_query_lvl 1
BRUNCH_STAT num_queries 1
BRUNCH_STAT num_reach_queries 0
BRUNCH_STAT num_reach_reuse 0
BRUNCH_STAT inductive_lvl 0
BRUNCH_STAT max_depth 2
BRUNCH_STAT cex_depth 0
expand: query!0 (2, 0) FAR  w(0) 1.
	create_child: MAIN (1, 2) FAR 1394 U 0.00
expand: MAIN (1, 0) FAR  w(0) 1394.
	create_child: MAIN (0, 2) FAR 2611 U 0.00
expand: MAIN (0, 0) FAR  w(0) 2611. F 0.00
expand: MAIN (1, 0) FAR  w(0) 1394. F 0.00
expand: query!0 (2, 0) FAR  w(0) 1. F 0.00
(spacer::context::check_reachability :time 0.00 :before-memory 5.34 :after-memory 5.44)
Propagating: 0 1 2  ! 3 
(spacer::context::propagate :time 0.00 :before-memory 5.44 :after-memory 5.44)
Entering level 3
BRUNCH_STAT max_query_lvl 2
BRUNCH_STAT num_queries 3
BRUNCH_STAT num_reach_queries 0
BRUNCH_STAT num_reach_reuse 0
BRUNCH_STAT inductive_lvl 0
BRUNCH_STAT max_depth 3
BRUNCH_STAT cex_depth 0
expand: query!0 (3, 0) FAR  w(0) 1.
	create_child: MAIN (2, 3) FAR 1394 U 0.00
expand: MAIN (2, 0) FAR  w(0) 1394.
	create_child: MAIN (1, 3) FAR 2853 U 0.00
expand: MAIN (1, 0) FAR  w(0) 2853. F 0.00
expand: MAIN (2, 0) FAR  w(0) 1394. F 0.00
expand: query!0 (3, 0) FAR  w(0) 1. F 0.00
(spacer::context::check_reachability :time 0.00 :before-memory 5.44 :after-memory 5.58)
Propagating: 1 
(spacer::context::propagate :time 0.00 :before-memory 5.58 :after-memory 5.58)
(define-fun MAIN ((x!0 Int)
 (x!1 Int)
 (x!2 Int)
 (x!3 Int)
 (x!4 Bool)
 (x!5 Bool)
 (x!6 Bool)
 (x!7 Bool)) Bool
  (and (or (<= x!1 0) (= x!0 0)) x!7))
BRUNCH_STAT max_query_lvl 3
BRUNCH_STAT num_queries 5
BRUNCH_STAT num_reach_queries 0
BRUNCH_STAT num_reach_reuse 0
BRUNCH_STAT inductive_lvl 1
BRUNCH_STAT max_depth 3
BRUNCH_STAT cex_depth 0
(:SPACER-inductive-level               1
 :SPACER-max-depth                     3
 :SPACER-max-query-lvl                 3
 :SPACER-num-invariants                3
 :SPACER-num-lemmas                    9
 :SPACER-num-properties                4
 :SPACER-num-queries                   5
 :added-eqs                            159
 :arith-add-rows                       39
 :arith-assert-diseq                   40
 :arith-assert-lower                   138
 :arith-assert-upper                   82
 :arith-bound-prop                     17
 :arith-eq-adapter                     47
 :arith-fixed-eqs                      29
 :arith-offset-eqs                     16
 :arith-pivots                         23
 :bool-inductive-gen                   5
 :bool-inductive-gen-failures          6
 :conflicts                            31
 :decisions                            246
 :del-clause                           61
 :final-checks                         12
 :minimized-lits                       2
 :mk-bool-var                          324
 :mk-clause                            431
 :num-checks                           30
 :propagations                         1685
 :time.itp_solver.itp_core             0.00
 :time.spacer.init_rules               0.00
 :time.spacer.init_rules.pt.init       0.00
 :time.spacer.solve                    0.01
 :time.spacer.solve.propagate          0.00
 :time.spacer.solve.reach              0.01
 :time.spacer.solve.reach.children     0.00
 :time.spacer.solve.reach.gen.bool_ind 0.00
 :time.virtual_solver.proof            0.00
 :time.virtual_solver.smt.total        0.01
 :time.virtual_solver.smt.total.sat    0.00
 :virtual_solver.checks                30
 :virtual_solver.checks.sat            12)
BRUNCH_STAT max_query_lvl 3
BRUNCH_STAT num_queries 5
BRUNCH_STAT num_reach_queries 0
BRUNCH_STAT num_reach_reuse 0
BRUNCH_STAT inductive_lvl 1
BRUNCH_STAT max_depth 3
BRUNCH_STAT cex_depth 0

real	0m0.033s
user	0m0.020s
sys	0m0.012s
