(transform N7datalog13mk_coi_filterE...no-op 0s)
(transform N7datalog25mk_interp_tail_simplifierE...14 rules 0s)
(transform N7datalog27mk_quantifier_instantiationE...no-op 0s)
(transform N7datalog8mk_scaleE...no-op 0s)
(transform N7datalog18mk_karr_invariantsE...no-op 0s)
(transform N7datalog14mk_array_blastE...no-op 0s)
(transform N7datalog22mk_subsumption_checkerE...13 rules 0s)
(transform N7datalog12mk_bit_blastE...no-op 0s)
(transform N7datalog15mk_rule_inlinerE...3 rules 0.00265592s)
(transform N7datalog13mk_coi_filterE...no-op 0s)
(transform N7datalog25mk_interp_tail_simplifierE...3 rules 0s)
(transform N7datalog22mk_subsumption_checkerE...no-op 0s)
(transform N7datalog15mk_rule_inlinerE...no-op 0s)
(transform N7datalog13mk_coi_filterE...no-op 0s)
(transform N7datalog25mk_interp_tail_simplifierE...3 rules 0s)
(transform N7datalog22mk_subsumption_checkerE...no-op 0s)
(transform N7datalog15mk_rule_inlinerE...no-op 0s)
(transform N7datalog22mk_subsumption_checkerE...no-op 0s)
(transform N7datalog15mk_rule_inlinerE...no-op 0s)
(transform N7datalog22mk_subsumption_checkerE...no-op 0s)
(transform N7datalog15mk_rule_inlinerE...no-op 0s)
(transform N7datalog22mk_subsumption_checkerE...no-op 0s)
(transform N7datalog8mk_sliceE...no-op 0s)
expand: query!0 (0, 0) FAR  w(0) 1. F 0.00
(spacer::context::check_reachability :time 0.00 :before-memory 4.30 :after-memory 4.81)
Entering level 1
BRUNCH_STAT max_query_lvl 0
BRUNCH_STAT num_queries 0
BRUNCH_STAT num_reach_queries 0
BRUNCH_STAT num_reach_reuse 0
BRUNCH_STAT inductive_lvl 0
BRUNCH_STAT max_depth 1
BRUNCH_STAT cex_depth 0
expand: query!0 (1, 0) FAR  w(0) 1.
	create_child: MAIN (0, 1) FAR 2121 U 0.00
expand: MAIN (0, 0) FAR  w(0) 2121. F 0.00
expand: query!0 (1, 0) FAR  w(0) 1. F 0.00
(spacer::context::check_reachability :time 0.00 :before-memory 4.81 :after-memory 5.61)
Propagating: 0 1  ! 2 
(spacer::context::propagate :time 0.00 :before-memory 5.61 :after-memory 5.61)
Entering level 2
BRUNCH_STAT max_query_lvl 1
BRUNCH_STAT num_queries 1
BRUNCH_STAT num_reach_queries 0
BRUNCH_STAT num_reach_reuse 0
BRUNCH_STAT inductive_lvl 0
BRUNCH_STAT max_depth 2
BRUNCH_STAT cex_depth 0
expand: query!0 (2, 0) FAR  w(0) 1.
	create_child: MAIN (1, 2) FAR 2121 U 0.00
expand: MAIN (1, 0) FAR  w(0) 2121.
	create_child: MAIN (0, 2) FAR 4192 U 0.00
expand: MAIN (0, 0) FAR  w(0) 4192
Matrix
1, 

. F 0.00
expand: MAIN (1, 0) FAR  w(0) 2121.
	create_child: MAIN (0, 2) FAR 4389 U 0.00
expand: MAIN (0, 0) FAR  w(0) 4389. F 0.00
expand: MAIN (1, 0) FAR  w(0) 2121.
	create_child: MAIN (0, 2) FAR 4430 U 0.00
expand: MAIN (0, 0) FAR  w(0) 4430
Matrix
1, 

. F 0.00
expand: MAIN (1, 0) FAR  w(0) 2121.
	create_child: MAIN (0, 2) FAR 4460 U 0.00
expand: MAIN (0, 0) FAR  w(0) 4460. F 0.00
expand: MAIN (1, 0) FAR  w(0) 2121.
	create_child: MAIN (0, 2) FAR 4703 U 0.00
expand: MAIN (0, 0) FAR  w(0) 4703
Matrix
1, 

. F 0.00
expand: MAIN (1, 0) FAR  w(0) 2121.
	create_child: MAIN (0, 2) FAR 4824 U 0.00
expand: MAIN (0, 0) FAR  w(0) 4824
Matrix
1, 

. F 0.00
expand: MAIN (1, 0) FAR  w(0) 2121.
	create_child: MAIN (0, 2) FAR 5090 U 0.00
expand: MAIN (0, 0) FAR  w(0) 5090. F 0.00
expand: MAIN (1, 0) FAR  w(0) 2121.
	create_child: MAIN (0, 2) FAR 5175 U 0.00
expand: MAIN (0, 0) FAR  w(0) 5175. F 0.00
expand: MAIN (1, 0) FAR  w(0) 2121. F 0.00
expand: query!0 (2, 0) FAR  w(0) 1. F 0.00
(spacer::context::check_reachability :time 0.03 :before-memory 5.61 :after-memory 6.16)
Propagating: 0 1 2  ! 3 
(spacer::context::propagate :time 0.01 :before-memory 6.16 :after-memory 6.16)
Entering level 3
BRUNCH_STAT max_query_lvl 2
BRUNCH_STAT num_queries 10
BRUNCH_STAT num_reach_queries 0
BRUNCH_STAT num_reach_reuse 0
BRUNCH_STAT inductive_lvl 0
BRUNCH_STAT max_depth 3
BRUNCH_STAT cex_depth 0
expand: query!0 (3, 0) FAR  w(0) 1.
	create_child: MAIN (2, 3) FAR 2121 U 0.00
expand: MAIN (2, 0) FAR  w(0) 2121.
	create_child: MAIN (1, 3) FAR 6890 U 0.00
expand: MAIN (1, 0) FAR  w(0) 6890. F 0.00
expand: MAIN (2, 0) FAR  w(0) 2121.
	create_child: MAIN (1, 3) FAR 7408 U 0.00
expand: MAIN (1, 0) FAR  w(0) 7408. F 0.00
expand: MAIN (2, 0) FAR  w(0) 2121.
	create_child: MAIN (1, 3) FAR 7768 U 0.00
expand: MAIN (1, 0) FAR  w(0) 7768. F 0.00
expand: MAIN (2, 0) FAR  w(0) 2121.
	create_child: MAIN (1, 3) FAR 4430 U 0.00
expand: MAIN (1, 0) FAR  w(0) 4430. T 0.00
is-reachable: MAIN (2, 0) FAR 2121 T 0.01
is-reachable: query!0 (3, 0) FAR 1 T 0.00
(spacer::context::check_reachability :time 0.03 :before-memory 6.16 :after-memory 7.28)
BRUNCH_STAT max_query_lvl 3
BRUNCH_STAT num_queries 15
BRUNCH_STAT num_reach_queries 3
BRUNCH_STAT num_reach_reuse 1
BRUNCH_STAT inductive_lvl 0
BRUNCH_STAT max_depth 3
BRUNCH_STAT cex_depth 3
(:SPACER-cex-depth                     3
 :SPACER-max-depth                     3
 :SPACER-max-query-lvl                 3
 :SPACER-num-invariants                5
 :SPACER-num-lemmas                    16
 :SPACER-num-properties                13
 :SPACER-num-queries                   15
 :SPACER-num-reach-queries             3
 :SPACER-num-reuse-reach-facts         1
 :added-eqs                            2000
 :arith-add-rows                       1165
 :arith-assert-diseq                   604
 :arith-assert-lower                   1482
 :arith-assert-upper                   1534
 :arith-bound-prop                     223
 :arith-conflicts                      31
 :arith-eq-adapter                     251
 :arith-fixed-eqs                      368
 :arith-offset-eqs                     361
 :arith-pivots                         189
 :bool-inductive-gen                   13
 :bool-inductive-gen-failures          14
 :conflicts                            222
 :decisions                            1128
 :del-clause                           88
 :final-checks                         28
 :minimized-lits                       258
 :mk-bool-var                          832
 :mk-clause                            1703
 :num-checks                           74
 :propagations                         17207
 :time.itp_solver.itp_core             0.01
 :time.spacer.init_rules               0.00
 :time.spacer.init_rules.pt.init       0.00
 :time.spacer.solve                    0.07
 :time.spacer.solve.propagate          0.01
 :time.spacer.solve.reach              0.06
 :time.spacer.solve.reach.children     0.01
 :time.spacer.solve.reach.gen.bool_ind 0.00
 :time.spacer.solve.reach.is-reach     0.02
 :time.virtual_solver.proof            0.00
 :time.virtual_solver.smt.total        0.04
 :time.virtual_solver.smt.total.sat    0.02
 :virtual_solver.checks                74
 :virtual_solver.checks.sat            28)
BRUNCH_STAT max_query_lvl 3
BRUNCH_STAT num_queries 15
BRUNCH_STAT num_reach_queries 3
BRUNCH_STAT num_reach_reuse 1
BRUNCH_STAT inductive_lvl 0
BRUNCH_STAT max_depth 3
BRUNCH_STAT cex_depth 3

real	0m0.093s
user	0m0.088s
sys	0m0.004s
