(transform N7datalog13mk_coi_filterE...no-op 0s)
(transform N7datalog25mk_interp_tail_simplifierE...12 rules 0s)
(transform N7datalog27mk_quantifier_instantiationE...no-op 0s)
(transform N7datalog8mk_scaleE...no-op 0s)
(transform N7datalog18mk_karr_invariantsE...no-op 0s)
(transform N7datalog14mk_array_blastE...no-op 0s)
(transform N7datalog22mk_subsumption_checkerE...11 rules 0s)
(transform N7datalog12mk_bit_blastE...no-op 0s)
(transform N7datalog15mk_rule_inlinerE...3 rules 0.00376382s)
(transform N7datalog13mk_coi_filterE...no-op 0s)
(transform N7datalog25mk_interp_tail_simplifierE...3 rules 0s)
(transform N7datalog22mk_subsumption_checkerE...no-op 0s)
(transform N7datalog15mk_rule_inlinerE...no-op 0s)
(transform N7datalog13mk_coi_filterE...no-op 0s)
(transform N7datalog25mk_interp_tail_simplifierE...3 rules 0s)
(transform N7datalog22mk_subsumption_checkerE...no-op 0s)
(transform N7datalog15mk_rule_inlinerE...no-op 0s)
(transform N7datalog22mk_subsumption_checkerE...no-op 0s)
(transform N7datalog15mk_rule_inlinerE...no-op 0s)
(transform N7datalog22mk_subsumption_checkerE...no-op 0s)
(transform N7datalog15mk_rule_inlinerE...no-op 0s)
(transform N7datalog22mk_subsumption_checkerE...no-op 0s)
(transform N7datalog8mk_sliceE...no-op 0s)
expand: query!0 (0, 0) FAR  w(0) 1. F 0.00
(spacer::context::check_reachability :time 0.00 :before-memory 4.50 :after-memory 5.01)
Entering level 1
BRUNCH_STAT max_query_lvl 0
BRUNCH_STAT num_queries 0
BRUNCH_STAT num_reach_queries 0
BRUNCH_STAT num_reach_reuse 0
BRUNCH_STAT inductive_lvl 0
BRUNCH_STAT max_depth 1
BRUNCH_STAT cex_depth 0
expand: query!0 (1, 0) FAR  w(0) 1.
	create_child: MAIN (0, 1) FAR 3624 U 0.00
expand: MAIN (0, 0) FAR  w(0) 3624. F 0.00
expand: query!0 (1, 0) FAR  w(0) 1. F 0.00
(spacer::context::check_reachability :time 0.01 :before-memory 5.01 :after-memory 6.12)
Propagating: 0 1  ! 2 
(spacer::context::propagate :time 0.00 :before-memory 6.12 :after-memory 6.22)
Entering level 2
BRUNCH_STAT max_query_lvl 1
BRUNCH_STAT num_queries 1
BRUNCH_STAT num_reach_queries 0
BRUNCH_STAT num_reach_reuse 0
BRUNCH_STAT inductive_lvl 0
BRUNCH_STAT max_depth 2
BRUNCH_STAT cex_depth 0
expand: query!0 (2, 0) FAR  w(0) 1.
	create_child: MAIN (1, 2) FAR 3624 U 0.00
expand: MAIN (1, 0) FAR  w(0) 3624.
	create_child: MAIN (0, 2) FAR 7073 U 0.00
expand: MAIN (0, 0) FAR  w(0) 7073. F 0.00
expand: MAIN (1, 0) FAR  w(0) 3624.
	create_child: MAIN (0, 2) FAR 7164 U 0.00
expand: MAIN (0, 0) FAR  w(0) 7164. F 0.00
expand: MAIN (1, 0) FAR  w(0) 3624.
	create_child: MAIN (0, 2) FAR 7289 U 0.00
expand: MAIN (0, 0) FAR  w(0) 7289. F 0.00
expand: MAIN (1, 0) FAR  w(0) 3624.
	create_child: MAIN (0, 2) FAR 7400 U 0.00
expand: MAIN (0, 0) FAR  w(0) 7400. F 0.00
expand: MAIN (1, 0) FAR  w(0) 3624.
	create_child: MAIN (0, 2) FAR 7504 U 0.00
expand: MAIN (0, 0) FAR  w(0) 7504. F 0.00
expand: MAIN (1, 0) FAR  w(0) 3624. F 0.00
expand: query!0 (2, 0) FAR  w(0) 1. F 0.00
(spacer::context::check_reachability :time 0.02 :before-memory 6.22 :after-memory 6.41)
Propagating: 0 1 2  ! 3 
(spacer::context::propagate :time 0.00 :before-memory 6.41 :after-memory 6.41)
Entering level 3
BRUNCH_STAT max_query_lvl 2
BRUNCH_STAT num_queries 7
BRUNCH_STAT num_reach_queries 0
BRUNCH_STAT num_reach_reuse 0
BRUNCH_STAT inductive_lvl 0
BRUNCH_STAT max_depth 3
BRUNCH_STAT cex_depth 0
expand: query!0 (3, 0) FAR  w(0) 1.
	create_child: MAIN (2, 3) FAR 3624 U 0.00
expand: MAIN (2, 0) FAR  w(0) 3624.
	create_child: MAIN (1, 3) FAR 8037 U 0.00
expand: MAIN (1, 0) FAR  w(0) 8037. F 0.00
expand: MAIN (2, 0) FAR  w(0) 3624.
	create_child: MAIN (1, 3) FAR 6587 U 0.00
expand: MAIN (1, 0) FAR  w(0) 6587. F 0.00
expand: MAIN (2, 0) FAR  w(0) 3624.
	create_child: MAIN (1, 3) FAR 8191 U 0.00
expand: MAIN (1, 0) FAR  w(0) 8191. F 0.00
expand: MAIN (2, 0) FAR  w(0) 3624.
	create_child: MAIN (1, 3) FAR 7842 U 0.00
expand: MAIN (1, 0) FAR  w(0) 7842. F 0.00
expand: MAIN (2, 0) FAR  w(0) 3624.
	create_child: MAIN (1, 3) FAR 7504 U 0.00
expand: MAIN (1, 0) FAR  w(0) 7504. F 0.00
expand: MAIN (2, 0) FAR  w(0) 3624.
	create_child: MAIN (1, 3) FAR 8709 U 0.00
expand: MAIN (1, 0) FAR  w(0) 8709. F 0.00
expand: MAIN (2, 0) FAR  w(0) 3624. F 0.00
expand: query!0 (3, 0) FAR  w(0) 1. F 0.00
(spacer::context::check_reachability :time 0.02 :before-memory 6.41 :after-memory 6.65)
Propagating: 1 
(spacer::context::propagate :time 0.00 :before-memory 6.65 :after-memory 6.65)
(define-fun MAIN ((x!0 Int)
 (x!1 Int)
 (x!2 Int)
 (x!3 Int)
 (x!4 Int)
 (x!5 Int)
 (x!6 Int)
 (x!7 Int)
 (x!8 Bool)
 (x!9 Bool)
 (x!10 Bool)
 (x!11 Bool)) Bool
  (and (>= x!5 0)
       (not (>= x!7 3))
       x!11
       (not (>= x!5 3))
       (not (>= x!6 3))
       (not x!10)
       (>= x!7 0)
       (>= x!6 0)))
BRUNCH_STAT max_query_lvl 3
BRUNCH_STAT num_queries 14
BRUNCH_STAT num_reach_queries 0
BRUNCH_STAT num_reach_reuse 0
BRUNCH_STAT inductive_lvl 1
BRUNCH_STAT max_depth 3
BRUNCH_STAT cex_depth 0
(:SPACER-inductive-level               1
 :SPACER-max-depth                     3
 :SPACER-max-query-lvl                 3
 :SPACER-num-invariants                9
 :SPACER-num-lemmas                    18
 :SPACER-num-properties                12
 :SPACER-num-queries                   14
 :added-eqs                            1464
 :arith-add-rows                       201
 :arith-assert-diseq                   406
 :arith-assert-lower                   949
 :arith-assert-upper                   1016
 :arith-bound-prop                     52
 :arith-conflicts                      13
 :arith-eq-adapter                     557
 :arith-fixed-eqs                      179
 :arith-offset-eqs                     78
 :arith-pivots                         96
 :bool-inductive-gen                   14
 :bool-inductive-gen-failures          14
 :conflicts                            124
 :decisions                            1254
 :del-clause                           490
 :final-checks                         23
 :minimized-lits                       7
 :mk-bool-var                          1233
 :mk-clause                            1939
 :num-checks                           72
 :propagations                         15830
 :time.itp_solver.itp_core             0.01
 :time.spacer.init_rules               0.00
 :time.spacer.init_rules.pt.init       0.00
 :time.spacer.solve                    0.05
 :time.spacer.solve.propagate          0.01
 :time.spacer.solve.reach              0.04
 :time.spacer.solve.reach.children     0.01
 :time.spacer.solve.reach.gen.bool_ind 0.00
 :time.virtual_solver.proof            0.00
 :time.virtual_solver.smt.total        0.03
 :time.virtual_solver.smt.total.sat    0.01
 :virtual_solver.checks                72
 :virtual_solver.checks.sat            23)
BRUNCH_STAT max_query_lvl 3
BRUNCH_STAT num_queries 14
BRUNCH_STAT num_reach_queries 0
BRUNCH_STAT num_reach_reuse 0
BRUNCH_STAT inductive_lvl 1
BRUNCH_STAT max_depth 3
BRUNCH_STAT cex_depth 0

real	0m0.083s
user	0m0.076s
sys	0m0.004s
