(transform N7datalog13mk_coi_filterE...no-op 0s)
(transform N7datalog25mk_interp_tail_simplifierE...11 rules 0s)
(transform N7datalog27mk_quantifier_instantiationE...no-op 0s)
(transform N7datalog8mk_scaleE...no-op 0s)
(transform N7datalog18mk_karr_invariantsE...no-op 0s)
(transform N7datalog14mk_array_blastE...no-op 0s)
(transform N7datalog22mk_subsumption_checkerE...10 rules 0s)
(transform N7datalog12mk_bit_blastE...no-op 0s)
(transform N7datalog15mk_rule_inlinerE...3 rules 0s)
(transform N7datalog13mk_coi_filterE...no-op 0s)
(transform N7datalog25mk_interp_tail_simplifierE...3 rules 0s)
(transform N7datalog22mk_subsumption_checkerE...no-op 0s)
(transform N7datalog15mk_rule_inlinerE...no-op 0s)
(transform N7datalog13mk_coi_filterE...no-op 0s)
(transform N7datalog25mk_interp_tail_simplifierE...3 rules 0s)
(transform N7datalog22mk_subsumption_checkerE...no-op 0s)
(transform N7datalog15mk_rule_inlinerE...no-op 0s)
(transform N7datalog22mk_subsumption_checkerE...no-op 0s)
(transform N7datalog15mk_rule_inlinerE...no-op 0s)
(transform N7datalog22mk_subsumption_checkerE...no-op 0s)
(transform N7datalog15mk_rule_inlinerE...no-op 0s)
(transform N7datalog22mk_subsumption_checkerE...no-op 0s)
(transform N7datalog8mk_sliceE...no-op 0s)
expand: query!0 (0, 0) FAR  w(0) 1. F 0.00
(spacer::context::check_reachability :time 0.00 :before-memory 4.18 :after-memory 4.60)
Entering level 1
BRUNCH_STAT max_query_lvl 0
BRUNCH_STAT num_queries 0
BRUNCH_STAT num_reach_queries 0
BRUNCH_STAT num_reach_reuse 0
BRUNCH_STAT inductive_lvl 0
BRUNCH_STAT max_depth 1
BRUNCH_STAT cex_depth 0
expand: query!0 (1, 0) FAR  w(0) 1.
	create_child: MAIN (0, 1) FAR 929 U 0.00
expand: MAIN (0, 0) FAR  w(0) 929. F 0.00
expand: query!0 (1, 0) FAR  w(0) 1. F 0.00
(spacer::context::check_reachability :time 0.00 :before-memory 4.60 :after-memory 5.21)
Propagating: 0 1  ! 2 
(spacer::context::propagate :time 0.00 :before-memory 5.21 :after-memory 5.21)
Entering level 2
BRUNCH_STAT max_query_lvl 1
BRUNCH_STAT num_queries 1
BRUNCH_STAT num_reach_queries 0
BRUNCH_STAT num_reach_reuse 0
BRUNCH_STAT inductive_lvl 0
BRUNCH_STAT max_depth 2
BRUNCH_STAT cex_depth 0
expand: query!0 (2, 0) FAR  w(0) 1.
	create_child: MAIN (1, 2) FAR 929 U 0.00
expand: MAIN (1, 0) FAR  w(0) 929.
	create_child: MAIN (0, 2) FAR 1854 U 0.00
expand: MAIN (0, 0) FAR  w(0) 1854. F 0.00
expand: MAIN (1, 0) FAR  w(0) 929.
	create_child: MAIN (0, 2) FAR 1948 U 0.00
expand: MAIN (0, 0) FAR  w(0) 1948. F 0.00
expand: MAIN (1, 0) FAR  w(0) 929.
	create_child: MAIN (0, 2) FAR 2065 U 0.00
expand: MAIN (0, 0) FAR  w(0) 2065. F 0.00
expand: MAIN (1, 0) FAR  w(0) 929. F 0.00
expand: query!0 (2, 0) FAR  w(0) 1. F 0.00
(spacer::context::check_reachability :time 0.01 :before-memory 5.21 :after-memory 5.30)
Propagating: 0 1 2  ! 3 
(spacer::context::propagate :time 0.00 :before-memory 5.30 :after-memory 5.30)
Entering level 3
BRUNCH_STAT max_query_lvl 2
BRUNCH_STAT num_queries 5
BRUNCH_STAT num_reach_queries 0
BRUNCH_STAT num_reach_reuse 0
BRUNCH_STAT inductive_lvl 0
BRUNCH_STAT max_depth 3
BRUNCH_STAT cex_depth 0
expand: query!0 (3, 0) FAR  w(0) 1.
	create_child: MAIN (2, 3) FAR 929 U 0.00
expand: MAIN (2, 0) FAR  w(0) 929.
	create_child: MAIN (1, 3) FAR 2065 U 0.00
expand: MAIN (1, 0) FAR  w(0) 2065. F 0.00
expand: MAIN (2, 0) FAR  w(0) 929. F 0.00
expand: query!0 (3, 0) FAR  w(0) 1. F 0.00
(spacer::context::check_reachability :time 0.00 :before-memory 5.30 :after-memory 5.44)
Propagating: 1 
(spacer::context::propagate :time 0.00 :before-memory 5.44 :after-memory 5.44)
(define-fun MAIN ((x!0 Int) (x!1 Bool) (x!2 Bool) (x!3 Bool) (x!4 Bool)) Bool
  (and (or (>= x!0 0) (not x!2)) x!4 (not x!3) (or (not (>= x!0 21)) (not x!2))))
BRUNCH_STAT max_query_lvl 3
BRUNCH_STAT num_queries 7
BRUNCH_STAT num_reach_queries 0
BRUNCH_STAT num_reach_reuse 0
BRUNCH_STAT inductive_lvl 1
BRUNCH_STAT max_depth 3
BRUNCH_STAT cex_depth 0
(:SPACER-inductive-level               1
 :SPACER-max-depth                     3
 :SPACER-max-query-lvl                 3
 :SPACER-num-invariants                5
 :SPACER-num-lemmas                    11
 :SPACER-num-properties                6
 :SPACER-num-queries                   7
 :added-eqs                            131
 :arith-add-rows                       53
 :arith-assert-diseq                   59
 :arith-assert-lower                   163
 :arith-assert-upper                   154
 :arith-bound-prop                     26
 :arith-conflicts                      6
 :arith-eq-adapter                     31
 :arith-fixed-eqs                      30
 :arith-offset-eqs                     5
 :arith-pivots                         36
 :bool-inductive-gen                   7
 :bool-inductive-gen-failures          9
 :conflicts                            50
 :decisions                            239
 :del-clause                           2
 :final-checks                         16
 :minimized-lits                       4
 :mk-bool-var                          254
 :mk-clause                            341
 :num-checks                           42
 :propagations                         2312
 :time.itp_solver.itp_core             0.00
 :time.spacer.init_rules               0.00
 :time.spacer.init_rules.pt.init       0.00
 :time.spacer.solve                    0.02
 :time.spacer.solve.propagate          0.00
 :time.spacer.solve.reach              0.01
 :time.spacer.solve.reach.children     0.00
 :time.spacer.solve.reach.gen.bool_ind 0.00
 :time.virtual_solver.proof            0.00
 :time.virtual_solver.smt.total        0.01
 :time.virtual_solver.smt.total.sat    0.00
 :virtual_solver.checks                42
 :virtual_solver.checks.sat            16)
BRUNCH_STAT max_query_lvl 3
BRUNCH_STAT num_queries 7
BRUNCH_STAT num_reach_queries 0
BRUNCH_STAT num_reach_reuse 0
BRUNCH_STAT inductive_lvl 1
BRUNCH_STAT max_depth 3
BRUNCH_STAT cex_depth 0

real	0m0.035s
user	0m0.024s
sys	0m0.008s
