(transform N7datalog13mk_coi_filterE...no-op 0s)
(transform N7datalog25mk_interp_tail_simplifierE...21 rules 0s)
(transform N7datalog27mk_quantifier_instantiationE...no-op 0s)
(transform N7datalog8mk_scaleE...no-op 0s)
(transform N7datalog18mk_karr_invariantsE...no-op 0s)
(transform N7datalog14mk_array_blastE...no-op 0s)
(transform N7datalog22mk_subsumption_checkerE...20 rules 0s)
(transform N7datalog12mk_bit_blastE...no-op 0s)
(transform N7datalog15mk_rule_inlinerE...3 rules 0.00703675s)
(transform N7datalog13mk_coi_filterE...no-op 0s)
(transform N7datalog25mk_interp_tail_simplifierE...3 rules 0s)
(transform N7datalog22mk_subsumption_checkerE...no-op 0s)
(transform N7datalog15mk_rule_inlinerE...no-op 0s)
(transform N7datalog13mk_coi_filterE...no-op 0s)
(transform N7datalog25mk_interp_tail_simplifierE...3 rules 0s)
(transform N7datalog22mk_subsumption_checkerE...no-op 0s)
(transform N7datalog15mk_rule_inlinerE...no-op 0s)
(transform N7datalog22mk_subsumption_checkerE...no-op 0s)
(transform N7datalog15mk_rule_inlinerE...no-op 0s)
(transform N7datalog22mk_subsumption_checkerE...no-op 0s)
(transform N7datalog15mk_rule_inlinerE...no-op 0s)
(transform N7datalog22mk_subsumption_checkerE...no-op 0s)
(transform N7datalog8mk_sliceE...no-op 0s)
expand: query!0 (0, 0) FAR  w(0) 1. F 0.00
(spacer::context::check_reachability :time 0.00 :before-memory 4.53 :after-memory 5.06)
Entering level 1
BRUNCH_STAT max_query_lvl 0
BRUNCH_STAT num_queries 0
BRUNCH_STAT num_reach_queries 0
BRUNCH_STAT num_reach_reuse 0
BRUNCH_STAT inductive_lvl 0
BRUNCH_STAT max_depth 1
BRUNCH_STAT cex_depth 0
expand: query!0 (1, 0) FAR  w(0) 1.
	create_child: MAIN (0, 1) FAR 3107 U 0.00
expand: MAIN (0, 0) FAR  w(0) 3107. F 0.00
expand: query!0 (1, 0) FAR  w(0) 1. F 0.00
(spacer::context::check_reachability :time 0.00 :before-memory 5.06 :after-memory 5.69)
Propagating: 0 1  ! 2 
(spacer::context::propagate :time 0.00 :before-memory 5.69 :after-memory 5.69)
Entering level 2
BRUNCH_STAT max_query_lvl 1
BRUNCH_STAT num_queries 1
BRUNCH_STAT num_reach_queries 0
BRUNCH_STAT num_reach_reuse 0
BRUNCH_STAT inductive_lvl 0
BRUNCH_STAT max_depth 2
BRUNCH_STAT cex_depth 0
expand: query!0 (2, 0) FAR  w(0) 1.
	create_child: MAIN (1, 2) FAR 3107 U 0.00
expand: MAIN (1, 0) FAR  w(0) 3107.
	create_child: MAIN (0, 2) FAR 4634 U 0.00
expand: MAIN (0, 0) FAR  w(0) 4634. F 0.00
expand: MAIN (1, 0) FAR  w(0) 3107.
	create_child: MAIN (0, 2) FAR 4676 U 0.00
expand: MAIN (0, 0) FAR  w(0) 4676. F 0.00
expand: MAIN (1, 0) FAR  w(0) 3107.
	create_child: MAIN (0, 2) FAR 4760 U 0.00
expand: MAIN (0, 0) FAR  w(0) 4760. F 0.00
expand: MAIN (1, 0) FAR  w(0) 3107.
	create_child: MAIN (0, 2) FAR 4826 U 0.00
expand: MAIN (0, 0) FAR  w(0) 4826. F 0.00
expand: MAIN (1, 0) FAR  w(0) 3107.
	create_child: MAIN (0, 2) FAR 4862 U 0.00
expand: MAIN (0, 0) FAR  w(0) 4862. F 0.00
expand: MAIN (1, 0) FAR  w(0) 3107.
	create_child: MAIN (0, 2) FAR 4918 U 0.00
expand: MAIN (0, 0) FAR  w(0) 4918. F 0.00
expand: MAIN (1, 0) FAR  w(0) 3107.
	create_child: MAIN (0, 2) FAR 5033 U 0.00
expand: MAIN (0, 0) FAR  w(0) 5033. F 0.00
expand: MAIN (1, 0) FAR  w(0) 3107.
	create_child: MAIN (0, 2) FAR 5086 U 0.00
expand: MAIN (0, 0) FAR  w(0) 5086. F 0.00
expand: MAIN (1, 0) FAR  w(0) 3107. F 0.00
expand: query!0 (2, 0) FAR  w(0) 1. F 0.00
(spacer::context::check_reachability :time 0.01 :before-memory 5.69 :after-memory 5.79)
Propagating: 0 
(spacer::context::propagate :time 0.00 :before-memory 5.79 :after-memory 5.98)
(define-fun MAIN ((x!0 Bool)
 (x!1 Bool)
 (x!2 Bool)
 (x!3 Bool)
 (x!4 Bool)
 (x!5 Bool)
 (x!6 Bool)
 (x!7 Bool)
 (x!8 Bool)
 (x!9 Bool)
 (x!10 Bool)
 (x!11 Bool)
 (x!12 Bool)
 (x!13 Bool)
 (x!14 Bool)
 (x!15 Bool)
 (x!16 Bool)
 (x!17 Bool)
 (x!18 Bool)
 (x!19 Bool)
 (x!20 Bool)
 (x!21 Bool)
 (x!22 Bool)
 (x!23 Bool)
 (x!24 Bool)
 (x!25 Bool)
 (x!26 Bool)) Bool
  (and (or (not x!0) x!22)
       (not x!21)
       (not x!8)
       (not x!12)
       (not x!25)
       (not x!10)
       (not x!4)
       x!26
       (or x!5 (not x!22))))
BRUNCH_STAT max_query_lvl 2
BRUNCH_STAT num_queries 10
BRUNCH_STAT num_reach_queries 0
BRUNCH_STAT num_reach_reuse 0
BRUNCH_STAT inductive_lvl 0
BRUNCH_STAT max_depth 2
BRUNCH_STAT cex_depth 0
(:SPACER-max-depth                     2
 :SPACER-max-query-lvl                 2
 :SPACER-num-invariants                10
 :SPACER-num-lemmas                    13
 :SPACER-num-properties                10
 :SPACER-num-queries                   10
 :bool-inductive-gen                   10
 :bool-inductive-gen-failures          12
 :conflicts                            47
 :decisions                            476
 :final-checks                         16
 :mk-bool-var                          388
 :mk-clause                            683
 :num-checks                           48
 :propagations                         4406
 :time.itp_solver.itp_core             0.00
 :time.spacer.init_rules               0.00
 :time.spacer.init_rules.pt.init       0.00
 :time.spacer.solve                    0.02
 :time.spacer.solve.propagate          0.00
 :time.spacer.solve.reach              0.01
 :time.spacer.solve.reach.children     0.00
 :time.spacer.solve.reach.gen.bool_ind 0.00
 :time.virtual_solver.proof            0.00
 :time.virtual_solver.smt.total        0.01
 :time.virtual_solver.smt.total.sat    0.00
 :virtual_solver.checks                48
 :virtual_solver.checks.sat            16)
BRUNCH_STAT max_query_lvl 2
BRUNCH_STAT num_queries 10
BRUNCH_STAT num_reach_queries 0
BRUNCH_STAT num_reach_reuse 0
BRUNCH_STAT inductive_lvl 0
BRUNCH_STAT max_depth 2
BRUNCH_STAT cex_depth 0

real	0m0.046s
user	0m0.036s
sys	0m0.008s
