(transform N7datalog13mk_coi_filterE...no-op 0s)
(transform N7datalog25mk_interp_tail_simplifierE...21 rules 0s)
(transform N7datalog27mk_quantifier_instantiationE...no-op 0s)
(transform N7datalog8mk_scaleE...no-op 0s)
(transform N7datalog18mk_karr_invariantsE...no-op 0s)
(transform N7datalog14mk_array_blastE...no-op 0s)
(transform N7datalog22mk_subsumption_checkerE...20 rules 0s)
(transform N7datalog12mk_bit_blastE...no-op 0s)
(transform N7datalog15mk_rule_inlinerE...3 rules 0.0175269s)
(transform N7datalog13mk_coi_filterE...no-op 0s)
(transform N7datalog25mk_interp_tail_simplifierE...3 rules 0s)
(transform N7datalog22mk_subsumption_checkerE...no-op 0s)
(transform N7datalog15mk_rule_inlinerE...no-op 0s)
(transform N7datalog13mk_coi_filterE...no-op 0s)
(transform N7datalog25mk_interp_tail_simplifierE...3 rules 0s)
(transform N7datalog22mk_subsumption_checkerE...no-op 0s)
(transform N7datalog15mk_rule_inlinerE...no-op 0s)
(transform N7datalog22mk_subsumption_checkerE...no-op 0s)
(transform N7datalog15mk_rule_inlinerE...no-op 0s)
(transform N7datalog22mk_subsumption_checkerE...no-op 0s)
(transform N7datalog15mk_rule_inlinerE...no-op 0s)
(transform N7datalog22mk_subsumption_checkerE...no-op 0s)
(transform N7datalog8mk_sliceE...no-op 0s)
expand: query!0 (0, 0) FAR  w(0) 1. F 0.00
(spacer::context::check_reachability :time 0.00 :before-memory 5.09 :after-memory 5.60)
Entering level 1
BRUNCH_STAT max_query_lvl 0
BRUNCH_STAT num_queries 0
BRUNCH_STAT num_reach_queries 0
BRUNCH_STAT num_reach_reuse 0
BRUNCH_STAT inductive_lvl 0
BRUNCH_STAT max_depth 1
BRUNCH_STAT cex_depth 0
expand: query!0 (1, 0) FAR  w(0) 1.
	create_child: MAIN (0, 1) FAR 6466 U 0.00
expand: MAIN (0, 0) FAR  w(0) 6466. F 0.00
expand: query!0 (1, 0) FAR  w(0) 1. F 0.00
(spacer::context::check_reachability :time 0.00 :before-memory 5.60 :after-memory 6.54)
Propagating: 0 1  ! 2 
(spacer::context::propagate :time 0.00 :before-memory 6.54 :after-memory 6.54)
Entering level 2
BRUNCH_STAT max_query_lvl 1
BRUNCH_STAT num_queries 1
BRUNCH_STAT num_reach_queries 0
BRUNCH_STAT num_reach_reuse 0
BRUNCH_STAT inductive_lvl 0
BRUNCH_STAT max_depth 2
BRUNCH_STAT cex_depth 0
expand: query!0 (2, 0) FAR  w(0) 1.
	create_child: MAIN (1, 2) FAR 6466 U 0.00
expand: MAIN (1, 0) FAR  w(0) 6466.
	create_child: MAIN (0, 2) FAR 9798 U 0.00
expand: MAIN (0, 0) FAR  w(0) 9798. F 0.00
expand: MAIN (1, 0) FAR  w(0) 6466.
	create_child: MAIN (0, 2) FAR 9854 U 0.00
expand: MAIN (0, 0) FAR  w(0) 9854. F 0.00
expand: MAIN (1, 0) FAR  w(0) 6466.
	create_child: MAIN (0, 2) FAR 9914 U 0.00
expand: MAIN (0, 0) FAR  w(0) 9914. F 0.00
expand: MAIN (1, 0) FAR  w(0) 6466.
	create_child: MAIN (0, 2) FAR 9961 U 0.00
expand: MAIN (0, 0) FAR  w(0) 9961. F 0.00
expand: MAIN (1, 0) FAR  w(0) 6466.
	create_child: MAIN (0, 2) FAR 9988 U 0.00
expand: MAIN (0, 0) FAR  w(0) 9988. F 0.00
expand: MAIN (1, 0) FAR  w(0) 6466.
	create_child: MAIN (0, 2) FAR 10033 U 0.00
expand: MAIN (0, 0) FAR  w(0) 10033. F 0.00
expand: MAIN (1, 0) FAR  w(0) 6466.
	create_child: MAIN (0, 2) FAR 10097 U 0.00
expand: MAIN (0, 0) FAR  w(0) 10097. F 0.00
expand: MAIN (1, 0) FAR  w(0) 6466.
	create_child: MAIN (0, 2) FAR 10142 U 0.00
expand: MAIN (0, 0) FAR  w(0) 10142. F 0.00
expand: MAIN (1, 0) FAR  w(0) 6466.
	create_child: MAIN (0, 2) FAR 10166 U 0.00
expand: MAIN (0, 0) FAR  w(0) 10166. F 0.00
expand: MAIN (1, 0) FAR  w(0) 6466.
	create_child: MAIN (0, 2) FAR 10228 U 0.00
expand: MAIN (0, 0) FAR  w(0) 10228. F 0.00
expand: MAIN (1, 0) FAR  w(0) 6466.
	create_child: MAIN (0, 2) FAR 10271 U 0.00
expand: MAIN (0, 0) FAR  w(0) 10271. F 0.00
expand: MAIN (1, 0) FAR  w(0) 6466.
	create_child: MAIN (0, 2) FAR 10375 U 0.00
expand: MAIN (0, 0) FAR  w(0) 10375. F 0.00
expand: MAIN (1, 0) FAR  w(0) 6466.
	create_child: MAIN (0, 2) FAR 10469 U 0.00
expand: MAIN (0, 0) FAR  w(0) 10469. F 0.00
expand: MAIN (1, 0) FAR  w(0) 6466.
	create_child: MAIN (0, 2) FAR 10537 U 0.00
expand: MAIN (0, 0) FAR  w(0) 10537. F 0.00
expand: MAIN (1, 0) FAR  w(0) 6466.
	create_child: MAIN (0, 2) FAR 10612 U 0.00
expand: MAIN (0, 0) FAR  w(0) 10612. F 0.00
expand: MAIN (1, 0) FAR  w(0) 6466.
	create_child: MAIN (0, 2) FAR 10655 U 0.00
expand: MAIN (0, 0) FAR  w(0) 10655. F 0.00
expand: MAIN (1, 0) FAR  w(0) 6466.
	create_child: MAIN (0, 2) FAR 10779 U 0.00
expand: MAIN (0, 0) FAR  w(0) 10779. F 0.00
expand: MAIN (1, 0) FAR  w(0) 6466.
	create_child: MAIN (0, 2) FAR 10882 U 0.00
expand: MAIN (0, 0) FAR  w(0) 10882. F 0.00
expand: MAIN (1, 0) FAR  w(0) 6466.
	create_child: MAIN (0, 2) FAR 10919 U 0.00
expand: MAIN (0, 0) FAR  w(0) 10919. F 0.00
expand: MAIN (1, 0) FAR  w(0) 6466.
	create_child: MAIN (0, 2) FAR 10964 U 0.00
expand: MAIN (0, 0) FAR  w(0) 10964. F 0.00
expand: MAIN (1, 0) FAR  w(0) 6466.
	create_child: MAIN (0, 2) FAR 11033 U 0.00
expand: MAIN (0, 0) FAR  w(0) 11033. F 0.00
expand: MAIN (1, 0) FAR  w(0) 6466.
	create_child: MAIN (0, 2) FAR 11130 U 0.00
expand: MAIN (0, 0) FAR  w(0) 11130. F 0.00
expand: MAIN (1, 0) FAR  w(0) 6466. F 0.00
expand: query!0 (2, 0) FAR  w(0) 1. F 0.00
(spacer::context::check_reachability :time 0.04 :before-memory 6.54 :after-memory 6.76)
Propagating: 0 
(spacer::context::propagate :time 0.00 :before-memory 6.76 :after-memory 7.11)
(define-fun MAIN ((x!0 Bool)
 (x!1 Bool)
 (x!2 Bool)
 (x!3 Bool)
 (x!4 Bool)
 (x!5 Bool)
 (x!6 Bool)
 (x!7 Bool)
 (x!8 Bool)
 (x!9 Bool)
 (x!10 Bool)
 (x!11 Bool)
 (x!12 Bool)
 (x!13 Bool)
 (x!14 Bool)
 (x!15 Bool)
 (x!16 Bool)
 (x!17 Bool)
 (x!18 Bool)
 (x!19 Bool)
 (x!20 Bool)
 (x!21 Bool)
 (x!22 Bool)
 (x!23 Bool)
 (x!24 Bool)
 (x!25 Bool)
 (x!26 Bool)
 (x!27 Bool)
 (x!28 Bool)
 (x!29 Bool)
 (x!30 Bool)
 (x!31 Bool)
 (x!32 Bool)
 (x!33 Bool)
 (x!34 Bool)
 (x!35 Bool)
 (x!36 Bool)
 (x!37 Bool)
 (x!38 Bool)
 (x!39 Bool)
 (x!40 Bool)
 (x!41 Bool)
 (x!42 Bool)
 (x!43 Bool)
 (x!44 Bool)
 (x!45 Bool)) Bool
  (and (or x!7 (not x!10))
       x!45
       (not x!42)
       (not x!31)
       (not x!34)
       (not x!44)
       (not x!39)
       (not x!25)
       (not x!19)
       (not x!16)
       (not x!21)
       (not x!2)
       (not x!13)
       (not x!5)
       (not x!8)
       (not x!11)
       (not x!3)
       (or (not x!20) x!15)
       (or (not x!20) x!18)
       (or x!38 (not x!41))
       (or x!10 x!6)
       (or (not x!10) x!12)
       (or x!10 (not x!7))))
BRUNCH_STAT max_query_lvl 2
BRUNCH_STAT num_queries 24
BRUNCH_STAT num_reach_queries 0
BRUNCH_STAT num_reach_reuse 0
BRUNCH_STAT inductive_lvl 0
BRUNCH_STAT max_depth 2
BRUNCH_STAT cex_depth 0
(:SPACER-max-depth                     2
 :SPACER-max-query-lvl                 2
 :SPACER-num-invariants                24
 :SPACER-num-lemmas                    27
 :SPACER-num-properties                24
 :SPACER-num-queries                   24
 :bool-inductive-gen                   24
 :bool-inductive-gen-failures          31
 :conflicts                            97
 :decisions                            2160
 :final-checks                         40
 :minimized-lits                       8
 :mk-bool-var                          826
 :mk-clause                            1592
 :num-checks                           114
 :propagations                         20959
 :time.itp_solver.itp_core             0.00
 :time.spacer.init_rules               0.00
 :time.spacer.init_rules.pt.init       0.00
 :time.spacer.solve                    0.05
 :time.spacer.solve.propagate          0.00
 :time.spacer.solve.reach              0.04
 :time.spacer.solve.reach.children     0.01
 :time.spacer.solve.reach.gen.bool_ind 0.00
 :time.virtual_solver.proof            0.00
 :time.virtual_solver.smt.total        0.02
 :time.virtual_solver.smt.total.sat    0.01
 :virtual_solver.checks                114
 :virtual_solver.checks.sat            40)
BRUNCH_STAT max_query_lvl 2
BRUNCH_STAT num_queries 24
BRUNCH_STAT num_reach_queries 0
BRUNCH_STAT num_reach_reuse 0
BRUNCH_STAT inductive_lvl 0
BRUNCH_STAT max_depth 2
BRUNCH_STAT cex_depth 0

real	0m0.093s
user	0m0.084s
sys	0m0.008s
