(transform N7datalog13mk_coi_filterE...no-op 0s)
(transform N7datalog25mk_interp_tail_simplifierE...12 rules 0s)
(transform N7datalog27mk_quantifier_instantiationE...no-op 0s)
(transform N7datalog8mk_scaleE...no-op 0s)
(transform N7datalog18mk_karr_invariantsE...no-op 0s)
(transform N7datalog14mk_array_blastE...no-op 0s)
(transform N7datalog22mk_subsumption_checkerE...11 rules 0s)
(transform N7datalog12mk_bit_blastE...no-op 0s)
(transform N7datalog15mk_rule_inlinerE...3 rules 0.0017822s)
(transform N7datalog13mk_coi_filterE...no-op 0s)
(transform N7datalog25mk_interp_tail_simplifierE...3 rules 0s)
(transform N7datalog22mk_subsumption_checkerE...no-op 0s)
(transform N7datalog15mk_rule_inlinerE...no-op 0s)
(transform N7datalog13mk_coi_filterE...no-op 0s)
(transform N7datalog25mk_interp_tail_simplifierE...3 rules 0s)
(transform N7datalog22mk_subsumption_checkerE...no-op 0s)
(transform N7datalog15mk_rule_inlinerE...no-op 0s)
(transform N7datalog22mk_subsumption_checkerE...no-op 0s)
(transform N7datalog15mk_rule_inlinerE...no-op 0s)
(transform N7datalog22mk_subsumption_checkerE...no-op 0s)
(transform N7datalog15mk_rule_inlinerE...no-op 0s)
(transform N7datalog22mk_subsumption_checkerE...no-op 0s)
(transform N7datalog8mk_sliceE...no-op 0s)
expand: query!0 (0, 0) FAR  w(0) 1. F 0.00
(spacer::context::check_reachability :time 0.00 :before-memory 4.34 :after-memory 4.73)
Entering level 1
BRUNCH_STAT max_query_lvl 0
BRUNCH_STAT num_queries 0
BRUNCH_STAT num_reach_queries 0
BRUNCH_STAT num_reach_reuse 0
BRUNCH_STAT inductive_lvl 0
BRUNCH_STAT max_depth 1
BRUNCH_STAT cex_depth 0
expand: query!0 (1, 0) FAR  w(0) 1.
	create_child: MAIN (0, 1) FAR 1424 U 0.00
expand: MAIN (0, 0) FAR  w(0) 1424. F 0.00
expand: query!0 (1, 0) FAR  w(0) 1. F 0.00
(spacer::context::check_reachability :time 0.00 :before-memory 4.73 :after-memory 5.36)
Propagating: 0 1  ! 2 
(spacer::context::propagate :time 0.00 :before-memory 5.36 :after-memory 5.36)
Entering level 2
BRUNCH_STAT max_query_lvl 1
BRUNCH_STAT num_queries 1
BRUNCH_STAT num_reach_queries 0
BRUNCH_STAT num_reach_reuse 0
BRUNCH_STAT inductive_lvl 0
BRUNCH_STAT max_depth 2
BRUNCH_STAT cex_depth 0
expand: query!0 (2, 0) FAR  w(0) 1.
	create_child: MAIN (1, 2) FAR 1424 U 0.00
expand: MAIN (1, 0) FAR  w(0) 1424.
	create_child: MAIN (0, 2) FAR 2599 U 0.00
expand: MAIN (0, 0) FAR  w(0) 2599. F 0.00
expand: MAIN (1, 0) FAR  w(0) 1424.
	create_child: MAIN (0, 2) FAR 2726 U 0.00
expand: MAIN (0, 0) FAR  w(0) 2726. F 0.00
expand: MAIN (1, 0) FAR  w(0) 1424.
	create_child: MAIN (0, 2) FAR 2797 U 0.00
expand: MAIN (0, 0) FAR  w(0) 2797. F 0.00
expand: MAIN (1, 0) FAR  w(0) 1424. F 0.00
expand: query!0 (2, 0) FAR  w(0) 1. F 0.00
(spacer::context::check_reachability :time 0.01 :before-memory 5.36 :after-memory 5.54)
Propagating: 0 1 2  ! 3 
(spacer::context::propagate :time 0.00 :before-memory 5.54 :after-memory 5.54)
Entering level 3
BRUNCH_STAT max_query_lvl 2
BRUNCH_STAT num_queries 5
BRUNCH_STAT num_reach_queries 0
BRUNCH_STAT num_reach_reuse 0
BRUNCH_STAT inductive_lvl 0
BRUNCH_STAT max_depth 3
BRUNCH_STAT cex_depth 0
expand: query!0 (3, 0) FAR  w(0) 1.
	create_child: MAIN (2, 3) FAR 1424 U 0.00
expand: MAIN (2, 0) FAR  w(0) 1424.
	create_child: MAIN (1, 3) FAR 2726 U 0.00
expand: MAIN (1, 0) FAR  w(0) 2726. F 0.00
expand: MAIN (2, 0) FAR  w(0) 1424.
	create_child: MAIN (1, 3) FAR 3394 U 0.00
expand: MAIN (1, 0) FAR  w(0) 3394. F 0.00
expand: MAIN (2, 0) FAR  w(0) 1424. F 0.00
expand: query!0 (3, 0) FAR  w(0) 1. F 0.00
(spacer::context::check_reachability :time 0.00 :before-memory 5.54 :after-memory 5.54)
Propagating: 1 2 3  ! 4 
(spacer::context::propagate :time 0.00 :before-memory 5.54 :after-memory 5.64)
Entering level 4
BRUNCH_STAT max_query_lvl 3
BRUNCH_STAT num_queries 8
BRUNCH_STAT num_reach_queries 0
BRUNCH_STAT num_reach_reuse 0
BRUNCH_STAT inductive_lvl 0
BRUNCH_STAT max_depth 4
BRUNCH_STAT cex_depth 0
expand: query!0 (4, 0) FAR  w(0) 1.
	create_child: MAIN (3, 4) FAR 1424 U 0.00
expand: MAIN (3, 0) FAR  w(0) 1424.
	create_child: MAIN (2, 4) FAR 2726 U 0.00
expand: MAIN (2, 0) FAR  w(0) 2726. F 0.00
expand: MAIN (3, 0) FAR  w(0) 1424.
	create_child: MAIN (2, 4) FAR 4029 U 0.00
expand: MAIN (2, 0) FAR  w(0) 4029. F 0.00
expand: MAIN (3, 0) FAR  w(0) 1424. F 0.00
expand: query!0 (4, 0) FAR  w(0) 1. F 0.00
(spacer::context::check_reachability :time 0.00 :before-memory 5.64 :after-memory 5.64)
Propagating: 2 
(spacer::context::propagate :time 0.00 :before-memory 5.64 :after-memory 5.64)
(define-fun MAIN ((x!0 Bool)
 (x!1 Bool)
 (x!2 Int)
 (x!3 Int)
 (x!4 Int)
 (x!5 Bool)
 (x!6 Bool)
 (x!7 Bool)) Bool
  (and (or (not (>= x!4 10)) (not x!5))
       x!7
       (= x!3 0)
       (not x!1)
       (>= x!4 0)
       (not (>= x!4 11))))
BRUNCH_STAT max_query_lvl 4
BRUNCH_STAT num_queries 11
BRUNCH_STAT num_reach_queries 0
BRUNCH_STAT num_reach_reuse 0
BRUNCH_STAT inductive_lvl 2
BRUNCH_STAT max_depth 4
BRUNCH_STAT cex_depth 0
(:SPACER-inductive-level               2
 :SPACER-max-depth                     4
 :SPACER-max-query-lvl                 4
 :SPACER-num-invariants                7
 :SPACER-num-lemmas                    16
 :SPACER-num-properties                9
 :SPACER-num-queries                   11
 :added-eqs                            276
 :arith-assert-diseq                   127
 :arith-assert-lower                   257
 :arith-assert-upper                   289
 :arith-bound-prop                     26
 :arith-conflicts                      4
 :arith-eq-adapter                     91
 :arith-fixed-eqs                      22
 :arith-offset-eqs                     17
 :arith-pivots                         24
 :bool-inductive-gen                   11
 :bool-inductive-gen-failures          12
 :conflicts                            60
 :decisions                            370
 :del-clause                           44
 :final-checks                         21
 :minimized-lits                       1
 :mk-bool-var                          393
 :mk-clause                            543
 :num-checks                           67
 :propagations                         4561
 :time.itp_solver.itp_core             0.00
 :time.spacer.init_rules               0.00
 :time.spacer.init_rules.pt.init       0.00
 :time.spacer.solve                    0.02
 :time.spacer.solve.propagate          0.00
 :time.spacer.solve.reach              0.02
 :time.spacer.solve.reach.children     0.00
 :time.spacer.solve.reach.gen.bool_ind 0.00
 :time.virtual_solver.proof            0.00
 :time.virtual_solver.smt.total        0.01
 :time.virtual_solver.smt.total.sat    0.00
 :virtual_solver.checks                67
 :virtual_solver.checks.sat            21)
BRUNCH_STAT max_query_lvl 4
BRUNCH_STAT num_queries 11
BRUNCH_STAT num_reach_queries 0
BRUNCH_STAT num_reach_reuse 0
BRUNCH_STAT inductive_lvl 2
BRUNCH_STAT max_depth 4
BRUNCH_STAT cex_depth 0

real	0m0.045s
user	0m0.040s
sys	0m0.004s
