(transform N7datalog13mk_coi_filterE...no-op 0s)
(transform N7datalog25mk_interp_tail_simplifierE...7 rules 0.00180697s)
(transform N7datalog27mk_quantifier_instantiationE...no-op 0s)
(transform N7datalog8mk_scaleE...no-op 0s)
(transform N7datalog18mk_karr_invariantsE...no-op 0s)
(transform N7datalog14mk_array_blastE...no-op 0s)
(transform N7datalog22mk_subsumption_checkerE...6 rules 0s)
(transform N7datalog12mk_bit_blastE...no-op 0s)
(transform N7datalog15mk_rule_inlinerE...3 rules 0.0138607s)
(transform N7datalog13mk_coi_filterE...no-op 0s)
(transform N7datalog25mk_interp_tail_simplifierE...3 rules 0s)
(transform N7datalog22mk_subsumption_checkerE...no-op 0s)
(transform N7datalog15mk_rule_inlinerE...no-op 0s)
(transform N7datalog13mk_coi_filterE...no-op 0s)
(transform N7datalog25mk_interp_tail_simplifierE...3 rules 0s)
(transform N7datalog22mk_subsumption_checkerE...no-op 0s)
(transform N7datalog15mk_rule_inlinerE...no-op 0s)
(transform N7datalog22mk_subsumption_checkerE...no-op 0s)
(transform N7datalog15mk_rule_inlinerE...no-op 0s)
(transform N7datalog22mk_subsumption_checkerE...no-op 0s)
(transform N7datalog15mk_rule_inlinerE...no-op 0s)
(transform N7datalog22mk_subsumption_checkerE...no-op 0s)
(transform N7datalog8mk_sliceE...no-op 0.00121824s)
expand: query!0 (0, 0) FAR  w(0) 1. F 0.00
(spacer::context::check_reachability :time 0.00 :before-memory 5.88 :after-memory 6.84)
Entering level 1
BRUNCH_STAT max_query_lvl 0
BRUNCH_STAT num_queries 0
BRUNCH_STAT num_reach_queries 0
BRUNCH_STAT num_reach_reuse 0
BRUNCH_STAT inductive_lvl 0
BRUNCH_STAT max_depth 1
BRUNCH_STAT cex_depth 0
expand: query!0 (1, 0) FAR  w(0) 1.
	create_child: MAIN (0, 1) FAR 13298 U 0.00
expand: MAIN (0, 0) FAR  w(0) 13298. F 0.01
expand: query!0 (1, 0) FAR  w(0) 1. F 0.00
(spacer::context::check_reachability :time 0.01 :before-memory 6.84 :after-memory 8.95)
Propagating: 0 1  ! 2 
(spacer::context::propagate :time 0.01 :before-memory 8.95 :after-memory 9.24)
Entering level 2
BRUNCH_STAT max_query_lvl 1
BRUNCH_STAT num_queries 1
BRUNCH_STAT num_reach_queries 0
BRUNCH_STAT num_reach_reuse 0
BRUNCH_STAT inductive_lvl 0
BRUNCH_STAT max_depth 2
BRUNCH_STAT cex_depth 0
expand: query!0 (2, 0) FAR  w(0) 1.
	create_child: MAIN (1, 2) FAR 13298 U 0.00
expand: MAIN (1, 0) FAR  w(0) 13298.
	create_child: MAIN (0, 2) FAR 22494 U 0.01
expand: MAIN (0, 0) FAR  w(0) 22494. F 0.00
expand: MAIN (1, 0) FAR  w(0) 13298.
	create_child: MAIN (0, 2) FAR 23035 UNDEF 0.01
expand: MAIN (0, 0) FAR  w(0) 23035. F 0.00
expand: MAIN (1, 0) FAR  w(0) 13298.
	create_child: MAIN (0, 2) FAR 22976 UNDEF 0.01
expand: MAIN (0, 0) FAR  w(0) 22976. F 0.00
expand: MAIN (1, 0) FAR  w(0) 13298.
	create_child: MAIN (0, 2) FAR 23194 UNDEF 0.01
expand: MAIN (0, 0) FAR  w(0) 23194. F 0.01
expand: MAIN (1, 0) FAR  w(0) 13298.
	create_child: MAIN (0, 2) FAR 23572 U 0.01
expand: MAIN (0, 0) FAR  w(0) 23572. F 0.00
expand: MAIN (1, 0) FAR  w(0) 13298.
	create_child: MAIN (0, 2) FAR 23852 UNDEF 0.01
expand: MAIN (0, 0) FAR  w(0) 23852. F 0.00
expand: MAIN (1, 0) FAR  w(0) 13298.
	create_child: MAIN (0, 2) FAR 24008 UNDEF 0.01
expand: MAIN (0, 0) FAR  w(0) 24008. F 0.01
expand: MAIN (1, 0) FAR  w(0) 13298.
	create_child: MAIN (0, 2) FAR 24204 UNDEF 0.01
expand: MAIN (0, 0) FAR  w(0) 24204. F 0.00
expand: MAIN (1, 0) FAR  w(0) 13298.
	create_child: MAIN (0, 2) FAR 24675 UNDEF 0.01
expand: MAIN (0, 0) FAR  w(0) 24675. F 0.00
expand: MAIN (1, 0) FAR  w(0) 13298.
	create_child: MAIN (0, 2) FAR 25383 UNDEF 0.01
expand: MAIN (0, 0) FAR  w(0) 25383. F 0.00
expand: MAIN (1, 0) FAR  w(0) 13298.
	create_child: MAIN (0, 2) FAR 25323 UNDEF 0.01
expand: MAIN (0, 0) FAR  w(0) 25323. F 0.00
expand: MAIN (1, 0) FAR  w(0) 13298.
	create_child: MAIN (0, 2) FAR 25536 UNDEF 0.01
expand: MAIN (0, 0) FAR  w(0) 25536. F 0.00
expand: MAIN (1, 0) FAR  w(0) 13298.
	create_child: MAIN (0, 2) FAR 25917 UNDEF 0.01
expand: MAIN (0, 0) FAR  w(0) 25917. F 0.00
expand: MAIN (1, 0) FAR  w(0) 13298.
	create_child: MAIN (0, 2) FAR 26220 UNDEF 0.01
expand: MAIN (0, 0) FAR  w(0) 26220. F 0.00
expand: MAIN (1, 0) FAR  w(0) 13298.
	create_child: MAIN (0, 2) FAR 26037 UNDEF 0.01
expand: MAIN (0, 0) FAR  w(0) 26037. F 0.00
expand: MAIN (1, 0) FAR  w(0) 13298.
	create_child: MAIN (0, 2) FAR 26340 UNDEF 0.01
expand: MAIN (0, 0) FAR  w(0) 26340. F 0.00
expand: MAIN (1, 0) FAR  w(0) 13298. F 0.00
expand: query!0 (2, 0) FAR  w(0) 1. F 0.00
(spacer::context::check_reachability :time 0.15 :before-memory 9.33 :after-memory 10.91)
Propagating: 0 1 2  ! 3 
(spacer::context::propagate :time 0.06 :before-memory 10.91 :after-memory 11.40)
Entering level 3
BRUNCH_STAT max_query_lvl 2
BRUNCH_STAT num_queries 18
BRUNCH_STAT num_reach_queries 0
BRUNCH_STAT num_reach_reuse 0
BRUNCH_STAT inductive_lvl 0
BRUNCH_STAT max_depth 3
BRUNCH_STAT cex_depth 0
expand: query!0 (3, 0) FAR  w(0) 1.
	create_child: MAIN (2, 3) FAR 13298 U 0.00
expand: MAIN (2, 0) FAR  w(0) 13298.
	create_child: MAIN (1, 3) FAR 30550 U 0.01
expand: MAIN (1, 0) FAR  w(0) 30550. F 0.01
expand: MAIN (2, 0) FAR  w(0) 13298.
	create_child: MAIN (1, 3) FAR 31068 U 0.01
expand: MAIN (1, 0) FAR  w(0) 31068. F 0.01
expand: MAIN (2, 0) FAR  w(0) 13298.
	create_child: MAIN (1, 3) FAR 30971 U 0.01
expand: MAIN (1, 0) FAR  w(0) 30971. F 0.01
expand: MAIN (2, 0) FAR  w(0) 13298.
	create_child: MAIN (1, 3) FAR 31836 U 0.01
expand: MAIN (1, 0) FAR  w(0) 31836. F 0.01
expand: MAIN (2, 0) FAR  w(0) 13298. F 0.00
expand: query!0 (3, 0) FAR  w(0) 1. F 0.00
(spacer::context::check_reachability :time 0.06 :before-memory 11.40 :after-memory 11.82)
Propagating: 1 2 3  ! 4 
(spacer::context::propagate :time 0.04 :before-memory 11.82 :after-memory 11.92)
Entering level 4
BRUNCH_STAT max_query_lvl 3
BRUNCH_STAT num_queries 23
BRUNCH_STAT num_reach_queries 0
BRUNCH_STAT num_reach_reuse 0
BRUNCH_STAT inductive_lvl 0
BRUNCH_STAT max_depth 4
BRUNCH_STAT cex_depth 0
expand: query!0 (4, 0) FAR  w(0) 1.
	create_child: MAIN (3, 4) FAR 13298 U 0.00
expand: MAIN (3, 0) FAR  w(0) 13298.
	create_child: MAIN (2, 4) FAR 33523 UNDEF 0.01
expand: MAIN (2, 0) FAR  w(0) 33523. F 0.02
expand: MAIN (3, 0) FAR  w(0) 13298.
	create_child: MAIN (2, 4) FAR 34571 UNDEF 0.01
expand: MAIN (2, 0) FAR  w(0) 34571. F 0.01
expand: MAIN (3, 0) FAR  w(0) 13298.
	create_child: MAIN (2, 4) FAR 35150 UNDEF 0.01
expand: MAIN (2, 0) FAR  w(0) 35150. F 0.01
expand: MAIN (3, 0) FAR  w(0) 13298.
	create_child: MAIN (2, 4) FAR 35869 UNDEF 0.01
expand: MAIN (2, 0) FAR  w(0) 35869. F 0.01
expand: MAIN (3, 0) FAR  w(0) 13298.
	create_child: MAIN (2, 4) FAR 35945 UNDEF 0.01
expand: MAIN (2, 0) FAR  w(0) 35945. F 0.02
expand: MAIN (3, 0) FAR  w(0) 13298.
	create_child: MAIN (2, 4) FAR 36852 UNDEF 0.01
expand: MAIN (2, 0) FAR  w(0) 36852. F 0.01
expand: MAIN (3, 0) FAR  w(0) 13298.
	create_child: MAIN (2, 4) FAR 37007 UNDEF 0.01
expand: MAIN (2, 0) FAR  w(0) 37007. F 0.01
expand: MAIN (3, 0) FAR  w(0) 13298.
	create_child: MAIN (2, 4) FAR 37398 UNDEF 0.01
expand: MAIN (2, 0) FAR  w(0) 37398. F 0.01
expand: MAIN (3, 0) FAR  w(0) 13298.
	create_child: MAIN (2, 4) FAR 37641 UNDEF 0.00
expand: MAIN (2, 0) FAR  w(0) 37641.
	create_child: MAIN (1, 4) FAR 37391 UNDEF 0.01
expand: MAIN (1, 0) FAR  w(0) 37391. F 0.01
expand: MAIN (2, 0) FAR  w(0) 37641.
	create_child: MAIN (1, 4) FAR 37812 UNDEF 0.01
expand: MAIN (1, 0) FAR  w(0) 37812.
	create_child: MAIN (0, 4) FAR 38150 UNDEF 0.01
expand: MAIN (0, 0) FAR  w(0) 38150. UNDEF 0.00
expand: MAIN (0, 0) FAR  w(1) 38150. T 0.00
is-reachable: MAIN (1, 0) FAR 37812 T 0.04
is-reachable: MAIN (2, 0) FAR 37641 T 0.11
is-reachable: MAIN (3, 0) FAR 13298 T 0.15
is-reachable: query!0 (4, 0) FAR 1 T 0.06
(spacer::context::check_reachability :time 0.54 :before-memory 11.92 :after-memory 17.65)
BRUNCH_STAT max_query_lvl 4
BRUNCH_STAT num_queries 36
BRUNCH_STAT num_reach_queries 4
BRUNCH_STAT num_reach_reuse 0
BRUNCH_STAT inductive_lvl 0
BRUNCH_STAT max_depth 4
BRUNCH_STAT cex_depth 4
(:SPACER-cex-depth                     4
 :SPACER-expand-node-undef             27
 :SPACER-max-depth                     4
 :SPACER-max-query-lvl                 4
 :SPACER-num-invariants                6
 :SPACER-num-lemmas                    36
 :SPACER-num-properties                31
 :SPACER-num-queries                   36
 :SPACER-num-reach-queries             4
 :added-eqs                            56091
 :arith-add-rows                       6275
 :arith-assert-diseq                   17395
 :arith-assert-lower                   23915
 :arith-assert-upper                   22731
 :arith-bound-prop                     1629
 :arith-conflicts                      44
 :arith-eq-adapter                     9552
 :arith-fixed-eqs                      4296
 :arith-gcd-tests                      592
 :arith-gomory-cuts                    5
 :arith-ineq-splits                    35
 :arith-offset-eqs                     4194
 :arith-pivots                         1380
 :bool-inductive-gen                   32
 :bool-inductive-gen-failures          39
 :conflicts                            617
 :decisions                            39734
 :del-clause                           5534
 :final-checks                         177
 :interface-eqs                        1
 :minimized-lits                       687
 :mk-bool-var                          12443
 :mk-clause                            18160
 :num-checks                           253
 :propagations                         291134
 :time.itp_solver.itp_core             0.03
 :time.spacer.init_rules               0.00
 :time.spacer.init_rules.pt.init       0.00
 :time.spacer.solve                    0.88
 :time.spacer.solve.propagate          0.12
 :time.spacer.solve.reach              0.77
 :time.spacer.solve.reach.children     0.07
 :time.spacer.solve.reach.gen.bool_ind 0.12
 :time.spacer.solve.reach.is-reach     0.36
 :time.virtual_solver.proof            0.02
 :time.virtual_solver.smt.total        0.54
 :time.virtual_solver.smt.total.sat    0.25
 :time.virtual_solver.smt.total.undef  0.16
 :virtual_solver.checks                253
 :virtual_solver.checks.sat            57
 :virtual_solver.checks.undef          57)
BRUNCH_STAT max_query_lvl 4
BRUNCH_STAT num_queries 36
BRUNCH_STAT num_reach_queries 4
BRUNCH_STAT num_reach_reuse 0
BRUNCH_STAT inductive_lvl 0
BRUNCH_STAT max_depth 4
BRUNCH_STAT cex_depth 4

real	0m1.057s
user	0m1.032s
sys	0m0.024s
