(transform N7datalog13mk_coi_filterE...no-op 0s)
(transform N7datalog25mk_interp_tail_simplifierE...14 rules 0s)
(transform N7datalog27mk_quantifier_instantiationE...no-op 0s)
(transform N7datalog8mk_scaleE...no-op 0s)
(transform N7datalog18mk_karr_invariantsE...no-op 0s)
(transform N7datalog14mk_array_blastE...no-op 0s)
(transform N7datalog22mk_subsumption_checkerE...13 rules 0s)
(transform N7datalog12mk_bit_blastE...no-op 0s)
(transform N7datalog15mk_rule_inlinerE...3 rules 0.00615158s)
(transform N7datalog13mk_coi_filterE...no-op 0s)
(transform N7datalog25mk_interp_tail_simplifierE...3 rules 0s)
(transform N7datalog22mk_subsumption_checkerE...no-op 0s)
(transform N7datalog15mk_rule_inlinerE...no-op 0s)
(transform N7datalog13mk_coi_filterE...no-op 0s)
(transform N7datalog25mk_interp_tail_simplifierE...3 rules 0s)
(transform N7datalog22mk_subsumption_checkerE...no-op 0s)
(transform N7datalog15mk_rule_inlinerE...no-op 0s)
(transform N7datalog22mk_subsumption_checkerE...no-op 0s)
(transform N7datalog15mk_rule_inlinerE...no-op 0s)
(transform N7datalog22mk_subsumption_checkerE...no-op 0s)
(transform N7datalog15mk_rule_inlinerE...no-op 0s)
(transform N7datalog22mk_subsumption_checkerE...no-op 0s)
(transform N7datalog8mk_sliceE...no-op 0s)
expand: query!0 (0, 0) FAR  w(0) 1. F 0.00
(spacer::context::check_reachability :time 0.00 :before-memory 4.63 :after-memory 5.27)
Entering level 1
BRUNCH_STAT max_query_lvl 0
BRUNCH_STAT num_queries 0
BRUNCH_STAT num_reach_queries 0
BRUNCH_STAT num_reach_reuse 0
BRUNCH_STAT inductive_lvl 0
BRUNCH_STAT max_depth 1
BRUNCH_STAT cex_depth 0
expand: query!0 (1, 0) FAR  w(0) 1.
	create_child: MAIN (0, 1) FAR 5396 U 0.00
expand: MAIN (0, 0) FAR  w(0) 5396. F 0.01
expand: query!0 (1, 0) FAR  w(0) 1. F 0.00
(spacer::context::check_reachability :time 0.01 :before-memory 5.27 :after-memory 6.57)
Propagating: 0 1  ! 2 
(spacer::context::propagate :time 0.00 :before-memory 6.57 :after-memory 6.66)
Entering level 2
BRUNCH_STAT max_query_lvl 1
BRUNCH_STAT num_queries 1
BRUNCH_STAT num_reach_queries 0
BRUNCH_STAT num_reach_reuse 0
BRUNCH_STAT inductive_lvl 0
BRUNCH_STAT max_depth 2
BRUNCH_STAT cex_depth 0
expand: query!0 (2, 0) FAR  w(0) 1.
	create_child: MAIN (1, 2) FAR 5396 U 0.00
expand: MAIN (1, 0) FAR  w(0) 5396.
	create_child: MAIN (0, 2) FAR 11256 U 0.01
expand: MAIN (0, 0) FAR  w(0) 11256. F 0.00
expand: MAIN (1, 0) FAR  w(0) 5396.
	create_child: MAIN (0, 2) FAR 11626 U 0.00
expand: MAIN (0, 0) FAR  w(0) 11626. F 0.00
expand: MAIN (1, 0) FAR  w(0) 5396.
	create_child: MAIN (0, 2) FAR 11685 U 0.00
expand: MAIN (0, 0) FAR  w(0) 11685. F 0.00
expand: MAIN (1, 0) FAR  w(0) 5396.
	create_child: MAIN (0, 2) FAR 11564 U 0.00
expand: MAIN (0, 0) FAR  w(0) 11564. F 0.00
expand: MAIN (1, 0) FAR  w(0) 5396.
	create_child: MAIN (0, 2) FAR 11805 U 0.00
expand: MAIN (0, 0) FAR  w(0) 11805. F 0.00
expand: MAIN (1, 0) FAR  w(0) 5396.
	create_child: MAIN (0, 2) FAR 11912 U 0.00
expand: MAIN (0, 0) FAR  w(0) 11912. F 0.00
expand: MAIN (1, 0) FAR  w(0) 5396.
	create_child: MAIN (0, 2) FAR 11482 U 0.00
expand: MAIN (0, 0) FAR  w(0) 11482. F 0.00
expand: MAIN (1, 0) FAR  w(0) 5396. F 0.01
expand: query!0 (2, 0) FAR  w(0) 1. F 0.00
(spacer::context::check_reachability :time 0.03 :before-memory 6.66 :after-memory 7.39)
Propagating: 0 1 2  ! 3 
(spacer::context::propagate :time 0.00 :before-memory 7.39 :after-memory 7.48)
Entering level 3
BRUNCH_STAT max_query_lvl 2
BRUNCH_STAT num_queries 9
BRUNCH_STAT num_reach_queries 0
BRUNCH_STAT num_reach_reuse 0
BRUNCH_STAT inductive_lvl 0
BRUNCH_STAT max_depth 3
BRUNCH_STAT cex_depth 0
expand: query!0 (3, 0) FAR  w(0) 1.
	create_child: MAIN (2, 3) FAR 5396 U 0.00
expand: MAIN (2, 0) FAR  w(0) 5396.
	create_child: MAIN (1, 3) FAR 14299 U 0.00
expand: MAIN (1, 0) FAR  w(0) 14299. F 0.00
expand: MAIN (2, 0) FAR  w(0) 5396.
	create_child: MAIN (1, 3) FAR 14592 U 0.00
expand: MAIN (1, 0) FAR  w(0) 14592. F 0.00
expand: MAIN (2, 0) FAR  w(0) 5396.
	create_child: MAIN (1, 3) FAR 14821 U 0.00
expand: MAIN (1, 0) FAR  w(0) 14821. F 0.00
expand: MAIN (2, 0) FAR  w(0) 5396. F 0.01
expand: query!0 (3, 0) FAR  w(0) 1. F 0.00
(spacer::context::check_reachability :time 0.02 :before-memory 7.48 :after-memory 7.77)
Propagating: 1 
(spacer::context::propagate :time 0.00 :before-memory 7.77 :after-memory 7.77)
(define-fun MAIN ((x!0 Int)
 (x!1 Int)
 (x!2 Bool)
 (x!3 Bool)
 (x!4 Int)
 (x!5 Int)
 (x!6 Int)
 (x!7 Int)
 (x!8 Int)
 (x!9 Int)
 (x!10 Bool)
 (x!11 Bool)
 (x!12 Bool)
 (x!13 Bool)) Bool
  (let ((a!1 (or (not x!11) (= (+ x!4 x!5 x!6 x!7 x!8 (* (- 1) x!1)) 0))))
    (and a!1
         x!13
         (not x!10)
         (not x!2)
         (not x!12)
         (not x!3)
         (>= x!7 0)
         (not (>= x!7 2))
         (= (+ x!4 x!5 x!6 x!7 x!8 (* (- 1) x!0)) 0))))
BRUNCH_STAT max_query_lvl 3
BRUNCH_STAT num_queries 13
BRUNCH_STAT num_reach_queries 0
BRUNCH_STAT num_reach_reuse 0
BRUNCH_STAT inductive_lvl 1
BRUNCH_STAT max_depth 3
BRUNCH_STAT cex_depth 0
(:SPACER-inductive-level               1
 :SPACER-max-depth                     3
 :SPACER-max-query-lvl                 3
 :SPACER-num-invariants                10
 :SPACER-num-lemmas                    17
 :SPACER-num-properties                12
 :SPACER-num-queries                   13
 :added-eqs                            1453
 :arith-add-rows                       1052
 :arith-assert-diseq                   669
 :arith-assert-lower                   1372
 :arith-assert-upper                   1168
 :arith-bound-prop                     202
 :arith-conflicts                      16
 :arith-eq-adapter                     86
 :arith-fixed-eqs                      236
 :arith-offset-eqs                     420
 :arith-pivots                         136
 :bool-inductive-gen                   13
 :bool-inductive-gen-failures          14
 :conflicts                            245
 :decisions                            1517
 :del-clause                           19
 :final-checks                         22
 :minimized-lits                       302
 :mk-bool-var                          771
 :mk-clause                            2278
 :num-checks                           66
 :propagations                         27498
 :time.itp_solver.itp_core             0.01
 :time.spacer.init_rules               0.00
 :time.spacer.init_rules.pt.init       0.00
 :time.spacer.solve                    0.07
 :time.spacer.solve.propagate          0.01
 :time.spacer.solve.reach              0.06
 :time.spacer.solve.reach.children     0.01
 :time.spacer.solve.reach.gen.bool_ind 0.00
 :time.virtual_solver.proof            0.01
 :time.virtual_solver.smt.total        0.05
 :time.virtual_solver.smt.total.sat    0.01
 :virtual_solver.checks                66
 :virtual_solver.checks.sat            22)
BRUNCH_STAT max_query_lvl 3
BRUNCH_STAT num_queries 13
BRUNCH_STAT num_reach_queries 0
BRUNCH_STAT num_reach_reuse 0
BRUNCH_STAT inductive_lvl 1
BRUNCH_STAT max_depth 3
BRUNCH_STAT cex_depth 0

real	0m0.117s
user	0m0.112s
sys	0m0.004s
