(transform N7datalog13mk_coi_filterE...no-op 0s)
(transform N7datalog25mk_interp_tail_simplifierE...14 rules 0s)
(transform N7datalog27mk_quantifier_instantiationE...no-op 0s)
(transform N7datalog8mk_scaleE...no-op 0s)
(transform N7datalog18mk_karr_invariantsE...no-op 0s)
(transform N7datalog14mk_array_blastE...no-op 0s)
(transform N7datalog22mk_subsumption_checkerE...13 rules 0s)
(transform N7datalog12mk_bit_blastE...no-op 0s)
(transform N7datalog15mk_rule_inlinerE...3 rules 0.00546511s)
(transform N7datalog13mk_coi_filterE...no-op 0s)
(transform N7datalog25mk_interp_tail_simplifierE...3 rules 0s)
(transform N7datalog22mk_subsumption_checkerE...no-op 0s)
(transform N7datalog15mk_rule_inlinerE...no-op 0s)
(transform N7datalog13mk_coi_filterE...no-op 0s)
(transform N7datalog25mk_interp_tail_simplifierE...3 rules 0s)
(transform N7datalog22mk_subsumption_checkerE...no-op 0s)
(transform N7datalog15mk_rule_inlinerE...no-op 0s)
(transform N7datalog22mk_subsumption_checkerE...no-op 0s)
(transform N7datalog15mk_rule_inlinerE...no-op 0s)
(transform N7datalog22mk_subsumption_checkerE...no-op 0s)
(transform N7datalog15mk_rule_inlinerE...no-op 0s)
(transform N7datalog22mk_subsumption_checkerE...no-op 0s)
(transform N7datalog8mk_sliceE...no-op 0s)
expand: query!0 (0, 0) FAR  w(0) 1. F 0.00
(spacer::context::check_reachability :time 0.00 :before-memory 4.59 :after-memory 5.21)
Entering level 1
BRUNCH_STAT max_query_lvl 0
BRUNCH_STAT num_queries 0
BRUNCH_STAT num_reach_queries 0
BRUNCH_STAT num_reach_reuse 0
BRUNCH_STAT inductive_lvl 0
BRUNCH_STAT max_depth 1
BRUNCH_STAT cex_depth 0
expand: query!0 (1, 0) FAR  w(0) 1.
	create_child: MAIN (0, 1) FAR 5068 U 0.00
expand: MAIN (0, 0) FAR  w(0) 5068. F 0.00
expand: query!0 (1, 0) FAR  w(0) 1. F 0.00
(spacer::context::check_reachability :time 0.01 :before-memory 5.21 :after-memory 6.45)
Propagating: 0 1  ! 2 
(spacer::context::propagate :time 0.00 :before-memory 6.45 :after-memory 6.54)
Entering level 2
BRUNCH_STAT max_query_lvl 1
BRUNCH_STAT num_queries 1
BRUNCH_STAT num_reach_queries 0
BRUNCH_STAT num_reach_reuse 0
BRUNCH_STAT inductive_lvl 0
BRUNCH_STAT max_depth 2
BRUNCH_STAT cex_depth 0
expand: query!0 (2, 0) FAR  w(0) 1.
	create_child: MAIN (1, 2) FAR 5068 U 0.00
expand: MAIN (1, 0) FAR  w(0) 5068.
	create_child: MAIN (0, 2) FAR 9735 U 0.00
expand: MAIN (0, 0) FAR  w(0) 9735. F 0.00
expand: MAIN (1, 0) FAR  w(0) 5068.
	create_child: MAIN (0, 2) FAR 9753 U 0.00
expand: MAIN (0, 0) FAR  w(0) 9753. F 0.00
expand: MAIN (1, 0) FAR  w(0) 5068.
	create_child: MAIN (0, 2) FAR 9817 U 0.00
expand: MAIN (0, 0) FAR  w(0) 9817. F 0.00
expand: MAIN (1, 0) FAR  w(0) 5068.
	create_child: MAIN (0, 2) FAR 10233 U 0.00
expand: MAIN (0, 0) FAR  w(0) 10233. F 0.00
expand: MAIN (1, 0) FAR  w(0) 5068.
	create_child: MAIN (0, 2) FAR 10245 U 0.00
expand: MAIN (0, 0) FAR  w(0) 10245. F 0.00
expand: MAIN (1, 0) FAR  w(0) 5068.
	create_child: MAIN (0, 2) FAR 10368 U 0.00
expand: MAIN (0, 0) FAR  w(0) 10368. F 0.00
expand: MAIN (1, 0) FAR  w(0) 5068.
	create_child: MAIN (0, 2) FAR 10497 U 0.00
expand: MAIN (0, 0) FAR  w(0) 10497. F 0.00
expand: MAIN (1, 0) FAR  w(0) 5068.
	create_child: MAIN (0, 2) FAR 10895 U 0.00
expand: MAIN (0, 0) FAR  w(0) 10895. F 0.00
expand: MAIN (1, 0) FAR  w(0) 5068. F 0.00
expand: query!0 (2, 0) FAR  w(0) 1. F 0.00
(spacer::context::check_reachability :time 0.02 :before-memory 6.54 :after-memory 6.83)
Propagating: 0 1 2  ! 3 
(spacer::context::propagate :time 0.01 :before-memory 6.83 :after-memory 6.93)
Entering level 3
BRUNCH_STAT max_query_lvl 2
BRUNCH_STAT num_queries 10
BRUNCH_STAT num_reach_queries 0
BRUNCH_STAT num_reach_reuse 0
BRUNCH_STAT inductive_lvl 0
BRUNCH_STAT max_depth 3
BRUNCH_STAT cex_depth 0
expand: query!0 (3, 0) FAR  w(0) 1.
	create_child: MAIN (2, 3) FAR 5068 U 0.00
expand: MAIN (2, 0) FAR  w(0) 5068.
	create_child: MAIN (1, 3) FAR 10497 U 0.00
expand: MAIN (1, 0) FAR  w(0) 10497.
	create_child: MAIN (0, 3) FAR 12684 U 0.00
expand: MAIN (0, 0) FAR  w(0) 12684. F 0.00
expand: MAIN (1, 0) FAR  w(0) 10497.
	create_child: MAIN (0, 3) FAR 13389 U 0.00
expand: MAIN (0, 0) FAR  w(0) 13389. F 0.00
expand: MAIN (1, 0) FAR  w(0) 10497. F 0.00
expand: MAIN (2, 0) FAR  w(0) 5068.
	create_child: MAIN (1, 3) FAR 13787 U 0.00
expand: MAIN (1, 0) FAR  w(0) 13787. F 0.01
expand: MAIN (2, 0) FAR  w(0) 5068. F 0.00
expand: query!0 (3, 0) FAR  w(0) 1. F 0.00
(spacer::context::check_reachability :time 0.03 :before-memory 6.93 :after-memory 7.67)
Propagating: 0 1 2 3  ! 4 
(spacer::context::propagate :time 0.01 :before-memory 7.67 :after-memory 7.67)
Entering level 4
BRUNCH_STAT max_query_lvl 3
BRUNCH_STAT num_queries 15
BRUNCH_STAT num_reach_queries 0
BRUNCH_STAT num_reach_reuse 0
BRUNCH_STAT inductive_lvl 0
BRUNCH_STAT max_depth 4
BRUNCH_STAT cex_depth 0
expand: query!0 (4, 0) FAR  w(0) 1.
	create_child: MAIN (3, 4) FAR 5068 U 0.00
expand: MAIN (3, 0) FAR  w(0) 5068.
	create_child: MAIN (2, 4) FAR 10497 U 0.00
expand: MAIN (2, 0) FAR  w(0) 10497.
	create_child: MAIN (1, 4) FAR 15436 U 0.00
expand: MAIN (1, 0) FAR  w(0) 15436. F 0.00
expand: MAIN (2, 0) FAR  w(0) 10497.
	create_child: MAIN (1, 4) FAR 12684 U 0.00
expand: MAIN (1, 0) FAR  w(0) 12684.
	create_child: MAIN (0, 4) FAR 16249 U 0.00
expand: MAIN (0, 0) FAR  w(0) 16249. F 0.00
expand: MAIN (1, 0) FAR  w(0) 12684. F 0.01
expand: MAIN (2, 0) FAR  w(0) 10497. F 0.01
expand: MAIN (3, 0) FAR  w(0) 5068.
	create_child: MAIN (2, 4) FAR 13787 U 0.00
expand: MAIN (2, 0) FAR  w(0) 13787.
	create_child: MAIN (1, 4) FAR 18134 U 0.00
expand: MAIN (1, 0) FAR  w(0) 18134. F 0.01
expand: MAIN (2, 0) FAR  w(0) 13787. F 0.01
expand: MAIN (3, 0) FAR  w(0) 5068. F 0.00
expand: query!0 (4, 0) FAR  w(0) 1. F 0.00
(spacer::context::check_reachability :time 0.05 :before-memory 7.67 :after-memory 8.40)
Propagating: 0 1 2 3 4  ! 5 
(spacer::context::propagate :time 0.02 :before-memory 8.40 :after-memory 8.50)
Entering level 5
BRUNCH_STAT max_query_lvl 4
BRUNCH_STAT num_queries 22
BRUNCH_STAT num_reach_queries 0
BRUNCH_STAT num_reach_reuse 0
BRUNCH_STAT inductive_lvl 0
BRUNCH_STAT max_depth 5
BRUNCH_STAT cex_depth 0
expand: query!0 (5, 0) FAR  w(0) 1.
	create_child: MAIN (4, 5) FAR 5068 U 0.00
expand: MAIN (4, 0) FAR  w(0) 5068.
	create_child: MAIN (3, 5) FAR 13787 U 0.00
expand: MAIN (3, 0) FAR  w(0) 13787.
	create_child: MAIN (2, 5) FAR 21397 U 0.00
expand: MAIN (2, 0) FAR  w(0) 21397.
	create_child: MAIN (1, 5) FAR 21458 U 0.00
expand: MAIN (1, 0) FAR  w(0) 21458. F 0.01
expand: MAIN (2, 0) FAR  w(0) 21397. F 0.01
expand: MAIN (3, 0) FAR  w(0) 13787.
	create_child: MAIN (2, 5) FAR 18134 U 0.00
expand: MAIN (2, 0) FAR  w(0) 18134.
	create_child: MAIN (1, 5) FAR 23043 U 0.00
expand: MAIN (1, 0) FAR  w(0) 23043. F 0.01
expand: MAIN (2, 0) FAR  w(0) 18134. F 0.01
expand: MAIN (3, 0) FAR  w(0) 13787.
	create_child: MAIN (2, 5) FAR 24062 U 0.00
expand: MAIN (2, 0) FAR  w(0) 24062. F 0.01
expand: MAIN (3, 0) FAR  w(0) 13787.
	create_child: MAIN (2, 5) FAR 24929 U 0.00
expand: MAIN (2, 0) FAR  w(0) 24929. F 0.01
expand: MAIN (3, 0) FAR  w(0) 13787.
	create_child: MAIN (2, 5) FAR 25231 U 0.00
expand: MAIN (2, 0) FAR  w(0) 25231. F 0.01
expand: MAIN (3, 0) FAR  w(0) 13787. F 0.01
expand: MAIN (4, 0) FAR  w(0) 5068.
	create_child: MAIN (3, 5) FAR 10497 U 0.00
expand: MAIN (3, 0) FAR  w(0) 10497.
	create_child: MAIN (2, 5) FAR 26344 U 0.00
expand: MAIN (2, 0) FAR  w(0) 26344. F 0.01
expand: MAIN (3, 0) FAR  w(0) 10497. F 0.01
expand: MAIN (4, 0) FAR  w(0) 5068. F 0.00
expand: query!0 (5, 0) FAR  w(0) 1. F 0.00
(spacer::context::check_reachability :time 0.10 :before-memory 8.50 :after-memory 9.90)
Propagating: 1 2 3 4 5  ! 6 
(spacer::context::propagate :time 0.02 :before-memory 9.90 :after-memory 10.19)
Entering level 6
BRUNCH_STAT max_query_lvl 5
BRUNCH_STAT num_queries 33
BRUNCH_STAT num_reach_queries 0
BRUNCH_STAT num_reach_reuse 0
BRUNCH_STAT inductive_lvl 0
BRUNCH_STAT max_depth 6
BRUNCH_STAT cex_depth 0
expand: query!0 (6, 0) FAR  w(0) 1.
	create_child: MAIN (5, 6) FAR 5068 U 0.00
expand: MAIN (5, 0) FAR  w(0) 5068.
	create_child: MAIN (4, 6) FAR 13787 U 0.00
expand: MAIN (4, 0) FAR  w(0) 13787.
	create_child: MAIN (3, 6) FAR 24062 U 0.00
expand: MAIN (3, 0) FAR  w(0) 24062.
	create_child: MAIN (2, 6) FAR 30848 U 0.00
expand: MAIN (2, 0) FAR  w(0) 30848.
	create_child: MAIN (1, 6) FAR 31382 U 0.00
expand: MAIN (1, 0) FAR  w(0) 31382. F 0.01
expand: MAIN (2, 0) FAR  w(0) 30848. F 0.01
expand: MAIN (3, 0) FAR  w(0) 24062. F 0.01
expand: MAIN (4, 0) FAR  w(0) 13787.
	create_child: MAIN (3, 6) FAR 21397 U 0.00
expand: MAIN (3, 0) FAR  w(0) 21397.
	create_child: MAIN (2, 6) FAR 33049 U 0.00
expand: MAIN (2, 0) FAR  w(0) 33049. F 0.01
expand: MAIN (3, 0) FAR  w(0) 21397.
	create_child: MAIN (2, 6) FAR 33514 U 0.00
expand: MAIN (2, 0) FAR  w(0) 33514. F 0.01
expand: MAIN (3, 0) FAR  w(0) 21397.
	create_child: MAIN (2, 6) FAR 34187 U 0.00
expand: MAIN (2, 0) FAR  w(0) 34187. F 0.01
expand: MAIN (3, 0) FAR  w(0) 21397. F 0.01
expand: MAIN (4, 0) FAR  w(0) 13787.
	create_child: MAIN (3, 6) FAR 34577 U 0.00
expand: MAIN (3, 0) FAR  w(0) 34577.
	create_child: MAIN (2, 6) FAR 35147 U 0.00
expand: MAIN (2, 0) FAR  w(0) 35147. F 0.00
expand: MAIN (3, 0) FAR  w(0) 34577. F 0.01
expand: MAIN (4, 0) FAR  w(0) 13787.
	create_child: MAIN (3, 6) FAR 18134 U 0.00
expand: MAIN (3, 0) FAR  w(0) 18134. F 0.01
expand: MAIN (4, 0) FAR  w(0) 13787.
	create_child: MAIN (3, 6) FAR 24929 U 0.00
expand: MAIN (3, 0) FAR  w(0) 24929. F 0.01
expand: MAIN (4, 0) FAR  w(0) 13787. F 0.01
expand: MAIN (5, 0) FAR  w(0) 5068. F 0.00
expand: query!0 (6, 0) FAR  w(0) 1. F 0.00
(spacer::context::check_reachability :time 0.12 :before-memory 10.19 :after-memory 11.03)
Propagating: 1 2 3 4 5 6  ! 7 
(spacer::context::propagate :time 0.05 :before-memory 11.03 :after-memory 11.52)
Entering level 7
BRUNCH_STAT max_query_lvl 6
BRUNCH_STAT num_queries 46
BRUNCH_STAT num_reach_queries 0
BRUNCH_STAT num_reach_reuse 0
BRUNCH_STAT inductive_lvl 0
BRUNCH_STAT max_depth 7
BRUNCH_STAT cex_depth 0
expand: query!0 (7, 0) FAR  w(0) 1.
	create_child: MAIN (6, 7) FAR 5068 U 0.00
expand: MAIN (6, 0) FAR  w(0) 5068.
	create_child: MAIN (5, 7) FAR 13787 U 0.00
expand: MAIN (5, 0) FAR  w(0) 13787.
	create_child: MAIN (4, 7) FAR 21397 U 0.00
expand: MAIN (4, 0) FAR  w(0) 21397.
	create_child: MAIN (3, 7) FAR 33049 U 0.00
expand: MAIN (3, 0) FAR  w(0) 33049.
	create_child: MAIN (2, 7) FAR 43087 U 0.00
expand: MAIN (2, 0) FAR  w(0) 43087. F 0.01
expand: MAIN (3, 0) FAR  w(0) 33049.
	create_child: MAIN (2, 7) FAR 43729 U 0.00
expand: MAIN (2, 0) FAR  w(0) 43729. F 0.01
expand: MAIN (3, 0) FAR  w(0) 33049.
	create_child: MAIN (2, 7) FAR 44166 U 0.00
expand: MAIN (2, 0) FAR  w(0) 44166. F 0.01
expand: MAIN (3, 0) FAR  w(0) 33049. F 0.01
expand: MAIN (4, 0) FAR  w(0) 21397.
	create_child: MAIN (3, 7) FAR 34187 U 0.00
expand: MAIN (3, 0) FAR  w(0) 34187.
	create_child: MAIN (2, 7) FAR 44583 U 0.00
expand: MAIN (2, 0) FAR  w(0) 44583. F 0.01
expand: MAIN (3, 0) FAR  w(0) 34187. F 0.01
expand: MAIN (4, 0) FAR  w(0) 21397.
	create_child: MAIN (3, 7) FAR 45872 U 0.00
expand: MAIN (3, 0) FAR  w(0) 45872.
	create_child: MAIN (2, 7) FAR 45814 U 0.00
expand: MAIN (2, 0) FAR  w(0) 45814. F 0.01
expand: MAIN (3, 0) FAR  w(0) 45872. F 0.01
expand: MAIN (4, 0) FAR  w(0) 21397. F 0.01
expand: MAIN (5, 0) FAR  w(0) 13787.
	create_child: MAIN (4, 7) FAR 24929 U 0.00
expand: MAIN (4, 0) FAR  w(0) 24929. F 0.01
expand: MAIN (5, 0) FAR  w(0) 13787. F 0.01
expand: MAIN (6, 0) FAR  w(0) 5068. F 0.00
expand: query!0 (7, 0) FAR  w(0) 1. F 0.00
(spacer::context::check_reachability :time 0.14 :before-memory 11.52 :after-memory 12.40)
Propagating: 2 3 4 5 6 7  ! 8 
(spacer::context::propagate :time 0.06 :before-memory 12.40 :after-memory 13.93)
Entering level 8
BRUNCH_STAT max_query_lvl 7
BRUNCH_STAT num_queries 58
BRUNCH_STAT num_reach_queries 0
BRUNCH_STAT num_reach_reuse 0
BRUNCH_STAT inductive_lvl 0
BRUNCH_STAT max_depth 8
BRUNCH_STAT cex_depth 0
expand: query!0 (8, 0) FAR  w(0) 1.
	create_child: MAIN (7, 8) FAR 5068 U 0.00
expand: MAIN (7, 0) FAR  w(0) 5068.
	create_child: MAIN (6, 8) FAR 13787 U 0.00
expand: MAIN (6, 0) FAR  w(0) 13787.
	create_child: MAIN (5, 8) FAR 21397 U 0.00
expand: MAIN (5, 0) FAR  w(0) 21397.
	create_child: MAIN (4, 8) FAR 33049 U 0.00
expand: MAIN (4, 0) FAR  w(0) 33049.
	create_child: MAIN (3, 8) FAR 43087 U 0.00
expand: MAIN (3, 0) FAR  w(0) 43087.
	create_child: MAIN (2, 8) FAR 53541 U 0.00
expand: MAIN (2, 0) FAR  w(0) 53541. F 0.01
expand: MAIN (3, 0) FAR  w(0) 43087.
	create_child: MAIN (2, 8) FAR 54052 U 0.00
expand: MAIN (2, 0) FAR  w(0) 54052. F 0.01
expand: MAIN (3, 0) FAR  w(0) 43087.
	create_child: MAIN (2, 8) FAR 54554 U 0.00
expand: MAIN (2, 0) FAR  w(0) 54554. F 0.01
expand: MAIN (3, 0) FAR  w(0) 43087. F 0.01
expand: MAIN (4, 0) FAR  w(0) 33049.
	create_child: MAIN (3, 8) FAR 44166 U 0.00
expand: MAIN (3, 0) FAR  w(0) 44166. F 0.01
expand: MAIN (4, 0) FAR  w(0) 33049.
	create_child: MAIN (3, 8) FAR 55846 U 0.00
expand: MAIN (3, 0) FAR  w(0) 55846. F 0.01
expand: MAIN (4, 0) FAR  w(0) 33049. F 0.01
expand: MAIN (5, 0) FAR  w(0) 21397.
	create_child: MAIN (4, 8) FAR 45872 U 0.00
expand: MAIN (4, 0) FAR  w(0) 45872. F 0.01
expand: MAIN (5, 0) FAR  w(0) 21397. F 0.01
expand: MAIN (6, 0) FAR  w(0) 13787. F 0.01
expand: MAIN (7, 0) FAR  w(0) 5068. F 0.00
expand: query!0 (8, 0) FAR  w(0) 1. F 0.00
(spacer::context::check_reachability :time 0.13 :before-memory 13.93 :after-memory 14.65)
Propagating: 2 3 4 5 6 7 8  ! 9 
(spacer::context::propagate :time 0.06 :before-memory 14.65 :after-memory 15.15)
Entering level 9
BRUNCH_STAT max_query_lvl 8
BRUNCH_STAT num_queries 69
BRUNCH_STAT num_reach_queries 0
BRUNCH_STAT num_reach_reuse 0
BRUNCH_STAT inductive_lvl 0
BRUNCH_STAT max_depth 9
BRUNCH_STAT cex_depth 0
expand: query!0 (9, 0) FAR  w(0) 1.
	create_child: MAIN (8, 9) FAR 5068 U 0.00
expand: MAIN (8, 0) FAR  w(0) 5068.
	create_child: MAIN (7, 9) FAR 13787 U 0.00
expand: MAIN (7, 0) FAR  w(0) 13787.
	create_child: MAIN (6, 9) FAR 21397 U 0.00
expand: MAIN (6, 0) FAR  w(0) 21397.
	create_child: MAIN (5, 9) FAR 33049 U 0.00
expand: MAIN (5, 0) FAR  w(0) 33049.
	create_child: MAIN (4, 9) FAR 44166 U 0.00
expand: MAIN (4, 0) FAR  w(0) 44166.
	create_child: MAIN (3, 9) FAR 63763 U 0.00
expand: MAIN (3, 0) FAR  w(0) 63763. F 0.01
expand: MAIN (4, 0) FAR  w(0) 44166. F 0.01
expand: MAIN (5, 0) FAR  w(0) 33049.
	create_child: MAIN (4, 9) FAR 43087 U 0.00
expand: MAIN (4, 0) FAR  w(0) 43087.
	create_child: MAIN (3, 9) FAR 65390 U 0.00
expand: MAIN (3, 0) FAR  w(0) 65390. F 0.01
expand: MAIN (4, 0) FAR  w(0) 43087.
	create_child: MAIN (3, 9) FAR 53541 U 0.00
expand: MAIN (3, 0) FAR  w(0) 53541.
	create_child: MAIN (2, 9) FAR 66309 U 0.00
expand: MAIN (2, 0) FAR  w(0) 66309. F 0.01
expand: MAIN (3, 0) FAR  w(0) 53541. F 0.01
expand: MAIN (4, 0) FAR  w(0) 43087. F 0.01
expand: MAIN (5, 0) FAR  w(0) 33049. F 0.01
expand: MAIN (6, 0) FAR  w(0) 21397. F 0.01
expand: MAIN (7, 0) FAR  w(0) 13787. F 0.01
expand: MAIN (8, 0) FAR  w(0) 5068. F 0.00
expand: query!0 (9, 0) FAR  w(0) 1. F 0.00
(spacer::context::check_reachability :time 0.14 :before-memory 15.15 :after-memory 16.14)
Propagating: 2 3 4 5 6 7 8 9  ! 10 
(spacer::context::propagate :time 0.06 :before-memory 16.14 :after-memory 16.24)
Entering level 10
BRUNCH_STAT max_query_lvl 9
BRUNCH_STAT num_queries 79
BRUNCH_STAT num_reach_queries 0
BRUNCH_STAT num_reach_reuse 0
BRUNCH_STAT inductive_lvl 0
BRUNCH_STAT max_depth 10
BRUNCH_STAT cex_depth 0
expand: query!0 (10, 0) FAR  w(0) 1.
	create_child: MAIN (9, 10) FAR 5068 U 0.00
expand: MAIN (9, 0) FAR  w(0) 5068.
	create_child: MAIN (8, 10) FAR 13787 U 0.00
expand: MAIN (8, 0) FAR  w(0) 13787.
	create_child: MAIN (7, 10) FAR 21397 U 0.00
expand: MAIN (7, 0) FAR  w(0) 21397.
	create_child: MAIN (6, 10) FAR 33049 U 0.00
expand: MAIN (6, 0) FAR  w(0) 33049.
	create_child: MAIN (5, 10) FAR 43087 U 0.00
expand: MAIN (5, 0) FAR  w(0) 43087.
	create_child: MAIN (4, 10) FAR 65390 U 0.00
expand: MAIN (4, 0) FAR  w(0) 65390.
	create_child: MAIN (3, 10) FAR 72147 U 0.00
expand: MAIN (3, 0) FAR  w(0) 72147. F 0.01
expand: MAIN (4, 0) FAR  w(0) 65390. F 0.02
expand: MAIN (5, 0) FAR  w(0) 43087.
	create_child: MAIN (4, 10) FAR 53541 U 0.00
expand: MAIN (4, 0) FAR  w(0) 53541.
	create_child: MAIN (3, 10) FAR 73897 U 0.00
expand: MAIN (3, 0) FAR  w(0) 73897. F 0.02
expand: MAIN (4, 0) FAR  w(0) 53541.
	create_child: MAIN (3, 10) FAR 74748 U 0.00
expand: MAIN (3, 0) FAR  w(0) 74748. F 0.01
expand: MAIN (4, 0) FAR  w(0) 53541.
	create_child: MAIN (3, 10) FAR 66309 U 0.00
expand: MAIN (3, 0) FAR  w(0) 66309.
	create_child: MAIN (2, 10) FAR 75435 U 0.00
expand: MAIN (2, 0) FAR  w(0) 75435. F 0.01
expand: MAIN (3, 0) FAR  w(0) 66309. F 0.01
expand: MAIN (4, 0) FAR  w(0) 53541. F 0.01
expand: MAIN (5, 0) FAR  w(0) 43087. F 0.01
expand: MAIN (6, 0) FAR  w(0) 33049. F 0.01
expand: MAIN (7, 0) FAR  w(0) 21397. F 0.01
expand: MAIN (8, 0) FAR  w(0) 13787. F 0.01
expand: MAIN (9, 0) FAR  w(0) 5068. F 0.00
expand: query!0 (10, 0) FAR  w(0) 1. F 0.00
(spacer::context::check_reachability :time 0.18 :before-memory 16.24 :after-memory 17.52)
Propagating: 2 3 4 5 6 7 8 9 10  ! 11 
(spacer::context::propagate :time 0.09 :before-memory 17.52 :after-memory 17.91)
Entering level 11
BRUNCH_STAT max_query_lvl 10
BRUNCH_STAT num_queries 91
BRUNCH_STAT num_reach_queries 0
BRUNCH_STAT num_reach_reuse 0
BRUNCH_STAT inductive_lvl 0
BRUNCH_STAT max_depth 11
BRUNCH_STAT cex_depth 0
expand: query!0 (11, 0) FAR  w(0) 1.
	create_child: MAIN (10, 11) FAR 5068 U 0.00
expand: MAIN (10, 0) FAR  w(0) 5068.
	create_child: MAIN (9, 11) FAR 13787 U 0.00
expand: MAIN (9, 0) FAR  w(0) 13787.
	create_child: MAIN (8, 11) FAR 21397 U 0.00
expand: MAIN (8, 0) FAR  w(0) 21397.
	create_child: MAIN (7, 11) FAR 33049 U 0.00
expand: MAIN (7, 0) FAR  w(0) 33049.
	create_child: MAIN (6, 11) FAR 43087 U 0.00
expand: MAIN (6, 0) FAR  w(0) 43087.
	create_child: MAIN (5, 11) FAR 53541 U 0.00
expand: MAIN (5, 0) FAR  w(0) 53541.
	create_child: MAIN (4, 11) FAR 74748 U 0.00
expand: MAIN (4, 0) FAR  w(0) 74748.
	create_child: MAIN (3, 11) FAR 84023 U 0.00
expand: MAIN (3, 0) FAR  w(0) 84023. F 0.02
expand: MAIN (4, 0) FAR  w(0) 74748. F 0.02
expand: MAIN (5, 0) FAR  w(0) 53541.
	create_child: MAIN (4, 11) FAR 66309 U 0.00
expand: MAIN (4, 0) FAR  w(0) 66309.
	create_child: MAIN (3, 11) FAR 75435 U 0.00
expand: MAIN (3, 0) FAR  w(0) 75435. F 0.01
expand: MAIN (4, 0) FAR  w(0) 66309.
	create_child: MAIN (3, 11) FAR 86260 U 0.00
expand: MAIN (3, 0) FAR  w(0) 86260. F 0.01
expand: MAIN (4, 0) FAR  w(0) 66309.
	create_child: MAIN (3, 11) FAR 86907 U 0.00
expand: MAIN (3, 0) FAR  w(0) 86907. F 0.02
expand: MAIN (4, 0) FAR  w(0) 66309. F 0.02
expand: MAIN (5, 0) FAR  w(0) 53541. F 0.01
expand: MAIN (6, 0) FAR  w(0) 43087. F 0.01
expand: MAIN (7, 0) FAR  w(0) 33049. F 0.01
expand: MAIN (8, 0) FAR  w(0) 21397. F 0.01
expand: MAIN (9, 0) FAR  w(0) 13787. F 0.01
expand: MAIN (10, 0) FAR  w(0) 5068. F 0.00
expand: query!0 (11, 0) FAR  w(0) 1. F 0.00
(spacer::context::check_reachability :time 0.20 :before-memory 17.91 :after-memory 18.70)
Propagating: 3 4 5 6 7 8 9 10 11  ! 12 
(spacer::context::propagate :time 0.08 :before-memory 18.70 :after-memory 18.80)
Entering level 12
BRUNCH_STAT max_query_lvl 11
BRUNCH_STAT num_queries 103
BRUNCH_STAT num_reach_queries 0
BRUNCH_STAT num_reach_reuse 0
BRUNCH_STAT inductive_lvl 0
BRUNCH_STAT max_depth 12
BRUNCH_STAT cex_depth 0
expand: query!0 (12, 0) FAR  w(0) 1.
	create_child: MAIN (11, 12) FAR 5068 U 0.00
expand: MAIN (11, 0) FAR  w(0) 5068.
	create_child: MAIN (10, 12) FAR 13787 U 0.00
expand: MAIN (10, 0) FAR  w(0) 13787.
	create_child: MAIN (9, 12) FAR 21397 U 0.00
expand: MAIN (9, 0) FAR  w(0) 21397.
	create_child: MAIN (8, 12) FAR 33049 U 0.00
expand: MAIN (8, 0) FAR  w(0) 33049.
	create_child: MAIN (7, 12) FAR 43087 U 0.00
expand: MAIN (7, 0) FAR  w(0) 43087.
	create_child: MAIN (6, 12) FAR 53541 U 0.00
expand: MAIN (6, 0) FAR  w(0) 53541.
	create_child: MAIN (5, 12) FAR 66309 U 0.00
expand: MAIN (5, 0) FAR  w(0) 66309.
	create_child: MAIN (4, 12) FAR 75435 U 0.00
expand: MAIN (4, 0) FAR  w(0) 75435.
	create_child: MAIN (3, 12) FAR 93141 U 0.00
expand: MAIN (3, 0) FAR  w(0) 93141. F 0.02
expand: MAIN (4, 0) FAR  w(0) 75435.
	create_child: MAIN (3, 12) FAR 94057 U 0.00
expand: MAIN (3, 0) FAR  w(0) 94057. F 0.01
expand: MAIN (4, 0) FAR  w(0) 75435.
	create_child: MAIN (3, 12) FAR 94530 U 0.00
expand: MAIN (3, 0) FAR  w(0) 94530. F 0.02
expand: MAIN (4, 0) FAR  w(0) 75435. F 0.02
expand: MAIN (5, 0) FAR  w(0) 66309.
	create_child: MAIN (4, 12) FAR 86907 U 0.00
expand: MAIN (4, 0) FAR  w(0) 86907.
	create_child: MAIN (3, 12) FAR 96172 U 0.00
expand: MAIN (3, 0) FAR  w(0) 96172. F 0.02
expand: MAIN (4, 0) FAR  w(0) 86907. F 0.02
expand: MAIN (5, 0) FAR  w(0) 66309. F 0.03
expand: MAIN (6, 0) FAR  w(0) 53541.
	create_child: MAIN (5, 12) FAR 74748 U 0.00
expand: MAIN (5, 0) FAR  w(0) 74748.
	create_child: MAIN (4, 12) FAR 84023 U 0.00
expand: MAIN (4, 0) FAR  w(0) 84023. F 0.02
expand: MAIN (5, 0) FAR  w(0) 74748. F 0.02
expand: MAIN (6, 0) FAR  w(0) 53541. F 0.02
expand: MAIN (7, 0) FAR  w(0) 43087. F 0.01
expand: MAIN (8, 0) FAR  w(0) 33049. F 0.02
expand: MAIN (9, 0) FAR  w(0) 21397. F 0.01
expand: MAIN (10, 0) FAR  w(0) 13787. F 0.01
expand: MAIN (11, 0) FAR  w(0) 5068. F 0.00
expand: query!0 (12, 0) FAR  w(0) 1. F 0.00
(spacer::context::check_reachability :time 0.31 :before-memory 18.80 :after-memory 20.59)
Propagating: 3 4 5 6 7 8 9 10 11 12  ! 13 
(spacer::context::propagate :time 0.13 :before-memory 20.59 :after-memory 23.25)
Entering level 13
BRUNCH_STAT max_query_lvl 12
BRUNCH_STAT num_queries 118
BRUNCH_STAT num_reach_queries 0
BRUNCH_STAT num_reach_reuse 0
BRUNCH_STAT inductive_lvl 0
BRUNCH_STAT max_depth 13
BRUNCH_STAT cex_depth 0
expand: query!0 (13, 0) FAR  w(0) 1.
	create_child: MAIN (12, 13) FAR 5068 U 0.00
expand: MAIN (12, 0) FAR  w(0) 5068.
	create_child: MAIN (11, 13) FAR 13787 U 0.00
expand: MAIN (11, 0) FAR  w(0) 13787.
	create_child: MAIN (10, 13) FAR 21397 U 0.00
expand: MAIN (10, 0) FAR  w(0) 21397.
	create_child: MAIN (9, 13) FAR 33049 U 0.00
expand: MAIN (9, 0) FAR  w(0) 33049.
	create_child: MAIN (8, 13) FAR 43087 U 0.00
expand: MAIN (8, 0) FAR  w(0) 43087.
	create_child: MAIN (7, 13) FAR 53541 U 0.00
expand: MAIN (7, 0) FAR  w(0) 53541.
	create_child: MAIN (6, 13) FAR 66309 U 0.00
expand: MAIN (6, 0) FAR  w(0) 66309.
	create_child: MAIN (5, 13) FAR 75435 U 0.00
expand: MAIN (5, 0) FAR  w(0) 75435.
	create_child: MAIN (4, 13) FAR 93141 U 0.00
expand: MAIN (4, 0) FAR  w(0) 93141.
	create_child: MAIN (3, 13) FAR 106009 U 0.00
expand: MAIN (3, 0) FAR  w(0) 106009. F 0.02
expand: MAIN (4, 0) FAR  w(0) 93141.
	create_child: MAIN (3, 13) FAR 107210 U 0.01
expand: MAIN (3, 0) FAR  w(0) 107210. F 0.02
expand: MAIN (4, 0) FAR  w(0) 93141.
	create_child: MAIN (3, 13) FAR 107752 U 0.00
expand: MAIN (3, 0) FAR  w(0) 107752. F 0.01
expand: MAIN (4, 0) FAR  w(0) 93141. F 0.02
expand: MAIN (5, 0) FAR  w(0) 75435.
	create_child: MAIN (4, 13) FAR 94057 U 0.00
expand: MAIN (4, 0) FAR  w(0) 94057.
	create_child: MAIN (3, 13) FAR 108833 U 0.00
expand: MAIN (3, 0) FAR  w(0) 108833. F 0.02
expand: MAIN (4, 0) FAR  w(0) 94057. F 0.02
expand: MAIN (5, 0) FAR  w(0) 75435. F 0.02
expand: MAIN (6, 0) FAR  w(0) 66309.
	create_child: MAIN (5, 13) FAR 86907 U 0.00
expand: MAIN (5, 0) FAR  w(0) 86907. F 0.02
expand: MAIN (6, 0) FAR  w(0) 66309. F 0.01
expand: MAIN (7, 0) FAR  w(0) 53541. F 0.01
expand: MAIN (8, 0) FAR  w(0) 43087. F 0.01
expand: MAIN (9, 0) FAR  w(0) 33049. F 0.02
expand: MAIN (10, 0) FAR  w(0) 21397. F 0.01
expand: MAIN (11, 0) FAR  w(0) 13787. F 0.01
expand: MAIN (12, 0) FAR  w(0) 5068. F 0.00
expand: query!0 (13, 0) FAR  w(0) 1. F 0.00
(spacer::context::check_reachability :time 0.28 :before-memory 23.25 :after-memory 24.09)
Propagating: 3 4 5 6 7 8 9 10 11 12 13  ! 14 
(spacer::context::propagate :time 0.11 :before-memory 24.09 :after-memory 24.19)
Entering level 14
BRUNCH_STAT max_query_lvl 13
BRUNCH_STAT num_queries 133
BRUNCH_STAT num_reach_queries 0
BRUNCH_STAT num_reach_reuse 0
BRUNCH_STAT inductive_lvl 0
BRUNCH_STAT max_depth 14
BRUNCH_STAT cex_depth 0
expand: query!0 (14, 0) FAR  w(0) 1.
	create_child: MAIN (13, 14) FAR 5068 U 0.00
expand: MAIN (13, 0) FAR  w(0) 5068.
	create_child: MAIN (12, 14) FAR 13787 U 0.00
expand: MAIN (12, 0) FAR  w(0) 13787.
	create_child: MAIN (11, 14) FAR 21397 U 0.00
expand: MAIN (11, 0) FAR  w(0) 21397.
	create_child: MAIN (10, 14) FAR 33049 U 0.00
expand: MAIN (10, 0) FAR  w(0) 33049.
	create_child: MAIN (9, 14) FAR 43087 U 0.00
expand: MAIN (9, 0) FAR  w(0) 43087.
	create_child: MAIN (8, 14) FAR 53541 U 0.00
expand: MAIN (8, 0) FAR  w(0) 53541.
	create_child: MAIN (7, 14) FAR 66309 U 0.00
expand: MAIN (7, 0) FAR  w(0) 66309.
	create_child: MAIN (6, 14) FAR 75435 U 0.00
expand: MAIN (6, 0) FAR  w(0) 75435.
	create_child: MAIN (5, 14) FAR 93141 U 0.00
expand: MAIN (5, 0) FAR  w(0) 93141.
	create_child: MAIN (4, 14) FAR 107752 U 0.00
expand: MAIN (4, 0) FAR  w(0) 107752.
	create_child: MAIN (3, 14) FAR 115725 U 0.00
expand: MAIN (3, 0) FAR  w(0) 115725. F 0.01
expand: MAIN (4, 0) FAR  w(0) 107752. F 0.02
expand: MAIN (5, 0) FAR  w(0) 93141.
	create_child: MAIN (4, 14) FAR 106009 U 0.00
expand: MAIN (4, 0) FAR  w(0) 106009.
	create_child: MAIN (3, 14) FAR 117029 U 0.00
expand: MAIN (3, 0) FAR  w(0) 117029. F 0.02
expand: MAIN (4, 0) FAR  w(0) 106009.
	create_child: MAIN (3, 14) FAR 117718 U 0.00
expand: MAIN (3, 0) FAR  w(0) 117718. F 0.02
expand: MAIN (4, 0) FAR  w(0) 106009. F 0.02
expand: MAIN (5, 0) FAR  w(0) 93141. F 0.02
expand: MAIN (6, 0) FAR  w(0) 75435. F 0.01
expand: MAIN (7, 0) FAR  w(0) 66309.
	create_child: MAIN (6, 14) FAR 119652 UNDEF 0.00
expand: MAIN (6, 0) FAR  w(0) 119652.
	create_child: MAIN (5, 14) FAR 119202 UNDEF 0.00
expand: MAIN (5, 0) FAR  w(0) 119202.
	create_child: MAIN (4, 14) FAR 119202 UNDEF 0.00
expand: MAIN (4, 0) FAR  w(0) 119202.
	create_child: MAIN (3, 14) FAR 119202 UNDEF 0.00
expand: MAIN (3, 0) FAR  w(0) 119202.
	create_child: MAIN (2, 14) FAR 119202 U 0.00
expand: MAIN (2, 0) FAR  w(0) 119202. F 0.01
expand: MAIN (3, 0) FAR  w(0) 119202.
	create_child: MAIN (2, 14) FAR 119794 U 0.00
expand: MAIN (2, 0) FAR  w(0) 119794.
	create_child: MAIN (1, 14) FAR 119952 U 0.00
expand: MAIN (1, 0) FAR  w(0) 119952. T 0.00
is-reachable: MAIN (2, 0) FAR 119794 T 0.01
is-reachable: MAIN (3, 0) FAR 119202 T 0.01
is-reachable: MAIN (4, 0) FAR 119202 T 0.01
is-reachable: MAIN (5, 0) FAR 119202 T 0.01
is-reachable: MAIN (6, 0) FAR 119652 T 0.01
is-reachable: MAIN (7, 0) FAR 66309 F 0.01
Deleting closed node: MAIN(2, 14) 119794
Deleting closed node: MAIN(3, 14) 119202
Deleting closed node: MAIN(4, 14) 119202
Deleting closed node: MAIN(5, 14) 119202
Deleting closed node: MAIN(6, 14) 119652
expand: MAIN (7, 0) FAR  w(1) 66309.
	create_child: MAIN (6, 14) FAR 86907 U 0.00
expand: MAIN (6, 0) FAR  w(0) 86907.
	create_child: MAIN (5, 14) FAR 96172 U 0.01
expand: MAIN (5, 0) FAR  w(0) 96172. F 0.03
expand: MAIN (6, 0) FAR  w(0) 86907. F 0.02
expand: MAIN (7, 0) FAR  w(1) 66309. F 0.03
expand: MAIN (8, 0) FAR  w(0) 53541. F 0.03
expand: MAIN (9, 0) FAR  w(0) 43087. F 0.02
expand: MAIN (10, 0) FAR  w(0) 33049. F 0.02
expand: MAIN (11, 0) FAR  w(0) 21397. F 0.02
expand: MAIN (12, 0) FAR  w(0) 13787. F 0.02
expand: MAIN (13, 0) FAR  w(0) 5068. F 0.00
expand: query!0 (14, 0) FAR  w(0) 1. F 0.00
(spacer::context::check_reachability :time 0.45 :before-memory 24.19 :after-memory 26.74)
Propagating: 2 3 4 5 6 7 8 9 10 11 12 13 14  ! 15 
(spacer::context::propagate :time 0.25 :before-memory 26.74 :after-memory 28.70)
Entering level 15
BRUNCH_STAT max_query_lvl 14
BRUNCH_STAT num_queries 156
BRUNCH_STAT num_reach_queries 6
BRUNCH_STAT num_reach_reuse 1
BRUNCH_STAT inductive_lvl 0
BRUNCH_STAT max_depth 15
BRUNCH_STAT cex_depth 0
expand: query!0 (15, 0) FAR  w(0) 1.
	create_child: MAIN (14, 15) FAR 5068 U 0.00
expand: MAIN (14, 0) FAR  w(0) 5068.
	create_child: MAIN (13, 15) FAR 13787 U 0.00
expand: MAIN (13, 0) FAR  w(0) 13787.
	create_child: MAIN (12, 15) FAR 21397 U 0.00
expand: MAIN (12, 0) FAR  w(0) 21397.
	create_child: MAIN (11, 15) FAR 33049 U 0.00
expand: MAIN (11, 0) FAR  w(0) 33049.
	create_child: MAIN (10, 15) FAR 43087 U 0.00
expand: MAIN (10, 0) FAR  w(0) 43087.
	create_child: MAIN (9, 15) FAR 53541 U 0.00
expand: MAIN (9, 0) FAR  w(0) 53541.
	create_child: MAIN (8, 15) FAR 66309 U 0.00
expand: MAIN (8, 0) FAR  w(0) 66309.
	create_child: MAIN (7, 15) FAR 75435 U 0.00
expand: MAIN (7, 0) FAR  w(0) 75435.
	create_child: MAIN (6, 15) FAR 93141 U 0.00
expand: MAIN (6, 0) FAR  w(0) 93141.
	create_child: MAIN (5, 15) FAR 106009 U 0.01
expand: MAIN (5, 0) FAR  w(0) 106009.
	create_child: MAIN (4, 15) FAR 145683 U 0.01
expand: MAIN (4, 0) FAR  w(0) 145683.
	create_child: MAIN (3, 15) FAR 145961 U 0.01
expand: MAIN (3, 0) FAR  w(0) 145961. F 0.02
expand: MAIN (4, 0) FAR  w(0) 145683. F 0.02
expand: MAIN (5, 0) FAR  w(0) 106009.
	create_child: MAIN (4, 15) FAR 117029 U 0.01
expand: MAIN (4, 0) FAR  w(0) 117029.
	create_child: MAIN (3, 15) FAR 148164 U 0.01
expand: MAIN (3, 0) FAR  w(0) 148164. F 0.03
expand: MAIN (4, 0) FAR  w(0) 117029. F 0.02
expand: MAIN (5, 0) FAR  w(0) 106009. F 0.02
expand: MAIN (6, 0) FAR  w(0) 93141. F 0.02
expand: MAIN (7, 0) FAR  w(0) 75435. F 0.02
expand: MAIN (8, 0) FAR  w(0) 66309. F 0.02
expand: MAIN (9, 0) FAR  w(0) 53541. F 0.02
expand: MAIN (10, 0) FAR  w(0) 43087. F 0.02
expand: MAIN (11, 0) FAR  w(0) 33049. F 0.02
expand: MAIN (12, 0) FAR  w(0) 21397. F 0.02
expand: MAIN (13, 0) FAR  w(0) 13787. F 0.02
expand: MAIN (14, 0) FAR  w(0) 5068. F 0.00
expand: query!0 (15, 0) FAR  w(0) 1. F 0.00
(spacer::context::check_reachability :time 0.34 :before-memory 28.70 :after-memory 29.59)
Propagating: 3 4 5 6 7 8 9 10 11 12 13 14 15  ! 16 
(spacer::context::propagate :time 0.22 :before-memory 29.59 :after-memory 30.20)
Entering level 16
BRUNCH_STAT max_query_lvl 15
BRUNCH_STAT num_queries 170
BRUNCH_STAT num_reach_queries 6
BRUNCH_STAT num_reach_reuse 1
BRUNCH_STAT inductive_lvl 0
BRUNCH_STAT max_depth 16
BRUNCH_STAT cex_depth 0
expand: query!0 (16, 0) FAR  w(0) 1.
	create_child: MAIN (15, 16) FAR 5068 U 0.00
expand: MAIN (15, 0) FAR  w(0) 5068.
	create_child: MAIN (14, 16) FAR 13787 U 0.00
expand: MAIN (14, 0) FAR  w(0) 13787.
	create_child: MAIN (13, 16) FAR 21397 U 0.00
expand: MAIN (13, 0) FAR  w(0) 21397.
	create_child: MAIN (12, 16) FAR 33049 U 0.01
expand: MAIN (12, 0) FAR  w(0) 33049.
	create_child: MAIN (11, 16) FAR 43087 U 0.00
expand: MAIN (11, 0) FAR  w(0) 43087.
	create_child: MAIN (10, 16) FAR 53541 U 0.00
expand: MAIN (10, 0) FAR  w(0) 53541.
	create_child: MAIN (9, 16) FAR 66309 U 0.00
expand: MAIN (9, 0) FAR  w(0) 66309.
	create_child: MAIN (8, 16) FAR 75435 U 0.00
expand: MAIN (8, 0) FAR  w(0) 75435.
	create_child: MAIN (7, 16) FAR 94057 U 0.01
expand: MAIN (7, 0) FAR  w(0) 94057. F 0.03
expand: MAIN (8, 0) FAR  w(0) 75435.
	create_child: MAIN (7, 16) FAR 93141 U 0.01
expand: MAIN (7, 0) FAR  w(0) 93141.
	create_child: MAIN (6, 16) FAR 106009 U 0.00
expand: MAIN (6, 0) FAR  w(0) 106009.
	create_child: MAIN (5, 16) FAR 117029 U 0.00
expand: MAIN (5, 0) FAR  w(0) 117029.
	create_child: MAIN (4, 16) FAR 160666 U 0.01
expand: MAIN (4, 0) FAR  w(0) 160666.
	create_child: MAIN (3, 16) FAR 160890 U 0.00
expand: MAIN (3, 0) FAR  w(0) 160890. F 0.02
expand: MAIN (4, 0) FAR  w(0) 160666. F 0.02
expand: MAIN (5, 0) FAR  w(0) 117029.
	create_child: MAIN (4, 16) FAR 162158 U 0.01
expand: MAIN (4, 0) FAR  w(0) 162158. F 0.03
expand: MAIN (5, 0) FAR  w(0) 117029. F 0.02
expand: MAIN (6, 0) FAR  w(0) 106009. F 0.02
expand: MAIN (7, 0) FAR  w(0) 93141. F 0.02
expand: MAIN (8, 0) FAR  w(0) 75435. F 0.02
expand: MAIN (9, 0) FAR  w(0) 66309. F 0.02
expand: MAIN (10, 0) FAR  w(0) 53541. F 0.02
expand: MAIN (11, 0) FAR  w(0) 43087. F 0.02
expand: MAIN (12, 0) FAR  w(0) 33049. F 0.02
expand: MAIN (13, 0) FAR  w(0) 21397. F 0.02
expand: MAIN (14, 0) FAR  w(0) 13787. F 0.02
expand: MAIN (15, 0) FAR  w(0) 5068. F 0.00
expand: query!0 (16, 0) FAR  w(0) 1. F 0.00
(spacer::context::check_reachability :time 0.36 :before-memory 30.20 :after-memory 31.07)
Propagating: 3 4 5 6 7 8 9 10 11 12 13 14 15 16  ! 17 
(spacer::context::propagate :time 0.20 :before-memory 31.07 :after-memory 31.27)
Entering level 17
BRUNCH_STAT max_query_lvl 16
BRUNCH_STAT num_queries 185
BRUNCH_STAT num_reach_queries 6
BRUNCH_STAT num_reach_reuse 1
BRUNCH_STAT inductive_lvl 0
BRUNCH_STAT max_depth 17
BRUNCH_STAT cex_depth 0
expand: query!0 (17, 0) FAR  w(0) 1.
	create_child: MAIN (16, 17) FAR 5068 U 0.00
expand: MAIN (16, 0) FAR  w(0) 5068.
	create_child: MAIN (15, 17) FAR 13787 U 0.00
expand: MAIN (15, 0) FAR  w(0) 13787.
	create_child: MAIN (14, 17) FAR 21397 U 0.01
expand: MAIN (14, 0) FAR  w(0) 21397.
	create_child: MAIN (13, 17) FAR 33049 U 0.01
expand: MAIN (13, 0) FAR  w(0) 33049.
	create_child: MAIN (12, 17) FAR 43087 U 0.01
expand: MAIN (12, 0) FAR  w(0) 43087.
	create_child: MAIN (11, 17) FAR 53541 U 0.01
expand: MAIN (11, 0) FAR  w(0) 53541.
	create_child: MAIN (10, 17) FAR 66309 U 0.01
expand: MAIN (10, 0) FAR  w(0) 66309.
	create_child: MAIN (9, 17) FAR 75435 U 0.00
expand: MAIN (9, 0) FAR  w(0) 75435.
	create_child: MAIN (8, 17) FAR 94057 U 0.01
expand: MAIN (8, 0) FAR  w(0) 94057.
	create_child: MAIN (7, 17) FAR 108833 U 0.01
expand: MAIN (7, 0) FAR  w(0) 108833. F 0.02
expand: MAIN (8, 0) FAR  w(0) 94057. F 0.02
expand: MAIN (9, 0) FAR  w(0) 75435.
	create_child: MAIN (8, 17) FAR 93141 U 0.01
expand: MAIN (8, 0) FAR  w(0) 93141.
	create_child: MAIN (7, 17) FAR 106009 U 0.00
expand: MAIN (7, 0) FAR  w(0) 106009.
	create_child: MAIN (6, 17) FAR 117029 U 0.00
expand: MAIN (6, 0) FAR  w(0) 117029.
	create_child: MAIN (5, 17) FAR 162158 U 0.00
expand: MAIN (5, 0) FAR  w(0) 162158.
	create_child: MAIN (4, 17) FAR 170658 U 0.01
expand: MAIN (4, 0) FAR  w(0) 170658.
	create_child: MAIN (3, 17) FAR 170828 U 0.00
expand: MAIN (3, 0) FAR  w(0) 170828. F 0.03
expand: MAIN (4, 0) FAR  w(0) 170658. F 0.02
expand: MAIN (5, 0) FAR  w(0) 162158.
	create_child: MAIN (4, 17) FAR 172417 U 0.01
expand: MAIN (4, 0) FAR  w(0) 172417. F 0.02
expand: MAIN (5, 0) FAR  w(0) 162158. F 0.02
expand: MAIN (6, 0) FAR  w(0) 117029. F 0.02
expand: MAIN (7, 0) FAR  w(0) 106009. F 0.02
expand: MAIN (8, 0) FAR  w(0) 93141. F 0.02
expand: MAIN (9, 0) FAR  w(0) 75435. F 0.02
expand: MAIN (10, 0) FAR  w(0) 66309. F 0.02
expand: MAIN (11, 0) FAR  w(0) 53541. F 0.02
expand: MAIN (12, 0) FAR  w(0) 43087. F 0.02
expand: MAIN (13, 0) FAR  w(0) 33049. F 0.03
expand: MAIN (14, 0) FAR  w(0) 21397. F 0.02
expand: MAIN (15, 0) FAR  w(0) 13787. F 0.02
expand: MAIN (16, 0) FAR  w(0) 5068. F 0.00
expand: query!0 (17, 0) FAR  w(0) 1. F 0.00
(spacer::context::check_reachability :time 0.44 :before-memory 31.27 :after-memory 32.21)
Propagating: 3 4 5 6 7 8 9 10 11 12 13 14 15 16 17  ! 18 
(spacer::context::propagate :time 0.27 :before-memory 32.21 :after-memory 32.75)
Entering level 18
BRUNCH_STAT max_query_lvl 17
BRUNCH_STAT num_queries 202
BRUNCH_STAT num_reach_queries 6
BRUNCH_STAT num_reach_reuse 1
BRUNCH_STAT inductive_lvl 0
BRUNCH_STAT max_depth 18
BRUNCH_STAT cex_depth 0
expand: query!0 (18, 0) FAR  w(0) 1.
	create_child: MAIN (17, 18) FAR 5068 U 0.00
expand: MAIN (17, 0) FAR  w(0) 5068.
	create_child: MAIN (16, 18) FAR 13787 U 0.01
expand: MAIN (16, 0) FAR  w(0) 13787.
	create_child: MAIN (15, 18) FAR 21397 U 0.00
expand: MAIN (15, 0) FAR  w(0) 21397.
	create_child: MAIN (14, 18) FAR 33049 U 0.00
expand: MAIN (14, 0) FAR  w(0) 33049.
	create_child: MAIN (13, 18) FAR 43087 U 0.00
expand: MAIN (13, 0) FAR  w(0) 43087.
	create_child: MAIN (12, 18) FAR 53541 U 0.00
expand: MAIN (12, 0) FAR  w(0) 53541.
	create_child: MAIN (11, 18) FAR 66309 U 0.00
expand: MAIN (11, 0) FAR  w(0) 66309.
	create_child: MAIN (10, 18) FAR 75435 U 0.00
expand: MAIN (10, 0) FAR  w(0) 75435.
	create_child: MAIN (9, 18) FAR 93141 U 0.00
expand: MAIN (9, 0) FAR  w(0) 93141.
	create_child: MAIN (8, 18) FAR 107752 U 0.01
expand: MAIN (8, 0) FAR  w(0) 107752. F 0.03
expand: MAIN (9, 0) FAR  w(0) 93141.
	create_child: MAIN (8, 18) FAR 106009 U 0.01
expand: MAIN (8, 0) FAR  w(0) 106009.
	create_child: MAIN (7, 18) FAR 117029 U 0.00
expand: MAIN (7, 0) FAR  w(0) 117029.
	create_child: MAIN (6, 18) FAR 162158 U 0.00
expand: MAIN (6, 0) FAR  w(0) 162158.
	create_child: MAIN (5, 18) FAR 172417 U 0.00
expand: MAIN (5, 0) FAR  w(0) 172417.
	create_child: MAIN (4, 18) FAR 185200 U 0.01
expand: MAIN (4, 0) FAR  w(0) 185200.
	create_child: MAIN (3, 18) FAR 185005 U 0.01
expand: MAIN (3, 0) FAR  w(0) 185005. F 0.02
expand: MAIN (4, 0) FAR  w(0) 185200. F 0.03
expand: MAIN (5, 0) FAR  w(0) 172417.
	create_child: MAIN (4, 18) FAR 186969 U 0.01
expand: MAIN (4, 0) FAR  w(0) 186969. F 0.03
expand: MAIN (5, 0) FAR  w(0) 172417. F 0.03
expand: MAIN (6, 0) FAR  w(0) 162158. F 0.02
expand: MAIN (7, 0) FAR  w(0) 117029. F 0.02
expand: MAIN (8, 0) FAR  w(0) 106009. F 0.02
expand: MAIN (9, 0) FAR  w(0) 93141. F 0.02
expand: MAIN (10, 0) FAR  w(0) 75435. F 0.02
expand: MAIN (11, 0) FAR  w(0) 66309. F 0.02
expand: MAIN (12, 0) FAR  w(0) 53541. F 0.02
expand: MAIN (13, 0) FAR  w(0) 43087. F 0.02
expand: MAIN (14, 0) FAR  w(0) 33049. F 0.03
expand: MAIN (15, 0) FAR  w(0) 21397. F 0.02
expand: MAIN (16, 0) FAR  w(0) 13787. F 0.02
expand: MAIN (17, 0) FAR  w(0) 5068. F 0.00
expand: query!0 (18, 0) FAR  w(0) 1. F 0.00
(spacer::context::check_reachability :time 0.48 :before-memory 32.75 :after-memory 33.52)
Propagating: 3 4 5 6 7 8 9 10 11 12 13 14 15 16 17 18  ! 19 
(spacer::context::propagate :time 0.26 :before-memory 33.52 :after-memory 33.80)
Entering level 19
BRUNCH_STAT max_query_lvl 18
BRUNCH_STAT num_queries 219
BRUNCH_STAT num_reach_queries 6
BRUNCH_STAT num_reach_reuse 1
BRUNCH_STAT inductive_lvl 0
BRUNCH_STAT max_depth 19
BRUNCH_STAT cex_depth 0
expand: query!0 (19, 0) FAR  w(0) 1.
	create_child: MAIN (18, 19) FAR 5068 U 0.00
expand: MAIN (18, 0) FAR  w(0) 5068.
	create_child: MAIN (17, 19) FAR 13787 U 0.00
expand: MAIN (17, 0) FAR  w(0) 13787.
	create_child: MAIN (16, 19) FAR 21397 U 0.00
expand: MAIN (16, 0) FAR  w(0) 21397.
	create_child: MAIN (15, 19) FAR 33049 U 0.00
expand: MAIN (15, 0) FAR  w(0) 33049.
	create_child: MAIN (14, 19) FAR 43087 U 0.00
expand: MAIN (14, 0) FAR  w(0) 43087.
	create_child: MAIN (13, 19) FAR 53541 U 0.00
expand: MAIN (13, 0) FAR  w(0) 53541.
	create_child: MAIN (12, 19) FAR 66309 U 0.00
expand: MAIN (12, 0) FAR  w(0) 66309.
	create_child: MAIN (11, 19) FAR 75435 U 0.00
expand: MAIN (11, 0) FAR  w(0) 75435.
	create_child: MAIN (10, 19) FAR 93141 U 0.01
expand: MAIN (10, 0) FAR  w(0) 93141.
	create_child: MAIN (9, 19) FAR 107752 U 0.01
expand: MAIN (9, 0) FAR  w(0) 107752.
	create_child: MAIN (8, 19) FAR 115725 U 0.01
expand: MAIN (8, 0) FAR  w(0) 115725. F 0.03
expand: MAIN (9, 0) FAR  w(0) 107752. F 0.02
expand: MAIN (10, 0) FAR  w(0) 93141.
	create_child: MAIN (9, 19) FAR 106009 U 0.01
expand: MAIN (9, 0) FAR  w(0) 106009.
	create_child: MAIN (8, 19) FAR 117029 U 0.01
expand: MAIN (8, 0) FAR  w(0) 117029.
	create_child: MAIN (7, 19) FAR 162158 U 0.01
expand: MAIN (7, 0) FAR  w(0) 162158.
	create_child: MAIN (6, 19) FAR 172417 U 0.01
expand: MAIN (6, 0) FAR  w(0) 172417.
	create_child: MAIN (5, 19) FAR 185200 U 0.01
expand: MAIN (5, 0) FAR  w(0) 185200. F 0.03
expand: MAIN (6, 0) FAR  w(0) 172417.
	create_child: MAIN (5, 19) FAR 186969 U 0.01
expand: MAIN (5, 0) FAR  w(0) 186969.
	create_child: MAIN (4, 19) FAR 195581 U 0.01
expand: MAIN (4, 0) FAR  w(0) 195581.
	create_child: MAIN (3, 19) FAR 195772 U 0.01
expand: MAIN (3, 0) FAR  w(0) 195772. F 0.02
expand: MAIN (4, 0) FAR  w(0) 195581. F 0.01
expand: MAIN (5, 0) FAR  w(0) 186969.
	create_child: MAIN (4, 19) FAR 196261 U 0.01
expand: MAIN (4, 0) FAR  w(0) 196261. F 0.02
expand: MAIN (5, 0) FAR  w(0) 186969. F 0.03
expand: MAIN (6, 0) FAR  w(0) 172417. F 0.03
expand: MAIN (7, 0) FAR  w(0) 162158. F 0.02
expand: MAIN (8, 0) FAR  w(0) 117029. F 0.02
expand: MAIN (9, 0) FAR  w(0) 106009. F 0.02
expand: MAIN (10, 0) FAR  w(0) 93141. F 0.03
expand: MAIN (11, 0) FAR  w(0) 75435. F 0.02
expand: MAIN (12, 0) FAR  w(0) 66309. F 0.02
expand: MAIN (13, 0) FAR  w(0) 53541. F 0.02
expand: MAIN (14, 0) FAR  w(0) 43087. F 0.02
expand: MAIN (15, 0) FAR  w(0) 33049. F 0.02
expand: MAIN (16, 0) FAR  w(0) 21397. F 0.02
expand: MAIN (17, 0) FAR  w(0) 13787. F 0.02
expand: MAIN (18, 0) FAR  w(0) 5068. F 0.00
expand: query!0 (19, 0) FAR  w(0) 1. F 0.00
(spacer::context::check_reachability :time 0.56 :before-memory 33.80 :after-memory 34.55)
Propagating: 3 4 5 6 7 8 9 10 11 12 13 14 15 16 17 18 19  ! 20 
(spacer::context::propagate :time 0.22 :before-memory 34.55 :after-memory 34.75)
Entering level 20
BRUNCH_STAT max_query_lvl 19
BRUNCH_STAT num_queries 239
BRUNCH_STAT num_reach_queries 6
BRUNCH_STAT num_reach_reuse 1
BRUNCH_STAT inductive_lvl 0
BRUNCH_STAT max_depth 20
BRUNCH_STAT cex_depth 0
expand: query!0 (20, 0) FAR  w(0) 1.
	create_child: MAIN (19, 20) FAR 5068 U 0.00
expand: MAIN (19, 0) FAR  w(0) 5068.
	create_child: MAIN (18, 20) FAR 13787 U 0.01
expand: MAIN (18, 0) FAR  w(0) 13787.
	create_child: MAIN (17, 20) FAR 21397 U 0.01
expand: MAIN (17, 0) FAR  w(0) 21397.
	create_child: MAIN (16, 20) FAR 33049 U 0.01
expand: MAIN (16, 0) FAR  w(0) 33049.
	create_child: MAIN (15, 20) FAR 43087 U 0.01
expand: MAIN (15, 0) FAR  w(0) 43087.
	create_child: MAIN (14, 20) FAR 53541 U 0.01
expand: MAIN (14, 0) FAR  w(0) 53541.
	create_child: MAIN (13, 20) FAR 66309 U 0.03
expand: MAIN (13, 0) FAR  w(0) 66309.
	create_child: MAIN (12, 20) FAR 75435 U 0.01
expand: MAIN (12, 0) FAR  w(0) 75435.
	create_child: MAIN (11, 20) FAR 93141 U 0.01
expand: MAIN (11, 0) FAR  w(0) 93141.
	create_child: MAIN (10, 20) FAR 106009 U 0.01
expand: MAIN (10, 0) FAR  w(0) 106009.
	create_child: MAIN (9, 20) FAR 117029 U 0.01
expand: MAIN (9, 0) FAR  w(0) 117029.
	create_child: MAIN (8, 20) FAR 162158 U 0.01
expand: MAIN (8, 0) FAR  w(0) 162158.
	create_child: MAIN (7, 20) FAR 172417 U 0.01
expand: MAIN (7, 0) FAR  w(0) 172417.
	create_child: MAIN (6, 20) FAR 186969 U 0.01
expand: MAIN (6, 0) FAR  w(0) 186969.
	create_child: MAIN (5, 20) FAR 196261 U 0.01
expand: MAIN (5, 0) FAR  w(0) 196261.
	create_child: MAIN (4, 20) FAR 194963 U 0.01
expand: MAIN (4, 0) FAR  w(0) 194963. F 0.03
expand: MAIN (5, 0) FAR  w(0) 196261. F 0.03
expand: MAIN (6, 0) FAR  w(0) 186969. F 0.03
expand: MAIN (7, 0) FAR  w(0) 172417. F 0.03
expand: MAIN (8, 0) FAR  w(0) 162158. F 0.03
expand: MAIN (9, 0) FAR  w(0) 117029. F 0.03
expand: MAIN (10, 0) FAR  w(0) 106009. F 0.03
expand: MAIN (11, 0) FAR  w(0) 93141. F 0.03
expand: MAIN (12, 0) FAR  w(0) 75435. F 0.04
expand: MAIN (13, 0) FAR  w(0) 66309. F 0.03
expand: MAIN (14, 0) FAR  w(0) 53541. F 0.03
expand: MAIN (15, 0) FAR  w(0) 43087. F 0.03
expand: MAIN (16, 0) FAR  w(0) 33049. F 0.03
expand: MAIN (17, 0) FAR  w(0) 21397. F 0.02
expand: MAIN (18, 0) FAR  w(0) 13787. F 0.02
expand: MAIN (19, 0) FAR  w(0) 5068. F 0.00
expand: query!0 (20, 0) FAR  w(0) 1. F 0.00
(spacer::context::check_reachability :time 0.54 :before-memory 34.75 :after-memory 41.55)
Propagating: 4 5 6 7 8 9 10 11 12 13 14 15 16 17 18 19 20  ! 21 
(spacer::context::propagate :time 0.22 :before-memory 41.55 :after-memory 41.65)
Entering level 21
BRUNCH_STAT max_query_lvl 20
BRUNCH_STAT num_queries 255
BRUNCH_STAT num_reach_queries 6
BRUNCH_STAT num_reach_reuse 1
BRUNCH_STAT inductive_lvl 0
BRUNCH_STAT max_depth 21
BRUNCH_STAT cex_depth 0
expand: query!0 (21, 0) FAR  w(0) 1.
	create_child: MAIN (20, 21) FAR 5068 U 0.00
expand: MAIN (20, 0) FAR  w(0) 5068.
	create_child: MAIN (19, 21) FAR 13787 U 0.01
expand: MAIN (19, 0) FAR  w(0) 13787.
	create_child: MAIN (18, 21) FAR 21397 U 0.01
expand: MAIN (18, 0) FAR  w(0) 21397.
	create_child: MAIN (17, 21) FAR 33049 U 0.01
expand: MAIN (17, 0) FAR  w(0) 33049.
	create_child: MAIN (16, 21) FAR 43087 U 0.01
expand: MAIN (16, 0) FAR  w(0) 43087.
	create_child: MAIN (15, 21) FAR 53541 U 0.01
expand: MAIN (15, 0) FAR  w(0) 53541.
	create_child: MAIN (14, 21) FAR 66309 U 0.01
expand: MAIN (14, 0) FAR  w(0) 66309.
	create_child: MAIN (13, 21) FAR 75435 U 0.01
expand: MAIN (13, 0) FAR  w(0) 75435.
	create_child: MAIN (12, 21) FAR 93141 U 0.01
expand: MAIN (12, 0) FAR  w(0) 93141.
	create_child: MAIN (11, 21) FAR 106009 U 0.01
expand: MAIN (11, 0) FAR  w(0) 106009.
	create_child: MAIN (10, 21) FAR 117029 U 0.01
expand: MAIN (10, 0) FAR  w(0) 117029.
	create_child: MAIN (9, 21) FAR 162158 U 0.01
expand: MAIN (9, 0) FAR  w(0) 162158.
	create_child: MAIN (8, 21) FAR 172417 U 0.01
expand: MAIN (8, 0) FAR  w(0) 172417.
	create_child: MAIN (7, 21) FAR 186969 U 0.01
expand: MAIN (7, 0) FAR  w(0) 186969.
	create_child: MAIN (6, 21) FAR 196261 U 0.01
expand: MAIN (6, 0) FAR  w(0) 196261.
	create_child: MAIN (5, 21) FAR 194963 U 0.01
expand: MAIN (5, 0) FAR  w(0) 194963.
	create_child: MAIN (4, 21) FAR 212318 U 0.01
expand: MAIN (4, 0) FAR  w(0) 212318. F 0.03
expand: MAIN (5, 0) FAR  w(0) 194963. F 0.03
expand: MAIN (6, 0) FAR  w(0) 196261. F 0.03
expand: MAIN (7, 0) FAR  w(0) 186969. F 0.03
expand: MAIN (8, 0) FAR  w(0) 172417. F 0.03
expand: MAIN (9, 0) FAR  w(0) 162158. F 0.03
expand: MAIN (10, 0) FAR  w(0) 117029. F 0.04
expand: MAIN (11, 0) FAR  w(0) 106009. F 0.03
expand: MAIN (12, 0) FAR  w(0) 93141. F 0.03
expand: MAIN (13, 0) FAR  w(0) 75435. F 0.03
expand: MAIN (14, 0) FAR  w(0) 66309. F 0.03
expand: MAIN (15, 0) FAR  w(0) 53541. F 0.03
expand: MAIN (16, 0) FAR  w(0) 43087. F 0.03
expand: MAIN (17, 0) FAR  w(0) 33049. F 0.03
expand: MAIN (18, 0) FAR  w(0) 21397. F 0.02
expand: MAIN (19, 0) FAR  w(0) 13787. F 0.02
expand: MAIN (20, 0) FAR  w(0) 5068. F 0.00
expand: query!0 (21, 0) FAR  w(0) 1. F 0.00
(spacer::context::check_reachability :time 0.55 :before-memory 41.65 :after-memory 42.66)
Propagating: 4 5 6 7 8 9 10 11 12 13 14 15 16 17 18 19 20 21  ! 22 
(spacer::context::propagate :time 0.26 :before-memory 42.66 :after-memory 42.66)
Entering level 22
BRUNCH_STAT max_query_lvl 21
BRUNCH_STAT num_queries 272
BRUNCH_STAT num_reach_queries 6
BRUNCH_STAT num_reach_reuse 1
BRUNCH_STAT inductive_lvl 0
BRUNCH_STAT max_depth 22
BRUNCH_STAT cex_depth 0
expand: query!0 (22, 0) FAR  w(0) 1.
	create_child: MAIN (21, 22) FAR 5068 U 0.00
expand: MAIN (21, 0) FAR  w(0) 5068.
	create_child: MAIN (20, 22) FAR 13787 U 0.01
expand: MAIN (20, 0) FAR  w(0) 13787.
	create_child: MAIN (19, 22) FAR 21397 U 0.01
expand: MAIN (19, 0) FAR  w(0) 21397.
	create_child: MAIN (18, 22) FAR 33049 U 0.01
expand: MAIN (18, 0) FAR  w(0) 33049.
	create_child: MAIN (17, 22) FAR 43087 U 0.01
expand: MAIN (17, 0) FAR  w(0) 43087.
	create_child: MAIN (16, 22) FAR 53541 U 0.01
expand: MAIN (16, 0) FAR  w(0) 53541.
	create_child: MAIN (15, 22) FAR 66309 U 0.01
expand: MAIN (15, 0) FAR  w(0) 66309.
	create_child: MAIN (14, 22) FAR 75435 U 0.01
expand: MAIN (14, 0) FAR  w(0) 75435.
	create_child: MAIN (13, 22) FAR 93141 U 0.01
expand: MAIN (13, 0) FAR  w(0) 93141.
	create_child: MAIN (12, 22) FAR 106009 U 0.01
expand: MAIN (12, 0) FAR  w(0) 106009.
	create_child: MAIN (11, 22) FAR 117029 U 0.01
expand: MAIN (11, 0) FAR  w(0) 117029.
	create_child: MAIN (10, 22) FAR 162158 U 0.01
expand: MAIN (10, 0) FAR  w(0) 162158.
	create_child: MAIN (9, 22) FAR 172417 U 0.01
expand: MAIN (9, 0) FAR  w(0) 172417.
	create_child: MAIN (8, 22) FAR 186969 U 0.01
expand: MAIN (8, 0) FAR  w(0) 186969.
	create_child: MAIN (7, 22) FAR 196261 U 0.01
expand: MAIN (7, 0) FAR  w(0) 196261.
	create_child: MAIN (6, 22) FAR 194963 U 0.01
expand: MAIN (6, 0) FAR  w(0) 194963.
	create_child: MAIN (5, 22) FAR 212318 U 0.01
expand: MAIN (5, 0) FAR  w(0) 212318.
	create_child: MAIN (4, 22) FAR 218627 U 0.01
expand: MAIN (4, 0) FAR  w(0) 218627. F 0.03
expand: MAIN (5, 0) FAR  w(0) 212318. F 0.05
expand: MAIN (6, 0) FAR  w(0) 194963. F 0.05
expand: MAIN (7, 0) FAR  w(0) 196261. F 0.06
expand: MAIN (8, 0) FAR  w(0) 186969. F 0.02
expand: MAIN (9, 0) FAR  w(0) 172417. F 0.02
expand: MAIN (10, 0) FAR  w(0) 162158. F 0.03
expand: MAIN (11, 0) FAR  w(0) 117029. F 0.04
expand: MAIN (12, 0) FAR  w(0) 106009. F 0.02
expand: MAIN (13, 0) FAR  w(0) 93141. F 0.03
expand: MAIN (14, 0) FAR  w(0) 75435. F 0.03
expand: MAIN (15, 0) FAR  w(0) 66309. F 0.03
expand: MAIN (16, 0) FAR  w(0) 53541. F 0.02
expand: MAIN (17, 0) FAR  w(0) 43087. F 0.04
expand: MAIN (18, 0) FAR  w(0) 33049. F 0.02
expand: MAIN (19, 0) FAR  w(0) 21397. F 0.03
expand: MAIN (20, 0) FAR  w(0) 13787. F 0.02
expand: MAIN (21, 0) FAR  w(0) 5068. F 0.00
expand: query!0 (22, 0) FAR  w(0) 1. F 0.00
(spacer::context::check_reachability :time 0.74 :before-memory 42.66 :after-memory 43.47)
Propagating: 4 5 6 7 8 9 10 11 12 13 14 15 16 17 18 19 20 21 22  ! 23 
(spacer::context::propagate :time 0.22 :before-memory 43.47 :after-memory 43.68)
Entering level 23
BRUNCH_STAT max_query_lvl 22
BRUNCH_STAT num_queries 290
BRUNCH_STAT num_reach_queries 6
BRUNCH_STAT num_reach_reuse 1
BRUNCH_STAT inductive_lvl 0
BRUNCH_STAT max_depth 23
BRUNCH_STAT cex_depth 0
expand: query!0 (23, 0) FAR  w(0) 1.
	create_child: MAIN (22, 23) FAR 5068 U 0.00
expand: MAIN (22, 0) FAR  w(0) 5068.
	create_child: MAIN (21, 23) FAR 13787 U 0.01
expand: MAIN (21, 0) FAR  w(0) 13787.
	create_child: MAIN (20, 23) FAR 21397 U 0.01
expand: MAIN (20, 0) FAR  w(0) 21397.
	create_child: MAIN (19, 23) FAR 33049 U 0.01
expand: MAIN (19, 0) FAR  w(0) 33049.
	create_child: MAIN (18, 23) FAR 43087 U 0.01
expand: MAIN (18, 0) FAR  w(0) 43087.
	create_child: MAIN (17, 23) FAR 53541 U 0.01
expand: MAIN (17, 0) FAR  w(0) 53541.
	create_child: MAIN (16, 23) FAR 66309 U 0.01
expand: MAIN (16, 0) FAR  w(0) 66309.
	create_child: MAIN (15, 23) FAR 75435 U 0.01
expand: MAIN (15, 0) FAR  w(0) 75435.
	create_child: MAIN (14, 23) FAR 93141 U 0.01
expand: MAIN (14, 0) FAR  w(0) 93141.
	create_child: MAIN (13, 23) FAR 106009 U 0.01
expand: MAIN (13, 0) FAR  w(0) 106009.
	create_child: MAIN (12, 23) FAR 117029 U 0.01
expand: MAIN (12, 0) FAR  w(0) 117029.
	create_child: MAIN (11, 23) FAR 162158 U 0.01
expand: MAIN (11, 0) FAR  w(0) 162158.
	create_child: MAIN (10, 23) FAR 172417 U 0.01
expand: MAIN (10, 0) FAR  w(0) 172417.
	create_child: MAIN (9, 23) FAR 186969 U 0.01
expand: MAIN (9, 0) FAR  w(0) 186969.
	create_child: MAIN (8, 23) FAR 196261 U 0.01
expand: MAIN (8, 0) FAR  w(0) 196261.
	create_child: MAIN (7, 23) FAR 194963 U 0.01
expand: MAIN (7, 0) FAR  w(0) 194963.
	create_child: MAIN (6, 23) FAR 212318 U 0.01
expand: MAIN (6, 0) FAR  w(0) 212318.
	create_child: MAIN (5, 23) FAR 218627 U 0.01
expand: MAIN (5, 0) FAR  w(0) 218627. F 0.02
expand: MAIN (6, 0) FAR  w(0) 212318. F 0.03
expand: MAIN (7, 0) FAR  w(0) 194963. F 0.03
expand: MAIN (8, 0) FAR  w(0) 196261. F 0.02
expand: MAIN (9, 0) FAR  w(0) 186969. F 0.02
expand: MAIN (10, 0) FAR  w(0) 172417. F 0.03
expand: MAIN (11, 0) FAR  w(0) 162158. F 0.03
expand: MAIN (12, 0) FAR  w(0) 117029. F 0.03
expand: MAIN (13, 0) FAR  w(0) 106009. F 0.03
expand: MAIN (14, 0) FAR  w(0) 93141. F 0.03
expand: MAIN (15, 0) FAR  w(0) 75435. F 0.03
expand: MAIN (16, 0) FAR  w(0) 66309. F 0.03
expand: MAIN (17, 0) FAR  w(0) 53541. F 0.03
expand: MAIN (18, 0) FAR  w(0) 43087. F 0.04
expand: MAIN (19, 0) FAR  w(0) 33049. F 0.03
expand: MAIN (20, 0) FAR  w(0) 21397. F 0.03
expand: MAIN (21, 0) FAR  w(0) 13787. F 0.02
expand: MAIN (22, 0) FAR  w(0) 5068. F 0.00
expand: query!0 (23, 0) FAR  w(0) 1. F 0.00
(spacer::context::check_reachability :time 0.59 :before-memory 43.68 :after-memory 44.11)
Propagating: 5 6 
(spacer::context::propagate :time 0.03 :before-memory 44.11 :after-memory 44.11)
(define-fun MAIN ((x!0 Int)
 (x!1 Bool)
 (x!2 Int)
 (x!3 Int)
 (x!4 Int)
 (x!5 Int)
 (x!6 Int)
 (x!7 Int)
 (x!8 Bool)
 (x!9 Bool)
 (x!10 Bool)
 (x!11 Bool)) Bool
  (let ((a!1 (+ x!5 (* (- 1) x!3) (* (- 1) x!4) (* (- 1) x!6)))
        (a!3 (or (>= (+ x!0 (* (- 1) x!6)) 0) (not x!9)))
        (a!4 (not (>= (+ x!4 x!6 (* (- 1) x!0)) 2)))
        (a!5 (or (<= (+ x!2 x!3 x!4 x!5 x!6 (* (- 1) x!0)) 0) (not x!9)))
        (a!7 (not (>= (+ x!5 x!6 (* (- 1) x!0)) (- 1))))
        (a!8 (or (<= (+ x!2 x!4 x!5 x!6 (* (- 1) x!0)) 0) (not x!9))))
  (let ((a!2 (or (<= (+ x!2 x!5 x!6 (* (- 1) x!0)) 0)
                 (not x!9)
                 (not (<= a!1 (- 2)))
                 (<= (+ x!3 x!4 x!5 x!6) 0)))
        (a!6 (or (<= (+ x!4 x!5 x!6 (* (- 1) x!0)) 0)
                 (not x!9)
                 (not (<= a!1 (- 2))))))
    (and a!2
         x!11
         (not x!8)
         (not x!10)
         (not x!1)
         a!3
         (or a!4 (not x!9))
         (or (not (<= x!0 0)) (not x!9))
         (or (not (<= a!1 0)) (not x!9) (<= x!5 0))
         a!5
         a!6
         (or (not (>= x!5 2)) (not x!9))
         (or (<= x!3 0)
             (not x!9)
             (not (<= a!1 (- 2)))
             (<= (+ x!3 x!4 x!5 x!6) 0))
         (or (not (>= x!2 2)) (not x!9) (not (<= a!1 (- 2))) a!7)
         a!8))))
BRUNCH_STAT max_query_lvl 23
BRUNCH_STAT num_queries 308
BRUNCH_STAT num_reach_queries 6
BRUNCH_STAT num_reach_reuse 1
BRUNCH_STAT inductive_lvl 6
BRUNCH_STAT max_depth 23
BRUNCH_STAT cex_depth 0
(:SPACER-expand-node-undef             4
 :SPACER-inductive-level               6
 :SPACER-max-depth                     23
 :SPACER-max-query-lvl                 23
 :SPACER-num-invariants                114
 :SPACER-num-lemmas                    326
 :SPACER-num-properties                39
 :SPACER-num-queries                   308
 :SPACER-num-reach-queries             6
 :SPACER-num-reuse-reach-facts         1
 :added-eqs                            99272
 :arith-add-rows                       273035
 :arith-assert-diseq                   75303
 :arith-assert-lower                   231703
 :arith-assert-upper                   286096
 :arith-bound-prop                     6432
 :arith-conflicts                      691
 :arith-eq-adapter                     19499
 :arith-fixed-eqs                      23343
 :arith-gcd-tests                      391
 :arith-gomory-cuts                    5
 :arith-ineq-splits                    12
 :arith-offset-eqs                     18948
 :arith-pivots                         20183
 :bool-inductive-gen                   302
 :bool-inductive-gen-failures          1296
 :conflicts                            5822
 :decisions                            1454831
 :del-clause                           469
 :final-checks                         2575
 :minimized-lits                       22784
 :mk-bool-var                          10478
 :mk-clause                            20019
 :num-checks                           4419
 :propagations                         3884560
 :time.itp_solver.itp_core             0.96
 :time.spacer.init_rules               0.00
 :time.spacer.init_rules.pt.init       0.00
 :time.spacer.solve                    9.58
 :time.spacer.solve.propagate          2.83
 :time.spacer.solve.reach              6.75
 :time.spacer.solve.reach.children     0.39
 :time.spacer.solve.reach.gen.bool_ind 3.97
 :time.spacer.solve.reach.is-reach     0.06
 :time.virtual_solver.proof            0.63
 :time.virtual_solver.smt.total        8.03
 :time.virtual_solver.smt.total.sat    6.48
 :time.virtual_solver.smt.total.undef  0.22
 :virtual_solver.checks                4419
 :virtual_solver.checks.sat            2486
 :virtual_solver.checks.undef          72)
BRUNCH_STAT max_query_lvl 23
BRUNCH_STAT num_queries 308
BRUNCH_STAT num_reach_queries 6
BRUNCH_STAT num_reach_reuse 1
BRUNCH_STAT inductive_lvl 6
BRUNCH_STAT max_depth 23
BRUNCH_STAT cex_depth 0

real	0m9.783s
user	0m9.652s
sys	0m0.084s
