(transform N7datalog13mk_coi_filterE...no-op 0s)
(transform N7datalog25mk_interp_tail_simplifierE...14 rules 0s)
(transform N7datalog27mk_quantifier_instantiationE...no-op 0s)
(transform N7datalog8mk_scaleE...no-op 0s)
(transform N7datalog18mk_karr_invariantsE...no-op 0s)
(transform N7datalog14mk_array_blastE...no-op 0s)
(transform N7datalog22mk_subsumption_checkerE...13 rules 0s)
(transform N7datalog12mk_bit_blastE...no-op 0s)
(transform N7datalog15mk_rule_inlinerE...3 rules 0.00542955s)
(transform N7datalog13mk_coi_filterE...no-op 0s)
(transform N7datalog25mk_interp_tail_simplifierE...3 rules 0s)
(transform N7datalog22mk_subsumption_checkerE...no-op 0s)
(transform N7datalog15mk_rule_inlinerE...no-op 0s)
(transform N7datalog13mk_coi_filterE...no-op 0s)
(transform N7datalog25mk_interp_tail_simplifierE...3 rules 0s)
(transform N7datalog22mk_subsumption_checkerE...no-op 0s)
(transform N7datalog15mk_rule_inlinerE...no-op 0s)
(transform N7datalog22mk_subsumption_checkerE...no-op 0s)
(transform N7datalog15mk_rule_inlinerE...no-op 0s)
(transform N7datalog22mk_subsumption_checkerE...no-op 0s)
(transform N7datalog15mk_rule_inlinerE...no-op 0s)
(transform N7datalog22mk_subsumption_checkerE...no-op 0s)
(transform N7datalog8mk_sliceE...no-op 0s)
expand: query!0 (0, 0) FAR  w(0) 1. F 0.00
(spacer::context::check_reachability :time 0.00 :before-memory 4.58 :after-memory 5.21)
Entering level 1
BRUNCH_STAT max_query_lvl 0
BRUNCH_STAT num_queries 0
BRUNCH_STAT num_reach_queries 0
BRUNCH_STAT num_reach_reuse 0
BRUNCH_STAT inductive_lvl 0
BRUNCH_STAT max_depth 1
BRUNCH_STAT cex_depth 0
expand: query!0 (1, 0) FAR  w(0) 1.
	create_child: MAIN (0, 1) FAR 4965 U 0.00
expand: MAIN (0, 0) FAR  w(0) 4965. F 0.01
expand: query!0 (1, 0) FAR  w(0) 1. F 0.00
(spacer::context::check_reachability :time 0.01 :before-memory 5.21 :after-memory 6.44)
Propagating: 0 1  ! 2 
(spacer::context::propagate :time 0.00 :before-memory 6.44 :after-memory 6.44)
Entering level 2
BRUNCH_STAT max_query_lvl 1
BRUNCH_STAT num_queries 1
BRUNCH_STAT num_reach_queries 0
BRUNCH_STAT num_reach_reuse 0
BRUNCH_STAT inductive_lvl 0
BRUNCH_STAT max_depth 2
BRUNCH_STAT cex_depth 0
expand: query!0 (2, 0) FAR  w(0) 1.
	create_child: MAIN (1, 2) FAR 4965 U 0.00
expand: MAIN (1, 0) FAR  w(0) 4965.
	create_child: MAIN (0, 2) FAR 9160 U 0.00
expand: MAIN (0, 0) FAR  w(0) 9160. F 0.00
expand: MAIN (1, 0) FAR  w(0) 4965.
	create_child: MAIN (0, 2) FAR 9373 U 0.00
expand: MAIN (0, 0) FAR  w(0) 9373. F 0.00
expand: MAIN (1, 0) FAR  w(0) 4965.
	create_child: MAIN (0, 2) FAR 9294 U 0.00
expand: MAIN (0, 0) FAR  w(0) 9294. F 0.00
expand: MAIN (1, 0) FAR  w(0) 4965.
	create_child: MAIN (0, 2) FAR 9523 U 0.00
expand: MAIN (0, 0) FAR  w(0) 9523. F 0.00
expand: MAIN (1, 0) FAR  w(0) 4965.
	create_child: MAIN (0, 2) FAR 9458 U 0.00
expand: MAIN (0, 0) FAR  w(0) 9458. F 0.00
expand: MAIN (1, 0) FAR  w(0) 4965.
	create_child: MAIN (0, 2) FAR 9706 U 0.00
expand: MAIN (0, 0) FAR  w(0) 9706. F 0.00
expand: MAIN (1, 0) FAR  w(0) 4965.
	create_child: MAIN (0, 2) FAR 9917 U 0.00
expand: MAIN (0, 0) FAR  w(0) 9917. F 0.00
expand: MAIN (1, 0) FAR  w(0) 4965. F 0.00
expand: query!0 (2, 0) FAR  w(0) 1. F 0.00
(spacer::context::check_reachability :time 0.02 :before-memory 6.44 :after-memory 6.73)
Propagating: 0 1 2  ! 3 
(spacer::context::propagate :time 0.00 :before-memory 6.73 :after-memory 6.73)
Entering level 3
BRUNCH_STAT max_query_lvl 2
BRUNCH_STAT num_queries 9
BRUNCH_STAT num_reach_queries 0
BRUNCH_STAT num_reach_reuse 0
BRUNCH_STAT inductive_lvl 0
BRUNCH_STAT max_depth 3
BRUNCH_STAT cex_depth 0
expand: query!0 (3, 0) FAR  w(0) 1.
	create_child: MAIN (2, 3) FAR 4965 U 0.00
expand: MAIN (2, 0) FAR  w(0) 4965.
	create_child: MAIN (1, 3) FAR 10913 U 0.00
expand: MAIN (1, 0) FAR  w(0) 10913. F 0.00
expand: MAIN (2, 0) FAR  w(0) 4965.
	create_child: MAIN (1, 3) FAR 9458 U 0.00
expand: MAIN (1, 0) FAR  w(0) 9458. F 0.01
expand: MAIN (2, 0) FAR  w(0) 4965.
	create_child: MAIN (1, 3) FAR 11746 U 0.00
expand: MAIN (1, 0) FAR  w(0) 11746. F 0.00
expand: MAIN (2, 0) FAR  w(0) 4965.
	create_child: MAIN (1, 3) FAR 9917 U 0.00
expand: MAIN (1, 0) FAR  w(0) 9917. F 0.01
expand: MAIN (2, 0) FAR  w(0) 4965. F 0.00
expand: query!0 (3, 0) FAR  w(0) 1. F 0.00
(spacer::context::check_reachability :time 0.03 :before-memory 6.73 :after-memory 7.24)
Propagating: 1 2 3  ! 4 
(spacer::context::propagate :time 0.00 :before-memory 7.24 :after-memory 7.24)
Entering level 4
BRUNCH_STAT max_query_lvl 3
BRUNCH_STAT num_queries 14
BRUNCH_STAT num_reach_queries 0
BRUNCH_STAT num_reach_reuse 0
BRUNCH_STAT inductive_lvl 0
BRUNCH_STAT max_depth 4
BRUNCH_STAT cex_depth 0
expand: query!0 (4, 0) FAR  w(0) 1.
	create_child: MAIN (3, 4) FAR 4965 U 0.00
expand: MAIN (3, 0) FAR  w(0) 4965.
	create_child: MAIN (2, 4) FAR 9917 U 0.00
expand: MAIN (2, 0) FAR  w(0) 9917. F 0.00
expand: MAIN (3, 0) FAR  w(0) 4965.
	create_child: MAIN (2, 4) FAR 11746 U 0.00
expand: MAIN (2, 0) FAR  w(0) 11746.
	create_child: MAIN (1, 4) FAR 13677 U 0.00
expand: MAIN (1, 0) FAR  w(0) 13677. F 0.00
expand: MAIN (2, 0) FAR  w(0) 11746.
	create_child: MAIN (1, 4) FAR 13819 U 0.00
expand: MAIN (1, 0) FAR  w(0) 13819. F 0.00
expand: MAIN (2, 0) FAR  w(0) 11746. F 0.00
expand: MAIN (3, 0) FAR  w(0) 4965.
	create_child: MAIN (2, 4) FAR 9458 U 0.00
expand: MAIN (2, 0) FAR  w(0) 9458. F 0.00
expand: MAIN (3, 0) FAR  w(0) 4965. F 0.00
expand: query!0 (4, 0) FAR  w(0) 1. F 0.00
(spacer::context::check_reachability :time 0.03 :before-memory 7.24 :after-memory 7.49)
Propagating: 1 2 3 4  ! 5 
(spacer::context::propagate :time 0.01 :before-memory 7.49 :after-memory 7.49)
Entering level 5
BRUNCH_STAT max_query_lvl 4
BRUNCH_STAT num_queries 20
BRUNCH_STAT num_reach_queries 0
BRUNCH_STAT num_reach_reuse 0
BRUNCH_STAT inductive_lvl 0
BRUNCH_STAT max_depth 5
BRUNCH_STAT cex_depth 0
expand: query!0 (5, 0) FAR  w(0) 1.
	create_child: MAIN (4, 5) FAR 4965 U 0.00
expand: MAIN (4, 0) FAR  w(0) 4965.
	create_child: MAIN (3, 5) FAR 9917 U 0.00
expand: MAIN (3, 0) FAR  w(0) 9917.
	create_child: MAIN (2, 5) FAR 15242 U 0.00
expand: MAIN (2, 0) FAR  w(0) 15242. F 0.00
expand: MAIN (3, 0) FAR  w(0) 9917. F 0.00
expand: MAIN (4, 0) FAR  w(0) 4965.
	create_child: MAIN (3, 5) FAR 9458 U 0.00
expand: MAIN (3, 0) FAR  w(0) 9458.
	create_child: MAIN (2, 5) FAR 13819 U 0.00
expand: MAIN (2, 0) FAR  w(0) 13819. F 0.00
expand: MAIN (3, 0) FAR  w(0) 9458. F 0.01
expand: MAIN (4, 0) FAR  w(0) 4965.
	create_child: MAIN (3, 5) FAR 11746 U 0.00
expand: MAIN (3, 0) FAR  w(0) 11746. F 0.00
expand: MAIN (4, 0) FAR  w(0) 4965. F 0.00
expand: query!0 (5, 0) FAR  w(0) 1. F 0.00
(spacer::context::check_reachability :time 0.03 :before-memory 7.49 :after-memory 7.73)
Propagating: 2 
(spacer::context::propagate :time 0.00 :before-memory 7.73 :after-memory 7.73)
(define-fun MAIN ((x!0 Int)
 (x!1 Bool)
 (x!2 Int)
 (x!3 Int)
 (x!4 Int)
 (x!5 Int)
 (x!6 Int)
 (x!7 Int)
 (x!8 Bool)
 (x!9 Bool)
 (x!10 Bool)
 (x!11 Bool)) Bool
  (let ((a!1 (or (<= (+ x!3 (* (- 1) x!0)) 0) (not x!9)))
        (a!2 (not (>= (+ x!3 (* (- 1) x!0)) 0))))
    (and (or (= x!5 0) (not x!9) (<= x!6 0))
         x!11
         (not x!1)
         (not x!10)
         a!1
         (or (not (<= x!0 0)) (not x!9))
         (or (<= x!6 0) (not x!9) a!2)
         (or a!2 (not x!9) (<= x!5 0))
         (not (>= x!5 2))
         (or (<= x!4 0) (= x!5 0) (not x!9))
         (or (<= x!4 0) (not x!9) a!2))))
BRUNCH_STAT max_query_lvl 5
BRUNCH_STAT num_queries 26
BRUNCH_STAT num_reach_queries 0
BRUNCH_STAT num_reach_reuse 0
BRUNCH_STAT inductive_lvl 2
BRUNCH_STAT max_depth 5
BRUNCH_STAT cex_depth 0
(:SPACER-inductive-level               2
 :SPACER-max-depth                     5
 :SPACER-max-query-lvl                 5
 :SPACER-num-invariants                13
 :SPACER-num-lemmas                    32
 :SPACER-num-properties                18
 :SPACER-num-queries                   26
 :added-eqs                            4259
 :arith-add-rows                       1121
 :arith-assert-diseq                   1719
 :arith-assert-lower                   3709
 :arith-assert-upper                   3261
 :arith-bound-prop                     179
 :arith-conflicts                      19
 :arith-eq-adapter                     566
 :arith-fixed-eqs                      654
 :arith-offset-eqs                     866
 :arith-pivots                         319
 :bool-inductive-gen                   26
 :bool-inductive-gen-failures          49
 :conflicts                            285
 :decisions                            6085
 :del-clause                           576
 :final-checks                         95
 :minimized-lits                       230
 :mk-bool-var                          1138
 :mk-clause                            2764
 :num-checks                           198
 :propagations                         62328
 :time.itp_solver.itp_core             0.02
 :time.spacer.init_rules               0.00
 :time.spacer.init_rules.pt.init       0.00
 :time.spacer.solve                    0.13
 :time.spacer.solve.propagate          0.02
 :time.spacer.solve.reach              0.11
 :time.spacer.solve.reach.children     0.02
 :time.spacer.solve.reach.gen.bool_ind 0.03
 :time.virtual_solver.proof            0.01
 :time.virtual_solver.smt.total        0.09
 :time.virtual_solver.smt.total.sat    0.05
 :virtual_solver.checks                198
 :virtual_solver.checks.sat            95)
BRUNCH_STAT max_query_lvl 5
BRUNCH_STAT num_queries 26
BRUNCH_STAT num_reach_queries 0
BRUNCH_STAT num_reach_reuse 0
BRUNCH_STAT inductive_lvl 2
BRUNCH_STAT max_depth 5
BRUNCH_STAT cex_depth 0

real	0m0.183s
user	0m0.172s
sys	0m0.008s
