(transform N7datalog13mk_coi_filterE...no-op 0s)
(transform N7datalog25mk_interp_tail_simplifierE...12 rules 0s)
(transform N7datalog27mk_quantifier_instantiationE...no-op 0s)
(transform N7datalog8mk_scaleE...no-op 0s)
(transform N7datalog18mk_karr_invariantsE...no-op 0s)
(transform N7datalog14mk_array_blastE...no-op 0s)
(transform N7datalog22mk_subsumption_checkerE...11 rules 0s)
(transform N7datalog12mk_bit_blastE...no-op 0s)
(transform N7datalog15mk_rule_inlinerE...3 rules 0.00432037s)
(transform N7datalog13mk_coi_filterE...no-op 0s)
(transform N7datalog25mk_interp_tail_simplifierE...3 rules 0s)
(transform N7datalog22mk_subsumption_checkerE...no-op 0s)
(transform N7datalog15mk_rule_inlinerE...no-op 0s)
(transform N7datalog13mk_coi_filterE...no-op 0s)
(transform N7datalog25mk_interp_tail_simplifierE...3 rules 0s)
(transform N7datalog22mk_subsumption_checkerE...no-op 0s)
(transform N7datalog15mk_rule_inlinerE...no-op 0s)
(transform N7datalog22mk_subsumption_checkerE...no-op 0s)
(transform N7datalog15mk_rule_inlinerE...no-op 0s)
(transform N7datalog22mk_subsumption_checkerE...no-op 0s)
(transform N7datalog15mk_rule_inlinerE...no-op 0s)
(transform N7datalog22mk_subsumption_checkerE...no-op 0s)
(transform N7datalog8mk_sliceE...no-op 0s)
expand: query!0 (0, 0) FAR  w(0) 1. F 0.00
(spacer::context::check_reachability :time 0.00 :before-memory 4.54 :after-memory 5.17)
Entering level 1
BRUNCH_STAT max_query_lvl 0
BRUNCH_STAT num_queries 0
BRUNCH_STAT num_reach_queries 0
BRUNCH_STAT num_reach_reuse 0
BRUNCH_STAT inductive_lvl 0
BRUNCH_STAT max_depth 1
BRUNCH_STAT cex_depth 0
expand: query!0 (1, 0) FAR  w(0) 1.
	create_child: MAIN (0, 1) FAR 4523 U 0.00
expand: MAIN (0, 0) FAR  w(0) 4523. F 0.00
expand: query!0 (1, 0) FAR  w(0) 1. F 0.00
(spacer::context::check_reachability :time 0.01 :before-memory 5.17 :after-memory 6.34)
Propagating: 0 1  ! 2 
(spacer::context::propagate :time 0.00 :before-memory 6.34 :after-memory 6.44)
Entering level 2
BRUNCH_STAT max_query_lvl 1
BRUNCH_STAT num_queries 1
BRUNCH_STAT num_reach_queries 0
BRUNCH_STAT num_reach_reuse 0
BRUNCH_STAT inductive_lvl 0
BRUNCH_STAT max_depth 2
BRUNCH_STAT cex_depth 0
expand: query!0 (2, 0) FAR  w(0) 1.
	create_child: MAIN (1, 2) FAR 4523 U 0.00
expand: MAIN (1, 0) FAR  w(0) 4523.
	create_child: MAIN (0, 2) FAR 8772 U 0.00
expand: MAIN (0, 0) FAR  w(0) 8772. F 0.00
expand: MAIN (1, 0) FAR  w(0) 4523.
	create_child: MAIN (0, 2) FAR 8913 U 0.00
expand: MAIN (0, 0) FAR  w(0) 8913. F 0.00
expand: MAIN (1, 0) FAR  w(0) 4523.
	create_child: MAIN (0, 2) FAR 9065 U 0.00
expand: MAIN (0, 0) FAR  w(0) 9065. F 0.00
expand: MAIN (1, 0) FAR  w(0) 4523. F 0.00
expand: query!0 (2, 0) FAR  w(0) 1. F 0.00
(spacer::context::check_reachability :time 0.01 :before-memory 6.44 :after-memory 6.53)
Propagating: 0 1 2  ! 3 
(spacer::context::propagate :time 0.00 :before-memory 6.53 :after-memory 6.53)
Entering level 3
BRUNCH_STAT max_query_lvl 2
BRUNCH_STAT num_queries 5
BRUNCH_STAT num_reach_queries 0
BRUNCH_STAT num_reach_reuse 0
BRUNCH_STAT inductive_lvl 0
BRUNCH_STAT max_depth 3
BRUNCH_STAT cex_depth 0
expand: query!0 (3, 0) FAR  w(0) 1.
	create_child: MAIN (2, 3) FAR 4523 U 0.00
expand: MAIN (2, 0) FAR  w(0) 4523.
	create_child: MAIN (1, 3) FAR 9619 U 0.00
expand: MAIN (1, 0) FAR  w(0) 9619. F 0.00
expand: MAIN (2, 0) FAR  w(0) 4523.
	create_child: MAIN (1, 3) FAR 10102 U 0.00
expand: MAIN (1, 0) FAR  w(0) 10102. F 0.00
expand: MAIN (2, 0) FAR  w(0) 4523. F 0.00
expand: query!0 (3, 0) FAR  w(0) 1. F 0.00
(spacer::context::check_reachability :time 0.01 :before-memory 6.53 :after-memory 6.75)
Propagating: 1 2 3  ! 4 
(spacer::context::propagate :time 0.00 :before-memory 6.75 :after-memory 6.75)
Entering level 4
BRUNCH_STAT max_query_lvl 3
BRUNCH_STAT num_queries 8
BRUNCH_STAT num_reach_queries 0
BRUNCH_STAT num_reach_reuse 0
BRUNCH_STAT inductive_lvl 0
BRUNCH_STAT max_depth 4
BRUNCH_STAT cex_depth 0
expand: query!0 (4, 0) FAR  w(0) 1.
	create_child: MAIN (3, 4) FAR 4523 U 0.00
expand: MAIN (3, 0) FAR  w(0) 4523.
	create_child: MAIN (2, 4) FAR 8772 U 0.00
expand: MAIN (2, 0) FAR  w(0) 8772.
	create_child: MAIN (1, 4) FAR 10613 U 0.00
expand: MAIN (1, 0) FAR  w(0) 10613. F 0.00
expand: MAIN (2, 0) FAR  w(0) 8772. F 0.00
expand: MAIN (3, 0) FAR  w(0) 4523. F 0.00
expand: query!0 (4, 0) FAR  w(0) 1. F 0.00
(spacer::context::check_reachability :time 0.01 :before-memory 6.75 :after-memory 6.75)
Propagating: 1 
(spacer::context::propagate :time 0.00 :before-memory 6.75 :after-memory 6.75)
(define-fun MAIN ((x!0 Int)
 (x!1 Int)
 (x!2 Int)
 (x!3 Int)
 (x!4 Int)
 (x!5 Int)
 (x!6 Bool)
 (x!7 Bool)
 (x!8 Bool)
 (x!9 Bool)) Bool
  (and (>= x!1 0) x!9 (>= x!2 0)))
BRUNCH_STAT max_query_lvl 4
BRUNCH_STAT num_queries 11
BRUNCH_STAT num_reach_queries 0
BRUNCH_STAT num_reach_reuse 0
BRUNCH_STAT inductive_lvl 1
BRUNCH_STAT max_depth 4
BRUNCH_STAT cex_depth 0
(:SPACER-inductive-level               1
 :SPACER-max-depth                     4
 :SPACER-max-query-lvl                 4
 :SPACER-num-invariants                5
 :SPACER-num-lemmas                    16
 :SPACER-num-properties                7
 :SPACER-num-queries                   11
 :added-eqs                            717
 :arith-add-rows                       391
 :arith-assert-diseq                   474
 :arith-assert-lower                   792
 :arith-assert-upper                   730
 :arith-bound-prop                     110
 :arith-conflicts                      12
 :arith-eq-adapter                     173
 :arith-fixed-eqs                      84
 :arith-offset-eqs                     108
 :arith-pivots                         108
 :bool-inductive-gen                   11
 :bool-inductive-gen-failures          11
 :conflicts                            125
 :decisions                            1214
 :del-clause                           195
 :final-checks                         22
 :minimized-lits                       61
 :mk-bool-var                          814
 :mk-clause                            2069
 :num-checks                           63
 :propagations                         14334
 :time.itp_solver.itp_core             0.01
 :time.spacer.init_rules               0.00
 :time.spacer.init_rules.pt.init       0.00
 :time.spacer.solve                    0.04
 :time.spacer.solve.propagate          0.01
 :time.spacer.solve.reach              0.03
 :time.spacer.solve.reach.children     0.00
 :time.spacer.solve.reach.gen.bool_ind 0.00
 :time.virtual_solver.proof            0.00
 :time.virtual_solver.smt.total        0.03
 :time.virtual_solver.smt.total.sat    0.01
 :virtual_solver.checks                63
 :virtual_solver.checks.sat            22)
BRUNCH_STAT max_query_lvl 4
BRUNCH_STAT num_queries 11
BRUNCH_STAT num_reach_queries 0
BRUNCH_STAT num_reach_reuse 0
BRUNCH_STAT inductive_lvl 1
BRUNCH_STAT max_depth 4
BRUNCH_STAT cex_depth 0

real	0m0.071s
user	0m0.060s
sys	0m0.008s
