(transform N7datalog13mk_coi_filterE...no-op 0s)
(transform N7datalog25mk_interp_tail_simplifierE...14 rules 0s)
(transform N7datalog27mk_quantifier_instantiationE...no-op 0s)
(transform N7datalog8mk_scaleE...no-op 0s)
(transform N7datalog18mk_karr_invariantsE...no-op 0s)
(transform N7datalog14mk_array_blastE...no-op 0s)
(transform N7datalog22mk_subsumption_checkerE...13 rules 0s)
(transform N7datalog12mk_bit_blastE...no-op 0s)
(transform N7datalog15mk_rule_inlinerE...3 rules 0.00608009s)
(transform N7datalog13mk_coi_filterE...no-op 0s)
(transform N7datalog25mk_interp_tail_simplifierE...3 rules 0s)
(transform N7datalog22mk_subsumption_checkerE...no-op 0s)
(transform N7datalog15mk_rule_inlinerE...no-op 0s)
(transform N7datalog13mk_coi_filterE...no-op 0s)
(transform N7datalog25mk_interp_tail_simplifierE...3 rules 0s)
(transform N7datalog22mk_subsumption_checkerE...no-op 0s)
(transform N7datalog15mk_rule_inlinerE...no-op 0s)
(transform N7datalog22mk_subsumption_checkerE...no-op 0s)
(transform N7datalog15mk_rule_inlinerE...no-op 0s)
(transform N7datalog22mk_subsumption_checkerE...no-op 0s)
(transform N7datalog15mk_rule_inlinerE...no-op 0s)
(transform N7datalog22mk_subsumption_checkerE...no-op 0s)
(transform N7datalog8mk_sliceE...no-op 0s)
expand: query!0 (0, 0) FAR  w(0) 1. F 0.00
(spacer::context::check_reachability :time 0.00 :before-memory 4.63 :after-memory 5.27)
Entering level 1
BRUNCH_STAT max_query_lvl 0
BRUNCH_STAT num_queries 0
BRUNCH_STAT num_reach_queries 0
BRUNCH_STAT num_reach_reuse 0
BRUNCH_STAT inductive_lvl 0
BRUNCH_STAT max_depth 1
BRUNCH_STAT cex_depth 0
expand: query!0 (1, 0) FAR  w(0) 1.
	create_child: MAIN (0, 1) FAR 5394 U 0.00
expand: MAIN (0, 0) FAR  w(0) 5394. F 0.01
expand: query!0 (1, 0) FAR  w(0) 1. F 0.00
(spacer::context::check_reachability :time 0.01 :before-memory 5.27 :after-memory 6.57)
Propagating: 0 1  ! 2 
(spacer::context::propagate :time 0.00 :before-memory 6.57 :after-memory 6.66)
Entering level 2
BRUNCH_STAT max_query_lvl 1
BRUNCH_STAT num_queries 1
BRUNCH_STAT num_reach_queries 0
BRUNCH_STAT num_reach_reuse 0
BRUNCH_STAT inductive_lvl 0
BRUNCH_STAT max_depth 2
BRUNCH_STAT cex_depth 0
expand: query!0 (2, 0) FAR  w(0) 1.
	create_child: MAIN (1, 2) FAR 5394 U 0.00
expand: MAIN (1, 0) FAR  w(0) 5394.
	create_child: MAIN (0, 2) FAR 11167 U 0.01
expand: MAIN (0, 0) FAR  w(0) 11167. F 0.00
expand: MAIN (1, 0) FAR  w(0) 5394.
	create_child: MAIN (0, 2) FAR 11455 U 0.00
expand: MAIN (0, 0) FAR  w(0) 11455. F 0.00
expand: MAIN (1, 0) FAR  w(0) 5394.
	create_child: MAIN (0, 2) FAR 11527 U 0.00
expand: MAIN (0, 0) FAR  w(0) 11527. F 0.00
expand: MAIN (1, 0) FAR  w(0) 5394.
	create_child: MAIN (0, 2) FAR 11421 U 0.00
expand: MAIN (0, 0) FAR  w(0) 11421. F 0.00
expand: MAIN (1, 0) FAR  w(0) 5394.
	create_child: MAIN (0, 2) FAR 11718 U 0.00
expand: MAIN (0, 0) FAR  w(0) 11718. F 0.00
expand: MAIN (1, 0) FAR  w(0) 5394.
	create_child: MAIN (0, 2) FAR 11786 U 0.00
expand: MAIN (0, 0) FAR  w(0) 11786. F 0.00
expand: MAIN (1, 0) FAR  w(0) 5394.
	create_child: MAIN (0, 2) FAR 11827 U 0.00
expand: MAIN (0, 0) FAR  w(0) 11827. F 0.00
expand: MAIN (1, 0) FAR  w(0) 5394.
	create_child: MAIN (0, 2) FAR 13092 U 0.01
expand: MAIN (0, 0) FAR  w(0) 13092. F 0.00
expand: MAIN (1, 0) FAR  w(0) 5394. F 0.01
expand: query!0 (2, 0) FAR  w(0) 1. F 0.00
(spacer::context::check_reachability :time 0.04 :before-memory 6.66 :after-memory 7.48)
Propagating: 0 1 2  ! 3 
(spacer::context::propagate :time 0.00 :before-memory 7.48 :after-memory 7.48)
Entering level 3
BRUNCH_STAT max_query_lvl 2
BRUNCH_STAT num_queries 10
BRUNCH_STAT num_reach_queries 0
BRUNCH_STAT num_reach_reuse 0
BRUNCH_STAT inductive_lvl 0
BRUNCH_STAT max_depth 3
BRUNCH_STAT cex_depth 0
expand: query!0 (3, 0) FAR  w(0) 1.
	create_child: MAIN (2, 3) FAR 5394 U 0.00
expand: MAIN (2, 0) FAR  w(0) 5394.
	create_child: MAIN (1, 3) FAR 14659 U 0.00
expand: MAIN (1, 0) FAR  w(0) 14659. F 0.00
expand: MAIN (2, 0) FAR  w(0) 5394.
	create_child: MAIN (1, 3) FAR 14799 U 0.00
expand: MAIN (1, 0) FAR  w(0) 14799. F 0.00
expand: MAIN (2, 0) FAR  w(0) 5394.
	create_child: MAIN (1, 3) FAR 15045 U 0.00
expand: MAIN (1, 0) FAR  w(0) 15045. F 0.00
expand: MAIN (2, 0) FAR  w(0) 5394. F 0.01
expand: query!0 (3, 0) FAR  w(0) 1. F 0.00
(spacer::context::check_reachability :time 0.02 :before-memory 7.48 :after-memory 7.86)
Propagating: 1 
(spacer::context::propagate :time 0.00 :before-memory 7.86 :after-memory 7.86)
(define-fun MAIN ((x!0 Int)
 (x!1 Int)
 (x!2 Bool)
 (x!3 Bool)
 (x!4 Int)
 (x!5 Int)
 (x!6 Int)
 (x!7 Int)
 (x!8 Int)
 (x!9 Int)
 (x!10 Bool)
 (x!11 Bool)
 (x!12 Bool)
 (x!13 Bool)) Bool
  (let ((a!1 (or (= (+ x!4 x!5 x!6 x!7 x!8 (* (- 1) x!1)) 0) (not x!11))))
    (and a!1
         x!13
         (not x!10)
         (not x!2)
         (not x!12)
         (not x!3)
         (>= x!7 0)
         (not (>= x!7 2))
         (= (+ x!4 x!5 x!6 x!7 x!8 (* (- 1) x!0)) 0))))
BRUNCH_STAT max_query_lvl 3
BRUNCH_STAT num_queries 14
BRUNCH_STAT num_reach_queries 0
BRUNCH_STAT num_reach_reuse 0
BRUNCH_STAT inductive_lvl 1
BRUNCH_STAT max_depth 3
BRUNCH_STAT cex_depth 0
(:SPACER-inductive-level               1
 :SPACER-max-depth                     3
 :SPACER-max-query-lvl                 3
 :SPACER-num-invariants                10
 :SPACER-num-lemmas                    18
 :SPACER-num-properties                13
 :SPACER-num-queries                   14
 :added-eqs                            1959
 :arith-add-rows                       967
 :arith-assert-diseq                   957
 :arith-assert-lower                   1788
 :arith-assert-upper                   1667
 :arith-bound-prop                     195
 :arith-conflicts                      29
 :arith-eq-adapter                     94
 :arith-fixed-eqs                      279
 :arith-offset-eqs                     450
 :arith-pivots                         154
 :bool-inductive-gen                   14
 :bool-inductive-gen-failures          16
 :conflicts                            290
 :decisions                            1635
 :del-clause                           18
 :final-checks                         25
 :minimized-lits                       613
 :mk-bool-var                          777
 :mk-clause                            2306
 :num-checks                           72
 :propagations                         32450
 :time.itp_solver.itp_core             0.01
 :time.spacer.init_rules               0.00
 :time.spacer.init_rules.pt.init       0.00
 :time.spacer.solve                    0.07
 :time.spacer.solve.propagate          0.01
 :time.spacer.solve.reach              0.07
 :time.spacer.solve.reach.children     0.01
 :time.spacer.solve.reach.gen.bool_ind 0.00
 :time.virtual_solver.proof            0.01
 :time.virtual_solver.smt.total        0.05
 :time.virtual_solver.smt.total.sat    0.02
 :virtual_solver.checks                72
 :virtual_solver.checks.sat            25)
BRUNCH_STAT max_query_lvl 3
BRUNCH_STAT num_queries 14
BRUNCH_STAT num_reach_queries 0
BRUNCH_STAT num_reach_reuse 0
BRUNCH_STAT inductive_lvl 1
BRUNCH_STAT max_depth 3
BRUNCH_STAT cex_depth 0

real	0m0.123s
user	0m0.116s
sys	0m0.004s
