(transform N7datalog13mk_coi_filterE...no-op 0s)
(transform N7datalog25mk_interp_tail_simplifierE...12 rules 0s)
(transform N7datalog27mk_quantifier_instantiationE...no-op 0s)
(transform N7datalog8mk_scaleE...no-op 0s)
(transform N7datalog18mk_karr_invariantsE...no-op 0s)
(transform N7datalog14mk_array_blastE...no-op 0s)
(transform N7datalog22mk_subsumption_checkerE...11 rules 0s)
(transform N7datalog12mk_bit_blastE...no-op 0s)
(transform N7datalog15mk_rule_inlinerE...3 rules 0.0046293s)
(transform N7datalog13mk_coi_filterE...no-op 0s)
(transform N7datalog25mk_interp_tail_simplifierE...3 rules 0s)
(transform N7datalog22mk_subsumption_checkerE...no-op 0s)
(transform N7datalog15mk_rule_inlinerE...no-op 0s)
(transform N7datalog13mk_coi_filterE...no-op 0s)
(transform N7datalog25mk_interp_tail_simplifierE...3 rules 0s)
(transform N7datalog22mk_subsumption_checkerE...no-op 0s)
(transform N7datalog15mk_rule_inlinerE...no-op 0s)
(transform N7datalog22mk_subsumption_checkerE...no-op 0s)
(transform N7datalog15mk_rule_inlinerE...no-op 0s)
(transform N7datalog22mk_subsumption_checkerE...no-op 0s)
(transform N7datalog15mk_rule_inlinerE...no-op 0s)
(transform N7datalog22mk_subsumption_checkerE...no-op 0s)
(transform N7datalog8mk_sliceE...no-op 0s)
expand: query!0 (0, 0) FAR  w(0) 1. F 0.00
(spacer::context::check_reachability :time 0.00 :before-memory 4.58 :after-memory 5.20)
Entering level 1
BRUNCH_STAT max_query_lvl 0
BRUNCH_STAT num_queries 0
BRUNCH_STAT num_reach_queries 0
BRUNCH_STAT num_reach_reuse 0
BRUNCH_STAT inductive_lvl 0
BRUNCH_STAT max_depth 1
BRUNCH_STAT cex_depth 0
expand: query!0 (1, 0) FAR  w(0) 1.
	create_child: MAIN (0, 1) FAR 4748 U 0.00
expand: MAIN (0, 0) FAR  w(0) 4748. F 0.00
expand: query!0 (1, 0) FAR  w(0) 1. F 0.00
(spacer::context::check_reachability :time 0.01 :before-memory 5.20 :after-memory 6.37)
Propagating: 0 1  ! 2 
(spacer::context::propagate :time 0.00 :before-memory 6.37 :after-memory 6.56)
Entering level 2
BRUNCH_STAT max_query_lvl 1
BRUNCH_STAT num_queries 1
BRUNCH_STAT num_reach_queries 0
BRUNCH_STAT num_reach_reuse 0
BRUNCH_STAT inductive_lvl 0
BRUNCH_STAT max_depth 2
BRUNCH_STAT cex_depth 0
expand: query!0 (2, 0) FAR  w(0) 1.
	create_child: MAIN (1, 2) FAR 4748 U 0.00
expand: MAIN (1, 0) FAR  w(0) 4748.
	create_child: MAIN (0, 2) FAR 9967 U 0.00
expand: MAIN (0, 0) FAR  w(0) 9967. F 0.00
expand: MAIN (1, 0) FAR  w(0) 4748.
	create_child: MAIN (0, 2) FAR 10032 U 0.00
expand: MAIN (0, 0) FAR  w(0) 10032. F 0.00
expand: MAIN (1, 0) FAR  w(0) 4748.
	create_child: MAIN (0, 2) FAR 10238 U 0.00
expand: MAIN (0, 0) FAR  w(0) 10238. F 0.00
expand: MAIN (1, 0) FAR  w(0) 4748. F 0.01
expand: query!0 (2, 0) FAR  w(0) 1. F 0.00
(spacer::context::check_reachability :time 0.02 :before-memory 6.56 :after-memory 7.21)
Propagating: 0 1 
(spacer::context::propagate :time 0.01 :before-memory 7.21 :after-memory 7.40)
(define-fun MAIN ((x!0 Int)
 (x!1 Bool)
 (x!2 Int)
 (x!3 Int)
 (x!4 Int)
 (x!5 Int)
 (x!6 Int)
 (x!7 Int)
 (x!8 Bool)
 (x!9 Bool)
 (x!10 Bool)
 (x!11 Bool)) Bool
  (and (= (+ x!2 x!3 x!4 x!5 x!6 (* (- 1) x!0)) 0) x!11 (not x!8)))
BRUNCH_STAT max_query_lvl 2
BRUNCH_STAT num_queries 5
BRUNCH_STAT num_reach_queries 0
BRUNCH_STAT num_reach_reuse 0
BRUNCH_STAT inductive_lvl 1
BRUNCH_STAT max_depth 2
BRUNCH_STAT cex_depth 0
(:SPACER-inductive-level               1
 :SPACER-max-depth                     2
 :SPACER-max-query-lvl                 2
 :SPACER-num-invariants                4
 :SPACER-num-lemmas                    8
 :SPACER-num-properties                5
 :SPACER-num-queries                   5
 :added-eqs                            907
 :arith-add-rows                       332
 :arith-assert-diseq                   565
 :arith-assert-lower                   1110
 :arith-assert-upper                   851
 :arith-bound-prop                     112
 :arith-conflicts                      36
 :arith-eq-adapter                     47
 :arith-fixed-eqs                      186
 :arith-offset-eqs                     110
 :arith-pivots                         83
 :bool-inductive-gen                   5
 :bool-inductive-gen-failures          5
 :conflicts                            246
 :decisions                            587
 :del-clause                           14
 :final-checks                         8
 :minimized-lits                       491
 :mk-bool-var                          574
 :mk-clause                            2039
 :num-checks                           25
 :propagations                         21928
 :restarts                             1
 :time.itp_solver.itp_core             0.00
 :time.spacer.init_rules               0.00
 :time.spacer.init_rules.pt.init       0.00
 :time.spacer.solve                    0.04
 :time.spacer.solve.propagate          0.01
 :time.spacer.solve.reach              0.03
 :time.spacer.solve.reach.children     0.00
 :time.spacer.solve.reach.gen.bool_ind 0.00
 :time.virtual_solver.proof            0.00
 :time.virtual_solver.smt.total        0.03
 :time.virtual_solver.smt.total.sat    0.01
 :virtual_solver.checks                25
 :virtual_solver.checks.sat            8)
BRUNCH_STAT max_query_lvl 2
BRUNCH_STAT num_queries 5
BRUNCH_STAT num_reach_queries 0
BRUNCH_STAT num_reach_reuse 0
BRUNCH_STAT inductive_lvl 1
BRUNCH_STAT max_depth 2
BRUNCH_STAT cex_depth 0

real	0m0.081s
user	0m0.072s
sys	0m0.008s
