(transform N7datalog13mk_coi_filterE...no-op 0s)
(transform N7datalog25mk_interp_tail_simplifierE...12 rules 0s)
(transform N7datalog27mk_quantifier_instantiationE...no-op 0s)
(transform N7datalog8mk_scaleE...no-op 0s)
(transform N7datalog18mk_karr_invariantsE...no-op 0s)
(transform N7datalog14mk_array_blastE...no-op 0s)
(transform N7datalog22mk_subsumption_checkerE...11 rules 0s)
(transform N7datalog12mk_bit_blastE...no-op 0s)
(transform N7datalog15mk_rule_inlinerE...3 rules 0.00439581s)
(transform N7datalog13mk_coi_filterE...no-op 0s)
(transform N7datalog25mk_interp_tail_simplifierE...3 rules 0s)
(transform N7datalog22mk_subsumption_checkerE...no-op 0s)
(transform N7datalog15mk_rule_inlinerE...no-op 0s)
(transform N7datalog13mk_coi_filterE...no-op 0s)
(transform N7datalog25mk_interp_tail_simplifierE...3 rules 0s)
(transform N7datalog22mk_subsumption_checkerE...no-op 0s)
(transform N7datalog15mk_rule_inlinerE...no-op 0s)
(transform N7datalog22mk_subsumption_checkerE...no-op 0s)
(transform N7datalog15mk_rule_inlinerE...no-op 0s)
(transform N7datalog22mk_subsumption_checkerE...no-op 0s)
(transform N7datalog15mk_rule_inlinerE...no-op 0s)
(transform N7datalog22mk_subsumption_checkerE...no-op 0s)
(transform N7datalog8mk_sliceE...no-op 0s)
expand: query!0 (0, 0) FAR  w(0) 1. F 0.00
(spacer::context::check_reachability :time 0.00 :before-memory 4.55 :after-memory 5.17)
Entering level 1
BRUNCH_STAT max_query_lvl 0
BRUNCH_STAT num_queries 0
BRUNCH_STAT num_reach_queries 0
BRUNCH_STAT num_reach_reuse 0
BRUNCH_STAT inductive_lvl 0
BRUNCH_STAT max_depth 1
BRUNCH_STAT cex_depth 0
expand: query!0 (1, 0) FAR  w(0) 1.
	create_child: MAIN (0, 1) FAR 4613 U 0.00
expand: MAIN (0, 0) FAR  w(0) 4613. F 0.00
expand: query!0 (1, 0) FAR  w(0) 1. F 0.00
(spacer::context::check_reachability :time 0.01 :before-memory 5.17 :after-memory 6.33)
Propagating: 0 1  ! 2 
(spacer::context::propagate :time 0.00 :before-memory 6.33 :after-memory 6.43)
Entering level 2
BRUNCH_STAT max_query_lvl 1
BRUNCH_STAT num_queries 1
BRUNCH_STAT num_reach_queries 0
BRUNCH_STAT num_reach_reuse 0
BRUNCH_STAT inductive_lvl 0
BRUNCH_STAT max_depth 2
BRUNCH_STAT cex_depth 0
expand: query!0 (2, 0) FAR  w(0) 1.
	create_child: MAIN (1, 2) FAR 4613 U 0.00
expand: MAIN (1, 0) FAR  w(0) 4613.
	create_child: MAIN (0, 2) FAR 8972 U 0.00
expand: MAIN (0, 0) FAR  w(0) 8972. F 0.00
expand: MAIN (1, 0) FAR  w(0) 4613.
	create_child: MAIN (0, 2) FAR 9263 U 0.00
expand: MAIN (0, 0) FAR  w(0) 9263. F 0.00
expand: MAIN (1, 0) FAR  w(0) 4613. F 0.00
expand: query!0 (2, 0) FAR  w(0) 1. F 0.00
(spacer::context::check_reachability :time 0.01 :before-memory 6.43 :after-memory 6.65)
Propagating: 0 1 2  ! 3 
(spacer::context::propagate :time 0.00 :before-memory 6.65 :after-memory 6.65)
Entering level 3
BRUNCH_STAT max_query_lvl 2
BRUNCH_STAT num_queries 4
BRUNCH_STAT num_reach_queries 0
BRUNCH_STAT num_reach_reuse 0
BRUNCH_STAT inductive_lvl 0
BRUNCH_STAT max_depth 3
BRUNCH_STAT cex_depth 0
expand: query!0 (3, 0) FAR  w(0) 1.
	create_child: MAIN (2, 3) FAR 4613 U 0.00
expand: MAIN (2, 0) FAR  w(0) 4613.
	create_child: MAIN (1, 3) FAR 8972 U 0.00
expand: MAIN (1, 0) FAR  w(0) 8972.
	create_child: MAIN (0, 3) FAR 9903 U 0.00
expand: MAIN (0, 0) FAR  w(0) 9903. F 0.00
expand: MAIN (1, 0) FAR  w(0) 8972. F 0.00
expand: MAIN (2, 0) FAR  w(0) 4613.
	create_child: MAIN (1, 3) FAR 9263 U 0.00
expand: MAIN (1, 0) FAR  w(0) 9263. F 0.00
expand: MAIN (2, 0) FAR  w(0) 4613. F 0.00
expand: query!0 (3, 0) FAR  w(0) 1. F 0.00
(spacer::context::check_reachability :time 0.01 :before-memory 6.65 :after-memory 6.78)
Propagating: 0 1 2 3  ! 4 
(spacer::context::propagate :time 0.00 :before-memory 6.78 :after-memory 6.78)
Entering level 4
BRUNCH_STAT max_query_lvl 3
BRUNCH_STAT num_queries 8
BRUNCH_STAT num_reach_queries 0
BRUNCH_STAT num_reach_reuse 0
BRUNCH_STAT inductive_lvl 0
BRUNCH_STAT max_depth 4
BRUNCH_STAT cex_depth 0
expand: query!0 (4, 0) FAR  w(0) 1.
	create_child: MAIN (3, 4) FAR 4613 U 0.00
expand: MAIN (3, 0) FAR  w(0) 4613.
	create_child: MAIN (2, 4) FAR 11002 U 0.00
expand: MAIN (2, 0) FAR  w(0) 11002. F 0.00
expand: MAIN (3, 0) FAR  w(0) 4613.
	create_child: MAIN (2, 4) FAR 11032 U 0.00
expand: MAIN (2, 0) FAR  w(0) 11032.
	create_child: MAIN (1, 4) FAR 11126 U 0.00
expand: MAIN (1, 0) FAR  w(0) 11126. F 0.00
expand: MAIN (2, 0) FAR  w(0) 11032. F 0.00
expand: MAIN (3, 0) FAR  w(0) 4613. F 0.00
expand: query!0 (4, 0) FAR  w(0) 1. F 0.00
(spacer::context::check_reachability :time 0.01 :before-memory 6.78 :after-memory 6.92)
Propagating: 1 
(spacer::context::propagate :time 0.00 :before-memory 6.92 :after-memory 6.92)
(define-fun MAIN ((x!0 Int)
 (x!1 Int)
 (x!2 Int)
 (x!3 Int)
 (x!4 Int)
 (x!5 Int)
 (x!6 Bool)
 (x!7 Bool)
 (x!8 Bool)
 (x!9 Bool)) Bool
  (and (>= x!1 0) x!9 (>= x!2 0) (not x!8)))
BRUNCH_STAT max_query_lvl 4
BRUNCH_STAT num_queries 12
BRUNCH_STAT num_reach_queries 0
BRUNCH_STAT num_reach_reuse 0
BRUNCH_STAT inductive_lvl 1
BRUNCH_STAT max_depth 4
BRUNCH_STAT cex_depth 0
(:SPACER-inductive-level               1
 :SPACER-max-depth                     4
 :SPACER-max-query-lvl                 4
 :SPACER-num-invariants                6
 :SPACER-num-lemmas                    17
 :SPACER-num-properties                8
 :SPACER-num-queries                   12
 :added-eqs                            679
 :arith-add-rows                       525
 :arith-assert-diseq                   394
 :arith-assert-lower                   862
 :arith-assert-upper                   618
 :arith-bound-prop                     149
 :arith-conflicts                      9
 :arith-eq-adapter                     160
 :arith-fixed-eqs                      89
 :arith-offset-eqs                     141
 :arith-pivots                         144
 :bool-inductive-gen                   12
 :bool-inductive-gen-failures          12
 :conflicts                            115
 :decisions                            1150
 :del-clause                           164
 :final-checks                         25
 :minimized-lits                       27
 :mk-bool-var                          805
 :mk-clause                            2090
 :num-checks                           67
 :propagations                         16056
 :time.itp_solver.itp_core             0.01
 :time.spacer.init_rules               0.00
 :time.spacer.init_rules.pt.init       0.00
 :time.spacer.solve                    0.04
 :time.spacer.solve.propagate          0.01
 :time.spacer.solve.reach              0.03
 :time.spacer.solve.reach.children     0.01
 :time.spacer.solve.reach.gen.bool_ind 0.00
 :time.virtual_solver.proof            0.00
 :time.virtual_solver.smt.total        0.03
 :time.virtual_solver.smt.total.sat    0.01
 :virtual_solver.checks                67
 :virtual_solver.checks.sat            25)
BRUNCH_STAT max_query_lvl 4
BRUNCH_STAT num_queries 12
BRUNCH_STAT num_reach_queries 0
BRUNCH_STAT num_reach_reuse 0
BRUNCH_STAT inductive_lvl 1
BRUNCH_STAT max_depth 4
BRUNCH_STAT cex_depth 0

real	0m0.074s
user	0m0.068s
sys	0m0.004s
