(transform N7datalog13mk_coi_filterE...no-op 0s)
(transform N7datalog25mk_interp_tail_simplifierE...14 rules 0s)
(transform N7datalog27mk_quantifier_instantiationE...no-op 0s)
(transform N7datalog8mk_scaleE...no-op 0s)
(transform N7datalog18mk_karr_invariantsE...no-op 0s)
(transform N7datalog14mk_array_blastE...no-op 0s)
(transform N7datalog22mk_subsumption_checkerE...13 rules 0s)
(transform N7datalog12mk_bit_blastE...no-op 0s)
(transform N7datalog15mk_rule_inlinerE...3 rules 0.00537155s)
(transform N7datalog13mk_coi_filterE...no-op 0s)
(transform N7datalog25mk_interp_tail_simplifierE...3 rules 0s)
(transform N7datalog22mk_subsumption_checkerE...no-op 0s)
(transform N7datalog15mk_rule_inlinerE...no-op 0s)
(transform N7datalog13mk_coi_filterE...no-op 0s)
(transform N7datalog25mk_interp_tail_simplifierE...3 rules 0s)
(transform N7datalog22mk_subsumption_checkerE...no-op 0s)
(transform N7datalog15mk_rule_inlinerE...no-op 0s)
(transform N7datalog22mk_subsumption_checkerE...no-op 0s)
(transform N7datalog15mk_rule_inlinerE...no-op 0s)
(transform N7datalog22mk_subsumption_checkerE...no-op 0s)
(transform N7datalog15mk_rule_inlinerE...no-op 0s)
(transform N7datalog22mk_subsumption_checkerE...no-op 0s)
(transform N7datalog8mk_sliceE...no-op 0s)
expand: query!0 (0, 0) FAR  w(0) 1. F 0.00
(spacer::context::check_reachability :time 0.00 :before-memory 4.58 :after-memory 5.21)
Entering level 1
BRUNCH_STAT max_query_lvl 0
BRUNCH_STAT num_queries 0
BRUNCH_STAT num_reach_queries 0
BRUNCH_STAT num_reach_reuse 0
BRUNCH_STAT inductive_lvl 0
BRUNCH_STAT max_depth 1
BRUNCH_STAT cex_depth 0
expand: query!0 (1, 0) FAR  w(0) 1.
	create_child: MAIN (0, 1) FAR 4990 U 0.00
expand: MAIN (0, 0) FAR  w(0) 4990. F 0.00
expand: query!0 (1, 0) FAR  w(0) 1. F 0.00
(spacer::context::check_reachability :time 0.01 :before-memory 5.21 :after-memory 6.46)
Propagating: 0 1  ! 2 
(spacer::context::propagate :time 0.00 :before-memory 6.46 :after-memory 6.56)
Entering level 2
BRUNCH_STAT max_query_lvl 1
BRUNCH_STAT num_queries 1
BRUNCH_STAT num_reach_queries 0
BRUNCH_STAT num_reach_reuse 0
BRUNCH_STAT inductive_lvl 0
BRUNCH_STAT max_depth 2
BRUNCH_STAT cex_depth 0
expand: query!0 (2, 0) FAR  w(0) 1.
	create_child: MAIN (1, 2) FAR 4990 U 0.00
expand: MAIN (1, 0) FAR  w(0) 4990.
	create_child: MAIN (0, 2) FAR 10258 U 0.00
expand: MAIN (0, 0) FAR  w(0) 10258. F 0.00
expand: MAIN (1, 0) FAR  w(0) 4990.
	create_child: MAIN (0, 2) FAR 10357 U 0.00
expand: MAIN (0, 0) FAR  w(0) 10357. F 0.00
expand: MAIN (1, 0) FAR  w(0) 4990.
	create_child: MAIN (0, 2) FAR 10557 U 0.00
expand: MAIN (0, 0) FAR  w(0) 10557. F 0.00
expand: MAIN (1, 0) FAR  w(0) 4990.
	create_child: MAIN (0, 2) FAR 10978 U 0.00
expand: MAIN (0, 0) FAR  w(0) 10978. F 0.00
expand: MAIN (1, 0) FAR  w(0) 4990. F 0.01
expand: query!0 (2, 0) FAR  w(0) 1. F 0.00
(spacer::context::check_reachability :time 0.02 :before-memory 6.56 :after-memory 7.23)
Propagating: 0 1 2  ! 3 
(spacer::context::propagate :time 0.00 :before-memory 7.23 :after-memory 7.33)
Entering level 3
BRUNCH_STAT max_query_lvl 2
BRUNCH_STAT num_queries 6
BRUNCH_STAT num_reach_queries 0
BRUNCH_STAT num_reach_reuse 0
BRUNCH_STAT inductive_lvl 0
BRUNCH_STAT max_depth 3
BRUNCH_STAT cex_depth 0
expand: query!0 (3, 0) FAR  w(0) 1.
	create_child: MAIN (2, 3) FAR 4990 U 0.00
expand: MAIN (2, 0) FAR  w(0) 4990.
	create_child: MAIN (1, 3) FAR 13929 U 0.00
expand: MAIN (1, 0) FAR  w(0) 13929. F 0.00
expand: MAIN (2, 0) FAR  w(0) 4990. F 0.00
expand: query!0 (3, 0) FAR  w(0) 1. F 0.00
(spacer::context::check_reachability :time 0.01 :before-memory 7.33 :after-memory 7.39)
Propagating: 1 
(spacer::context::propagate :time 0.00 :before-memory 7.39 :after-memory 7.39)
(define-fun MAIN ((x!0 Int)
 (x!1 Bool)
 (x!2 Int)
 (x!3 Int)
 (x!4 Int)
 (x!5 Int)
 (x!6 Int)
 (x!7 Int)
 (x!8 Bool)
 (x!9 Bool)
 (x!10 Bool)
 (x!11 Bool)) Bool
  (let ((a!1 (or (= (+ x!2 x!3 x!4 x!5 x!6 (* (- 1) x!0)) 0) (not x!9))))
    (and a!1 x!11 (not x!10) (not x!8) (not x!1))))
BRUNCH_STAT max_query_lvl 3
BRUNCH_STAT num_queries 8
BRUNCH_STAT num_reach_queries 0
BRUNCH_STAT num_reach_reuse 0
BRUNCH_STAT inductive_lvl 1
BRUNCH_STAT max_depth 3
BRUNCH_STAT cex_depth 0
(:SPACER-inductive-level               1
 :SPACER-max-depth                     3
 :SPACER-max-query-lvl                 3
 :SPACER-num-invariants                6
 :SPACER-num-lemmas                    12
 :SPACER-num-properties                7
 :SPACER-num-queries                   8
 :added-eqs                            902
 :arith-add-rows                       743
 :arith-assert-diseq                   617
 :arith-assert-lower                   1086
 :arith-assert-upper                   895
 :arith-bound-prop                     107
 :arith-conflicts                      36
 :arith-eq-adapter                     69
 :arith-fixed-eqs                      169
 :arith-offset-eqs                     166
 :arith-pivots                         136
 :bool-inductive-gen                   8
 :bool-inductive-gen-failures          9
 :conflicts                            163
 :decisions                            1062
 :del-clause                           29
 :final-checks                         16
 :minimized-lits                       335
 :mk-bool-var                          649
 :mk-clause                            1968
 :num-checks                           43
 :propagations                         17564
 :time.itp_solver.itp_core             0.01
 :time.spacer.init_rules               0.00
 :time.spacer.init_rules.pt.init       0.00
 :time.spacer.solve                    0.04
 :time.spacer.solve.propagate          0.01
 :time.spacer.solve.reach              0.04
 :time.spacer.solve.reach.children     0.00
 :time.spacer.solve.reach.gen.bool_ind 0.00
 :time.virtual_solver.proof            0.00
 :time.virtual_solver.smt.total        0.03
 :time.virtual_solver.smt.total.sat    0.01
 :virtual_solver.checks                43
 :virtual_solver.checks.sat            16)
BRUNCH_STAT max_query_lvl 3
BRUNCH_STAT num_queries 8
BRUNCH_STAT num_reach_queries 0
BRUNCH_STAT num_reach_reuse 0
BRUNCH_STAT inductive_lvl 1
BRUNCH_STAT max_depth 3
BRUNCH_STAT cex_depth 0

real	0m0.089s
user	0m0.076s
sys	0m0.008s
