(transform N7datalog13mk_coi_filterE...no-op 0s)
(transform N7datalog25mk_interp_tail_simplifierE...11 rules 0s)
(transform N7datalog27mk_quantifier_instantiationE...no-op 0s)
(transform N7datalog8mk_scaleE...no-op 0s)
(transform N7datalog18mk_karr_invariantsE...no-op 0s)
(transform N7datalog14mk_array_blastE...no-op 0s)
(transform N7datalog22mk_subsumption_checkerE...10 rules 0s)
(transform N7datalog12mk_bit_blastE...no-op 0s)
(transform N7datalog15mk_rule_inlinerE...3 rules 0.0013418s)
(transform N7datalog13mk_coi_filterE...no-op 0s)
(transform N7datalog25mk_interp_tail_simplifierE...3 rules 0s)
(transform N7datalog22mk_subsumption_checkerE...no-op 0s)
(transform N7datalog15mk_rule_inlinerE...no-op 0s)
(transform N7datalog13mk_coi_filterE...no-op 0s)
(transform N7datalog25mk_interp_tail_simplifierE...3 rules 0s)
(transform N7datalog22mk_subsumption_checkerE...no-op 0s)
(transform N7datalog15mk_rule_inlinerE...no-op 0s)
(transform N7datalog22mk_subsumption_checkerE...no-op 0s)
(transform N7datalog15mk_rule_inlinerE...no-op 0s)
(transform N7datalog22mk_subsumption_checkerE...no-op 0s)
(transform N7datalog15mk_rule_inlinerE...no-op 0s)
(transform N7datalog22mk_subsumption_checkerE...no-op 0s)
(transform N7datalog8mk_sliceE...no-op 0s)
expand: query!0 (0, 0) FAR  w(0) 1. F 0.00
(spacer::context::check_reachability :time 0.00 :before-memory 4.18 :after-memory 4.79)
Entering level 1
BRUNCH_STAT max_query_lvl 0
BRUNCH_STAT num_queries 0
BRUNCH_STAT num_reach_queries 0
BRUNCH_STAT num_reach_reuse 0
BRUNCH_STAT inductive_lvl 0
BRUNCH_STAT max_depth 1
BRUNCH_STAT cex_depth 0
expand: query!0 (1, 0) FAR  w(0) 1.
	create_child: MAIN (0, 1) FAR 1208 U 0.00
expand: MAIN (0, 0) FAR  w(0) 1208. F 0.00
expand: query!0 (1, 0) FAR  w(0) 1. F 0.00
(spacer::context::check_reachability :time 0.00 :before-memory 4.79 :after-memory 5.30)
Propagating: 0 1  ! 2 
(spacer::context::propagate :time 0.00 :before-memory 5.30 :after-memory 5.30)
Entering level 2
BRUNCH_STAT max_query_lvl 1
BRUNCH_STAT num_queries 1
BRUNCH_STAT num_reach_queries 0
BRUNCH_STAT num_reach_reuse 0
BRUNCH_STAT inductive_lvl 0
BRUNCH_STAT max_depth 2
BRUNCH_STAT cex_depth 0
expand: query!0 (2, 0) FAR  w(0) 1.
	create_child: MAIN (1, 2) FAR 1208 U 0.00
expand: MAIN (1, 0) FAR  w(0) 1208.
	create_child: MAIN (0, 2) FAR 2053 U 0.00
expand: MAIN (0, 0) FAR  w(0) 2053. F 0.00
expand: MAIN (1, 0) FAR  w(0) 1208.
	create_child: MAIN (0, 2) FAR 2142 U 0.00
expand: MAIN (0, 0) FAR  w(0) 2142. F 0.00
expand: MAIN (1, 0) FAR  w(0) 1208. F 0.00
expand: query!0 (2, 0) FAR  w(0) 1. F 0.00
(spacer::context::check_reachability :time 0.00 :before-memory 5.30 :after-memory 5.30)
Propagating: 0 1 2  ! 3 
(spacer::context::propagate :time 0.00 :before-memory 5.30 :after-memory 5.30)
Entering level 3
BRUNCH_STAT max_query_lvl 2
BRUNCH_STAT num_queries 4
BRUNCH_STAT num_reach_queries 0
BRUNCH_STAT num_reach_reuse 0
BRUNCH_STAT inductive_lvl 0
BRUNCH_STAT max_depth 3
BRUNCH_STAT cex_depth 0
expand: query!0 (3, 0) FAR  w(0) 1.
	create_child: MAIN (2, 3) FAR 1208 U 0.00
expand: MAIN (2, 0) FAR  w(0) 1208.
	create_child: MAIN (1, 3) FAR 2391 U 0.00
expand: MAIN (1, 0) FAR  w(0) 2391. F 0.00
expand: MAIN (2, 0) FAR  w(0) 1208.
	create_child: MAIN (1, 3) FAR 2534 U 0.00
expand: MAIN (1, 0) FAR  w(0) 2534. F 0.00
expand: MAIN (2, 0) FAR  w(0) 1208. F 0.00
expand: query!0 (3, 0) FAR  w(0) 1. F 0.00
(spacer::context::check_reachability :time 0.01 :before-memory 5.30 :after-memory 5.58)
Propagating: 1 2 3  ! 4 
(spacer::context::propagate :time 0.00 :before-memory 5.58 :after-memory 5.58)
Entering level 4
BRUNCH_STAT max_query_lvl 3
BRUNCH_STAT num_queries 7
BRUNCH_STAT num_reach_queries 0
BRUNCH_STAT num_reach_reuse 0
BRUNCH_STAT inductive_lvl 0
BRUNCH_STAT max_depth 4
BRUNCH_STAT cex_depth 0
expand: query!0 (4, 0) FAR  w(0) 1.
	create_child: MAIN (3, 4) FAR 1208 U 0.00
expand: MAIN (3, 0) FAR  w(0) 1208.
	create_child: MAIN (2, 4) FAR 2534 U 0.00
expand: MAIN (2, 0) FAR  w(0) 2534. F 0.00
expand: MAIN (3, 0) FAR  w(0) 1208. F 0.00
expand: query!0 (4, 0) FAR  w(0) 1. F 0.00
(spacer::context::check_reachability :time 0.00 :before-memory 5.58 :after-memory 5.58)
Propagating: 2 
(spacer::context::propagate :time 0.00 :before-memory 5.58 :after-memory 5.58)
(define-fun MAIN ((x!0 Bool)
 (x!1 Bool)
 (x!2 Bool)
 (x!3 Bool)
 (x!4 Bool)
 (x!5 Int)
 (x!6 Bool)
 (x!7 Bool)) Bool
  (and (or (not (<= x!5 0)) (not x!0)) x!7 (or (not x!2) (not x!0))))
BRUNCH_STAT max_query_lvl 4
BRUNCH_STAT num_queries 9
BRUNCH_STAT num_reach_queries 0
BRUNCH_STAT num_reach_reuse 0
BRUNCH_STAT inductive_lvl 2
BRUNCH_STAT max_depth 4
BRUNCH_STAT cex_depth 0
(:SPACER-inductive-level               2
 :SPACER-max-depth                     4
 :SPACER-max-query-lvl                 4
 :SPACER-num-invariants                4
 :SPACER-num-lemmas                    14
 :SPACER-num-properties                7
 :SPACER-num-queries                   9
 :added-eqs                            179
 :arith-add-rows                       31
 :arith-assert-diseq                   78
 :arith-assert-lower                   139
 :arith-assert-upper                   206
 :arith-bound-prop                     29
 :arith-conflicts                      6
 :arith-eq-adapter                     88
 :arith-fixed-eqs                      28
 :arith-offset-eqs                     3
 :arith-pivots                         21
 :bool-inductive-gen                   9
 :bool-inductive-gen-failures          12
 :conflicts                            54
 :decisions                            609
 :del-clause                           51
 :final-checks                         24
 :minimized-lits                       1
 :mk-bool-var                          374
 :mk-clause                            467
 :num-checks                           53
 :propagations                         2843
 :time.itp_solver.itp_core             0.00
 :time.spacer.init_rules               0.00
 :time.spacer.init_rules.pt.init       0.00
 :time.spacer.solve                    0.02
 :time.spacer.solve.propagate          0.00
 :time.spacer.solve.reach              0.01
 :time.spacer.solve.reach.children     0.00
 :time.spacer.solve.reach.gen.bool_ind 0.00
 :time.virtual_solver.proof            0.00
 :time.virtual_solver.smt.total        0.01
 :time.virtual_solver.smt.total.sat    0.01
 :virtual_solver.checks                53
 :virtual_solver.checks.sat            24)
BRUNCH_STAT max_query_lvl 4
BRUNCH_STAT num_queries 9
BRUNCH_STAT num_reach_queries 0
BRUNCH_STAT num_reach_reuse 0
BRUNCH_STAT inductive_lvl 2
BRUNCH_STAT max_depth 4
BRUNCH_STAT cex_depth 0

real	0m0.037s
user	0m0.032s
sys	0m0.004s
