(transform N7datalog13mk_coi_filterE...no-op 0s)
(transform N7datalog25mk_interp_tail_simplifierE...14 rules 0s)
(transform N7datalog27mk_quantifier_instantiationE...no-op 0s)
(transform N7datalog8mk_scaleE...no-op 0s)
(transform N7datalog18mk_karr_invariantsE...no-op 0s)
(transform N7datalog14mk_array_blastE...no-op 0s)
(transform N7datalog22mk_subsumption_checkerE...13 rules 0s)
(transform N7datalog12mk_bit_blastE...no-op 0s)
(transform N7datalog15mk_rule_inlinerE...3 rules 0.00405979s)
(transform N7datalog13mk_coi_filterE...no-op 0s)
(transform N7datalog25mk_interp_tail_simplifierE...3 rules 0s)
(transform N7datalog22mk_subsumption_checkerE...no-op 0s)
(transform N7datalog15mk_rule_inlinerE...no-op 0s)
(transform N7datalog13mk_coi_filterE...no-op 0s)
(transform N7datalog25mk_interp_tail_simplifierE...3 rules 0s)
(transform N7datalog22mk_subsumption_checkerE...no-op 0s)
(transform N7datalog15mk_rule_inlinerE...no-op 0s)
(transform N7datalog22mk_subsumption_checkerE...no-op 0s)
(transform N7datalog15mk_rule_inlinerE...no-op 0s)
(transform N7datalog22mk_subsumption_checkerE...no-op 0s)
(transform N7datalog15mk_rule_inlinerE...no-op 0s)
(transform N7datalog22mk_subsumption_checkerE...no-op 0s)
(transform N7datalog8mk_sliceE...no-op 0s)
expand: query!0 (0, 0) FAR  w(0) 1. F 0.00
(spacer::context::check_reachability :time 0.00 :before-memory 4.48 :after-memory 5.09)
Entering level 1
BRUNCH_STAT max_query_lvl 0
BRUNCH_STAT num_queries 0
BRUNCH_STAT num_reach_queries 0
BRUNCH_STAT num_reach_reuse 0
BRUNCH_STAT inductive_lvl 0
BRUNCH_STAT max_depth 1
BRUNCH_STAT cex_depth 0
expand: query!0 (1, 0) FAR  w(0) 1.
	create_child: MAIN (0, 1) FAR 3679 U 0.00
expand: MAIN (0, 0) FAR  w(0) 3679. F 0.00
expand: query!0 (1, 0) FAR  w(0) 1. F 0.00
(spacer::context::check_reachability :time 0.00 :before-memory 5.09 :after-memory 6.12)
Propagating: 0 1  ! 2 
(spacer::context::propagate :time 0.00 :before-memory 6.12 :after-memory 6.12)
Entering level 2
BRUNCH_STAT max_query_lvl 1
BRUNCH_STAT num_queries 1
BRUNCH_STAT num_reach_queries 0
BRUNCH_STAT num_reach_reuse 0
BRUNCH_STAT inductive_lvl 0
BRUNCH_STAT max_depth 2
BRUNCH_STAT cex_depth 0
expand: query!0 (2, 0) FAR  w(0) 1.
	create_child: MAIN (1, 2) FAR 3679 U 0.00
expand: MAIN (1, 0) FAR  w(0) 3679.
	create_child: MAIN (0, 2) FAR 7658 U 0.00
expand: MAIN (0, 0) FAR  w(0) 7658. F 0.00
expand: MAIN (1, 0) FAR  w(0) 3679.
	create_child: MAIN (0, 2) FAR 7841 U 0.00
expand: MAIN (0, 0) FAR  w(0) 7841. F 0.00
expand: MAIN (1, 0) FAR  w(0) 3679.
	create_child: MAIN (0, 2) FAR 7853 U 0.00
expand: MAIN (0, 0) FAR  w(0) 7853. F 0.00
expand: MAIN (1, 0) FAR  w(0) 3679.
	create_child: MAIN (0, 2) FAR 7904 U 0.00
expand: MAIN (0, 0) FAR  w(0) 7904. F 0.00
expand: MAIN (1, 0) FAR  w(0) 3679.
	create_child: MAIN (0, 2) FAR 8076 U 0.00
expand: MAIN (0, 0) FAR  w(0) 8076. F 0.00
expand: MAIN (1, 0) FAR  w(0) 3679.
	create_child: MAIN (0, 2) FAR 9526 U 0.01
expand: MAIN (0, 0) FAR  w(0) 9526. F 0.00
expand: MAIN (1, 0) FAR  w(0) 3679. F 0.00
expand: query!0 (2, 0) FAR  w(0) 1. F 0.00
(spacer::context::check_reachability :time 0.02 :before-memory 6.12 :after-memory 6.60)
Propagating: 0 1 2  ! 3 
(spacer::context::propagate :time 0.00 :before-memory 6.60 :after-memory 6.60)
Entering level 3
BRUNCH_STAT max_query_lvl 2
BRUNCH_STAT num_queries 8
BRUNCH_STAT num_reach_queries 0
BRUNCH_STAT num_reach_reuse 0
BRUNCH_STAT inductive_lvl 0
BRUNCH_STAT max_depth 3
BRUNCH_STAT cex_depth 0
expand: query!0 (3, 0) FAR  w(0) 1.
	create_child: MAIN (2, 3) FAR 3679 U 0.00
expand: MAIN (2, 0) FAR  w(0) 3679.
	create_child: MAIN (1, 3) FAR 8076 U 0.00
expand: MAIN (1, 0) FAR  w(0) 8076. F 0.00
expand: MAIN (2, 0) FAR  w(0) 3679.
	create_child: MAIN (1, 3) FAR 10794 U 0.00
expand: MAIN (1, 0) FAR  w(0) 10794. F 0.00
expand: MAIN (2, 0) FAR  w(0) 3679.
	create_child: MAIN (1, 3) FAR 9526 U 0.00
expand: MAIN (1, 0) FAR  w(0) 9526. T 0.00
is-reachable: MAIN (2, 0) FAR 3679 T 0.01
is-reachable: query!0 (3, 0) FAR 1 T 0.00
(spacer::context::check_reachability :time 0.03 :before-memory 6.60 :after-memory 7.75)
BRUNCH_STAT max_query_lvl 3
BRUNCH_STAT num_queries 12
BRUNCH_STAT num_reach_queries 3
BRUNCH_STAT num_reach_reuse 1
BRUNCH_STAT inductive_lvl 0
BRUNCH_STAT max_depth 3
BRUNCH_STAT cex_depth 3
(:SPACER-cex-depth                     3
 :SPACER-max-depth                     3
 :SPACER-max-query-lvl                 3
 :SPACER-num-invariants                3
 :SPACER-num-lemmas                    13
 :SPACER-num-properties                10
 :SPACER-num-queries                   12
 :SPACER-num-reach-queries             3
 :SPACER-num-reuse-reach-facts         1
 :added-eqs                            1496
 :arith-add-rows                       688
 :arith-assert-diseq                   664
 :arith-assert-lower                   1233
 :arith-assert-upper                   1186
 :arith-bound-prop                     165
 :arith-conflicts                      26
 :arith-eq-adapter                     169
 :arith-fixed-eqs                      222
 :arith-offset-eqs                     159
 :arith-pivots                         145
 :bool-inductive-gen                   10
 :bool-inductive-gen-failures          11
 :conflicts                            183
 :decisions                            1643
 :del-clause                           66
 :final-checks                         29
 :minimized-lits                       373
 :mk-bool-var                          987
 :mk-clause                            2542
 :num-checks                           62
 :propagations                         19263
 :time.itp_solver.itp_core             0.00
 :time.spacer.init_rules               0.00
 :time.spacer.init_rules.pt.init       0.00
 :time.spacer.solve                    0.06
 :time.spacer.solve.propagate          0.00
 :time.spacer.solve.reach              0.06
 :time.spacer.solve.reach.children     0.01
 :time.spacer.solve.reach.gen.bool_ind 0.00
 :time.spacer.solve.reach.is-reach     0.01
 :time.virtual_solver.proof            0.00
 :time.virtual_solver.smt.total        0.04
 :time.virtual_solver.smt.total.sat    0.02
 :virtual_solver.checks                62
 :virtual_solver.checks.sat            29)
BRUNCH_STAT max_query_lvl 3
BRUNCH_STAT num_queries 12
BRUNCH_STAT num_reach_queries 3
BRUNCH_STAT num_reach_reuse 1
BRUNCH_STAT inductive_lvl 0
BRUNCH_STAT max_depth 3
BRUNCH_STAT cex_depth 3

real	0m0.092s
user	0m0.088s
sys	0m0.004s
