(transform N7datalog13mk_coi_filterE...no-op 0s)
(transform N7datalog25mk_interp_tail_simplifierE...14 rules 0s)
(transform N7datalog27mk_quantifier_instantiationE...no-op 0s)
(transform N7datalog8mk_scaleE...no-op 0s)
(transform N7datalog18mk_karr_invariantsE...no-op 0s)
(transform N7datalog14mk_array_blastE...no-op 0s)
(transform N7datalog22mk_subsumption_checkerE...13 rules 0s)
(transform N7datalog12mk_bit_blastE...no-op 0s)
(transform N7datalog15mk_rule_inlinerE...3 rules 0.00367887s)
(transform N7datalog13mk_coi_filterE...no-op 0s)
(transform N7datalog25mk_interp_tail_simplifierE...3 rules 0s)
(transform N7datalog22mk_subsumption_checkerE...no-op 0s)
(transform N7datalog15mk_rule_inlinerE...no-op 0s)
(transform N7datalog13mk_coi_filterE...no-op 0s)
(transform N7datalog25mk_interp_tail_simplifierE...3 rules 0s)
(transform N7datalog22mk_subsumption_checkerE...no-op 0s)
(transform N7datalog15mk_rule_inlinerE...no-op 0s)
(transform N7datalog22mk_subsumption_checkerE...no-op 0s)
(transform N7datalog15mk_rule_inlinerE...no-op 0s)
(transform N7datalog22mk_subsumption_checkerE...no-op 0s)
(transform N7datalog15mk_rule_inlinerE...no-op 0s)
(transform N7datalog22mk_subsumption_checkerE...no-op 0s)
(transform N7datalog8mk_sliceE...no-op 0s)
expand: query!0 (0, 0) FAR  w(0) 1. F 0.00
(spacer::context::check_reachability :time 0.00 :before-memory 4.45 :after-memory 4.97)
Entering level 1
BRUNCH_STAT max_query_lvl 0
BRUNCH_STAT num_queries 0
BRUNCH_STAT num_reach_queries 0
BRUNCH_STAT num_reach_reuse 0
BRUNCH_STAT inductive_lvl 0
BRUNCH_STAT max_depth 1
BRUNCH_STAT cex_depth 0
expand: query!0 (1, 0) FAR  w(0) 1.
	create_child: MAIN (0, 1) FAR 3386 U 0.00
expand: MAIN (0, 0) FAR  w(0) 3386. F 0.00
expand: query!0 (1, 0) FAR  w(0) 1. F 0.00
(spacer::context::check_reachability :time 0.00 :before-memory 4.97 :after-memory 5.86)
Propagating: 0 1  ! 2 
(spacer::context::propagate :time 0.00 :before-memory 5.86 :after-memory 6.06)
Entering level 2
BRUNCH_STAT max_query_lvl 1
BRUNCH_STAT num_queries 1
BRUNCH_STAT num_reach_queries 0
BRUNCH_STAT num_reach_reuse 0
BRUNCH_STAT inductive_lvl 0
BRUNCH_STAT max_depth 2
BRUNCH_STAT cex_depth 0
expand: query!0 (2, 0) FAR  w(0) 1.
	create_child: MAIN (1, 2) FAR 3386 U 0.00
expand: MAIN (1, 0) FAR  w(0) 3386.
	create_child: MAIN (0, 2) FAR 6055 U 0.00
expand: MAIN (0, 0) FAR  w(0) 6055. F 0.00
expand: MAIN (1, 0) FAR  w(0) 3386.
	create_child: MAIN (0, 2) FAR 6132 U 0.00
expand: MAIN (0, 0) FAR  w(0) 6132. F 0.00
expand: MAIN (1, 0) FAR  w(0) 3386.
	create_child: MAIN (0, 2) FAR 6173 U 0.00
expand: MAIN (0, 0) FAR  w(0) 6173. F 0.00
expand: MAIN (1, 0) FAR  w(0) 3386.
	create_child: MAIN (0, 2) FAR 6319 U 0.00
expand: MAIN (0, 0) FAR  w(0) 6319. F 0.00
expand: MAIN (1, 0) FAR  w(0) 3386. F 0.00
expand: query!0 (2, 0) FAR  w(0) 1. F 0.00
(spacer::context::check_reachability :time 0.01 :before-memory 6.06 :after-memory 6.17)
Propagating: 0 1 2  ! 3 
(spacer::context::propagate :time 0.00 :before-memory 6.17 :after-memory 6.17)
Entering level 3
BRUNCH_STAT max_query_lvl 2
BRUNCH_STAT num_queries 6
BRUNCH_STAT num_reach_queries 0
BRUNCH_STAT num_reach_reuse 0
BRUNCH_STAT inductive_lvl 0
BRUNCH_STAT max_depth 3
BRUNCH_STAT cex_depth 0
expand: query!0 (3, 0) FAR  w(0) 1.
	create_child: MAIN (2, 3) FAR 3386 U 0.00
expand: MAIN (2, 0) FAR  w(0) 3386.
	create_child: MAIN (1, 3) FAR 6701 U 0.00
expand: MAIN (1, 0) FAR  w(0) 6701. F 0.00
expand: MAIN (2, 0) FAR  w(0) 3386.
	create_child: MAIN (1, 3) FAR 6173 U 0.00
expand: MAIN (1, 0) FAR  w(0) 6173. F 0.00
expand: MAIN (2, 0) FAR  w(0) 3386. F 0.00
expand: query!0 (3, 0) FAR  w(0) 1. F 0.00
(spacer::context::check_reachability :time 0.01 :before-memory 6.17 :after-memory 6.31)
Propagating: 1 
(spacer::context::propagate :time 0.00 :before-memory 6.31 :after-memory 6.31)
(define-fun MAIN ((x!0 Int)
 (x!1 Int)
 (x!2 Int)
 (x!3 Int)
 (x!4 Int)
 (x!5 Int)
 (x!6 Bool)
 (x!7 Bool)
 (x!8 Bool)
 (x!9 Int)
 (x!10 Bool)
 (x!11 Bool)) Bool
  (and (>= x!2 0) x!11 (not x!10) (not x!8) (>= x!0 0)))
BRUNCH_STAT max_query_lvl 3
BRUNCH_STAT num_queries 9
BRUNCH_STAT num_reach_queries 0
BRUNCH_STAT num_reach_reuse 0
BRUNCH_STAT inductive_lvl 1
BRUNCH_STAT max_depth 3
BRUNCH_STAT cex_depth 0
(:SPACER-inductive-level               1
 :SPACER-max-depth                     3
 :SPACER-max-query-lvl                 3
 :SPACER-num-invariants                6
 :SPACER-num-lemmas                    13
 :SPACER-num-properties                7
 :SPACER-num-queries                   9
 :added-eqs                            294
 :arith-add-rows                       26
 :arith-assert-diseq                   140
 :arith-assert-lower                   215
 :arith-assert-upper                   281
 :arith-bound-prop                     31
 :arith-conflicts                      4
 :arith-eq-adapter                     95
 :arith-fixed-eqs                      44
 :arith-offset-eqs                     14
 :arith-pivots                         26
 :bool-inductive-gen                   9
 :bool-inductive-gen-failures          8
 :conflicts                            48
 :decisions                            666
 :del-clause                           130
 :final-checks                         16
 :mk-bool-var                          595
 :mk-clause                            1214
 :num-checks                           47
 :propagations                         4787
 :time.itp_solver.itp_core             0.00
 :time.spacer.init_rules               0.00
 :time.spacer.init_rules.pt.init       0.00
 :time.spacer.solve                    0.02
 :time.spacer.solve.propagate          0.00
 :time.spacer.solve.reach              0.02
 :time.spacer.solve.reach.children     0.00
 :time.spacer.solve.reach.gen.bool_ind 0.00
 :time.virtual_solver.proof            0.00
 :time.virtual_solver.smt.total        0.01
 :time.virtual_solver.smt.total.sat    0.01
 :virtual_solver.checks                47
 :virtual_solver.checks.sat            16)
BRUNCH_STAT max_query_lvl 3
BRUNCH_STAT num_queries 9
BRUNCH_STAT num_reach_queries 0
BRUNCH_STAT num_reach_reuse 0
BRUNCH_STAT inductive_lvl 1
BRUNCH_STAT max_depth 3
BRUNCH_STAT cex_depth 0

real	0m0.052s
user	0m0.040s
sys	0m0.008s
