(transform N7datalog13mk_coi_filterE...no-op 0s)
(transform N7datalog25mk_interp_tail_simplifierE...14 rules 0s)
(transform N7datalog27mk_quantifier_instantiationE...no-op 0s)
(transform N7datalog8mk_scaleE...no-op 0s)
(transform N7datalog18mk_karr_invariantsE...no-op 0s)
(transform N7datalog14mk_array_blastE...no-op 0s)
(transform N7datalog22mk_subsumption_checkerE...13 rules 0s)
(transform N7datalog12mk_bit_blastE...no-op 0s)
(transform N7datalog15mk_rule_inlinerE...3 rules 0.00409373s)
(transform N7datalog13mk_coi_filterE...no-op 0s)
(transform N7datalog25mk_interp_tail_simplifierE...3 rules 0s)
(transform N7datalog22mk_subsumption_checkerE...no-op 0s)
(transform N7datalog15mk_rule_inlinerE...no-op 0s)
(transform N7datalog13mk_coi_filterE...no-op 0s)
(transform N7datalog25mk_interp_tail_simplifierE...3 rules 0s)
(transform N7datalog22mk_subsumption_checkerE...no-op 0s)
(transform N7datalog15mk_rule_inlinerE...no-op 0s)
(transform N7datalog22mk_subsumption_checkerE...no-op 0s)
(transform N7datalog15mk_rule_inlinerE...no-op 0s)
(transform N7datalog22mk_subsumption_checkerE...no-op 0s)
(transform N7datalog15mk_rule_inlinerE...no-op 0s)
(transform N7datalog22mk_subsumption_checkerE...no-op 0s)
(transform N7datalog8mk_sliceE...no-op 0s)
expand: query!0 (0, 0) FAR  w(0) 1. F 0.00
(spacer::context::check_reachability :time 0.00 :before-memory 4.49 :after-memory 5.09)
Entering level 1
BRUNCH_STAT max_query_lvl 0
BRUNCH_STAT num_queries 0
BRUNCH_STAT num_reach_queries 0
BRUNCH_STAT num_reach_reuse 0
BRUNCH_STAT inductive_lvl 0
BRUNCH_STAT max_depth 1
BRUNCH_STAT cex_depth 0
expand: query!0 (1, 0) FAR  w(0) 1.
	create_child: MAIN (0, 1) FAR 3692 U 0.00
expand: MAIN (0, 0) FAR  w(0) 3692. F 0.00
expand: query!0 (1, 0) FAR  w(0) 1. F 0.00
(spacer::context::check_reachability :time 0.00 :before-memory 5.09 :after-memory 6.12)
Propagating: 0 1  ! 2 
(spacer::context::propagate :time 0.00 :before-memory 6.12 :after-memory 6.12)
Entering level 2
BRUNCH_STAT max_query_lvl 1
BRUNCH_STAT num_queries 1
BRUNCH_STAT num_reach_queries 0
BRUNCH_STAT num_reach_reuse 0
BRUNCH_STAT inductive_lvl 0
BRUNCH_STAT max_depth 2
BRUNCH_STAT cex_depth 0
expand: query!0 (2, 0) FAR  w(0) 1.
	create_child: MAIN (1, 2) FAR 3692 U 0.00
expand: MAIN (1, 0) FAR  w(0) 3692.
	create_child: MAIN (0, 2) FAR 7296 U 0.00
expand: MAIN (0, 0) FAR  w(0) 7296. F 0.00
expand: MAIN (1, 0) FAR  w(0) 3692.
	create_child: MAIN (0, 2) FAR 7426 U 0.00
expand: MAIN (0, 0) FAR  w(0) 7426. F 0.00
expand: MAIN (1, 0) FAR  w(0) 3692.
	create_child: MAIN (0, 2) FAR 7650 U 0.00
expand: MAIN (0, 0) FAR  w(0) 7650. F 0.00
expand: MAIN (1, 0) FAR  w(0) 3692.
	create_child: MAIN (0, 2) FAR 7795 U 0.00
expand: MAIN (0, 0) FAR  w(0) 7795. F 0.00
expand: MAIN (1, 0) FAR  w(0) 3692.
	create_child: MAIN (0, 2) FAR 7892 U 0.00
expand: MAIN (0, 0) FAR  w(0) 7892. F 0.00
expand: MAIN (1, 0) FAR  w(0) 3692.
	create_child: MAIN (0, 2) FAR 8130 U 0.00
expand: MAIN (0, 0) FAR  w(0) 8130. F 0.00
expand: MAIN (1, 0) FAR  w(0) 3692. F 0.00
expand: query!0 (2, 0) FAR  w(0) 1. F 0.00
(spacer::context::check_reachability :time 0.02 :before-memory 6.12 :after-memory 6.52)
Propagating: 0 1 2  ! 3 
(spacer::context::propagate :time 0.00 :before-memory 6.52 :after-memory 6.52)
Entering level 3
BRUNCH_STAT max_query_lvl 2
BRUNCH_STAT num_queries 8
BRUNCH_STAT num_reach_queries 0
BRUNCH_STAT num_reach_reuse 0
BRUNCH_STAT inductive_lvl 0
BRUNCH_STAT max_depth 3
BRUNCH_STAT cex_depth 0
expand: query!0 (3, 0) FAR  w(0) 1.
	create_child: MAIN (2, 3) FAR 3692 U 0.00
expand: MAIN (2, 0) FAR  w(0) 3692.
	create_child: MAIN (1, 3) FAR 8130 U 0.00
expand: MAIN (1, 0) FAR  w(0) 8130. T 0.00
is-reachable: MAIN (2, 0) FAR 3692 T 0.01
is-reachable: query!0 (3, 0) FAR 1 T 0.00
(spacer::context::check_reachability :time 0.02 :before-memory 6.52 :after-memory 7.62)
BRUNCH_STAT max_query_lvl 3
BRUNCH_STAT num_queries 10
BRUNCH_STAT num_reach_queries 3
BRUNCH_STAT num_reach_reuse 1
BRUNCH_STAT inductive_lvl 0
BRUNCH_STAT max_depth 3
BRUNCH_STAT cex_depth 3
(:SPACER-cex-depth                     3
 :SPACER-max-depth                     3
 :SPACER-max-query-lvl                 3
 :SPACER-num-invariants                3
 :SPACER-num-lemmas                    11
 :SPACER-num-properties                8
 :SPACER-num-queries                   10
 :SPACER-num-reach-queries             3
 :SPACER-num-reuse-reach-facts         1
 :added-eqs                            1420
 :arith-add-rows                       650
 :arith-assert-diseq                   644
 :arith-assert-lower                   1142
 :arith-assert-upper                   1188
 :arith-bound-prop                     162
 :arith-conflicts                      35
 :arith-eq-adapter                     163
 :arith-fixed-eqs                      205
 :arith-offset-eqs                     189
 :arith-pivots                         139
 :bool-inductive-gen                   8
 :bool-inductive-gen-failures          7
 :conflicts                            180
 :decisions                            1228
 :del-clause                           73
 :final-checks                         22
 :minimized-lits                       336
 :mk-bool-var                          936
 :mk-clause                            2533
 :num-checks                           49
 :propagations                         18007
 :time.itp_solver.itp_core             0.00
 :time.spacer.init_rules               0.00
 :time.spacer.init_rules.pt.init       0.00
 :time.spacer.solve                    0.05
 :time.spacer.solve.propagate          0.00
 :time.spacer.solve.reach              0.05
 :time.spacer.solve.reach.children     0.00
 :time.spacer.solve.reach.gen.bool_ind 0.00
 :time.spacer.solve.reach.is-reach     0.02
 :time.virtual_solver.proof            0.00
 :time.virtual_solver.smt.total        0.04
 :time.virtual_solver.smt.total.sat    0.02
 :virtual_solver.checks                49
 :virtual_solver.checks.sat            22)
BRUNCH_STAT max_query_lvl 3
BRUNCH_STAT num_queries 10
BRUNCH_STAT num_reach_queries 3
BRUNCH_STAT num_reach_reuse 1
BRUNCH_STAT inductive_lvl 0
BRUNCH_STAT max_depth 3
BRUNCH_STAT cex_depth 3

real	0m0.088s
user	0m0.076s
sys	0m0.008s
