(transform N7datalog13mk_coi_filterE...no-op 0s)
(transform N7datalog25mk_interp_tail_simplifierE...14 rules 0s)
(transform N7datalog27mk_quantifier_instantiationE...no-op 0s)
(transform N7datalog8mk_scaleE...no-op 0s)
(transform N7datalog18mk_karr_invariantsE...no-op 0s)
(transform N7datalog14mk_array_blastE...no-op 0s)
(transform N7datalog22mk_subsumption_checkerE...13 rules 0s)
(transform N7datalog12mk_bit_blastE...no-op 0s)
(transform N7datalog15mk_rule_inlinerE...3 rules 0.00382902s)
(transform N7datalog13mk_coi_filterE...no-op 0s)
(transform N7datalog25mk_interp_tail_simplifierE...3 rules 0s)
(transform N7datalog22mk_subsumption_checkerE...no-op 0s)
(transform N7datalog15mk_rule_inlinerE...no-op 0s)
(transform N7datalog13mk_coi_filterE...no-op 0s)
(transform N7datalog25mk_interp_tail_simplifierE...3 rules 0s)
(transform N7datalog22mk_subsumption_checkerE...no-op 0s)
(transform N7datalog15mk_rule_inlinerE...no-op 0s)
(transform N7datalog22mk_subsumption_checkerE...no-op 0s)
(transform N7datalog15mk_rule_inlinerE...no-op 0s)
(transform N7datalog22mk_subsumption_checkerE...no-op 0s)
(transform N7datalog15mk_rule_inlinerE...no-op 0s)
(transform N7datalog22mk_subsumption_checkerE...no-op 0s)
(transform N7datalog8mk_sliceE...no-op 0s)
expand: query!0 (0, 0) FAR  w(0) 1. F 0.00
(spacer::context::check_reachability :time 0.00 :before-memory 4.47 :after-memory 5.08)
Entering level 1
BRUNCH_STAT max_query_lvl 0
BRUNCH_STAT num_queries 0
BRUNCH_STAT num_reach_queries 0
BRUNCH_STAT num_reach_reuse 0
BRUNCH_STAT inductive_lvl 0
BRUNCH_STAT max_depth 1
BRUNCH_STAT cex_depth 0
expand: query!0 (1, 0) FAR  w(0) 1.
	create_child: MAIN (0, 1) FAR 3625 U 0.00
expand: MAIN (0, 0) FAR  w(0) 3625. F 0.00
expand: query!0 (1, 0) FAR  w(0) 1. F 0.00
(spacer::context::check_reachability :time 0.00 :before-memory 5.08 :after-memory 6.10)
Propagating: 0 1  ! 2 
(spacer::context::propagate :time 0.00 :before-memory 6.10 :after-memory 6.10)
Entering level 2
BRUNCH_STAT max_query_lvl 1
BRUNCH_STAT num_queries 1
BRUNCH_STAT num_reach_queries 0
BRUNCH_STAT num_reach_reuse 0
BRUNCH_STAT inductive_lvl 0
BRUNCH_STAT max_depth 2
BRUNCH_STAT cex_depth 0
expand: query!0 (2, 0) FAR  w(0) 1.
	create_child: MAIN (1, 2) FAR 3625 U 0.00
expand: MAIN (1, 0) FAR  w(0) 3625.
	create_child: MAIN (0, 2) FAR 7377 U 0.00
expand: MAIN (0, 0) FAR  w(0) 7377. F 0.00
expand: MAIN (1, 0) FAR  w(0) 3625.
	create_child: MAIN (0, 2) FAR 7408 U 0.00
expand: MAIN (0, 0) FAR  w(0) 7408. F 0.00
expand: MAIN (1, 0) FAR  w(0) 3625.
	create_child: MAIN (0, 2) FAR 7339 U 0.00
expand: MAIN (0, 0) FAR  w(0) 7339. F 0.00
expand: MAIN (1, 0) FAR  w(0) 3625.
	create_child: MAIN (0, 2) FAR 7350 U 0.00
expand: MAIN (0, 0) FAR  w(0) 7350. F 0.00
expand: MAIN (1, 0) FAR  w(0) 3625.
	create_child: MAIN (0, 2) FAR 7459 U 0.00
expand: MAIN (0, 0) FAR  w(0) 7459. F 0.00
expand: MAIN (1, 0) FAR  w(0) 3625.
	create_child: MAIN (0, 2) FAR 7746 U 0.00
expand: MAIN (0, 0) FAR  w(0) 7746. F 0.00
expand: MAIN (1, 0) FAR  w(0) 3625.
	create_child: MAIN (0, 2) FAR 7956 U 0.00
expand: MAIN (0, 0) FAR  w(0) 7956. F 0.00
expand: MAIN (1, 0) FAR  w(0) 3625.
	create_child: MAIN (0, 2) FAR 8011 U 0.00
expand: MAIN (0, 0) FAR  w(0) 8011. F 0.00
expand: MAIN (1, 0) FAR  w(0) 3625. F 0.00
expand: query!0 (2, 0) FAR  w(0) 1. F 0.00
(spacer::context::check_reachability :time 0.02 :before-memory 6.10 :after-memory 6.48)
Propagating: 0 1 2  ! 3 
(spacer::context::propagate :time 0.00 :before-memory 6.48 :after-memory 6.48)
Entering level 3
BRUNCH_STAT max_query_lvl 2
BRUNCH_STAT num_queries 10
BRUNCH_STAT num_reach_queries 0
BRUNCH_STAT num_reach_reuse 0
BRUNCH_STAT inductive_lvl 0
BRUNCH_STAT max_depth 3
BRUNCH_STAT cex_depth 0
expand: query!0 (3, 0) FAR  w(0) 1.
	create_child: MAIN (2, 3) FAR 3625 U 0.00
expand: MAIN (2, 0) FAR  w(0) 3625.
	create_child: MAIN (1, 3) FAR 9766 U 0.00
expand: MAIN (1, 0) FAR  w(0) 9766. F 0.00
expand: MAIN (2, 0) FAR  w(0) 3625.
	create_child: MAIN (1, 3) FAR 9929 U 0.00
expand: MAIN (1, 0) FAR  w(0) 9929. F 0.00
expand: MAIN (2, 0) FAR  w(0) 3625.
	create_child: MAIN (1, 3) FAR 7350 U 0.00
expand: MAIN (1, 0) FAR  w(0) 7350. F 0.00
expand: MAIN (2, 0) FAR  w(0) 3625.
	create_child: MAIN (1, 3) FAR 10554 U 0.00
expand: MAIN (1, 0) FAR  w(0) 10554. F 0.00
expand: MAIN (2, 0) FAR  w(0) 3625. F 0.00
expand: query!0 (3, 0) FAR  w(0) 1. F 0.00
(spacer::context::check_reachability :time 0.02 :before-memory 6.48 :after-memory 6.80)
Propagating: 1 2 3  ! 4 
(spacer::context::propagate :time 0.01 :before-memory 6.80 :after-memory 7.25)
Entering level 4
BRUNCH_STAT max_query_lvl 3
BRUNCH_STAT num_queries 15
BRUNCH_STAT num_reach_queries 0
BRUNCH_STAT num_reach_reuse 0
BRUNCH_STAT inductive_lvl 0
BRUNCH_STAT max_depth 4
BRUNCH_STAT cex_depth 0
expand: query!0 (4, 0) FAR  w(0) 1.
	create_child: MAIN (3, 4) FAR 3625 U 0.00
expand: MAIN (3, 0) FAR  w(0) 3625.
	create_child: MAIN (2, 4) FAR 7350 U 0.00
expand: MAIN (2, 0) FAR  w(0) 7350. F 0.00
expand: MAIN (3, 0) FAR  w(0) 3625. F 0.00
expand: query!0 (4, 0) FAR  w(0) 1. F 0.00
(spacer::context::check_reachability :time 0.01 :before-memory 7.25 :after-memory 7.42)
Propagating: 2 
(spacer::context::propagate :time 0.00 :before-memory 7.42 :after-memory 7.42)
(define-fun MAIN ((x!0 Int)
 (x!1 Int)
 (x!2 Int)
 (x!3 Int)
 (x!4 Int)
 (x!5 Int)
 (x!6 Bool)
 (x!7 Bool)
 (x!8 Bool)
 (x!9 Int)
 (x!10 Bool)
 (x!11 Bool)) Bool
  (let ((a!1 (or (>= (+ x!9 (* (- 1) x!2)) 0) (not x!7) (<= x!0 0)))
        (a!2 (or (<= (+ x!0 (* (- 1) x!9)) 0) (not x!7)))
        (a!3 (or (<= (+ x!0 x!1 x!3 x!4 (* (- 1) x!9)) 0) (not x!7)))
        (a!4 (or (>= (+ x!9
                        (* (- 1) x!0)
                        (* (- 1) x!1)
                        (* (- 1) x!2)
                        (* (- 1) x!3)
                        (* (- 1) x!4))
                     0)
                 (not x!7))))
    (and a!1
         x!11
         (>= x!1 0)
         (not x!6)
         (not x!10)
         (not x!8)
         (>= x!3 0)
         a!2
         a!3
         a!4)))
BRUNCH_STAT max_query_lvl 4
BRUNCH_STAT num_queries 17
BRUNCH_STAT num_reach_queries 0
BRUNCH_STAT num_reach_reuse 0
BRUNCH_STAT inductive_lvl 2
BRUNCH_STAT max_depth 4
BRUNCH_STAT cex_depth 0
(:SPACER-inductive-level               2
 :SPACER-max-depth                     4
 :SPACER-max-query-lvl                 4
 :SPACER-num-invariants                11
 :SPACER-num-lemmas                    22
 :SPACER-num-properties                15
 :SPACER-num-queries                   17
 :added-eqs                            1578
 :arith-add-rows                       1322
 :arith-assert-diseq                   723
 :arith-assert-lower                   1645
 :arith-assert-upper                   1313
 :arith-bound-prop                     153
 :arith-conflicts                      33
 :arith-eq-adapter                     179
 :arith-fixed-eqs                      189
 :arith-offset-eqs                     168
 :arith-pivots                         229
 :bool-inductive-gen                   17
 :bool-inductive-gen-failures          20
 :conflicts                            250
 :decisions                            2563
 :del-clause                           64
 :final-checks                         43
 :minimized-lits                       275
 :mk-bool-var                          775
 :mk-clause                            1658
 :num-checks                           118
 :propagations                         28346
 :time.itp_solver.itp_core             0.01
 :time.spacer.init_rules               0.00
 :time.spacer.init_rules.pt.init       0.00
 :time.spacer.solve                    0.07
 :time.spacer.solve.propagate          0.01
 :time.spacer.solve.reach              0.06
 :time.spacer.solve.reach.children     0.01
 :time.spacer.solve.reach.gen.bool_ind 0.01
 :time.virtual_solver.proof            0.01
 :time.virtual_solver.smt.total        0.05
 :time.virtual_solver.smt.total.sat    0.02
 :virtual_solver.checks                118
 :virtual_solver.checks.sat            43)
BRUNCH_STAT max_query_lvl 4
BRUNCH_STAT num_queries 17
BRUNCH_STAT num_reach_queries 0
BRUNCH_STAT num_reach_reuse 0
BRUNCH_STAT inductive_lvl 2
BRUNCH_STAT max_depth 4
BRUNCH_STAT cex_depth 0

real	0m0.113s
user	0m0.108s
sys	0m0.004s
