(transform N7datalog13mk_coi_filterE...no-op 0s)
(transform N7datalog25mk_interp_tail_simplifierE...14 rules 0s)
(transform N7datalog27mk_quantifier_instantiationE...no-op 0s)
(transform N7datalog8mk_scaleE...no-op 0s)
(transform N7datalog18mk_karr_invariantsE...no-op 0s)
(transform N7datalog14mk_array_blastE...no-op 0s)
(transform N7datalog22mk_subsumption_checkerE...13 rules 0s)
(transform N7datalog12mk_bit_blastE...no-op 0s)
(transform N7datalog15mk_rule_inlinerE...3 rules 0.00403962s)
(transform N7datalog13mk_coi_filterE...no-op 0s)
(transform N7datalog25mk_interp_tail_simplifierE...3 rules 0s)
(transform N7datalog22mk_subsumption_checkerE...no-op 0s)
(transform N7datalog15mk_rule_inlinerE...no-op 0s)
(transform N7datalog13mk_coi_filterE...no-op 0s)
(transform N7datalog25mk_interp_tail_simplifierE...3 rules 0s)
(transform N7datalog22mk_subsumption_checkerE...no-op 0s)
(transform N7datalog15mk_rule_inlinerE...no-op 0s)
(transform N7datalog22mk_subsumption_checkerE...no-op 0s)
(transform N7datalog15mk_rule_inlinerE...no-op 0s)
(transform N7datalog22mk_subsumption_checkerE...no-op 0s)
(transform N7datalog15mk_rule_inlinerE...no-op 0s)
(transform N7datalog22mk_subsumption_checkerE...no-op 0s)
(transform N7datalog8mk_sliceE...no-op 0s)
expand: query!0 (0, 0) FAR  w(0) 1. F 0.00
(spacer::context::check_reachability :time 0.00 :before-memory 4.48 :after-memory 5.11)
Entering level 1
BRUNCH_STAT max_query_lvl 0
BRUNCH_STAT num_queries 0
BRUNCH_STAT num_reach_queries 0
BRUNCH_STAT num_reach_reuse 0
BRUNCH_STAT inductive_lvl 0
BRUNCH_STAT max_depth 1
BRUNCH_STAT cex_depth 0
expand: query!0 (1, 0) FAR  w(0) 1.
	create_child: MAIN (0, 1) FAR 3746 U 0.00
expand: MAIN (0, 0) FAR  w(0) 3746. F 0.00
expand: query!0 (1, 0) FAR  w(0) 1. F 0.00
(spacer::context::check_reachability :time 0.01 :before-memory 5.11 :after-memory 6.20)
Propagating: 0 1  ! 2 
(spacer::context::propagate :time 0.00 :before-memory 6.20 :after-memory 6.20)
Entering level 2
BRUNCH_STAT max_query_lvl 1
BRUNCH_STAT num_queries 1
BRUNCH_STAT num_reach_queries 0
BRUNCH_STAT num_reach_reuse 0
BRUNCH_STAT inductive_lvl 0
BRUNCH_STAT max_depth 2
BRUNCH_STAT cex_depth 0
expand: query!0 (2, 0) FAR  w(0) 1.
	create_child: MAIN (1, 2) FAR 3746 U 0.00
expand: MAIN (1, 0) FAR  w(0) 3746.
	create_child: MAIN (0, 2) FAR 7884 U 0.01
expand: MAIN (0, 0) FAR  w(0) 7884. F 0.00
expand: MAIN (1, 0) FAR  w(0) 3746.
	create_child: MAIN (0, 2) FAR 8111 U 0.00
expand: MAIN (0, 0) FAR  w(0) 8111. F 0.00
expand: MAIN (1, 0) FAR  w(0) 3746.
	create_child: MAIN (0, 2) FAR 8221 U 0.00
expand: MAIN (0, 0) FAR  w(0) 8221. F 0.00
expand: MAIN (1, 0) FAR  w(0) 3746.
	create_child: MAIN (0, 2) FAR 8339 U 0.00
expand: MAIN (0, 0) FAR  w(0) 8339. F 0.00
expand: MAIN (1, 0) FAR  w(0) 3746.
	create_child: MAIN (0, 2) FAR 8451 U 0.00
expand: MAIN (0, 0) FAR  w(0) 8451. F 0.00
expand: MAIN (1, 0) FAR  w(0) 3746.
	create_child: MAIN (0, 2) FAR 8497 U 0.00
expand: MAIN (0, 0) FAR  w(0) 8497. F 0.00
expand: MAIN (1, 0) FAR  w(0) 3746.
	create_child: MAIN (0, 2) FAR 8672 U 0.00
expand: MAIN (0, 0) FAR  w(0) 8672. F 0.00
expand: MAIN (1, 0) FAR  w(0) 3746.
	create_child: MAIN (0, 2) FAR 8845 U 0.00
expand: MAIN (0, 0) FAR  w(0) 8845. F 0.00
expand: MAIN (1, 0) FAR  w(0) 3746.
	create_child: MAIN (0, 2) FAR 9043 U 0.00
expand: MAIN (0, 0) FAR  w(0) 9043. F 0.00
expand: MAIN (1, 0) FAR  w(0) 3746.
	create_child: MAIN (0, 2) FAR 9342 U 0.00
expand: MAIN (0, 0) FAR  w(0) 9342. F 0.00
expand: MAIN (1, 0) FAR  w(0) 3746.
	create_child: MAIN (0, 2) FAR 9594 U 0.00
expand: MAIN (0, 0) FAR  w(0) 9594. F 0.00
expand: MAIN (1, 0) FAR  w(0) 3746.
	create_child: MAIN (0, 2) FAR 9802 U 0.00
expand: MAIN (0, 0) FAR  w(0) 9802. F 0.00
expand: MAIN (1, 0) FAR  w(0) 3746. F 0.00
expand: query!0 (2, 0) FAR  w(0) 1. F 0.00
(spacer::context::check_reachability :time 0.04 :before-memory 6.20 :after-memory 6.81)
Propagating: 0 1 2  ! 3 
(spacer::context::propagate :time 0.01 :before-memory 6.81 :after-memory 6.91)
Entering level 3
BRUNCH_STAT max_query_lvl 2
BRUNCH_STAT num_queries 14
BRUNCH_STAT num_reach_queries 0
BRUNCH_STAT num_reach_reuse 0
BRUNCH_STAT inductive_lvl 0
BRUNCH_STAT max_depth 3
BRUNCH_STAT cex_depth 0
expand: query!0 (3, 0) FAR  w(0) 1.
	create_child: MAIN (2, 3) FAR 3746 U 0.00
expand: MAIN (2, 0) FAR  w(0) 3746.
	create_child: MAIN (1, 3) FAR 12596 U 0.00
expand: MAIN (1, 0) FAR  w(0) 12596. F 0.00
expand: MAIN (2, 0) FAR  w(0) 3746.
	create_child: MAIN (1, 3) FAR 12739 U 0.00
expand: MAIN (1, 0) FAR  w(0) 12739. F 0.00
expand: MAIN (2, 0) FAR  w(0) 3746.
	create_child: MAIN (1, 3) FAR 13204 U 0.00
expand: MAIN (1, 0) FAR  w(0) 13204. T 0.00
is-reachable: MAIN (2, 0) FAR 3746 T 0.02
is-reachable: query!0 (3, 0) FAR 1 T 0.01
(spacer::context::check_reachability :time 0.04 :before-memory 6.91 :after-memory 8.25)
BRUNCH_STAT max_query_lvl 3
BRUNCH_STAT num_queries 18
BRUNCH_STAT num_reach_queries 3
BRUNCH_STAT num_reach_reuse 1
BRUNCH_STAT inductive_lvl 0
BRUNCH_STAT max_depth 3
BRUNCH_STAT cex_depth 3
(:SPACER-cex-depth                     3
 :SPACER-max-depth                     3
 :SPACER-max-query-lvl                 3
 :SPACER-num-invariants                9
 :SPACER-num-lemmas                    19
 :SPACER-num-properties                16
 :SPACER-num-queries                   18
 :SPACER-num-reach-queries             3
 :SPACER-num-reuse-reach-facts         1
 :added-eqs                            2757
 :arith-add-rows                       1937
 :arith-assert-diseq                   907
 :arith-assert-lower                   2112
 :arith-assert-upper                   2113
 :arith-bound-prop                     347
 :arith-conflicts                      27
 :arith-eq-adapter                     360
 :arith-fixed-eqs                      435
 :arith-offset-eqs                     677
 :arith-pivots                         276
 :bool-inductive-gen                   16
 :bool-inductive-gen-failures          18
 :conflicts                            281
 :decisions                            2326
 :del-clause                           85
 :final-checks                         36
 :minimized-lits                       316
 :mk-bool-var                          1138
 :mk-clause                            3201
 :num-checks                           97
 :propagations                         30892
 :time.itp_solver.itp_core             0.01
 :time.spacer.init_rules               0.00
 :time.spacer.init_rules.pt.init       0.00
 :time.spacer.solve                    0.09
 :time.spacer.solve.propagate          0.01
 :time.spacer.solve.reach              0.08
 :time.spacer.solve.reach.children     0.01
 :time.spacer.solve.reach.gen.bool_ind 0.01
 :time.spacer.solve.reach.is-reach     0.02
 :time.virtual_solver.proof            0.00
 :time.virtual_solver.smt.total        0.06
 :time.virtual_solver.smt.total.sat    0.04
 :virtual_solver.checks                97
 :virtual_solver.checks.sat            36)
BRUNCH_STAT max_query_lvl 3
BRUNCH_STAT num_queries 18
BRUNCH_STAT num_reach_queries 3
BRUNCH_STAT num_reach_reuse 1
BRUNCH_STAT inductive_lvl 0
BRUNCH_STAT max_depth 3
BRUNCH_STAT cex_depth 3

real	0m0.133s
user	0m0.116s
sys	0m0.016s
