(transform N7datalog13mk_coi_filterE...no-op 0s)
(transform N7datalog25mk_interp_tail_simplifierE...12 rules 0s)
(transform N7datalog27mk_quantifier_instantiationE...no-op 0s)
(transform N7datalog8mk_scaleE...no-op 0s)
(transform N7datalog18mk_karr_invariantsE...no-op 0s)
(transform N7datalog14mk_array_blastE...no-op 0s)
(transform N7datalog22mk_subsumption_checkerE...11 rules 0s)
(transform N7datalog12mk_bit_blastE...no-op 0s)
(transform N7datalog15mk_rule_inlinerE...3 rules 0.00333759s)
(transform N7datalog13mk_coi_filterE...no-op 0s)
(transform N7datalog25mk_interp_tail_simplifierE...3 rules 0s)
(transform N7datalog22mk_subsumption_checkerE...no-op 0s)
(transform N7datalog15mk_rule_inlinerE...no-op 0s)
(transform N7datalog13mk_coi_filterE...no-op 0s)
(transform N7datalog25mk_interp_tail_simplifierE...3 rules 0s)
(transform N7datalog22mk_subsumption_checkerE...no-op 0s)
(transform N7datalog15mk_rule_inlinerE...no-op 0s)
(transform N7datalog22mk_subsumption_checkerE...no-op 0s)
(transform N7datalog15mk_rule_inlinerE...no-op 0s)
(transform N7datalog22mk_subsumption_checkerE...no-op 0s)
(transform N7datalog15mk_rule_inlinerE...no-op 0s)
(transform N7datalog22mk_subsumption_checkerE...no-op 0s)
(transform N7datalog8mk_sliceE...no-op 0s)
expand: query!0 (0, 0) FAR  w(0) 1. F 0.00
(spacer::context::check_reachability :time 0.00 :before-memory 4.47 :after-memory 5.07)
Entering level 1
BRUNCH_STAT max_query_lvl 0
BRUNCH_STAT num_queries 0
BRUNCH_STAT num_reach_queries 0
BRUNCH_STAT num_reach_reuse 0
BRUNCH_STAT inductive_lvl 0
BRUNCH_STAT max_depth 1
BRUNCH_STAT cex_depth 0
expand: query!0 (1, 0) FAR  w(0) 1.
	create_child: MAIN (0, 1) FAR 3598 U 0.00
expand: MAIN (0, 0) FAR  w(0) 3598. F 0.00
expand: query!0 (1, 0) FAR  w(0) 1. F 0.00
(spacer::context::check_reachability :time 0.00 :before-memory 5.07 :after-memory 6.13)
Propagating: 0 1  ! 2 
(spacer::context::propagate :time 0.00 :before-memory 6.13 :after-memory 6.13)
Entering level 2
BRUNCH_STAT max_query_lvl 1
BRUNCH_STAT num_queries 1
BRUNCH_STAT num_reach_queries 0
BRUNCH_STAT num_reach_reuse 0
BRUNCH_STAT inductive_lvl 0
BRUNCH_STAT max_depth 2
BRUNCH_STAT cex_depth 0
expand: query!0 (2, 0) FAR  w(0) 1.
	create_child: MAIN (1, 2) FAR 3598 U 0.00
expand: MAIN (1, 0) FAR  w(0) 3598.
	create_child: MAIN (0, 2) FAR 6639 U 0.00
expand: MAIN (0, 0) FAR  w(0) 6639. F 0.00
expand: MAIN (1, 0) FAR  w(0) 3598. F 0.00
expand: query!0 (2, 0) FAR  w(0) 1. F 0.00
(spacer::context::check_reachability :time 0.00 :before-memory 6.13 :after-memory 6.36)
Propagating: 0 1 2  ! 3 
(spacer::context::propagate :time 0.00 :before-memory 6.36 :after-memory 6.36)
Entering level 3
BRUNCH_STAT max_query_lvl 2
BRUNCH_STAT num_queries 3
BRUNCH_STAT num_reach_queries 0
BRUNCH_STAT num_reach_reuse 0
BRUNCH_STAT inductive_lvl 0
BRUNCH_STAT max_depth 3
BRUNCH_STAT cex_depth 0
expand: query!0 (3, 0) FAR  w(0) 1.
	create_child: MAIN (2, 3) FAR 3598 U 0.00
expand: MAIN (2, 0) FAR  w(0) 3598.
	create_child: MAIN (1, 3) FAR 6639 U 0.00
expand: MAIN (1, 0) FAR  w(0) 6639. F 0.00
expand: MAIN (2, 0) FAR  w(0) 3598.
	create_child: MAIN (1, 3) FAR 7224 U 0.00
expand: MAIN (1, 0) FAR  w(0) 7224. F 0.00
expand: MAIN (2, 0) FAR  w(0) 3598.
	create_child: MAIN (1, 3) FAR 7280 U 0.00
expand: MAIN (1, 0) FAR  w(0) 7280.
	create_child: MAIN (0, 3) FAR 7175 U 0.00
expand: MAIN (0, 0) FAR  w(0) 7175. F 0.00
expand: MAIN (1, 0) FAR  w(0) 7280. F 0.00
expand: MAIN (2, 0) FAR  w(0) 3598. F 0.00
expand: query!0 (3, 0) FAR  w(0) 1. F 0.00
(spacer::context::check_reachability :time 0.01 :before-memory 6.36 :after-memory 6.36)
Propagating: 0 1 2 3  ! 4 
(spacer::context::propagate :time 0.00 :before-memory 6.36 :after-memory 6.36)
Entering level 4
BRUNCH_STAT max_query_lvl 3
BRUNCH_STAT num_queries 8
BRUNCH_STAT num_reach_queries 0
BRUNCH_STAT num_reach_reuse 0
BRUNCH_STAT inductive_lvl 0
BRUNCH_STAT max_depth 4
BRUNCH_STAT cex_depth 0
expand: query!0 (4, 0) FAR  w(0) 1.
	create_child: MAIN (3, 4) FAR 3598 U 0.00
expand: MAIN (3, 0) FAR  w(0) 3598.
	create_child: MAIN (2, 4) FAR 7755 U 0.00
expand: MAIN (2, 0) FAR  w(0) 7755. F 0.00
expand: MAIN (3, 0) FAR  w(0) 3598.
	create_child: MAIN (2, 4) FAR 7280 U 0.00
expand: MAIN (2, 0) FAR  w(0) 7280.
	create_child: MAIN (1, 4) FAR 8128 U 0.00
expand: MAIN (1, 0) FAR  w(0) 8128. F 0.00
expand: MAIN (2, 0) FAR  w(0) 7280. F 0.00
expand: MAIN (3, 0) FAR  w(0) 3598.
	create_child: MAIN (2, 4) FAR 8802 U 0.00
expand: MAIN (2, 0) FAR  w(0) 8802. F 0.00
expand: MAIN (3, 0) FAR  w(0) 3598.
	create_child: MAIN (2, 4) FAR 9006 U 0.00
expand: MAIN (2, 0) FAR  w(0) 9006.
	create_child: MAIN (1, 4) FAR 8981 U 0.00
expand: MAIN (1, 0) FAR  w(0) 8981. F 0.00
expand: MAIN (2, 0) FAR  w(0) 9006. F 0.00
expand: MAIN (3, 0) FAR  w(0) 3598. F 0.00
expand: query!0 (4, 0) FAR  w(0) 1. F 0.00
(spacer::context::check_reachability :time 0.02 :before-memory 6.36 :after-memory 6.63)
Propagating: 1 2 3 4  ! 5 
(spacer::context::propagate :time 0.00 :before-memory 6.63 :after-memory 6.63)
Entering level 5
BRUNCH_STAT max_query_lvl 4
BRUNCH_STAT num_queries 15
BRUNCH_STAT num_reach_queries 0
BRUNCH_STAT num_reach_reuse 0
BRUNCH_STAT inductive_lvl 0
BRUNCH_STAT max_depth 5
BRUNCH_STAT cex_depth 0
expand: query!0 (5, 0) FAR  w(0) 1.
	create_child: MAIN (4, 5) FAR 3598 U 0.00
expand: MAIN (4, 0) FAR  w(0) 3598.
	create_child: MAIN (3, 5) FAR 7755 U 0.00
expand: MAIN (3, 0) FAR  w(0) 7755. F 0.00
expand: MAIN (4, 0) FAR  w(0) 3598.
	create_child: MAIN (3, 5) FAR 7280 U 0.00
expand: MAIN (3, 0) FAR  w(0) 7280.
	create_child: MAIN (2, 5) FAR 7175 U 0.00
expand: MAIN (2, 0) FAR  w(0) 7175. F 0.00
expand: MAIN (3, 0) FAR  w(0) 7280. F 0.00
expand: MAIN (4, 0) FAR  w(0) 3598.
	create_child: MAIN (3, 5) FAR 9006 U 0.00
expand: MAIN (3, 0) FAR  w(0) 9006.
	create_child: MAIN (2, 5) FAR 10857 U 0.00
expand: MAIN (2, 0) FAR  w(0) 10857. F 0.00
expand: MAIN (3, 0) FAR  w(0) 9006.
	create_child: MAIN (2, 5) FAR 8981 U 0.00
expand: MAIN (2, 0) FAR  w(0) 8981.
	create_child: MAIN (1, 5) FAR 11261 U 0.00
expand: MAIN (1, 0) FAR  w(0) 11261. F 0.00
expand: MAIN (2, 0) FAR  w(0) 8981. F 0.00
expand: MAIN (3, 0) FAR  w(0) 9006. F 0.00
expand: MAIN (4, 0) FAR  w(0) 3598. F 0.00
expand: query!0 (5, 0) FAR  w(0) 1. F 0.00
(spacer::context::check_reachability :time 0.04 :before-memory 6.63 :after-memory 7.16)
Propagating: 1 2 3 4 5  ! 6 
(spacer::context::propagate :time 0.02 :before-memory 7.16 :after-memory 7.37)
Entering level 6
BRUNCH_STAT max_query_lvl 5
BRUNCH_STAT num_queries 23
BRUNCH_STAT num_reach_queries 0
BRUNCH_STAT num_reach_reuse 0
BRUNCH_STAT inductive_lvl 0
BRUNCH_STAT max_depth 6
BRUNCH_STAT cex_depth 0
expand: query!0 (6, 0) FAR  w(0) 1.
	create_child: MAIN (5, 6) FAR 3598 U 0.00
expand: MAIN (5, 0) FAR  w(0) 3598.
	create_child: MAIN (4, 6) FAR 7755 U 0.00
expand: MAIN (4, 0) FAR  w(0) 7755.
	create_child: MAIN (3, 6) FAR 15144 U 0.00
expand: MAIN (3, 0) FAR  w(0) 15144. F 0.00
expand: MAIN (4, 0) FAR  w(0) 7755. F 0.00
expand: MAIN (5, 0) FAR  w(0) 3598. F 0.00
expand: query!0 (6, 0) FAR  w(0) 1. F 0.00
(spacer::context::check_reachability :time 0.01 :before-memory 7.37 :after-memory 7.47)
Propagating: 3 
(spacer::context::propagate :time 0.00 :before-memory 7.47 :after-memory 7.47)
(define-fun MAIN ((x!0 Int)
 (x!1 Int)
 (x!2 Int)
 (x!3 Int)
 (x!4 Int)
 (x!5 Bool)
 (x!6 Bool)
 (x!7 Bool)
 (x!8 Bool)) Bool
  (and (or (<= x!0 0) (not x!6) (not (>= x!3 2)))
       x!8
       (not x!7)
       (<= x!2 0)
       (or (not (>= x!3 3)) (not x!6))
       (or (<= x!0 0) (not x!6) (<= x!1 0))
       (not (>= x!1 2))
       (or (<= x!1 0) (not x!6) (<= x!3 0))))
BRUNCH_STAT max_query_lvl 6
BRUNCH_STAT num_queries 26
BRUNCH_STAT num_reach_queries 0
BRUNCH_STAT num_reach_reuse 0
BRUNCH_STAT inductive_lvl 3
BRUNCH_STAT max_depth 6
BRUNCH_STAT cex_depth 0
(:SPACER-inductive-level               3
 :SPACER-max-depth                     6
 :SPACER-max-query-lvl                 6
 :SPACER-num-invariants                14
 :SPACER-num-lemmas                    33
 :SPACER-num-properties                16
 :SPACER-num-queries                   26
 :added-eqs                            2497
 :arith-add-rows                       700
 :arith-assert-diseq                   2090
 :arith-assert-lower                   3412
 :arith-assert-upper                   3427
 :arith-bound-prop                     221
 :arith-conflicts                      14
 :arith-eq-adapter                     191
 :arith-fixed-eqs                      338
 :arith-offset-eqs                     382
 :arith-pivots                         222
 :bool-inductive-gen                   26
 :bool-inductive-gen-failures          50
 :conflicts                            306
 :decisions                            6205
 :del-clause                           17
 :final-checks                         93
 :minimized-lits                       286
 :mk-bool-var                          1207
 :mk-clause                            1948
 :num-checks                           218
 :propagations                         54541
 :time.itp_solver.itp_core             0.02
 :time.spacer.init_rules               0.00
 :time.spacer.init_rules.pt.init       0.00
 :time.spacer.solve                    0.12
 :time.spacer.solve.propagate          0.03
 :time.spacer.solve.reach              0.09
 :time.spacer.solve.reach.children     0.01
 :time.spacer.solve.reach.gen.bool_ind 0.02
 :time.virtual_solver.proof            0.01
 :time.virtual_solver.smt.total        0.08
 :time.virtual_solver.smt.total.sat    0.04
 :virtual_solver.checks                218
 :virtual_solver.checks.sat            93)
BRUNCH_STAT max_query_lvl 6
BRUNCH_STAT num_queries 26
BRUNCH_STAT num_reach_queries 0
BRUNCH_STAT num_reach_reuse 0
BRUNCH_STAT inductive_lvl 3
BRUNCH_STAT max_depth 6
BRUNCH_STAT cex_depth 0

real	0m0.155s
user	0m0.152s
sys	0m0.000s
