(transform N7datalog13mk_coi_filterE...no-op 0s)
(transform N7datalog25mk_interp_tail_simplifierE...15 rules 0s)
(transform N7datalog27mk_quantifier_instantiationE...no-op 0s)
(transform N7datalog8mk_scaleE...no-op 0s)
(transform N7datalog18mk_karr_invariantsE...no-op 0s)
(transform N7datalog14mk_array_blastE...no-op 0s)
(transform N7datalog22mk_subsumption_checkerE...14 rules 0s)
(transform N7datalog12mk_bit_blastE...no-op 0s)
(transform N7datalog15mk_rule_inlinerE...3 rules 0.00552505s)
(transform N7datalog13mk_coi_filterE...no-op 0s)
(transform N7datalog25mk_interp_tail_simplifierE...3 rules 0s)
(transform N7datalog22mk_subsumption_checkerE...no-op 0s)
(transform N7datalog15mk_rule_inlinerE...no-op 0s)
(transform N7datalog13mk_coi_filterE...no-op 0s)
(transform N7datalog25mk_interp_tail_simplifierE...3 rules 0s)
(transform N7datalog22mk_subsumption_checkerE...no-op 0s)
(transform N7datalog15mk_rule_inlinerE...no-op 0s)
(transform N7datalog22mk_subsumption_checkerE...no-op 0s)
(transform N7datalog15mk_rule_inlinerE...no-op 0s)
(transform N7datalog22mk_subsumption_checkerE...no-op 0s)
(transform N7datalog15mk_rule_inlinerE...no-op 0s)
(transform N7datalog22mk_subsumption_checkerE...no-op 0s)
(transform N7datalog8mk_sliceE...no-op 0s)
expand: query!0 (0, 0) FAR  w(0) 1. F 0.00
(spacer::context::check_reachability :time 0.00 :before-memory 4.52 :after-memory 5.04)
Entering level 1
BRUNCH_STAT max_query_lvl 0
BRUNCH_STAT num_queries 0
BRUNCH_STAT num_reach_queries 0
BRUNCH_STAT num_reach_reuse 0
BRUNCH_STAT inductive_lvl 0
BRUNCH_STAT max_depth 1
BRUNCH_STAT cex_depth 0
expand: query!0 (1, 0) FAR  w(0) 1.
	create_child: MAIN (0, 1) FAR 3283 U 0.00
expand: MAIN (0, 0) FAR  w(0) 3283. F 0.00
expand: query!0 (1, 0) FAR  w(0) 1. F 0.00
(spacer::context::check_reachability :time 0.00 :before-memory 5.04 :after-memory 5.86)
Propagating: 0 1  ! 2 
(spacer::context::propagate :time 0.00 :before-memory 5.86 :after-memory 5.86)
Entering level 2
BRUNCH_STAT max_query_lvl 1
BRUNCH_STAT num_queries 1
BRUNCH_STAT num_reach_queries 0
BRUNCH_STAT num_reach_reuse 0
BRUNCH_STAT inductive_lvl 0
BRUNCH_STAT max_depth 2
BRUNCH_STAT cex_depth 0
expand: query!0 (2, 0) FAR  w(0) 1.
	create_child: MAIN (1, 2) FAR 3283 U 0.00
expand: MAIN (1, 0) FAR  w(0) 3283.
	create_child: MAIN (0, 2) FAR 5159 U 0.00
expand: MAIN (0, 0) FAR  w(0) 5159. F 0.00
expand: MAIN (1, 0) FAR  w(0) 3283.
	create_child: MAIN (0, 2) FAR 5294 U 0.00
expand: MAIN (0, 0) FAR  w(0) 5294. F 0.00
expand: MAIN (1, 0) FAR  w(0) 3283.
	create_child: MAIN (0, 2) FAR 5506 U 0.00
expand: MAIN (0, 0) FAR  w(0) 5506. F 0.00
expand: MAIN (1, 0) FAR  w(0) 3283.
	create_child: MAIN (0, 2) FAR 5660 U 0.00
expand: MAIN (0, 0) FAR  w(0) 5660. F 0.00
expand: MAIN (1, 0) FAR  w(0) 3283.
	create_child: MAIN (0, 2) FAR 5756 U 0.00
expand: MAIN (0, 0) FAR  w(0) 5756. F 0.00
expand: MAIN (1, 0) FAR  w(0) 3283.
	create_child: MAIN (0, 2) FAR 5952 U 0.00
expand: MAIN (0, 0) FAR  w(0) 5952. F 0.00
expand: MAIN (1, 0) FAR  w(0) 3283.
	create_child: MAIN (0, 2) FAR 6277 U 0.00
expand: MAIN (0, 0) FAR  w(0) 6277. F 0.00
expand: MAIN (1, 0) FAR  w(0) 3283.
	create_child: MAIN (0, 2) FAR 6439 U 0.00
expand: MAIN (0, 0) FAR  w(0) 6439. F 0.00
expand: MAIN (1, 0) FAR  w(0) 3283.
	create_child: MAIN (0, 2) FAR 6556 U 0.00
expand: MAIN (0, 0) FAR  w(0) 6556. F 0.00
expand: MAIN (1, 0) FAR  w(0) 3283.
	create_child: MAIN (0, 2) FAR 6510 U 0.00
expand: MAIN (0, 0) FAR  w(0) 6510. F 0.00
expand: MAIN (1, 0) FAR  w(0) 3283.
	create_child: MAIN (0, 2) FAR 6574 U 0.00
expand: MAIN (0, 0) FAR  w(0) 6574. F 0.00
expand: MAIN (1, 0) FAR  w(0) 3283. F 0.00
expand: query!0 (2, 0) FAR  w(0) 1. F 0.00
(spacer::context::check_reachability :time 0.02 :before-memory 5.86 :after-memory 6.39)
Propagating: 0 1 2  ! 3 
(spacer::context::propagate :time 0.00 :before-memory 6.39 :after-memory 6.39)
Entering level 3
BRUNCH_STAT max_query_lvl 2
BRUNCH_STAT num_queries 13
BRUNCH_STAT num_reach_queries 0
BRUNCH_STAT num_reach_reuse 0
BRUNCH_STAT inductive_lvl 0
BRUNCH_STAT max_depth 3
BRUNCH_STAT cex_depth 0
expand: query!0 (3, 0) FAR  w(0) 1.
	create_child: MAIN (2, 3) FAR 3283 U 0.00
expand: MAIN (2, 0) FAR  w(0) 3283.
	create_child: MAIN (1, 3) FAR 7952 U 0.00
expand: MAIN (1, 0) FAR  w(0) 7952. F 0.00
expand: MAIN (2, 0) FAR  w(0) 3283.
	create_child: MAIN (1, 3) FAR 8193 U 0.00
expand: MAIN (1, 0) FAR  w(0) 8193.
	create_child: MAIN (0, 3) FAR 8311 U 0.00
expand: MAIN (0, 0) FAR  w(0) 8311. F 0.00
expand: MAIN (1, 0) FAR  w(0) 8193. F 0.00
expand: MAIN (2, 0) FAR  w(0) 3283. F 0.00
expand: query!0 (3, 0) FAR  w(0) 1. F 0.00
(spacer::context::check_reachability :time 0.01 :before-memory 6.39 :after-memory 6.48)
Propagating: 0 1 2 3  ! 4 
(spacer::context::propagate :time 0.00 :before-memory 6.48 :after-memory 6.48)
Entering level 4
BRUNCH_STAT max_query_lvl 3
BRUNCH_STAT num_queries 17
BRUNCH_STAT num_reach_queries 0
BRUNCH_STAT num_reach_reuse 0
BRUNCH_STAT inductive_lvl 0
BRUNCH_STAT max_depth 4
BRUNCH_STAT cex_depth 0
expand: query!0 (4, 0) FAR  w(0) 1.
	create_child: MAIN (3, 4) FAR 3283 U 0.00
expand: MAIN (3, 0) FAR  w(0) 3283.
	create_child: MAIN (2, 4) FAR 8559 U 0.00
expand: MAIN (2, 0) FAR  w(0) 8559.
	create_child: MAIN (1, 4) FAR 8607 U 0.00
expand: MAIN (1, 0) FAR  w(0) 8607. F 0.00
expand: MAIN (2, 0) FAR  w(0) 8559.
	create_child: MAIN (1, 4) FAR 8889 U 0.00
expand: MAIN (1, 0) FAR  w(0) 8889. F 0.00
expand: MAIN (2, 0) FAR  w(0) 8559.
	create_child: MAIN (1, 4) FAR 9250 U 0.00
expand: MAIN (1, 0) FAR  w(0) 9250. F 0.00
expand: MAIN (2, 0) FAR  w(0) 8559.
	create_child: MAIN (1, 4) FAR 9308 U 0.00
expand: MAIN (1, 0) FAR  w(0) 9308. F 0.00
expand: MAIN (2, 0) FAR  w(0) 8559. F 0.00
expand: MAIN (3, 0) FAR  w(0) 3283. F 0.00
expand: query!0 (4, 0) FAR  w(0) 1. F 0.00
(spacer::context::check_reachability :time 0.02 :before-memory 6.48 :after-memory 6.68)
Propagating: 1 2 3 4  ! 5 
(spacer::context::propagate :time 0.00 :before-memory 6.68 :after-memory 6.68)
Entering level 5
BRUNCH_STAT max_query_lvl 4
BRUNCH_STAT num_queries 23
BRUNCH_STAT num_reach_queries 0
BRUNCH_STAT num_reach_reuse 0
BRUNCH_STAT inductive_lvl 0
BRUNCH_STAT max_depth 5
BRUNCH_STAT cex_depth 0
expand: query!0 (5, 0) FAR  w(0) 1.
	create_child: MAIN (4, 5) FAR 3283 U 0.00
expand: MAIN (4, 0) FAR  w(0) 3283.
	create_child: MAIN (3, 5) FAR 9682 U 0.00
expand: MAIN (3, 0) FAR  w(0) 9682.
	create_child: MAIN (2, 5) FAR 9813 U 0.00
expand: MAIN (2, 0) FAR  w(0) 9813.
	create_child: MAIN (1, 5) FAR 9824 U 0.00
expand: MAIN (1, 0) FAR  w(0) 9824. F 0.00
expand: MAIN (2, 0) FAR  w(0) 9813. F 0.00
expand: MAIN (3, 0) FAR  w(0) 9682.
	create_child: MAIN (2, 5) FAR 10157 U 0.00
expand: MAIN (2, 0) FAR  w(0) 10157.
	create_child: MAIN (1, 5) FAR 10408 U 0.00
expand: MAIN (1, 0) FAR  w(0) 10408. F 0.00
expand: MAIN (2, 0) FAR  w(0) 10157. F 0.00
expand: MAIN (3, 0) FAR  w(0) 9682. F 0.00
expand: MAIN (4, 0) FAR  w(0) 3283. F 0.00
expand: query!0 (5, 0) FAR  w(0) 1. F 0.00
(spacer::context::check_reachability :time 0.02 :before-memory 6.68 :after-memory 6.77)
Propagating: 1 2 3 4 5  ! 6 7 
(spacer::context::propagate :time 0.01 :before-memory 6.77 :after-memory 6.77)
Entering level 6
BRUNCH_STAT max_query_lvl 5
BRUNCH_STAT num_queries 29
BRUNCH_STAT num_reach_queries 0
BRUNCH_STAT num_reach_reuse 0
BRUNCH_STAT inductive_lvl 0
BRUNCH_STAT max_depth 6
BRUNCH_STAT cex_depth 0
expand: query!0 (6, 0) FAR  w(0) 1. F 0.00
(spacer::context::check_reachability :time 0.00 :before-memory 6.77 :after-memory 6.77)
Propagating: 6  ! 7 
(spacer::context::propagate :time 0.00 :before-memory 6.77 :after-memory 6.77)
Entering level 7
BRUNCH_STAT max_query_lvl 6
BRUNCH_STAT num_queries 29
BRUNCH_STAT num_reach_queries 0
BRUNCH_STAT num_reach_reuse 0
BRUNCH_STAT inductive_lvl 0
BRUNCH_STAT max_depth 7
BRUNCH_STAT cex_depth 0
expand: query!0 (7, 0) FAR  w(0) 1.
	create_child: MAIN (6, 7) FAR 3283 U 0.00
expand: MAIN (6, 0) FAR  w(0) 3283.
	create_child: MAIN (5, 7) FAR 11237 U 0.00
expand: MAIN (5, 0) FAR  w(0) 11237.
	create_child: MAIN (4, 7) FAR 11284 U 0.00
expand: MAIN (4, 0) FAR  w(0) 11284.
	create_child: MAIN (3, 7) FAR 11212 U 0.00
expand: MAIN (3, 0) FAR  w(0) 11212.
	create_child: MAIN (2, 7) FAR 11449 U 0.00
expand: MAIN (2, 0) FAR  w(0) 11449.
	create_child: MAIN (1, 7) FAR 11639 U 0.00
expand: MAIN (1, 0) FAR  w(0) 11639. F 0.00
expand: MAIN (2, 0) FAR  w(0) 11449. F 0.00
expand: MAIN (3, 0) FAR  w(0) 11212. F 0.00
expand: MAIN (4, 0) FAR  w(0) 11284. F 0.00
expand: MAIN (5, 0) FAR  w(0) 11237. F 0.00
expand: MAIN (6, 0) FAR  w(0) 3283. F 0.00
expand: query!0 (7, 0) FAR  w(0) 1. F 0.00
(spacer::context::check_reachability :time 0.02 :before-memory 6.77 :after-memory 7.37)
Propagating: 1 2 3 4 5 6 7  ! 8 
(spacer::context::propagate :time 0.01 :before-memory 7.37 :after-memory 7.37)
Entering level 8
BRUNCH_STAT max_query_lvl 7
BRUNCH_STAT num_queries 35
BRUNCH_STAT num_reach_queries 0
BRUNCH_STAT num_reach_reuse 0
BRUNCH_STAT inductive_lvl 0
BRUNCH_STAT max_depth 8
BRUNCH_STAT cex_depth 0
expand: query!0 (8, 0) FAR  w(0) 1.
	create_child: MAIN (7, 8) FAR 3283 U 0.00
expand: MAIN (7, 0) FAR  w(0) 3283.
	create_child: MAIN (6, 8) FAR 11237 U 0.00
expand: MAIN (6, 0) FAR  w(0) 11237.
	create_child: MAIN (5, 8) FAR 11284 U 0.00
expand: MAIN (5, 0) FAR  w(0) 11284.
	create_child: MAIN (4, 8) FAR 11212 U 0.00
expand: MAIN (4, 0) FAR  w(0) 11212.
	create_child: MAIN (3, 8) FAR 11449 U 0.00
expand: MAIN (3, 0) FAR  w(0) 11449.
	create_child: MAIN (2, 8) FAR 11639 U 0.00
expand: MAIN (2, 0) FAR  w(0) 11639.
	create_child: MAIN (1, 8) FAR 12908 U 0.00
expand: MAIN (1, 0) FAR  w(0) 12908. T 0.00
is-reachable: MAIN (2, 0) FAR 11639 T 0.00
is-reachable: MAIN (3, 0) FAR 11449 T 0.00
is-reachable: MAIN (4, 0) FAR 11212 T 0.00
is-reachable: MAIN (5, 0) FAR 11284 T 0.00
is-reachable: MAIN (6, 0) FAR 11237 T 0.00
is-reachable: MAIN (7, 0) FAR 3283 T 0.00
is-reachable: query!0 (8, 0) FAR 1 T 0.00
(spacer::context::check_reachability :time 0.04 :before-memory 7.37 :after-memory 8.15)
BRUNCH_STAT max_query_lvl 8
BRUNCH_STAT num_queries 42
BRUNCH_STAT num_reach_queries 8
BRUNCH_STAT num_reach_reuse 1
BRUNCH_STAT inductive_lvl 0
BRUNCH_STAT max_depth 8
BRUNCH_STAT cex_depth 8
(:SPACER-cex-depth                     8
 :SPACER-max-depth                     8
 :SPACER-max-query-lvl                 8
 :SPACER-num-invariants                12
 :SPACER-num-lemmas                    42
 :SPACER-num-properties                26
 :SPACER-num-queries                   42
 :SPACER-num-reach-queries             8
 :SPACER-num-reuse-reach-facts         1
 :added-eqs                            1692
 :arith-add-rows                       593
 :arith-assert-diseq                   1136
 :arith-assert-lower                   4658
 :arith-assert-upper                   3967
 :arith-bound-prop                     234
 :arith-conflicts                      30
 :arith-eq-adapter                     526
 :arith-fixed-eqs                      240
 :arith-offset-eqs                     71
 :arith-pivots                         217
 :bool-inductive-gen                   35
 :bool-inductive-gen-failures          38
 :conflicts                            199
 :decisions                            7992
 :del-clause                           89
 :final-checks                         97
 :minimized-lits                       26
 :mk-bool-var                          1478
 :mk-clause                            3193
 :num-checks                           236
 :propagations                         45372
 :time.itp_solver.itp_core             0.01
 :time.spacer.init_rules               0.00
 :time.spacer.init_rules.pt.init       0.00
 :time.spacer.solve                    0.16
 :time.spacer.solve.propagate          0.02
 :time.spacer.solve.reach              0.14
 :time.spacer.solve.reach.children     0.03
 :time.spacer.solve.reach.gen.bool_ind 0.01
 :time.spacer.solve.reach.is-reach     0.03
 :time.virtual_solver.proof            0.01
 :time.virtual_solver.smt.total        0.09
 :time.virtual_solver.smt.total.sat    0.06
 :virtual_solver.checks                236
 :virtual_solver.checks.sat            97)
BRUNCH_STAT max_query_lvl 8
BRUNCH_STAT num_queries 42
BRUNCH_STAT num_reach_queries 8
BRUNCH_STAT num_reach_reuse 1
BRUNCH_STAT inductive_lvl 0
BRUNCH_STAT max_depth 8
BRUNCH_STAT cex_depth 8

real	0m0.207s
user	0m0.200s
sys	0m0.004s
