(transform N7datalog13mk_coi_filterE...no-op 0s)
(transform N7datalog25mk_interp_tail_simplifierE...15 rules 0s)
(transform N7datalog27mk_quantifier_instantiationE...no-op 0s)
(transform N7datalog8mk_scaleE...no-op 0s)
(transform N7datalog18mk_karr_invariantsE...no-op 0s)
(transform N7datalog14mk_array_blastE...no-op 0s)
(transform N7datalog22mk_subsumption_checkerE...14 rules 0s)
(transform N7datalog12mk_bit_blastE...no-op 0s)
(transform N7datalog15mk_rule_inlinerE...3 rules 0.00555033s)
(transform N7datalog13mk_coi_filterE...no-op 0s)
(transform N7datalog25mk_interp_tail_simplifierE...3 rules 0s)
(transform N7datalog22mk_subsumption_checkerE...no-op 0s)
(transform N7datalog15mk_rule_inlinerE...no-op 0s)
(transform N7datalog13mk_coi_filterE...no-op 0s)
(transform N7datalog25mk_interp_tail_simplifierE...3 rules 0s)
(transform N7datalog22mk_subsumption_checkerE...no-op 0s)
(transform N7datalog15mk_rule_inlinerE...no-op 0s)
(transform N7datalog22mk_subsumption_checkerE...no-op 0s)
(transform N7datalog15mk_rule_inlinerE...no-op 0s)
(transform N7datalog22mk_subsumption_checkerE...no-op 0s)
(transform N7datalog15mk_rule_inlinerE...no-op 0s)
(transform N7datalog22mk_subsumption_checkerE...no-op 0s)
(transform N7datalog8mk_sliceE...no-op 0s)
expand: query!0 (0, 0) FAR  w(0) 1. F 0.00
(spacer::context::check_reachability :time 0.00 :before-memory 4.52 :after-memory 5.06)
Entering level 1
BRUNCH_STAT max_query_lvl 0
BRUNCH_STAT num_queries 0
BRUNCH_STAT num_reach_queries 0
BRUNCH_STAT num_reach_reuse 0
BRUNCH_STAT inductive_lvl 0
BRUNCH_STAT max_depth 1
BRUNCH_STAT cex_depth 0
expand: query!0 (1, 0) FAR  w(0) 1.
	create_child: MAIN (0, 1) FAR 3374 U 0.00
expand: MAIN (0, 0) FAR  w(0) 3374. F 0.00
expand: query!0 (1, 0) FAR  w(0) 1. F 0.00
(spacer::context::check_reachability :time 0.00 :before-memory 5.06 :after-memory 5.86)
Propagating: 0 1  ! 2 
(spacer::context::propagate :time 0.00 :before-memory 5.86 :after-memory 5.86)
Entering level 2
BRUNCH_STAT max_query_lvl 1
BRUNCH_STAT num_queries 1
BRUNCH_STAT num_reach_queries 0
BRUNCH_STAT num_reach_reuse 0
BRUNCH_STAT inductive_lvl 0
BRUNCH_STAT max_depth 2
BRUNCH_STAT cex_depth 0
expand: query!0 (2, 0) FAR  w(0) 1.
	create_child: MAIN (1, 2) FAR 3374 U 0.00
expand: MAIN (1, 0) FAR  w(0) 3374.
	create_child: MAIN (0, 2) FAR 5231 U 0.00
expand: MAIN (0, 0) FAR  w(0) 5231. F 0.00
expand: MAIN (1, 0) FAR  w(0) 3374.
	create_child: MAIN (0, 2) FAR 5431 U 0.00
expand: MAIN (0, 0) FAR  w(0) 5431. F 0.00
expand: MAIN (1, 0) FAR  w(0) 3374.
	create_child: MAIN (0, 2) FAR 5570 U 0.00
expand: MAIN (0, 0) FAR  w(0) 5570. F 0.00
expand: MAIN (1, 0) FAR  w(0) 3374.
	create_child: MAIN (0, 2) FAR 5641 U 0.00
expand: MAIN (0, 0) FAR  w(0) 5641. F 0.00
expand: MAIN (1, 0) FAR  w(0) 3374.
	create_child: MAIN (0, 2) FAR 5697 U 0.00
expand: MAIN (0, 0) FAR  w(0) 5697. F 0.00
expand: MAIN (1, 0) FAR  w(0) 3374.
	create_child: MAIN (0, 2) FAR 5892 U 0.00
expand: MAIN (0, 0) FAR  w(0) 5892. F 0.00
expand: MAIN (1, 0) FAR  w(0) 3374. F 0.00
expand: query!0 (2, 0) FAR  w(0) 1. F 0.00
(spacer::context::check_reachability :time 0.01 :before-memory 5.86 :after-memory 6.29)
Propagating: 0 1 2  ! 3 
(spacer::context::propagate :time 0.00 :before-memory 6.29 :after-memory 6.29)
Entering level 3
BRUNCH_STAT max_query_lvl 2
BRUNCH_STAT num_queries 8
BRUNCH_STAT num_reach_queries 0
BRUNCH_STAT num_reach_reuse 0
BRUNCH_STAT inductive_lvl 0
BRUNCH_STAT max_depth 3
BRUNCH_STAT cex_depth 0
expand: query!0 (3, 0) FAR  w(0) 1.
	create_child: MAIN (2, 3) FAR 3374 U 0.00
expand: MAIN (2, 0) FAR  w(0) 3374.
	create_child: MAIN (1, 3) FAR 6443 U 0.00
expand: MAIN (1, 0) FAR  w(0) 6443. F 0.00
expand: MAIN (2, 0) FAR  w(0) 3374.
	create_child: MAIN (1, 3) FAR 6829 U 0.00
expand: MAIN (1, 0) FAR  w(0) 6829. F 0.00
expand: MAIN (2, 0) FAR  w(0) 3374.
	create_child: MAIN (1, 3) FAR 7096 U 0.00
expand: MAIN (1, 0) FAR  w(0) 7096.
	create_child: MAIN (0, 3) FAR 7208 U 0.00
expand: MAIN (0, 0) FAR  w(0) 7208. F 0.00
expand: MAIN (1, 0) FAR  w(0) 7096. F 0.00
expand: MAIN (2, 0) FAR  w(0) 3374. F 0.00
expand: query!0 (3, 0) FAR  w(0) 1. F 0.00
(spacer::context::check_reachability :time 0.02 :before-memory 6.29 :after-memory 6.49)
Propagating: 0 1 2 3  ! 4 
(spacer::context::propagate :time 0.00 :before-memory 6.49 :after-memory 6.49)
Entering level 4
BRUNCH_STAT max_query_lvl 3
BRUNCH_STAT num_queries 13
BRUNCH_STAT num_reach_queries 0
BRUNCH_STAT num_reach_reuse 0
BRUNCH_STAT inductive_lvl 0
BRUNCH_STAT max_depth 4
BRUNCH_STAT cex_depth 0
expand: query!0 (4, 0) FAR  w(0) 1.
	create_child: MAIN (3, 4) FAR 3374 U 0.00
expand: MAIN (3, 0) FAR  w(0) 3374.
	create_child: MAIN (2, 4) FAR 7808 U 0.00
expand: MAIN (2, 0) FAR  w(0) 7808. F 0.00
expand: MAIN (3, 0) FAR  w(0) 3374.
	create_child: MAIN (2, 4) FAR 7982 U 0.00
expand: MAIN (2, 0) FAR  w(0) 7982. F 0.00
expand: MAIN (3, 0) FAR  w(0) 3374.
	create_child: MAIN (2, 4) FAR 8215 U 0.00
expand: MAIN (2, 0) FAR  w(0) 8215. F 0.00
expand: MAIN (3, 0) FAR  w(0) 3374.
	create_child: MAIN (2, 4) FAR 8383 U 0.00
expand: MAIN (2, 0) FAR  w(0) 8383. F 0.00
expand: MAIN (3, 0) FAR  w(0) 3374.
	create_child: MAIN (2, 4) FAR 8634 U 0.00
expand: MAIN (2, 0) FAR  w(0) 8634. F 0.00
expand: MAIN (3, 0) FAR  w(0) 3374.
	create_child: MAIN (2, 4) FAR 8768 U 0.00
expand: MAIN (2, 0) FAR  w(0) 8768.
	create_child: MAIN (1, 4) FAR 8861 U 0.00
expand: MAIN (1, 0) FAR  w(0) 8861. F 0.00
expand: MAIN (2, 0) FAR  w(0) 8768. F 0.00
expand: MAIN (3, 0) FAR  w(0) 3374.
	create_child: MAIN (2, 4) FAR 8995 U 0.00
expand: MAIN (2, 0) FAR  w(0) 8995. F 0.00
expand: MAIN (3, 0) FAR  w(0) 3374.
	create_child: MAIN (2, 4) FAR 9050 U 0.00
expand: MAIN (2, 0) FAR  w(0) 9050. F 0.00
expand: MAIN (3, 0) FAR  w(0) 3374.
	create_child: MAIN (2, 4) FAR 9176 U 0.00
expand: MAIN (2, 0) FAR  w(0) 9176.
	create_child: MAIN (1, 4) FAR 9333 U 0.00
expand: MAIN (1, 0) FAR  w(0) 9333. F 0.00
expand: MAIN (2, 0) FAR  w(0) 9176.
	create_child: MAIN (1, 4) FAR 9441 U 0.00
expand: MAIN (1, 0) FAR  w(0) 9441. F 0.00
expand: MAIN (2, 0) FAR  w(0) 9176. F 0.00
expand: MAIN (3, 0) FAR  w(0) 3374. F 0.00
expand: query!0 (4, 0) FAR  w(0) 1. F 0.00
(spacer::context::check_reachability :time 0.04 :before-memory 6.49 :after-memory 6.78)
Propagating: 1 2 3 4  ! 5 
(spacer::context::propagate :time 0.01 :before-memory 6.78 :after-memory 6.78)
Entering level 5
BRUNCH_STAT max_query_lvl 4
BRUNCH_STAT num_queries 26
BRUNCH_STAT num_reach_queries 0
BRUNCH_STAT num_reach_reuse 0
BRUNCH_STAT inductive_lvl 0
BRUNCH_STAT max_depth 5
BRUNCH_STAT cex_depth 0
expand: query!0 (5, 0) FAR  w(0) 1.
	create_child: MAIN (4, 5) FAR 3374 U 0.00
expand: MAIN (4, 0) FAR  w(0) 3374.
	create_child: MAIN (3, 5) FAR 10276 U 0.00
expand: MAIN (3, 0) FAR  w(0) 10276.
	create_child: MAIN (2, 5) FAR 10356 U 0.00
expand: MAIN (2, 0) FAR  w(0) 10356. F 0.00
expand: MAIN (3, 0) FAR  w(0) 10276. F 0.00
expand: MAIN (4, 0) FAR  w(0) 3374.
	create_child: MAIN (3, 5) FAR 9176 U 0.00
expand: MAIN (3, 0) FAR  w(0) 9176.
	create_child: MAIN (2, 5) FAR 9441 U 0.00
expand: MAIN (2, 0) FAR  w(0) 9441.
	create_child: MAIN (1, 5) FAR 10827 U 0.00
expand: MAIN (1, 0) FAR  w(0) 10827. F 0.00
expand: MAIN (2, 0) FAR  w(0) 9441. F 0.00
expand: MAIN (3, 0) FAR  w(0) 9176. F 0.00
expand: MAIN (4, 0) FAR  w(0) 3374. F 0.00
expand: query!0 (5, 0) FAR  w(0) 1. F 0.00
(spacer::context::check_reachability :time 0.02 :before-memory 6.78 :after-memory 6.97)
Propagating: 1 2 3 4 5  ! 6 
(spacer::context::propagate :time 0.01 :before-memory 6.97 :after-memory 6.97)
Entering level 6
BRUNCH_STAT max_query_lvl 5
BRUNCH_STAT num_queries 32
BRUNCH_STAT num_reach_queries 0
BRUNCH_STAT num_reach_reuse 0
BRUNCH_STAT inductive_lvl 0
BRUNCH_STAT max_depth 6
BRUNCH_STAT cex_depth 0
expand: query!0 (6, 0) FAR  w(0) 1.
	create_child: MAIN (5, 6) FAR 3374 U 0.00
expand: MAIN (5, 0) FAR  w(0) 3374.
	create_child: MAIN (4, 6) FAR 11696 U 0.00
expand: MAIN (4, 0) FAR  w(0) 11696.
	create_child: MAIN (3, 6) FAR 11691 U 0.00
expand: MAIN (3, 0) FAR  w(0) 11691.
	create_child: MAIN (2, 6) FAR 11899 U 0.00
expand: MAIN (2, 0) FAR  w(0) 11899. F 0.00
expand: MAIN (3, 0) FAR  w(0) 11691. F 0.00
expand: MAIN (4, 0) FAR  w(0) 11696. F 0.00
expand: MAIN (5, 0) FAR  w(0) 3374.
	create_child: MAIN (4, 6) FAR 9176 U 0.00
expand: MAIN (4, 0) FAR  w(0) 9176.
	create_child: MAIN (3, 6) FAR 9441 U 0.00
expand: MAIN (3, 0) FAR  w(0) 9441.
	create_child: MAIN (2, 6) FAR 10827 U 0.00
expand: MAIN (2, 0) FAR  w(0) 10827.
	create_child: MAIN (1, 6) FAR 12336 U 0.00
expand: MAIN (1, 0) FAR  w(0) 12336. F 0.00
expand: MAIN (2, 0) FAR  w(0) 10827. F 0.00
expand: MAIN (3, 0) FAR  w(0) 9441. F 0.00
expand: MAIN (4, 0) FAR  w(0) 9176. F 0.00
expand: MAIN (5, 0) FAR  w(0) 3374. F 0.00
expand: query!0 (6, 0) FAR  w(0) 1. F 0.00
(spacer::context::check_reachability :time 0.03 :before-memory 6.97 :after-memory 7.42)
Propagating: 1 2 3 4 5 6  ! 7 
(spacer::context::propagate :time 0.01 :before-memory 7.42 :after-memory 7.42)
Entering level 7
BRUNCH_STAT max_query_lvl 6
BRUNCH_STAT num_queries 40
BRUNCH_STAT num_reach_queries 0
BRUNCH_STAT num_reach_reuse 0
BRUNCH_STAT inductive_lvl 0
BRUNCH_STAT max_depth 7
BRUNCH_STAT cex_depth 0
expand: query!0 (7, 0) FAR  w(0) 1.
	create_child: MAIN (6, 7) FAR 3374 U 0.00
expand: MAIN (6, 0) FAR  w(0) 3374.
	create_child: MAIN (5, 7) FAR 11696 U 0.00
expand: MAIN (5, 0) FAR  w(0) 11696.
	create_child: MAIN (4, 7) FAR 11691 U 0.00
expand: MAIN (4, 0) FAR  w(0) 11691.
	create_child: MAIN (3, 7) FAR 11899 U 0.00
expand: MAIN (3, 0) FAR  w(0) 11899.
	create_child: MAIN (2, 7) FAR 13103 U 0.00
expand: MAIN (2, 0) FAR  w(0) 13103. F 0.00
expand: MAIN (3, 0) FAR  w(0) 11899. F 0.00
expand: MAIN (4, 0) FAR  w(0) 11691. F 0.00
expand: MAIN (5, 0) FAR  w(0) 11696. F 0.00
expand: MAIN (6, 0) FAR  w(0) 3374.
	create_child: MAIN (5, 7) FAR 13271 U 0.00
expand: MAIN (5, 0) FAR  w(0) 13271.
	create_child: MAIN (4, 7) FAR 13420 U 0.00
expand: MAIN (4, 0) FAR  w(0) 13420.
	create_child: MAIN (3, 7) FAR 13411 U 0.00
expand: MAIN (3, 0) FAR  w(0) 13411.
	create_child: MAIN (2, 7) FAR 13551 U 0.00
expand: MAIN (2, 0) FAR  w(0) 13551.
	create_child: MAIN (1, 7) FAR 13605 U 0.00
expand: MAIN (1, 0) FAR  w(0) 13605. F 0.00
expand: MAIN (2, 0) FAR  w(0) 13551. F 0.00
expand: MAIN (3, 0) FAR  w(0) 13411. F 0.00
expand: MAIN (4, 0) FAR  w(0) 13420. F 0.00
expand: MAIN (5, 0) FAR  w(0) 13271. F 0.00
expand: MAIN (6, 0) FAR  w(0) 3374. F 0.00
expand: query!0 (7, 0) FAR  w(0) 1. F 0.00
(spacer::context::check_reachability :time 0.03 :before-memory 7.42 :after-memory 7.61)
Propagating: 1 2 3 4 5 6 7  ! 8 
(spacer::context::propagate :time 0.01 :before-memory 7.61 :after-memory 7.61)
Entering level 8
BRUNCH_STAT max_query_lvl 7
BRUNCH_STAT num_queries 50
BRUNCH_STAT num_reach_queries 0
BRUNCH_STAT num_reach_reuse 0
BRUNCH_STAT inductive_lvl 0
BRUNCH_STAT max_depth 8
BRUNCH_STAT cex_depth 0
expand: query!0 (8, 0) FAR  w(0) 1.
	create_child: MAIN (7, 8) FAR 3374 U 0.00
expand: MAIN (7, 0) FAR  w(0) 3374.
	create_child: MAIN (6, 8) FAR 11696 U 0.00
expand: MAIN (6, 0) FAR  w(0) 11696.
	create_child: MAIN (5, 8) FAR 11691 U 0.00
expand: MAIN (5, 0) FAR  w(0) 11691.
	create_child: MAIN (4, 8) FAR 11899 U 0.00
expand: MAIN (4, 0) FAR  w(0) 11899.
	create_child: MAIN (3, 8) FAR 13103 U 0.00
expand: MAIN (3, 0) FAR  w(0) 13103.
	create_child: MAIN (2, 8) FAR 14552 U 0.00
expand: MAIN (2, 0) FAR  w(0) 14552. F 0.00
expand: MAIN (3, 0) FAR  w(0) 13103. F 0.00
expand: MAIN (4, 0) FAR  w(0) 11899. F 0.00
expand: MAIN (5, 0) FAR  w(0) 11691. F 0.00
expand: MAIN (6, 0) FAR  w(0) 11696. F 0.00
expand: MAIN (7, 0) FAR  w(0) 3374.
	create_child: MAIN (6, 8) FAR 14650 U 0.00
expand: MAIN (6, 0) FAR  w(0) 14650.
	create_child: MAIN (5, 8) FAR 14704 U 0.00
expand: MAIN (5, 0) FAR  w(0) 14704.
	create_child: MAIN (4, 8) FAR 14744 U 0.00
expand: MAIN (4, 0) FAR  w(0) 14744.
	create_child: MAIN (3, 8) FAR 14361 U 0.00
expand: MAIN (3, 0) FAR  w(0) 14361.
	create_child: MAIN (2, 8) FAR 14982 U 0.00
expand: MAIN (2, 0) FAR  w(0) 14982.
	create_child: MAIN (1, 8) FAR 15116 U 0.00
expand: MAIN (1, 0) FAR  w(0) 15116. F 0.00
expand: MAIN (2, 0) FAR  w(0) 14982. F 0.00
expand: MAIN (3, 0) FAR  w(0) 14361. F 0.00
expand: MAIN (4, 0) FAR  w(0) 14744. F 0.00
expand: MAIN (5, 0) FAR  w(0) 14704. F 0.00
expand: MAIN (6, 0) FAR  w(0) 14650. F 0.00
expand: MAIN (7, 0) FAR  w(0) 3374.
	create_child: MAIN (6, 8) FAR 15266 U 0.00
expand: MAIN (6, 0) FAR  w(0) 15266. F 0.00
expand: MAIN (7, 0) FAR  w(0) 3374.
	create_child: MAIN (6, 8) FAR 15162 U 0.00
expand: MAIN (6, 0) FAR  w(0) 15162.
	create_child: MAIN (5, 8) FAR 15278 U 0.00
expand: MAIN (5, 0) FAR  w(0) 15278.
	create_child: MAIN (4, 8) FAR 15453 U 0.00
expand: MAIN (4, 0) FAR  w(0) 15453.
	create_child: MAIN (3, 8) FAR 15504 U 0.00
expand: MAIN (3, 0) FAR  w(0) 15504.
	create_child: MAIN (2, 8) FAR 15529 U 0.00
expand: MAIN (2, 0) FAR  w(0) 15529.
	create_child: MAIN (1, 8) FAR 15333 U 0.00
expand: MAIN (1, 0) FAR  w(0) 15333. F 0.00
expand: MAIN (2, 0) FAR  w(0) 15529. F 0.00
expand: MAIN (3, 0) FAR  w(0) 15504. F 0.00
expand: MAIN (4, 0) FAR  w(0) 15453. F 0.00
expand: MAIN (5, 0) FAR  w(0) 15278. F 0.00
expand: MAIN (6, 0) FAR  w(0) 15162. F 0.00
expand: MAIN (7, 0) FAR  w(0) 3374. F 0.00
expand: query!0 (8, 0) FAR  w(0) 1. F 0.00
(spacer::context::check_reachability :time 0.06 :before-memory 7.61 :after-memory 7.80)
Propagating: 1 2 3 4 5 6 7 8  ! 9 
(spacer::context::propagate :time 0.01 :before-memory 7.80 :after-memory 7.80)
Entering level 9
BRUNCH_STAT max_query_lvl 8
BRUNCH_STAT num_queries 69
BRUNCH_STAT num_reach_queries 0
BRUNCH_STAT num_reach_reuse 0
BRUNCH_STAT inductive_lvl 0
BRUNCH_STAT max_depth 9
BRUNCH_STAT cex_depth 0
expand: query!0 (9, 0) FAR  w(0) 1.
	create_child: MAIN (8, 9) FAR 3374 U 0.00
expand: MAIN (8, 0) FAR  w(0) 3374.
	create_child: MAIN (7, 9) FAR 16418 U 0.00
expand: MAIN (7, 0) FAR  w(0) 16418.
	create_child: MAIN (6, 9) FAR 16460 U 0.00
expand: MAIN (6, 0) FAR  w(0) 16460.
	create_child: MAIN (5, 9) FAR 16587 U 0.00
expand: MAIN (5, 0) FAR  w(0) 16587.
	create_child: MAIN (4, 9) FAR 16613 U 0.00
expand: MAIN (4, 0) FAR  w(0) 16613.
	create_child: MAIN (3, 9) FAR 16677 U 0.00
expand: MAIN (3, 0) FAR  w(0) 16677.
	create_child: MAIN (2, 9) FAR 16646 U 0.00
expand: MAIN (2, 0) FAR  w(0) 16646. F 0.00
expand: MAIN (3, 0) FAR  w(0) 16677. F 0.00
expand: MAIN (4, 0) FAR  w(0) 16613. F 0.00
expand: MAIN (5, 0) FAR  w(0) 16587. F 0.00
expand: MAIN (6, 0) FAR  w(0) 16460. F 0.00
expand: MAIN (7, 0) FAR  w(0) 16418. F 0.00
expand: MAIN (8, 0) FAR  w(0) 3374.
	create_child: MAIN (7, 9) FAR 15162 U 0.00
expand: MAIN (7, 0) FAR  w(0) 15162.
	create_child: MAIN (6, 9) FAR 15278 U 0.00
expand: MAIN (6, 0) FAR  w(0) 15278.
	create_child: MAIN (5, 9) FAR 15453 U 0.00
expand: MAIN (5, 0) FAR  w(0) 15453.
	create_child: MAIN (4, 9) FAR 15504 U 0.00
expand: MAIN (4, 0) FAR  w(0) 15504.
	create_child: MAIN (3, 9) FAR 15529 U 0.00
expand: MAIN (3, 0) FAR  w(0) 15529.
	create_child: MAIN (2, 9) FAR 15333 U 0.00
expand: MAIN (2, 0) FAR  w(0) 15333.
	create_child: MAIN (1, 9) FAR 17251 U 0.00
expand: MAIN (1, 0) FAR  w(0) 17251. F 0.00
expand: MAIN (2, 0) FAR  w(0) 15333. F 0.00
expand: MAIN (3, 0) FAR  w(0) 15529. F 0.00
expand: MAIN (4, 0) FAR  w(0) 15504. F 0.00
expand: MAIN (5, 0) FAR  w(0) 15453. F 0.00
expand: MAIN (6, 0) FAR  w(0) 15278. F 0.00
expand: MAIN (7, 0) FAR  w(0) 15162. F 0.00
expand: MAIN (8, 0) FAR  w(0) 3374. F 0.00
expand: query!0 (9, 0) FAR  w(0) 1. F 0.00
(spacer::context::check_reachability :time 0.05 :before-memory 7.80 :after-memory 8.00)
Propagating: 1 2 3 4 5 6 7 8 9  ! 10 
(spacer::context::propagate :time 0.02 :before-memory 8.00 :after-memory 8.00)
Entering level 10
BRUNCH_STAT max_query_lvl 9
BRUNCH_STAT num_queries 83
BRUNCH_STAT num_reach_queries 0
BRUNCH_STAT num_reach_reuse 0
BRUNCH_STAT inductive_lvl 0
BRUNCH_STAT max_depth 10
BRUNCH_STAT cex_depth 0
expand: query!0 (10, 0) FAR  w(0) 1.
	create_child: MAIN (9, 10) FAR 3374 U 0.00
expand: MAIN (9, 0) FAR  w(0) 3374.
	create_child: MAIN (8, 10) FAR 18210 U 0.00
expand: MAIN (8, 0) FAR  w(0) 18210. F 0.00
expand: MAIN (9, 0) FAR  w(0) 3374.
	create_child: MAIN (8, 10) FAR 18398 U 0.00
expand: MAIN (8, 0) FAR  w(0) 18398.
	create_child: MAIN (7, 10) FAR 18370 U 0.00
expand: MAIN (7, 0) FAR  w(0) 18370.
	create_child: MAIN (6, 10) FAR 18573 U 0.00
expand: MAIN (6, 0) FAR  w(0) 18573.
	create_child: MAIN (5, 10) FAR 18624 U 0.00
expand: MAIN (5, 0) FAR  w(0) 18624.
	create_child: MAIN (4, 10) FAR 18451 U 0.00
expand: MAIN (4, 0) FAR  w(0) 18451.
	create_child: MAIN (3, 10) FAR 18427 U 0.00
expand: MAIN (3, 0) FAR  w(0) 18427.
	create_child: MAIN (2, 10) FAR 18696 U 0.00
expand: MAIN (2, 0) FAR  w(0) 18696.
	create_child: MAIN (1, 10) FAR 18653 U 0.00
expand: MAIN (1, 0) FAR  w(0) 18653. F 0.00
expand: MAIN (2, 0) FAR  w(0) 18696. F 0.00
expand: MAIN (3, 0) FAR  w(0) 18427. F 0.00
expand: MAIN (4, 0) FAR  w(0) 18451. F 0.00
expand: MAIN (5, 0) FAR  w(0) 18624. F 0.00
expand: MAIN (6, 0) FAR  w(0) 18573. F 0.00
expand: MAIN (7, 0) FAR  w(0) 18370. F 0.00
expand: MAIN (8, 0) FAR  w(0) 18398. F 0.00
expand: MAIN (9, 0) FAR  w(0) 3374. F 0.00
expand: query!0 (10, 0) FAR  w(0) 1. F 0.00
(spacer::context::check_reachability :time 0.03 :before-memory 8.00 :after-memory 8.28)
Propagating: 1 2 3 4 5 6 7 8 9 10  ! 11 
(spacer::context::propagate :time 0.02 :before-memory 8.28 :after-memory 8.28)
Entering level 11
BRUNCH_STAT max_query_lvl 10
BRUNCH_STAT num_queries 93
BRUNCH_STAT num_reach_queries 0
BRUNCH_STAT num_reach_reuse 0
BRUNCH_STAT inductive_lvl 0
BRUNCH_STAT max_depth 11
BRUNCH_STAT cex_depth 0
expand: query!0 (11, 0) FAR  w(0) 1.
	create_child: MAIN (10, 11) FAR 3374 U 0.00
expand: MAIN (10, 0) FAR  w(0) 3374.
	create_child: MAIN (9, 11) FAR 19226 U 0.00
expand: MAIN (9, 0) FAR  w(0) 19226. F 0.00
expand: MAIN (10, 0) FAR  w(0) 3374.
	create_child: MAIN (9, 11) FAR 19290 U 0.00
expand: MAIN (9, 0) FAR  w(0) 19290.
	create_child: MAIN (8, 11) FAR 19411 U 0.00
expand: MAIN (8, 0) FAR  w(0) 19411.
	create_child: MAIN (7, 11) FAR 19403 U 0.00
expand: MAIN (7, 0) FAR  w(0) 19403.
	create_child: MAIN (6, 11) FAR 19517 U 0.00
expand: MAIN (6, 0) FAR  w(0) 19517.
	create_child: MAIN (5, 11) FAR 19341 U 0.00
expand: MAIN (5, 0) FAR  w(0) 19341.
	create_child: MAIN (4, 11) FAR 19391 U 0.00
expand: MAIN (4, 0) FAR  w(0) 19391.
	create_child: MAIN (3, 11) FAR 19584 U 0.00
expand: MAIN (3, 0) FAR  w(0) 19584.
	create_child: MAIN (2, 11) FAR 19687 U 0.00
expand: MAIN (2, 0) FAR  w(0) 19687. F 0.00
expand: MAIN (3, 0) FAR  w(0) 19584. F 0.00
expand: MAIN (4, 0) FAR  w(0) 19391. F 0.00
expand: MAIN (5, 0) FAR  w(0) 19341. F 0.00
expand: MAIN (6, 0) FAR  w(0) 19517. F 0.00
expand: MAIN (7, 0) FAR  w(0) 19403. F 0.00
expand: MAIN (8, 0) FAR  w(0) 19411. F 0.00
expand: MAIN (9, 0) FAR  w(0) 19290. F 0.00
expand: MAIN (10, 0) FAR  w(0) 3374.
	create_child: MAIN (9, 11) FAR 19114 U 0.00
expand: MAIN (9, 0) FAR  w(0) 19114.
	create_child: MAIN (8, 11) FAR 19973 U 0.00
expand: MAIN (8, 0) FAR  w(0) 19973.
	create_child: MAIN (7, 11) FAR 20032 U 0.00
expand: MAIN (7, 0) FAR  w(0) 20032.
	create_child: MAIN (6, 11) FAR 20105 U 0.00
expand: MAIN (6, 0) FAR  w(0) 20105.
	create_child: MAIN (5, 11) FAR 20156 U 0.00
expand: MAIN (5, 0) FAR  w(0) 20156.
	create_child: MAIN (4, 11) FAR 19980 U 0.00
expand: MAIN (4, 0) FAR  w(0) 19980.
	create_child: MAIN (3, 11) FAR 20162 U 0.00
expand: MAIN (3, 0) FAR  w(0) 20162.
	create_child: MAIN (2, 11) FAR 19871 U 0.00
expand: MAIN (2, 0) FAR  w(0) 19871.
	create_child: MAIN (1, 11) FAR 20070 U 0.00
expand: MAIN (1, 0) FAR  w(0) 20070. F 0.00
expand: MAIN (2, 0) FAR  w(0) 19871. F 0.00
expand: MAIN (3, 0) FAR  w(0) 20162. F 0.00
expand: MAIN (4, 0) FAR  w(0) 19980. F 0.00
expand: MAIN (5, 0) FAR  w(0) 20156. F 0.00
expand: MAIN (6, 0) FAR  w(0) 20105. F 0.00
expand: MAIN (7, 0) FAR  w(0) 20032. F 0.00
expand: MAIN (8, 0) FAR  w(0) 19973. F 0.00
expand: MAIN (9, 0) FAR  w(0) 19114. F 0.00
expand: MAIN (10, 0) FAR  w(0) 3374. F 0.00
expand: query!0 (11, 0) FAR  w(0) 1. F 0.00
(spacer::context::check_reachability :time 0.07 :before-memory 8.28 :after-memory 8.38)
Propagating: 1 2 3 4 5 6 7 8 9 10 11  ! 12 
(spacer::context::propagate :time 0.02 :before-memory 8.38 :after-memory 8.38)
Entering level 12
BRUNCH_STAT max_query_lvl 11
BRUNCH_STAT num_queries 112
BRUNCH_STAT num_reach_queries 0
BRUNCH_STAT num_reach_reuse 0
BRUNCH_STAT inductive_lvl 0
BRUNCH_STAT max_depth 12
BRUNCH_STAT cex_depth 0
expand: query!0 (12, 0) FAR  w(0) 1.
	create_child: MAIN (11, 12) FAR 3374 U 0.00
expand: MAIN (11, 0) FAR  w(0) 3374.
	create_child: MAIN (10, 12) FAR 21219 U 0.00
expand: MAIN (10, 0) FAR  w(0) 21219.
	create_child: MAIN (9, 12) FAR 21216 U 0.00
expand: MAIN (9, 0) FAR  w(0) 21216.
	create_child: MAIN (8, 12) FAR 21422 U 0.00
expand: MAIN (8, 0) FAR  w(0) 21422.
	create_child: MAIN (7, 12) FAR 21443 U 0.00
expand: MAIN (7, 0) FAR  w(0) 21443.
	create_child: MAIN (6, 12) FAR 21281 U 0.00
expand: MAIN (6, 0) FAR  w(0) 21281.
	create_child: MAIN (5, 12) FAR 21464 U 0.00
expand: MAIN (5, 0) FAR  w(0) 21464.
	create_child: MAIN (4, 12) FAR 21528 U 0.00
expand: MAIN (4, 0) FAR  w(0) 21528.
	create_child: MAIN (3, 12) FAR 21307 U 0.00
expand: MAIN (3, 0) FAR  w(0) 21307.
	create_child: MAIN (2, 12) FAR 21390 U 0.00
expand: MAIN (2, 0) FAR  w(0) 21390.
	create_child: MAIN (1, 12) FAR 21329 U 0.00
expand: MAIN (1, 0) FAR  w(0) 21329. F 0.00
expand: MAIN (2, 0) FAR  w(0) 21390. F 0.00
expand: MAIN (3, 0) FAR  w(0) 21307. F 0.00
expand: MAIN (4, 0) FAR  w(0) 21528. F 0.00
expand: MAIN (5, 0) FAR  w(0) 21464. F 0.00
expand: MAIN (6, 0) FAR  w(0) 21281. F 0.00
expand: MAIN (7, 0) FAR  w(0) 21443. F 0.00
expand: MAIN (8, 0) FAR  w(0) 21422. F 0.00
expand: MAIN (9, 0) FAR  w(0) 21216. F 0.00
expand: MAIN (10, 0) FAR  w(0) 21219. F 0.00
expand: MAIN (11, 0) FAR  w(0) 3374.
	create_child: MAIN (10, 12) FAR 22732 U 0.00
expand: MAIN (10, 0) FAR  w(0) 22732.
	create_child: MAIN (9, 12) FAR 22931 U 0.00
expand: MAIN (9, 0) FAR  w(0) 22931.
	create_child: MAIN (8, 12) FAR 23157 U 0.00
expand: MAIN (8, 0) FAR  w(0) 23157.
	create_child: MAIN (7, 12) FAR 23208 U 0.00
expand: MAIN (7, 0) FAR  w(0) 23208.
	create_child: MAIN (6, 12) FAR 23035 U 0.00
expand: MAIN (6, 0) FAR  w(0) 23035.
	create_child: MAIN (5, 12) FAR 23011 U 0.00
expand: MAIN (5, 0) FAR  w(0) 23011.
	create_child: MAIN (4, 12) FAR 23280 U 0.00
expand: MAIN (4, 0) FAR  w(0) 23280.
	create_child: MAIN (3, 12) FAR 22898 U 0.00
expand: MAIN (3, 0) FAR  w(0) 22898.
	create_child: MAIN (2, 12) FAR 23283 U 0.00
expand: MAIN (2, 0) FAR  w(0) 23283.
	create_child: MAIN (1, 12) FAR 23025 U 0.00
expand: MAIN (1, 0) FAR  w(0) 23025. F 0.00
expand: MAIN (2, 0) FAR  w(0) 23283. F 0.00
expand: MAIN (3, 0) FAR  w(0) 22898. F 0.00
expand: MAIN (4, 0) FAR  w(0) 23280. F 0.00
expand: MAIN (5, 0) FAR  w(0) 23011. F 0.00
expand: MAIN (6, 0) FAR  w(0) 23035. F 0.00
expand: MAIN (7, 0) FAR  w(0) 23208. F 0.00
expand: MAIN (8, 0) FAR  w(0) 23157. F 0.00
expand: MAIN (9, 0) FAR  w(0) 22931. F 0.00
expand: MAIN (10, 0) FAR  w(0) 22732. F 0.00
expand: MAIN (11, 0) FAR  w(0) 3374. F 0.00
expand: query!0 (12, 0) FAR  w(0) 1. F 0.00
(spacer::context::check_reachability :time 0.09 :before-memory 8.38 :after-memory 9.31)
Propagating: 1 2 3 4 5 6 7 8 9 10 11 12  ! 13 
(spacer::context::propagate :time 0.03 :before-memory 9.31 :after-memory 9.31)
Entering level 13
BRUNCH_STAT max_query_lvl 12
BRUNCH_STAT num_queries 133
BRUNCH_STAT num_reach_queries 0
BRUNCH_STAT num_reach_reuse 0
BRUNCH_STAT inductive_lvl 0
BRUNCH_STAT max_depth 13
BRUNCH_STAT cex_depth 0
expand: query!0 (13, 0) FAR  w(0) 1.
	create_child: MAIN (12, 13) FAR 3374 U 0.00
expand: MAIN (12, 0) FAR  w(0) 3374.
	create_child: MAIN (11, 13) FAR 19290 U 0.00
expand: MAIN (11, 0) FAR  w(0) 19290.
	create_child: MAIN (10, 13) FAR 24275 U 0.00
expand: MAIN (10, 0) FAR  w(0) 24275. F 0.00
expand: MAIN (11, 0) FAR  w(0) 19290.
	create_child: MAIN (10, 13) FAR 19411 U 0.00
expand: MAIN (10, 0) FAR  w(0) 19411.
	create_child: MAIN (9, 13) FAR 19403 U 0.00
expand: MAIN (9, 0) FAR  w(0) 19403.
	create_child: MAIN (8, 13) FAR 19517 U 0.00
expand: MAIN (8, 0) FAR  w(0) 19517.
	create_child: MAIN (7, 13) FAR 19341 U 0.00
expand: MAIN (7, 0) FAR  w(0) 19341.
	create_child: MAIN (6, 13) FAR 19391 U 0.00
expand: MAIN (6, 0) FAR  w(0) 19391.
	create_child: MAIN (5, 13) FAR 19584 U 0.00
expand: MAIN (5, 0) FAR  w(0) 19584.
	create_child: MAIN (4, 13) FAR 19687 U 0.00
expand: MAIN (4, 0) FAR  w(0) 19687.
	create_child: MAIN (3, 13) FAR 24636 U 0.00
expand: MAIN (3, 0) FAR  w(0) 24636.
	create_child: MAIN (2, 13) FAR 24783 U 0.00
expand: MAIN (2, 0) FAR  w(0) 24783.
	create_child: MAIN (1, 13) FAR 24858 U 0.00
expand: MAIN (1, 0) FAR  w(0) 24858. F 0.00
expand: MAIN (2, 0) FAR  w(0) 24783. F 0.00
expand: MAIN (3, 0) FAR  w(0) 24636. F 0.00
expand: MAIN (4, 0) FAR  w(0) 19687. F 0.00
expand: MAIN (5, 0) FAR  w(0) 19584. F 0.00
expand: MAIN (6, 0) FAR  w(0) 19391. F 0.00
expand: MAIN (7, 0) FAR  w(0) 19341. F 0.00
expand: MAIN (8, 0) FAR  w(0) 19517. F 0.00
expand: MAIN (9, 0) FAR  w(0) 19403. F 0.00
expand: MAIN (10, 0) FAR  w(0) 19411. F 0.00
expand: MAIN (11, 0) FAR  w(0) 19290. F 0.00
expand: MAIN (12, 0) FAR  w(0) 3374. F 0.00
expand: query!0 (13, 0) FAR  w(0) 1. F 0.00
(spacer::context::check_reachability :time 0.05 :before-memory 9.31 :after-memory 9.51)
Propagating: 1 2 3 4 5 6 7 8 9 10 11 12 13  ! 14 
(spacer::context::propagate :time 0.03 :before-memory 9.51 :after-memory 9.51)
Entering level 14
BRUNCH_STAT max_query_lvl 13
BRUNCH_STAT num_queries 146
BRUNCH_STAT num_reach_queries 0
BRUNCH_STAT num_reach_reuse 0
BRUNCH_STAT inductive_lvl 0
BRUNCH_STAT max_depth 14
BRUNCH_STAT cex_depth 0
expand: query!0 (14, 0) FAR  w(0) 1.
	create_child: MAIN (13, 14) FAR 3374 U 0.00
expand: MAIN (13, 0) FAR  w(0) 3374.
	create_child: MAIN (12, 14) FAR 19290 U 0.00
expand: MAIN (12, 0) FAR  w(0) 19290.
	create_child: MAIN (11, 14) FAR 24275 U 0.00
expand: MAIN (11, 0) FAR  w(0) 24275.
	create_child: MAIN (10, 14) FAR 25588 U 0.00
expand: MAIN (10, 0) FAR  w(0) 25588.
	create_child: MAIN (9, 14) FAR 25824 U 0.00
expand: MAIN (9, 0) FAR  w(0) 25824.
	create_child: MAIN (8, 14) FAR 25770 U 0.00
expand: MAIN (8, 0) FAR  w(0) 25770.
	create_child: MAIN (7, 14) FAR 25592 U 0.00
expand: MAIN (7, 0) FAR  w(0) 25592.
	create_child: MAIN (6, 14) FAR 25758 U 0.00
expand: MAIN (6, 0) FAR  w(0) 25758.
	create_child: MAIN (5, 14) FAR 25959 U 0.00
expand: MAIN (5, 0) FAR  w(0) 25959.
	create_child: MAIN (4, 14) FAR 25943 U 0.00
expand: MAIN (4, 0) FAR  w(0) 25943.
	create_child: MAIN (3, 14) FAR 25781 U 0.00
expand: MAIN (3, 0) FAR  w(0) 25781.
	create_child: MAIN (2, 14) FAR 25582 U 0.00
expand: MAIN (2, 0) FAR  w(0) 25582. F 0.00
expand: MAIN (3, 0) FAR  w(0) 25781. F 0.00
expand: MAIN (4, 0) FAR  w(0) 25943. F 0.00
expand: MAIN (5, 0) FAR  w(0) 25959. F 0.00
expand: MAIN (6, 0) FAR  w(0) 25758. F 0.00
expand: MAIN (7, 0) FAR  w(0) 25592. F 0.00
expand: MAIN (8, 0) FAR  w(0) 25770. F 0.00
expand: MAIN (9, 0) FAR  w(0) 25824. F 0.00
expand: MAIN (10, 0) FAR  w(0) 25588. F 0.00
expand: MAIN (11, 0) FAR  w(0) 24275.
	create_child: MAIN (10, 14) FAR 27130 U 0.00
expand: MAIN (10, 0) FAR  w(0) 27130.
	create_child: MAIN (9, 14) FAR 27148 U 0.00
expand: MAIN (9, 0) FAR  w(0) 27148.
	create_child: MAIN (8, 14) FAR 26960 U 0.00
expand: MAIN (8, 0) FAR  w(0) 26960.
	create_child: MAIN (7, 14) FAR 26976 U 0.00
expand: MAIN (7, 0) FAR  w(0) 26976.
	create_child: MAIN (6, 14) FAR 27196 U 0.00
expand: MAIN (6, 0) FAR  w(0) 27196.
	create_child: MAIN (5, 14) FAR 26978 U 0.00
expand: MAIN (5, 0) FAR  w(0) 26978.
	create_child: MAIN (4, 14) FAR 27076 U 0.00
expand: MAIN (4, 0) FAR  w(0) 27076.
	create_child: MAIN (3, 14) FAR 27398 U 0.00
expand: MAIN (3, 0) FAR  w(0) 27398.
	create_child: MAIN (2, 14) FAR 26980 U 0.00
expand: MAIN (2, 0) FAR  w(0) 26980.
	create_child: MAIN (1, 14) FAR 26986 U 0.00
expand: MAIN (1, 0) FAR  w(0) 26986. F 0.00
expand: MAIN (2, 0) FAR  w(0) 26980. F 0.00
expand: MAIN (3, 0) FAR  w(0) 27398. F 0.00
expand: MAIN (4, 0) FAR  w(0) 27076. F 0.00
expand: MAIN (5, 0) FAR  w(0) 26978. F 0.00
expand: MAIN (6, 0) FAR  w(0) 27196. F 0.00
expand: MAIN (7, 0) FAR  w(0) 26976. F 0.00
expand: MAIN (8, 0) FAR  w(0) 26960. F 0.00
expand: MAIN (9, 0) FAR  w(0) 27148. F 0.00
expand: MAIN (10, 0) FAR  w(0) 27130. F 0.00
expand: MAIN (11, 0) FAR  w(0) 24275. F 0.00
expand: MAIN (12, 0) FAR  w(0) 19290. F 0.00
expand: MAIN (13, 0) FAR  w(0) 3374. F 0.00
expand: query!0 (14, 0) FAR  w(0) 1. F 0.00
(spacer::context::check_reachability :time 0.10 :before-memory 9.51 :after-memory 9.90)
Propagating: 1 2 3 4 5 6 7 8 9 10 11 12 13 14  ! 15 
(spacer::context::propagate :time 0.04 :before-memory 9.90 :after-memory 9.90)
Entering level 15
BRUNCH_STAT max_query_lvl 14
BRUNCH_STAT num_queries 168
BRUNCH_STAT num_reach_queries 0
BRUNCH_STAT num_reach_reuse 0
BRUNCH_STAT inductive_lvl 0
BRUNCH_STAT max_depth 15
BRUNCH_STAT cex_depth 0
expand: query!0 (15, 0) FAR  w(0) 1.
	create_child: MAIN (14, 15) FAR 3374 U 0.00
expand: MAIN (14, 0) FAR  w(0) 3374.
	create_child: MAIN (13, 15) FAR 19290 U 0.00
expand: MAIN (13, 0) FAR  w(0) 19290.
	create_child: MAIN (12, 15) FAR 24275 U 0.00
expand: MAIN (12, 0) FAR  w(0) 24275.
	create_child: MAIN (11, 15) FAR 25588 U 0.00
expand: MAIN (11, 0) FAR  w(0) 25588.
	create_child: MAIN (10, 15) FAR 29239 U 0.00
expand: MAIN (10, 0) FAR  w(0) 29239.
	create_child: MAIN (9, 15) FAR 29310 U 0.00
expand: MAIN (9, 0) FAR  w(0) 29310.
	create_child: MAIN (8, 15) FAR 29282 U 0.00
expand: MAIN (8, 0) FAR  w(0) 29282.
	create_child: MAIN (7, 15) FAR 29340 U 0.00
expand: MAIN (7, 0) FAR  w(0) 29340.
	create_child: MAIN (6, 15) FAR 29586 U 0.00
expand: MAIN (6, 0) FAR  w(0) 29586.
	create_child: MAIN (5, 15) FAR 29337 U 0.00
expand: MAIN (5, 0) FAR  w(0) 29337.
	create_child: MAIN (4, 15) FAR 29604 U 0.00
expand: MAIN (4, 0) FAR  w(0) 29604.
	create_child: MAIN (3, 15) FAR 29657 U 0.00
expand: MAIN (3, 0) FAR  w(0) 29657.
	create_child: MAIN (2, 15) FAR 29539 U 0.00
expand: MAIN (2, 0) FAR  w(0) 29539. F 0.00
expand: MAIN (3, 0) FAR  w(0) 29657. F 0.00
expand: MAIN (4, 0) FAR  w(0) 29604. F 0.00
expand: MAIN (5, 0) FAR  w(0) 29337. F 0.00
expand: MAIN (6, 0) FAR  w(0) 29586. F 0.00
expand: MAIN (7, 0) FAR  w(0) 29340. F 0.00
expand: MAIN (8, 0) FAR  w(0) 29282. F 0.00
expand: MAIN (9, 0) FAR  w(0) 29310. F 0.00
expand: MAIN (10, 0) FAR  w(0) 29239. F 0.00
expand: MAIN (11, 0) FAR  w(0) 25588.
	create_child: MAIN (10, 15) FAR 25824 U 0.00
expand: MAIN (10, 0) FAR  w(0) 25824.
	create_child: MAIN (9, 15) FAR 25770 U 0.00
expand: MAIN (9, 0) FAR  w(0) 25770.
	create_child: MAIN (8, 15) FAR 25592 U 0.00
expand: MAIN (8, 0) FAR  w(0) 25592.
	create_child: MAIN (7, 15) FAR 25758 U 0.00
expand: MAIN (7, 0) FAR  w(0) 25758.
	create_child: MAIN (6, 15) FAR 25959 U 0.00
expand: MAIN (6, 0) FAR  w(0) 25959.
	create_child: MAIN (5, 15) FAR 25943 U 0.00
expand: MAIN (5, 0) FAR  w(0) 25943.
	create_child: MAIN (4, 15) FAR 25781 U 0.00
expand: MAIN (4, 0) FAR  w(0) 25781.
	create_child: MAIN (3, 15) FAR 25582 U 0.00
expand: MAIN (3, 0) FAR  w(0) 25582.
	create_child: MAIN (2, 15) FAR 30627 U 0.00
expand: MAIN (2, 0) FAR  w(0) 30627.
	create_child: MAIN (1, 15) FAR 30438 U 0.00
expand: MAIN (1, 0) FAR  w(0) 30438. F 0.00
expand: MAIN (2, 0) FAR  w(0) 30627. F 0.00
expand: MAIN (3, 0) FAR  w(0) 25582. F 0.00
expand: MAIN (4, 0) FAR  w(0) 25781. F 0.00
expand: MAIN (5, 0) FAR  w(0) 25943. F 0.00
expand: MAIN (6, 0) FAR  w(0) 25959. F 0.00
expand: MAIN (7, 0) FAR  w(0) 25758. F 0.00
expand: MAIN (8, 0) FAR  w(0) 25592. F 0.00
expand: MAIN (9, 0) FAR  w(0) 25770. F 0.00
expand: MAIN (10, 0) FAR  w(0) 25824. F 0.00
expand: MAIN (11, 0) FAR  w(0) 25588. F 0.00
expand: MAIN (12, 0) FAR  w(0) 24275. F 0.00
expand: MAIN (13, 0) FAR  w(0) 19290. F 0.00
expand: MAIN (14, 0) FAR  w(0) 3374. F 0.00
expand: query!0 (15, 0) FAR  w(0) 1. F 0.00
(spacer::context::check_reachability :time 0.10 :before-memory 9.90 :after-memory 10.19)
Propagating: 1 2 3 4 5 6 7 8 9 10 11 12 13 14 15  ! 16 
(spacer::context::propagate :time 0.05 :before-memory 10.19 :after-memory 10.29)
Entering level 16
BRUNCH_STAT max_query_lvl 15
BRUNCH_STAT num_queries 191
BRUNCH_STAT num_reach_queries 0
BRUNCH_STAT num_reach_reuse 0
BRUNCH_STAT inductive_lvl 0
BRUNCH_STAT max_depth 16
BRUNCH_STAT cex_depth 0
expand: query!0 (16, 0) FAR  w(0) 1.
	create_child: MAIN (15, 16) FAR 3374 U 0.00
expand: MAIN (15, 0) FAR  w(0) 3374.
	create_child: MAIN (14, 16) FAR 19290 U 0.00
expand: MAIN (14, 0) FAR  w(0) 19290.
	create_child: MAIN (13, 16) FAR 24275 U 0.00
expand: MAIN (13, 0) FAR  w(0) 24275.
	create_child: MAIN (12, 16) FAR 25588 U 0.00
expand: MAIN (12, 0) FAR  w(0) 25588.
	create_child: MAIN (11, 16) FAR 29239 U 0.00
expand: MAIN (11, 0) FAR  w(0) 29239.
	create_child: MAIN (10, 16) FAR 33535 U 0.00
expand: MAIN (10, 0) FAR  w(0) 33535.
	create_child: MAIN (9, 16) FAR 33301 U 0.00
expand: MAIN (9, 0) FAR  w(0) 33301.
	create_child: MAIN (8, 16) FAR 33458 U 0.00
expand: MAIN (8, 0) FAR  w(0) 33458.
	create_child: MAIN (7, 16) FAR 33765 U 0.00
expand: MAIN (7, 0) FAR  w(0) 33765.
	create_child: MAIN (6, 16) FAR 33760 U 0.00
expand: MAIN (6, 0) FAR  w(0) 33760.
	create_child: MAIN (5, 16) FAR 33611 U 0.00
expand: MAIN (5, 0) FAR  w(0) 33611.
	create_child: MAIN (4, 16) FAR 33686 U 0.00
expand: MAIN (4, 0) FAR  w(0) 33686.
	create_child: MAIN (3, 16) FAR 33807 U 0.00
expand: MAIN (3, 0) FAR  w(0) 33807.
	create_child: MAIN (2, 16) FAR 33931 U 0.00
expand: MAIN (2, 0) FAR  w(0) 33931. F 0.00
expand: MAIN (3, 0) FAR  w(0) 33807. F 0.00
expand: MAIN (4, 0) FAR  w(0) 33686. F 0.00
expand: MAIN (5, 0) FAR  w(0) 33611. F 0.00
expand: MAIN (6, 0) FAR  w(0) 33760. F 0.00
expand: MAIN (7, 0) FAR  w(0) 33765. F 0.00
expand: MAIN (8, 0) FAR  w(0) 33458. F 0.00
expand: MAIN (9, 0) FAR  w(0) 33301. F 0.00
expand: MAIN (10, 0) FAR  w(0) 33535. F 0.00
expand: MAIN (11, 0) FAR  w(0) 29239.
	create_child: MAIN (10, 16) FAR 29310 U 0.00
expand: MAIN (10, 0) FAR  w(0) 29310.
	create_child: MAIN (9, 16) FAR 29282 U 0.00
expand: MAIN (9, 0) FAR  w(0) 29282.
	create_child: MAIN (8, 16) FAR 29340 U 0.00
expand: MAIN (8, 0) FAR  w(0) 29340.
	create_child: MAIN (7, 16) FAR 29586 U 0.00
expand: MAIN (7, 0) FAR  w(0) 29586.
	create_child: MAIN (6, 16) FAR 29337 U 0.00
expand: MAIN (6, 0) FAR  w(0) 29337.
	create_child: MAIN (5, 16) FAR 29604 U 0.00
expand: MAIN (5, 0) FAR  w(0) 29604.
	create_child: MAIN (4, 16) FAR 29657 U 0.00
expand: MAIN (4, 0) FAR  w(0) 29657.
	create_child: MAIN (3, 16) FAR 29539 U 0.00
expand: MAIN (3, 0) FAR  w(0) 29539.
	create_child: MAIN (2, 16) FAR 35196 U 0.00
expand: MAIN (2, 0) FAR  w(0) 35196.
	create_child: MAIN (1, 16) FAR 35292 U 0.00
expand: MAIN (1, 0) FAR  w(0) 35292. F 0.00
expand: MAIN (2, 0) FAR  w(0) 35196. F 0.00
expand: MAIN (3, 0) FAR  w(0) 29539. F 0.00
expand: MAIN (4, 0) FAR  w(0) 29657. F 0.00
expand: MAIN (5, 0) FAR  w(0) 29604. F 0.00
expand: MAIN (6, 0) FAR  w(0) 29337. F 0.00
expand: MAIN (7, 0) FAR  w(0) 29586. F 0.00
expand: MAIN (8, 0) FAR  w(0) 29340. F 0.00
expand: MAIN (9, 0) FAR  w(0) 29282. F 0.00
expand: MAIN (10, 0) FAR  w(0) 29310. F 0.00
expand: MAIN (11, 0) FAR  w(0) 29239. F 0.00
expand: MAIN (12, 0) FAR  w(0) 25588. F 0.00
expand: MAIN (13, 0) FAR  w(0) 24275. F 0.00
expand: MAIN (14, 0) FAR  w(0) 19290. F 0.00
expand: MAIN (15, 0) FAR  w(0) 3374. F 0.00
expand: query!0 (16, 0) FAR  w(0) 1. F 0.00
(spacer::context::check_reachability :time 0.11 :before-memory 10.29 :after-memory 10.58)
Propagating: 1 2 3 4 5 6 7 8 9 10 11 12 13 14 15 16  ! 17 
(spacer::context::propagate :time 0.07 :before-memory 10.58 :after-memory 10.68)
Entering level 17
BRUNCH_STAT max_query_lvl 16
BRUNCH_STAT num_queries 215
BRUNCH_STAT num_reach_queries 0
BRUNCH_STAT num_reach_reuse 0
BRUNCH_STAT inductive_lvl 0
BRUNCH_STAT max_depth 17
BRUNCH_STAT cex_depth 0
expand: query!0 (17, 0) FAR  w(0) 1.
	create_child: MAIN (16, 17) FAR 3374 U 0.00
expand: MAIN (16, 0) FAR  w(0) 3374.
	create_child: MAIN (15, 17) FAR 19290 U 0.00
expand: MAIN (15, 0) FAR  w(0) 19290.
	create_child: MAIN (14, 17) FAR 24275 U 0.00
expand: MAIN (14, 0) FAR  w(0) 24275.
	create_child: MAIN (13, 17) FAR 25588 U 0.00
expand: MAIN (13, 0) FAR  w(0) 25588.
	create_child: MAIN (12, 17) FAR 29239 U 0.00
expand: MAIN (12, 0) FAR  w(0) 29239.
	create_child: MAIN (11, 17) FAR 33535 U 0.00
expand: MAIN (11, 0) FAR  w(0) 33535.
	create_child: MAIN (10, 17) FAR 38223 U 0.00
expand: MAIN (10, 0) FAR  w(0) 38223.
	create_child: MAIN (9, 17) FAR 38314 U 0.00
expand: MAIN (9, 0) FAR  w(0) 38314.
	create_child: MAIN (8, 17) FAR 38505 U 0.00
expand: MAIN (8, 0) FAR  w(0) 38505.
	create_child: MAIN (7, 17) FAR 38450 U 0.00
expand: MAIN (7, 0) FAR  w(0) 38450.
	create_child: MAIN (6, 17) FAR 38309 U 0.00
expand: MAIN (6, 0) FAR  w(0) 38309.
	create_child: MAIN (5, 17) FAR 38664 U 0.00
expand: MAIN (5, 0) FAR  w(0) 38664.
	create_child: MAIN (4, 17) FAR 38260 U 0.00
expand: MAIN (4, 0) FAR  w(0) 38260.
	create_child: MAIN (3, 17) FAR 38755 U 0.00
expand: MAIN (3, 0) FAR  w(0) 38755.
	create_child: MAIN (2, 17) FAR 38194 U 0.00
expand: MAIN (2, 0) FAR  w(0) 38194. F 0.00
expand: MAIN (3, 0) FAR  w(0) 38755. F 0.00
expand: MAIN (4, 0) FAR  w(0) 38260. F 0.00
expand: MAIN (5, 0) FAR  w(0) 38664. F 0.00
expand: MAIN (6, 0) FAR  w(0) 38309. F 0.00
expand: MAIN (7, 0) FAR  w(0) 38450. F 0.00
expand: MAIN (8, 0) FAR  w(0) 38505. F 0.00
expand: MAIN (9, 0) FAR  w(0) 38314. F 0.00
expand: MAIN (10, 0) FAR  w(0) 38223. F 0.00
expand: MAIN (11, 0) FAR  w(0) 33535.
	create_child: MAIN (10, 17) FAR 33301 U 0.00
expand: MAIN (10, 0) FAR  w(0) 33301.
	create_child: MAIN (9, 17) FAR 33458 U 0.00
expand: MAIN (9, 0) FAR  w(0) 33458.
	create_child: MAIN (8, 17) FAR 33765 U 0.00
expand: MAIN (8, 0) FAR  w(0) 33765.
	create_child: MAIN (7, 17) FAR 33760 U 0.00
expand: MAIN (7, 0) FAR  w(0) 33760.
	create_child: MAIN (6, 17) FAR 33611 U 0.00
expand: MAIN (6, 0) FAR  w(0) 33611.
	create_child: MAIN (5, 17) FAR 33686 U 0.00
expand: MAIN (5, 0) FAR  w(0) 33686.
	create_child: MAIN (4, 17) FAR 33807 U 0.00
expand: MAIN (4, 0) FAR  w(0) 33807.
	create_child: MAIN (3, 17) FAR 33931 U 0.00
expand: MAIN (3, 0) FAR  w(0) 33931.
	create_child: MAIN (2, 17) FAR 40062 U 0.00
expand: MAIN (2, 0) FAR  w(0) 40062.
	create_child: MAIN (1, 17) FAR 39688 U 0.00
expand: MAIN (1, 0) FAR  w(0) 39688. F 0.00
expand: MAIN (2, 0) FAR  w(0) 40062. F 0.00
expand: MAIN (3, 0) FAR  w(0) 33931. F 0.00
expand: MAIN (4, 0) FAR  w(0) 33807. F 0.00
expand: MAIN (5, 0) FAR  w(0) 33686. F 0.00
expand: MAIN (6, 0) FAR  w(0) 33611. F 0.00
expand: MAIN (7, 0) FAR  w(0) 33760. F 0.00
expand: MAIN (8, 0) FAR  w(0) 33765. F 0.00
expand: MAIN (9, 0) FAR  w(0) 33458. F 0.00
expand: MAIN (10, 0) FAR  w(0) 33301. F 0.00
expand: MAIN (11, 0) FAR  w(0) 33535. F 0.00
expand: MAIN (12, 0) FAR  w(0) 29239. F 0.00
expand: MAIN (13, 0) FAR  w(0) 25588. F 0.00
expand: MAIN (14, 0) FAR  w(0) 24275. F 0.00
expand: MAIN (15, 0) FAR  w(0) 19290. F 0.00
expand: MAIN (16, 0) FAR  w(0) 3374. F 0.00
expand: query!0 (17, 0) FAR  w(0) 1. F 0.00
(spacer::context::check_reachability :time 0.12 :before-memory 10.68 :after-memory 10.88)
Propagating: 1 2 3 4 5 6 7 8 9 10 11 12 13 14 15 16 17  ! 18 
(spacer::context::propagate :time 0.08 :before-memory 10.88 :after-memory 11.33)
Entering level 18
BRUNCH_STAT max_query_lvl 17
BRUNCH_STAT num_queries 240
BRUNCH_STAT num_reach_queries 0
BRUNCH_STAT num_reach_reuse 0
BRUNCH_STAT inductive_lvl 0
BRUNCH_STAT max_depth 18
BRUNCH_STAT cex_depth 0
expand: query!0 (18, 0) FAR  w(0) 1.
	create_child: MAIN (17, 18) FAR 3374 U 0.00
expand: MAIN (17, 0) FAR  w(0) 3374.
	create_child: MAIN (16, 18) FAR 19290 U 0.00
expand: MAIN (16, 0) FAR  w(0) 19290.
	create_child: MAIN (15, 18) FAR 24275 U 0.00
expand: MAIN (15, 0) FAR  w(0) 24275.
	create_child: MAIN (14, 18) FAR 25588 U 0.00
expand: MAIN (14, 0) FAR  w(0) 25588.
	create_child: MAIN (13, 18) FAR 29239 U 0.00
expand: MAIN (13, 0) FAR  w(0) 29239.
	create_child: MAIN (12, 18) FAR 33535 U 0.00
expand: MAIN (12, 0) FAR  w(0) 33535.
	create_child: MAIN (11, 18) FAR 38223 U 0.00
expand: MAIN (11, 0) FAR  w(0) 38223.
	create_child: MAIN (10, 18) FAR 44020 U 0.00
expand: MAIN (10, 0) FAR  w(0) 44020.
	create_child: MAIN (9, 18) FAR 44127 U 0.00
expand: MAIN (9, 0) FAR  w(0) 44127.
	create_child: MAIN (8, 18) FAR 43959 U 0.00
expand: MAIN (8, 0) FAR  w(0) 43959.
	create_child: MAIN (7, 18) FAR 43832 U 0.00
expand: MAIN (7, 0) FAR  w(0) 43832.
	create_child: MAIN (6, 18) FAR 44084 U 0.00
expand: MAIN (6, 0) FAR  w(0) 44084.
	create_child: MAIN (5, 18) FAR 43943 U 0.00
expand: MAIN (5, 0) FAR  w(0) 43943.
	create_child: MAIN (4, 18) FAR 43803 U 0.00
expand: MAIN (4, 0) FAR  w(0) 43803.
	create_child: MAIN (3, 18) FAR 43800 U 0.00
expand: MAIN (3, 0) FAR  w(0) 43800.
	create_child: MAIN (2, 18) FAR 43945 U 0.00
expand: MAIN (2, 0) FAR  w(0) 43945. F 0.00
expand: MAIN (3, 0) FAR  w(0) 43800. F 0.00
expand: MAIN (4, 0) FAR  w(0) 43803. F 0.00
expand: MAIN (5, 0) FAR  w(0) 43943. F 0.00
expand: MAIN (6, 0) FAR  w(0) 44084. F 0.00
expand: MAIN (7, 0) FAR  w(0) 43832. F 0.00
expand: MAIN (8, 0) FAR  w(0) 43959. F 0.00
expand: MAIN (9, 0) FAR  w(0) 44127. F 0.00
expand: MAIN (10, 0) FAR  w(0) 44020. F 0.00
expand: MAIN (11, 0) FAR  w(0) 38223.
	create_child: MAIN (10, 18) FAR 38314 U 0.00
expand: MAIN (10, 0) FAR  w(0) 38314.
	create_child: MAIN (9, 18) FAR 38505 U 0.00
expand: MAIN (9, 0) FAR  w(0) 38505.
	create_child: MAIN (8, 18) FAR 38450 U 0.00
expand: MAIN (8, 0) FAR  w(0) 38450.
	create_child: MAIN (7, 18) FAR 38309 U 0.00
expand: MAIN (7, 0) FAR  w(0) 38309.
	create_child: MAIN (6, 18) FAR 38664 U 0.00
expand: MAIN (6, 0) FAR  w(0) 38664.
	create_child: MAIN (5, 18) FAR 38260 U 0.00
expand: MAIN (5, 0) FAR  w(0) 38260.
	create_child: MAIN (4, 18) FAR 38755 U 0.00
expand: MAIN (4, 0) FAR  w(0) 38755.
	create_child: MAIN (3, 18) FAR 38194 U 0.00
expand: MAIN (3, 0) FAR  w(0) 38194.
	create_child: MAIN (2, 18) FAR 45298 U 0.00
expand: MAIN (2, 0) FAR  w(0) 45298.
	create_child: MAIN (1, 18) FAR 45383 U 0.00
expand: MAIN (1, 0) FAR  w(0) 45383. F 0.00
expand: MAIN (2, 0) FAR  w(0) 45298. F 0.00
expand: MAIN (3, 0) FAR  w(0) 38194. F 0.00
expand: MAIN (4, 0) FAR  w(0) 38755. F 0.00
expand: MAIN (5, 0) FAR  w(0) 38260. F 0.00
expand: MAIN (6, 0) FAR  w(0) 38664. F 0.00
expand: MAIN (7, 0) FAR  w(0) 38309. F 0.00
expand: MAIN (8, 0) FAR  w(0) 38450. F 0.00
expand: MAIN (9, 0) FAR  w(0) 38505. F 0.00
expand: MAIN (10, 0) FAR  w(0) 38314. F 0.00
expand: MAIN (11, 0) FAR  w(0) 38223. F 0.00
expand: MAIN (12, 0) FAR  w(0) 33535. F 0.00
expand: MAIN (13, 0) FAR  w(0) 29239. F 0.00
expand: MAIN (14, 0) FAR  w(0) 25588. F 0.00
expand: MAIN (15, 0) FAR  w(0) 24275. F 0.00
expand: MAIN (16, 0) FAR  w(0) 19290. F 0.00
expand: MAIN (17, 0) FAR  w(0) 3374. F 0.00
expand: query!0 (18, 0) FAR  w(0) 1. F 0.00
(spacer::context::check_reachability :time 0.13 :before-memory 11.33 :after-memory 11.62)
Propagating: 1 2 3 4 5 6 7 8 9 10 11 12 13 14 15 16 17 18  ! 19 
(spacer::context::propagate :time 0.11 :before-memory 11.62 :after-memory 13.12)
Entering level 19
BRUNCH_STAT max_query_lvl 18
BRUNCH_STAT num_queries 266
BRUNCH_STAT num_reach_queries 0
BRUNCH_STAT num_reach_reuse 0
BRUNCH_STAT inductive_lvl 0
BRUNCH_STAT max_depth 19
BRUNCH_STAT cex_depth 0
expand: query!0 (19, 0) FAR  w(0) 1.
	create_child: MAIN (18, 19) FAR 3374 U 0.00
expand: MAIN (18, 0) FAR  w(0) 3374.
	create_child: MAIN (17, 19) FAR 19290 U 0.00
expand: MAIN (17, 0) FAR  w(0) 19290.
	create_child: MAIN (16, 19) FAR 24275 U 0.00
expand: MAIN (16, 0) FAR  w(0) 24275.
	create_child: MAIN (15, 19) FAR 25588 U 0.00
expand: MAIN (15, 0) FAR  w(0) 25588.
	create_child: MAIN (14, 19) FAR 29239 U 0.00
expand: MAIN (14, 0) FAR  w(0) 29239.
	create_child: MAIN (13, 19) FAR 33535 U 0.00
expand: MAIN (13, 0) FAR  w(0) 33535.
	create_child: MAIN (12, 19) FAR 38223 U 0.00
expand: MAIN (12, 0) FAR  w(0) 38223.
	create_child: MAIN (11, 19) FAR 44020 U 0.00
expand: MAIN (11, 0) FAR  w(0) 44020.
	create_child: MAIN (10, 19) FAR 50078 U 0.00
expand: MAIN (10, 0) FAR  w(0) 50078.
	create_child: MAIN (9, 19) FAR 50148 U 0.00
expand: MAIN (9, 0) FAR  w(0) 50148.
	create_child: MAIN (8, 19) FAR 50293 U 0.00
expand: MAIN (8, 0) FAR  w(0) 50293.
	create_child: MAIN (7, 19) FAR 50034 U 0.00
expand: MAIN (7, 0) FAR  w(0) 50034.
	create_child: MAIN (6, 19) FAR 50052 U 0.00
expand: MAIN (6, 0) FAR  w(0) 50052.
	create_child: MAIN (5, 19) FAR 49849 U 0.00
expand: MAIN (5, 0) FAR  w(0) 49849.
	create_child: MAIN (4, 19) FAR 50157 U 0.00
expand: MAIN (4, 0) FAR  w(0) 50157.
	create_child: MAIN (3, 19) FAR 49737 U 0.00
expand: MAIN (3, 0) FAR  w(0) 49737.
	create_child: MAIN (2, 19) FAR 49780 U 0.00
expand: MAIN (2, 0) FAR  w(0) 49780. F 0.00
expand: MAIN (3, 0) FAR  w(0) 49737. F 0.00
expand: MAIN (4, 0) FAR  w(0) 50157. F 0.00
expand: MAIN (5, 0) FAR  w(0) 49849. F 0.00
expand: MAIN (6, 0) FAR  w(0) 50052. F 0.00
expand: MAIN (7, 0) FAR  w(0) 50034. F 0.00
expand: MAIN (8, 0) FAR  w(0) 50293. F 0.00
expand: MAIN (9, 0) FAR  w(0) 50148. F 0.01
expand: MAIN (10, 0) FAR  w(0) 50078. F 0.01
expand: MAIN (11, 0) FAR  w(0) 44020.
	create_child: MAIN (10, 19) FAR 44127 U 0.00
expand: MAIN (10, 0) FAR  w(0) 44127.
	create_child: MAIN (9, 19) FAR 43959 U 0.00
expand: MAIN (9, 0) FAR  w(0) 43959.
	create_child: MAIN (8, 19) FAR 43832 U 0.00
expand: MAIN (8, 0) FAR  w(0) 43832.
	create_child: MAIN (7, 19) FAR 44084 U 0.00
expand: MAIN (7, 0) FAR  w(0) 44084.
	create_child: MAIN (6, 19) FAR 43943 U 0.00
expand: MAIN (6, 0) FAR  w(0) 43943.
	create_child: MAIN (5, 19) FAR 43803 U 0.00
expand: MAIN (5, 0) FAR  w(0) 43803.
	create_child: MAIN (4, 19) FAR 43800 U 0.00
expand: MAIN (4, 0) FAR  w(0) 43800.
	create_child: MAIN (3, 19) FAR 43945 U 0.00
expand: MAIN (3, 0) FAR  w(0) 43945.
	create_child: MAIN (2, 19) FAR 51250 U 0.00
expand: MAIN (2, 0) FAR  w(0) 51250.
	create_child: MAIN (1, 19) FAR 51701 U 0.00
expand: MAIN (1, 0) FAR  w(0) 51701. F 0.00
expand: MAIN (2, 0) FAR  w(0) 51250. F 0.00
expand: MAIN (3, 0) FAR  w(0) 43945. F 0.00
expand: MAIN (4, 0) FAR  w(0) 43800. F 0.00
expand: MAIN (5, 0) FAR  w(0) 43803. F 0.00
expand: MAIN (6, 0) FAR  w(0) 43943. F 0.00
expand: MAIN (7, 0) FAR  w(0) 44084. F 0.00
expand: MAIN (8, 0) FAR  w(0) 43832. F 0.00
expand: MAIN (9, 0) FAR  w(0) 43959. F 0.00
expand: MAIN (10, 0) FAR  w(0) 44127. F 0.00
expand: MAIN (11, 0) FAR  w(0) 44020. F 0.00
expand: MAIN (12, 0) FAR  w(0) 38223. F 0.00
expand: MAIN (13, 0) FAR  w(0) 33535. F 0.00
expand: MAIN (14, 0) FAR  w(0) 29239. F 0.00
expand: MAIN (15, 0) FAR  w(0) 25588. F 0.00
expand: MAIN (16, 0) FAR  w(0) 24275. F 0.00
expand: MAIN (17, 0) FAR  w(0) 19290. F 0.00
expand: MAIN (18, 0) FAR  w(0) 3374. F 0.00
expand: query!0 (19, 0) FAR  w(0) 1. F 0.00
(spacer::context::check_reachability :time 0.16 :before-memory 13.12 :after-memory 13.42)
Propagating: 1 2 3 4 5 6 7 8 9 10 11 12 13 14 15 16 17 18 19  ! 20 
(spacer::context::propagate :time 0.13 :before-memory 13.42 :after-memory 13.71)
Entering level 20
BRUNCH_STAT max_query_lvl 19
BRUNCH_STAT num_queries 293
BRUNCH_STAT num_reach_queries 0
BRUNCH_STAT num_reach_reuse 0
BRUNCH_STAT inductive_lvl 0
BRUNCH_STAT max_depth 20
BRUNCH_STAT cex_depth 0
expand: query!0 (20, 0) FAR  w(0) 1.
	create_child: MAIN (19, 20) FAR 3374 U 0.00
expand: MAIN (19, 0) FAR  w(0) 3374.
	create_child: MAIN (18, 20) FAR 19290 U 0.00
expand: MAIN (18, 0) FAR  w(0) 19290.
	create_child: MAIN (17, 20) FAR 24275 U 0.00
expand: MAIN (17, 0) FAR  w(0) 24275.
	create_child: MAIN (16, 20) FAR 25588 U 0.00
expand: MAIN (16, 0) FAR  w(0) 25588.
	create_child: MAIN (15, 20) FAR 29239 U 0.00
expand: MAIN (15, 0) FAR  w(0) 29239.
	create_child: MAIN (14, 20) FAR 33535 U 0.00
expand: MAIN (14, 0) FAR  w(0) 33535.
	create_child: MAIN (13, 20) FAR 38223 U 0.00
expand: MAIN (13, 0) FAR  w(0) 38223.
	create_child: MAIN (12, 20) FAR 44020 U 0.00
expand: MAIN (12, 0) FAR  w(0) 44020.
	create_child: MAIN (11, 20) FAR 50078 U 0.00
expand: MAIN (11, 0) FAR  w(0) 50078.
	create_child: MAIN (10, 20) FAR 56990 U 0.00
expand: MAIN (10, 0) FAR  w(0) 56990.
	create_child: MAIN (9, 20) FAR 56838 U 0.00
expand: MAIN (9, 0) FAR  w(0) 56838.
	create_child: MAIN (8, 20) FAR 57034 U 0.00
expand: MAIN (8, 0) FAR  w(0) 57034.
	create_child: MAIN (7, 20) FAR 56868 U 0.00
expand: MAIN (7, 0) FAR  w(0) 56868.
	create_child: MAIN (6, 20) FAR 57106 U 0.00
expand: MAIN (6, 0) FAR  w(0) 57106.
	create_child: MAIN (5, 20) FAR 56627 U 0.00
expand: MAIN (5, 0) FAR  w(0) 56627.
	create_child: MAIN (4, 20) FAR 56940 U 0.00
expand: MAIN (4, 0) FAR  w(0) 56940.
	create_child: MAIN (3, 20) FAR 57182 U 0.00
expand: MAIN (3, 0) FAR  w(0) 57182.
	create_child: MAIN (2, 20) FAR 56825 U 0.00
expand: MAIN (2, 0) FAR  w(0) 56825. F 0.00
expand: MAIN (3, 0) FAR  w(0) 57182. F 0.01
expand: MAIN (4, 0) FAR  w(0) 56940. F 0.01
expand: MAIN (5, 0) FAR  w(0) 56627. F 0.01
expand: MAIN (6, 0) FAR  w(0) 57106. F 0.01
expand: MAIN (7, 0) FAR  w(0) 56868. F 0.01
expand: MAIN (8, 0) FAR  w(0) 57034. F 0.00
expand: MAIN (9, 0) FAR  w(0) 56838. F 0.00
expand: MAIN (10, 0) FAR  w(0) 56990. F 0.00
expand: MAIN (11, 0) FAR  w(0) 50078.
	create_child: MAIN (10, 20) FAR 50148 U 0.00
expand: MAIN (10, 0) FAR  w(0) 50148.
	create_child: MAIN (9, 20) FAR 50293 U 0.00
expand: MAIN (9, 0) FAR  w(0) 50293.
	create_child: MAIN (8, 20) FAR 50034 U 0.00
expand: MAIN (8, 0) FAR  w(0) 50034.
	create_child: MAIN (7, 20) FAR 50052 U 0.00
expand: MAIN (7, 0) FAR  w(0) 50052.
	create_child: MAIN (6, 20) FAR 49849 U 0.00
expand: MAIN (6, 0) FAR  w(0) 49849.
	create_child: MAIN (5, 20) FAR 50157 U 0.00
expand: MAIN (5, 0) FAR  w(0) 50157.
	create_child: MAIN (4, 20) FAR 49737 U 0.00
expand: MAIN (4, 0) FAR  w(0) 49737.
	create_child: MAIN (3, 20) FAR 49780 U 0.00
expand: MAIN (3, 0) FAR  w(0) 49780.
	create_child: MAIN (2, 20) FAR 58050 U 0.00
expand: MAIN (2, 0) FAR  w(0) 58050.
	create_child: MAIN (1, 20) FAR 58257 U 0.00
expand: MAIN (1, 0) FAR  w(0) 58257. F 0.00
expand: MAIN (2, 0) FAR  w(0) 58050. F 0.00
expand: MAIN (3, 0) FAR  w(0) 49780. F 0.00
expand: MAIN (4, 0) FAR  w(0) 49737. F 0.00
expand: MAIN (5, 0) FAR  w(0) 50157. F 0.00
expand: MAIN (6, 0) FAR  w(0) 49849. F 0.00
expand: MAIN (7, 0) FAR  w(0) 50052. F 0.00
expand: MAIN (8, 0) FAR  w(0) 50034. F 0.00
expand: MAIN (9, 0) FAR  w(0) 50293. F 0.00
expand: MAIN (10, 0) FAR  w(0) 50148. F 0.00
expand: MAIN (11, 0) FAR  w(0) 50078. F 0.00
expand: MAIN (12, 0) FAR  w(0) 44020. F 0.00
expand: MAIN (13, 0) FAR  w(0) 38223. F 0.00
expand: MAIN (14, 0) FAR  w(0) 33535. F 0.00
expand: MAIN (15, 0) FAR  w(0) 29239. F 0.00
expand: MAIN (16, 0) FAR  w(0) 25588. F 0.00
expand: MAIN (17, 0) FAR  w(0) 24275. F 0.00
expand: MAIN (18, 0) FAR  w(0) 19290. F 0.00
expand: MAIN (19, 0) FAR  w(0) 3374. F 0.00
expand: query!0 (20, 0) FAR  w(0) 1. F 0.00
(spacer::context::check_reachability :time 0.17 :before-memory 13.71 :after-memory 14.00)
Propagating: 1 2 3 4 5 6 7 8 9 10 11 12 13 14 15 16 17 18 19 20  ! 21 
(spacer::context::propagate :time 0.13 :before-memory 14.00 :after-memory 14.58)
Entering level 21
BRUNCH_STAT max_query_lvl 20
BRUNCH_STAT num_queries 321
BRUNCH_STAT num_reach_queries 0
BRUNCH_STAT num_reach_reuse 0
BRUNCH_STAT inductive_lvl 0
BRUNCH_STAT max_depth 21
BRUNCH_STAT cex_depth 0
expand: query!0 (21, 0) FAR  w(0) 1.
	create_child: MAIN (20, 21) FAR 3374 U 0.00
expand: MAIN (20, 0) FAR  w(0) 3374.
	create_child: MAIN (19, 21) FAR 19290 U 0.00
expand: MAIN (19, 0) FAR  w(0) 19290.
	create_child: MAIN (18, 21) FAR 24275 U 0.00
expand: MAIN (18, 0) FAR  w(0) 24275.
	create_child: MAIN (17, 21) FAR 25588 U 0.00
expand: MAIN (17, 0) FAR  w(0) 25588.
	create_child: MAIN (16, 21) FAR 29239 U 0.00
expand: MAIN (16, 0) FAR  w(0) 29239.
	create_child: MAIN (15, 21) FAR 33535 U 0.00
expand: MAIN (15, 0) FAR  w(0) 33535.
	create_child: MAIN (14, 21) FAR 38223 U 0.00
expand: MAIN (14, 0) FAR  w(0) 38223.
	create_child: MAIN (13, 21) FAR 44020 U 0.00
expand: MAIN (13, 0) FAR  w(0) 44020.
	create_child: MAIN (12, 21) FAR 50078 U 0.00
expand: MAIN (12, 0) FAR  w(0) 50078.
	create_child: MAIN (11, 21) FAR 56990 U 0.00
expand: MAIN (11, 0) FAR  w(0) 56990.
	create_child: MAIN (10, 21) FAR 64228 U 0.00
expand: MAIN (10, 0) FAR  w(0) 64228. F 0.00
expand: MAIN (11, 0) FAR  w(0) 56990.
	create_child: MAIN (10, 21) FAR 64082 U 0.00
expand: MAIN (10, 0) FAR  w(0) 64082. F 0.01
expand: MAIN (11, 0) FAR  w(0) 56990.
	create_child: MAIN (10, 21) FAR 56838 U 0.00
expand: MAIN (10, 0) FAR  w(0) 56838.
	create_child: MAIN (9, 21) FAR 57034 U 0.00
expand: MAIN (9, 0) FAR  w(0) 57034.
	create_child: MAIN (8, 21) FAR 56868 U 0.00
expand: MAIN (8, 0) FAR  w(0) 56868.
	create_child: MAIN (7, 21) FAR 57106 U 0.00
expand: MAIN (7, 0) FAR  w(0) 57106.
	create_child: MAIN (6, 21) FAR 56627 U 0.00
expand: MAIN (6, 0) FAR  w(0) 56627.
	create_child: MAIN (5, 21) FAR 56940 U 0.00
expand: MAIN (5, 0) FAR  w(0) 56940.
	create_child: MAIN (4, 21) FAR 57182 U 0.00
expand: MAIN (4, 0) FAR  w(0) 57182.
	create_child: MAIN (3, 21) FAR 56825 U 0.00
expand: MAIN (3, 0) FAR  w(0) 56825.
	create_child: MAIN (2, 21) FAR 64555 U 0.00
expand: MAIN (2, 0) FAR  w(0) 64555.
	create_child: MAIN (1, 21) FAR 64307 U 0.00
expand: MAIN (1, 0) FAR  w(0) 64307. F 0.00
expand: MAIN (2, 0) FAR  w(0) 64555. F 0.00
expand: MAIN (3, 0) FAR  w(0) 56825. F 0.00
expand: MAIN (4, 0) FAR  w(0) 57182. F 0.00
expand: MAIN (5, 0) FAR  w(0) 56940. F 0.00
expand: MAIN (6, 0) FAR  w(0) 56627. F 0.00
expand: MAIN (7, 0) FAR  w(0) 57106. F 0.00
expand: MAIN (8, 0) FAR  w(0) 56868. F 0.00
expand: MAIN (9, 0) FAR  w(0) 57034. F 0.00
expand: MAIN (10, 0) FAR  w(0) 56838. F 0.00
expand: MAIN (11, 0) FAR  w(0) 56990. F 0.00
expand: MAIN (12, 0) FAR  w(0) 50078. F 0.00
expand: MAIN (13, 0) FAR  w(0) 44020. F 0.00
expand: MAIN (14, 0) FAR  w(0) 38223. F 0.00
expand: MAIN (15, 0) FAR  w(0) 33535. F 0.00
expand: MAIN (16, 0) FAR  w(0) 29239. F 0.00
expand: MAIN (17, 0) FAR  w(0) 25588. F 0.00
expand: MAIN (18, 0) FAR  w(0) 24275. F 0.00
expand: MAIN (19, 0) FAR  w(0) 19290. F 0.00
expand: MAIN (20, 0) FAR  w(0) 3374. F 0.00
expand: query!0 (21, 0) FAR  w(0) 1. F 0.00
(spacer::context::check_reachability :time 0.10 :before-memory 14.58 :after-memory 14.95)
Propagating: 1 2 3 4 5 6 7 8 9 10 11 12 13 14 15 16 17 18 19 20 21  ! 22 
(spacer::context::propagate :time 0.15 :before-memory 14.95 :after-memory 15.35)
Entering level 22
BRUNCH_STAT max_query_lvl 21
BRUNCH_STAT num_queries 343
BRUNCH_STAT num_reach_queries 0
BRUNCH_STAT num_reach_reuse 0
BRUNCH_STAT inductive_lvl 0
BRUNCH_STAT max_depth 22
BRUNCH_STAT cex_depth 0
expand: query!0 (22, 0) FAR  w(0) 1.
	create_child: MAIN (21, 22) FAR 3374 U 0.00
expand: MAIN (21, 0) FAR  w(0) 3374.
	create_child: MAIN (20, 22) FAR 68934 U 0.00
expand: MAIN (20, 0) FAR  w(0) 68934. F 0.00
expand: MAIN (21, 0) FAR  w(0) 3374.
	create_child: MAIN (20, 22) FAR 71481 U 0.00
expand: MAIN (20, 0) FAR  w(0) 71481.
	create_child: MAIN (19, 22) FAR 71568 U 0.00
expand: MAIN (19, 0) FAR  w(0) 71568.
	create_child: MAIN (18, 22) FAR 71685 U 0.00
expand: MAIN (18, 0) FAR  w(0) 71685.
	create_child: MAIN (17, 22) FAR 71727 U 0.00
expand: MAIN (17, 0) FAR  w(0) 71727.
	create_child: MAIN (16, 22) FAR 71520 U 0.00
expand: MAIN (16, 0) FAR  w(0) 71520.
	create_child: MAIN (15, 22) FAR 71499 U 0.00
expand: MAIN (15, 0) FAR  w(0) 71499.
	create_child: MAIN (14, 22) FAR 71827 U 0.00
expand: MAIN (14, 0) FAR  w(0) 71827.
	create_child: MAIN (13, 22) FAR 71635 U 0.00
expand: MAIN (13, 0) FAR  w(0) 71635.
	create_child: MAIN (12, 22) FAR 71946 U 0.00
expand: MAIN (12, 0) FAR  w(0) 71946.
	create_child: MAIN (11, 22) FAR 71823 U 0.00
expand: MAIN (11, 0) FAR  w(0) 71823.
	create_child: MAIN (10, 22) FAR 71792 U 0.00
expand: MAIN (10, 0) FAR  w(0) 71792.
	create_child: MAIN (9, 22) FAR 71584 U 0.00
expand: MAIN (9, 0) FAR  w(0) 71584.
	create_child: MAIN (8, 22) FAR 72080 U 0.00
expand: MAIN (8, 0) FAR  w(0) 72080.
	create_child: MAIN (7, 22) FAR 72026 U 0.00
expand: MAIN (7, 0) FAR  w(0) 72026.
	create_child: MAIN (6, 22) FAR 71910 U 0.00
expand: MAIN (6, 0) FAR  w(0) 71910.
	create_child: MAIN (5, 22) FAR 72034 U 0.00
expand: MAIN (5, 0) FAR  w(0) 72034.
	create_child: MAIN (4, 22) FAR 71562 U 0.00
expand: MAIN (4, 0) FAR  w(0) 71562.
	create_child: MAIN (3, 22) FAR 68903 U 0.00
expand: MAIN (3, 0) FAR  w(0) 68903.
	create_child: MAIN (2, 22) FAR 72401 U 0.00
expand: MAIN (2, 0) FAR  w(0) 72401. F 0.01
expand: MAIN (3, 0) FAR  w(0) 68903. F 0.01
expand: MAIN (4, 0) FAR  w(0) 71562. F 0.01
expand: MAIN (5, 0) FAR  w(0) 72034. F 0.01
expand: MAIN (6, 0) FAR  w(0) 71910. F 0.01
expand: MAIN (7, 0) FAR  w(0) 72026. F 0.01
expand: MAIN (8, 0) FAR  w(0) 72080. F 0.01
expand: MAIN (9, 0) FAR  w(0) 71584. F 0.01
expand: MAIN (10, 0) FAR  w(0) 71792. F 0.01
expand: MAIN (11, 0) FAR  w(0) 71823. F 0.01
expand: MAIN (12, 0) FAR  w(0) 71946.
	create_child: MAIN (11, 22) FAR 76435 U 0.00
expand: MAIN (11, 0) FAR  w(0) 76435.
	create_child: MAIN (10, 22) FAR 76458 U 0.00
expand: MAIN (10, 0) FAR  w(0) 76458.
	create_child: MAIN (9, 22) FAR 76532 U 0.00
expand: MAIN (9, 0) FAR  w(0) 76532.
	create_child: MAIN (8, 22) FAR 76650 U 0.00
expand: MAIN (8, 0) FAR  w(0) 76650.
	create_child: MAIN (7, 22) FAR 76708 U 0.00
expand: MAIN (7, 0) FAR  w(0) 76708.
	create_child: MAIN (6, 22) FAR 76503 U 0.00
expand: MAIN (6, 0) FAR  w(0) 76503.
	create_child: MAIN (5, 22) FAR 76578 U 0.00
expand: MAIN (5, 0) FAR  w(0) 76578.
	create_child: MAIN (4, 22) FAR 76817 U 0.00
expand: MAIN (4, 0) FAR  w(0) 76817.
	create_child: MAIN (3, 22) FAR 76309 U 0.00
expand: MAIN (3, 0) FAR  w(0) 76309.
	create_child: MAIN (2, 22) FAR 75754 U 0.00
expand: MAIN (2, 0) FAR  w(0) 75754.
	create_child: MAIN (1, 22) FAR 76740 U 0.00
expand: MAIN (1, 0) FAR  w(0) 76740. F 0.00
expand: MAIN (2, 0) FAR  w(0) 75754. F 0.00
expand: MAIN (3, 0) FAR  w(0) 76309. F 0.00
expand: MAIN (4, 0) FAR  w(0) 76817. F 0.00
expand: MAIN (5, 0) FAR  w(0) 76578. F 0.00
expand: MAIN (6, 0) FAR  w(0) 76503. F 0.00
expand: MAIN (7, 0) FAR  w(0) 76708. F 0.00
expand: MAIN (8, 0) FAR  w(0) 76650. F 0.00
expand: MAIN (9, 0) FAR  w(0) 76532. F 0.00
expand: MAIN (10, 0) FAR  w(0) 76458. F 0.00
expand: MAIN (11, 0) FAR  w(0) 76435. F 0.00
expand: MAIN (12, 0) FAR  w(0) 71946. F 0.00
expand: MAIN (13, 0) FAR  w(0) 71635. F 0.00
expand: MAIN (14, 0) FAR  w(0) 71827. F 0.00
expand: MAIN (15, 0) FAR  w(0) 71499. F 0.00
expand: MAIN (16, 0) FAR  w(0) 71520. F 0.00
expand: MAIN (17, 0) FAR  w(0) 71727. F 0.00
expand: MAIN (18, 0) FAR  w(0) 71685. F 0.00
expand: MAIN (19, 0) FAR  w(0) 71568. F 0.00
expand: MAIN (20, 0) FAR  w(0) 71481. F 0.00
expand: MAIN (21, 0) FAR  w(0) 3374. F 0.00
expand: query!0 (22, 0) FAR  w(0) 1. F 0.00
(spacer::context::check_reachability :time 0.25 :before-memory 15.35 :after-memory 16.13)
Propagating: 1 2 3 4 5 6 7 8 9 10 11 12 13 14 15 16 17 18 19 20 21 22  ! 23 
(spacer::context::propagate :time 0.38 :before-memory 16.13 :after-memory 17.25)
Entering level 23
BRUNCH_STAT max_query_lvl 22
BRUNCH_STAT num_queries 375
BRUNCH_STAT num_reach_queries 0
BRUNCH_STAT num_reach_reuse 0
BRUNCH_STAT inductive_lvl 0
BRUNCH_STAT max_depth 23
BRUNCH_STAT cex_depth 0
expand: query!0 (23, 0) FAR  w(0) 1.
	create_child: MAIN (22, 23) FAR 3374 U 0.00
expand: MAIN (22, 0) FAR  w(0) 3374.
	create_child: MAIN (21, 23) FAR 94088 U 0.01
expand: MAIN (21, 0) FAR  w(0) 94088. F 0.01
expand: MAIN (22, 0) FAR  w(0) 3374.
	create_child: MAIN (21, 23) FAR 95201 U 0.00
expand: MAIN (21, 0) FAR  w(0) 95201.
	create_child: MAIN (20, 23) FAR 95227 U 0.01
expand: MAIN (20, 0) FAR  w(0) 95227.
	create_child: MAIN (19, 23) FAR 95366 U 0.00
expand: MAIN (19, 0) FAR  w(0) 95366.
	create_child: MAIN (18, 23) FAR 95216 U 0.00
expand: MAIN (18, 0) FAR  w(0) 95216.
	create_child: MAIN (17, 23) FAR 95319 U 0.00
expand: MAIN (17, 0) FAR  w(0) 95319.
	create_child: MAIN (16, 23) FAR 95240 U 0.00
expand: MAIN (16, 0) FAR  w(0) 95240.
	create_child: MAIN (15, 23) FAR 95221 U 0.00
expand: MAIN (15, 0) FAR  w(0) 95221.
	create_child: MAIN (14, 23) FAR 95549 U 0.00
expand: MAIN (14, 0) FAR  w(0) 95549.
	create_child: MAIN (13, 23) FAR 95230 U 0.00
expand: MAIN (13, 0) FAR  w(0) 95230.
	create_child: MAIN (12, 23) FAR 95598 U 0.00
expand: MAIN (12, 0) FAR  w(0) 95598.
	create_child: MAIN (11, 23) FAR 95533 U 0.00
expand: MAIN (11, 0) FAR  w(0) 95533.
	create_child: MAIN (10, 23) FAR 95590 U 0.00
expand: MAIN (10, 0) FAR  w(0) 95590.
	create_child: MAIN (9, 23) FAR 95788 U 0.00
expand: MAIN (9, 0) FAR  w(0) 95788.
	create_child: MAIN (8, 23) FAR 94059 U 0.00
expand: MAIN (8, 0) FAR  w(0) 94059.
	create_child: MAIN (7, 23) FAR 93961 U 0.00
expand: MAIN (7, 0) FAR  w(0) 93961.
	create_child: MAIN (6, 23) FAR 95239 U 0.00
expand: MAIN (6, 0) FAR  w(0) 95239.
	create_child: MAIN (5, 23) FAR 96079 U 0.00
expand: MAIN (5, 0) FAR  w(0) 96079.
	create_child: MAIN (4, 23) FAR 95692 U 0.00
expand: MAIN (4, 0) FAR  w(0) 95692.
	create_child: MAIN (3, 23) FAR 95911 U 0.00
expand: MAIN (3, 0) FAR  w(0) 95911.
	create_child: MAIN (2, 23) FAR 96165 U 0.00
expand: MAIN (2, 0) FAR  w(0) 96165.
	create_child: MAIN (1, 23) FAR 96312 U 0.00
expand: MAIN (1, 0) FAR  w(0) 96312. F 0.00
expand: MAIN (2, 0) FAR  w(0) 96165. F 0.00
expand: MAIN (3, 0) FAR  w(0) 95911. F 0.00
expand: MAIN (4, 0) FAR  w(0) 95692. F 0.00
expand: MAIN (5, 0) FAR  w(0) 96079. F 0.00
expand: MAIN (6, 0) FAR  w(0) 95239. F 0.00
expand: MAIN (7, 0) FAR  w(0) 93961. F 0.00
expand: MAIN (8, 0) FAR  w(0) 94059. F 0.00
expand: MAIN (9, 0) FAR  w(0) 95788. F 0.00
expand: MAIN (10, 0) FAR  w(0) 95590. F 0.00
expand: MAIN (11, 0) FAR  w(0) 95533. F 0.00
expand: MAIN (12, 0) FAR  w(0) 95598. F 0.00
expand: MAIN (13, 0) FAR  w(0) 95230. F 0.00
expand: MAIN (14, 0) FAR  w(0) 95549. F 0.00
expand: MAIN (15, 0) FAR  w(0) 95221. F 0.00
expand: MAIN (16, 0) FAR  w(0) 95240. F 0.00
expand: MAIN (17, 0) FAR  w(0) 95319. F 0.00
expand: MAIN (18, 0) FAR  w(0) 95216. F 0.00
expand: MAIN (19, 0) FAR  w(0) 95366. F 0.00
expand: MAIN (20, 0) FAR  w(0) 95227. F 0.00
expand: MAIN (21, 0) FAR  w(0) 95201. F 0.00
expand: MAIN (22, 0) FAR  w(0) 3374. F 0.00
expand: query!0 (23, 0) FAR  w(0) 1. F 0.00
(spacer::context::check_reachability :time 0.15 :before-memory 17.25 :after-memory 20.65)
Propagating: 1 2 3 4 5 6 7 8 9 10 11 12 13 14 15 16 17 18 19 20 21 22 23  ! 24 
(spacer::context::propagate :time 0.19 :before-memory 20.65 :after-memory 20.97)
Entering level 24
BRUNCH_STAT max_query_lvl 23
BRUNCH_STAT num_queries 398
BRUNCH_STAT num_reach_queries 0
BRUNCH_STAT num_reach_reuse 0
BRUNCH_STAT inductive_lvl 0
BRUNCH_STAT max_depth 24
BRUNCH_STAT cex_depth 0
expand: query!0 (24, 0) FAR  w(0) 1.
	create_child: MAIN (23, 24) FAR 3374 U 0.00
expand: MAIN (23, 0) FAR  w(0) 3374.
	create_child: MAIN (22, 24) FAR 102199 U 0.00
expand: MAIN (22, 0) FAR  w(0) 102199.
	create_child: MAIN (21, 24) FAR 102287 U 0.00
expand: MAIN (21, 0) FAR  w(0) 102287.
	create_child: MAIN (20, 24) FAR 102380 U 0.00
expand: MAIN (20, 0) FAR  w(0) 102380.
	create_child: MAIN (19, 24) FAR 102402 U 0.00
expand: MAIN (19, 0) FAR  w(0) 102402.
	create_child: MAIN (18, 24) FAR 102352 U 0.00
expand: MAIN (18, 0) FAR  w(0) 102352.
	create_child: MAIN (17, 24) FAR 102278 U 0.00
expand: MAIN (17, 0) FAR  w(0) 102278.
	create_child: MAIN (16, 24) FAR 102417 U 0.00
expand: MAIN (16, 0) FAR  w(0) 102417.
	create_child: MAIN (15, 24) FAR 102653 U 0.00
expand: MAIN (15, 0) FAR  w(0) 102653.
	create_child: MAIN (14, 24) FAR 102253 U 0.00
expand: MAIN (14, 0) FAR  w(0) 102253. F 0.01
expand: MAIN (15, 0) FAR  w(0) 102653.
	create_child: MAIN (14, 24) FAR 102748 U 0.00
expand: MAIN (14, 0) FAR  w(0) 102748. F 0.01
expand: MAIN (15, 0) FAR  w(0) 102653. F 0.01
expand: MAIN (16, 0) FAR  w(0) 102417. F 0.01
expand: MAIN (17, 0) FAR  w(0) 102278. F 0.01
expand: MAIN (18, 0) FAR  w(0) 102352. F 0.01
expand: MAIN (19, 0) FAR  w(0) 102402. F 0.01
expand: MAIN (20, 0) FAR  w(0) 102380. F 0.01
expand: MAIN (21, 0) FAR  w(0) 102287. F 0.01
expand: MAIN (22, 0) FAR  w(0) 102199. F 0.01
expand: MAIN (23, 0) FAR  w(0) 3374.
	create_child: MAIN (22, 24) FAR 104138 U 0.00
expand: MAIN (22, 0) FAR  w(0) 104138.
	create_child: MAIN (21, 24) FAR 105012 U 0.00
expand: MAIN (21, 0) FAR  w(0) 105012.
	create_child: MAIN (20, 24) FAR 104184 U 0.00
expand: MAIN (20, 0) FAR  w(0) 104184.
	create_child: MAIN (19, 24) FAR 105040 U 0.00
expand: MAIN (19, 0) FAR  w(0) 105040.
	create_child: MAIN (18, 24) FAR 105176 U 0.00
expand: MAIN (18, 0) FAR  w(0) 105176.
	create_child: MAIN (17, 24) FAR 105172 U 0.00
expand: MAIN (17, 0) FAR  w(0) 105172.
	create_child: MAIN (16, 24) FAR 105347 U 0.00
expand: MAIN (16, 0) FAR  w(0) 105347.
	create_child: MAIN (15, 24) FAR 105194 U 0.00
expand: MAIN (15, 0) FAR  w(0) 105194.
	create_child: MAIN (14, 24) FAR 105208 U 0.00
expand: MAIN (14, 0) FAR  w(0) 105208. F 0.01
expand: MAIN (15, 0) FAR  w(0) 105194. F 0.01
expand: MAIN (16, 0) FAR  w(0) 105347. F 0.01
expand: MAIN (17, 0) FAR  w(0) 105172. F 0.01
expand: MAIN (18, 0) FAR  w(0) 105176. F 0.01
expand: MAIN (19, 0) FAR  w(0) 105040. F 0.01
expand: MAIN (20, 0) FAR  w(0) 104184. F 0.01
expand: MAIN (21, 0) FAR  w(0) 105012. F 0.01
expand: MAIN (22, 0) FAR  w(0) 104138. F 0.01
expand: MAIN (23, 0) FAR  w(0) 3374.
	create_child: MAIN (22, 24) FAR 71481 U 0.00
expand: MAIN (22, 0) FAR  w(0) 71481.
	create_child: MAIN (21, 24) FAR 71568 U 0.00
expand: MAIN (21, 0) FAR  w(0) 71568.
	create_child: MAIN (20, 24) FAR 71685 U 0.00
expand: MAIN (20, 0) FAR  w(0) 71685.
	create_child: MAIN (19, 24) FAR 71727 U 0.00
expand: MAIN (19, 0) FAR  w(0) 71727.
	create_child: MAIN (18, 24) FAR 71520 U 0.00
expand: MAIN (18, 0) FAR  w(0) 71520.
	create_child: MAIN (17, 24) FAR 71499 U 0.00
expand: MAIN (17, 0) FAR  w(0) 71499.
	create_child: MAIN (16, 24) FAR 71827 U 0.00
expand: MAIN (16, 0) FAR  w(0) 71827.
	create_child: MAIN (15, 24) FAR 71635 U 0.00
expand: MAIN (15, 0) FAR  w(0) 71635.
	create_child: MAIN (14, 24) FAR 71946 U 0.00
expand: MAIN (14, 0) FAR  w(0) 71946.
	create_child: MAIN (13, 24) FAR 107386 U 0.00
expand: MAIN (13, 0) FAR  w(0) 107386.
	create_child: MAIN (12, 24) FAR 107117 U 0.00
expand: MAIN (12, 0) FAR  w(0) 107117.
	create_child: MAIN (11, 24) FAR 107052 U 0.00
expand: MAIN (11, 0) FAR  w(0) 107052.
	create_child: MAIN (10, 24) FAR 107401 U 0.00
expand: MAIN (10, 0) FAR  w(0) 107401.
	create_child: MAIN (9, 24) FAR 107065 U 0.00
expand: MAIN (9, 0) FAR  w(0) 107065.
	create_child: MAIN (8, 24) FAR 107234 U 0.00
expand: MAIN (8, 0) FAR  w(0) 107234.
	create_child: MAIN (7, 24) FAR 107202 U 0.00
expand: MAIN (7, 0) FAR  w(0) 107202.
	create_child: MAIN (6, 24) FAR 106968 U 0.00
expand: MAIN (6, 0) FAR  w(0) 106968.
	create_child: MAIN (5, 24) FAR 107010 U 0.00
expand: MAIN (5, 0) FAR  w(0) 107010.
	create_child: MAIN (4, 24) FAR 107594 U 0.00
expand: MAIN (4, 0) FAR  w(0) 107594.
	create_child: MAIN (3, 24) FAR 107226 U 0.01
expand: MAIN (3, 0) FAR  w(0) 107226.
	create_child: MAIN (2, 24) FAR 107095 U 0.00
expand: MAIN (2, 0) FAR  w(0) 107095.
	create_child: MAIN (1, 24) FAR 106944 U 0.01
expand: MAIN (1, 0) FAR  w(0) 106944. F 0.00
expand: MAIN (2, 0) FAR  w(0) 107095. F 0.00
expand: MAIN (3, 0) FAR  w(0) 107226. F 0.00
expand: MAIN (4, 0) FAR  w(0) 107594. F 0.00
expand: MAIN (5, 0) FAR  w(0) 107010. F 0.00
expand: MAIN (6, 0) FAR  w(0) 106968. F 0.00
expand: MAIN (7, 0) FAR  w(0) 107202. F 0.00
expand: MAIN (8, 0) FAR  w(0) 107234. F 0.00
expand: MAIN (9, 0) FAR  w(0) 107065. F 0.00
expand: MAIN (10, 0) FAR  w(0) 107401. F 0.00
expand: MAIN (11, 0) FAR  w(0) 107052. F 0.00
expand: MAIN (12, 0) FAR  w(0) 107117. F 0.00
expand: MAIN (13, 0) FAR  w(0) 107386. F 0.00
expand: MAIN (14, 0) FAR  w(0) 71946. F 0.01
expand: MAIN (15, 0) FAR  w(0) 71635. F 0.01
expand: MAIN (16, 0) FAR  w(0) 71827. F 0.01
expand: MAIN (17, 0) FAR  w(0) 71499. F 0.01
expand: MAIN (18, 0) FAR  w(0) 71520. F 0.01
expand: MAIN (19, 0) FAR  w(0) 71727. F 0.01
expand: MAIN (20, 0) FAR  w(0) 71685. F 0.01
expand: MAIN (21, 0) FAR  w(0) 71568. F 0.01
expand: MAIN (22, 0) FAR  w(0) 71481. F 0.01
expand: MAIN (23, 0) FAR  w(0) 3374.
	create_child: MAIN (22, 24) FAR 111757 U 0.00
expand: MAIN (22, 0) FAR  w(0) 111757.
	create_child: MAIN (21, 24) FAR 112234 U 0.00
expand: MAIN (21, 0) FAR  w(0) 112234.
	create_child: MAIN (20, 24) FAR 112250 U 0.00
expand: MAIN (20, 0) FAR  w(0) 112250.
	create_child: MAIN (19, 24) FAR 112365 U 0.00
expand: MAIN (19, 0) FAR  w(0) 112365.
	create_child: MAIN (18, 24) FAR 112347 U 0.00
expand: MAIN (18, 0) FAR  w(0) 112347.
	create_child: MAIN (17, 24) FAR 112208 U 0.00
expand: MAIN (17, 0) FAR  w(0) 112208.
	create_child: MAIN (16, 24) FAR 112453 U 0.00
expand: MAIN (16, 0) FAR  w(0) 112453.
	create_child: MAIN (15, 24) FAR 112555 U 0.00
expand: MAIN (15, 0) FAR  w(0) 112555.
	create_child: MAIN (14, 24) FAR 112413 U 0.00
expand: MAIN (14, 0) FAR  w(0) 112413.
	create_child: MAIN (13, 24) FAR 112621 U 0.00
expand: MAIN (13, 0) FAR  w(0) 112621. F 0.01
expand: MAIN (14, 0) FAR  w(0) 112413. F 0.01
expand: MAIN (15, 0) FAR  w(0) 112555. F 0.01
expand: MAIN (16, 0) FAR  w(0) 112453. F 0.01
expand: MAIN (17, 0) FAR  w(0) 112208. F 0.01
expand: MAIN (18, 0) FAR  w(0) 112347. F 0.01
expand: MAIN (19, 0) FAR  w(0) 112365. F 0.01
expand: MAIN (20, 0) FAR  w(0) 112250. F 0.01
expand: MAIN (21, 0) FAR  w(0) 112234. F 0.01
expand: MAIN (22, 0) FAR  w(0) 111757. F 0.01
expand: MAIN (23, 0) FAR  w(0) 3374.
	create_child: MAIN (22, 24) FAR 114857 U 0.00
expand: MAIN (22, 0) FAR  w(0) 114857.
	create_child: MAIN (21, 24) FAR 115038 U 0.00
expand: MAIN (21, 0) FAR  w(0) 115038.
	create_child: MAIN (20, 24) FAR 114978 U 0.00
expand: MAIN (20, 0) FAR  w(0) 114978.
	create_child: MAIN (19, 24) FAR 114605 U 0.00
expand: MAIN (19, 0) FAR  w(0) 114605.
	create_child: MAIN (18, 24) FAR 115204 U 0.00
expand: MAIN (18, 0) FAR  w(0) 115204.
	create_child: MAIN (17, 24) FAR 115096 U 0.00
expand: MAIN (17, 0) FAR  w(0) 115096.
	create_child: MAIN (16, 24) FAR 115356 U 0.00
expand: MAIN (16, 0) FAR  w(0) 115356.
	create_child: MAIN (15, 24) FAR 115097 U 0.00
expand: MAIN (15, 0) FAR  w(0) 115097.
	create_child: MAIN (14, 24) FAR 115208 U 0.00
expand: MAIN (14, 0) FAR  w(0) 115208.
	create_child: MAIN (13, 24) FAR 115331 U 0.00
expand: MAIN (13, 0) FAR  w(0) 115331.
	create_child: MAIN (12, 24) FAR 115274 U 0.00
expand: MAIN (12, 0) FAR  w(0) 115274.
	create_child: MAIN (11, 24) FAR 115554 U 0.00
expand: MAIN (11, 0) FAR  w(0) 115554.
	create_child: MAIN (10, 24) FAR 115526 U 0.00
expand: MAIN (10, 0) FAR  w(0) 115526.
	create_child: MAIN (9, 24) FAR 115220 U 0.00
expand: MAIN (9, 0) FAR  w(0) 115220.
	create_child: MAIN (8, 24) FAR 115639 U 0.00
expand: MAIN (8, 0) FAR  w(0) 115639.
	create_child: MAIN (7, 24) FAR 115728 U 0.00
expand: MAIN (7, 0) FAR  w(0) 115728.
	create_child: MAIN (6, 24) FAR 115068 U 0.01
expand: MAIN (6, 0) FAR  w(0) 115068.
	create_child: MAIN (5, 24) FAR 115288 U 0.01
expand: MAIN (5, 0) FAR  w(0) 115288.
	create_child: MAIN (4, 24) FAR 115825 U 0.01
expand: MAIN (4, 0) FAR  w(0) 115825. F 0.01
expand: MAIN (5, 0) FAR  w(0) 115288. F 0.01
expand: MAIN (6, 0) FAR  w(0) 115068. F 0.01
expand: MAIN (7, 0) FAR  w(0) 115728. F 0.01
expand: MAIN (8, 0) FAR  w(0) 115639. F 0.01
expand: MAIN (9, 0) FAR  w(0) 115220. F 0.01
expand: MAIN (10, 0) FAR  w(0) 115526. F 0.01
expand: MAIN (11, 0) FAR  w(0) 115554. F 0.01
expand: MAIN (12, 0) FAR  w(0) 115274. F 0.01
expand: MAIN (13, 0) FAR  w(0) 115331. F 0.01
expand: MAIN (14, 0) FAR  w(0) 115208. F 0.01
expand: MAIN (15, 0) FAR  w(0) 115097.
	create_child: MAIN (14, 24) FAR 118250 U 0.00
expand: MAIN (14, 0) FAR  w(0) 118250. F 0.01
expand: MAIN (15, 0) FAR  w(0) 115097. F 0.01
expand: MAIN (16, 0) FAR  w(0) 115356.
	create_child: MAIN (15, 24) FAR 118475 U 0.00
expand: MAIN (15, 0) FAR  w(0) 118475. F 0.01
expand: MAIN (16, 0) FAR  w(0) 115356. F 0.01
expand: MAIN (17, 0) FAR  w(0) 115096.
	create_child: MAIN (16, 24) FAR 119053 U 0.00
expand: MAIN (16, 0) FAR  w(0) 119053. F 0.01
expand: MAIN (17, 0) FAR  w(0) 115096. F 0.01
expand: MAIN (18, 0) FAR  w(0) 115204.
	create_child: MAIN (17, 24) FAR 119449 U 0.00
expand: MAIN (17, 0) FAR  w(0) 119449. F 0.01
expand: MAIN (18, 0) FAR  w(0) 115204. F 0.01
expand: MAIN (19, 0) FAR  w(0) 114605.
	create_child: MAIN (18, 24) FAR 119848 U 0.00
expand: MAIN (18, 0) FAR  w(0) 119848. F 0.01
expand: MAIN (19, 0) FAR  w(0) 114605. F 0.01
expand: MAIN (20, 0) FAR  w(0) 114978.
	create_child: MAIN (19, 24) FAR 120250 U 0.00
expand: MAIN (19, 0) FAR  w(0) 120250. F 0.01
expand: MAIN (20, 0) FAR  w(0) 114978. F 0.01
expand: MAIN (21, 0) FAR  w(0) 115038.
	create_child: MAIN (20, 24) FAR 120564 U 0.00
expand: MAIN (20, 0) FAR  w(0) 120564. F 0.01
expand: MAIN (21, 0) FAR  w(0) 115038. F 0.01
expand: MAIN (22, 0) FAR  w(0) 114857.
	create_child: MAIN (21, 24) FAR 120980 U 0.00
expand: MAIN (21, 0) FAR  w(0) 120980. F 0.01
expand: MAIN (22, 0) FAR  w(0) 114857. F 0.01
expand: MAIN (23, 0) FAR  w(0) 3374.
	create_child: MAIN (22, 24) FAR 121245 U 0.00
expand: MAIN (22, 0) FAR  w(0) 121245.
	create_child: MAIN (21, 24) FAR 121353 U 0.00
expand: MAIN (21, 0) FAR  w(0) 121353.
	create_child: MAIN (20, 24) FAR 121320 U 0.00
expand: MAIN (20, 0) FAR  w(0) 121320.
	create_child: MAIN (19, 24) FAR 121495 U 0.00
expand: MAIN (19, 0) FAR  w(0) 121495.
	create_child: MAIN (18, 24) FAR 121512 U 0.00
expand: MAIN (18, 0) FAR  w(0) 121512.
	create_child: MAIN (17, 24) FAR 121065 U 0.00
expand: MAIN (17, 0) FAR  w(0) 121065.
	create_child: MAIN (16, 24) FAR 121494 U 0.00
expand: MAIN (16, 0) FAR  w(0) 121494.
	create_child: MAIN (15, 24) FAR 121432 U 0.00
expand: MAIN (15, 0) FAR  w(0) 121432.
	create_child: MAIN (14, 24) FAR 121549 U 0.00
expand: MAIN (14, 0) FAR  w(0) 121549.
	create_child: MAIN (13, 24) FAR 121717 U 0.00
expand: MAIN (13, 0) FAR  w(0) 121717. F 0.01
expand: MAIN (14, 0) FAR  w(0) 121549. F 0.01
expand: MAIN (15, 0) FAR  w(0) 121432. F 0.01
expand: MAIN (16, 0) FAR  w(0) 121494. F 0.01
expand: MAIN (17, 0) FAR  w(0) 121065. F 0.01
expand: MAIN (18, 0) FAR  w(0) 121512. F 0.01
expand: MAIN (19, 0) FAR  w(0) 121495. F 0.01
expand: MAIN (20, 0) FAR  w(0) 121320. F 0.01
expand: MAIN (21, 0) FAR  w(0) 121353. F 0.01
expand: MAIN (22, 0) FAR  w(0) 121245. F 0.02
expand: MAIN (23, 0) FAR  w(0) 3374.
	create_child: MAIN (22, 24) FAR 122683 U 0.00
expand: MAIN (22, 0) FAR  w(0) 122683.
	create_child: MAIN (21, 24) FAR 123187 U 0.00
expand: MAIN (21, 0) FAR  w(0) 123187.
	create_child: MAIN (20, 24) FAR 123199 U 0.00
expand: MAIN (20, 0) FAR  w(0) 123199.
	create_child: MAIN (19, 24) FAR 123147 U 0.00
expand: MAIN (19, 0) FAR  w(0) 123147.
	create_child: MAIN (18, 24) FAR 123206 U 0.00
expand: MAIN (18, 0) FAR  w(0) 123206.
	create_child: MAIN (17, 24) FAR 123255 U 0.00
expand: MAIN (17, 0) FAR  w(0) 123255.
	create_child: MAIN (16, 24) FAR 123404 U 0.00
expand: MAIN (16, 0) FAR  w(0) 123404.
	create_child: MAIN (15, 24) FAR 123303 U 0.00
expand: MAIN (15, 0) FAR  w(0) 123303.
	create_child: MAIN (14, 24) FAR 123140 U 0.00
expand: MAIN (14, 0) FAR  w(0) 123140.
	create_child: MAIN (13, 24) FAR 123394 U 0.01
expand: MAIN (13, 0) FAR  w(0) 123394.
	create_child: MAIN (12, 24) FAR 123141 U 0.01
expand: MAIN (12, 0) FAR  w(0) 123141.
	create_child: MAIN (11, 24) FAR 123729 U 0.01
expand: MAIN (11, 0) FAR  w(0) 123729.
	create_child: MAIN (10, 24) FAR 123461 U 0.01
expand: MAIN (10, 0) FAR  w(0) 123461.
	create_child: MAIN (9, 24) FAR 123168 U 0.01
expand: MAIN (9, 0) FAR  w(0) 123168.
	create_child: MAIN (8, 24) FAR 123370 U 0.01
expand: MAIN (8, 0) FAR  w(0) 123370.
	create_child: MAIN (7, 24) FAR 123855 U 0.01
expand: MAIN (7, 0) FAR  w(0) 123855.
	create_child: MAIN (6, 24) FAR 123284 U 0.01
expand: MAIN (6, 0) FAR  w(0) 123284.
	create_child: MAIN (5, 24) FAR 123766 U 0.01
expand: MAIN (5, 0) FAR  w(0) 123766.
	create_child: MAIN (4, 24) FAR 123898 U 0.01
expand: MAIN (4, 0) FAR  w(0) 123898.
	create_child: MAIN (3, 24) FAR 123956 U 0.01
expand: MAIN (3, 0) FAR  w(0) 123956. F 0.01
expand: MAIN (4, 0) FAR  w(0) 123898. F 0.01
expand: MAIN (5, 0) FAR  w(0) 123766. F 0.01
expand: MAIN (6, 0) FAR  w(0) 123284. F 0.01
expand: MAIN (7, 0) FAR  w(0) 123855. F 0.01
expand: MAIN (8, 0) FAR  w(0) 123370. F 0.01
expand: MAIN (9, 0) FAR  w(0) 123168. F 0.01
expand: MAIN (10, 0) FAR  w(0) 123461. F 0.01
expand: MAIN (11, 0) FAR  w(0) 123729. F 0.02
expand: MAIN (12, 0) FAR  w(0) 123141. F 0.01
expand: MAIN (13, 0) FAR  w(0) 123394. F 0.01
expand: MAIN (14, 0) FAR  w(0) 123140. F 0.01
expand: MAIN (15, 0) FAR  w(0) 123303. F 0.01
expand: MAIN (16, 0) FAR  w(0) 123404. F 0.01
expand: MAIN (17, 0) FAR  w(0) 123255. F 0.01
expand: MAIN (18, 0) FAR  w(0) 123206. F 0.01
expand: MAIN (19, 0) FAR  w(0) 123147. F 0.01
expand: MAIN (20, 0) FAR  w(0) 123199. F 0.01
expand: MAIN (21, 0) FAR  w(0) 123187. F 0.01
expand: MAIN (22, 0) FAR  w(0) 122683. F 0.01
expand: MAIN (23, 0) FAR  w(0) 3374. F 0.00
expand: query!0 (24, 0) FAR  w(0) 1. F 0.00
(spacer::context::check_reachability :time 1.62 :before-memory 20.97 :after-memory 23.63)
Propagating: 1 2 3 4 5 6 7 8 9 10 11 12 13 14 15 16 17 18 19 20 21 22 23 24  ! 25 
(spacer::context::propagate :time 0.67 :before-memory 23.63 :after-memory 23.92)
Entering level 25
BRUNCH_STAT max_query_lvl 24
BRUNCH_STAT num_queries 507
BRUNCH_STAT num_reach_queries 0
BRUNCH_STAT num_reach_reuse 0
BRUNCH_STAT inductive_lvl 0
BRUNCH_STAT max_depth 25
BRUNCH_STAT cex_depth 0
expand: query!0 (25, 0) FAR  w(0) 1.
	create_child: MAIN (24, 25) FAR 3374 U 0.00
expand: MAIN (24, 0) FAR  w(0) 3374.
	create_child: MAIN (23, 25) FAR 19290 U 0.00
expand: MAIN (23, 0) FAR  w(0) 19290.
	create_child: MAIN (22, 25) FAR 24275 U 0.00
expand: MAIN (22, 0) FAR  w(0) 24275.
	create_child: MAIN (21, 25) FAR 25588 U 0.00
expand: MAIN (21, 0) FAR  w(0) 25588.
	create_child: MAIN (20, 25) FAR 29239 U 0.00
expand: MAIN (20, 0) FAR  w(0) 29239.
	create_child: MAIN (19, 25) FAR 33535 U 0.00
expand: MAIN (19, 0) FAR  w(0) 33535.
	create_child: MAIN (18, 25) FAR 38223 U 0.00
expand: MAIN (18, 0) FAR  w(0) 38223.
	create_child: MAIN (17, 25) FAR 44020 U 0.00
expand: MAIN (17, 0) FAR  w(0) 44020.
	create_child: MAIN (16, 25) FAR 50078 U 0.00
expand: MAIN (16, 0) FAR  w(0) 50078.
	create_child: MAIN (15, 25) FAR 56990 U 0.00
expand: MAIN (15, 0) FAR  w(0) 56990.
	create_child: MAIN (14, 25) FAR 56838 U 0.00
expand: MAIN (14, 0) FAR  w(0) 56838.
	create_child: MAIN (13, 25) FAR 57034 U 0.01
expand: MAIN (13, 0) FAR  w(0) 57034.
	create_child: MAIN (12, 25) FAR 56868 U 0.01
expand: MAIN (12, 0) FAR  w(0) 56868.
	create_child: MAIN (11, 25) FAR 57106 U 0.00
expand: MAIN (11, 0) FAR  w(0) 57106.
	create_child: MAIN (10, 25) FAR 56627 U 0.00
expand: MAIN (10, 0) FAR  w(0) 56627.
	create_child: MAIN (9, 25) FAR 56940 U 0.01
expand: MAIN (9, 0) FAR  w(0) 56940.
	create_child: MAIN (8, 25) FAR 57182 U 0.00
expand: MAIN (8, 0) FAR  w(0) 57182.
	create_child: MAIN (7, 25) FAR 56825 U 0.00
expand: MAIN (7, 0) FAR  w(0) 56825.
	create_child: MAIN (6, 25) FAR 64555 U 0.00
expand: MAIN (6, 0) FAR  w(0) 64555.
	create_child: MAIN (5, 25) FAR 64307 U 0.01
expand: MAIN (5, 0) FAR  w(0) 64307.
	create_child: MAIN (4, 25) FAR 131812 U 0.01
expand: MAIN (4, 0) FAR  w(0) 131812. F 0.01
expand: MAIN (5, 0) FAR  w(0) 64307. F 0.01
expand: MAIN (6, 0) FAR  w(0) 64555. F 0.01
expand: MAIN (7, 0) FAR  w(0) 56825. F 0.01
expand: MAIN (8, 0) FAR  w(0) 57182. F 0.01
expand: MAIN (9, 0) FAR  w(0) 56940. F 0.01
expand: MAIN (10, 0) FAR  w(0) 56627. F 0.01
expand: MAIN (11, 0) FAR  w(0) 57106. F 0.01
expand: MAIN (12, 0) FAR  w(0) 56868. F 0.01
expand: MAIN (13, 0) FAR  w(0) 57034. F 0.02
expand: MAIN (14, 0) FAR  w(0) 56838. F 0.02
expand: MAIN (15, 0) FAR  w(0) 56990. F 0.01
expand: MAIN (16, 0) FAR  w(0) 50078.
	create_child: MAIN (15, 25) FAR 50148 U 0.01
expand: MAIN (15, 0) FAR  w(0) 50148. F 0.01
expand: MAIN (16, 0) FAR  w(0) 50078. F 0.01
expand: MAIN (17, 0) FAR  w(0) 44020.
	create_child: MAIN (16, 25) FAR 44127 U 0.00
expand: MAIN (16, 0) FAR  w(0) 44127. F 0.01
expand: MAIN (17, 0) FAR  w(0) 44020. F 0.01
expand: MAIN (18, 0) FAR  w(0) 38223.
	create_child: MAIN (17, 25) FAR 38314 U 0.00
expand: MAIN (17, 0) FAR  w(0) 38314. F 0.01
expand: MAIN (18, 0) FAR  w(0) 38223. F 0.01
expand: MAIN (19, 0) FAR  w(0) 33535.
	create_child: MAIN (18, 25) FAR 33301 U 0.00
expand: MAIN (18, 0) FAR  w(0) 33301. F 0.01
expand: MAIN (19, 0) FAR  w(0) 33535. F 0.01
expand: MAIN (20, 0) FAR  w(0) 29239.
	create_child: MAIN (19, 25) FAR 29310 U 0.00
expand: MAIN (19, 0) FAR  w(0) 29310. F 0.01
expand: MAIN (20, 0) FAR  w(0) 29239. F 0.01
expand: MAIN (21, 0) FAR  w(0) 25588.
	create_child: MAIN (20, 25) FAR 25824 U 0.00
expand: MAIN (20, 0) FAR  w(0) 25824. F 0.01
expand: MAIN (21, 0) FAR  w(0) 25588. F 0.01
expand: MAIN (22, 0) FAR  w(0) 24275.
	create_child: MAIN (21, 25) FAR 27130 U 0.00
expand: MAIN (21, 0) FAR  w(0) 27130. F 0.01
expand: MAIN (22, 0) FAR  w(0) 24275. F 0.01
expand: MAIN (23, 0) FAR  w(0) 19290.
	create_child: MAIN (22, 25) FAR 19411 U 0.00
expand: MAIN (22, 0) FAR  w(0) 19411. F 0.01
expand: MAIN (23, 0) FAR  w(0) 19290. F 0.01
expand: MAIN (24, 0) FAR  w(0) 3374.
	create_child: MAIN (23, 25) FAR 135788 U 0.00
expand: MAIN (23, 0) FAR  w(0) 135788.
	create_child: MAIN (22, 25) FAR 135963 U 0.00
expand: MAIN (22, 0) FAR  w(0) 135963.
	create_child: MAIN (21, 25) FAR 135971 U 0.00
expand: MAIN (21, 0) FAR  w(0) 135971.
	create_child: MAIN (20, 25) FAR 136066 U 0.00
expand: MAIN (20, 0) FAR  w(0) 136066.
	create_child: MAIN (19, 25) FAR 136121 U 0.00
expand: MAIN (19, 0) FAR  w(0) 136121.
	create_child: MAIN (18, 25) FAR 135847 U 0.00
expand: MAIN (18, 0) FAR  w(0) 135847.
	create_child: MAIN (17, 25) FAR 136182 U 0.00
expand: MAIN (17, 0) FAR  w(0) 136182.
	create_child: MAIN (16, 25) FAR 135382 U 0.00
expand: MAIN (16, 0) FAR  w(0) 135382.
	create_child: MAIN (15, 25) FAR 136222 U 0.00
expand: MAIN (15, 0) FAR  w(0) 136222.
	create_child: MAIN (14, 25) FAR 135761 U 0.00
expand: MAIN (14, 0) FAR  w(0) 135761.
	create_child: MAIN (13, 25) FAR 136277 U 0.00
expand: MAIN (13, 0) FAR  w(0) 136277.
	create_child: MAIN (12, 25) FAR 136518 U 0.01
expand: MAIN (12, 0) FAR  w(0) 136518.
	create_child: MAIN (11, 25) FAR 136304 U 0.01
expand: MAIN (11, 0) FAR  w(0) 136304.
	create_child: MAIN (10, 25) FAR 136227 U 0.01
expand: MAIN (10, 0) FAR  w(0) 136227.
	create_child: MAIN (9, 25) FAR 136573 U 0.01
expand: MAIN (9, 0) FAR  w(0) 136573.
	create_child: MAIN (8, 25) FAR 136233 U 0.01
expand: MAIN (8, 0) FAR  w(0) 136233.
	create_child: MAIN (7, 25) FAR 136064 U 0.01
expand: MAIN (7, 0) FAR  w(0) 136064.
	create_child: MAIN (6, 25) FAR 135949 U 0.01
expand: MAIN (6, 0) FAR  w(0) 135949.
	create_child: MAIN (5, 25) FAR 136425 U 0.01
expand: MAIN (5, 0) FAR  w(0) 136425.
	create_child: MAIN (4, 25) FAR 136531 U 0.01
expand: MAIN (4, 0) FAR  w(0) 136531. F 0.01
expand: MAIN (5, 0) FAR  w(0) 136425. F 0.01
expand: MAIN (6, 0) FAR  w(0) 135949. F 0.01
expand: MAIN (7, 0) FAR  w(0) 136064. F 0.01
expand: MAIN (8, 0) FAR  w(0) 136233. F 0.01
expand: MAIN (9, 0) FAR  w(0) 136573. F 0.01
expand: MAIN (10, 0) FAR  w(0) 136227. F 0.01
expand: MAIN (11, 0) FAR  w(0) 136304. F 0.01
expand: MAIN (12, 0) FAR  w(0) 136518. F 0.01
expand: MAIN (13, 0) FAR  w(0) 136277. F 0.02
expand: MAIN (14, 0) FAR  w(0) 135761. F 0.01
expand: MAIN (15, 0) FAR  w(0) 136222. F 0.01
expand: MAIN (16, 0) FAR  w(0) 135382. F 0.01
expand: MAIN (17, 0) FAR  w(0) 136182. F 0.01
expand: MAIN (18, 0) FAR  w(0) 135847. F 0.01
expand: MAIN (19, 0) FAR  w(0) 136121. F 0.01
expand: MAIN (20, 0) FAR  w(0) 136066. F 0.01
expand: MAIN (21, 0) FAR  w(0) 135971. F 0.01
expand: MAIN (22, 0) FAR  w(0) 135963. F 0.01
expand: MAIN (23, 0) FAR  w(0) 135788. F 0.01
expand: MAIN (24, 0) FAR  w(0) 3374. F 0.00
expand: query!0 (25, 0) FAR  w(0) 1. F 0.00
(spacer::context::check_reachability :time 0.77 :before-memory 23.92 :after-memory 24.52)
Propagating: 4 5 6 7 8 9 10 11 12 13 14 15 16 17 18 19 20 21 22 23 24 
(spacer::context::propagate :time 0.98 :before-memory 24.52 :after-memory 27.15)
(define-fun MAIN ((x!0 Int)
 (x!1 Int)
 (x!2 Bool)
 (x!3 Bool)
 (x!4 Bool)
 (x!5 Int)
 (x!6 Int)
 (x!7 Int)
 (x!8 Bool)
 (x!9 Int)
 (x!10 Bool)
 (x!11 Bool)
 (x!12 Bool)
 (x!13 Int)
 (x!14 Bool)
 (x!15 Bool)
 (x!16 Bool)
 (x!17 Bool)
 (x!18 Bool)
 (x!19 Bool)
 (x!20 Bool)
 (x!21 Bool)
 (x!22 Bool)
 (x!23 Bool)) Bool
  (let ((a!1 (not (<= (+ x!6 (* (- 1) x!5)) (- 11))))
        (a!3 (not (<= (+ x!6 (* (- 1) x!5)) (- 10))))
        (a!4 (not (>= (+ x!7 (* (- 1) x!5)) 10)))
        (a!5 (not (>= (+ x!1 (* (- 1) x!0)) 31)))
        (a!6 (not (<= (+ x!7 (* (- 1) x!5)) 9)))
        (a!7 (not (<= (+ x!6 (* (- 1) x!7)) (- 31))))
        (a!8 (not (<= (+ x!1 (* (- 1) x!0)) 30)))
        (a!9 (not (>= (+ x!6 (* (- 1) x!5)) (- 9))))
        (a!10 (not (<= (+ x!7 (* (- 1) x!5)) (- 10))))
        (a!11 (not (<= (+ x!7 (* (- 1) x!5)) 0)))
        (a!12 (not (>= (+ x!6 (* (- 1) x!5)) 0)))
        (a!13 (not (<= (+ x!7 (* (- 1) x!5)) 6)))
        (a!14 (not (<= (+ x!6 (* (- 1) x!7)) (- 18))))
        (a!15 (not (<= (+ x!7 (* (- 1) x!5)) 3)))
        (a!16 (not (<= (+ x!6 (* (- 1) x!7)) (- 15))))
        (a!17 (not (<= (+ x!7 (* (- 1) x!5)) 2)))
        (a!18 (not (<= (+ x!6 (* (- 1) x!7)) (- 14))))
        (a!19 (not (<= (+ x!6 (* (- 1) x!7)) (- 12))))
        (a!20 (not (<= (+ x!6 (* (- 1) x!7)) (- 13))))
        (a!21 (not (<= (+ x!7 (* (- 1) x!5)) 1)))
        (a!22 (not (<= (+ x!7 (* (- 1) x!5)) 5)))
        (a!23 (not (<= (+ x!6 (* (- 1) x!7)) (- 17))))
        (a!24 (not (<= (+ x!7 (* (- 1) x!5)) 4)))
        (a!25 (not (<= (+ x!6 (* (- 1) x!7)) (- 16))))
        (a!26 (not (<= (+ x!7 (* (- 1) x!5)) 7)))
        (a!27 (not (<= (+ x!6 (* (- 1) x!7)) (- 19))))
        (a!28 (not (<= (+ x!7 (* (- 1) x!5)) 8)))
        (a!29 (not (<= (+ x!6 (* (- 1) x!7)) (- 20))))
        (a!30 (not (<= (+ x!6 (* (- 1) x!7)) (- 21))))
        (a!31 (not (<= (+ x!6 (* (- 1) x!7)) (- 22))))
        (a!32 (not (<= (+ x!6 (* (- 1) x!7)) (- 23))))
        (a!33 (not (<= (+ x!6 (* (- 1) x!7)) (- 24))))
        (a!34 (not (<= (+ x!6 (* (- 1) x!7)) (- 26))))
        (a!35 (not (<= (+ x!6 (* (- 1) x!7)) (- 25))))
        (a!36 (not (<= (+ x!6 (* (- 1) x!7)) (- 27))))
        (a!37 (not (<= (+ x!6 (* (- 1) x!7)) (- 28))))
        (a!38 (not (<= (+ x!6 (* (- 1) x!7)) (- 29))))
        (a!39 (not (<= (+ x!6 (* (- 1) x!7)) (- 30)))))
  (let ((a!2 (or a!1 (not x!3) (>= (+ x!7 (* (- 1) x!5)) 0))))
    (and a!2
         x!23
         (not x!18)
         (not x!22)
         (not x!15)
         (not x!4)
         (not x!21)
         (not x!11)
         (>= x!9 0)
         (or a!3 x!19)
         (or (not x!19) x!14)
         (or a!4 x!8)
         (or a!5 x!19 a!6)
         (or (not x!20) (not x!19))
         (or a!7 a!8)
         (or x!17 (not x!8))
         (or x!8 (not x!17))
         (or a!9 x!8 a!5)
         (or a!10 x!16)
         (or a!9 a!11 a!5)
         (or a!12 (not x!19))
         (or a!13 (not x!3) a!14)
         (or a!15 (not x!3) a!16)
         (or a!17 (not x!3) a!18)
         (or a!19 (not x!3) a!11)
         (or a!20 (not x!3) a!21)
         (or a!22 (not x!3) a!23)
         (or a!24 (not x!3) a!25)
         (or a!26 (not x!3) a!27)
         (or a!28 (not x!3) a!29)
         (or a!30 (not x!3) x!8)
         (or (not (<= x!9 0)) (not x!3) a!31)
         (or (not (<= x!9 1)) (not x!3) a!32)
         (or (not (<= x!9 2)) (not x!3) a!33)
         (or (not (<= x!9 4)) (not x!3) a!34)
         (or (not (<= x!9 3)) (not x!3) a!35)
         (or (not (<= x!9 5)) (not x!3) a!36)
         (or (not (<= x!9 6)) (not x!3) a!37)
         (or (not (<= x!9 7)) (not x!3) a!38)
         (or (not (<= x!9 8)) (not x!3) a!39)
         (or a!5 (not x!3))))))
BRUNCH_STAT max_query_lvl 25
BRUNCH_STAT num_queries 556
BRUNCH_STAT num_reach_queries 0
BRUNCH_STAT num_reach_reuse 0
BRUNCH_STAT inductive_lvl 24
BRUNCH_STAT max_depth 25
BRUNCH_STAT cex_depth 0
(:SPACER-inductive-level               24
 :SPACER-max-depth                     25
 :SPACER-max-query-lvl                 25
 :SPACER-num-invariants                99
 :SPACER-num-lemmas                    581
 :SPACER-num-properties                109
 :SPACER-num-queries                   556
 :added-eqs                            81155
 :arith-add-rows                       7916
 :arith-assert-diseq                   45022
 :arith-assert-lower                   335672
 :arith-assert-upper                   250201
 :arith-bound-prop                     2312
 :arith-conflicts                      171
 :arith-eq-adapter                     14005
 :arith-fixed-eqs                      15672
 :arith-offset-eqs                     9894
 :arith-pivots                         2379
 :bool-inductive-gen                   556
 :bool-inductive-gen-failures          967
 :conflicts                            3866
 :decisions                            1024256
 :del-clause                           1129
 :final-checks                         2713
 :minimized-lits                       228
 :mk-bool-var                          19262
 :mk-clause                            11340
 :num-checks                           6396
 :propagations                         2556765
 :time.itp_solver.itp_core             0.27
 :time.spacer.init_rules               0.00
 :time.spacer.init_rules.pt.init       0.00
 :time.spacer.solve                    7.45
 :time.spacer.solve.propagate          3.15
 :time.spacer.solve.reach              4.31
 :time.spacer.solve.reach.children     0.70
 :time.spacer.solve.reach.gen.bool_ind 1.82
 :time.virtual_solver.proof            0.15
 :time.virtual_solver.smt.total        6.26
 :time.virtual_solver.smt.total.sat    4.27
 :virtual_solver.checks                6396
 :virtual_solver.checks.sat            2713)
BRUNCH_STAT max_query_lvl 25
BRUNCH_STAT num_queries 556
BRUNCH_STAT num_reach_queries 0
BRUNCH_STAT num_reach_reuse 0
BRUNCH_STAT inductive_lvl 24
BRUNCH_STAT max_depth 25
BRUNCH_STAT cex_depth 0

real	0m7.585s
user	0m7.468s
sys	0m0.116s
