(transform N7datalog13mk_coi_filterE...no-op 0s)
(transform N7datalog25mk_interp_tail_simplifierE...7 rules 0.0018608s)
(transform N7datalog27mk_quantifier_instantiationE...no-op 0s)
(transform N7datalog8mk_scaleE...no-op 0s)
(transform N7datalog18mk_karr_invariantsE...no-op 0s)
(transform N7datalog14mk_array_blastE...no-op 0s)
(transform N7datalog22mk_subsumption_checkerE...6 rules 0s)
(transform N7datalog12mk_bit_blastE...no-op 0s)
(transform N7datalog15mk_rule_inlinerE...3 rules 0.0135537s)
(transform N7datalog13mk_coi_filterE...no-op 0s)
(transform N7datalog25mk_interp_tail_simplifierE...3 rules 0s)
(transform N7datalog22mk_subsumption_checkerE...no-op 0s)
(transform N7datalog15mk_rule_inlinerE...no-op 0s)
(transform N7datalog13mk_coi_filterE...no-op 0s)
(transform N7datalog25mk_interp_tail_simplifierE...3 rules 0s)
(transform N7datalog22mk_subsumption_checkerE...no-op 0s)
(transform N7datalog15mk_rule_inlinerE...no-op 0s)
(transform N7datalog22mk_subsumption_checkerE...no-op 0s)
(transform N7datalog15mk_rule_inlinerE...no-op 0s)
(transform N7datalog22mk_subsumption_checkerE...no-op 0s)
(transform N7datalog15mk_rule_inlinerE...no-op 0s)
(transform N7datalog22mk_subsumption_checkerE...no-op 0s)
(transform N7datalog8mk_sliceE...no-op 0.00102233s)
expand: query!0 (0, 0) FAR  w(0) 1. F 0.00
(spacer::context::check_reachability :time 0.00 :before-memory 5.53 :after-memory 6.84)
Entering level 1
BRUNCH_STAT max_query_lvl 0
BRUNCH_STAT num_queries 0
BRUNCH_STAT num_reach_queries 0
BRUNCH_STAT num_reach_reuse 0
BRUNCH_STAT inductive_lvl 0
BRUNCH_STAT max_depth 1
BRUNCH_STAT cex_depth 0
expand: query!0 (1, 0) FAR  w(0) 1.
	create_child: MAIN (0, 1) FAR 13297 U 0.00
expand: MAIN (0, 0) FAR  w(0) 13297. F 0.01
expand: query!0 (1, 0) FAR  w(0) 1. F 0.00
(spacer::context::check_reachability :time 0.01 :before-memory 6.84 :after-memory 9.05)
Propagating: 0 1  ! 2 
(spacer::context::propagate :time 0.01 :before-memory 9.05 :after-memory 9.43)
Entering level 2
BRUNCH_STAT max_query_lvl 1
BRUNCH_STAT num_queries 1
BRUNCH_STAT num_reach_queries 0
BRUNCH_STAT num_reach_reuse 0
BRUNCH_STAT inductive_lvl 0
BRUNCH_STAT max_depth 2
BRUNCH_STAT cex_depth 0
expand: query!0 (2, 0) FAR  w(0) 1.
	create_child: MAIN (1, 2) FAR 13297 U 0.00
expand: MAIN (1, 0) FAR  w(0) 13297.
	create_child: MAIN (0, 2) FAR 22421 U 0.00
expand: MAIN (0, 0) FAR  w(0) 22421. F 0.00
expand: MAIN (1, 0) FAR  w(0) 13297.
	create_child: MAIN (0, 2) FAR 22603 U 0.00
expand: MAIN (0, 0) FAR  w(0) 22603. F 0.00
expand: MAIN (1, 0) FAR  w(0) 13297.
	create_child: MAIN (0, 2) FAR 24336 UNDEF 0.02
expand: MAIN (0, 0) FAR  w(0) 24336. F 0.01
expand: MAIN (1, 0) FAR  w(0) 13297.
	create_child: MAIN (0, 2) FAR 24837 UNDEF 0.01
expand: MAIN (0, 0) FAR  w(0) 24837. F 0.00
expand: MAIN (1, 0) FAR  w(0) 13297.
	create_child: MAIN (0, 2) FAR 25091 UNDEF 0.01
expand: MAIN (0, 0) FAR  w(0) 25091. F 0.00
expand: MAIN (1, 0) FAR  w(0) 13297.
	create_child: MAIN (0, 2) FAR 25130 UNDEF 0.01
expand: MAIN (0, 0) FAR  w(0) 25130. F 0.00
expand: MAIN (1, 0) FAR  w(0) 13297.
	create_child: MAIN (0, 2) FAR 25493 UNDEF 0.01
expand: MAIN (0, 0) FAR  w(0) 25493. F 0.00
expand: MAIN (1, 0) FAR  w(0) 13297.
	create_child: MAIN (0, 2) FAR 25665 UNDEF 0.01
expand: MAIN (0, 0) FAR  w(0) 25665. F 0.00
expand: MAIN (1, 0) FAR  w(0) 13297. F 0.00
expand: query!0 (2, 0) FAR  w(0) 1. F 0.00
(spacer::context::check_reachability :time 0.09 :before-memory 9.43 :after-memory 10.91)
Propagating: 0 1 2  ! 3 
(spacer::context::propagate :time 0.03 :before-memory 10.91 :after-memory 11.50)
Entering level 3
BRUNCH_STAT max_query_lvl 2
BRUNCH_STAT num_queries 10
BRUNCH_STAT num_reach_queries 0
BRUNCH_STAT num_reach_reuse 0
BRUNCH_STAT inductive_lvl 0
BRUNCH_STAT max_depth 3
BRUNCH_STAT cex_depth 0
expand: query!0 (3, 0) FAR  w(0) 1.
	create_child: MAIN (2, 3) FAR 13297 U 0.00
expand: MAIN (2, 0) FAR  w(0) 13297.
	create_child: MAIN (1, 3) FAR 27267 U 0.01
expand: MAIN (1, 0) FAR  w(0) 27267. F 0.02
expand: MAIN (2, 0) FAR  w(0) 13297. F 0.00
expand: query!0 (3, 0) FAR  w(0) 1. F 0.00
(spacer::context::check_reachability :time 0.03 :before-memory 11.50 :after-memory 11.64)
Propagating: 1 2 3  ! 4 
(spacer::context::propagate :time 0.01 :before-memory 11.64 :after-memory 11.74)
Entering level 4
BRUNCH_STAT max_query_lvl 3
BRUNCH_STAT num_queries 12
BRUNCH_STAT num_reach_queries 0
BRUNCH_STAT num_reach_reuse 0
BRUNCH_STAT inductive_lvl 0
BRUNCH_STAT max_depth 4
BRUNCH_STAT cex_depth 0
expand: query!0 (4, 0) FAR  w(0) 1.
	create_child: MAIN (3, 4) FAR 13297 U 0.00
expand: MAIN (3, 0) FAR  w(0) 13297.
	create_child: MAIN (2, 4) FAR 28226 UNDEF 0.01
expand: MAIN (2, 0) FAR  w(0) 28226.
	create_child: MAIN (1, 4) FAR 28778 U 0.01
expand: MAIN (1, 0) FAR  w(0) 28778. F 0.02
expand: MAIN (2, 0) FAR  w(0) 28226.
	create_child: MAIN (1, 4) FAR 29383 UNDEF 0.01
expand: MAIN (1, 0) FAR  w(0) 29383. F 0.03
expand: MAIN (2, 0) FAR  w(0) 28226.
	create_child: MAIN (1, 4) FAR 28831 UNDEF 0.01
expand: MAIN (1, 0) FAR  w(0) 28831. F 0.01
expand: MAIN (2, 0) FAR  w(0) 28226. F 0.00
expand: MAIN (3, 0) FAR  w(0) 13297. F 0.00
expand: query!0 (4, 0) FAR  w(0) 1. F 0.00
(spacer::context::check_reachability :time 0.11 :before-memory 11.74 :after-memory 12.03)
Propagating: 1 2 3 4  ! 5 
(spacer::context::propagate :time 0.02 :before-memory 12.03 :after-memory 12.22)
Entering level 5
BRUNCH_STAT max_query_lvl 4
BRUNCH_STAT num_queries 17
BRUNCH_STAT num_reach_queries 0
BRUNCH_STAT num_reach_reuse 0
BRUNCH_STAT inductive_lvl 0
BRUNCH_STAT max_depth 5
BRUNCH_STAT cex_depth 0
expand: query!0 (5, 0) FAR  w(0) 1.
	create_child: MAIN (4, 5) FAR 13297 U 0.00
expand: MAIN (4, 0) FAR  w(0) 13297.
	create_child: MAIN (3, 5) FAR 30637 U 0.01
expand: MAIN (3, 0) FAR  w(0) 30637. F 0.02
expand: MAIN (4, 0) FAR  w(0) 13297.
	create_child: MAIN (3, 5) FAR 30604 U 0.01
expand: MAIN (3, 0) FAR  w(0) 30604.
	create_child: MAIN (2, 5) FAR 31039 U 0.01
expand: MAIN (2, 0) FAR  w(0) 31039. F 0.03
expand: MAIN (3, 0) FAR  w(0) 30604.
	create_child: MAIN (2, 5) FAR 31392 U 0.01
expand: MAIN (2, 0) FAR  w(0) 31392. F 0.00
expand: MAIN (3, 0) FAR  w(0) 30604. F 0.05
expand: MAIN (4, 0) FAR  w(0) 13297.
	create_child: MAIN (3, 5) FAR 32320 U 0.01
expand: MAIN (3, 0) FAR  w(0) 32320. F 0.02
expand: MAIN (4, 0) FAR  w(0) 13297.
	create_child: MAIN (3, 5) FAR 32435 UNDEF 0.01
expand: MAIN (3, 0) FAR  w(0) 32435.
	create_child: MAIN (2, 5) FAR 32410 UNDEF 0.01
expand: MAIN (2, 0) FAR  w(0) 32410.
	create_child: MAIN (1, 5) FAR 32871 UNDEF 0.01
expand: MAIN (1, 0) FAR  w(0) 32871. F 0.01
expand: MAIN (2, 0) FAR  w(0) 32410. F 0.00
expand: MAIN (3, 0) FAR  w(0) 32435. F 0.01
expand: MAIN (4, 0) FAR  w(0) 13297. F 0.00
expand: query!0 (5, 0) FAR  w(0) 1. F 0.00
(spacer::context::check_reachability :time 0.23 :before-memory 12.22 :after-memory 12.44)
Propagating: 1 2 3 4 5  ! 6 
(spacer::context::propagate :time 0.10 :before-memory 12.44 :after-memory 12.73)
Entering level 6
BRUNCH_STAT max_query_lvl 5
BRUNCH_STAT num_queries 26
BRUNCH_STAT num_reach_queries 0
BRUNCH_STAT num_reach_reuse 0
BRUNCH_STAT inductive_lvl 0
BRUNCH_STAT max_depth 6
BRUNCH_STAT cex_depth 0
expand: query!0 (6, 0) FAR  w(0) 1.
	create_child: MAIN (5, 6) FAR 13297 U 0.00
expand: MAIN (5, 0) FAR  w(0) 13297.
	create_child: MAIN (4, 6) FAR 32967 UNDEF 0.01
expand: MAIN (4, 0) FAR  w(0) 32967. F 0.03
expand: MAIN (5, 0) FAR  w(0) 13297.
	create_child: MAIN (4, 6) FAR 35158 UNDEF 0.01
expand: MAIN (4, 0) FAR  w(0) 35158. F 0.01
expand: MAIN (5, 0) FAR  w(0) 13297.
	create_child: MAIN (4, 6) FAR 34666 UNDEF 0.01
expand: MAIN (4, 0) FAR  w(0) 34666. F 0.01
expand: MAIN (5, 0) FAR  w(0) 13297.
	create_child: MAIN (4, 6) FAR 35367 U 0.01
expand: MAIN (4, 0) FAR  w(0) 35367.
	create_child: MAIN (3, 6) FAR 35615 U 0.01
expand: MAIN (3, 0) FAR  w(0) 35615.
	create_child: MAIN (2, 6) FAR 35465 U 0.01
expand: MAIN (2, 0) FAR  w(0) 35465.
	create_child: MAIN (1, 6) FAR 35630 U 0.01
expand: MAIN (1, 0) FAR  w(0) 35630. F 0.01
expand: MAIN (2, 0) FAR  w(0) 35465. F 0.00
expand: MAIN (3, 0) FAR  w(0) 35615. F 0.02
expand: MAIN (4, 0) FAR  w(0) 35367. F 0.01
expand: MAIN (5, 0) FAR  w(0) 13297. F 0.00
expand: query!0 (6, 0) FAR  w(0) 1. F 0.00
(spacer::context::check_reachability :time 0.15 :before-memory 12.73 :after-memory 13.02)
Propagating: 1 2 3 4 5 6  ! 7 
(spacer::context::propagate :time 0.05 :before-memory 13.02 :after-memory 13.23)
Entering level 7
BRUNCH_STAT max_query_lvl 6
BRUNCH_STAT num_queries 34
BRUNCH_STAT num_reach_queries 0
BRUNCH_STAT num_reach_reuse 0
BRUNCH_STAT inductive_lvl 0
BRUNCH_STAT max_depth 7
BRUNCH_STAT cex_depth 0
expand: query!0 (7, 0) FAR  w(0) 1.
	create_child: MAIN (6, 7) FAR 13297 U 0.00
expand: MAIN (6, 0) FAR  w(0) 13297.
	create_child: MAIN (5, 7) FAR 36905 U 0.01
expand: MAIN (5, 0) FAR  w(0) 36905. F 0.02
expand: MAIN (6, 0) FAR  w(0) 13297.
	create_child: MAIN (5, 7) FAR 37257 UNDEF 0.01
expand: MAIN (5, 0) FAR  w(0) 37257. F 0.08
expand: MAIN (6, 0) FAR  w(0) 13297.
	create_child: MAIN (5, 7) FAR 39552 UNDEF 0.02
expand: MAIN (5, 0) FAR  w(0) 39552.
	create_child: MAIN (4, 7) FAR 37070 UNDEF 0.01
expand: MAIN (4, 0) FAR  w(0) 37070.
	create_child: MAIN (3, 7) FAR 38729 UNDEF 0.01
expand: MAIN (3, 0) FAR  w(0) 38729.
	create_child: MAIN (2, 7) FAR 39078 UNDEF 0.01
expand: MAIN (2, 0) FAR  w(0) 39078.
	create_child: MAIN (1, 7) FAR 39281 UNDEF 0.01
expand: MAIN (1, 0) FAR  w(0) 39281. F 0.05
expand: MAIN (2, 0) FAR  w(0) 39078. F 0.04
expand: MAIN (3, 0) FAR  w(0) 38729. F 0.06
expand: MAIN (4, 0) FAR  w(0) 37070. F 0.05
expand: MAIN (5, 0) FAR  w(0) 39552. F 0.04
expand: MAIN (6, 0) FAR  w(0) 13297.
	create_child: MAIN (5, 7) FAR 42044 UNDEF 0.01
expand: MAIN (5, 0) FAR  w(0) 42044.
	create_child: MAIN (4, 7) FAR 42039 UNDEF 0.05
expand: MAIN (4, 0) FAR  w(0) 42039.
	create_child: MAIN (3, 7) FAR 42553 UNDEF 0.02
expand: MAIN (3, 0) FAR  w(0) 42553.
	create_child: MAIN (2, 7) FAR 41260 UNDEF 0.02
expand: MAIN (2, 0) FAR  w(0) 41260.
	create_child: MAIN (1, 7) FAR 43696 UNDEF 0.03
expand: MAIN (1, 0) FAR  w(0) 43696. F 0.00
expand: MAIN (2, 0) FAR  w(0) 41260. F 0.01
expand: MAIN (3, 0) FAR  w(0) 42553. F 0.00
expand: MAIN (4, 0) FAR  w(0) 42039. F 0.00
expand: MAIN (5, 0) FAR  w(0) 42044. F 0.04
expand: MAIN (6, 0) FAR  w(0) 13297. F 0.00
expand: query!0 (7, 0) FAR  w(0) 1. F 0.00
(spacer::context::check_reachability :time 0.60 :before-memory 13.23 :after-memory 15.04)
Propagating: 1 2 3 4 5 6 7  ! 8 
(spacer::context::propagate :time 0.19 :before-memory 15.04 :after-memory 15.54)
Entering level 8
BRUNCH_STAT max_query_lvl 7
BRUNCH_STAT num_queries 47
BRUNCH_STAT num_reach_queries 0
BRUNCH_STAT num_reach_reuse 0
BRUNCH_STAT inductive_lvl 0
BRUNCH_STAT max_depth 8
BRUNCH_STAT cex_depth 0
expand: query!0 (8, 0) FAR  w(0) 1.
	create_child: MAIN (7, 8) FAR 13297 U 0.00
expand: MAIN (7, 0) FAR  w(0) 13297.
	create_child: MAIN (6, 8) FAR 46231 UNDEF 0.02
expand: MAIN (6, 0) FAR  w(0) 46231.
	create_child: MAIN (5, 8) FAR 46415 UNDEF 0.01
expand: MAIN (5, 0) FAR  w(0) 46415.
	create_child: MAIN (4, 8) FAR 46319 UNDEF 0.01
expand: MAIN (4, 0) FAR  w(0) 46319.
	create_child: MAIN (3, 8) FAR 46408 UNDEF 0.01
expand: MAIN (3, 0) FAR  w(0) 46408.
	create_child: MAIN (2, 8) FAR 46393 UNDEF 0.01
expand: MAIN (2, 0) FAR  w(0) 46393.
	create_child: MAIN (1, 8) FAR 46474 UNDEF 0.02
expand: MAIN (1, 0) FAR  w(0) 46474. F 0.01
expand: MAIN (2, 0) FAR  w(0) 46393. F 0.01
expand: MAIN (3, 0) FAR  w(0) 46408. F 0.00
expand: MAIN (4, 0) FAR  w(0) 46319. F 0.00
expand: MAIN (5, 0) FAR  w(0) 46415. F 0.00
expand: MAIN (6, 0) FAR  w(0) 46231. F 0.02
expand: MAIN (7, 0) FAR  w(0) 13297. F 0.00
expand: query!0 (8, 0) FAR  w(0) 1. F 0.00
(spacer::context::check_reachability :time 0.12 :before-memory 15.54 :after-memory 15.63)
Propagating: 1 2 3 4 5 6 7 8  ! 9 
(spacer::context::propagate :time 0.10 :before-memory 15.63 :after-memory 16.02)
Entering level 9
BRUNCH_STAT max_query_lvl 8
BRUNCH_STAT num_queries 54
BRUNCH_STAT num_reach_queries 0
BRUNCH_STAT num_reach_reuse 0
BRUNCH_STAT inductive_lvl 0
BRUNCH_STAT max_depth 9
BRUNCH_STAT cex_depth 0
expand: query!0 (9, 0) FAR  w(0) 1.
	create_child: MAIN (8, 9) FAR 13297 U 0.00
expand: MAIN (8, 0) FAR  w(0) 13297.
	create_child: MAIN (7, 9) FAR 47537 U 0.02
expand: MAIN (7, 0) FAR  w(0) 47537. F 0.04
expand: MAIN (8, 0) FAR  w(0) 13297.
	create_child: MAIN (7, 9) FAR 46275 UNDEF 0.03
expand: MAIN (7, 0) FAR  w(0) 46275.
	create_child: MAIN (6, 9) FAR 47204 UNDEF 0.02
expand: MAIN (6, 0) FAR  w(0) 47204. F 0.03
expand: MAIN (7, 0) FAR  w(0) 46275.
	create_child: MAIN (6, 9) FAR 48165 UNDEF 0.02
expand: MAIN (6, 0) FAR  w(0) 48165.
	create_child: MAIN (5, 9) FAR 48410 UNDEF 0.02
expand: MAIN (5, 0) FAR  w(0) 48410. F 0.08
expand: MAIN (6, 0) FAR  w(0) 48165.
	create_child: MAIN (5, 9) FAR 48627 UNDEF 0.04
expand: MAIN (5, 0) FAR  w(0) 48627.
	create_child: MAIN (4, 9) FAR 44384 UNDEF 0.02
expand: MAIN (4, 0) FAR  w(0) 44384. F 0.08
expand: MAIN (5, 0) FAR  w(0) 48627.
	create_child: MAIN (4, 9) FAR 49360 UNDEF 0.03
expand: MAIN (4, 0) FAR  w(0) 49360. F 0.05
expand: MAIN (5, 0) FAR  w(0) 48627.
	create_child: MAIN (4, 9) FAR 49905 UNDEF 0.02
expand: MAIN (4, 0) FAR  w(0) 49905. F 0.08
expand: MAIN (5, 0) FAR  w(0) 48627.
	create_child: MAIN (4, 9) FAR 51165 UNDEF 0.03
expand: MAIN (4, 0) FAR  w(0) 51165. F 0.05
expand: MAIN (5, 0) FAR  w(0) 48627.
	create_child: MAIN (4, 9) FAR 47984 UNDEF 0.03
expand: MAIN (4, 0) FAR  w(0) 47984.
	create_child: MAIN (3, 9) FAR 50455 UNDEF 0.02
expand: MAIN (3, 0) FAR  w(0) 50455.
	create_child: MAIN (2, 9) FAR 50746 UNDEF 0.04
expand: MAIN (2, 0) FAR  w(0) 50746.
	create_child: MAIN (1, 9) FAR 51261 UNDEF 0.02
expand: MAIN (1, 0) FAR  w(0) 51261. F 0.01
expand: MAIN (2, 0) FAR  w(0) 50746. F 0.01
expand: MAIN (3, 0) FAR  w(0) 50455. F 0.00
expand: MAIN (4, 0) FAR  w(0) 47984. F 0.00
expand: MAIN (5, 0) FAR  w(0) 48627. F 0.00
expand: MAIN (6, 0) FAR  w(0) 48165. F 0.00
expand: MAIN (7, 0) FAR  w(0) 46275. F 0.06
expand: MAIN (8, 0) FAR  w(0) 13297. F 0.00
expand: query!0 (9, 0) FAR  w(0) 1. F 0.00
(spacer::context::check_reachability :time 0.84 :before-memory 16.02 :after-memory 18.09)
Propagating: 1 2 3 4 5 6 7 8 9  ! 10 
(spacer::context::propagate :time 0.29 :before-memory 18.09 :after-memory 18.30)
Entering level 10
BRUNCH_STAT max_query_lvl 9
BRUNCH_STAT num_queries 69
BRUNCH_STAT num_reach_queries 0
BRUNCH_STAT num_reach_reuse 0
BRUNCH_STAT inductive_lvl 0
BRUNCH_STAT max_depth 10
BRUNCH_STAT cex_depth 0
expand: query!0 (10, 0) FAR  w(0) 1.
	create_child: MAIN (9, 10) FAR 13297 U 0.00
expand: MAIN (9, 0) FAR  w(0) 13297.
	create_child: MAIN (8, 10) FAR 52746 UNDEF 0.02
expand: MAIN (8, 0) FAR  w(0) 52746.
	create_child: MAIN (7, 10) FAR 54036 UNDEF 0.02
expand: MAIN (7, 0) FAR  w(0) 54036. F 0.05
expand: MAIN (8, 0) FAR  w(0) 52746.
	create_child: MAIN (7, 10) FAR 54093 UNDEF 0.02
expand: MAIN (7, 0) FAR  w(0) 54093.
	create_child: MAIN (6, 10) FAR 54418 UNDEF 0.02
expand: MAIN (6, 0) FAR  w(0) 54418.
	create_child: MAIN (5, 10) FAR 54485 UNDEF 0.02
expand: MAIN (5, 0) FAR  w(0) 54485.
	create_child: MAIN (4, 10) FAR 54034 UNDEF 0.02
expand: MAIN (4, 0) FAR  w(0) 54034.
	create_child: MAIN (3, 10) FAR 54099 UNDEF 0.02
expand: MAIN (3, 0) FAR  w(0) 54099.
	create_child: MAIN (2, 10) FAR 53343 UNDEF 0.02
expand: MAIN (2, 0) FAR  w(0) 53343.
	create_child: MAIN (1, 10) FAR 54392 UNDEF 0.02
expand: MAIN (1, 0) FAR  w(0) 54392. F 0.01
expand: MAIN (2, 0) FAR  w(0) 53343. F 0.01
expand: MAIN (3, 0) FAR  w(0) 54099. F 0.00
expand: MAIN (4, 0) FAR  w(0) 54034. F 0.00
expand: MAIN (5, 0) FAR  w(0) 54485. F 0.00
expand: MAIN (6, 0) FAR  w(0) 54418. F 0.00
expand: MAIN (7, 0) FAR  w(0) 54093. F 0.00
expand: MAIN (8, 0) FAR  w(0) 52746. F 0.01
expand: MAIN (9, 0) FAR  w(0) 13297. F 0.00
expand: query!0 (10, 0) FAR  w(0) 1. F 0.00
(spacer::context::check_reachability :time 0.23 :before-memory 18.30 :after-memory 18.38)
Propagating: 1 2 3 4 5 6 7 8 9 10  ! 11 
(spacer::context::propagate :time 1.08 :before-memory 18.38 :after-memory 19.60)
Entering level 11
BRUNCH_STAT max_query_lvl 10
BRUNCH_STAT num_queries 79
BRUNCH_STAT num_reach_queries 0
BRUNCH_STAT num_reach_reuse 0
BRUNCH_STAT inductive_lvl 0
BRUNCH_STAT max_depth 11
BRUNCH_STAT cex_depth 0
expand: query!0 (11, 0) FAR  w(0) 1.
	create_child: MAIN (10, 11) FAR 13297 U 0.00
expand: MAIN (10, 0) FAR  w(0) 13297.
	create_child: MAIN (9, 11) FAR 55360 U 0.02
expand: MAIN (9, 0) FAR  w(0) 55360.
	create_child: MAIN (8, 11) FAR 53360 U 0.02
expand: MAIN (8, 0) FAR  w(0) 53360.
	create_child: MAIN (7, 11) FAR 56365 U 0.02
expand: MAIN (7, 0) FAR  w(0) 56365.
	create_child: MAIN (6, 11) FAR 55187 U 0.02
expand: MAIN (6, 0) FAR  w(0) 55187.
	create_child: MAIN (5, 11) FAR 55550 U 0.02
expand: MAIN (5, 0) FAR  w(0) 55550.
	create_child: MAIN (4, 11) FAR 54896 U 0.02
expand: MAIN (4, 0) FAR  w(0) 54896.
	create_child: MAIN (3, 11) FAR 55624 U 0.02
expand: MAIN (3, 0) FAR  w(0) 55624.
	create_child: MAIN (2, 11) FAR 50677 U 0.02
expand: MAIN (2, 0) FAR  w(0) 50677.
	create_child: MAIN (1, 11) FAR 56884 U 0.02
expand: MAIN (1, 0) FAR  w(0) 56884. F 0.01
expand: MAIN (2, 0) FAR  w(0) 50677. F 0.01
expand: MAIN (3, 0) FAR  w(0) 55624. F 0.00
expand: MAIN (4, 0) FAR  w(0) 54896. F 0.00
expand: MAIN (5, 0) FAR  w(0) 55550. F 0.00
expand: MAIN (6, 0) FAR  w(0) 55187. F 0.00
expand: MAIN (7, 0) FAR  w(0) 56365. F 0.00
expand: MAIN (8, 0) FAR  w(0) 53360. F 0.00
expand: MAIN (9, 0) FAR  w(0) 55360. F 0.03
expand: MAIN (10, 0) FAR  w(0) 13297. F 0.00
expand: query!0 (11, 0) FAR  w(0) 1. F 0.00
(spacer::context::check_reachability :time 0.23 :before-memory 19.60 :after-memory 19.36)
Propagating: 1 2 3 4 5 6 7 8 9 10 11  ! 12 
(spacer::context::propagate :time 0.40 :before-memory 19.36 :after-memory 19.83)
Entering level 12
BRUNCH_STAT max_query_lvl 11
BRUNCH_STAT num_queries 89
BRUNCH_STAT num_reach_queries 0
BRUNCH_STAT num_reach_reuse 0
BRUNCH_STAT inductive_lvl 0
BRUNCH_STAT max_depth 12
BRUNCH_STAT cex_depth 0
expand: query!0 (12, 0) FAR  w(0) 1.
	create_child: MAIN (11, 12) FAR 13297 U 0.00
expand: MAIN (11, 0) FAR  w(0) 13297.
	create_child: MAIN (10, 12) FAR 55360 U 0.02
expand: MAIN (10, 0) FAR  w(0) 55360.
	create_child: MAIN (9, 12) FAR 57443 U 0.02
expand: MAIN (9, 0) FAR  w(0) 57443.
	create_child: MAIN (8, 12) FAR 55329 U 0.02
expand: MAIN (8, 0) FAR  w(0) 55329.
	create_child: MAIN (7, 12) FAR 54358 U 0.02
expand: MAIN (7, 0) FAR  w(0) 54358.
	create_child: MAIN (6, 12) FAR 57164 U 0.02
expand: MAIN (6, 0) FAR  w(0) 57164.
	create_child: MAIN (5, 12) FAR 53486 U 0.02
expand: MAIN (5, 0) FAR  w(0) 53486.
	create_child: MAIN (4, 12) FAR 55388 U 0.02
expand: MAIN (4, 0) FAR  w(0) 55388.
	create_child: MAIN (3, 12) FAR 53578 U 0.02
expand: MAIN (3, 0) FAR  w(0) 53578.
	create_child: MAIN (2, 12) FAR 52970 U 0.02
expand: MAIN (2, 0) FAR  w(0) 52970.
	create_child: MAIN (1, 12) FAR 57807 U 0.02
expand: MAIN (1, 0) FAR  w(0) 57807. F 0.01
expand: MAIN (2, 0) FAR  w(0) 52970. F 0.01
expand: MAIN (3, 0) FAR  w(0) 53578. F 0.00
expand: MAIN (4, 0) FAR  w(0) 55388. F 0.00
expand: MAIN (5, 0) FAR  w(0) 53486. F 0.00
expand: MAIN (6, 0) FAR  w(0) 57164. F 0.00
expand: MAIN (7, 0) FAR  w(0) 54358. F 0.00
expand: MAIN (8, 0) FAR  w(0) 55329. F 0.00
expand: MAIN (9, 0) FAR  w(0) 57443. F 0.00
expand: MAIN (10, 0) FAR  w(0) 55360. F 0.05
expand: MAIN (11, 0) FAR  w(0) 13297. F 0.00
expand: query!0 (12, 0) FAR  w(0) 1. F 0.00
(spacer::context::check_reachability :time 0.29 :before-memory 19.83 :after-memory 19.60)
Propagating: 1 2 3 4 5 6 7 8 9 10 11 12  ! 13 
(spacer::context::propagate :time 1.50 :before-memory 19.60 :after-memory 21.24)
Entering level 13
BRUNCH_STAT max_query_lvl 12
BRUNCH_STAT num_queries 100
BRUNCH_STAT num_reach_queries 0
BRUNCH_STAT num_reach_reuse 0
BRUNCH_STAT inductive_lvl 0
BRUNCH_STAT max_depth 13
BRUNCH_STAT cex_depth 0
expand: query!0 (13, 0) FAR  w(0) 1.
	create_child: MAIN (12, 13) FAR 13297 U 0.00
expand: MAIN (12, 0) FAR  w(0) 13297.
	create_child: MAIN (11, 13) FAR 60452 U 0.02
expand: MAIN (11, 0) FAR  w(0) 60452. F 0.30
expand: MAIN (12, 0) FAR  w(0) 13297.
	create_child: MAIN (11, 13) FAR 62622 UNDEF 0.03
expand: MAIN (11, 0) FAR  w(0) 62622.
	create_child: MAIN (10, 13) FAR 62497 UNDEF 0.03
expand: MAIN (10, 0) FAR  w(0) 62497.
	create_child: MAIN (9, 13) FAR 62680 UNDEF 0.03
expand: MAIN (9, 0) FAR  w(0) 62680.
	create_child: MAIN (8, 13) FAR 62389 UNDEF 0.03
expand: MAIN (8, 0) FAR  w(0) 62389.
	create_child: MAIN (7, 13) FAR 62552 UNDEF 0.03
expand: MAIN (7, 0) FAR  w(0) 62552.
	create_child: MAIN (6, 13) FAR 62312 UNDEF 0.03
expand: MAIN (6, 0) FAR  w(0) 62312.
	create_child: MAIN (5, 13) FAR 62386 UNDEF 0.03
expand: MAIN (5, 0) FAR  w(0) 62386.
	create_child: MAIN (4, 13) FAR 60715 UNDEF 0.03
expand: MAIN (4, 0) FAR  w(0) 60715.
	create_child: MAIN (3, 13) FAR 62387 UNDEF 0.03
expand: MAIN (3, 0) FAR  w(0) 62387.
	create_child: MAIN (2, 13) FAR 62541 UNDEF 0.03
expand: MAIN (2, 0) FAR  w(0) 62541.
	create_child: MAIN (1, 13) FAR 61531 UNDEF 0.04
expand: MAIN (1, 0) FAR  w(0) 61531. F 0.01
expand: MAIN (2, 0) FAR  w(0) 62541. F 0.01
expand: MAIN (3, 0) FAR  w(0) 62387. F 0.00
expand: MAIN (4, 0) FAR  w(0) 60715. F 0.00
expand: MAIN (5, 0) FAR  w(0) 62386. F 0.00
expand: MAIN (6, 0) FAR  w(0) 62312. F 0.00
expand: MAIN (7, 0) FAR  w(0) 62552. F 0.00
expand: MAIN (8, 0) FAR  w(0) 62389. F 0.00
expand: MAIN (9, 0) FAR  w(0) 62680. F 0.00
expand: MAIN (10, 0) FAR  w(0) 62497. F 0.00
expand: MAIN (11, 0) FAR  w(0) 62622. F 0.05
expand: MAIN (12, 0) FAR  w(0) 13297. F 0.00
expand: query!0 (13, 0) FAR  w(0) 1. F 0.00
(spacer::context::check_reachability :time 0.71 :before-memory 21.24 :after-memory 22.54)
Propagating: 1 2 3 4 5 6 7 8 9 10 11 12 13  ! 14 
(spacer::context::propagate :time 0.35 :before-memory 22.54 :after-memory 23.42)
Entering level 14
BRUNCH_STAT max_query_lvl 13
BRUNCH_STAT num_queries 113
BRUNCH_STAT num_reach_queries 0
BRUNCH_STAT num_reach_reuse 0
BRUNCH_STAT inductive_lvl 0
BRUNCH_STAT max_depth 14
BRUNCH_STAT cex_depth 0
expand: query!0 (14, 0) FAR  w(0) 1.
	create_child: MAIN (13, 14) FAR 13297 UNDEF 0.00
expand: MAIN (13, 0) FAR  w(0) 13297.
	create_child: MAIN (12, 14) FAR 64003 UNDEF 0.03
expand: MAIN (12, 0) FAR  w(0) 64003.
	create_child: MAIN (11, 14) FAR 61506 UNDEF 0.04
expand: MAIN (11, 0) FAR  w(0) 61506.
	create_child: MAIN (10, 14) FAR 62272 UNDEF 0.04
expand: MAIN (10, 0) FAR  w(0) 62272. F 0.08
expand: MAIN (11, 0) FAR  w(0) 61506.
	create_child: MAIN (10, 14) FAR 62684 UNDEF 0.04
expand: MAIN (10, 0) FAR  w(0) 62684.
	create_child: MAIN (9, 14) FAR 64531 UNDEF 0.03
expand: MAIN (9, 0) FAR  w(0) 64531.
	create_child: MAIN (8, 14) FAR 64606 UNDEF 0.03
expand: MAIN (8, 0) FAR  w(0) 64606.
	create_child: MAIN (7, 14) FAR 63618 UNDEF 0.03
expand: MAIN (7, 0) FAR  w(0) 63618.
	create_child: MAIN (6, 14) FAR 64721 UNDEF 0.03
expand: MAIN (6, 0) FAR  w(0) 64721.
	create_child: MAIN (5, 14) FAR 64602 UNDEF 0.03
expand: MAIN (5, 0) FAR  w(0) 64602.
	create_child: MAIN (4, 14) FAR 64839 UNDEF 0.03
expand: MAIN (4, 0) FAR  w(0) 64839.
	create_child: MAIN (3, 14) FAR 64936 UNDEF 0.03
expand: MAIN (3, 0) FAR  w(0) 64936.
	create_child: MAIN (2, 14) FAR 64994 UNDEF 0.03
expand: MAIN (2, 0) FAR  w(0) 64994.
	create_child: MAIN (1, 14) FAR 64565 UNDEF 0.03
expand: MAIN (1, 0) FAR  w(0) 64565. F 0.01
expand: MAIN (2, 0) FAR  w(0) 64994. F 0.01
expand: MAIN (3, 0) FAR  w(0) 64936. F 0.00
expand: MAIN (4, 0) FAR  w(0) 64839. F 0.00
expand: MAIN (5, 0) FAR  w(0) 64602. F 0.00
expand: MAIN (6, 0) FAR  w(0) 64721. F 0.00
expand: MAIN (7, 0) FAR  w(0) 63618. F 0.00
expand: MAIN (8, 0) FAR  w(0) 64606. F 0.00
expand: MAIN (9, 0) FAR  w(0) 64531. F 0.00
expand: MAIN (10, 0) FAR  w(0) 62684. F 0.00
expand: MAIN (11, 0) FAR  w(0) 61506. F 0.00
expand: MAIN (12, 0) FAR  w(0) 64003. F 0.00
expand: MAIN (13, 0) FAR  w(0) 13297. F 0.00
expand: query!0 (14, 0) FAR  w(0) 1. F 0.00
(spacer::context::check_reachability :time 0.54 :before-memory 23.42 :after-memory 23.25)
Propagating: 1 2 3 4 5 6 7 8 9 10 11 12 13 14  ! 15 
(spacer::context::propagate :time 2.14 :before-memory 23.25 :after-memory 26.51)
Entering level 15
BRUNCH_STAT max_query_lvl 14
BRUNCH_STAT num_queries 127
BRUNCH_STAT num_reach_queries 0
BRUNCH_STAT num_reach_reuse 0
BRUNCH_STAT inductive_lvl 0
BRUNCH_STAT max_depth 15
BRUNCH_STAT cex_depth 0
expand: query!0 (15, 0) FAR  w(0) 1.
	create_child: MAIN (14, 15) FAR 13297 UNDEF 0.00
expand: MAIN (14, 0) FAR  w(0) 13297.
	create_child: MAIN (13, 15) FAR 68611 UNDEF 0.02
expand: MAIN (13, 0) FAR  w(0) 68611. F 0.35
expand: MAIN (14, 0) FAR  w(0) 13297.
	create_child: MAIN (13, 15) FAR 69938 UNDEF 0.04
expand: MAIN (13, 0) FAR  w(0) 69938. F 0.36
expand: MAIN (14, 0) FAR  w(0) 13297.
	create_child: MAIN (13, 15) FAR 70932 UNDEF 0.07
expand: MAIN (13, 0) FAR  w(0) 70932.
	create_child: MAIN (12, 15) FAR 69297 UNDEF 0.06
expand: MAIN (12, 0) FAR  w(0) 69297.
	create_child: MAIN (11, 15) FAR 71149 UNDEF 0.05
expand: MAIN (11, 0) FAR  w(0) 71149.
	create_child: MAIN (10, 15) FAR 71217 UNDEF 0.05
expand: MAIN (10, 0) FAR  w(0) 71217.
	create_child: MAIN (9, 15) FAR 70971 UNDEF 0.05
expand: MAIN (9, 0) FAR  w(0) 70971.
	create_child: MAIN (8, 15) FAR 63831 UNDEF 0.05
expand: MAIN (8, 0) FAR  w(0) 63831.
	create_child: MAIN (7, 15) FAR 71119 UNDEF 0.05
expand: MAIN (7, 0) FAR  w(0) 71119.
	create_child: MAIN (6, 15) FAR 71274 UNDEF 0.05
expand: MAIN (6, 0) FAR  w(0) 71274.
	create_child: MAIN (5, 15) FAR 71269 UNDEF 0.05
expand: MAIN (5, 0) FAR  w(0) 71269.
	create_child: MAIN (4, 15) FAR 71141 UNDEF 0.05
expand: MAIN (4, 0) FAR  w(0) 71141.
	create_child: MAIN (3, 15) FAR 71210 UNDEF 0.05
expand: MAIN (3, 0) FAR  w(0) 71210.
	create_child: MAIN (2, 15) FAR 67410 UNDEF 0.06
expand: MAIN (2, 0) FAR  w(0) 67410.
	create_child: MAIN (1, 15) FAR 70975 UNDEF 0.05
expand: MAIN (1, 0) FAR  w(0) 70975. F 0.01
expand: MAIN (2, 0) FAR  w(0) 67410. F 0.01
expand: MAIN (3, 0) FAR  w(0) 71210. F 0.00
expand: MAIN (4, 0) FAR  w(0) 71141. F 0.00
expand: MAIN (5, 0) FAR  w(0) 71269. F 0.00
expand: MAIN (6, 0) FAR  w(0) 71274. F 0.00
expand: MAIN (7, 0) FAR  w(0) 71119. F 0.00
expand: MAIN (8, 0) FAR  w(0) 63831. F 0.00
expand: MAIN (9, 0) FAR  w(0) 70971. F 0.00
expand: MAIN (10, 0) FAR  w(0) 71217. F 0.00
expand: MAIN (11, 0) FAR  w(0) 71149. F 0.00
expand: MAIN (12, 0) FAR  w(0) 69297. F 0.00
expand: MAIN (13, 0) FAR  w(0) 70932. F 0.03
expand: MAIN (14, 0) FAR  w(0) 13297. F 0.00
expand: query!0 (15, 0) FAR  w(0) 1. F 0.00
(spacer::context::check_reachability :time 1.50 :before-memory 26.51 :after-memory 27.77)
Propagating: 1 2 3 4 5 6 7 8 9 10 11 12 13 14 15  ! 16 
(spacer::context::propagate :time 0.69 :before-memory 27.77 :after-memory 28.70)
Entering level 16
BRUNCH_STAT max_query_lvl 15
BRUNCH_STAT num_queries 143
BRUNCH_STAT num_reach_queries 0
BRUNCH_STAT num_reach_reuse 0
BRUNCH_STAT inductive_lvl 0
BRUNCH_STAT max_depth 16
BRUNCH_STAT cex_depth 0
expand: query!0 (16, 0) FAR  w(0) 1.
	create_child: MAIN (15, 16) FAR 13297 UNDEF 0.00
expand: MAIN (15, 0) FAR  w(0) 13297.
	create_child: MAIN (14, 16) FAR 73243 UNDEF 0.05
expand: MAIN (14, 0) FAR  w(0) 73243.
	create_child: MAIN (13, 16) FAR 71324 UNDEF 0.06
expand: MAIN (13, 0) FAR  w(0) 71324.
	create_child: MAIN (12, 16) FAR 69829 UNDEF 0.07
expand: MAIN (12, 0) FAR  w(0) 69829.
	create_child: MAIN (11, 16) FAR 73927 UNDEF 0.05
expand: MAIN (11, 0) FAR  w(0) 73927.
	create_child: MAIN (10, 16) FAR 73638 UNDEF 0.05
expand: MAIN (10, 0) FAR  w(0) 73638.
	create_child: MAIN (9, 16) FAR 73999 UNDEF 0.06
expand: MAIN (9, 0) FAR  w(0) 73999.
	create_child: MAIN (8, 16) FAR 73613 UNDEF 0.06
expand: MAIN (8, 0) FAR  w(0) 73613.
	create_child: MAIN (7, 16) FAR 73860 UNDEF 0.06
expand: MAIN (7, 0) FAR  w(0) 73860.
	create_child: MAIN (6, 16) FAR 73607 UNDEF 0.06
expand: MAIN (6, 0) FAR  w(0) 73607.
	create_child: MAIN (5, 16) FAR 73996 UNDEF 0.06
expand: MAIN (5, 0) FAR  w(0) 73996.
	create_child: MAIN (4, 16) FAR 73160 UNDEF 0.07
expand: MAIN (4, 0) FAR  w(0) 73160.
	create_child: MAIN (3, 16) FAR 71651 UNDEF 0.06
expand: MAIN (3, 0) FAR  w(0) 71651.
	create_child: MAIN (2, 16) FAR 70740 UNDEF 0.06
expand: MAIN (2, 0) FAR  w(0) 70740.
	create_child: MAIN (1, 16) FAR 73275 UNDEF 0.06
expand: MAIN (1, 0) FAR  w(0) 73275. F 0.01
expand: MAIN (2, 0) FAR  w(0) 70740. F 0.01
expand: MAIN (3, 0) FAR  w(0) 71651. F 0.00
expand: MAIN (4, 0) FAR  w(0) 73160. F 0.00
expand: MAIN (5, 0) FAR  w(0) 73996. F 0.00
expand: MAIN (6, 0) FAR  w(0) 73607. F 0.00
expand: MAIN (7, 0) FAR  w(0) 73860. F 0.00
expand: MAIN (8, 0) FAR  w(0) 73613. F 0.00
expand: MAIN (9, 0) FAR  w(0) 73999. F 0.00
expand: MAIN (10, 0) FAR  w(0) 73638. F 0.00
expand: MAIN (11, 0) FAR  w(0) 73927. F 0.00
expand: MAIN (12, 0) FAR  w(0) 69829. F 0.00
expand: MAIN (13, 0) FAR  w(0) 71324. F 0.00
expand: MAIN (14, 0) FAR  w(0) 73243. F 0.06
expand: MAIN (15, 0) FAR  w(0) 13297. F 0.00
expand: query!0 (16, 0) FAR  w(0) 1. F 0.00
(spacer::context::check_reachability :time 0.92 :before-memory 28.70 :after-memory 28.50)
Propagating: 1 2 3 4 5 6 7 8 9 10 11 12 13 14 15 16  ! 17 
(spacer::context::propagate :time 116.51 :before-memory 28.50 :after-memory 60.57)
Entering level 17
BRUNCH_STAT max_query_lvl 16
BRUNCH_STAT num_queries 158
BRUNCH_STAT num_reach_queries 0
BRUNCH_STAT num_reach_reuse 0
BRUNCH_STAT inductive_lvl 0
BRUNCH_STAT max_depth 17
BRUNCH_STAT cex_depth 0
expand: query!0 (17, 0) FAR  w(0) 1.
	create_child: MAIN (16, 17) FAR 13297 UNDEF 0.00
expand: MAIN (16, 0) FAR  w(0) 13297.
	create_child: MAIN (15, 17) FAR 84679 UNDEF 0.05
expand: MAIN (15, 0) FAR  w(0) 84679.
	create_child: MAIN (14, 17) FAR 81533 UNDEF 0.14
expand: MAIN (14, 0) FAR  w(0) 81533.
	create_child: MAIN (13, 17) FAR 85828 UNDEF 0.10
expand: MAIN (13, 0) FAR  w(0) 85828.
	create_child: MAIN (12, 17) FAR 85726 UNDEF 0.09
expand: MAIN (12, 0) FAR  w(0) 85726.
	create_child: MAIN (11, 17) FAR 96775 UNDEF 0.04
expand: MAIN (11, 0) FAR  w(0) 96775.
	create_child: MAIN (10, 17) FAR 90062 UNDEF 0.04
expand: MAIN (10, 0) FAR  w(0) 90062.
	create_child: MAIN (9, 17) FAR 94401 UNDEF 0.04
expand: MAIN (9, 0) FAR  w(0) 94401.
	create_child: MAIN (8, 17) FAR 92437 UNDEF 0.04
expand: MAIN (8, 0) FAR  w(0) 92437.
	create_child: MAIN (7, 17) FAR 93769 UNDEF 0.04
expand: MAIN (7, 0) FAR  w(0) 93769.
	create_child: MAIN (6, 17) FAR 87664 UNDEF 0.04
expand: MAIN (6, 0) FAR  w(0) 87664.
	create_child: MAIN (5, 17) FAR 93776 UNDEF 0.04
expand: MAIN (5, 0) FAR  w(0) 93776.
	create_child: MAIN (4, 17) FAR 90800 UNDEF 0.04
expand: MAIN (4, 0) FAR  w(0) 90800.
	create_child: MAIN (3, 17) FAR 80113 UNDEF 0.04
expand: MAIN (3, 0) FAR  w(0) 80113.
	create_child: MAIN (2, 17) FAR 92225 UNDEF 0.05
expand: MAIN (2, 0) FAR  w(0) 92225.
	create_child: MAIN (1, 17) FAR 77747 UNDEF 0.04
expand: MAIN (1, 0) FAR  w(0) 77747. F 0.01
expand: MAIN (2, 0) FAR  w(0) 92225. F 0.01
expand: MAIN (3, 0) FAR  w(0) 80113. F 0.00
expand: MAIN (4, 0) FAR  w(0) 90800. F 0.00
expand: MAIN (5, 0) FAR  w(0) 93776. F 0.00
expand: MAIN (6, 0) FAR  w(0) 87664. F 0.00
expand: MAIN (7, 0) FAR  w(0) 93769. F 0.00
expand: MAIN (8, 0) FAR  w(0) 92437. F 0.00
expand: MAIN (9, 0) FAR  w(0) 94401. F 0.00
expand: MAIN (10, 0) FAR  w(0) 90062. F 0.00
expand: MAIN (11, 0) FAR  w(0) 96775. F 0.00
expand: MAIN (12, 0) FAR  w(0) 85726. F 0.00
expand: MAIN (13, 0) FAR  w(0) 85828. F 0.00
expand: MAIN (14, 0) FAR  w(0) 81533. F 0.00
expand: MAIN (15, 0) FAR  w(0) 84679. F 0.10
expand: MAIN (16, 0) FAR  w(0) 13297. F 0.00
expand: query!0 (17, 0) FAR  w(0) 1. F 0.00
(spacer::context::check_reachability :time 1.00 :before-memory 60.57 :after-memory 60.37)
Propagating: 1 
real	15m30.005s
user	15m29.696s
sys	0m0.268s
