(transform N7datalog13mk_coi_filterE...no-op 0s)
(transform N7datalog25mk_interp_tail_simplifierE...7 rules 0.0015294s)
(transform N7datalog27mk_quantifier_instantiationE...no-op 0s)
(transform N7datalog8mk_scaleE...no-op 0s)
(transform N7datalog18mk_karr_invariantsE...no-op 0s)
(transform N7datalog14mk_array_blastE...no-op 0s)
(transform N7datalog22mk_subsumption_checkerE...6 rules 0s)
(transform N7datalog12mk_bit_blastE...no-op 0s)
(transform N7datalog15mk_rule_inlinerE...3 rules 0.0107597s)
(transform N7datalog13mk_coi_filterE...no-op 0s)
(transform N7datalog25mk_interp_tail_simplifierE...3 rules 0s)
(transform N7datalog22mk_subsumption_checkerE...no-op 0s)
(transform N7datalog15mk_rule_inlinerE...no-op 0s)
(transform N7datalog13mk_coi_filterE...no-op 0s)
(transform N7datalog25mk_interp_tail_simplifierE...3 rules 0s)
(transform N7datalog22mk_subsumption_checkerE...no-op 0s)
(transform N7datalog15mk_rule_inlinerE...no-op 0s)
(transform N7datalog22mk_subsumption_checkerE...no-op 0s)
(transform N7datalog15mk_rule_inlinerE...no-op 0s)
(transform N7datalog22mk_subsumption_checkerE...no-op 0s)
(transform N7datalog15mk_rule_inlinerE...no-op 0s)
(transform N7datalog22mk_subsumption_checkerE...no-op 0s)
(transform N7datalog8mk_sliceE...no-op 0s)
expand: query!0 (0, 0) FAR  w(0) 1. F 0.00
(spacer::context::check_reachability :time 0.00 :before-memory 5.27 :after-memory 6.13)
Entering level 1
BRUNCH_STAT max_query_lvl 0
BRUNCH_STAT num_queries 0
BRUNCH_STAT num_reach_queries 0
BRUNCH_STAT num_reach_reuse 0
BRUNCH_STAT inductive_lvl 0
BRUNCH_STAT max_depth 1
BRUNCH_STAT cex_depth 0
expand: query!0 (1, 0) FAR  w(0) 1.
	create_child: MAIN (0, 1) FAR 11685 U 0.00
expand: MAIN (0, 0) FAR  w(0) 11685. F 0.01
expand: query!0 (1, 0) FAR  w(0) 1. F 0.00
(spacer::context::check_reachability :time 0.01 :before-memory 6.13 :after-memory 8.31)
Propagating: 0 1  ! 2 
(spacer::context::propagate :time 0.01 :before-memory 8.31 :after-memory 8.89)
Entering level 2
BRUNCH_STAT max_query_lvl 1
BRUNCH_STAT num_queries 1
BRUNCH_STAT num_reach_queries 0
BRUNCH_STAT num_reach_reuse 0
BRUNCH_STAT inductive_lvl 0
BRUNCH_STAT max_depth 2
BRUNCH_STAT cex_depth 0
expand: query!0 (2, 0) FAR  w(0) 1.
	create_child: MAIN (1, 2) FAR 11685 U 0.00
expand: MAIN (1, 0) FAR  w(0) 11685.
	create_child: MAIN (0, 2) FAR 19433 UNDEF 0.01
expand: MAIN (0, 0) FAR  w(0) 19433. UNDEF 0.00
expand: MAIN (0, 0) FAR  w(1) 19433. T 0.00
is-reachable: MAIN (1, 0) FAR 11685 F 0.01
expand: MAIN (1, 0) FAR  w(1) 11685.
	create_child: MAIN (0, 2) FAR 20322 U 0.00
expand: MAIN (0, 0) FAR  w(0) 20322. F 0.00
expand: MAIN (1, 0) FAR  w(1) 11685.
	create_child: MAIN (0, 2) FAR 20454 U 0.00
expand: MAIN (0, 0) FAR  w(0) 20454. F 0.00
expand: MAIN (1, 0) FAR  w(1) 11685.
	create_child: MAIN (0, 2) FAR 20938 U 0.00
expand: MAIN (0, 0) FAR  w(0) 20938. F 0.01
expand: MAIN (1, 0) FAR  w(1) 11685.
	create_child: MAIN (0, 2) FAR 21653 U 0.03
expand: MAIN (0, 0) FAR  w(0) 21653. F 0.01
expand: MAIN (1, 0) FAR  w(1) 11685.
	create_child: MAIN (0, 2) FAR 22753 U 0.02
expand: MAIN (0, 0) FAR  w(0) 22753. F 0.00
expand: MAIN (1, 0) FAR  w(1) 11685.
	create_child: MAIN (0, 2) FAR 23681 U 0.03
expand: MAIN (0, 0) FAR  w(0) 23681. F 0.01
expand: MAIN (1, 0) FAR  w(1) 11685.
	create_child: MAIN (0, 2) FAR 24270 U 0.02
expand: MAIN (0, 0) FAR  w(0) 24270. F 0.00
expand: MAIN (1, 0) FAR  w(1) 11685.
	create_child: MAIN (0, 2) FAR 24652 U 0.05
expand: MAIN (0, 0) FAR  w(0) 24652. F 0.01
expand: MAIN (1, 0) FAR  w(1) 11685.
	create_child: MAIN (0, 2) FAR 25414 U 0.10
expand: MAIN (0, 0) FAR  w(0) 25414. F 0.00
expand: MAIN (1, 0) FAR  w(1) 11685.
	create_child: MAIN (0, 2) FAR 24954 U 0.03
expand: MAIN (0, 0) FAR  w(0) 24954. F 0.01
expand: MAIN (1, 0) FAR  w(1) 11685.
	create_child: MAIN (0, 2) FAR 26200 U 0.01
expand: MAIN (0, 0) FAR  w(0) 26200. F 0.00
expand: MAIN (1, 0) FAR  w(1) 11685.
	create_child: MAIN (0, 2) FAR 26368 U 0.01
expand: MAIN (0, 0) FAR  w(0) 26368. F 0.00
expand: MAIN (1, 0) FAR  w(1) 11685.
	create_child: MAIN (0, 2) FAR 26797 U 0.01
expand: MAIN (0, 0) FAR  w(0) 26797. F 0.00
expand: MAIN (1, 0) FAR  w(1) 11685.
	create_child: MAIN (0, 2) FAR 26981 U 0.01
expand: MAIN (0, 0) FAR  w(0) 26981. F 0.00
expand: MAIN (1, 0) FAR  w(1) 11685.
	create_child: MAIN (0, 2) FAR 22501 U 0.01
expand: MAIN (0, 0) FAR  w(0) 22501. F 0.00
expand: MAIN (1, 0) FAR  w(1) 11685.
	create_child: MAIN (0, 2) FAR 27248 U 0.09
expand: MAIN (0, 0) FAR  w(0) 27248. F 0.02
expand: MAIN (1, 0) FAR  w(1) 11685. F 0.00
expand: query!0 (2, 0) FAR  w(0) 1. F 0.00
(spacer::context::check_reachability :time 0.53 :before-memory 8.89 :after-memory 11.47)
Propagating: 0 1 2  ! 3 
(spacer::context::propagate :time 33.33 :before-memory 11.47 :after-memory 26.52)
Entering level 3
BRUNCH_STAT max_query_lvl 2
BRUNCH_STAT num_queries 19
BRUNCH_STAT num_reach_queries 0
BRUNCH_STAT num_reach_reuse 0
BRUNCH_STAT inductive_lvl 0
BRUNCH_STAT max_depth 3
BRUNCH_STAT cex_depth 0
expand: query!0 (3, 0) FAR  w(0) 1.
	create_child: MAIN (2, 3) FAR 11685 U 0.00
expand: MAIN (2, 0) FAR  w(0) 11685.
	create_child: MAIN (1, 3) FAR 46650 UNDEF 0.02
expand: MAIN (1, 0) FAR  w(0) 46650. F 0.03
expand: MAIN (2, 0) FAR  w(0) 11685.
	create_child: MAIN (1, 3) FAR 46417 UNDEF 0.01
expand: MAIN (1, 0) FAR  w(0) 46417. F 0.03
expand: MAIN (2, 0) FAR  w(0) 11685.
	create_child: MAIN (1, 3) FAR 45110 UNDEF 0.01
expand: MAIN (1, 0) FAR  w(0) 45110. F 0.02
expand: MAIN (2, 0) FAR  w(0) 11685.
	create_child: MAIN (1, 3) FAR 46420 UNDEF 0.02
expand: MAIN (1, 0) FAR  w(0) 46420. F 0.03
expand: MAIN (2, 0) FAR  w(0) 11685.
	create_child: MAIN (1, 3) FAR 46406 UNDEF 0.01
expand: MAIN (1, 0) FAR  w(0) 46406. F 0.02
expand: MAIN (2, 0) FAR  w(0) 11685.
	create_child: MAIN (1, 3) FAR 42353 UNDEF 0.02
expand: MAIN (1, 0) FAR  w(0) 42353. F 0.04
expand: MAIN (2, 0) FAR  w(0) 11685.
	create_child: MAIN (1, 3) FAR 45964 UNDEF 0.02
expand: MAIN (1, 0) FAR  w(0) 45964.
	create_child: MAIN (0, 3) FAR 42577 UNDEF 0.02
expand: MAIN (0, 0) FAR  w(0) 42577. F 0.01
expand: MAIN (1, 0) FAR  w(0) 45964. F 0.01
expand: MAIN (2, 0) FAR  w(0) 11685.
	create_child: MAIN (1, 3) FAR 45112 UNDEF 0.01
expand: MAIN (1, 0) FAR  w(0) 45112.
	create_child: MAIN (0, 3) FAR 47086 UNDEF 0.01
expand: MAIN (0, 0) FAR  w(0) 47086. F 0.03
expand: MAIN (1, 0) FAR  w(0) 45112.
	create_child: MAIN (0, 3) FAR 47315 UNDEF 0.01
expand: MAIN (0, 0) FAR  w(0) 47315. F 0.00
expand: MAIN (1, 0) FAR  w(0) 45112. F 0.02
expand: MAIN (2, 0) FAR  w(0) 11685. F 0.00
expand: query!0 (3, 0) FAR  w(0) 1. F 0.00
(spacer::context::check_reachability :time 0.41 :before-memory 26.52 :after-memory 26.93)
Propagating: 0 1 
real	15m30.007s
user	15m29.788s
sys	0m0.196s
