(transform N7datalog13mk_coi_filterE...no-op 0s)
(transform N7datalog25mk_interp_tail_simplifierE...12 rules 0s)
(transform N7datalog27mk_quantifier_instantiationE...no-op 0s)
(transform N7datalog8mk_scaleE...no-op 0s)
(transform N7datalog18mk_karr_invariantsE...no-op 0s)
(transform N7datalog14mk_array_blastE...no-op 0s)
(transform N7datalog22mk_subsumption_checkerE...11 rules 0s)
(transform N7datalog12mk_bit_blastE...no-op 0s)
(transform N7datalog15mk_rule_inlinerE...3 rules 0.00284998s)
(transform N7datalog13mk_coi_filterE...no-op 0s)
(transform N7datalog25mk_interp_tail_simplifierE...3 rules 0s)
(transform N7datalog22mk_subsumption_checkerE...no-op 0s)
(transform N7datalog15mk_rule_inlinerE...no-op 0s)
(transform N7datalog13mk_coi_filterE...no-op 0s)
(transform N7datalog25mk_interp_tail_simplifierE...3 rules 0s)
(transform N7datalog22mk_subsumption_checkerE...no-op 0s)
(transform N7datalog15mk_rule_inlinerE...no-op 0s)
(transform N7datalog22mk_subsumption_checkerE...no-op 0s)
(transform N7datalog15mk_rule_inlinerE...no-op 0s)
(transform N7datalog22mk_subsumption_checkerE...no-op 0s)
(transform N7datalog15mk_rule_inlinerE...no-op 0s)
(transform N7datalog22mk_subsumption_checkerE...no-op 0s)
(transform N7datalog8mk_sliceE...no-op 0s)
expand: query!0 (0, 0) FAR  w(0) 1. F 0.00
(spacer::context::check_reachability :time 0.00 :before-memory 4.32 :after-memory 4.83)
Entering level 1
BRUNCH_STAT max_query_lvl 0
BRUNCH_STAT num_queries 0
BRUNCH_STAT num_reach_queries 0
BRUNCH_STAT num_reach_reuse 0
BRUNCH_STAT inductive_lvl 0
BRUNCH_STAT max_depth 1
BRUNCH_STAT cex_depth 0
expand: query!0 (1, 0) FAR  w(0) 1.
	create_child: MAIN (0, 1) FAR 2505 U 0.00
expand: MAIN (0, 0) FAR  w(0) 2505. F 0.00
expand: query!0 (1, 0) FAR  w(0) 1. F 0.00
(spacer::context::check_reachability :time 0.00 :before-memory 4.83 :after-memory 5.65)
Propagating: 0 1  ! 2 
(spacer::context::propagate :time 0.00 :before-memory 5.65 :after-memory 5.74)
Entering level 2
BRUNCH_STAT max_query_lvl 1
BRUNCH_STAT num_queries 1
BRUNCH_STAT num_reach_queries 0
BRUNCH_STAT num_reach_reuse 0
BRUNCH_STAT inductive_lvl 0
BRUNCH_STAT max_depth 2
BRUNCH_STAT cex_depth 0
expand: query!0 (2, 0) FAR  w(0) 1.
	create_child: MAIN (1, 2) FAR 2505 U 0.00
expand: MAIN (1, 0) FAR  w(0) 2505.
	create_child: MAIN (0, 2) FAR 4973 U 0.00
expand: MAIN (0, 0) FAR  w(0) 4973. F 0.00
expand: MAIN (1, 0) FAR  w(0) 2505.
	create_child: MAIN (0, 2) FAR 5082 U 0.00
expand: MAIN (0, 0) FAR  w(0) 5082. F 0.00
expand: MAIN (1, 0) FAR  w(0) 2505.
	create_child: MAIN (0, 2) FAR 5181 U 0.00
expand: MAIN (0, 0) FAR  w(0) 5181. F 0.00
expand: MAIN (1, 0) FAR  w(0) 2505.
	create_child: MAIN (0, 2) FAR 5254 U 0.00
expand: MAIN (0, 0) FAR  w(0) 5254. F 0.00
expand: MAIN (1, 0) FAR  w(0) 2505.
	create_child: MAIN (0, 2) FAR 5299 U 0.00
expand: MAIN (0, 0) FAR  w(0) 5299. F 0.00
expand: MAIN (1, 0) FAR  w(0) 2505. F 0.00
expand: query!0 (2, 0) FAR  w(0) 1. F 0.00
(spacer::context::check_reachability :time 0.01 :before-memory 5.74 :after-memory 5.88)
Propagating: 0 1 2  ! 3 
(spacer::context::propagate :time 0.00 :before-memory 5.88 :after-memory 6.05)
Entering level 3
BRUNCH_STAT max_query_lvl 2
BRUNCH_STAT num_queries 7
BRUNCH_STAT num_reach_queries 0
BRUNCH_STAT num_reach_reuse 0
BRUNCH_STAT inductive_lvl 0
BRUNCH_STAT max_depth 3
BRUNCH_STAT cex_depth 0
expand: query!0 (3, 0) FAR  w(0) 1.
	create_child: MAIN (2, 3) FAR 2505 U 0.00
expand: MAIN (2, 0) FAR  w(0) 2505.
	create_child: MAIN (1, 3) FAR 5254 U 0.00
expand: MAIN (1, 0) FAR  w(0) 5254. F 0.00
expand: MAIN (2, 0) FAR  w(0) 2505. F 0.00
expand: query!0 (3, 0) FAR  w(0) 1. F 0.00
(spacer::context::check_reachability :time 0.00 :before-memory 6.05 :after-memory 6.20)
Propagating: 1 
(spacer::context::propagate :time 0.00 :before-memory 6.20 :after-memory 6.20)
(define-fun MAIN ((x!0 Int)
 (x!1 Bool)
 (x!2 Bool)
 (x!3 Bool)
 (x!4 Int)
 (x!5 Int)
 (x!6 Int)
 (x!7 Int)
 (x!8 Int)
 (x!9 Bool)
 (x!10 Bool)) Bool
  (and (= (+ x!4 x!5 x!6 x!7 x!8 (* (- 1) x!0)) 0)
       x!10
       (not x!9)
       (not x!3)
       (not x!1)
       (not (>= x!8 2))))
BRUNCH_STAT max_query_lvl 3
BRUNCH_STAT num_queries 9
BRUNCH_STAT num_reach_queries 0
BRUNCH_STAT num_reach_reuse 0
BRUNCH_STAT inductive_lvl 1
BRUNCH_STAT max_depth 3
BRUNCH_STAT cex_depth 0
(:SPACER-inductive-level               1
 :SPACER-max-depth                     3
 :SPACER-max-query-lvl                 3
 :SPACER-num-invariants                7
 :SPACER-num-lemmas                    13
 :SPACER-num-properties                8
 :SPACER-num-queries                   9
 :added-eqs                            427
 :arith-add-rows                       128
 :arith-assert-diseq                   178
 :arith-assert-lower                   405
 :arith-assert-upper                   356
 :arith-bound-prop                     63
 :arith-conflicts                      10
 :arith-eq-adapter                     92
 :arith-fixed-eqs                      90
 :arith-offset-eqs                     28
 :arith-pivots                         43
 :bool-inductive-gen                   9
 :bool-inductive-gen-failures          9
 :conflicts                            84
 :decisions                            390
 :del-clause                           92
 :final-checks                         14
 :minimized-lits                       63
 :mk-bool-var                          416
 :mk-clause                            826
 :num-checks                           44
 :propagations                         5682
 :time.itp_solver.itp_core             0.00
 :time.spacer.init_rules               0.00
 :time.spacer.init_rules.pt.init       0.00
 :time.spacer.solve                    0.02
 :time.spacer.solve.propagate          0.01
 :time.spacer.solve.reach              0.02
 :time.spacer.solve.reach.children     0.00
 :time.spacer.solve.reach.gen.bool_ind 0.00
 :time.virtual_solver.proof            0.00
 :time.virtual_solver.smt.total        0.02
 :time.virtual_solver.smt.total.sat    0.01
 :virtual_solver.checks                44
 :virtual_solver.checks.sat            14)
BRUNCH_STAT max_query_lvl 3
BRUNCH_STAT num_queries 9
BRUNCH_STAT num_reach_queries 0
BRUNCH_STAT num_reach_reuse 0
BRUNCH_STAT inductive_lvl 1
BRUNCH_STAT max_depth 3
BRUNCH_STAT cex_depth 0

real	0m0.050s
user	0m0.040s
sys	0m0.008s
