(transform N7datalog13mk_coi_filterE...no-op 0s)
(transform N7datalog25mk_interp_tail_simplifierE...7 rules 0s)
(transform N7datalog27mk_quantifier_instantiationE...no-op 0s)
(transform N7datalog8mk_scaleE...no-op 0s)
(transform N7datalog18mk_karr_invariantsE...no-op 0s)
(transform N7datalog14mk_array_blastE...no-op 0s)
(transform N7datalog22mk_subsumption_checkerE...6 rules 0s)
(transform N7datalog12mk_bit_blastE...no-op 0s)
(transform N7datalog15mk_rule_inlinerE...3 rules 0s)
(transform N7datalog13mk_coi_filterE...no-op 0s)
(transform N7datalog25mk_interp_tail_simplifierE...3 rules 0s)
(transform N7datalog22mk_subsumption_checkerE...no-op 0s)
(transform N7datalog15mk_rule_inlinerE...no-op 0s)
(transform N7datalog13mk_coi_filterE...no-op 0s)
(transform N7datalog25mk_interp_tail_simplifierE...3 rules 0s)
(transform N7datalog22mk_subsumption_checkerE...no-op 0s)
(transform N7datalog15mk_rule_inlinerE...no-op 0s)
(transform N7datalog22mk_subsumption_checkerE...no-op 0s)
(transform N7datalog15mk_rule_inlinerE...no-op 0s)
(transform N7datalog22mk_subsumption_checkerE...no-op 0s)
(transform N7datalog15mk_rule_inlinerE...no-op 0s)
(transform N7datalog22mk_subsumption_checkerE...no-op 0s)
(transform N7datalog8mk_sliceE...no-op 0s)
expand: query!0 (0, 0) FAR  w(0) 1. F 0.00
(spacer::context::check_reachability :time 0.00 :before-memory 4.04 :after-memory 4.51)
Entering level 1
BRUNCH_STAT max_query_lvl 0
BRUNCH_STAT num_queries 0
BRUNCH_STAT num_reach_queries 0
BRUNCH_STAT num_reach_reuse 0
BRUNCH_STAT inductive_lvl 0
BRUNCH_STAT max_depth 1
BRUNCH_STAT cex_depth 0
expand: query!0 (1, 0) FAR  w(0) 1.
	create_child: MAIN (0, 1) FAR 550 U 0.00
expand: MAIN (0, 0) FAR  w(0) 550. F 0.00
expand: query!0 (1, 0) FAR  w(0) 1. F 0.00
(spacer::context::check_reachability :time 0.00 :before-memory 4.51 :after-memory 5.00)
Propagating: 0 1  ! 2 
(spacer::context::propagate :time 0.00 :before-memory 5.00 :after-memory 5.00)
Entering level 2
BRUNCH_STAT max_query_lvl 1
BRUNCH_STAT num_queries 1
BRUNCH_STAT num_reach_queries 0
BRUNCH_STAT num_reach_reuse 0
BRUNCH_STAT inductive_lvl 0
BRUNCH_STAT max_depth 2
BRUNCH_STAT cex_depth 0
expand: query!0 (2, 0) FAR  w(0) 1.
	create_child: MAIN (1, 2) FAR 550 U 0.00
expand: MAIN (1, 0) FAR  w(0) 550.
	create_child: MAIN (0, 2) FAR 1031 U 0.00
expand: MAIN (0, 0) FAR  w(0) 1031. F 0.00
expand: MAIN (1, 0) FAR  w(0) 550.
	create_child: MAIN (0, 2) FAR 1044 U 0.00
expand: MAIN (0, 0) FAR  w(0) 1044. F 0.00
expand: MAIN (1, 0) FAR  w(0) 550.
	create_child: MAIN (0, 2) FAR 1129 U 0.00
expand: MAIN (0, 0) FAR  w(0) 1129. F 0.00
expand: MAIN (1, 0) FAR  w(0) 550. F 0.00
expand: query!0 (2, 0) FAR  w(0) 1. F 0.00
(spacer::context::check_reachability :time 0.00 :before-memory 5.00 :after-memory 5.00)
Propagating: 0 1 2  ! 3 
(spacer::context::propagate :time 0.00 :before-memory 5.00 :after-memory 5.00)
Entering level 3
BRUNCH_STAT max_query_lvl 2
BRUNCH_STAT num_queries 5
BRUNCH_STAT num_reach_queries 0
BRUNCH_STAT num_reach_reuse 0
BRUNCH_STAT inductive_lvl 0
BRUNCH_STAT max_depth 3
BRUNCH_STAT cex_depth 0
expand: query!0 (3, 0) FAR  w(0) 1.
	create_child: MAIN (2, 3) FAR 550 U 0.00
expand: MAIN (2, 0) FAR  w(0) 550.
	create_child: MAIN (1, 3) FAR 1031 U 0.00
expand: MAIN (1, 0) FAR  w(0) 1031. F 0.00
expand: MAIN (2, 0) FAR  w(0) 550.
	create_child: MAIN (1, 3) FAR 1044 U 0.00
expand: MAIN (1, 0) FAR  w(0) 1044. F 0.00
expand: MAIN (2, 0) FAR  w(0) 550. F 0.00
expand: query!0 (3, 0) FAR  w(0) 1. F 0.00
(spacer::context::check_reachability :time 0.00 :before-memory 5.00 :after-memory 5.10)
Propagating: 1 2 3  ! 4 
(spacer::context::propagate :time 0.00 :before-memory 5.10 :after-memory 5.10)
Entering level 4
BRUNCH_STAT max_query_lvl 3
BRUNCH_STAT num_queries 8
BRUNCH_STAT num_reach_queries 0
BRUNCH_STAT num_reach_reuse 0
BRUNCH_STAT inductive_lvl 0
BRUNCH_STAT max_depth 4
BRUNCH_STAT cex_depth 0
expand: query!0 (4, 0) FAR  w(0) 1.
	create_child: MAIN (3, 4) FAR 550 U 0.00
expand: MAIN (3, 0) FAR  w(0) 550.
	create_child: MAIN (2, 4) FAR 1031 U 0.00
expand: MAIN (2, 0) FAR  w(0) 1031. F 0.00
expand: MAIN (3, 0) FAR  w(0) 550.
	create_child: MAIN (2, 4) FAR 1995 U 0.00
expand: MAIN (2, 0) FAR  w(0) 1995. F 0.00
expand: MAIN (3, 0) FAR  w(0) 550.
	create_child: MAIN (2, 4) FAR 1129 U 0.00
expand: MAIN (2, 0) FAR  w(0) 1129. F 0.00
expand: MAIN (3, 0) FAR  w(0) 550. F 0.00
expand: query!0 (4, 0) FAR  w(0) 1. F 0.00
(spacer::context::check_reachability :time 0.00 :before-memory 5.10 :after-memory 5.19)
Propagating: 2 
(spacer::context::propagate :time 0.00 :before-memory 5.19 :after-memory 5.19)
(define-fun MAIN ((x!0 Bool) (x!1 Bool) (x!2 Bool) (x!3 Bool) (x!4 Bool)) Bool
  (and (or (not x!2) (not x!1))
       x!4
       (or (not x!1) (not x!0))
       (or x!2 x!0 x!1)
       (or (not x!2) (not x!0))))
BRUNCH_STAT max_query_lvl 4
BRUNCH_STAT num_queries 12
BRUNCH_STAT num_reach_queries 0
BRUNCH_STAT num_reach_reuse 0
BRUNCH_STAT inductive_lvl 2
BRUNCH_STAT max_depth 4
BRUNCH_STAT cex_depth 0
(:SPACER-inductive-level               2
 :SPACER-max-depth                     4
 :SPACER-max-query-lvl                 4
 :SPACER-num-invariants                6
 :SPACER-num-lemmas                    17
 :SPACER-num-properties                10
 :SPACER-num-queries                   12
 :bool-inductive-gen                   12
 :bool-inductive-gen-failures          18
 :conflicts                            51
 :decisions                            161
 :final-checks                         35
 :minimized-lits                       6
 :mk-bool-var                          284
 :mk-clause                            211
 :num-checks                           77
 :propagations                         1940
 :time.itp_solver.itp_core             0.00
 :time.spacer.init_rules               0.00
 :time.spacer.init_rules.pt.init       0.00
 :time.spacer.solve                    0.01
 :time.spacer.solve.propagate          0.00
 :time.spacer.solve.reach              0.01
 :time.spacer.solve.reach.children     0.00
 :time.spacer.solve.reach.gen.bool_ind 0.00
 :time.virtual_solver.proof            0.00
 :time.virtual_solver.smt.total        0.01
 :time.virtual_solver.smt.total.sat    0.00
 :virtual_solver.checks                77
 :virtual_solver.checks.sat            35)
BRUNCH_STAT max_query_lvl 4
BRUNCH_STAT num_queries 12
BRUNCH_STAT num_reach_queries 0
BRUNCH_STAT num_reach_reuse 0
BRUNCH_STAT inductive_lvl 2
BRUNCH_STAT max_depth 4
BRUNCH_STAT cex_depth 0

real	0m0.031s
user	0m0.016s
sys	0m0.012s
