(transform N7datalog13mk_coi_filterE...no-op 0s)
(transform N7datalog25mk_interp_tail_simplifierE...14 rules 0s)
(transform N7datalog27mk_quantifier_instantiationE...no-op 0s)
(transform N7datalog8mk_scaleE...no-op 0s)
(transform N7datalog18mk_karr_invariantsE...no-op 0s)
(transform N7datalog14mk_array_blastE...no-op 0s)
(transform N7datalog22mk_subsumption_checkerE...13 rules 0s)
(transform N7datalog12mk_bit_blastE...no-op 0s)
(transform N7datalog15mk_rule_inlinerE...3 rules 0.00527863s)
(transform N7datalog13mk_coi_filterE...no-op 0s)
(transform N7datalog25mk_interp_tail_simplifierE...3 rules 0s)
(transform N7datalog22mk_subsumption_checkerE...no-op 0s)
(transform N7datalog15mk_rule_inlinerE...no-op 0s)
(transform N7datalog13mk_coi_filterE...no-op 0s)
(transform N7datalog25mk_interp_tail_simplifierE...3 rules 0s)
(transform N7datalog22mk_subsumption_checkerE...no-op 0s)
(transform N7datalog15mk_rule_inlinerE...no-op 0s)
(transform N7datalog22mk_subsumption_checkerE...no-op 0s)
(transform N7datalog15mk_rule_inlinerE...no-op 0s)
(transform N7datalog22mk_subsumption_checkerE...no-op 0s)
(transform N7datalog15mk_rule_inlinerE...no-op 0s)
(transform N7datalog22mk_subsumption_checkerE...no-op 0s)
(transform N7datalog8mk_sliceE...no-op 0s)
expand: query!0 (0, 0) FAR  w(0) 1. F 0.00
(spacer::context::check_reachability :time 0.00 :before-memory 4.50 :after-memory 5.02)
Entering level 1
BRUNCH_STAT max_query_lvl 0
BRUNCH_STAT num_queries 0
BRUNCH_STAT num_reach_queries 0
BRUNCH_STAT num_reach_reuse 0
BRUNCH_STAT inductive_lvl 0
BRUNCH_STAT max_depth 1
BRUNCH_STAT cex_depth 0
expand: query!0 (1, 0) FAR  w(0) 1.
	create_child: MAIN (0, 1) FAR 3602 U 0.00
expand: MAIN (0, 0) FAR  w(0) 3602. F 0.00
expand: query!0 (1, 0) FAR  w(0) 1. F 0.00
(spacer::context::check_reachability :time 0.00 :before-memory 5.02 :after-memory 5.92)
Propagating: 0 1  ! 2 
(spacer::context::propagate :time 0.00 :before-memory 5.92 :after-memory 6.16)
Entering level 2
BRUNCH_STAT max_query_lvl 1
BRUNCH_STAT num_queries 1
BRUNCH_STAT num_reach_queries 0
BRUNCH_STAT num_reach_reuse 0
BRUNCH_STAT inductive_lvl 0
BRUNCH_STAT max_depth 2
BRUNCH_STAT cex_depth 0
expand: query!0 (2, 0) FAR  w(0) 1.
	create_child: MAIN (1, 2) FAR 3602 U 0.00
expand: MAIN (1, 0) FAR  w(0) 3602.
	create_child: MAIN (0, 2) FAR 6052 U 0.00
expand: MAIN (0, 0) FAR  w(0) 6052. F 0.00
expand: MAIN (1, 0) FAR  w(0) 3602.
	create_child: MAIN (0, 2) FAR 6225 U 0.00
expand: MAIN (0, 0) FAR  w(0) 6225. F 0.00
expand: MAIN (1, 0) FAR  w(0) 3602.
	create_child: MAIN (0, 2) FAR 6348 U 0.00
expand: MAIN (0, 0) FAR  w(0) 6348. F 0.00
expand: MAIN (1, 0) FAR  w(0) 3602.
	create_child: MAIN (0, 2) FAR 6420 U 0.00
expand: MAIN (0, 0) FAR  w(0) 6420. F 0.00
expand: MAIN (1, 0) FAR  w(0) 3602. F 0.00
expand: query!0 (2, 0) FAR  w(0) 1. F 0.00
(spacer::context::check_reachability :time 0.01 :before-memory 6.16 :after-memory 6.26)
Propagating: 0 1 2  ! 3 
(spacer::context::propagate :time 0.00 :before-memory 6.26 :after-memory 6.26)
Entering level 3
BRUNCH_STAT max_query_lvl 2
BRUNCH_STAT num_queries 6
BRUNCH_STAT num_reach_queries 0
BRUNCH_STAT num_reach_reuse 0
BRUNCH_STAT inductive_lvl 0
BRUNCH_STAT max_depth 3
BRUNCH_STAT cex_depth 0
expand: query!0 (3, 0) FAR  w(0) 1.
	create_child: MAIN (2, 3) FAR 3602 U 0.00
expand: MAIN (2, 0) FAR  w(0) 3602.
	create_child: MAIN (1, 3) FAR 6772 U 0.00
expand: MAIN (1, 0) FAR  w(0) 6772. F 0.00
expand: MAIN (2, 0) FAR  w(0) 3602. F 0.00
expand: query!0 (3, 0) FAR  w(0) 1. F 0.00
(spacer::context::check_reachability :time 0.00 :before-memory 6.26 :after-memory 6.26)
Propagating: 1 2 3  ! 4 
(spacer::context::propagate :time 0.00 :before-memory 6.26 :after-memory 6.26)
Entering level 4
BRUNCH_STAT max_query_lvl 3
BRUNCH_STAT num_queries 8
BRUNCH_STAT num_reach_queries 0
BRUNCH_STAT num_reach_reuse 0
BRUNCH_STAT inductive_lvl 0
BRUNCH_STAT max_depth 4
BRUNCH_STAT cex_depth 0
expand: query!0 (4, 0) FAR  w(0) 1.
	create_child: MAIN (3, 4) FAR 3602 U 0.00
expand: MAIN (3, 0) FAR  w(0) 3602.
	create_child: MAIN (2, 4) FAR 6997 U 0.00
expand: MAIN (2, 0) FAR  w(0) 6997.
	create_child: MAIN (1, 4) FAR 7036 U 0.00
expand: MAIN (1, 0) FAR  w(0) 7036. F 0.00
expand: MAIN (2, 0) FAR  w(0) 6997. F 0.00
expand: MAIN (3, 0) FAR  w(0) 3602. F 0.00
expand: query!0 (4, 0) FAR  w(0) 1. F 0.00
(spacer::context::check_reachability :time 0.01 :before-memory 6.26 :after-memory 6.35)
Propagating: 1 2 3 4  ! 5 
(spacer::context::propagate :time 0.00 :before-memory 6.35 :after-memory 6.35)
Entering level 5
BRUNCH_STAT max_query_lvl 4
BRUNCH_STAT num_queries 11
BRUNCH_STAT num_reach_queries 0
BRUNCH_STAT num_reach_reuse 0
BRUNCH_STAT inductive_lvl 0
BRUNCH_STAT max_depth 5
BRUNCH_STAT cex_depth 0
expand: query!0 (5, 0) FAR  w(0) 1.
	create_child: MAIN (4, 5) FAR 3602 U 0.00
expand: MAIN (4, 0) FAR  w(0) 3602.
	create_child: MAIN (3, 5) FAR 6997 U 0.00
expand: MAIN (3, 0) FAR  w(0) 6997.
	create_child: MAIN (2, 5) FAR 7036 U 0.00
expand: MAIN (2, 0) FAR  w(0) 7036.
	create_child: MAIN (1, 5) FAR 7274 U 0.00
expand: MAIN (1, 0) FAR  w(0) 7274. F 0.00
expand: MAIN (2, 0) FAR  w(0) 7036. F 0.00
expand: MAIN (3, 0) FAR  w(0) 6997. F 0.00
expand: MAIN (4, 0) FAR  w(0) 3602. F 0.00
expand: query!0 (5, 0) FAR  w(0) 1. F 0.00
(spacer::context::check_reachability :time 0.01 :before-memory 6.35 :after-memory 6.35)
Propagating: 1 2 3 4 5  ! 6 
(spacer::context::propagate :time 0.00 :before-memory 6.35 :after-memory 6.35)
Entering level 6
BRUNCH_STAT max_query_lvl 5
BRUNCH_STAT num_queries 15
BRUNCH_STAT num_reach_queries 0
BRUNCH_STAT num_reach_reuse 0
BRUNCH_STAT inductive_lvl 0
BRUNCH_STAT max_depth 6
BRUNCH_STAT cex_depth 0
expand: query!0 (6, 0) FAR  w(0) 1.
	create_child: MAIN (5, 6) FAR 3602 U 0.00
expand: MAIN (5, 0) FAR  w(0) 3602.
	create_child: MAIN (4, 6) FAR 6997 U 0.00
expand: MAIN (4, 0) FAR  w(0) 6997.
	create_child: MAIN (3, 6) FAR 7036 U 0.00
expand: MAIN (3, 0) FAR  w(0) 7036.
	create_child: MAIN (2, 6) FAR 7274 U 0.00
expand: MAIN (2, 0) FAR  w(0) 7274.
	create_child: MAIN (1, 6) FAR 7687 U 0.00
expand: MAIN (1, 0) FAR  w(0) 7687. F 0.00
expand: MAIN (2, 0) FAR  w(0) 7274. F 0.00
expand: MAIN (3, 0) FAR  w(0) 7036. F 0.00
expand: MAIN (4, 0) FAR  w(0) 6997. F 0.00
expand: MAIN (5, 0) FAR  w(0) 3602. F 0.00
expand: query!0 (6, 0) FAR  w(0) 1. F 0.00
(spacer::context::check_reachability :time 0.01 :before-memory 6.35 :after-memory 6.45)
Propagating: 1 2 3 4 5 6  ! 7 
(spacer::context::propagate :time 0.00 :before-memory 6.45 :after-memory 6.45)
Entering level 7
BRUNCH_STAT max_query_lvl 6
BRUNCH_STAT num_queries 20
BRUNCH_STAT num_reach_queries 0
BRUNCH_STAT num_reach_reuse 0
BRUNCH_STAT inductive_lvl 0
BRUNCH_STAT max_depth 7
BRUNCH_STAT cex_depth 0
expand: query!0 (7, 0) FAR  w(0) 1.
	create_child: MAIN (6, 7) FAR 3602 U 0.00
expand: MAIN (6, 0) FAR  w(0) 3602.
	create_child: MAIN (5, 7) FAR 8110 U 0.00
expand: MAIN (5, 0) FAR  w(0) 8110.
	create_child: MAIN (4, 7) FAR 8174 U 0.00
expand: MAIN (4, 0) FAR  w(0) 8174.
	create_child: MAIN (3, 7) FAR 8194 U 0.00
expand: MAIN (3, 0) FAR  w(0) 8194.
	create_child: MAIN (2, 7) FAR 8178 U 0.00
expand: MAIN (2, 0) FAR  w(0) 8178.
	create_child: MAIN (1, 7) FAR 8239 U 0.00
expand: MAIN (1, 0) FAR  w(0) 8239. F 0.00
expand: MAIN (2, 0) FAR  w(0) 8178. F 0.00
expand: MAIN (3, 0) FAR  w(0) 8194. F 0.00
expand: MAIN (4, 0) FAR  w(0) 8174. F 0.00
expand: MAIN (5, 0) FAR  w(0) 8110. F 0.00
expand: MAIN (6, 0) FAR  w(0) 3602. F 0.00
expand: query!0 (7, 0) FAR  w(0) 1. F 0.00
(spacer::context::check_reachability :time 0.02 :before-memory 6.45 :after-memory 6.55)
Propagating: 1 2 3 4 5 6 7  ! 8 
(spacer::context::propagate :time 0.00 :before-memory 6.55 :after-memory 6.55)
Entering level 8
BRUNCH_STAT max_query_lvl 7
BRUNCH_STAT num_queries 26
BRUNCH_STAT num_reach_queries 0
BRUNCH_STAT num_reach_reuse 0
BRUNCH_STAT inductive_lvl 0
BRUNCH_STAT max_depth 8
BRUNCH_STAT cex_depth 0
expand: query!0 (8, 0) FAR  w(0) 1.
	create_child: MAIN (7, 8) FAR 3602 U 0.00
expand: MAIN (7, 0) FAR  w(0) 3602.
	create_child: MAIN (6, 8) FAR 6997 U 0.00
expand: MAIN (6, 0) FAR  w(0) 6997.
	create_child: MAIN (5, 8) FAR 7036 U 0.00
expand: MAIN (5, 0) FAR  w(0) 7036.
	create_child: MAIN (4, 8) FAR 7274 U 0.00
expand: MAIN (4, 0) FAR  w(0) 7274.
	create_child: MAIN (3, 8) FAR 7687 U 0.00
expand: MAIN (3, 0) FAR  w(0) 7687.
	create_child: MAIN (2, 8) FAR 8942 U 0.00
expand: MAIN (2, 0) FAR  w(0) 8942.
	create_child: MAIN (1, 8) FAR 8978 U 0.00
expand: MAIN (1, 0) FAR  w(0) 8978.
	create_child: MAIN (0, 8) FAR 9109 U 0.00
expand: MAIN (0, 0) FAR  w(0) 9109. F 0.00
expand: MAIN (1, 0) FAR  w(0) 8978. F 0.00
expand: MAIN (2, 0) FAR  w(0) 8942. F 0.00
expand: MAIN (3, 0) FAR  w(0) 7687. F 0.00
expand: MAIN (4, 0) FAR  w(0) 7274. F 0.00
expand: MAIN (5, 0) FAR  w(0) 7036. F 0.00
expand: MAIN (6, 0) FAR  w(0) 6997. F 0.00
expand: MAIN (7, 0) FAR  w(0) 3602.
	create_child: MAIN (6, 8) FAR 10375 U 0.00
expand: MAIN (6, 0) FAR  w(0) 10375. F 0.00
expand: MAIN (7, 0) FAR  w(0) 3602.
	create_child: MAIN (6, 8) FAR 10564 U 0.00
expand: MAIN (6, 0) FAR  w(0) 10564.
	create_child: MAIN (5, 8) FAR 10612 U 0.00
expand: MAIN (5, 0) FAR  w(0) 10612.
	create_child: MAIN (4, 8) FAR 10676 U 0.00
expand: MAIN (4, 0) FAR  w(0) 10676.
	create_child: MAIN (3, 8) FAR 10657 U 0.00
expand: MAIN (3, 0) FAR  w(0) 10657.
	create_child: MAIN (2, 8) FAR 10600 U 0.00
expand: MAIN (2, 0) FAR  w(0) 10600.
	create_child: MAIN (1, 8) FAR 10691 U 0.00
expand: MAIN (1, 0) FAR  w(0) 10691. F 0.00
expand: MAIN (2, 0) FAR  w(0) 10600. F 0.00
expand: MAIN (3, 0) FAR  w(0) 10657. F 0.00
expand: MAIN (4, 0) FAR  w(0) 10676. F 0.00
expand: MAIN (5, 0) FAR  w(0) 10612. F 0.00
expand: MAIN (6, 0) FAR  w(0) 10564. F 0.00
expand: MAIN (7, 0) FAR  w(0) 3602. F 0.00
expand: query!0 (8, 0) FAR  w(0) 1. F 0.00
(spacer::context::check_reachability :time 0.05 :before-memory 6.55 :after-memory 6.80)
Propagating: 0 1 2 3 4 5 6 7 8  ! 9 
(spacer::context::propagate :time 0.01 :before-memory 6.80 :after-memory 6.80)
Entering level 9
BRUNCH_STAT max_query_lvl 8
BRUNCH_STAT num_queries 41
BRUNCH_STAT num_reach_queries 0
BRUNCH_STAT num_reach_reuse 0
BRUNCH_STAT inductive_lvl 0
BRUNCH_STAT max_depth 9
BRUNCH_STAT cex_depth 0
expand: query!0 (9, 0) FAR  w(0) 1.
	create_child: MAIN (8, 9) FAR 3602 U 0.00
expand: MAIN (8, 0) FAR  w(0) 3602.
	create_child: MAIN (7, 9) FAR 6997 U 0.00
expand: MAIN (7, 0) FAR  w(0) 6997.
	create_child: MAIN (6, 9) FAR 7036 U 0.00
expand: MAIN (6, 0) FAR  w(0) 7036.
	create_child: MAIN (5, 9) FAR 7274 U 0.00
expand: MAIN (5, 0) FAR  w(0) 7274.
	create_child: MAIN (4, 9) FAR 7687 U 0.00
expand: MAIN (4, 0) FAR  w(0) 7687. F 0.00
expand: MAIN (5, 0) FAR  w(0) 7274. F 0.00
expand: MAIN (6, 0) FAR  w(0) 7036. F 0.00
expand: MAIN (7, 0) FAR  w(0) 6997. F 0.00
expand: MAIN (8, 0) FAR  w(0) 3602.
	create_child: MAIN (7, 9) FAR 12062 U 0.00
expand: MAIN (7, 0) FAR  w(0) 12062.
	create_child: MAIN (6, 9) FAR 11809 U 0.00
expand: MAIN (6, 0) FAR  w(0) 11809.
	create_child: MAIN (5, 9) FAR 11981 U 0.00
expand: MAIN (5, 0) FAR  w(0) 11981.
	create_child: MAIN (4, 9) FAR 12126 U 0.00
expand: MAIN (4, 0) FAR  w(0) 12126.
	create_child: MAIN (3, 9) FAR 12128 U 0.00
expand: MAIN (3, 0) FAR  w(0) 12128.
	create_child: MAIN (2, 9) FAR 12014 U 0.00
expand: MAIN (2, 0) FAR  w(0) 12014.
	create_child: MAIN (1, 9) FAR 11816 U 0.00
expand: MAIN (1, 0) FAR  w(0) 11816.
	create_child: MAIN (0, 9) FAR 12190 U 0.00
expand: MAIN (0, 0) FAR  w(0) 12190. F 0.00
expand: MAIN (1, 0) FAR  w(0) 11816. F 0.00
expand: MAIN (2, 0) FAR  w(0) 12014. F 0.00
expand: MAIN (3, 0) FAR  w(0) 12128. F 0.00
expand: MAIN (4, 0) FAR  w(0) 12126. F 0.00
expand: MAIN (5, 0) FAR  w(0) 11981. F 0.00
expand: MAIN (6, 0) FAR  w(0) 11809. F 0.00
expand: MAIN (7, 0) FAR  w(0) 12062. F 0.00
expand: MAIN (8, 0) FAR  w(0) 3602. F 0.00
expand: query!0 (9, 0) FAR  w(0) 1. F 0.00
(spacer::context::check_reachability :time 0.05 :before-memory 6.80 :after-memory 7.32)
Propagating: 0 1 2 3 4 5 6 7 8 9  ! 10 
(spacer::context::propagate :time 0.01 :before-memory 7.32 :after-memory 7.32)
Entering level 10
BRUNCH_STAT max_query_lvl 9
BRUNCH_STAT num_queries 54
BRUNCH_STAT num_reach_queries 0
BRUNCH_STAT num_reach_reuse 0
BRUNCH_STAT inductive_lvl 0
BRUNCH_STAT max_depth 10
BRUNCH_STAT cex_depth 0
expand: query!0 (10, 0) FAR  w(0) 1.
	create_child: MAIN (9, 10) FAR 3602 U 0.00
expand: MAIN (9, 0) FAR  w(0) 3602.
	create_child: MAIN (8, 10) FAR 13386 U 0.00
expand: MAIN (8, 0) FAR  w(0) 13386.
	create_child: MAIN (7, 10) FAR 13418 U 0.00
expand: MAIN (7, 0) FAR  w(0) 13418.
	create_child: MAIN (6, 10) FAR 13428 U 0.00
expand: MAIN (6, 0) FAR  w(0) 13428.
	create_child: MAIN (5, 10) FAR 13482 U 0.00
expand: MAIN (5, 0) FAR  w(0) 13482.
	create_child: MAIN (4, 10) FAR 13518 U 0.00
expand: MAIN (4, 0) FAR  w(0) 13518.
	create_child: MAIN (3, 10) FAR 13127 U 0.00
expand: MAIN (3, 0) FAR  w(0) 13127.
	create_child: MAIN (2, 10) FAR 13496 U 0.00
expand: MAIN (2, 0) FAR  w(0) 13496.
	create_child: MAIN (1, 10) FAR 13481 U 0.00
expand: MAIN (1, 0) FAR  w(0) 13481.
	create_child: MAIN (0, 10) FAR 13453 U 0.00
expand: MAIN (0, 0) FAR  w(0) 13453. F 0.00
expand: MAIN (1, 0) FAR  w(0) 13481. F 0.00
expand: MAIN (2, 0) FAR  w(0) 13496. F 0.00
expand: MAIN (3, 0) FAR  w(0) 13127. F 0.00
expand: MAIN (4, 0) FAR  w(0) 13518. F 0.00
expand: MAIN (5, 0) FAR  w(0) 13482. F 0.00
expand: MAIN (6, 0) FAR  w(0) 13428. F 0.00
expand: MAIN (7, 0) FAR  w(0) 13418. F 0.00
expand: MAIN (8, 0) FAR  w(0) 13386. F 0.00
expand: MAIN (9, 0) FAR  w(0) 3602.
	create_child: MAIN (8, 10) FAR 6772 U 0.00
expand: MAIN (8, 0) FAR  w(0) 6772.
	create_child: MAIN (7, 10) FAR 14574 U 0.00
expand: MAIN (7, 0) FAR  w(0) 14574.
	create_child: MAIN (6, 10) FAR 14855 U 0.00
expand: MAIN (6, 0) FAR  w(0) 14855.
	create_child: MAIN (5, 10) FAR 14894 U 0.00
expand: MAIN (5, 0) FAR  w(0) 14894.
	create_child: MAIN (4, 10) FAR 13840 U 0.00
expand: MAIN (4, 0) FAR  w(0) 13840.
	create_child: MAIN (3, 10) FAR 14847 U 0.00
expand: MAIN (3, 0) FAR  w(0) 14847.
	create_child: MAIN (2, 10) FAR 14954 U 0.00
expand: MAIN (2, 0) FAR  w(0) 14954.
	create_child: MAIN (1, 10) FAR 14841 U 0.00
expand: MAIN (1, 0) FAR  w(0) 14841.
	create_child: MAIN (0, 10) FAR 14898 U 0.00
expand: MAIN (0, 0) FAR  w(0) 14898. F 0.00
expand: MAIN (1, 0) FAR  w(0) 14841. F 0.00
expand: MAIN (2, 0) FAR  w(0) 14954. F 0.00
expand: MAIN (3, 0) FAR  w(0) 14847. F 0.00
expand: MAIN (4, 0) FAR  w(0) 13840. F 0.00
expand: MAIN (5, 0) FAR  w(0) 14894. F 0.00
expand: MAIN (6, 0) FAR  w(0) 14855. F 0.00
expand: MAIN (7, 0) FAR  w(0) 14574. F 0.00
expand: MAIN (8, 0) FAR  w(0) 6772. F 0.00
expand: MAIN (9, 0) FAR  w(0) 3602. F 0.00
expand: query!0 (10, 0) FAR  w(0) 1. F 0.00
(spacer::context::check_reachability :time 0.07 :before-memory 7.32 :after-memory 7.61)
Propagating: 0 1 2 3 4 5 6 7 8 9 10  ! 11 12 
(spacer::context::propagate :time 0.03 :before-memory 7.61 :after-memory 7.70)
Entering level 11
BRUNCH_STAT max_query_lvl 10
BRUNCH_STAT num_queries 73
BRUNCH_STAT num_reach_queries 0
BRUNCH_STAT num_reach_reuse 0
BRUNCH_STAT inductive_lvl 0
BRUNCH_STAT max_depth 11
BRUNCH_STAT cex_depth 0
expand: query!0 (11, 0) FAR  w(0) 1. F 0.00
(spacer::context::check_reachability :time 0.00 :before-memory 7.70 :after-memory 7.70)
Propagating: 11  ! 12 
(spacer::context::propagate :time 0.00 :before-memory 7.70 :after-memory 7.70)
Entering level 12
BRUNCH_STAT max_query_lvl 11
BRUNCH_STAT num_queries 73
BRUNCH_STAT num_reach_queries 0
BRUNCH_STAT num_reach_reuse 0
BRUNCH_STAT inductive_lvl 0
BRUNCH_STAT max_depth 12
BRUNCH_STAT cex_depth 0
expand: query!0 (12, 0) FAR  w(0) 1.
	create_child: MAIN (11, 12) FAR 3602 U 0.00
expand: MAIN (11, 0) FAR  w(0) 3602.
	create_child: MAIN (10, 12) FAR 10564 U 0.00
expand: MAIN (10, 0) FAR  w(0) 10564.
	create_child: MAIN (9, 12) FAR 10612 U 0.00
expand: MAIN (9, 0) FAR  w(0) 10612.
	create_child: MAIN (8, 12) FAR 10676 U 0.00
expand: MAIN (8, 0) FAR  w(0) 10676.
	create_child: MAIN (7, 12) FAR 10657 U 0.00
expand: MAIN (7, 0) FAR  w(0) 10657.
	create_child: MAIN (6, 12) FAR 10600 U 0.00
expand: MAIN (6, 0) FAR  w(0) 10600.
	create_child: MAIN (5, 12) FAR 10691 U 0.00
expand: MAIN (5, 0) FAR  w(0) 10691.
	create_child: MAIN (4, 12) FAR 17947 U 0.00
expand: MAIN (4, 0) FAR  w(0) 17947.
	create_child: MAIN (3, 12) FAR 17950 U 0.00
expand: MAIN (3, 0) FAR  w(0) 17950.
	create_child: MAIN (2, 12) FAR 17970 U 0.00
expand: MAIN (2, 0) FAR  w(0) 17970. F 0.00
expand: MAIN (3, 0) FAR  w(0) 17950. F 0.00
expand: MAIN (4, 0) FAR  w(0) 17947. F 0.00
expand: MAIN (5, 0) FAR  w(0) 10691. F 0.00
expand: MAIN (6, 0) FAR  w(0) 10600. F 0.00
expand: MAIN (7, 0) FAR  w(0) 10657. F 0.00
expand: MAIN (8, 0) FAR  w(0) 10676. F 0.00
expand: MAIN (9, 0) FAR  w(0) 10612. F 0.00
expand: MAIN (10, 0) FAR  w(0) 10564. F 0.00
expand: MAIN (11, 0) FAR  w(0) 3602.
	create_child: MAIN (10, 12) FAR 19133 U 0.00
expand: MAIN (10, 0) FAR  w(0) 19133.
	create_child: MAIN (9, 12) FAR 19269 U 0.00
expand: MAIN (9, 0) FAR  w(0) 19269.
	create_child: MAIN (8, 12) FAR 19293 U 0.00
expand: MAIN (8, 0) FAR  w(0) 19293.
	create_child: MAIN (7, 12) FAR 19307 U 0.00
expand: MAIN (7, 0) FAR  w(0) 19307.
	create_child: MAIN (6, 12) FAR 19319 U 0.00
expand: MAIN (6, 0) FAR  w(0) 19319.
	create_child: MAIN (5, 12) FAR 19294 U 0.00
expand: MAIN (5, 0) FAR  w(0) 19294.
	create_child: MAIN (4, 12) FAR 19365 U 0.00
expand: MAIN (4, 0) FAR  w(0) 19365.
	create_child: MAIN (3, 12) FAR 19342 U 0.00
expand: MAIN (3, 0) FAR  w(0) 19342.
	create_child: MAIN (2, 12) FAR 19276 U 0.00
expand: MAIN (2, 0) FAR  w(0) 19276.
	create_child: MAIN (1, 12) FAR 19356 U 0.00
expand: MAIN (1, 0) FAR  w(0) 19356. T 0.00
is-reachable: MAIN (2, 0) FAR 19276 T 0.01
is-reachable: MAIN (3, 0) FAR 19342 T 0.01
is-reachable: MAIN (4, 0) FAR 19365 T 0.01
is-reachable: MAIN (5, 0) FAR 19294 T 0.01
is-reachable: MAIN (6, 0) FAR 19319 T 0.01
is-reachable: MAIN (7, 0) FAR 19307 T 0.01
is-reachable: MAIN (8, 0) FAR 19293 T 0.01
is-reachable: MAIN (9, 0) FAR 19269 T 0.01
is-reachable: MAIN (10, 0) FAR 19133 T 0.01
is-reachable: MAIN (11, 0) FAR 3602 T 0.01
is-reachable: query!0 (12, 0) FAR 1 T 0.01
(spacer::context::check_reachability :time 0.17 :before-memory 7.70 :after-memory 10.83)
BRUNCH_STAT max_query_lvl 12
BRUNCH_STAT num_queries 93
BRUNCH_STAT num_reach_queries 12
BRUNCH_STAT num_reach_reuse 1
BRUNCH_STAT inductive_lvl 0
BRUNCH_STAT max_depth 12
BRUNCH_STAT cex_depth 12
(:SPACER-cex-depth                     12
 :SPACER-max-depth                     12
 :SPACER-max-query-lvl                 12
 :SPACER-num-invariants                3
 :SPACER-num-lemmas                    93
 :SPACER-num-properties                43
 :SPACER-num-queries                   93
 :SPACER-num-reach-queries             12
 :SPACER-num-reuse-reach-facts         1
 :added-eqs                            11034
 :arith-add-rows                       152
 :arith-assert-diseq                   6702
 :arith-assert-lower                   16292
 :arith-assert-upper                   14225
 :arith-bound-prop                     293
 :arith-conflicts                      6
 :arith-eq-adapter                     1647
 :arith-fixed-eqs                      2119
 :arith-offset-eqs                     250
 :arith-pivots                         312
 :bool-inductive-gen                   82
 :bool-inductive-gen-failures          139
 :conflicts                            541
 :decisions                            29632
 :del-clause                           374
 :final-checks                         292
 :minimized-lits                       62
 :mk-bool-var                          4249
 :mk-clause                            6921
 :num-checks                           684
 :propagations                         169718
 :time.itp_solver.itp_core             0.04
 :time.spacer.init_rules               0.00
 :time.spacer.init_rules.pt.init       0.00
 :time.spacer.solve                    0.45
 :time.spacer.solve.propagate          0.06
 :time.spacer.solve.reach              0.39
 :time.spacer.solve.reach.children     0.06
 :time.spacer.solve.reach.gen.bool_ind 0.07
 :time.spacer.solve.reach.is-reach     0.10
 :time.virtual_solver.proof            0.02
 :time.virtual_solver.smt.total        0.27
 :time.virtual_solver.smt.total.sat    0.19
 :virtual_solver.checks                684
 :virtual_solver.checks.sat            292)
BRUNCH_STAT max_query_lvl 12
BRUNCH_STAT num_queries 93
BRUNCH_STAT num_reach_queries 12
BRUNCH_STAT num_reach_reuse 1
BRUNCH_STAT inductive_lvl 0
BRUNCH_STAT max_depth 12
BRUNCH_STAT cex_depth 12

real	0m0.534s
user	0m0.500s
sys	0m0.032s
