(transform N7datalog13mk_coi_filterE...no-op 0s)
(transform N7datalog25mk_interp_tail_simplifierE...14 rules 0s)
(transform N7datalog27mk_quantifier_instantiationE...no-op 0s)
(transform N7datalog8mk_scaleE...no-op 0s)
(transform N7datalog18mk_karr_invariantsE...no-op 0s)
(transform N7datalog14mk_array_blastE...no-op 0s)
(transform N7datalog22mk_subsumption_checkerE...13 rules 0s)
(transform N7datalog12mk_bit_blastE...no-op 0s)
(transform N7datalog15mk_rule_inlinerE...3 rules 0.00210598s)
(transform N7datalog13mk_coi_filterE...no-op 0s)
(transform N7datalog25mk_interp_tail_simplifierE...3 rules 0s)
(transform N7datalog22mk_subsumption_checkerE...no-op 0s)
(transform N7datalog15mk_rule_inlinerE...no-op 0s)
(transform N7datalog13mk_coi_filterE...no-op 0s)
(transform N7datalog25mk_interp_tail_simplifierE...3 rules 0s)
(transform N7datalog22mk_subsumption_checkerE...no-op 0s)
(transform N7datalog15mk_rule_inlinerE...no-op 0s)
(transform N7datalog22mk_subsumption_checkerE...no-op 0s)
(transform N7datalog15mk_rule_inlinerE...no-op 0s)
(transform N7datalog22mk_subsumption_checkerE...no-op 0s)
(transform N7datalog15mk_rule_inlinerE...no-op 0s)
(transform N7datalog22mk_subsumption_checkerE...no-op 0s)
(transform N7datalog8mk_sliceE...no-op 0s)
expand: query!0 (0, 0) FAR  w(0) 1. F 0.00
(spacer::context::check_reachability :time 0.00 :before-memory 4.24 :after-memory 4.74)
Entering level 1
BRUNCH_STAT max_query_lvl 0
BRUNCH_STAT num_queries 0
BRUNCH_STAT num_reach_queries 0
BRUNCH_STAT num_reach_reuse 0
BRUNCH_STAT inductive_lvl 0
BRUNCH_STAT max_depth 1
BRUNCH_STAT cex_depth 0
expand: query!0 (1, 0) FAR  w(0) 1.
	create_child: MAIN (0, 1) FAR 1758 U 0.00
expand: MAIN (0, 0) FAR  w(0) 1758. F 0.00
expand: query!0 (1, 0) FAR  w(0) 1. F 0.00
(spacer::context::check_reachability :time 0.00 :before-memory 4.74 :after-memory 5.57)
Propagating: 0 1  ! 2 
(spacer::context::propagate :time 0.00 :before-memory 5.57 :after-memory 5.57)
Entering level 2
BRUNCH_STAT max_query_lvl 1
BRUNCH_STAT num_queries 1
BRUNCH_STAT num_reach_queries 0
BRUNCH_STAT num_reach_reuse 0
BRUNCH_STAT inductive_lvl 0
BRUNCH_STAT max_depth 2
BRUNCH_STAT cex_depth 0
expand: query!0 (2, 0) FAR  w(0) 1.
	create_child: MAIN (1, 2) FAR 1758 U 0.00
expand: MAIN (1, 0) FAR  w(0) 1758.
	create_child: MAIN (0, 2) FAR 3461 U 0.00
expand: MAIN (0, 0) FAR  w(0) 3461. F 0.00
expand: MAIN (1, 0) FAR  w(0) 1758.
	create_child: MAIN (0, 2) FAR 3537 U 0.00
expand: MAIN (0, 0) FAR  w(0) 3537. F 0.00
expand: MAIN (1, 0) FAR  w(0) 1758.
	create_child: MAIN (0, 2) FAR 3621 U 0.00
expand: MAIN (0, 0) FAR  w(0) 3621. F 0.00
expand: MAIN (1, 0) FAR  w(0) 1758. F 0.00
expand: query!0 (2, 0) FAR  w(0) 1. F 0.00
(spacer::context::check_reachability :time 0.01 :before-memory 5.57 :after-memory 5.67)
Propagating: 0 
(spacer::context::propagate :time 0.00 :before-memory 5.67 :after-memory 5.67)
(define-fun MAIN ((x!0 Int)
 (x!1 Bool)
 (x!2 Int)
 (x!3 Int)
 (x!4 Int)
 (x!5 Int)
 (x!6 Bool)
 (x!7 Bool)
 (x!8 Bool)
 (x!9 Bool)) Bool
  (and (= (+ x!2 x!3 x!4 (* (- 1) x!0)) 0) x!9 (not x!6) (not x!1)))
BRUNCH_STAT max_query_lvl 2
BRUNCH_STAT num_queries 5
BRUNCH_STAT num_reach_queries 0
BRUNCH_STAT num_reach_reuse 0
BRUNCH_STAT inductive_lvl 0
BRUNCH_STAT max_depth 2
BRUNCH_STAT cex_depth 0
(:SPACER-max-depth                     2
 :SPACER-max-query-lvl                 2
 :SPACER-num-invariants                5
 :SPACER-num-lemmas                    8
 :SPACER-num-properties                5
 :SPACER-num-queries                   5
 :added-eqs                            265
 :arith-add-rows                       162
 :arith-assert-diseq                   77
 :arith-assert-lower                   194
 :arith-assert-upper                   204
 :arith-bound-prop                     29
 :arith-conflicts                      13
 :arith-eq-adapter                     72
 :arith-fixed-eqs                      44
 :arith-offset-eqs                     41
 :arith-pivots                         39
 :bool-inductive-gen                   5
 :bool-inductive-gen-failures          5
 :conflicts                            49
 :decisions                            283
 :del-clause                           34
 :final-checks                         8
 :minimized-lits                       21
 :mk-bool-var                          325
 :mk-clause                            500
 :num-checks                           26
 :propagations                         2391
 :time.itp_solver.itp_core             0.00
 :time.spacer.init_rules               0.00
 :time.spacer.init_rules.pt.init       0.00
 :time.spacer.solve                    0.01
 :time.spacer.solve.propagate          0.00
 :time.spacer.solve.reach              0.01
 :time.spacer.solve.reach.children     0.00
 :time.spacer.solve.reach.gen.bool_ind 0.00
 :time.virtual_solver.proof            0.00
 :time.virtual_solver.smt.total        0.01
 :time.virtual_solver.smt.total.sat    0.00
 :virtual_solver.checks                26
 :virtual_solver.checks.sat            8)
BRUNCH_STAT max_query_lvl 2
BRUNCH_STAT num_queries 5
BRUNCH_STAT num_reach_queries 0
BRUNCH_STAT num_reach_reuse 0
BRUNCH_STAT inductive_lvl 0
BRUNCH_STAT max_depth 2
BRUNCH_STAT cex_depth 0

real	0m0.036s
user	0m0.032s
sys	0m0.000s
