(transform N7datalog13mk_coi_filterE...no-op 0s)
(transform N7datalog25mk_interp_tail_simplifierE...14 rules 0s)
(transform N7datalog27mk_quantifier_instantiationE...no-op 0s)
(transform N7datalog8mk_scaleE...no-op 0s)
(transform N7datalog18mk_karr_invariantsE...no-op 0s)
(transform N7datalog14mk_array_blastE...no-op 0s)
(transform N7datalog22mk_subsumption_checkerE...13 rules 0s)
(transform N7datalog12mk_bit_blastE...no-op 0s)
(transform N7datalog15mk_rule_inlinerE...3 rules 0.00218882s)
(transform N7datalog13mk_coi_filterE...no-op 0s)
(transform N7datalog25mk_interp_tail_simplifierE...3 rules 0s)
(transform N7datalog22mk_subsumption_checkerE...no-op 0s)
(transform N7datalog15mk_rule_inlinerE...no-op 0s)
(transform N7datalog13mk_coi_filterE...no-op 0s)
(transform N7datalog25mk_interp_tail_simplifierE...3 rules 0s)
(transform N7datalog22mk_subsumption_checkerE...no-op 0s)
(transform N7datalog15mk_rule_inlinerE...no-op 0s)
(transform N7datalog22mk_subsumption_checkerE...no-op 0s)
(transform N7datalog15mk_rule_inlinerE...no-op 0s)
(transform N7datalog22mk_subsumption_checkerE...no-op 0s)
(transform N7datalog15mk_rule_inlinerE...no-op 0s)
(transform N7datalog22mk_subsumption_checkerE...no-op 0s)
(transform N7datalog8mk_sliceE...no-op 0s)
expand: query!0 (0, 0) FAR  w(0) 1. F 0.00
(spacer::context::check_reachability :time 0.00 :before-memory 4.25 :after-memory 4.74)
Entering level 1
BRUNCH_STAT max_query_lvl 0
BRUNCH_STAT num_queries 0
BRUNCH_STAT num_reach_queries 0
BRUNCH_STAT num_reach_reuse 0
BRUNCH_STAT inductive_lvl 0
BRUNCH_STAT max_depth 1
BRUNCH_STAT cex_depth 0
expand: query!0 (1, 0) FAR  w(0) 1.
	create_child: MAIN (0, 1) FAR 1673 U 0.00
expand: MAIN (0, 0) FAR  w(0) 1673. F 0.00
expand: query!0 (1, 0) FAR  w(0) 1. F 0.00
(spacer::context::check_reachability :time 0.00 :before-memory 4.74 :after-memory 5.56)
Propagating: 0 1  ! 2 
(spacer::context::propagate :time 0.00 :before-memory 5.56 :after-memory 5.56)
Entering level 2
BRUNCH_STAT max_query_lvl 1
BRUNCH_STAT num_queries 1
BRUNCH_STAT num_reach_queries 0
BRUNCH_STAT num_reach_reuse 0
BRUNCH_STAT inductive_lvl 0
BRUNCH_STAT max_depth 2
BRUNCH_STAT cex_depth 0
expand: query!0 (2, 0) FAR  w(0) 1.
	create_child: MAIN (1, 2) FAR 1673 U 0.00
expand: MAIN (1, 0) FAR  w(0) 1673.
	create_child: MAIN (0, 2) FAR 2975 U 0.00
expand: MAIN (0, 0) FAR  w(0) 2975. F 0.00
expand: MAIN (1, 0) FAR  w(0) 1673.
	create_child: MAIN (0, 2) FAR 2943 U 0.00
expand: MAIN (0, 0) FAR  w(0) 2943. F 0.00
expand: MAIN (1, 0) FAR  w(0) 1673.
	create_child: MAIN (0, 2) FAR 3114 U 0.00
expand: MAIN (0, 0) FAR  w(0) 3114. F 0.00
expand: MAIN (1, 0) FAR  w(0) 1673.
	create_child: MAIN (0, 2) FAR 3231 U 0.00
expand: MAIN (0, 0) FAR  w(0) 3231. F 0.00
expand: MAIN (1, 0) FAR  w(0) 1673.
	create_child: MAIN (0, 2) FAR 3365 U 0.00
expand: MAIN (0, 0) FAR  w(0) 3365. F 0.00
expand: MAIN (1, 0) FAR  w(0) 1673.
	create_child: MAIN (0, 2) FAR 3411 U 0.00
expand: MAIN (0, 0) FAR  w(0) 3411. F 0.00
expand: MAIN (1, 0) FAR  w(0) 1673. F 0.00
expand: query!0 (2, 0) FAR  w(0) 1. F 0.00
(spacer::context::check_reachability :time 0.01 :before-memory 5.56 :after-memory 5.66)
Propagating: 0 1 2  ! 3 
(spacer::context::propagate :time 0.00 :before-memory 5.66 :after-memory 5.66)
Entering level 3
BRUNCH_STAT max_query_lvl 2
BRUNCH_STAT num_queries 8
BRUNCH_STAT num_reach_queries 0
BRUNCH_STAT num_reach_reuse 0
BRUNCH_STAT inductive_lvl 0
BRUNCH_STAT max_depth 3
BRUNCH_STAT cex_depth 0
expand: query!0 (3, 0) FAR  w(0) 1.
	create_child: MAIN (2, 3) FAR 1673 U 0.00
expand: MAIN (2, 0) FAR  w(0) 1673.
	create_child: MAIN (1, 3) FAR 3231 U 0.00
expand: MAIN (1, 0) FAR  w(0) 3231.
	create_child: MAIN (0, 3) FAR 4359 U 0.00
expand: MAIN (0, 0) FAR  w(0) 4359. F 0.00
expand: MAIN (1, 0) FAR  w(0) 3231. F 0.00
expand: MAIN (2, 0) FAR  w(0) 1673. F 0.00
expand: query!0 (3, 0) FAR  w(0) 1. F 0.00
(spacer::context::check_reachability :time 0.01 :before-memory 5.66 :after-memory 5.85)
Propagating: 0 
(spacer::context::propagate :time 0.00 :before-memory 5.85 :after-memory 5.85)
(define-fun MAIN ((x!0 Int)
 (x!1 Bool)
 (x!2 Int)
 (x!3 Int)
 (x!4 Int)
 (x!5 Int)
 (x!6 Bool)
 (x!7 Bool)
 (x!8 Bool)
 (x!9 Bool)) Bool
  (let ((a!1 (or (<= (+ x!3 (* (- 1) x!0)) 0) (not x!7))))
    (and (>= (+ x!0 (* (- 1) x!2) (* (- 1) x!3) (* (- 1) x!4)) 0)
         x!9
         (not x!6)
         (not x!8)
         (not x!1)
         a!1
         (or (>= x!0 0) (not x!7))
         (>= (+ x!0 (* (- 1) x!3) (* (- 1) x!4)) 0))))
BRUNCH_STAT max_query_lvl 3
BRUNCH_STAT num_queries 11
BRUNCH_STAT num_reach_queries 0
BRUNCH_STAT num_reach_reuse 0
BRUNCH_STAT inductive_lvl 0
BRUNCH_STAT max_depth 3
BRUNCH_STAT cex_depth 0
(:SPACER-max-depth                     3
 :SPACER-max-query-lvl                 3
 :SPACER-num-invariants                10
 :SPACER-num-lemmas                    15
 :SPACER-num-properties                9
 :SPACER-num-queries                   11
 :added-eqs                            459
 :arith-add-rows                       368
 :arith-assert-diseq                   124
 :arith-assert-lower                   474
 :arith-assert-upper                   298
 :arith-bound-prop                     64
 :arith-conflicts                      17
 :arith-eq-adapter                     91
 :arith-fixed-eqs                      79
 :arith-offset-eqs                     66
 :arith-pivots                         95
 :bool-inductive-gen                   11
 :bool-inductive-gen-failures          13
 :conflicts                            84
 :decisions                            624
 :del-clause                           35
 :final-checks                         21
 :minimized-lits                       2
 :mk-bool-var                          419
 :mk-clause                            592
 :num-checks                           62
 :propagations                         5167
 :time.itp_solver.itp_core             0.00
 :time.spacer.init_rules               0.00
 :time.spacer.init_rules.pt.init       0.00
 :time.spacer.solve                    0.03
 :time.spacer.solve.propagate          0.00
 :time.spacer.solve.reach              0.02
 :time.spacer.solve.reach.children     0.00
 :time.spacer.solve.reach.gen.bool_ind 0.00
 :time.virtual_solver.proof            0.00
 :time.virtual_solver.smt.total        0.02
 :time.virtual_solver.smt.total.sat    0.01
 :virtual_solver.checks                62
 :virtual_solver.checks.sat            21)
BRUNCH_STAT max_query_lvl 3
BRUNCH_STAT num_queries 11
BRUNCH_STAT num_reach_queries 0
BRUNCH_STAT num_reach_reuse 0
BRUNCH_STAT inductive_lvl 0
BRUNCH_STAT max_depth 3
BRUNCH_STAT cex_depth 0

real	0m0.053s
user	0m0.052s
sys	0m0.000s
