(transform N7datalog13mk_coi_filterE...no-op 0s)
(transform N7datalog25mk_interp_tail_simplifierE...14 rules 0s)
(transform N7datalog27mk_quantifier_instantiationE...no-op 0s)
(transform N7datalog8mk_scaleE...no-op 0s)
(transform N7datalog18mk_karr_invariantsE...no-op 0s)
(transform N7datalog14mk_array_blastE...no-op 0s)
(transform N7datalog22mk_subsumption_checkerE...13 rules 0s)
(transform N7datalog12mk_bit_blastE...no-op 0s)
(transform N7datalog15mk_rule_inlinerE...3 rules 0.00218466s)
(transform N7datalog13mk_coi_filterE...no-op 0s)
(transform N7datalog25mk_interp_tail_simplifierE...3 rules 0s)
(transform N7datalog22mk_subsumption_checkerE...no-op 0s)
(transform N7datalog15mk_rule_inlinerE...no-op 0s)
(transform N7datalog13mk_coi_filterE...no-op 0s)
(transform N7datalog25mk_interp_tail_simplifierE...3 rules 0s)
(transform N7datalog22mk_subsumption_checkerE...no-op 0s)
(transform N7datalog15mk_rule_inlinerE...no-op 0s)
(transform N7datalog22mk_subsumption_checkerE...no-op 0s)
(transform N7datalog15mk_rule_inlinerE...no-op 0s)
(transform N7datalog22mk_subsumption_checkerE...no-op 0s)
(transform N7datalog15mk_rule_inlinerE...no-op 0s)
(transform N7datalog22mk_subsumption_checkerE...no-op 0s)
(transform N7datalog8mk_sliceE...no-op 0s)
expand: query!0 (0, 0) FAR  w(0) 1. F 0.00
(spacer::context::check_reachability :time 0.00 :before-memory 4.25 :after-memory 4.74)
Entering level 1
BRUNCH_STAT max_query_lvl 0
BRUNCH_STAT num_queries 0
BRUNCH_STAT num_reach_queries 0
BRUNCH_STAT num_reach_reuse 0
BRUNCH_STAT inductive_lvl 0
BRUNCH_STAT max_depth 1
BRUNCH_STAT cex_depth 0
expand: query!0 (1, 0) FAR  w(0) 1.
	create_child: MAIN (0, 1) FAR 1700 U 0.00
expand: MAIN (0, 0) FAR  w(0) 1700. F 0.00
expand: query!0 (1, 0) FAR  w(0) 1. F 0.00
(spacer::context::check_reachability :time 0.00 :before-memory 4.74 :after-memory 5.55)
Propagating: 0 1  ! 2 
(spacer::context::propagate :time 0.00 :before-memory 5.55 :after-memory 5.55)
Entering level 2
BRUNCH_STAT max_query_lvl 1
BRUNCH_STAT num_queries 1
BRUNCH_STAT num_reach_queries 0
BRUNCH_STAT num_reach_reuse 0
BRUNCH_STAT inductive_lvl 0
BRUNCH_STAT max_depth 2
BRUNCH_STAT cex_depth 0
expand: query!0 (2, 0) FAR  w(0) 1.
	create_child: MAIN (1, 2) FAR 1700 U 0.00
expand: MAIN (1, 0) FAR  w(0) 1700.
	create_child: MAIN (0, 2) FAR 3118 U 0.00
expand: MAIN (0, 0) FAR  w(0) 3118. F 0.00
expand: MAIN (1, 0) FAR  w(0) 1700.
	create_child: MAIN (0, 2) FAR 3106 U 0.00
expand: MAIN (0, 0) FAR  w(0) 3106. F 0.00
expand: MAIN (1, 0) FAR  w(0) 1700.
	create_child: MAIN (0, 2) FAR 3198 U 0.00
expand: MAIN (0, 0) FAR  w(0) 3198. F 0.00
expand: MAIN (1, 0) FAR  w(0) 1700.
	create_child: MAIN (0, 2) FAR 3342 U 0.00
expand: MAIN (0, 0) FAR  w(0) 3342. F 0.00
expand: MAIN (1, 0) FAR  w(0) 1700.
	create_child: MAIN (0, 2) FAR 3461 U 0.00
expand: MAIN (0, 0) FAR  w(0) 3461. F 0.00
expand: MAIN (1, 0) FAR  w(0) 1700.
	create_child: MAIN (0, 2) FAR 3576 U 0.00
expand: MAIN (0, 0) FAR  w(0) 3576. F 0.00
expand: MAIN (1, 0) FAR  w(0) 1700. F 0.00
expand: query!0 (2, 0) FAR  w(0) 1. F 0.00
(spacer::context::check_reachability :time 0.01 :before-memory 5.55 :after-memory 5.65)
Propagating: 0 1 
(spacer::context::propagate :time 0.00 :before-memory 5.65 :after-memory 5.65)
(define-fun MAIN ((x!0 Int)
 (x!1 Bool)
 (x!2 Int)
 (x!3 Int)
 (x!4 Int)
 (x!5 Int)
 (x!6 Bool)
 (x!7 Bool)
 (x!8 Bool)
 (x!9 Bool)) Bool
  (let ((a!1 (not (>= (+ x!2 x!3 x!4 (* (- 1) x!0)) 2)))
        (a!2 (not (<= (+ x!0 (* (- 1) x!2) (* (- 1) x!4)) (- 3)))))
    (and a!1 x!9 (not x!6) (not x!1) (<= (+ x!4 (* (- 1) x!0)) 0) a!2)))
BRUNCH_STAT max_query_lvl 2
BRUNCH_STAT num_queries 8
BRUNCH_STAT num_reach_queries 0
BRUNCH_STAT num_reach_reuse 0
BRUNCH_STAT inductive_lvl 1
BRUNCH_STAT max_depth 2
BRUNCH_STAT cex_depth 0
(:SPACER-inductive-level               1
 :SPACER-max-depth                     2
 :SPACER-max-query-lvl                 2
 :SPACER-num-invariants                7
 :SPACER-num-lemmas                    11
 :SPACER-num-properties                8
 :SPACER-num-queries                   8
 :added-eqs                            405
 :arith-add-rows                       314
 :arith-assert-diseq                   67
 :arith-assert-lower                   301
 :arith-assert-upper                   208
 :arith-bound-prop                     46
 :arith-conflicts                      13
 :arith-eq-adapter                     139
 :arith-fixed-eqs                      62
 :arith-offset-eqs                     43
 :arith-pivots                         79
 :bool-inductive-gen                   8
 :bool-inductive-gen-failures          8
 :conflicts                            67
 :decisions                            359
 :del-clause                           89
 :final-checks                         11
 :minimized-lits                       6
 :mk-bool-var                          429
 :mk-clause                            571
 :num-checks                           42
 :propagations                         3442
 :time.itp_solver.itp_core             0.00
 :time.spacer.init_rules               0.00
 :time.spacer.init_rules.pt.init       0.00
 :time.spacer.solve                    0.02
 :time.spacer.solve.propagate          0.01
 :time.spacer.solve.reach              0.02
 :time.spacer.solve.reach.children     0.00
 :time.spacer.solve.reach.gen.bool_ind 0.00
 :time.virtual_solver.proof            0.00
 :time.virtual_solver.smt.total        0.01
 :time.virtual_solver.smt.total.sat    0.00
 :virtual_solver.checks                42
 :virtual_solver.checks.sat            11)
BRUNCH_STAT max_query_lvl 2
BRUNCH_STAT num_queries 8
BRUNCH_STAT num_reach_queries 0
BRUNCH_STAT num_reach_reuse 0
BRUNCH_STAT inductive_lvl 1
BRUNCH_STAT max_depth 2
BRUNCH_STAT cex_depth 0

real	0m0.047s
user	0m0.044s
sys	0m0.000s
