(transform N7datalog13mk_coi_filterE...no-op 0s)
(transform N7datalog25mk_interp_tail_simplifierE...12 rules 0s)
(transform N7datalog27mk_quantifier_instantiationE...no-op 0s)
(transform N7datalog8mk_scaleE...no-op 0s)
(transform N7datalog18mk_karr_invariantsE...no-op 0s)
(transform N7datalog14mk_array_blastE...no-op 0s)
(transform N7datalog22mk_subsumption_checkerE...11 rules 0s)
(transform N7datalog12mk_bit_blastE...no-op 0s)
(transform N7datalog15mk_rule_inlinerE...3 rules 0.00375337s)
(transform N7datalog13mk_coi_filterE...no-op 0s)
(transform N7datalog25mk_interp_tail_simplifierE...3 rules 0s)
(transform N7datalog22mk_subsumption_checkerE...no-op 0s)
(transform N7datalog15mk_rule_inlinerE...no-op 0s)
(transform N7datalog13mk_coi_filterE...no-op 0s)
(transform N7datalog25mk_interp_tail_simplifierE...3 rules 0s)
(transform N7datalog22mk_subsumption_checkerE...no-op 0s)
(transform N7datalog15mk_rule_inlinerE...no-op 0s)
(transform N7datalog22mk_subsumption_checkerE...no-op 0s)
(transform N7datalog15mk_rule_inlinerE...no-op 0s)
(transform N7datalog22mk_subsumption_checkerE...no-op 0s)
(transform N7datalog15mk_rule_inlinerE...no-op 0s)
(transform N7datalog22mk_subsumption_checkerE...no-op 0s)
(transform N7datalog8mk_sliceE...no-op 0s)
expand: query!0 (0, 0) FAR  w(0) 1. F 0.00
(spacer::context::check_reachability :time 0.00 :before-memory 4.50 :after-memory 5.01)
Entering level 1
BRUNCH_STAT max_query_lvl 0
BRUNCH_STAT num_queries 0
BRUNCH_STAT num_reach_queries 0
BRUNCH_STAT num_reach_reuse 0
BRUNCH_STAT inductive_lvl 0
BRUNCH_STAT max_depth 1
BRUNCH_STAT cex_depth 0
expand: query!0 (1, 0) FAR  w(0) 1.
	create_child: MAIN (0, 1) FAR 3592 U 0.00
expand: MAIN (0, 0) FAR  w(0) 3592. F 0.00
expand: query!0 (1, 0) FAR  w(0) 1. F 0.00
(spacer::context::check_reachability :time 0.01 :before-memory 5.01 :after-memory 6.14)
Propagating: 0 1  ! 2 
(spacer::context::propagate :time 0.00 :before-memory 6.14 :after-memory 6.23)
Entering level 2
BRUNCH_STAT max_query_lvl 1
BRUNCH_STAT num_queries 1
BRUNCH_STAT num_reach_queries 0
BRUNCH_STAT num_reach_reuse 0
BRUNCH_STAT inductive_lvl 0
BRUNCH_STAT max_depth 2
BRUNCH_STAT cex_depth 0
expand: query!0 (2, 0) FAR  w(0) 1.
	create_child: MAIN (1, 2) FAR 3592 U 0.00
expand: MAIN (1, 0) FAR  w(0) 3592.
	create_child: MAIN (0, 2) FAR 6975 U 0.00
expand: MAIN (0, 0) FAR  w(0) 6975. F 0.00
expand: MAIN (1, 0) FAR  w(0) 3592.
	create_child: MAIN (0, 2) FAR 7257 U 0.00
expand: MAIN (0, 0) FAR  w(0) 7257. F 0.00
expand: MAIN (1, 0) FAR  w(0) 3592.
	create_child: MAIN (0, 2) FAR 7358 U 0.00
expand: MAIN (0, 0) FAR  w(0) 7358. F 0.00
expand: MAIN (1, 0) FAR  w(0) 3592.
	create_child: MAIN (0, 2) FAR 7431 U 0.00
expand: MAIN (0, 0) FAR  w(0) 7431. F 0.00
expand: MAIN (1, 0) FAR  w(0) 3592.
	create_child: MAIN (0, 2) FAR 7678 U 0.00
expand: MAIN (0, 0) FAR  w(0) 7678. F 0.00
expand: MAIN (1, 0) FAR  w(0) 3592.
	create_child: MAIN (0, 2) FAR 7579 U 0.00
expand: MAIN (0, 0) FAR  w(0) 7579. F 0.00
expand: MAIN (1, 0) FAR  w(0) 3592. F 0.00
expand: query!0 (2, 0) FAR  w(0) 1. F 0.00
(spacer::context::check_reachability :time 0.02 :before-memory 6.23 :after-memory 6.43)
Propagating: 0 1 2  ! 3 
(spacer::context::propagate :time 0.01 :before-memory 6.43 :after-memory 6.43)
Entering level 3
BRUNCH_STAT max_query_lvl 2
BRUNCH_STAT num_queries 8
BRUNCH_STAT num_reach_queries 0
BRUNCH_STAT num_reach_reuse 0
BRUNCH_STAT inductive_lvl 0
BRUNCH_STAT max_depth 3
BRUNCH_STAT cex_depth 0
expand: query!0 (3, 0) FAR  w(0) 1.
	create_child: MAIN (2, 3) FAR 3592 U 0.00
expand: MAIN (2, 0) FAR  w(0) 3592.
	create_child: MAIN (1, 3) FAR 8262 U 0.00
expand: MAIN (1, 0) FAR  w(0) 8262. F 0.00
expand: MAIN (2, 0) FAR  w(0) 3592.
	create_child: MAIN (1, 3) FAR 8663 U 0.00
expand: MAIN (1, 0) FAR  w(0) 8663. F 0.00
expand: MAIN (2, 0) FAR  w(0) 3592.
	create_child: MAIN (1, 3) FAR 8719 U 0.00
expand: MAIN (1, 0) FAR  w(0) 8719. F 0.00
expand: MAIN (2, 0) FAR  w(0) 3592.
	create_child: MAIN (1, 3) FAR 8943 U 0.00
expand: MAIN (1, 0) FAR  w(0) 8943. F 0.00
expand: MAIN (2, 0) FAR  w(0) 3592.
	create_child: MAIN (1, 3) FAR 9126 U 0.00
expand: MAIN (1, 0) FAR  w(0) 9126. F 0.00
expand: MAIN (2, 0) FAR  w(0) 3592.
	create_child: MAIN (1, 3) FAR 9411 U 0.00
expand: MAIN (1, 0) FAR  w(0) 9411. F 0.00
expand: MAIN (2, 0) FAR  w(0) 3592. F 0.00
expand: query!0 (3, 0) FAR  w(0) 1. F 0.00
(spacer::context::check_reachability :time 0.02 :before-memory 6.43 :after-memory 6.76)
Propagating: 1 2 3  ! 4 
(spacer::context::propagate :time 0.00 :before-memory 6.76 :after-memory 6.76)
Entering level 4
BRUNCH_STAT max_query_lvl 3
BRUNCH_STAT num_queries 15
BRUNCH_STAT num_reach_queries 0
BRUNCH_STAT num_reach_reuse 0
BRUNCH_STAT inductive_lvl 0
BRUNCH_STAT max_depth 4
BRUNCH_STAT cex_depth 0
expand: query!0 (4, 0) FAR  w(0) 1.
	create_child: MAIN (3, 4) FAR 3592 U 0.00
expand: MAIN (3, 0) FAR  w(0) 3592.
	create_child: MAIN (2, 4) FAR 9411 U 0.00
expand: MAIN (2, 0) FAR  w(0) 9411.
	create_child: MAIN (1, 4) FAR 11277 U 0.00
expand: MAIN (1, 0) FAR  w(0) 11277. F 0.00
expand: MAIN (2, 0) FAR  w(0) 9411. F 0.00
expand: MAIN (3, 0) FAR  w(0) 3592. F 0.00
expand: query!0 (4, 0) FAR  w(0) 1. F 0.00
(spacer::context::check_reachability :time 0.01 :before-memory 6.76 :after-memory 6.81)
Propagating: 1 2 
(spacer::context::propagate :time 0.00 :before-memory 6.81 :after-memory 6.81)
(define-fun MAIN ((x!0 Int)
 (x!1 Int)
 (x!2 Int)
 (x!3 Int)
 (x!4 Int)
 (x!5 Int)
 (x!6 Int)
 (x!7 Int)
 (x!8 Bool)
 (x!9 Bool)
 (x!10 Bool)
 (x!11 Bool)) Bool
  (and (not (>= (+ x!5 x!6) 6))
       x!11
       (not (>= x!7 3))
       (not x!10)
       (>= x!7 0)
       (>= x!6 0)
       (>= x!5 0)
       (not (>= x!6 4))
       (not (>= x!5 4))))
BRUNCH_STAT max_query_lvl 4
BRUNCH_STAT num_queries 18
BRUNCH_STAT num_reach_queries 0
BRUNCH_STAT num_reach_reuse 0
BRUNCH_STAT inductive_lvl 2
BRUNCH_STAT max_depth 4
BRUNCH_STAT cex_depth 0
(:SPACER-inductive-level               2
 :SPACER-max-depth                     4
 :SPACER-max-query-lvl                 4
 :SPACER-num-invariants                11
 :SPACER-num-lemmas                    23
 :SPACER-num-properties                14
 :SPACER-num-queries                   18
 :added-eqs                            1727
 :arith-add-rows                       192
 :arith-assert-diseq                   540
 :arith-assert-lower                   1437
 :arith-assert-upper                   1358
 :arith-bound-prop                     92
 :arith-conflicts                      19
 :arith-eq-adapter                     647
 :arith-fixed-eqs                      287
 :arith-offset-eqs                     134
 :arith-pivots                         113
 :bool-inductive-gen                   18
 :bool-inductive-gen-failures          20
 :conflicts                            176
 :decisions                            1771
 :del-clause                           590
 :final-checks                         32
 :minimized-lits                       44
 :mk-bool-var                          1305
 :mk-clause                            2218
 :num-checks                           120
 :propagations                         22589
 :time.itp_solver.itp_core             0.01
 :time.spacer.init_rules               0.00
 :time.spacer.init_rules.pt.init       0.00
 :time.spacer.solve                    0.07
 :time.spacer.solve.propagate          0.01
 :time.spacer.solve.reach              0.06
 :time.spacer.solve.reach.children     0.01
 :time.spacer.solve.reach.gen.bool_ind 0.00
 :time.virtual_solver.proof            0.01
 :time.virtual_solver.smt.total        0.05
 :time.virtual_solver.smt.total.sat    0.02
 :virtual_solver.checks                120
 :virtual_solver.checks.sat            32)
BRUNCH_STAT max_query_lvl 4
BRUNCH_STAT num_queries 18
BRUNCH_STAT num_reach_queries 0
BRUNCH_STAT num_reach_reuse 0
BRUNCH_STAT inductive_lvl 2
BRUNCH_STAT max_depth 4
BRUNCH_STAT cex_depth 0

real	0m0.108s
user	0m0.092s
sys	0m0.012s
