(transform N7datalog13mk_coi_filterE...no-op 0s)
(transform N7datalog25mk_interp_tail_simplifierE...12 rules 0s)
(transform N7datalog27mk_quantifier_instantiationE...no-op 0s)
(transform N7datalog8mk_scaleE...no-op 0s)
(transform N7datalog18mk_karr_invariantsE...no-op 0s)
(transform N7datalog14mk_array_blastE...no-op 0s)
(transform N7datalog22mk_subsumption_checkerE...11 rules 0s)
(transform N7datalog12mk_bit_blastE...no-op 0s)
(transform N7datalog15mk_rule_inlinerE...3 rules 0.00382373s)
(transform N7datalog13mk_coi_filterE...no-op 0s)
(transform N7datalog25mk_interp_tail_simplifierE...3 rules 0s)
(transform N7datalog22mk_subsumption_checkerE...no-op 0s)
(transform N7datalog15mk_rule_inlinerE...no-op 0s)
(transform N7datalog13mk_coi_filterE...no-op 0s)
(transform N7datalog25mk_interp_tail_simplifierE...3 rules 0s)
(transform N7datalog22mk_subsumption_checkerE...no-op 0s)
(transform N7datalog15mk_rule_inlinerE...no-op 0s)
(transform N7datalog22mk_subsumption_checkerE...no-op 0s)
(transform N7datalog15mk_rule_inlinerE...no-op 0s)
(transform N7datalog22mk_subsumption_checkerE...no-op 0s)
(transform N7datalog15mk_rule_inlinerE...no-op 0s)
(transform N7datalog22mk_subsumption_checkerE...no-op 0s)
(transform N7datalog8mk_sliceE...no-op 0s)
expand: query!0 (0, 0) FAR  w(0) 1. F 0.00
(spacer::context::check_reachability :time 0.00 :before-memory 4.50 :after-memory 5.01)
Entering level 1
BRUNCH_STAT max_query_lvl 0
BRUNCH_STAT num_queries 0
BRUNCH_STAT num_reach_queries 0
BRUNCH_STAT num_reach_reuse 0
BRUNCH_STAT inductive_lvl 0
BRUNCH_STAT max_depth 1
BRUNCH_STAT cex_depth 0
expand: query!0 (1, 0) FAR  w(0) 1.
	create_child: MAIN (0, 1) FAR 3590 U 0.00
expand: MAIN (0, 0) FAR  w(0) 3590. F 0.00
expand: query!0 (1, 0) FAR  w(0) 1. F 0.00
(spacer::context::check_reachability :time 0.00 :before-memory 5.01 :after-memory 6.14)
Propagating: 0 1  ! 2 
(spacer::context::propagate :time 0.00 :before-memory 6.14 :after-memory 6.23)
Entering level 2
BRUNCH_STAT max_query_lvl 1
BRUNCH_STAT num_queries 1
BRUNCH_STAT num_reach_queries 0
BRUNCH_STAT num_reach_reuse 0
BRUNCH_STAT inductive_lvl 0
BRUNCH_STAT max_depth 2
BRUNCH_STAT cex_depth 0
expand: query!0 (2, 0) FAR  w(0) 1.
	create_child: MAIN (1, 2) FAR 3590 U 0.00
expand: MAIN (1, 0) FAR  w(0) 3590.
	create_child: MAIN (0, 2) FAR 7123 U 0.00
expand: MAIN (0, 0) FAR  w(0) 7123. F 0.00
expand: MAIN (1, 0) FAR  w(0) 3590.
	create_child: MAIN (0, 2) FAR 7398 U 0.00
expand: MAIN (0, 0) FAR  w(0) 7398. F 0.00
expand: MAIN (1, 0) FAR  w(0) 3590.
	create_child: MAIN (0, 2) FAR 7492 U 0.00
expand: MAIN (0, 0) FAR  w(0) 7492. F 0.00
expand: MAIN (1, 0) FAR  w(0) 3590. F 0.00
expand: query!0 (2, 0) FAR  w(0) 1. F 0.00
(spacer::context::check_reachability :time 0.01 :before-memory 6.23 :after-memory 6.43)
Propagating: 0 1 2  ! 3 
(spacer::context::propagate :time 0.00 :before-memory 6.43 :after-memory 6.43)
Entering level 3
BRUNCH_STAT max_query_lvl 2
BRUNCH_STAT num_queries 5
BRUNCH_STAT num_reach_queries 0
BRUNCH_STAT num_reach_reuse 0
BRUNCH_STAT inductive_lvl 0
BRUNCH_STAT max_depth 3
BRUNCH_STAT cex_depth 0
expand: query!0 (3, 0) FAR  w(0) 1.
	create_child: MAIN (2, 3) FAR 3590 U 0.00
expand: MAIN (2, 0) FAR  w(0) 3590.
	create_child: MAIN (1, 3) FAR 7958 U 0.00
expand: MAIN (1, 0) FAR  w(0) 7958. F 0.00
expand: MAIN (2, 0) FAR  w(0) 3590.
	create_child: MAIN (1, 3) FAR 8073 U 0.00
expand: MAIN (1, 0) FAR  w(0) 8073. F 0.00
expand: MAIN (2, 0) FAR  w(0) 3590.
	create_child: MAIN (1, 3) FAR 8245 U 0.00
expand: MAIN (1, 0) FAR  w(0) 8245. F 0.00
expand: MAIN (2, 0) FAR  w(0) 3590.
	create_child: MAIN (1, 3) FAR 7123 U 0.00
expand: MAIN (1, 0) FAR  w(0) 7123. F 0.00
expand: MAIN (2, 0) FAR  w(0) 3590.
	create_child: MAIN (1, 3) FAR 8507 U 0.00
expand: MAIN (1, 0) FAR  w(0) 8507. F 0.00
expand: MAIN (2, 0) FAR  w(0) 3590.
	create_child: MAIN (1, 3) FAR 8622 U 0.00
expand: MAIN (1, 0) FAR  w(0) 8622. F 0.00
expand: MAIN (2, 0) FAR  w(0) 3590. F 0.00
expand: query!0 (3, 0) FAR  w(0) 1. F 0.00
(spacer::context::check_reachability :time 0.02 :before-memory 6.43 :after-memory 6.55)
Propagating: 1 
(spacer::context::propagate :time 0.00 :before-memory 6.55 :after-memory 6.55)
(define-fun MAIN ((x!0 Int)
 (x!1 Int)
 (x!2 Int)
 (x!3 Int)
 (x!4 Int)
 (x!5 Int)
 (x!6 Int)
 (x!7 Int)
 (x!8 Bool)
 (x!9 Bool)
 (x!10 Bool)
 (x!11 Bool)) Bool
  (and (not (>= x!5 4))
       x!11
       (>= x!7 0)
       (>= x!6 0)
       (>= x!5 0)
       (not (>= x!7 4))
       (not (>= x!6 4))))
BRUNCH_STAT max_query_lvl 3
BRUNCH_STAT num_queries 12
BRUNCH_STAT num_reach_queries 0
BRUNCH_STAT num_reach_reuse 0
BRUNCH_STAT inductive_lvl 1
BRUNCH_STAT max_depth 3
BRUNCH_STAT cex_depth 0
(:SPACER-inductive-level               1
 :SPACER-max-depth                     3
 :SPACER-max-query-lvl                 3
 :SPACER-num-invariants                8
 :SPACER-num-lemmas                    16
 :SPACER-num-properties                11
 :SPACER-num-queries                   12
 :added-eqs                            916
 :arith-add-rows                       156
 :arith-assert-diseq                   373
 :arith-assert-lower                   700
 :arith-assert-upper                   691
 :arith-bound-prop                     47
 :arith-conflicts                      6
 :arith-eq-adapter                     383
 :arith-fixed-eqs                      160
 :arith-offset-eqs                     35
 :arith-pivots                         61
 :bool-inductive-gen                   12
 :bool-inductive-gen-failures          12
 :conflicts                            112
 :decisions                            1220
 :del-clause                           404
 :final-checks                         19
 :minimized-lits                       9
 :mk-bool-var                          995
 :mk-clause                            1840
 :num-checks                           64
 :propagations                         11018
 :time.itp_solver.itp_core             0.01
 :time.spacer.init_rules               0.00
 :time.spacer.init_rules.pt.init       0.00
 :time.spacer.solve                    0.04
 :time.spacer.solve.propagate          0.01
 :time.spacer.solve.reach              0.03
 :time.spacer.solve.reach.children     0.01
 :time.spacer.solve.reach.gen.bool_ind 0.00
 :time.virtual_solver.proof            0.00
 :time.virtual_solver.smt.total        0.03
 :time.virtual_solver.smt.total.sat    0.01
 :virtual_solver.checks                64
 :virtual_solver.checks.sat            19)
BRUNCH_STAT max_query_lvl 3
BRUNCH_STAT num_queries 12
BRUNCH_STAT num_reach_queries 0
BRUNCH_STAT num_reach_reuse 0
BRUNCH_STAT inductive_lvl 1
BRUNCH_STAT max_depth 3
BRUNCH_STAT cex_depth 0

real	0m0.073s
user	0m0.060s
sys	0m0.012s
