(transform N7datalog13mk_coi_filterE...no-op 0s)
(transform N7datalog25mk_interp_tail_simplifierE...21 rules 0s)
(transform N7datalog27mk_quantifier_instantiationE...no-op 0s)
(transform N7datalog8mk_scaleE...no-op 0s)
(transform N7datalog18mk_karr_invariantsE...no-op 0s)
(transform N7datalog14mk_array_blastE...no-op 0s)
(transform N7datalog22mk_subsumption_checkerE...20 rules 0s)
(transform N7datalog12mk_bit_blastE...no-op 0s)
(transform N7datalog15mk_rule_inlinerE...3 rules 0.00705799s)
(transform N7datalog13mk_coi_filterE...no-op 0s)
(transform N7datalog25mk_interp_tail_simplifierE...3 rules 0s)
(transform N7datalog22mk_subsumption_checkerE...no-op 0s)
(transform N7datalog15mk_rule_inlinerE...no-op 0s)
(transform N7datalog13mk_coi_filterE...no-op 0s)
(transform N7datalog25mk_interp_tail_simplifierE...3 rules 0s)
(transform N7datalog22mk_subsumption_checkerE...no-op 0s)
(transform N7datalog15mk_rule_inlinerE...no-op 0s)
(transform N7datalog22mk_subsumption_checkerE...no-op 0s)
(transform N7datalog15mk_rule_inlinerE...no-op 0s)
(transform N7datalog22mk_subsumption_checkerE...no-op 0s)
(transform N7datalog15mk_rule_inlinerE...no-op 0s)
(transform N7datalog22mk_subsumption_checkerE...no-op 0s)
(transform N7datalog8mk_sliceE...no-op 0s)
expand: query!0 (0, 0) FAR  w(0) 1. F 0.00
(spacer::context::check_reachability :time 0.00 :before-memory 4.56 :after-memory 5.09)
Entering level 1
BRUNCH_STAT max_query_lvl 0
BRUNCH_STAT num_queries 0
BRUNCH_STAT num_reach_queries 0
BRUNCH_STAT num_reach_reuse 0
BRUNCH_STAT inductive_lvl 0
BRUNCH_STAT max_depth 1
BRUNCH_STAT cex_depth 0
expand: query!0 (1, 0) FAR  w(0) 1.
	create_child: MAIN (0, 1) FAR 3101 U 0.00
expand: MAIN (0, 0) FAR  w(0) 3101. F 0.00
expand: query!0 (1, 0) FAR  w(0) 1. F 0.00
(spacer::context::check_reachability :time 0.00 :before-memory 5.09 :after-memory 5.71)
Propagating: 0 1  ! 2 
(spacer::context::propagate :time 0.00 :before-memory 5.71 :after-memory 5.71)
Entering level 2
BRUNCH_STAT max_query_lvl 1
BRUNCH_STAT num_queries 1
BRUNCH_STAT num_reach_queries 0
BRUNCH_STAT num_reach_reuse 0
BRUNCH_STAT inductive_lvl 0
BRUNCH_STAT max_depth 2
BRUNCH_STAT cex_depth 0
expand: query!0 (2, 0) FAR  w(0) 1.
	create_child: MAIN (1, 2) FAR 3101 U 0.00
expand: MAIN (1, 0) FAR  w(0) 3101.
	create_child: MAIN (0, 2) FAR 4702 U 0.00
expand: MAIN (0, 0) FAR  w(0) 4702. F 0.00
expand: MAIN (1, 0) FAR  w(0) 3101.
	create_child: MAIN (0, 2) FAR 4774 U 0.00
expand: MAIN (0, 0) FAR  w(0) 4774. F 0.00
expand: MAIN (1, 0) FAR  w(0) 3101.
	create_child: MAIN (0, 2) FAR 4814 U 0.00
expand: MAIN (0, 0) FAR  w(0) 4814. F 0.00
expand: MAIN (1, 0) FAR  w(0) 3101.
	create_child: MAIN (0, 2) FAR 4768 U 0.00
expand: MAIN (0, 0) FAR  w(0) 4768. F 0.00
expand: MAIN (1, 0) FAR  w(0) 3101.
	create_child: MAIN (0, 2) FAR 4805 U 0.00
expand: MAIN (0, 0) FAR  w(0) 4805. F 0.00
expand: MAIN (1, 0) FAR  w(0) 3101.
	create_child: MAIN (0, 2) FAR 4920 U 0.00
expand: MAIN (0, 0) FAR  w(0) 4920. F 0.00
expand: MAIN (1, 0) FAR  w(0) 3101.
	create_child: MAIN (0, 2) FAR 4936 U 0.00
expand: MAIN (0, 0) FAR  w(0) 4936. F 0.00
expand: MAIN (1, 0) FAR  w(0) 3101.
	create_child: MAIN (0, 2) FAR 5039 U 0.00
expand: MAIN (0, 0) FAR  w(0) 5039. F 0.00
expand: MAIN (1, 0) FAR  w(0) 3101.
	create_child: MAIN (0, 2) FAR 5054 U 0.00
expand: MAIN (0, 0) FAR  w(0) 5054. F 0.00
expand: MAIN (1, 0) FAR  w(0) 3101.
	create_child: MAIN (0, 2) FAR 5123 U 0.00
expand: MAIN (0, 0) FAR  w(0) 5123. F 0.00
expand: MAIN (1, 0) FAR  w(0) 3101.
	create_child: MAIN (0, 2) FAR 5103 U 0.00
expand: MAIN (0, 0) FAR  w(0) 5103. F 0.00
expand: MAIN (1, 0) FAR  w(0) 3101.
	create_child: MAIN (0, 2) FAR 5148 U 0.00
expand: MAIN (0, 0) FAR  w(0) 5148. F 0.00
expand: MAIN (1, 0) FAR  w(0) 3101.
	create_child: MAIN (0, 2) FAR 5411 U 0.00
expand: MAIN (0, 0) FAR  w(0) 5411. F 0.00
expand: MAIN (1, 0) FAR  w(0) 3101.
	create_child: MAIN (0, 2) FAR 5452 U 0.00
expand: MAIN (0, 0) FAR  w(0) 5452. F 0.00
expand: MAIN (1, 0) FAR  w(0) 3101.
	create_child: MAIN (0, 2) FAR 5556 U 0.00
expand: MAIN (0, 0) FAR  w(0) 5556. F 0.00
expand: MAIN (1, 0) FAR  w(0) 3101. F 0.00
expand: query!0 (2, 0) FAR  w(0) 1. F 0.00
(spacer::context::check_reachability :time 0.02 :before-memory 5.71 :after-memory 6.04)
Propagating: 0 1 2  ! 3 
(spacer::context::propagate :time 0.00 :before-memory 6.04 :after-memory 6.04)
Entering level 3
BRUNCH_STAT max_query_lvl 2
BRUNCH_STAT num_queries 17
BRUNCH_STAT num_reach_queries 0
BRUNCH_STAT num_reach_reuse 0
BRUNCH_STAT inductive_lvl 0
BRUNCH_STAT max_depth 3
BRUNCH_STAT cex_depth 0
expand: query!0 (3, 0) FAR  w(0) 1.
	create_child: MAIN (2, 3) FAR 3101 U 0.00
expand: MAIN (2, 0) FAR  w(0) 3101.
	create_child: MAIN (1, 3) FAR 6230 U 0.00
expand: MAIN (1, 0) FAR  w(0) 6230. F 0.00
expand: MAIN (2, 0) FAR  w(0) 3101.
	create_child: MAIN (1, 3) FAR 6528 U 0.00
expand: MAIN (1, 0) FAR  w(0) 6528. F 0.00
expand: MAIN (2, 0) FAR  w(0) 3101.
	create_child: MAIN (1, 3) FAR 6634 U 0.00
expand: MAIN (1, 0) FAR  w(0) 6634.
	create_child: MAIN (0, 3) FAR 6612 U 0.00
expand: MAIN (0, 0) FAR  w(0) 6612. F 0.00
expand: MAIN (1, 0) FAR  w(0) 6634.
	create_child: MAIN (0, 3) FAR 6651 U 0.00
expand: MAIN (0, 0) FAR  w(0) 6651. F 0.00
expand: MAIN (1, 0) FAR  w(0) 6634.
	create_child: MAIN (0, 3) FAR 6782 U 0.00
expand: MAIN (0, 0) FAR  w(0) 6782. F 0.00
expand: MAIN (1, 0) FAR  w(0) 6634. F 0.00
expand: MAIN (2, 0) FAR  w(0) 3101.
	create_child: MAIN (1, 3) FAR 7230 U 0.00
expand: MAIN (1, 0) FAR  w(0) 7230. F 0.00
expand: MAIN (2, 0) FAR  w(0) 3101.
	create_child: MAIN (1, 3) FAR 7456 U 0.00
expand: MAIN (1, 0) FAR  w(0) 7456. F 0.00
expand: MAIN (2, 0) FAR  w(0) 3101. F 0.00
expand: query!0 (3, 0) FAR  w(0) 1. F 0.00
(spacer::context::check_reachability :time 0.02 :before-memory 6.04 :after-memory 6.14)
Propagating: 0 1 2 3  ! 4 
(spacer::context::propagate :time 0.00 :before-memory 6.14 :after-memory 6.24)
Entering level 4
BRUNCH_STAT max_query_lvl 3
BRUNCH_STAT num_queries 26
BRUNCH_STAT num_reach_queries 0
BRUNCH_STAT num_reach_reuse 0
BRUNCH_STAT inductive_lvl 0
BRUNCH_STAT max_depth 4
BRUNCH_STAT cex_depth 0
expand: query!0 (4, 0) FAR  w(0) 1.
	create_child: MAIN (3, 4) FAR 3101 U 0.00
expand: MAIN (3, 0) FAR  w(0) 3101.
	create_child: MAIN (2, 4) FAR 7800 U 0.00
expand: MAIN (2, 0) FAR  w(0) 7800.
	create_child: MAIN (1, 4) FAR 8370 U 0.00
expand: MAIN (1, 0) FAR  w(0) 8370. F 0.00
expand: MAIN (2, 0) FAR  w(0) 7800.
	create_child: MAIN (1, 4) FAR 8533 U 0.00
expand: MAIN (1, 0) FAR  w(0) 8533. F 0.00
expand: MAIN (2, 0) FAR  w(0) 7800. F 0.00
expand: MAIN (3, 0) FAR  w(0) 3101.
	create_child: MAIN (2, 4) FAR 8943 U 0.00
expand: MAIN (2, 0) FAR  w(0) 8943. F 0.00
expand: MAIN (3, 0) FAR  w(0) 3101. F 0.00
expand: query!0 (4, 0) FAR  w(0) 1. F 0.00
(spacer::context::check_reachability :time 0.01 :before-memory 6.24 :after-memory 6.33)
Propagating: 1 2 3 4  ! 5 
(spacer::context::propagate :time 0.00 :before-memory 6.33 :after-memory 6.33)
Entering level 5
BRUNCH_STAT max_query_lvl 4
BRUNCH_STAT num_queries 31
BRUNCH_STAT num_reach_queries 0
BRUNCH_STAT num_reach_reuse 0
BRUNCH_STAT inductive_lvl 0
BRUNCH_STAT max_depth 5
BRUNCH_STAT cex_depth 0
expand: query!0 (5, 0) FAR  w(0) 1.
	create_child: MAIN (4, 5) FAR 3101 U 0.00
expand: MAIN (4, 0) FAR  w(0) 3101.
	create_child: MAIN (3, 5) FAR 9339 U 0.00
expand: MAIN (3, 0) FAR  w(0) 9339.
	create_child: MAIN (2, 5) FAR 9324 U 0.00
expand: MAIN (2, 0) FAR  w(0) 9324. F 0.00
expand: MAIN (3, 0) FAR  w(0) 9339. F 0.00
expand: MAIN (4, 0) FAR  w(0) 3101.
	create_child: MAIN (3, 5) FAR 8943 U 0.00
expand: MAIN (3, 0) FAR  w(0) 8943.
	create_child: MAIN (2, 5) FAR 10177 U 0.00
expand: MAIN (2, 0) FAR  w(0) 10177. F 0.00
expand: MAIN (3, 0) FAR  w(0) 8943. F 0.00
expand: MAIN (4, 0) FAR  w(0) 3101. F 0.00
expand: query!0 (5, 0) FAR  w(0) 1. F 0.00
(spacer::context::check_reachability :time 0.01 :before-memory 6.33 :after-memory 6.43)
Propagating: 2 
(spacer::context::propagate :time 0.00 :before-memory 6.43 :after-memory 6.43)
(define-fun MAIN ((x!0 Bool)
 (x!1 Bool)
 (x!2 Bool)
 (x!3 Bool)
 (x!4 Bool)
 (x!5 Bool)
 (x!6 Bool)
 (x!7 Bool)
 (x!8 Bool)
 (x!9 Bool)
 (x!10 Bool)
 (x!11 Bool)
 (x!12 Bool)
 (x!13 Bool)
 (x!14 Bool)
 (x!15 Bool)
 (x!16 Bool)
 (x!17 Bool)
 (x!18 Bool)
 (x!19 Bool)
 (x!20 Bool)
 (x!21 Bool)
 (x!22 Bool)
 (x!23 Bool)
 (x!24 Bool)
 (x!25 Bool)
 (x!26 Bool)) Bool
  (and (or (not x!0) x!20 (not x!7) x!18 (not x!16))
       (not x!25)
       (not x!4)
       (not x!12)
       (not x!6)
       (not x!21)
       (not x!13)
       (not x!8)
       (not x!19)
       (not x!15)
       (not x!23)
       (not x!2)
       (not x!10)
       x!26
       (not x!17)
       (or x!22 (not x!5))
       (or (not x!0) (not x!9) (not x!22))
       (or (not x!24) x!14)
       (or x!3 (not x!24))
       (or (not x!9) (not x!1))
       (or (not x!3) (not x!7))
       (or x!18 (not x!1) x!14 (not x!16))
       (or x!18 (not x!1) (not x!0) (not x!16))
       (or x!20 x!14 (not x!16) x!18)))
BRUNCH_STAT max_query_lvl 5
BRUNCH_STAT num_queries 36
BRUNCH_STAT num_reach_queries 0
BRUNCH_STAT num_reach_reuse 0
BRUNCH_STAT inductive_lvl 2
BRUNCH_STAT max_depth 5
BRUNCH_STAT cex_depth 0
(:SPACER-inductive-level               2
 :SPACER-max-depth                     5
 :SPACER-max-query-lvl                 5
 :SPACER-num-invariants                26
 :SPACER-num-lemmas                    42
 :SPACER-num-properties                30
 :SPACER-num-queries                   36
 :bool-inductive-gen                   36
 :bool-inductive-gen-failures          73
 :conflicts                            155
 :decisions                            3739
 :final-checks                         109
 :minimized-lits                       33
 :mk-bool-var                          794
 :mk-clause                            879
 :num-checks                           229
 :propagations                         29949
 :time.itp_solver.itp_core             0.01
 :time.spacer.init_rules               0.00
 :time.spacer.init_rules.pt.init       0.00
 :time.spacer.solve                    0.07
 :time.spacer.solve.propagate          0.01
 :time.spacer.solve.reach              0.06
 :time.spacer.solve.reach.children     0.01
 :time.spacer.solve.reach.gen.bool_ind 0.01
 :time.virtual_solver.proof            0.00
 :time.virtual_solver.smt.total        0.04
 :time.virtual_solver.smt.total.sat    0.02
 :virtual_solver.checks                229
 :virtual_solver.checks.sat            109)
BRUNCH_STAT max_query_lvl 5
BRUNCH_STAT num_queries 36
BRUNCH_STAT num_reach_queries 0
BRUNCH_STAT num_reach_reuse 0
BRUNCH_STAT inductive_lvl 2
BRUNCH_STAT max_depth 5
BRUNCH_STAT cex_depth 0

real	0m0.110s
user	0m0.104s
sys	0m0.004s
