(transform N7datalog13mk_coi_filterE...no-op 0s)
(transform N7datalog25mk_interp_tail_simplifierE...11 rules 0s)
(transform N7datalog27mk_quantifier_instantiationE...no-op 0s)
(transform N7datalog8mk_scaleE...no-op 0s)
(transform N7datalog18mk_karr_invariantsE...no-op 0s)
(transform N7datalog14mk_array_blastE...no-op 0s)
(transform N7datalog22mk_subsumption_checkerE...10 rules 0s)
(transform N7datalog12mk_bit_blastE...no-op 0s)
(transform N7datalog15mk_rule_inlinerE...3 rules 0s)
(transform N7datalog13mk_coi_filterE...no-op 0s)
(transform N7datalog25mk_interp_tail_simplifierE...3 rules 0s)
(transform N7datalog22mk_subsumption_checkerE...no-op 0s)
(transform N7datalog15mk_rule_inlinerE...no-op 0s)
(transform N7datalog13mk_coi_filterE...no-op 0s)
(transform N7datalog25mk_interp_tail_simplifierE...3 rules 0s)
(transform N7datalog22mk_subsumption_checkerE...no-op 0s)
(transform N7datalog15mk_rule_inlinerE...no-op 0s)
(transform N7datalog22mk_subsumption_checkerE...no-op 0s)
(transform N7datalog15mk_rule_inlinerE...no-op 0s)
(transform N7datalog22mk_subsumption_checkerE...no-op 0s)
(transform N7datalog15mk_rule_inlinerE...no-op 0s)
(transform N7datalog22mk_subsumption_checkerE...no-op 0s)
(transform N7datalog8mk_sliceE...no-op 0s)
expand: query!0 (0, 0) FAR  w(0) 1. F 0.00
(spacer::context::check_reachability :time 0.00 :before-memory 4.18 :after-memory 4.59)
Entering level 1
BRUNCH_STAT max_query_lvl 0
BRUNCH_STAT num_queries 0
BRUNCH_STAT num_reach_queries 0
BRUNCH_STAT num_reach_reuse 0
BRUNCH_STAT inductive_lvl 0
BRUNCH_STAT max_depth 1
BRUNCH_STAT cex_depth 0
expand: query!0 (1, 0) FAR  w(0) 1.
	create_child: MAIN (0, 1) FAR 672 U 0.00
expand: MAIN (0, 0) FAR  w(0) 672. F 0.00
expand: query!0 (1, 0) FAR  w(0) 1. F 0.00
(spacer::context::check_reachability :time 0.00 :before-memory 4.59 :after-memory 5.05)
Propagating: 0 1  ! 2 
(spacer::context::propagate :time 0.00 :before-memory 5.05 :after-memory 5.05)
Entering level 2
BRUNCH_STAT max_query_lvl 1
BRUNCH_STAT num_queries 1
BRUNCH_STAT num_reach_queries 0
BRUNCH_STAT num_reach_reuse 0
BRUNCH_STAT inductive_lvl 0
BRUNCH_STAT max_depth 2
BRUNCH_STAT cex_depth 0
expand: query!0 (2, 0) FAR  w(0) 1.
	create_child: MAIN (1, 2) FAR 672 U 0.00
expand: MAIN (1, 0) FAR  w(0) 672.
	create_child: MAIN (0, 2) FAR 1219 U 0.00
expand: MAIN (0, 0) FAR  w(0) 1219. F 0.00
expand: MAIN (1, 0) FAR  w(0) 672.
	create_child: MAIN (0, 2) FAR 1305 U 0.00
expand: MAIN (0, 0) FAR  w(0) 1305. F 0.00
expand: MAIN (1, 0) FAR  w(0) 672.
	create_child: MAIN (0, 2) FAR 1351 U 0.00
expand: MAIN (0, 0) FAR  w(0) 1351. F 0.00
expand: MAIN (1, 0) FAR  w(0) 672.
	create_child: MAIN (0, 2) FAR 1394 U 0.00
expand: MAIN (0, 0) FAR  w(0) 1394. F 0.00
expand: MAIN (1, 0) FAR  w(0) 672. F 0.00
expand: query!0 (2, 0) FAR  w(0) 1. F 0.00
(spacer::context::check_reachability :time 0.01 :before-memory 5.05 :after-memory 5.14)
Propagating: 0 1 2  ! 3 
(spacer::context::propagate :time 0.00 :before-memory 5.14 :after-memory 5.24)
Entering level 3
BRUNCH_STAT max_query_lvl 2
BRUNCH_STAT num_queries 6
BRUNCH_STAT num_reach_queries 0
BRUNCH_STAT num_reach_reuse 0
BRUNCH_STAT inductive_lvl 0
BRUNCH_STAT max_depth 3
BRUNCH_STAT cex_depth 0
expand: query!0 (3, 0) FAR  w(0) 1.
	create_child: MAIN (2, 3) FAR 672 U 0.00
expand: MAIN (2, 0) FAR  w(0) 672.
	create_child: MAIN (1, 3) FAR 1305 U 0.00
expand: MAIN (1, 0) FAR  w(0) 1305. T 0.00
is-reachable: MAIN (2, 0) FAR 672 T 0.00
is-reachable: query!0 (3, 0) FAR 1 T 0.00
(spacer::context::check_reachability :time 0.00 :before-memory 5.24 :after-memory 5.24)
BRUNCH_STAT max_query_lvl 3
BRUNCH_STAT num_queries 8
BRUNCH_STAT num_reach_queries 3
BRUNCH_STAT num_reach_reuse 1
BRUNCH_STAT inductive_lvl 0
BRUNCH_STAT max_depth 3
BRUNCH_STAT cex_depth 3
(:SPACER-cex-depth                     3
 :SPACER-max-depth                     3
 :SPACER-max-query-lvl                 3
 :SPACER-num-invariants                2
 :SPACER-num-lemmas                    9
 :SPACER-num-properties                6
 :SPACER-num-queries                   8
 :SPACER-num-reach-queries             3
 :SPACER-num-reuse-reach-facts         1
 :added-eqs                            101
 :arith-assert-diseq                   33
 :arith-assert-lower                   17
 :arith-assert-upper                   70
 :arith-bound-prop                     2
 :arith-conflicts                      1
 :arith-eq-adapter                     43
 :arith-fixed-eqs                      5
 :arith-offset-eqs                     1
 :arith-pivots                         5
 :bool-inductive-gen                   6
 :bool-inductive-gen-failures          5
 :conflicts                            39
 :decisions                            135
 :del-clause                           34
 :final-checks                         18
 :minimized-lits                       1
 :mk-bool-var                          240
 :mk-clause                            247
 :num-checks                           44
 :propagations                         1183
 :time.itp_solver.itp_core             0.00
 :time.spacer.init_rules               0.00
 :time.spacer.init_rules.pt.init       0.00
 :time.spacer.solve                    0.01
 :time.spacer.solve.propagate          0.00
 :time.spacer.solve.reach              0.01
 :time.spacer.solve.reach.children     0.00
 :time.spacer.solve.reach.gen.bool_ind 0.00
 :time.spacer.solve.reach.is-reach     0.00
 :time.virtual_solver.proof            0.00
 :time.virtual_solver.smt.total        0.01
 :time.virtual_solver.smt.total.sat    0.00
 :virtual_solver.checks                44
 :virtual_solver.checks.sat            18)
BRUNCH_STAT max_query_lvl 3
BRUNCH_STAT num_queries 8
BRUNCH_STAT num_reach_queries 3
BRUNCH_STAT num_reach_reuse 1
BRUNCH_STAT inductive_lvl 0
BRUNCH_STAT max_depth 3
BRUNCH_STAT cex_depth 3

real	0m0.030s
user	0m0.020s
sys	0m0.008s
