(transform N7datalog13mk_coi_filterE...no-op 0s)
(transform N7datalog25mk_interp_tail_simplifierE...12 rules 0s)
(transform N7datalog27mk_quantifier_instantiationE...no-op 0s)
(transform N7datalog8mk_scaleE...no-op 0s)
(transform N7datalog18mk_karr_invariantsE...no-op 0s)
(transform N7datalog14mk_array_blastE...no-op 0s)
(transform N7datalog22mk_subsumption_checkerE...11 rules 0s)
(transform N7datalog12mk_bit_blastE...no-op 0s)
(transform N7datalog15mk_rule_inlinerE...3 rules 0.00164193s)
(transform N7datalog13mk_coi_filterE...no-op 0s)
(transform N7datalog25mk_interp_tail_simplifierE...3 rules 0s)
(transform N7datalog22mk_subsumption_checkerE...no-op 0s)
(transform N7datalog15mk_rule_inlinerE...no-op 0s)
(transform N7datalog13mk_coi_filterE...no-op 0s)
(transform N7datalog25mk_interp_tail_simplifierE...3 rules 0s)
(transform N7datalog22mk_subsumption_checkerE...no-op 0s)
(transform N7datalog15mk_rule_inlinerE...no-op 0s)
(transform N7datalog22mk_subsumption_checkerE...no-op 0s)
(transform N7datalog15mk_rule_inlinerE...no-op 0s)
(transform N7datalog22mk_subsumption_checkerE...no-op 0s)
(transform N7datalog15mk_rule_inlinerE...no-op 0s)
(transform N7datalog22mk_subsumption_checkerE...no-op 0s)
(transform N7datalog8mk_sliceE...no-op 0s)
expand: query!0 (0, 0) FAR  w(0) 1. F 0.00
(spacer::context::check_reachability :time 0.00 :before-memory 4.21 :after-memory 4.73)
Entering level 1
BRUNCH_STAT max_query_lvl 0
BRUNCH_STAT num_queries 0
BRUNCH_STAT num_reach_queries 0
BRUNCH_STAT num_reach_reuse 0
BRUNCH_STAT inductive_lvl 0
BRUNCH_STAT max_depth 1
BRUNCH_STAT cex_depth 0
expand: query!0 (1, 0) FAR  w(0) 1.
	create_child: MAIN (0, 1) FAR 1349 U 0.00
expand: MAIN (0, 0) FAR  w(0) 1349. F 0.00
expand: query!0 (1, 0) FAR  w(0) 1. F 0.00
(spacer::context::check_reachability :time 0.00 :before-memory 4.73 :after-memory 5.32)
Propagating: 0 1  ! 2 
(spacer::context::propagate :time 0.00 :before-memory 5.32 :after-memory 5.32)
Entering level 2
BRUNCH_STAT max_query_lvl 1
BRUNCH_STAT num_queries 1
BRUNCH_STAT num_reach_queries 0
BRUNCH_STAT num_reach_reuse 0
BRUNCH_STAT inductive_lvl 0
BRUNCH_STAT max_depth 2
BRUNCH_STAT cex_depth 0
expand: query!0 (2, 0) FAR  w(0) 1.
	create_child: MAIN (1, 2) FAR 1349 U 0.00
expand: MAIN (1, 0) FAR  w(0) 1349.
	create_child: MAIN (0, 2) FAR 2321 U 0.00
expand: MAIN (0, 0) FAR  w(0) 2321. F 0.00
expand: MAIN (1, 0) FAR  w(0) 1349.
	create_child: MAIN (0, 2) FAR 2415 U 0.00
expand: MAIN (0, 0) FAR  w(0) 2415. F 0.00
expand: MAIN (1, 0) FAR  w(0) 1349. F 0.00
expand: query!0 (2, 0) FAR  w(0) 1. F 0.00
(spacer::context::check_reachability :time 0.00 :before-memory 5.32 :after-memory 5.42)
Propagating: 0 1 2  ! 3 
(spacer::context::propagate :time 0.00 :before-memory 5.42 :after-memory 5.42)
Entering level 3
BRUNCH_STAT max_query_lvl 2
BRUNCH_STAT num_queries 4
BRUNCH_STAT num_reach_queries 0
BRUNCH_STAT num_reach_reuse 0
BRUNCH_STAT inductive_lvl 0
BRUNCH_STAT max_depth 3
BRUNCH_STAT cex_depth 0
expand: query!0 (3, 0) FAR  w(0) 1.
	create_child: MAIN (2, 3) FAR 1349 U 0.00
expand: MAIN (2, 0) FAR  w(0) 1349.
	create_child: MAIN (1, 3) FAR 2705 U 0.00
expand: MAIN (1, 0) FAR  w(0) 2705. F 0.00
expand: MAIN (2, 0) FAR  w(0) 1349.
	create_child: MAIN (1, 3) FAR 2805 U 0.00
expand: MAIN (1, 0) FAR  w(0) 2805. F 0.00
expand: MAIN (2, 0) FAR  w(0) 1349.
	create_child: MAIN (1, 3) FAR 2898 U 0.00
expand: MAIN (1, 0) FAR  w(0) 2898.
	create_child: MAIN (0, 3) FAR 2877 U 0.00
expand: MAIN (0, 0) FAR  w(0) 2877. F 0.00
expand: MAIN (1, 0) FAR  w(0) 2898.
	create_child: MAIN (0, 3) FAR 2873 U 0.00
expand: MAIN (0, 0) FAR  w(0) 2873. F 0.00
expand: MAIN (1, 0) FAR  w(0) 2898. F 0.00
expand: MAIN (2, 0) FAR  w(0) 1349. F 0.00
expand: query!0 (3, 0) FAR  w(0) 1. F 0.00
(spacer::context::check_reachability :time 0.01 :before-memory 5.42 :after-memory 5.60)
Propagating: 0 1 2 3  ! 4 
(spacer::context::propagate :time 0.00 :before-memory 5.60 :after-memory 5.60)
Entering level 4
BRUNCH_STAT max_query_lvl 3
BRUNCH_STAT num_queries 10
BRUNCH_STAT num_reach_queries 0
BRUNCH_STAT num_reach_reuse 0
BRUNCH_STAT inductive_lvl 0
BRUNCH_STAT max_depth 4
BRUNCH_STAT cex_depth 0
expand: query!0 (4, 0) FAR  w(0) 1.
	create_child: MAIN (3, 4) FAR 1349 U 0.00
expand: MAIN (3, 0) FAR  w(0) 1349.
	create_child: MAIN (2, 4) FAR 2898 U 0.00
expand: MAIN (2, 0) FAR  w(0) 2898.
	create_child: MAIN (1, 4) FAR 2873 U 0.00
expand: MAIN (1, 0) FAR  w(0) 2873.
	create_child: MAIN (0, 4) FAR 3445 U 0.00
expand: MAIN (0, 0) FAR  w(0) 3445. F 0.00
expand: MAIN (1, 0) FAR  w(0) 2873. F 0.00
expand: MAIN (2, 0) FAR  w(0) 2898. F 0.00
expand: MAIN (3, 0) FAR  w(0) 1349. F 0.00
expand: query!0 (4, 0) FAR  w(0) 1. F 0.00
(spacer::context::check_reachability :time 0.01 :before-memory 5.60 :after-memory 5.60)
Propagating: 0 1 2 3 4  ! 5 
(spacer::context::propagate :time 0.00 :before-memory 5.60 :after-memory 5.60)
Entering level 5
BRUNCH_STAT max_query_lvl 4
BRUNCH_STAT num_queries 14
BRUNCH_STAT num_reach_queries 0
BRUNCH_STAT num_reach_reuse 0
BRUNCH_STAT inductive_lvl 0
BRUNCH_STAT max_depth 5
BRUNCH_STAT cex_depth 0
expand: query!0 (5, 0) FAR  w(0) 1.
	create_child: MAIN (4, 5) FAR 1349 U 0.00
expand: MAIN (4, 0) FAR  w(0) 1349.
	create_child: MAIN (3, 5) FAR 3767 U 0.00
expand: MAIN (3, 0) FAR  w(0) 3767. F 0.00
expand: MAIN (4, 0) FAR  w(0) 1349.
	create_child: MAIN (3, 5) FAR 2898 U 0.00
expand: MAIN (3, 0) FAR  w(0) 2898.
	create_child: MAIN (2, 5) FAR 2873 U 0.00
expand: MAIN (2, 0) FAR  w(0) 2873.
	create_child: MAIN (1, 5) FAR 3445 U 0.00
expand: MAIN (1, 0) FAR  w(0) 3445.
	create_child: MAIN (0, 5) FAR 3919 U 0.00
expand: MAIN (0, 0) FAR  w(0) 3919. F 0.00
expand: MAIN (1, 0) FAR  w(0) 3445. F 0.00
expand: MAIN (2, 0) FAR  w(0) 2873. F 0.00
expand: MAIN (3, 0) FAR  w(0) 2898. F 0.00
expand: MAIN (4, 0) FAR  w(0) 1349. F 0.00
expand: query!0 (5, 0) FAR  w(0) 1. F 0.00
(spacer::context::check_reachability :time 0.01 :before-memory 5.60 :after-memory 5.70)
Propagating: 0 1 2 3 4 5  ! 6 
(spacer::context::propagate :time 0.00 :before-memory 5.70 :after-memory 5.70)
Entering level 6
BRUNCH_STAT max_query_lvl 5
BRUNCH_STAT num_queries 20
BRUNCH_STAT num_reach_queries 0
BRUNCH_STAT num_reach_reuse 0
BRUNCH_STAT inductive_lvl 0
BRUNCH_STAT max_depth 6
BRUNCH_STAT cex_depth 0
expand: query!0 (6, 0) FAR  w(0) 1.
	create_child: MAIN (5, 6) FAR 1349 U 0.00
expand: MAIN (5, 0) FAR  w(0) 1349.
	create_child: MAIN (4, 6) FAR 2898 U 0.00
expand: MAIN (4, 0) FAR  w(0) 2898.
	create_child: MAIN (3, 6) FAR 2873 U 0.00
expand: MAIN (3, 0) FAR  w(0) 2873.
	create_child: MAIN (2, 6) FAR 3445 U 0.00
expand: MAIN (2, 0) FAR  w(0) 3445.
	create_child: MAIN (1, 6) FAR 3919 U 0.00
expand: MAIN (1, 0) FAR  w(0) 3919.
	create_child: MAIN (0, 6) FAR 4474 U 0.00
expand: MAIN (0, 0) FAR  w(0) 4474. F 0.00
expand: MAIN (1, 0) FAR  w(0) 3919. F 0.00
expand: MAIN (2, 0) FAR  w(0) 3445. F 0.00
expand: MAIN (3, 0) FAR  w(0) 2873. F 0.00
expand: MAIN (4, 0) FAR  w(0) 2898. F 0.00
expand: MAIN (5, 0) FAR  w(0) 1349. F 0.00
expand: query!0 (6, 0) FAR  w(0) 1. F 0.00
(spacer::context::check_reachability :time 0.01 :before-memory 5.70 :after-memory 5.79)
Propagating: 0 1 2 3 4 5 6  ! 7 
(spacer::context::propagate :time 0.00 :before-memory 5.79 :after-memory 5.79)
Entering level 7
BRUNCH_STAT max_query_lvl 6
BRUNCH_STAT num_queries 26
BRUNCH_STAT num_reach_queries 0
BRUNCH_STAT num_reach_reuse 0
BRUNCH_STAT inductive_lvl 0
BRUNCH_STAT max_depth 7
BRUNCH_STAT cex_depth 0
expand: query!0 (7, 0) FAR  w(0) 1.
	create_child: MAIN (6, 7) FAR 1349 U 0.00
expand: MAIN (6, 0) FAR  w(0) 1349.
	create_child: MAIN (5, 7) FAR 2898 U 0.00
expand: MAIN (5, 0) FAR  w(0) 2898.
	create_child: MAIN (4, 7) FAR 2873 U 0.00
expand: MAIN (4, 0) FAR  w(0) 2873.
	create_child: MAIN (3, 7) FAR 3445 U 0.00
expand: MAIN (3, 0) FAR  w(0) 3445.
	create_child: MAIN (2, 7) FAR 3919 U 0.00
expand: MAIN (2, 0) FAR  w(0) 3919.
	create_child: MAIN (1, 7) FAR 4474 U 0.00
expand: MAIN (1, 0) FAR  w(0) 4474. F 0.00
expand: MAIN (2, 0) FAR  w(0) 3919.
	create_child: MAIN (1, 7) FAR 5489 U 0.00
expand: MAIN (1, 0) FAR  w(0) 5489.
	create_child: MAIN (0, 7) FAR 5506 U 0.00
expand: MAIN (0, 0) FAR  w(0) 5506. F 0.00
expand: MAIN (1, 0) FAR  w(0) 5489. F 0.00
expand: MAIN (2, 0) FAR  w(0) 3919. F 0.00
expand: MAIN (3, 0) FAR  w(0) 3445.
	create_child: MAIN (2, 7) FAR 5657 U 0.00
expand: MAIN (2, 0) FAR  w(0) 5657. F 0.00
expand: MAIN (3, 0) FAR  w(0) 3445. F 0.00
expand: MAIN (4, 0) FAR  w(0) 2873. F 0.00
expand: MAIN (5, 0) FAR  w(0) 2898. F 0.00
expand: MAIN (6, 0) FAR  w(0) 1349. F 0.00
expand: query!0 (7, 0) FAR  w(0) 1. F 0.00
(spacer::context::check_reachability :time 0.02 :before-memory 5.79 :after-memory 6.00)
Propagating: 0 1 2 3 4 5 6 7  ! 8 
(spacer::context::propagate :time 0.01 :before-memory 6.00 :after-memory 6.00)
Entering level 8
BRUNCH_STAT max_query_lvl 7
BRUNCH_STAT num_queries 35
BRUNCH_STAT num_reach_queries 0
BRUNCH_STAT num_reach_reuse 0
BRUNCH_STAT inductive_lvl 0
BRUNCH_STAT max_depth 8
BRUNCH_STAT cex_depth 0
expand: query!0 (8, 0) FAR  w(0) 1.
	create_child: MAIN (7, 8) FAR 1349 U 0.00
expand: MAIN (7, 0) FAR  w(0) 1349.
	create_child: MAIN (6, 8) FAR 6513 U 0.00
expand: MAIN (6, 0) FAR  w(0) 6513. F 0.00
expand: MAIN (7, 0) FAR  w(0) 1349.
	create_child: MAIN (6, 8) FAR 2898 U 0.00
expand: MAIN (6, 0) FAR  w(0) 2898.
	create_child: MAIN (5, 8) FAR 6737 U 0.00
expand: MAIN (5, 0) FAR  w(0) 6737.
	create_child: MAIN (4, 8) FAR 6780 U 0.00
expand: MAIN (4, 0) FAR  w(0) 6780.
	create_child: MAIN (3, 8) FAR 6801 U 0.00
expand: MAIN (3, 0) FAR  w(0) 6801.
	create_child: MAIN (2, 8) FAR 5489 U 0.00
expand: MAIN (2, 0) FAR  w(0) 5489.
	create_child: MAIN (1, 8) FAR 5506 U 0.00
expand: MAIN (1, 0) FAR  w(0) 5506. F 0.00
expand: MAIN (2, 0) FAR  w(0) 5489. F 0.00
expand: MAIN (3, 0) FAR  w(0) 6801. F 0.00
expand: MAIN (4, 0) FAR  w(0) 6780. F 0.00
expand: MAIN (5, 0) FAR  w(0) 6737. F 0.00
expand: MAIN (6, 0) FAR  w(0) 2898.
	create_child: MAIN (5, 8) FAR 2873 U 0.00
expand: MAIN (5, 0) FAR  w(0) 2873.
	create_child: MAIN (4, 8) FAR 3445 U 0.00
expand: MAIN (4, 0) FAR  w(0) 3445.
	create_child: MAIN (3, 8) FAR 5657 U 0.00
expand: MAIN (3, 0) FAR  w(0) 5657. F 0.00
expand: MAIN (4, 0) FAR  w(0) 3445. F 0.00
expand: MAIN (5, 0) FAR  w(0) 2873. F 0.00
expand: MAIN (6, 0) FAR  w(0) 2898. F 0.00
expand: MAIN (7, 0) FAR  w(0) 1349. F 0.00
expand: query!0 (8, 0) FAR  w(0) 1. F 0.00
(spacer::context::check_reachability :time 0.02 :before-memory 6.00 :after-memory 6.19)
Propagating: 1 2 3 4 5 6 7 8  ! 9 
(spacer::context::propagate :time 0.00 :before-memory 6.19 :after-memory 6.19)
Entering level 9
BRUNCH_STAT max_query_lvl 8
BRUNCH_STAT num_queries 46
BRUNCH_STAT num_reach_queries 0
BRUNCH_STAT num_reach_reuse 0
BRUNCH_STAT inductive_lvl 0
BRUNCH_STAT max_depth 9
BRUNCH_STAT cex_depth 0
expand: query!0 (9, 0) FAR  w(0) 1.
	create_child: MAIN (8, 9) FAR 1349 U 0.00
expand: MAIN (8, 0) FAR  w(0) 1349.
	create_child: MAIN (7, 9) FAR 2898 U 0.00
expand: MAIN (7, 0) FAR  w(0) 2898.
	create_child: MAIN (6, 9) FAR 6737 U 0.00
expand: MAIN (6, 0) FAR  w(0) 6737.
	create_child: MAIN (5, 9) FAR 6780 U 0.00
expand: MAIN (5, 0) FAR  w(0) 6780.
	create_child: MAIN (4, 9) FAR 6801 U 0.00
expand: MAIN (4, 0) FAR  w(0) 6801.
	create_child: MAIN (3, 9) FAR 5489 U 0.00
expand: MAIN (3, 0) FAR  w(0) 5489.
	create_child: MAIN (2, 9) FAR 5506 U 0.00
expand: MAIN (2, 0) FAR  w(0) 5506.
	create_child: MAIN (1, 9) FAR 8018 U 0.00
expand: MAIN (1, 0) FAR  w(0) 8018. F 0.00
expand: MAIN (2, 0) FAR  w(0) 5506. F 0.00
expand: MAIN (3, 0) FAR  w(0) 5489. F 0.00
expand: MAIN (4, 0) FAR  w(0) 6801. F 0.00
expand: MAIN (5, 0) FAR  w(0) 6780. F 0.00
expand: MAIN (6, 0) FAR  w(0) 6737. F 0.00
expand: MAIN (7, 0) FAR  w(0) 2898.
	create_child: MAIN (6, 9) FAR 2873 U 0.00
expand: MAIN (6, 0) FAR  w(0) 2873.
	create_child: MAIN (5, 9) FAR 3445 U 0.00
expand: MAIN (5, 0) FAR  w(0) 3445.
	create_child: MAIN (4, 9) FAR 5657 U 0.00
expand: MAIN (4, 0) FAR  w(0) 5657. F 0.00
expand: MAIN (5, 0) FAR  w(0) 3445. F 0.00
expand: MAIN (6, 0) FAR  w(0) 2873. F 0.00
expand: MAIN (7, 0) FAR  w(0) 2898. F 0.00
expand: MAIN (8, 0) FAR  w(0) 1349. F 0.00
expand: query!0 (9, 0) FAR  w(0) 1. F 0.00
(spacer::context::check_reachability :time 0.03 :before-memory 6.19 :after-memory 6.29)
Propagating: 1 2 3 4 5 6 7 8 9  ! 10 
(spacer::context::propagate :time 0.01 :before-memory 6.29 :after-memory 6.29)
Entering level 10
BRUNCH_STAT max_query_lvl 9
BRUNCH_STAT num_queries 57
BRUNCH_STAT num_reach_queries 0
BRUNCH_STAT num_reach_reuse 0
BRUNCH_STAT inductive_lvl 0
BRUNCH_STAT max_depth 10
BRUNCH_STAT cex_depth 0
expand: query!0 (10, 0) FAR  w(0) 1.
	create_child: MAIN (9, 10) FAR 1349 U 0.00
expand: MAIN (9, 0) FAR  w(0) 1349.
	create_child: MAIN (8, 10) FAR 2898 U 0.00
expand: MAIN (8, 0) FAR  w(0) 2898.
	create_child: MAIN (7, 10) FAR 6737 U 0.00
expand: MAIN (7, 0) FAR  w(0) 6737.
	create_child: MAIN (6, 10) FAR 6780 U 0.00
expand: MAIN (6, 0) FAR  w(0) 6780.
	create_child: MAIN (5, 10) FAR 6801 U 0.00
expand: MAIN (5, 0) FAR  w(0) 6801.
	create_child: MAIN (4, 10) FAR 5489 U 0.00
expand: MAIN (4, 0) FAR  w(0) 5489.
	create_child: MAIN (3, 10) FAR 5506 U 0.00
expand: MAIN (3, 0) FAR  w(0) 5506.
	create_child: MAIN (2, 10) FAR 8018 U 0.00
expand: MAIN (2, 0) FAR  w(0) 8018. F 0.00
expand: MAIN (3, 0) FAR  w(0) 5506. F 0.00
expand: MAIN (4, 0) FAR  w(0) 5489. F 0.00
expand: MAIN (5, 0) FAR  w(0) 6801. F 0.00
expand: MAIN (6, 0) FAR  w(0) 6780. F 0.00
expand: MAIN (7, 0) FAR  w(0) 6737. F 0.00
expand: MAIN (8, 0) FAR  w(0) 2898.
	create_child: MAIN (7, 10) FAR 2873 U 0.00
expand: MAIN (7, 0) FAR  w(0) 2873.
	create_child: MAIN (6, 10) FAR 3445 U 0.00
expand: MAIN (6, 0) FAR  w(0) 3445.
	create_child: MAIN (5, 10) FAR 5657 U 0.00
expand: MAIN (5, 0) FAR  w(0) 5657. F 0.00
expand: MAIN (6, 0) FAR  w(0) 3445. F 0.00
expand: MAIN (7, 0) FAR  w(0) 2873. F 0.00
expand: MAIN (8, 0) FAR  w(0) 2898. F 0.00
expand: MAIN (9, 0) FAR  w(0) 1349. F 0.00
expand: query!0 (10, 0) FAR  w(0) 1. F 0.00
(spacer::context::check_reachability :time 0.03 :before-memory 6.29 :after-memory 6.49)
Propagating: 2 3 4 5 6 7 8 9 10  ! 11 
(spacer::context::propagate :time 0.01 :before-memory 6.49 :after-memory 6.49)
Entering level 11
BRUNCH_STAT max_query_lvl 10
BRUNCH_STAT num_queries 68
BRUNCH_STAT num_reach_queries 0
BRUNCH_STAT num_reach_reuse 0
BRUNCH_STAT inductive_lvl 0
BRUNCH_STAT max_depth 11
BRUNCH_STAT cex_depth 0
expand: query!0 (11, 0) FAR  w(0) 1.
	create_child: MAIN (10, 11) FAR 1349 U 0.00
expand: MAIN (10, 0) FAR  w(0) 1349.
	create_child: MAIN (9, 11) FAR 2898 U 0.00
expand: MAIN (9, 0) FAR  w(0) 2898.
	create_child: MAIN (8, 11) FAR 6737 U 0.00
expand: MAIN (8, 0) FAR  w(0) 6737.
	create_child: MAIN (7, 11) FAR 6780 U 0.00
expand: MAIN (7, 0) FAR  w(0) 6780.
	create_child: MAIN (6, 11) FAR 6801 U 0.00
expand: MAIN (6, 0) FAR  w(0) 6801.
	create_child: MAIN (5, 11) FAR 5489 U 0.00
expand: MAIN (5, 0) FAR  w(0) 5489.
	create_child: MAIN (4, 11) FAR 5506 U 0.00
expand: MAIN (4, 0) FAR  w(0) 5506.
	create_child: MAIN (3, 11) FAR 8018 U 0.00
expand: MAIN (3, 0) FAR  w(0) 8018.
	create_child: MAIN (2, 11) FAR 10393 U 0.00
expand: MAIN (2, 0) FAR  w(0) 10393.
	create_child: MAIN (1, 11) FAR 7992 U 0.00
expand: MAIN (1, 0) FAR  w(0) 7992. F 0.00
expand: MAIN (2, 0) FAR  w(0) 10393. F 0.00
expand: MAIN (3, 0) FAR  w(0) 8018. F 0.00
expand: MAIN (4, 0) FAR  w(0) 5506.
	create_child: MAIN (3, 11) FAR 10617 U 0.00
expand: MAIN (3, 0) FAR  w(0) 10617. F 0.00
expand: MAIN (4, 0) FAR  w(0) 5506. F 0.00
expand: MAIN (5, 0) FAR  w(0) 5489. F 0.00
expand: MAIN (6, 0) FAR  w(0) 6801. F 0.00
expand: MAIN (7, 0) FAR  w(0) 6780. F 0.00
expand: MAIN (8, 0) FAR  w(0) 6737. F 0.00
expand: MAIN (9, 0) FAR  w(0) 2898.
	create_child: MAIN (8, 11) FAR 2873 U 0.00
expand: MAIN (8, 0) FAR  w(0) 2873.
	create_child: MAIN (7, 11) FAR 3445 U 0.00
expand: MAIN (7, 0) FAR  w(0) 3445.
	create_child: MAIN (6, 11) FAR 5657 U 0.00
expand: MAIN (6, 0) FAR  w(0) 5657. F 0.00
expand: MAIN (7, 0) FAR  w(0) 3445. F 0.00
expand: MAIN (8, 0) FAR  w(0) 2873. F 0.00
expand: MAIN (9, 0) FAR  w(0) 2898. F 0.00
expand: MAIN (10, 0) FAR  w(0) 1349. F 0.00
expand: query!0 (11, 0) FAR  w(0) 1. F 0.00
(spacer::context::check_reachability :time 0.04 :before-memory 6.49 :after-memory 6.59)
Propagating: 1 2 3 4 5 6 7 8 9 10 11  ! 12 
(spacer::context::propagate :time 0.01 :before-memory 6.59 :after-memory 6.59)
Entering level 12
BRUNCH_STAT max_query_lvl 11
BRUNCH_STAT num_queries 82
BRUNCH_STAT num_reach_queries 0
BRUNCH_STAT num_reach_reuse 0
BRUNCH_STAT inductive_lvl 0
BRUNCH_STAT max_depth 12
BRUNCH_STAT cex_depth 0
expand: query!0 (12, 0) FAR  w(0) 1.
	create_child: MAIN (11, 12) FAR 1349 U 0.00
expand: MAIN (11, 0) FAR  w(0) 1349.
	create_child: MAIN (10, 12) FAR 2898 U 0.00
expand: MAIN (10, 0) FAR  w(0) 2898.
	create_child: MAIN (9, 12) FAR 2873 U 0.00
expand: MAIN (9, 0) FAR  w(0) 2873.
	create_child: MAIN (8, 12) FAR 3445 U 0.00
expand: MAIN (8, 0) FAR  w(0) 3445.
	create_child: MAIN (7, 12) FAR 3919 U 0.00
expand: MAIN (7, 0) FAR  w(0) 3919.
	create_child: MAIN (6, 12) FAR 5489 U 0.00
expand: MAIN (6, 0) FAR  w(0) 5489.
	create_child: MAIN (5, 12) FAR 5506 U 0.00
expand: MAIN (5, 0) FAR  w(0) 5506.
	create_child: MAIN (4, 12) FAR 8018 U 0.00
expand: MAIN (4, 0) FAR  w(0) 8018.
	create_child: MAIN (3, 12) FAR 10393 U 0.00
expand: MAIN (3, 0) FAR  w(0) 10393.
	create_child: MAIN (2, 12) FAR 7992 U 0.00
expand: MAIN (2, 0) FAR  w(0) 7992.
	create_child: MAIN (1, 12) FAR 11623 U 0.00
expand: MAIN (1, 0) FAR  w(0) 11623. F 0.00
expand: MAIN (2, 0) FAR  w(0) 7992. F 0.00
expand: MAIN (3, 0) FAR  w(0) 10393. F 0.00
expand: MAIN (4, 0) FAR  w(0) 8018. F 0.00
expand: MAIN (5, 0) FAR  w(0) 5506.
	create_child: MAIN (4, 12) FAR 10617 U 0.00
expand: MAIN (4, 0) FAR  w(0) 10617. F 0.00
expand: MAIN (5, 0) FAR  w(0) 5506. F 0.00
expand: MAIN (6, 0) FAR  w(0) 5489. F 0.00
expand: MAIN (7, 0) FAR  w(0) 3919. F 0.00
expand: MAIN (8, 0) FAR  w(0) 3445.
	create_child: MAIN (7, 12) FAR 5657 U 0.00
expand: MAIN (7, 0) FAR  w(0) 5657. F 0.00
expand: MAIN (8, 0) FAR  w(0) 3445. F 0.00
expand: MAIN (9, 0) FAR  w(0) 2873. F 0.00
expand: MAIN (10, 0) FAR  w(0) 2898. F 0.00
expand: MAIN (11, 0) FAR  w(0) 1349. F 0.00
expand: query!0 (12, 0) FAR  w(0) 1. F 0.00
(spacer::context::check_reachability :time 0.04 :before-memory 6.59 :after-memory 7.01)
Propagating: 1 2 3 4 5 6 7 8 9 10 11 12  ! 13 
(spacer::context::propagate :time 0.01 :before-memory 7.01 :after-memory 7.01)
Entering level 13
BRUNCH_STAT max_query_lvl 12
BRUNCH_STAT num_queries 95
BRUNCH_STAT num_reach_queries 0
BRUNCH_STAT num_reach_reuse 0
BRUNCH_STAT inductive_lvl 0
BRUNCH_STAT max_depth 13
BRUNCH_STAT cex_depth 0
expand: query!0 (13, 0) FAR  w(0) 1.
	create_child: MAIN (12, 13) FAR 1349 U 0.00
expand: MAIN (12, 0) FAR  w(0) 1349.
	create_child: MAIN (11, 13) FAR 2898 U 0.00
expand: MAIN (11, 0) FAR  w(0) 2898.
	create_child: MAIN (10, 13) FAR 2873 U 0.00
expand: MAIN (10, 0) FAR  w(0) 2873.
	create_child: MAIN (9, 13) FAR 3445 U 0.00
expand: MAIN (9, 0) FAR  w(0) 3445.
	create_child: MAIN (8, 13) FAR 3919 U 0.00
expand: MAIN (8, 0) FAR  w(0) 3919.
	create_child: MAIN (7, 13) FAR 5489 U 0.00
expand: MAIN (7, 0) FAR  w(0) 5489.
	create_child: MAIN (6, 13) FAR 5506 U 0.00
expand: MAIN (6, 0) FAR  w(0) 5506.
	create_child: MAIN (5, 13) FAR 8018 U 0.00
expand: MAIN (5, 0) FAR  w(0) 8018.
	create_child: MAIN (4, 13) FAR 10393 U 0.00
expand: MAIN (4, 0) FAR  w(0) 10393.
	create_child: MAIN (3, 13) FAR 7992 U 0.00
expand: MAIN (3, 0) FAR  w(0) 7992.
	create_child: MAIN (2, 13) FAR 11623 U 0.00
expand: MAIN (2, 0) FAR  w(0) 11623. F 0.00
expand: MAIN (3, 0) FAR  w(0) 7992. F 0.00
expand: MAIN (4, 0) FAR  w(0) 10393. F 0.00
expand: MAIN (5, 0) FAR  w(0) 8018. F 0.00
expand: MAIN (6, 0) FAR  w(0) 5506.
	create_child: MAIN (5, 13) FAR 10617 U 0.00
expand: MAIN (5, 0) FAR  w(0) 10617. F 0.00
expand: MAIN (6, 0) FAR  w(0) 5506. F 0.00
expand: MAIN (7, 0) FAR  w(0) 5489. F 0.00
expand: MAIN (8, 0) FAR  w(0) 3919. F 0.00
expand: MAIN (9, 0) FAR  w(0) 3445.
	create_child: MAIN (8, 13) FAR 5657 U 0.00
expand: MAIN (8, 0) FAR  w(0) 5657. F 0.00
expand: MAIN (9, 0) FAR  w(0) 3445. F 0.00
expand: MAIN (10, 0) FAR  w(0) 2873. F 0.00
expand: MAIN (11, 0) FAR  w(0) 2898. F 0.00
expand: MAIN (12, 0) FAR  w(0) 1349. F 0.00
expand: query!0 (13, 0) FAR  w(0) 1. F 0.00
(spacer::context::check_reachability :time 0.04 :before-memory 7.01 :after-memory 7.20)
Propagating: 2 3 4 5 6 7 8 9 10 11 12 13  ! 14 
(spacer::context::propagate :time 0.01 :before-memory 7.20 :after-memory 7.20)
Entering level 14
BRUNCH_STAT max_query_lvl 13
BRUNCH_STAT num_queries 108
BRUNCH_STAT num_reach_queries 0
BRUNCH_STAT num_reach_reuse 0
BRUNCH_STAT inductive_lvl 0
BRUNCH_STAT max_depth 14
BRUNCH_STAT cex_depth 0
expand: query!0 (14, 0) FAR  w(0) 1.
	create_child: MAIN (13, 14) FAR 1349 U 0.00
expand: MAIN (13, 0) FAR  w(0) 1349.
	create_child: MAIN (12, 14) FAR 2898 U 0.00
expand: MAIN (12, 0) FAR  w(0) 2898.
	create_child: MAIN (11, 14) FAR 2873 U 0.00
expand: MAIN (11, 0) FAR  w(0) 2873.
	create_child: MAIN (10, 14) FAR 3445 U 0.00
expand: MAIN (10, 0) FAR  w(0) 3445.
	create_child: MAIN (9, 14) FAR 3919 U 0.00
expand: MAIN (9, 0) FAR  w(0) 3919.
	create_child: MAIN (8, 14) FAR 5489 U 0.00
expand: MAIN (8, 0) FAR  w(0) 5489.
	create_child: MAIN (7, 14) FAR 5506 U 0.00
expand: MAIN (7, 0) FAR  w(0) 5506.
	create_child: MAIN (6, 14) FAR 8018 U 0.00
expand: MAIN (6, 0) FAR  w(0) 8018.
	create_child: MAIN (5, 14) FAR 10393 U 0.00
expand: MAIN (5, 0) FAR  w(0) 10393.
	create_child: MAIN (4, 14) FAR 7992 U 0.00
expand: MAIN (4, 0) FAR  w(0) 7992.
	create_child: MAIN (3, 14) FAR 11623 U 0.00
expand: MAIN (3, 0) FAR  w(0) 11623.
	create_child: MAIN (2, 14) FAR 14447 U 0.00
expand: MAIN (2, 0) FAR  w(0) 14447.
	create_child: MAIN (1, 14) FAR 14500 U 0.00
expand: MAIN (1, 0) FAR  w(0) 14500. F 0.00
expand: MAIN (2, 0) FAR  w(0) 14447. F 0.00
expand: MAIN (3, 0) FAR  w(0) 11623. F 0.00
expand: MAIN (4, 0) FAR  w(0) 7992.
	create_child: MAIN (3, 14) FAR 14578 U 0.00
expand: MAIN (3, 0) FAR  w(0) 14578. F 0.00
expand: MAIN (4, 0) FAR  w(0) 7992. F 0.00
expand: MAIN (5, 0) FAR  w(0) 10393. F 0.00
expand: MAIN (6, 0) FAR  w(0) 8018. F 0.00
expand: MAIN (7, 0) FAR  w(0) 5506.
	create_child: MAIN (6, 14) FAR 10617 U 0.00
expand: MAIN (6, 0) FAR  w(0) 10617. F 0.00
expand: MAIN (7, 0) FAR  w(0) 5506. F 0.00
expand: MAIN (8, 0) FAR  w(0) 5489. F 0.00
expand: MAIN (9, 0) FAR  w(0) 3919. F 0.00
expand: MAIN (10, 0) FAR  w(0) 3445.
	create_child: MAIN (9, 14) FAR 5657 U 0.00
expand: MAIN (9, 0) FAR  w(0) 5657. F 0.00
expand: MAIN (10, 0) FAR  w(0) 3445. F 0.00
expand: MAIN (11, 0) FAR  w(0) 2873. F 0.00
expand: MAIN (12, 0) FAR  w(0) 2898. F 0.00
expand: MAIN (13, 0) FAR  w(0) 1349. F 0.00
expand: query!0 (14, 0) FAR  w(0) 1. F 0.00
(spacer::context::check_reachability :time 0.05 :before-memory 7.20 :after-memory 7.30)
Propagating: 1 2 3 4 5 6 7 8 9 10 11 12 13 14  ! 15 
(spacer::context::propagate :time 0.01 :before-memory 7.30 :after-memory 7.30)
Entering level 15
BRUNCH_STAT max_query_lvl 14
BRUNCH_STAT num_queries 124
BRUNCH_STAT num_reach_queries 0
BRUNCH_STAT num_reach_reuse 0
BRUNCH_STAT inductive_lvl 0
BRUNCH_STAT max_depth 15
BRUNCH_STAT cex_depth 0
expand: query!0 (15, 0) FAR  w(0) 1.
	create_child: MAIN (14, 15) FAR 1349 U 0.00
expand: MAIN (14, 0) FAR  w(0) 1349.
	create_child: MAIN (13, 15) FAR 2898 U 0.00
expand: MAIN (13, 0) FAR  w(0) 2898.
	create_child: MAIN (12, 15) FAR 2873 U 0.00
expand: MAIN (12, 0) FAR  w(0) 2873.
	create_child: MAIN (11, 15) FAR 3445 U 0.00
expand: MAIN (11, 0) FAR  w(0) 3445.
	create_child: MAIN (10, 15) FAR 3919 U 0.00
expand: MAIN (10, 0) FAR  w(0) 3919.
	create_child: MAIN (9, 15) FAR 5489 U 0.00
expand: MAIN (9, 0) FAR  w(0) 5489.
	create_child: MAIN (8, 15) FAR 5506 U 0.00
expand: MAIN (8, 0) FAR  w(0) 5506.
	create_child: MAIN (7, 15) FAR 8018 U 0.00
expand: MAIN (7, 0) FAR  w(0) 8018.
	create_child: MAIN (6, 15) FAR 10393 U 0.00
expand: MAIN (6, 0) FAR  w(0) 10393.
	create_child: MAIN (5, 15) FAR 7992 U 0.00
expand: MAIN (5, 0) FAR  w(0) 7992.
	create_child: MAIN (4, 15) FAR 11623 U 0.00
expand: MAIN (4, 0) FAR  w(0) 11623.
	create_child: MAIN (3, 15) FAR 14447 U 0.00
expand: MAIN (3, 0) FAR  w(0) 14447.
	create_child: MAIN (2, 15) FAR 14500 U 0.00
expand: MAIN (2, 0) FAR  w(0) 14500.
	create_child: MAIN (1, 15) FAR 16082 U 0.00
expand: MAIN (1, 0) FAR  w(0) 16082. F 0.00
expand: MAIN (2, 0) FAR  w(0) 14500. F 0.00
expand: MAIN (3, 0) FAR  w(0) 14447. F 0.00
expand: MAIN (4, 0) FAR  w(0) 11623. F 0.00
expand: MAIN (5, 0) FAR  w(0) 7992.
	create_child: MAIN (4, 15) FAR 14578 U 0.00
expand: MAIN (4, 0) FAR  w(0) 14578. F 0.00
expand: MAIN (5, 0) FAR  w(0) 7992. F 0.00
expand: MAIN (6, 0) FAR  w(0) 10393. F 0.00
expand: MAIN (7, 0) FAR  w(0) 8018. F 0.00
expand: MAIN (8, 0) FAR  w(0) 5506.
	create_child: MAIN (7, 15) FAR 10617 U 0.00
expand: MAIN (7, 0) FAR  w(0) 10617. F 0.00
expand: MAIN (8, 0) FAR  w(0) 5506. F 0.00
expand: MAIN (9, 0) FAR  w(0) 5489. F 0.00
expand: MAIN (10, 0) FAR  w(0) 3919. F 0.00
expand: MAIN (11, 0) FAR  w(0) 3445.
	create_child: MAIN (10, 15) FAR 5657 U 0.00
expand: MAIN (10, 0) FAR  w(0) 5657. F 0.00
expand: MAIN (11, 0) FAR  w(0) 3445. F 0.00
expand: MAIN (12, 0) FAR  w(0) 2873. F 0.00
expand: MAIN (13, 0) FAR  w(0) 2898. F 0.00
expand: MAIN (14, 0) FAR  w(0) 1349. F 0.00
expand: query!0 (15, 0) FAR  w(0) 1. F 0.00
(spacer::context::check_reachability :time 0.06 :before-memory 7.30 :after-memory 7.49)
Propagating: 1 2 3 4 5 6 7 8 9 10 11 12 13 14 15  ! 16 
(spacer::context::propagate :time 0.02 :before-memory 7.49 :after-memory 7.49)
Entering level 16
BRUNCH_STAT max_query_lvl 15
BRUNCH_STAT num_queries 141
BRUNCH_STAT num_reach_queries 0
BRUNCH_STAT num_reach_reuse 0
BRUNCH_STAT inductive_lvl 0
BRUNCH_STAT max_depth 16
BRUNCH_STAT cex_depth 0
expand: query!0 (16, 0) FAR  w(0) 1.
	create_child: MAIN (15, 16) FAR 1349 U 0.00
expand: MAIN (15, 0) FAR  w(0) 1349.
	create_child: MAIN (14, 16) FAR 2898 U 0.00
expand: MAIN (14, 0) FAR  w(0) 2898.
	create_child: MAIN (13, 16) FAR 2873 U 0.00
expand: MAIN (13, 0) FAR  w(0) 2873.
	create_child: MAIN (12, 16) FAR 3445 U 0.00
expand: MAIN (12, 0) FAR  w(0) 3445.
	create_child: MAIN (11, 16) FAR 3919 U 0.00
expand: MAIN (11, 0) FAR  w(0) 3919.
	create_child: MAIN (10, 16) FAR 5489 U 0.00
expand: MAIN (10, 0) FAR  w(0) 5489.
	create_child: MAIN (9, 16) FAR 5506 U 0.00
expand: MAIN (9, 0) FAR  w(0) 5506.
	create_child: MAIN (8, 16) FAR 8018 U 0.00
expand: MAIN (8, 0) FAR  w(0) 8018.
	create_child: MAIN (7, 16) FAR 10393 U 0.00
expand: MAIN (7, 0) FAR  w(0) 10393.
	create_child: MAIN (6, 16) FAR 7992 U 0.00
expand: MAIN (6, 0) FAR  w(0) 7992.
	create_child: MAIN (5, 16) FAR 11623 U 0.00
expand: MAIN (5, 0) FAR  w(0) 11623.
	create_child: MAIN (4, 16) FAR 14447 U 0.00
expand: MAIN (4, 0) FAR  w(0) 14447.
	create_child: MAIN (3, 16) FAR 14500 U 0.00
expand: MAIN (3, 0) FAR  w(0) 14500.
	create_child: MAIN (2, 16) FAR 16082 U 0.00
expand: MAIN (2, 0) FAR  w(0) 16082.
	create_child: MAIN (1, 16) FAR 17961 U 0.00
expand: MAIN (1, 0) FAR  w(0) 17961.
	create_child: MAIN (0, 16) FAR 17977 U 0.00
expand: MAIN (0, 0) FAR  w(0) 17977. F 0.00
expand: MAIN (1, 0) FAR  w(0) 17961. F 0.00
expand: MAIN (2, 0) FAR  w(0) 16082. F 0.00
expand: MAIN (3, 0) FAR  w(0) 14500.
	create_child: MAIN (2, 16) FAR 18688 U 0.00
expand: MAIN (2, 0) FAR  w(0) 18688. F 0.00
expand: MAIN (3, 0) FAR  w(0) 14500. F 0.01
expand: MAIN (4, 0) FAR  w(0) 14447. F 0.00
expand: MAIN (5, 0) FAR  w(0) 11623. F 0.01
expand: MAIN (6, 0) FAR  w(0) 7992.
	create_child: MAIN (5, 16) FAR 14578 U 0.00
expand: MAIN (5, 0) FAR  w(0) 14578. F 0.00
expand: MAIN (6, 0) FAR  w(0) 7992. F 0.01
expand: MAIN (7, 0) FAR  w(0) 10393. F 0.00
expand: MAIN (8, 0) FAR  w(0) 8018. F 0.01
expand: MAIN (9, 0) FAR  w(0) 5506.
	create_child: MAIN (8, 16) FAR 10617 U 0.00
expand: MAIN (8, 0) FAR  w(0) 10617. F 0.00
expand: MAIN (9, 0) FAR  w(0) 5506. F 0.01
expand: MAIN (10, 0) FAR  w(0) 5489. F 0.00
expand: MAIN (11, 0) FAR  w(0) 3919. F 0.01
expand: MAIN (12, 0) FAR  w(0) 3445.
	create_child: MAIN (11, 16) FAR 5657 U 0.00
expand: MAIN (11, 0) FAR  w(0) 5657. F 0.00
expand: MAIN (12, 0) FAR  w(0) 3445. F 0.00
expand: MAIN (13, 0) FAR  w(0) 2873. F 0.00
expand: MAIN (14, 0) FAR  w(0) 2898. F 0.00
expand: MAIN (15, 0) FAR  w(0) 1349. F 0.00
expand: query!0 (16, 0) FAR  w(0) 1. F 0.00
(spacer::context::check_reachability :time 0.10 :before-memory 7.49 :after-memory 8.10)
Propagating: 0 1 2 3 4 5 6 7 8 9 10 11 12 13 14 15 16  ! 17 
(spacer::context::propagate :time 0.03 :before-memory 8.10 :after-memory 8.10)
Entering level 17
BRUNCH_STAT max_query_lvl 16
BRUNCH_STAT num_queries 161
BRUNCH_STAT num_reach_queries 0
BRUNCH_STAT num_reach_reuse 0
BRUNCH_STAT inductive_lvl 0
BRUNCH_STAT max_depth 17
BRUNCH_STAT cex_depth 0
expand: query!0 (17, 0) FAR  w(0) 1.
	create_child: MAIN (16, 17) FAR 1349 U 0.00
expand: MAIN (16, 0) FAR  w(0) 1349.
	create_child: MAIN (15, 17) FAR 2898 U 0.00
expand: MAIN (15, 0) FAR  w(0) 2898.
	create_child: MAIN (14, 17) FAR 6737 U 0.00
expand: MAIN (14, 0) FAR  w(0) 6737.
	create_child: MAIN (13, 17) FAR 6780 U 0.00
expand: MAIN (13, 0) FAR  w(0) 6780.
	create_child: MAIN (12, 17) FAR 6801 U 0.00
expand: MAIN (12, 0) FAR  w(0) 6801.
	create_child: MAIN (11, 17) FAR 5489 U 0.00
expand: MAIN (11, 0) FAR  w(0) 5489.
	create_child: MAIN (10, 17) FAR 5506 U 0.00
expand: MAIN (10, 0) FAR  w(0) 5506.
	create_child: MAIN (9, 17) FAR 8018 U 0.00
expand: MAIN (9, 0) FAR  w(0) 8018.
	create_child: MAIN (8, 17) FAR 10393 U 0.00
expand: MAIN (8, 0) FAR  w(0) 10393.
	create_child: MAIN (7, 17) FAR 7992 U 0.00
expand: MAIN (7, 0) FAR  w(0) 7992.
	create_child: MAIN (6, 17) FAR 11623 U 0.00
expand: MAIN (6, 0) FAR  w(0) 11623.
	create_child: MAIN (5, 17) FAR 14447 U 0.00
expand: MAIN (5, 0) FAR  w(0) 14447.
	create_child: MAIN (4, 17) FAR 14500 U 0.00
expand: MAIN (4, 0) FAR  w(0) 14500.
	create_child: MAIN (3, 17) FAR 16082 U 0.00
expand: MAIN (3, 0) FAR  w(0) 16082.
	create_child: MAIN (2, 17) FAR 17961 U 0.00
expand: MAIN (2, 0) FAR  w(0) 17961.
	create_child: MAIN (1, 17) FAR 17977 U 0.00
expand: MAIN (1, 0) FAR  w(0) 17977. F 0.00
expand: MAIN (2, 0) FAR  w(0) 17961. F 0.00
expand: MAIN (3, 0) FAR  w(0) 16082. F 0.00
expand: MAIN (4, 0) FAR  w(0) 14500.
	create_child: MAIN (3, 17) FAR 18688 U 0.00
expand: MAIN (3, 0) FAR  w(0) 18688. F 0.00
expand: MAIN (4, 0) FAR  w(0) 14500. F 0.00
expand: MAIN (5, 0) FAR  w(0) 14447. F 0.00
expand: MAIN (6, 0) FAR  w(0) 11623. F 0.01
expand: MAIN (7, 0) FAR  w(0) 7992.
	create_child: MAIN (6, 17) FAR 14578 U 0.00
expand: MAIN (6, 0) FAR  w(0) 14578. F 0.00
expand: MAIN (7, 0) FAR  w(0) 7992. F 0.01
expand: MAIN (8, 0) FAR  w(0) 10393. F 0.01
expand: MAIN (9, 0) FAR  w(0) 8018. F 0.01
expand: MAIN (10, 0) FAR  w(0) 5506.
	create_child: MAIN (9, 17) FAR 10617 U 0.00
expand: MAIN (9, 0) FAR  w(0) 10617. F 0.00
expand: MAIN (10, 0) FAR  w(0) 5506. F 0.01
expand: MAIN (11, 0) FAR  w(0) 5489. F 0.00
expand: MAIN (12, 0) FAR  w(0) 6801. F 0.00
expand: MAIN (13, 0) FAR  w(0) 6780. F 0.00
expand: MAIN (14, 0) FAR  w(0) 6737. F 0.00
expand: MAIN (15, 0) FAR  w(0) 2898.
	create_child: MAIN (14, 17) FAR 2873 U 0.00
expand: MAIN (14, 0) FAR  w(0) 2873.
	create_child: MAIN (13, 17) FAR 3445 U 0.00
expand: MAIN (13, 0) FAR  w(0) 3445.
	create_child: MAIN (12, 17) FAR 5657 U 0.00
expand: MAIN (12, 0) FAR  w(0) 5657. F 0.00
expand: MAIN (13, 0) FAR  w(0) 3445. F 0.00
expand: MAIN (14, 0) FAR  w(0) 2873. F 0.00
expand: MAIN (15, 0) FAR  w(0) 2898. F 0.00
expand: MAIN (16, 0) FAR  w(0) 1349. F 0.00
expand: query!0 (17, 0) FAR  w(0) 1. F 0.00
(spacer::context::check_reachability :time 0.12 :before-memory 8.10 :after-memory 8.95)
Propagating: 1 2 3 4 5 6 7 8 9 10 11 12 
(spacer::context::propagate :time 0.04 :before-memory 8.95 :after-memory 9.17)
(define-fun MAIN ((x!0 Bool)
 (x!1 Bool)
 (x!2 Int)
 (x!3 Int)
 (x!4 Int)
 (x!5 Bool)
 (x!6 Bool)
 (x!7 Bool)
 (x!8 Bool)
 (x!9 Bool)) Bool
  (and (or (= x!2 0) (not (<= x!2 0)))
       (not x!6)
       (not x!8)
       x!9
       (not (>= x!4 10))
       (or (not (<= x!4 9)) (not x!0))
       (or (= x!3 0) (not (<= x!3 0)))
       (or (not (>= x!4 8)) (= x!3 0) (not (<= x!3 1)))
       (or (not (>= x!4 9)) (not x!5) (not (>= x!3 2)))
       (or (not (>= x!4 7)) (not x!5) (not (<= x!3 0)))
       (or (<= x!4 0) (not x!5) (not (<= x!3 0)) (not (<= x!2 0)))
       (or (not (<= x!2 0)) (not x!5) (not (<= x!3 1)) (not (>= x!4 2)))
       (or (not (<= x!2 0)) (not x!5) (not (>= x!4 3)))
       (or (not (<= x!2 1)) (not x!5) (not (<= x!3 0)) (not (>= x!4 3)))
       (or (not (<= x!2 0)) (not (>= x!4 4)))
       (or (not (<= x!2 1)) (not x!5) (not (<= x!3 1)) (not (>= x!4 4)))
       (or (not (<= x!2 1)) (not x!5) (not (>= x!4 5)))
       (or (not (<= x!2 2)) (not x!5) (not (<= x!3 0)) (not (>= x!4 5)))
       (or (not (<= x!2 1)) (not (>= x!4 6)))
       (or (not (<= x!2 2)) (not x!5) (not (<= x!3 1)) (not (>= x!4 6)))
       (or (not (<= x!2 2)) (not x!5) (not (>= x!4 7)))
       (or (not (<= x!2 2)) (not (>= x!4 8)))))
BRUNCH_STAT max_query_lvl 17
BRUNCH_STAT num_queries 183
BRUNCH_STAT num_reach_queries 0
BRUNCH_STAT num_reach_reuse 0
BRUNCH_STAT inductive_lvl 12
BRUNCH_STAT max_depth 17
BRUNCH_STAT cex_depth 0
(:SPACER-inductive-level               12
 :SPACER-max-depth                     17
 :SPACER-max-query-lvl                 17
 :SPACER-num-invariants                29
 :SPACER-num-lemmas                    201
 :SPACER-num-properties                49
 :SPACER-num-queries                   183
 :added-eqs                            11477
 :arith-assert-diseq                   16233
 :arith-assert-lower                   21434
 :arith-assert-upper                   26961
 :arith-bound-prop                     118
 :arith-conflicts                      19
 :arith-eq-adapter                     3460
 :arith-fixed-eqs                      1534
 :arith-offset-eqs                     53
 :arith-pivots                         662
 :bool-inductive-gen                   183
 :bool-inductive-gen-failures          268
 :conflicts                            979
 :decisions                            78651
 :del-clause                           167
 :final-checks                         891
 :minimized-lits                       238
 :mk-bool-var                          5399
 :mk-clause                            2184
 :num-checks                           1739
 :propagations                         298603
 :time.itp_solver.itp_core             0.06
 :time.spacer.init_rules               0.00
 :time.spacer.init_rules.pt.init       0.00
 :time.spacer.solve                    0.74
 :time.spacer.solve.propagate          0.16
 :time.spacer.solve.reach              0.57
 :time.spacer.solve.reach.children     0.07
 :time.spacer.solve.reach.gen.bool_ind 0.23
 :time.virtual_solver.proof            0.03
 :time.virtual_solver.smt.total        0.55
 :time.virtual_solver.smt.total.sat    0.39
 :virtual_solver.checks                1739
 :virtual_solver.checks.sat            891)
BRUNCH_STAT max_query_lvl 17
BRUNCH_STAT num_queries 183
BRUNCH_STAT num_reach_queries 0
BRUNCH_STAT num_reach_reuse 0
BRUNCH_STAT inductive_lvl 12
BRUNCH_STAT max_depth 17
BRUNCH_STAT cex_depth 0

real	0m0.776s
user	0m0.732s
sys	0m0.040s
