(transform N7datalog13mk_coi_filterE...no-op 0s)
(transform N7datalog25mk_interp_tail_simplifierE...12 rules 0s)
(transform N7datalog27mk_quantifier_instantiationE...no-op 0s)
(transform N7datalog8mk_scaleE...no-op 0s)
(transform N7datalog18mk_karr_invariantsE...no-op 0s)
(transform N7datalog14mk_array_blastE...no-op 0s)
(transform N7datalog22mk_subsumption_checkerE...11 rules 0s)
(transform N7datalog12mk_bit_blastE...no-op 0s)
(transform N7datalog15mk_rule_inlinerE...3 rules 0.00162738s)
(transform N7datalog13mk_coi_filterE...no-op 0s)
(transform N7datalog25mk_interp_tail_simplifierE...3 rules 0s)
(transform N7datalog22mk_subsumption_checkerE...no-op 0s)
(transform N7datalog15mk_rule_inlinerE...no-op 0s)
(transform N7datalog13mk_coi_filterE...no-op 0s)
(transform N7datalog25mk_interp_tail_simplifierE...3 rules 0s)
(transform N7datalog22mk_subsumption_checkerE...no-op 0s)
(transform N7datalog15mk_rule_inlinerE...no-op 0s)
(transform N7datalog22mk_subsumption_checkerE...no-op 0s)
(transform N7datalog15mk_rule_inlinerE...no-op 0s)
(transform N7datalog22mk_subsumption_checkerE...no-op 0s)
(transform N7datalog15mk_rule_inlinerE...no-op 0s)
(transform N7datalog22mk_subsumption_checkerE...no-op 0s)
(transform N7datalog8mk_sliceE...no-op 0s)
expand: query!0 (0, 0) FAR  w(0) 1. F 0.00
(spacer::context::check_reachability :time 0.00 :before-memory 4.21 :after-memory 4.73)
Entering level 1
BRUNCH_STAT max_query_lvl 0
BRUNCH_STAT num_queries 0
BRUNCH_STAT num_reach_queries 0
BRUNCH_STAT num_reach_reuse 0
BRUNCH_STAT inductive_lvl 0
BRUNCH_STAT max_depth 1
BRUNCH_STAT cex_depth 0
expand: query!0 (1, 0) FAR  w(0) 1.
	create_child: MAIN (0, 1) FAR 1356 U 0.00
expand: MAIN (0, 0) FAR  w(0) 1356. F 0.00
expand: query!0 (1, 0) FAR  w(0) 1. F 0.00
(spacer::context::check_reachability :time 0.00 :before-memory 4.73 :after-memory 5.32)
Propagating: 0 1  ! 2 
(spacer::context::propagate :time 0.00 :before-memory 5.32 :after-memory 5.32)
Entering level 2
BRUNCH_STAT max_query_lvl 1
BRUNCH_STAT num_queries 1
BRUNCH_STAT num_reach_queries 0
BRUNCH_STAT num_reach_reuse 0
BRUNCH_STAT inductive_lvl 0
BRUNCH_STAT max_depth 2
BRUNCH_STAT cex_depth 0
expand: query!0 (2, 0) FAR  w(0) 1.
	create_child: MAIN (1, 2) FAR 1356 U 0.00
expand: MAIN (1, 0) FAR  w(0) 1356.
	create_child: MAIN (0, 2) FAR 2356 U 0.00
expand: MAIN (0, 0) FAR  w(0) 2356. F 0.00
expand: MAIN (1, 0) FAR  w(0) 1356.
	create_child: MAIN (0, 2) FAR 2445 U 0.00
expand: MAIN (0, 0) FAR  w(0) 2445. F 0.00
expand: MAIN (1, 0) FAR  w(0) 1356.
	create_child: MAIN (0, 2) FAR 2529 U 0.00
expand: MAIN (0, 0) FAR  w(0) 2529. F 0.00
expand: MAIN (1, 0) FAR  w(0) 1356. F 0.00
expand: query!0 (2, 0) FAR  w(0) 1. F 0.00
(spacer::context::check_reachability :time 0.00 :before-memory 5.32 :after-memory 5.42)
Propagating: 0 1 2  ! 3 
(spacer::context::propagate :time 0.00 :before-memory 5.42 :after-memory 5.57)
Entering level 3
BRUNCH_STAT max_query_lvl 2
BRUNCH_STAT num_queries 5
BRUNCH_STAT num_reach_queries 0
BRUNCH_STAT num_reach_reuse 0
BRUNCH_STAT inductive_lvl 0
BRUNCH_STAT max_depth 3
BRUNCH_STAT cex_depth 0
expand: query!0 (3, 0) FAR  w(0) 1.
	create_child: MAIN (2, 3) FAR 1356 U 0.00
expand: MAIN (2, 0) FAR  w(0) 1356.
	create_child: MAIN (1, 3) FAR 2799 U 0.00
expand: MAIN (1, 0) FAR  w(0) 2799. F 0.00
expand: MAIN (2, 0) FAR  w(0) 1356.
	create_child: MAIN (1, 3) FAR 2975 U 0.00
expand: MAIN (1, 0) FAR  w(0) 2975. F 0.00
expand: MAIN (2, 0) FAR  w(0) 1356.
	create_child: MAIN (1, 3) FAR 3081 U 0.00
expand: MAIN (1, 0) FAR  w(0) 3081.
	create_child: MAIN (0, 3) FAR 3133 U 0.00
expand: MAIN (0, 0) FAR  w(0) 3133. F 0.00
expand: MAIN (1, 0) FAR  w(0) 3081. F 0.00
expand: MAIN (2, 0) FAR  w(0) 1356. F 0.00
expand: query!0 (3, 0) FAR  w(0) 1. F 0.00
(spacer::context::check_reachability :time 0.01 :before-memory 5.57 :after-memory 5.57)
Propagating: 0 1 2 3  ! 4 
(spacer::context::propagate :time 0.00 :before-memory 5.57 :after-memory 5.57)
Entering level 4
BRUNCH_STAT max_query_lvl 3
BRUNCH_STAT num_queries 10
BRUNCH_STAT num_reach_queries 0
BRUNCH_STAT num_reach_reuse 0
BRUNCH_STAT inductive_lvl 0
BRUNCH_STAT max_depth 4
BRUNCH_STAT cex_depth 0
expand: query!0 (4, 0) FAR  w(0) 1.
	create_child: MAIN (3, 4) FAR 1356 U 0.00
expand: MAIN (3, 0) FAR  w(0) 1356.
	create_child: MAIN (2, 4) FAR 3081 U 0.00
expand: MAIN (2, 0) FAR  w(0) 3081.
	create_child: MAIN (1, 4) FAR 3582 U 0.00
expand: MAIN (1, 0) FAR  w(0) 3582. F 0.00
expand: MAIN (2, 0) FAR  w(0) 3081.
	create_child: MAIN (1, 4) FAR 3133 U 0.00
expand: MAIN (1, 0) FAR  w(0) 3133.
	create_child: MAIN (0, 4) FAR 3717 U 0.00
expand: MAIN (0, 0) FAR  w(0) 3717. F 0.00
expand: MAIN (1, 0) FAR  w(0) 3133. F 0.00
expand: MAIN (2, 0) FAR  w(0) 3081. F 0.00
expand: MAIN (3, 0) FAR  w(0) 1356. F 0.00
expand: query!0 (4, 0) FAR  w(0) 1. F 0.00
(spacer::context::check_reachability :time 0.01 :before-memory 5.57 :after-memory 5.67)
Propagating: 0 1 2 3 4  ! 5 
(spacer::context::propagate :time 0.00 :before-memory 5.67 :after-memory 5.67)
Entering level 5
BRUNCH_STAT max_query_lvl 4
BRUNCH_STAT num_queries 15
BRUNCH_STAT num_reach_queries 0
BRUNCH_STAT num_reach_reuse 0
BRUNCH_STAT inductive_lvl 0
BRUNCH_STAT max_depth 5
BRUNCH_STAT cex_depth 0
expand: query!0 (5, 0) FAR  w(0) 1.
	create_child: MAIN (4, 5) FAR 1356 U 0.00
expand: MAIN (4, 0) FAR  w(0) 1356.
	create_child: MAIN (3, 5) FAR 3081 U 0.00
expand: MAIN (3, 0) FAR  w(0) 3081.
	create_child: MAIN (2, 5) FAR 3133 U 0.00
expand: MAIN (2, 0) FAR  w(0) 3133.
	create_child: MAIN (1, 5) FAR 3717 U 0.00
expand: MAIN (1, 0) FAR  w(0) 3717. F 0.00
expand: MAIN (2, 0) FAR  w(0) 3133. F 0.00
expand: MAIN (3, 0) FAR  w(0) 3081. F 0.00
expand: MAIN (4, 0) FAR  w(0) 1356. F 0.00
expand: query!0 (5, 0) FAR  w(0) 1. F 0.00
(spacer::context::check_reachability :time 0.01 :before-memory 5.67 :after-memory 5.67)
Propagating: 1 2 3 4 5  ! 6 
(spacer::context::propagate :time 0.00 :before-memory 5.67 :after-memory 5.67)
Entering level 6
BRUNCH_STAT max_query_lvl 5
BRUNCH_STAT num_queries 19
BRUNCH_STAT num_reach_queries 0
BRUNCH_STAT num_reach_reuse 0
BRUNCH_STAT inductive_lvl 0
BRUNCH_STAT max_depth 6
BRUNCH_STAT cex_depth 0
expand: query!0 (6, 0) FAR  w(0) 1.
	create_child: MAIN (5, 6) FAR 1356 U 0.00
expand: MAIN (5, 0) FAR  w(0) 1356.
	create_child: MAIN (4, 6) FAR 4754 U 0.00
expand: MAIN (4, 0) FAR  w(0) 4754. F 0.00
expand: MAIN (5, 0) FAR  w(0) 1356.
	create_child: MAIN (4, 6) FAR 3081 U 0.00
expand: MAIN (4, 0) FAR  w(0) 3081.
	create_child: MAIN (3, 6) FAR 4784 U 0.00
expand: MAIN (3, 0) FAR  w(0) 4784.
	create_child: MAIN (2, 6) FAR 4853 U 0.00
expand: MAIN (2, 0) FAR  w(0) 4853.
	create_child: MAIN (1, 6) FAR 4871 U 0.00
expand: MAIN (1, 0) FAR  w(0) 4871. F 0.00
expand: MAIN (2, 0) FAR  w(0) 4853.
	create_child: MAIN (1, 6) FAR 5111 U 0.00
expand: MAIN (1, 0) FAR  w(0) 5111.
	create_child: MAIN (0, 6) FAR 5073 U 0.00
expand: MAIN (0, 0) FAR  w(0) 5073. F 0.00
expand: MAIN (1, 0) FAR  w(0) 5111. F 0.00
expand: MAIN (2, 0) FAR  w(0) 4853. F 0.00
expand: MAIN (3, 0) FAR  w(0) 4784. F 0.00
expand: MAIN (4, 0) FAR  w(0) 3081. F 0.00
expand: MAIN (5, 0) FAR  w(0) 1356. F 0.00
expand: query!0 (6, 0) FAR  w(0) 1. F 0.00
(spacer::context::check_reachability :time 0.02 :before-memory 5.67 :after-memory 5.76)
Propagating: 0 1 2 3 4 5 6  ! 7 
(spacer::context::propagate :time 0.01 :before-memory 5.76 :after-memory 5.99)
Entering level 7
BRUNCH_STAT max_query_lvl 6
BRUNCH_STAT num_queries 27
BRUNCH_STAT num_reach_queries 0
BRUNCH_STAT num_reach_reuse 0
BRUNCH_STAT inductive_lvl 0
BRUNCH_STAT max_depth 7
BRUNCH_STAT cex_depth 0
expand: query!0 (7, 0) FAR  w(0) 1.
	create_child: MAIN (6, 7) FAR 1356 U 0.00
expand: MAIN (6, 0) FAR  w(0) 1356.
	create_child: MAIN (5, 7) FAR 5760 U 0.00
expand: MAIN (5, 0) FAR  w(0) 5760. F 0.00
expand: MAIN (6, 0) FAR  w(0) 1356.
	create_child: MAIN (5, 7) FAR 3081 U 0.00
expand: MAIN (5, 0) FAR  w(0) 3081.
	create_child: MAIN (4, 7) FAR 4784 U 0.00
expand: MAIN (4, 0) FAR  w(0) 4784.
	create_child: MAIN (3, 7) FAR 4853 U 0.00
expand: MAIN (3, 0) FAR  w(0) 4853.
	create_child: MAIN (2, 7) FAR 5111 U 0.00
expand: MAIN (2, 0) FAR  w(0) 5111.
	create_child: MAIN (1, 7) FAR 5073 U 0.00
expand: MAIN (1, 0) FAR  w(0) 5073. F 0.00
expand: MAIN (2, 0) FAR  w(0) 5111. F 0.00
expand: MAIN (3, 0) FAR  w(0) 4853. F 0.00
expand: MAIN (4, 0) FAR  w(0) 4784. F 0.00
expand: MAIN (5, 0) FAR  w(0) 3081. F 0.00
expand: MAIN (6, 0) FAR  w(0) 1356. F 0.00
expand: query!0 (7, 0) FAR  w(0) 1. F 0.00
(spacer::context::check_reachability :time 0.02 :before-memory 5.99 :after-memory 6.09)
Propagating: 1 2 3 4 5 6 7  ! 8 
(spacer::context::propagate :time 0.00 :before-memory 6.09 :after-memory 6.09)
Entering level 8
BRUNCH_STAT max_query_lvl 7
BRUNCH_STAT num_queries 34
BRUNCH_STAT num_reach_queries 0
BRUNCH_STAT num_reach_reuse 0
BRUNCH_STAT inductive_lvl 0
BRUNCH_STAT max_depth 8
BRUNCH_STAT cex_depth 0
expand: query!0 (8, 0) FAR  w(0) 1.
	create_child: MAIN (7, 8) FAR 1356 U 0.00
expand: MAIN (7, 0) FAR  w(0) 1356.
	create_child: MAIN (6, 8) FAR 3081 U 0.00
expand: MAIN (6, 0) FAR  w(0) 3081.
	create_child: MAIN (5, 8) FAR 4784 U 0.00
expand: MAIN (5, 0) FAR  w(0) 4784.
	create_child: MAIN (4, 8) FAR 4853 U 0.00
expand: MAIN (4, 0) FAR  w(0) 4853.
	create_child: MAIN (3, 8) FAR 5111 U 0.00
expand: MAIN (3, 0) FAR  w(0) 5111.
	create_child: MAIN (2, 8) FAR 5073 U 0.00
expand: MAIN (2, 0) FAR  w(0) 5073.
	create_child: MAIN (1, 8) FAR 7227 U 0.00
expand: MAIN (1, 0) FAR  w(0) 7227.
	create_child: MAIN (0, 8) FAR 7067 U 0.00
expand: MAIN (0, 0) FAR  w(0) 7067. F 0.00
expand: MAIN (1, 0) FAR  w(0) 7227. F 0.00
expand: MAIN (2, 0) FAR  w(0) 5073. F 0.00
expand: MAIN (3, 0) FAR  w(0) 5111. F 0.00
expand: MAIN (4, 0) FAR  w(0) 4853. F 0.00
expand: MAIN (5, 0) FAR  w(0) 4784. F 0.00
expand: MAIN (6, 0) FAR  w(0) 3081. F 0.00
expand: MAIN (7, 0) FAR  w(0) 1356. F 0.00
expand: query!0 (8, 0) FAR  w(0) 1. F 0.00
(spacer::context::check_reachability :time 0.02 :before-memory 6.09 :after-memory 6.19)
Propagating: 0 1 2 3 4 5 6 7 8  ! 9 
(spacer::context::propagate :time 0.01 :before-memory 6.19 :after-memory 6.19)
Entering level 9
BRUNCH_STAT max_query_lvl 8
BRUNCH_STAT num_queries 42
BRUNCH_STAT num_reach_queries 0
BRUNCH_STAT num_reach_reuse 0
BRUNCH_STAT inductive_lvl 0
BRUNCH_STAT max_depth 9
BRUNCH_STAT cex_depth 0
expand: query!0 (9, 0) FAR  w(0) 1.
	create_child: MAIN (8, 9) FAR 1356 U 0.00
expand: MAIN (8, 0) FAR  w(0) 1356.
	create_child: MAIN (7, 9) FAR 3081 U 0.00
expand: MAIN (7, 0) FAR  w(0) 3081.
	create_child: MAIN (6, 9) FAR 4784 U 0.00
expand: MAIN (6, 0) FAR  w(0) 4784.
	create_child: MAIN (5, 9) FAR 4853 U 0.00
expand: MAIN (5, 0) FAR  w(0) 4853.
	create_child: MAIN (4, 9) FAR 5111 U 0.00
expand: MAIN (4, 0) FAR  w(0) 5111.
	create_child: MAIN (3, 9) FAR 5073 U 0.00
expand: MAIN (3, 0) FAR  w(0) 5073.
	create_child: MAIN (2, 9) FAR 7227 U 0.00
expand: MAIN (2, 0) FAR  w(0) 7227.
	create_child: MAIN (1, 9) FAR 7067 U 0.00
expand: MAIN (1, 0) FAR  w(0) 7067. F 0.00
expand: MAIN (2, 0) FAR  w(0) 7227. F 0.00
expand: MAIN (3, 0) FAR  w(0) 5073. F 0.00
expand: MAIN (4, 0) FAR  w(0) 5111. F 0.00
expand: MAIN (5, 0) FAR  w(0) 4853. F 0.00
expand: MAIN (6, 0) FAR  w(0) 4784. F 0.00
expand: MAIN (7, 0) FAR  w(0) 3081. F 0.00
expand: MAIN (8, 0) FAR  w(0) 1356. F 0.00
expand: query!0 (9, 0) FAR  w(0) 1. F 0.00
(spacer::context::check_reachability :time 0.02 :before-memory 6.19 :after-memory 6.38)
Propagating: 1 2 3 4 5 6 7 8 9  ! 10 
(spacer::context::propagate :time 0.01 :before-memory 6.38 :after-memory 6.38)
Entering level 10
BRUNCH_STAT max_query_lvl 9
BRUNCH_STAT num_queries 50
BRUNCH_STAT num_reach_queries 0
BRUNCH_STAT num_reach_reuse 0
BRUNCH_STAT inductive_lvl 0
BRUNCH_STAT max_depth 10
BRUNCH_STAT cex_depth 0
expand: query!0 (10, 0) FAR  w(0) 1.
	create_child: MAIN (9, 10) FAR 1356 U 0.00
expand: MAIN (9, 0) FAR  w(0) 1356.
	create_child: MAIN (8, 10) FAR 3081 U 0.00
expand: MAIN (8, 0) FAR  w(0) 3081.
	create_child: MAIN (7, 10) FAR 4784 U 0.00
expand: MAIN (7, 0) FAR  w(0) 4784.
	create_child: MAIN (6, 10) FAR 4853 U 0.00
expand: MAIN (6, 0) FAR  w(0) 4853.
	create_child: MAIN (5, 10) FAR 5111 U 0.00
expand: MAIN (5, 0) FAR  w(0) 5111.
	create_child: MAIN (4, 10) FAR 5073 U 0.00
expand: MAIN (4, 0) FAR  w(0) 5073.
	create_child: MAIN (3, 10) FAR 7227 U 0.00
expand: MAIN (3, 0) FAR  w(0) 7227.
	create_child: MAIN (2, 10) FAR 7067 U 0.00
expand: MAIN (2, 0) FAR  w(0) 7067.
	create_child: MAIN (1, 10) FAR 9247 U 0.00
expand: MAIN (1, 0) FAR  w(0) 9247.
	create_child: MAIN (0, 10) FAR 9285 U 0.00
expand: MAIN (0, 0) FAR  w(0) 9285. F 0.00
expand: MAIN (1, 0) FAR  w(0) 9247. F 0.00
expand: MAIN (2, 0) FAR  w(0) 7067. F 0.00
expand: MAIN (3, 0) FAR  w(0) 7227. F 0.00
expand: MAIN (4, 0) FAR  w(0) 5073. F 0.00
expand: MAIN (5, 0) FAR  w(0) 5111. F 0.00
expand: MAIN (6, 0) FAR  w(0) 4853. F 0.00
expand: MAIN (7, 0) FAR  w(0) 4784. F 0.00
expand: MAIN (8, 0) FAR  w(0) 3081. F 0.00
expand: MAIN (9, 0) FAR  w(0) 1356. F 0.00
expand: query!0 (10, 0) FAR  w(0) 1. F 0.00
(spacer::context::check_reachability :time 0.03 :before-memory 6.38 :after-memory 6.38)
Propagating: 0 1 2 3 4 5 6 7 8 9 10  ! 11 
(spacer::context::propagate :time 0.01 :before-memory 6.38 :after-memory 6.38)
Entering level 11
BRUNCH_STAT max_query_lvl 10
BRUNCH_STAT num_queries 60
BRUNCH_STAT num_reach_queries 0
BRUNCH_STAT num_reach_reuse 0
BRUNCH_STAT inductive_lvl 0
BRUNCH_STAT max_depth 11
BRUNCH_STAT cex_depth 0
expand: query!0 (11, 0) FAR  w(0) 1.
	create_child: MAIN (10, 11) FAR 1356 U 0.00
expand: MAIN (10, 0) FAR  w(0) 1356.
	create_child: MAIN (9, 11) FAR 3081 U 0.00
expand: MAIN (9, 0) FAR  w(0) 3081.
	create_child: MAIN (8, 11) FAR 4784 U 0.00
expand: MAIN (8, 0) FAR  w(0) 4784.
	create_child: MAIN (7, 11) FAR 4853 U 0.00
expand: MAIN (7, 0) FAR  w(0) 4853.
	create_child: MAIN (6, 11) FAR 5111 U 0.00
expand: MAIN (6, 0) FAR  w(0) 5111.
	create_child: MAIN (5, 11) FAR 5073 U 0.00
expand: MAIN (5, 0) FAR  w(0) 5073.
	create_child: MAIN (4, 11) FAR 7227 U 0.00
expand: MAIN (4, 0) FAR  w(0) 7227.
	create_child: MAIN (3, 11) FAR 7067 U 0.00
expand: MAIN (3, 0) FAR  w(0) 7067.
	create_child: MAIN (2, 11) FAR 9247 U 0.00
expand: MAIN (2, 0) FAR  w(0) 9247.
	create_child: MAIN (1, 11) FAR 9285 U 0.00
expand: MAIN (1, 0) FAR  w(0) 9285. F 0.00
expand: MAIN (2, 0) FAR  w(0) 9247. F 0.00
expand: MAIN (3, 0) FAR  w(0) 7067. F 0.00
expand: MAIN (4, 0) FAR  w(0) 7227. F 0.00
expand: MAIN (5, 0) FAR  w(0) 5073. F 0.00
expand: MAIN (6, 0) FAR  w(0) 5111. F 0.00
expand: MAIN (7, 0) FAR  w(0) 4853. F 0.00
expand: MAIN (8, 0) FAR  w(0) 4784. F 0.00
expand: MAIN (9, 0) FAR  w(0) 3081. F 0.00
expand: MAIN (10, 0) FAR  w(0) 1356. F 0.00
expand: query!0 (11, 0) FAR  w(0) 1. F 0.00
(spacer::context::check_reachability :time 0.03 :before-memory 6.38 :after-memory 6.48)
Propagating: 1 2 3 4 5 6 7 8 9 10 11  ! 12 
(spacer::context::propagate :time 0.01 :before-memory 6.48 :after-memory 6.48)
Entering level 12
BRUNCH_STAT max_query_lvl 11
BRUNCH_STAT num_queries 70
BRUNCH_STAT num_reach_queries 0
BRUNCH_STAT num_reach_reuse 0
BRUNCH_STAT inductive_lvl 0
BRUNCH_STAT max_depth 12
BRUNCH_STAT cex_depth 0
expand: query!0 (12, 0) FAR  w(0) 1.
	create_child: MAIN (11, 12) FAR 1356 U 0.00
expand: MAIN (11, 0) FAR  w(0) 1356.
	create_child: MAIN (10, 12) FAR 3081 U 0.00
expand: MAIN (10, 0) FAR  w(0) 3081.
	create_child: MAIN (9, 12) FAR 4784 U 0.00
expand: MAIN (9, 0) FAR  w(0) 4784.
	create_child: MAIN (8, 12) FAR 4853 U 0.00
expand: MAIN (8, 0) FAR  w(0) 4853.
	create_child: MAIN (7, 12) FAR 5111 U 0.00
expand: MAIN (7, 0) FAR  w(0) 5111.
	create_child: MAIN (6, 12) FAR 5073 U 0.00
expand: MAIN (6, 0) FAR  w(0) 5073.
	create_child: MAIN (5, 12) FAR 7227 U 0.00
expand: MAIN (5, 0) FAR  w(0) 7227.
	create_child: MAIN (4, 12) FAR 7067 U 0.00
expand: MAIN (4, 0) FAR  w(0) 7067.
	create_child: MAIN (3, 12) FAR 9247 U 0.00
expand: MAIN (3, 0) FAR  w(0) 9247.
	create_child: MAIN (2, 12) FAR 9285 U 0.00
expand: MAIN (2, 0) FAR  w(0) 9285.
	create_child: MAIN (1, 12) FAR 11620 U 0.00
expand: MAIN (1, 0) FAR  w(0) 11620.
	create_child: MAIN (0, 12) FAR 11405 U 0.00
expand: MAIN (0, 0) FAR  w(0) 11405. F 0.00
expand: MAIN (1, 0) FAR  w(0) 11620. F 0.00
expand: MAIN (2, 0) FAR  w(0) 9285. F 0.00
expand: MAIN (3, 0) FAR  w(0) 9247. F 0.00
expand: MAIN (4, 0) FAR  w(0) 7067. F 0.00
expand: MAIN (5, 0) FAR  w(0) 7227. F 0.00
expand: MAIN (6, 0) FAR  w(0) 5073. F 0.00
expand: MAIN (7, 0) FAR  w(0) 5111. F 0.00
expand: MAIN (8, 0) FAR  w(0) 4853. F 0.00
expand: MAIN (9, 0) FAR  w(0) 4784. F 0.00
expand: MAIN (10, 0) FAR  w(0) 3081. F 0.00
expand: MAIN (11, 0) FAR  w(0) 1356. F 0.00
expand: query!0 (12, 0) FAR  w(0) 1. F 0.00
(spacer::context::check_reachability :time 0.04 :before-memory 6.48 :after-memory 7.17)
Propagating: 0 1 2 3 4 5 6 7 8 9 10 11 12  ! 13 
(spacer::context::propagate :time 0.01 :before-memory 7.17 :after-memory 7.17)
Entering level 13
BRUNCH_STAT max_query_lvl 12
BRUNCH_STAT num_queries 82
BRUNCH_STAT num_reach_queries 0
BRUNCH_STAT num_reach_reuse 0
BRUNCH_STAT inductive_lvl 0
BRUNCH_STAT max_depth 13
BRUNCH_STAT cex_depth 0
expand: query!0 (13, 0) FAR  w(0) 1.
	create_child: MAIN (12, 13) FAR 1356 U 0.00
expand: MAIN (12, 0) FAR  w(0) 1356.
	create_child: MAIN (11, 13) FAR 3081 U 0.00
expand: MAIN (11, 0) FAR  w(0) 3081.
	create_child: MAIN (10, 13) FAR 4784 U 0.00
expand: MAIN (10, 0) FAR  w(0) 4784.
	create_child: MAIN (9, 13) FAR 4853 U 0.00
expand: MAIN (9, 0) FAR  w(0) 4853.
	create_child: MAIN (8, 13) FAR 5111 U 0.00
expand: MAIN (8, 0) FAR  w(0) 5111.
	create_child: MAIN (7, 13) FAR 5073 U 0.00
expand: MAIN (7, 0) FAR  w(0) 5073.
	create_child: MAIN (6, 13) FAR 7227 U 0.00
expand: MAIN (6, 0) FAR  w(0) 7227.
	create_child: MAIN (5, 13) FAR 7067 U 0.00
expand: MAIN (5, 0) FAR  w(0) 7067.
	create_child: MAIN (4, 13) FAR 9247 U 0.00
expand: MAIN (4, 0) FAR  w(0) 9247.
	create_child: MAIN (3, 13) FAR 9285 U 0.00
expand: MAIN (3, 0) FAR  w(0) 9285.
	create_child: MAIN (2, 13) FAR 11620 U 0.00
expand: MAIN (2, 0) FAR  w(0) 11620.
	create_child: MAIN (1, 13) FAR 11405 U 0.00
expand: MAIN (1, 0) FAR  w(0) 11405. F 0.00
expand: MAIN (2, 0) FAR  w(0) 11620. F 0.00
expand: MAIN (3, 0) FAR  w(0) 9285. F 0.00
expand: MAIN (4, 0) FAR  w(0) 9247. F 0.00
expand: MAIN (5, 0) FAR  w(0) 7067. F 0.00
expand: MAIN (6, 0) FAR  w(0) 7227. F 0.00
expand: MAIN (7, 0) FAR  w(0) 5073. F 0.00
expand: MAIN (8, 0) FAR  w(0) 5111. F 0.00
expand: MAIN (9, 0) FAR  w(0) 4853. F 0.00
expand: MAIN (10, 0) FAR  w(0) 4784. F 0.00
expand: MAIN (11, 0) FAR  w(0) 3081. F 0.00
expand: MAIN (12, 0) FAR  w(0) 1356. F 0.00
expand: query!0 (13, 0) FAR  w(0) 1. F 0.00
(spacer::context::check_reachability :time 0.04 :before-memory 7.17 :after-memory 7.26)
Propagating: 1 2 3 4 5 6 7 8 
(spacer::context::propagate :time 0.01 :before-memory 7.26 :after-memory 7.26)
(define-fun MAIN ((x!0 Bool)
 (x!1 Bool)
 (x!2 Int)
 (x!3 Int)
 (x!4 Int)
 (x!5 Bool)
 (x!6 Bool)
 (x!7 Bool)
 (x!8 Bool)
 (x!9 Bool)) Bool
  (and (or (= x!2 0) (not (<= x!2 0)))
       (not x!6)
       (not x!8)
       x!9
       (or (not (<= x!4 9)) (not x!0))
       (not (>= x!4 10))
       (or (not (>= x!2 4)) (not x!5))
       (or (not (>= x!4 9)) (not x!5))
       (or (= x!3 0) (not (<= x!3 0)))
       (or (not (>= x!4 8)) (not x!5) (not (<= x!3 0)))
       (or (not (<= x!2 0)) (not x!5) (not (<= x!3 0)) (not (>= x!4 5)))
       (or (not (<= x!2 0)) (not x!5) (not (>= x!4 6)))
       (or (not (<= x!2 1)) (not x!5) (not (<= x!3 0)) (not (>= x!4 6)))
       (or (not (<= x!2 1)) (not x!5) (not (>= x!4 7)))
       (or (not (<= x!2 2)) (not x!5) (not (<= x!3 0)) (not (>= x!4 7)))
       (or (not (<= x!2 2)) (not x!5) (not (>= x!4 8)))))
BRUNCH_STAT max_query_lvl 13
BRUNCH_STAT num_queries 94
BRUNCH_STAT num_reach_queries 0
BRUNCH_STAT num_reach_reuse 0
BRUNCH_STAT inductive_lvl 8
BRUNCH_STAT max_depth 13
BRUNCH_STAT cex_depth 0
(:SPACER-inductive-level               8
 :SPACER-max-depth                     13
 :SPACER-max-query-lvl                 13
 :SPACER-num-invariants                20
 :SPACER-num-lemmas                    108
 :SPACER-num-properties                34
 :SPACER-num-queries                   94
 :added-eqs                            5293
 :arith-assert-diseq                   5806
 :arith-assert-lower                   9032
 :arith-assert-upper                   10946
 :arith-bound-prop                     73
 :arith-conflicts                      10
 :arith-eq-adapter                     1625
 :arith-fixed-eqs                      709
 :arith-offset-eqs                     46
 :arith-pivots                         527
 :bool-inductive-gen                   94
 :bool-inductive-gen-failures          145
 :conflicts                            500
 :decisions                            29148
 :del-clause                           126
 :final-checks                         478
 :minimized-lits                       24
 :mk-bool-var                          2897
 :mk-clause                            1379
 :num-checks                           912
 :propagations                         125570
 :time.itp_solver.itp_core             0.03
 :time.spacer.init_rules               0.00
 :time.spacer.init_rules.pt.init       0.00
 :time.spacer.solve                    0.31
 :time.spacer.solve.propagate          0.07
 :time.spacer.solve.reach              0.24
 :time.spacer.solve.reach.children     0.03
 :time.spacer.solve.reach.gen.bool_ind 0.09
 :time.virtual_solver.proof            0.02
 :time.virtual_solver.smt.total        0.22
 :time.virtual_solver.smt.total.sat    0.15
 :virtual_solver.checks                912
 :virtual_solver.checks.sat            478)
BRUNCH_STAT max_query_lvl 13
BRUNCH_STAT num_queries 94
BRUNCH_STAT num_reach_queries 0
BRUNCH_STAT num_reach_reuse 0
BRUNCH_STAT inductive_lvl 8
BRUNCH_STAT max_depth 13
BRUNCH_STAT cex_depth 0

real	0m0.339s
user	0m0.316s
sys	0m0.020s
