(transform N7datalog13mk_coi_filterE...no-op 0s)
(transform N7datalog25mk_interp_tail_simplifierE...12 rules 0s)
(transform N7datalog27mk_quantifier_instantiationE...no-op 0s)
(transform N7datalog8mk_scaleE...no-op 0s)
(transform N7datalog18mk_karr_invariantsE...no-op 0s)
(transform N7datalog14mk_array_blastE...no-op 0s)
(transform N7datalog22mk_subsumption_checkerE...11 rules 0s)
(transform N7datalog12mk_bit_blastE...no-op 0s)
(transform N7datalog15mk_rule_inlinerE...3 rules 0.00449096s)
(transform N7datalog13mk_coi_filterE...no-op 0s)
(transform N7datalog25mk_interp_tail_simplifierE...3 rules 0s)
(transform N7datalog22mk_subsumption_checkerE...no-op 0s)
(transform N7datalog15mk_rule_inlinerE...no-op 0s)
(transform N7datalog13mk_coi_filterE...no-op 0s)
(transform N7datalog25mk_interp_tail_simplifierE...3 rules 0s)
(transform N7datalog22mk_subsumption_checkerE...no-op 0s)
(transform N7datalog15mk_rule_inlinerE...no-op 0s)
(transform N7datalog22mk_subsumption_checkerE...no-op 0s)
(transform N7datalog15mk_rule_inlinerE...no-op 0s)
(transform N7datalog22mk_subsumption_checkerE...no-op 0s)
(transform N7datalog15mk_rule_inlinerE...no-op 0s)
(transform N7datalog22mk_subsumption_checkerE...no-op 0s)
(transform N7datalog8mk_sliceE...no-op 0s)
expand: query!0 (0, 0) FAR  w(0) 1. F 0.00
(spacer::context::check_reachability :time 0.00 :before-memory 4.55 :after-memory 5.18)
Entering level 1
BRUNCH_STAT max_query_lvl 0
BRUNCH_STAT num_queries 0
BRUNCH_STAT num_reach_queries 0
BRUNCH_STAT num_reach_reuse 0
BRUNCH_STAT inductive_lvl 0
BRUNCH_STAT max_depth 1
BRUNCH_STAT cex_depth 0
expand: query!0 (1, 0) FAR  w(0) 1.
	create_child: MAIN (0, 1) FAR 4670 U 0.00
expand: MAIN (0, 0) FAR  w(0) 4670. F 0.00
expand: query!0 (1, 0) FAR  w(0) 1. F 0.00
(spacer::context::check_reachability :time 0.01 :before-memory 5.18 :after-memory 6.34)
Propagating: 0 1  ! 2 
(spacer::context::propagate :time 0.00 :before-memory 6.34 :after-memory 6.43)
Entering level 2
BRUNCH_STAT max_query_lvl 1
BRUNCH_STAT num_queries 1
BRUNCH_STAT num_reach_queries 0
BRUNCH_STAT num_reach_reuse 0
BRUNCH_STAT inductive_lvl 0
BRUNCH_STAT max_depth 2
BRUNCH_STAT cex_depth 0
expand: query!0 (2, 0) FAR  w(0) 1.
	create_child: MAIN (1, 2) FAR 4670 U 0.00
expand: MAIN (1, 0) FAR  w(0) 4670.
	create_child: MAIN (0, 2) FAR 9487 U 0.00
expand: MAIN (0, 0) FAR  w(0) 9487. F 0.00
expand: MAIN (1, 0) FAR  w(0) 4670.
	create_child: MAIN (0, 2) FAR 9956 U 0.00
expand: MAIN (0, 0) FAR  w(0) 9956. F 0.00
expand: MAIN (1, 0) FAR  w(0) 4670.
	create_child: MAIN (0, 2) FAR 10293 U 0.00
expand: MAIN (0, 0) FAR  w(0) 10293. F 0.00
expand: MAIN (1, 0) FAR  w(0) 4670. F 0.00
expand: query!0 (2, 0) FAR  w(0) 1. F 0.00
(spacer::context::check_reachability :time 0.01 :before-memory 6.43 :after-memory 6.65)
Propagating: 0 1 2  ! 3 
(spacer::context::propagate :time 0.00 :before-memory 6.65 :after-memory 6.65)
Entering level 3
BRUNCH_STAT max_query_lvl 2
BRUNCH_STAT num_queries 5
BRUNCH_STAT num_reach_queries 0
BRUNCH_STAT num_reach_reuse 0
BRUNCH_STAT inductive_lvl 0
BRUNCH_STAT max_depth 3
BRUNCH_STAT cex_depth 0
expand: query!0 (3, 0) FAR  w(0) 1.
	create_child: MAIN (2, 3) FAR 4670 U 0.00
expand: MAIN (2, 0) FAR  w(0) 4670.
	create_child: MAIN (1, 3) FAR 10850 U 0.00
expand: MAIN (1, 0) FAR  w(0) 10850. F 0.00
expand: MAIN (2, 0) FAR  w(0) 4670.
	create_child: MAIN (1, 3) FAR 10986 U 0.00
expand: MAIN (1, 0) FAR  w(0) 10986. F 0.00
expand: MAIN (2, 0) FAR  w(0) 4670. F 0.00
expand: query!0 (3, 0) FAR  w(0) 1. F 0.00
(spacer::context::check_reachability :time 0.01 :before-memory 6.65 :after-memory 6.76)
Propagating: 1 
(spacer::context::propagate :time 0.00 :before-memory 6.76 :after-memory 6.76)
(define-fun MAIN ((x!0 Int)
 (x!1 Int)
 (x!2 Int)
 (x!3 Int)
 (x!4 Int)
 (x!5 Int)
 (x!6 Bool)
 (x!7 Bool)
 (x!8 Bool)
 (x!9 Bool)) Bool
  (and (>= x!3 0) x!9 (>= x!4 0)))
BRUNCH_STAT max_query_lvl 3
BRUNCH_STAT num_queries 8
BRUNCH_STAT num_reach_queries 0
BRUNCH_STAT num_reach_reuse 0
BRUNCH_STAT inductive_lvl 1
BRUNCH_STAT max_depth 3
BRUNCH_STAT cex_depth 0
(:SPACER-inductive-level               1
 :SPACER-max-depth                     3
 :SPACER-max-query-lvl                 3
 :SPACER-num-invariants                5
 :SPACER-num-lemmas                    12
 :SPACER-num-properties                6
 :SPACER-num-queries                   8
 :added-eqs                            481
 :arith-add-rows                       271
 :arith-assert-diseq                   337
 :arith-assert-lower                   539
 :arith-assert-upper                   507
 :arith-bound-prop                     80
 :arith-conflicts                      14
 :arith-eq-adapter                     100
 :arith-fixed-eqs                      67
 :arith-offset-eqs                     81
 :arith-pivots                         66
 :bool-inductive-gen                   8
 :bool-inductive-gen-failures          8
 :conflicts                            100
 :decisions                            846
 :del-clause                           166
 :final-checks                         15
 :minimized-lits                       19
 :mk-bool-var                          686
 :mk-clause                            2018
 :num-checks                           43
 :propagations                         10244
 :time.itp_solver.itp_core             0.00
 :time.spacer.init_rules               0.00
 :time.spacer.init_rules.pt.init       0.00
 :time.spacer.solve                    0.03
 :time.spacer.solve.propagate          0.01
 :time.spacer.solve.reach              0.03
 :time.spacer.solve.reach.children     0.00
 :time.spacer.solve.reach.gen.bool_ind 0.00
 :time.virtual_solver.proof            0.00
 :time.virtual_solver.smt.total        0.02
 :time.virtual_solver.smt.total.sat    0.01
 :virtual_solver.checks                43
 :virtual_solver.checks.sat            15)
BRUNCH_STAT max_query_lvl 3
BRUNCH_STAT num_queries 8
BRUNCH_STAT num_reach_queries 0
BRUNCH_STAT num_reach_reuse 0
BRUNCH_STAT inductive_lvl 1
BRUNCH_STAT max_depth 3
BRUNCH_STAT cex_depth 0

real	0m0.066s
user	0m0.064s
sys	0m0.000s
