(transform N7datalog13mk_coi_filterE...no-op 0s)
(transform N7datalog25mk_interp_tail_simplifierE...12 rules 0s)
(transform N7datalog27mk_quantifier_instantiationE...no-op 0s)
(transform N7datalog8mk_scaleE...no-op 0s)
(transform N7datalog18mk_karr_invariantsE...no-op 0s)
(transform N7datalog14mk_array_blastE...no-op 0s)
(transform N7datalog22mk_subsumption_checkerE...11 rules 0s)
(transform N7datalog12mk_bit_blastE...no-op 0s)
(transform N7datalog15mk_rule_inlinerE...3 rules 0.00436273s)
(transform N7datalog13mk_coi_filterE...no-op 0s)
(transform N7datalog25mk_interp_tail_simplifierE...3 rules 0s)
(transform N7datalog22mk_subsumption_checkerE...no-op 0s)
(transform N7datalog15mk_rule_inlinerE...no-op 0s)
(transform N7datalog13mk_coi_filterE...no-op 0s)
(transform N7datalog25mk_interp_tail_simplifierE...3 rules 0s)
(transform N7datalog22mk_subsumption_checkerE...no-op 0s)
(transform N7datalog15mk_rule_inlinerE...no-op 0s)
(transform N7datalog22mk_subsumption_checkerE...no-op 0s)
(transform N7datalog15mk_rule_inlinerE...no-op 0s)
(transform N7datalog22mk_subsumption_checkerE...no-op 0s)
(transform N7datalog15mk_rule_inlinerE...no-op 0s)
(transform N7datalog22mk_subsumption_checkerE...no-op 0s)
(transform N7datalog8mk_sliceE...no-op 0s)
expand: query!0 (0, 0) FAR  w(0) 1. F 0.00
(spacer::context::check_reachability :time 0.00 :before-memory 4.54 :after-memory 5.17)
Entering level 1
BRUNCH_STAT max_query_lvl 0
BRUNCH_STAT num_queries 0
BRUNCH_STAT num_reach_queries 0
BRUNCH_STAT num_reach_reuse 0
BRUNCH_STAT inductive_lvl 0
BRUNCH_STAT max_depth 1
BRUNCH_STAT cex_depth 0
expand: query!0 (1, 0) FAR  w(0) 1.
	create_child: MAIN (0, 1) FAR 4525 U 0.00
expand: MAIN (0, 0) FAR  w(0) 4525. F 0.00
expand: query!0 (1, 0) FAR  w(0) 1. F 0.00
(spacer::context::check_reachability :time 0.01 :before-memory 5.17 :after-memory 6.32)
Propagating: 0 1  ! 2 
(spacer::context::propagate :time 0.00 :before-memory 6.32 :after-memory 6.42)
Entering level 2
BRUNCH_STAT max_query_lvl 1
BRUNCH_STAT num_queries 1
BRUNCH_STAT num_reach_queries 0
BRUNCH_STAT num_reach_reuse 0
BRUNCH_STAT inductive_lvl 0
BRUNCH_STAT max_depth 2
BRUNCH_STAT cex_depth 0
expand: query!0 (2, 0) FAR  w(0) 1.
	create_child: MAIN (1, 2) FAR 4525 U 0.00
expand: MAIN (1, 0) FAR  w(0) 4525.
	create_child: MAIN (0, 2) FAR 8706 U 0.00
expand: MAIN (0, 0) FAR  w(0) 8706. F 0.00
expand: MAIN (1, 0) FAR  w(0) 4525. F 0.00
expand: query!0 (2, 0) FAR  w(0) 1. F 0.00
(spacer::context::check_reachability :time 0.00 :before-memory 6.42 :after-memory 6.51)
Propagating: 0 1 2  ! 3 
(spacer::context::propagate :time 0.00 :before-memory 6.51 :after-memory 6.51)
Entering level 3
BRUNCH_STAT max_query_lvl 2
BRUNCH_STAT num_queries 3
BRUNCH_STAT num_reach_queries 0
BRUNCH_STAT num_reach_reuse 0
BRUNCH_STAT inductive_lvl 0
BRUNCH_STAT max_depth 3
BRUNCH_STAT cex_depth 0
expand: query!0 (3, 0) FAR  w(0) 1.
	create_child: MAIN (2, 3) FAR 4525 U 0.00
expand: MAIN (2, 0) FAR  w(0) 4525.
	create_child: MAIN (1, 3) FAR 9029 U 0.00
expand: MAIN (1, 0) FAR  w(0) 9029. F 0.00
expand: MAIN (2, 0) FAR  w(0) 4525. F 0.00
expand: query!0 (3, 0) FAR  w(0) 1. F 0.00
(spacer::context::check_reachability :time 0.00 :before-memory 6.51 :after-memory 6.62)
Propagating: 1 
(spacer::context::propagate :time 0.00 :before-memory 6.62 :after-memory 6.62)
(define-fun MAIN ((x!0 Int)
 (x!1 Int)
 (x!2 Int)
 (x!3 Int)
 (x!4 Int)
 (x!5 Int)
 (x!6 Bool)
 (x!7 Bool)
 (x!8 Bool)
 (x!9 Bool)) Bool
  (and (>= x!1 0) x!9))
BRUNCH_STAT max_query_lvl 3
BRUNCH_STAT num_queries 5
BRUNCH_STAT num_reach_queries 0
BRUNCH_STAT num_reach_reuse 0
BRUNCH_STAT inductive_lvl 1
BRUNCH_STAT max_depth 3
BRUNCH_STAT cex_depth 0
(:SPACER-inductive-level               1
 :SPACER-max-depth                     3
 :SPACER-max-query-lvl                 3
 :SPACER-num-invariants                3
 :SPACER-num-lemmas                    9
 :SPACER-num-properties                4
 :SPACER-num-queries                   5
 :added-eqs                            214
 :arith-add-rows                       22
 :arith-assert-diseq                   81
 :arith-assert-lower                   161
 :arith-assert-upper                   154
 :arith-bound-prop                     33
 :arith-conflicts                      1
 :arith-eq-adapter                     62
 :arith-fixed-eqs                      34
 :arith-offset-eqs                     38
 :arith-pivots                         19
 :bool-inductive-gen                   5
 :bool-inductive-gen-failures          5
 :conflicts                            39
 :decisions                            351
 :del-clause                           124
 :final-checks                         10
 :minimized-lits                       7
 :mk-bool-var                          588
 :mk-clause                            1778
 :num-checks                           28
 :propagations                         4064
 :time.itp_solver.itp_core             0.00
 :time.spacer.init_rules               0.00
 :time.spacer.init_rules.pt.init       0.00
 :time.spacer.solve                    0.02
 :time.spacer.solve.propagate          0.00
 :time.spacer.solve.reach              0.01
 :time.spacer.solve.reach.children     0.00
 :time.spacer.solve.reach.gen.bool_ind 0.00
 :time.virtual_solver.proof            0.00
 :time.virtual_solver.smt.total        0.01
 :time.virtual_solver.smt.total.sat    0.00
 :virtual_solver.checks                28
 :virtual_solver.checks.sat            10)
BRUNCH_STAT max_query_lvl 3
BRUNCH_STAT num_queries 5
BRUNCH_STAT num_reach_queries 0
BRUNCH_STAT num_reach_reuse 0
BRUNCH_STAT inductive_lvl 1
BRUNCH_STAT max_depth 3
BRUNCH_STAT cex_depth 0

real	0m0.050s
user	0m0.044s
sys	0m0.004s
