(transform N7datalog13mk_coi_filterE...no-op 0s)
(transform N7datalog25mk_interp_tail_simplifierE...14 rules 0s)
(transform N7datalog27mk_quantifier_instantiationE...no-op 0s)
(transform N7datalog8mk_scaleE...no-op 0s)
(transform N7datalog18mk_karr_invariantsE...no-op 0s)
(transform N7datalog14mk_array_blastE...no-op 0s)
(transform N7datalog22mk_subsumption_checkerE...13 rules 0s)
(transform N7datalog12mk_bit_blastE...no-op 0s)
(transform N7datalog15mk_rule_inlinerE...3 rules 0.00546872s)
(transform N7datalog13mk_coi_filterE...no-op 0s)
(transform N7datalog25mk_interp_tail_simplifierE...3 rules 0s)
(transform N7datalog22mk_subsumption_checkerE...no-op 0s)
(transform N7datalog15mk_rule_inlinerE...no-op 0s)
(transform N7datalog13mk_coi_filterE...no-op 0s)
(transform N7datalog25mk_interp_tail_simplifierE...3 rules 0s)
(transform N7datalog22mk_subsumption_checkerE...no-op 0s)
(transform N7datalog15mk_rule_inlinerE...no-op 0s)
(transform N7datalog22mk_subsumption_checkerE...no-op 0s)
(transform N7datalog15mk_rule_inlinerE...no-op 0s)
(transform N7datalog22mk_subsumption_checkerE...no-op 0s)
(transform N7datalog15mk_rule_inlinerE...no-op 0s)
(transform N7datalog22mk_subsumption_checkerE...no-op 0s)
(transform N7datalog8mk_sliceE...no-op 0s)
expand: query!0 (0, 0) FAR  w(0) 1. F 0.00
(spacer::context::check_reachability :time 0.00 :before-memory 4.59 :after-memory 5.21)
Entering level 1
BRUNCH_STAT max_query_lvl 0
BRUNCH_STAT num_queries 0
BRUNCH_STAT num_reach_queries 0
BRUNCH_STAT num_reach_reuse 0
BRUNCH_STAT inductive_lvl 0
BRUNCH_STAT max_depth 1
BRUNCH_STAT cex_depth 0
expand: query!0 (1, 0) FAR  w(0) 1.
	create_child: MAIN (0, 1) FAR 5068 U 0.00
expand: MAIN (0, 0) FAR  w(0) 5068. F 0.00
expand: query!0 (1, 0) FAR  w(0) 1. F 0.00
(spacer::context::check_reachability :time 0.01 :before-memory 5.21 :after-memory 6.45)
Propagating: 0 1  ! 2 
(spacer::context::propagate :time 0.00 :before-memory 6.45 :after-memory 6.54)
Entering level 2
BRUNCH_STAT max_query_lvl 1
BRUNCH_STAT num_queries 1
BRUNCH_STAT num_reach_queries 0
BRUNCH_STAT num_reach_reuse 0
BRUNCH_STAT inductive_lvl 0
BRUNCH_STAT max_depth 2
BRUNCH_STAT cex_depth 0
expand: query!0 (2, 0) FAR  w(0) 1.
	create_child: MAIN (1, 2) FAR 5068 U 0.00
expand: MAIN (1, 0) FAR  w(0) 5068.
	create_child: MAIN (0, 2) FAR 9735 U 0.00
expand: MAIN (0, 0) FAR  w(0) 9735. F 0.00
expand: MAIN (1, 0) FAR  w(0) 5068.
	create_child: MAIN (0, 2) FAR 9753 U 0.00
expand: MAIN (0, 0) FAR  w(0) 9753. F 0.00
expand: MAIN (1, 0) FAR  w(0) 5068.
	create_child: MAIN (0, 2) FAR 9817 U 0.00
expand: MAIN (0, 0) FAR  w(0) 9817. F 0.00
expand: MAIN (1, 0) FAR  w(0) 5068.
	create_child: MAIN (0, 2) FAR 10233 U 0.00
expand: MAIN (0, 0) FAR  w(0) 10233. F 0.00
expand: MAIN (1, 0) FAR  w(0) 5068.
	create_child: MAIN (0, 2) FAR 10245 U 0.00
expand: MAIN (0, 0) FAR  w(0) 10245. F 0.00
expand: MAIN (1, 0) FAR  w(0) 5068.
	create_child: MAIN (0, 2) FAR 10368 U 0.00
expand: MAIN (0, 0) FAR  w(0) 10368. F 0.00
expand: MAIN (1, 0) FAR  w(0) 5068.
	create_child: MAIN (0, 2) FAR 10497 U 0.00
expand: MAIN (0, 0) FAR  w(0) 10497. F 0.00
expand: MAIN (1, 0) FAR  w(0) 5068.
	create_child: MAIN (0, 2) FAR 10895 U 0.00
expand: MAIN (0, 0) FAR  w(0) 10895. F 0.00
expand: MAIN (1, 0) FAR  w(0) 5068. F 0.00
expand: query!0 (2, 0) FAR  w(0) 1. F 0.00
(spacer::context::check_reachability :time 0.02 :before-memory 6.54 :after-memory 6.83)
Propagating: 0 1 2  ! 3 
(spacer::context::propagate :time 0.01 :before-memory 6.83 :after-memory 6.93)
Entering level 3
BRUNCH_STAT max_query_lvl 2
BRUNCH_STAT num_queries 10
BRUNCH_STAT num_reach_queries 0
BRUNCH_STAT num_reach_reuse 0
BRUNCH_STAT inductive_lvl 0
BRUNCH_STAT max_depth 3
BRUNCH_STAT cex_depth 0
expand: query!0 (3, 0) FAR  w(0) 1.
	create_child: MAIN (2, 3) FAR 5068 U 0.00
expand: MAIN (2, 0) FAR  w(0) 5068.
	create_child: MAIN (1, 3) FAR 10497 U 0.00
expand: MAIN (1, 0) FAR  w(0) 10497.
	create_child: MAIN (0, 3) FAR 12684 U 0.00
expand: MAIN (0, 0) FAR  w(0) 12684. F 0.00
expand: MAIN (1, 0) FAR  w(0) 10497.
	create_child: MAIN (0, 3) FAR 13389 U 0.00
expand: MAIN (0, 0) FAR  w(0) 13389. F 0.00
expand: MAIN (1, 0) FAR  w(0) 10497. F 0.00
expand: MAIN (2, 0) FAR  w(0) 5068.
	create_child: MAIN (1, 3) FAR 13787 U 0.00
expand: MAIN (1, 0) FAR  w(0) 13787. F 0.01
expand: MAIN (2, 0) FAR  w(0) 5068. F 0.00
expand: query!0 (3, 0) FAR  w(0) 1. F 0.00
(spacer::context::check_reachability :time 0.03 :before-memory 6.93 :after-memory 7.67)
Propagating: 0 1 2 3  ! 4 
(spacer::context::propagate :time 0.01 :before-memory 7.67 :after-memory 7.67)
Entering level 4
BRUNCH_STAT max_query_lvl 3
BRUNCH_STAT num_queries 15
BRUNCH_STAT num_reach_queries 0
BRUNCH_STAT num_reach_reuse 0
BRUNCH_STAT inductive_lvl 0
BRUNCH_STAT max_depth 4
BRUNCH_STAT cex_depth 0
expand: query!0 (4, 0) FAR  w(0) 1.
	create_child: MAIN (3, 4) FAR 5068 U 0.00
expand: MAIN (3, 0) FAR  w(0) 5068.
	create_child: MAIN (2, 4) FAR 10497 U 0.00
expand: MAIN (2, 0) FAR  w(0) 10497.
	create_child: MAIN (1, 4) FAR 15436 U 0.00
expand: MAIN (1, 0) FAR  w(0) 15436. F 0.00
expand: MAIN (2, 0) FAR  w(0) 10497.
	create_child: MAIN (1, 4) FAR 12684 U 0.00
expand: MAIN (1, 0) FAR  w(0) 12684.
	create_child: MAIN (0, 4) FAR 16249 U 0.00
expand: MAIN (0, 0) FAR  w(0) 16249. F 0.00
expand: MAIN (1, 0) FAR  w(0) 12684. F 0.01
expand: MAIN (2, 0) FAR  w(0) 10497. F 0.01
expand: MAIN (3, 0) FAR  w(0) 5068.
	create_child: MAIN (2, 4) FAR 13787 U 0.00
expand: MAIN (2, 0) FAR  w(0) 13787.
	create_child: MAIN (1, 4) FAR 18134 U 0.00
expand: MAIN (1, 0) FAR  w(0) 18134. F 0.01
expand: MAIN (2, 0) FAR  w(0) 13787. F 0.01
expand: MAIN (3, 0) FAR  w(0) 5068. F 0.00
expand: query!0 (4, 0) FAR  w(0) 1. F 0.00
(spacer::context::check_reachability :time 0.05 :before-memory 7.67 :after-memory 8.40)
Propagating: 0 1 2 3 4  ! 5 
(spacer::context::propagate :time 0.02 :before-memory 8.40 :after-memory 8.50)
Entering level 5
BRUNCH_STAT max_query_lvl 4
BRUNCH_STAT num_queries 22
BRUNCH_STAT num_reach_queries 0
BRUNCH_STAT num_reach_reuse 0
BRUNCH_STAT inductive_lvl 0
BRUNCH_STAT max_depth 5
BRUNCH_STAT cex_depth 0
expand: query!0 (5, 0) FAR  w(0) 1.
	create_child: MAIN (4, 5) FAR 5068 U 0.00
expand: MAIN (4, 0) FAR  w(0) 5068.
	create_child: MAIN (3, 5) FAR 13787 U 0.00
expand: MAIN (3, 0) FAR  w(0) 13787.
	create_child: MAIN (2, 5) FAR 21397 U 0.00
expand: MAIN (2, 0) FAR  w(0) 21397.
	create_child: MAIN (1, 5) FAR 21458 U 0.00
expand: MAIN (1, 0) FAR  w(0) 21458. F 0.01
expand: MAIN (2, 0) FAR  w(0) 21397. F 0.01
expand: MAIN (3, 0) FAR  w(0) 13787.
	create_child: MAIN (2, 5) FAR 18134 U 0.00
expand: MAIN (2, 0) FAR  w(0) 18134.
	create_child: MAIN (1, 5) FAR 23043 U 0.00
expand: MAIN (1, 0) FAR  w(0) 23043. F 0.01
expand: MAIN (2, 0) FAR  w(0) 18134. F 0.01
expand: MAIN (3, 0) FAR  w(0) 13787.
	create_child: MAIN (2, 5) FAR 24062 U 0.00
expand: MAIN (2, 0) FAR  w(0) 24062. F 0.01
expand: MAIN (3, 0) FAR  w(0) 13787.
	create_child: MAIN (2, 5) FAR 24929 U 0.00
expand: MAIN (2, 0) FAR  w(0) 24929. F 0.01
expand: MAIN (3, 0) FAR  w(0) 13787.
	create_child: MAIN (2, 5) FAR 25231 U 0.00
expand: MAIN (2, 0) FAR  w(0) 25231. F 0.01
expand: MAIN (3, 0) FAR  w(0) 13787. F 0.01
expand: MAIN (4, 0) FAR  w(0) 5068.
	create_child: MAIN (3, 5) FAR 10497 U 0.00
expand: MAIN (3, 0) FAR  w(0) 10497.
	create_child: MAIN (2, 5) FAR 26344 U 0.00
expand: MAIN (2, 0) FAR  w(0) 26344. F 0.01
expand: MAIN (3, 0) FAR  w(0) 10497. F 0.01
expand: MAIN (4, 0) FAR  w(0) 5068. F 0.00
expand: query!0 (5, 0) FAR  w(0) 1. F 0.00
(spacer::context::check_reachability :time 0.10 :before-memory 8.50 :after-memory 9.90)
Propagating: 1 2 3 4 5  ! 6 
(spacer::context::propagate :time 0.02 :before-memory 9.90 :after-memory 10.19)
Entering level 6
BRUNCH_STAT max_query_lvl 5
BRUNCH_STAT num_queries 33
BRUNCH_STAT num_reach_queries 0
BRUNCH_STAT num_reach_reuse 0
BRUNCH_STAT inductive_lvl 0
BRUNCH_STAT max_depth 6
BRUNCH_STAT cex_depth 0
expand: query!0 (6, 0) FAR  w(0) 1.
	create_child: MAIN (5, 6) FAR 5068 U 0.00
expand: MAIN (5, 0) FAR  w(0) 5068.
	create_child: MAIN (4, 6) FAR 13787 U 0.00
expand: MAIN (4, 0) FAR  w(0) 13787.
	create_child: MAIN (3, 6) FAR 24062 U 0.00
expand: MAIN (3, 0) FAR  w(0) 24062.
	create_child: MAIN (2, 6) FAR 30848 U 0.00
expand: MAIN (2, 0) FAR  w(0) 30848.
	create_child: MAIN (1, 6) FAR 31382 U 0.00
expand: MAIN (1, 0) FAR  w(0) 31382. F 0.01
expand: MAIN (2, 0) FAR  w(0) 30848. F 0.01
expand: MAIN (3, 0) FAR  w(0) 24062. F 0.01
expand: MAIN (4, 0) FAR  w(0) 13787.
	create_child: MAIN (3, 6) FAR 21397 U 0.00
expand: MAIN (3, 0) FAR  w(0) 21397.
	create_child: MAIN (2, 6) FAR 33049 U 0.00
expand: MAIN (2, 0) FAR  w(0) 33049. F 0.01
expand: MAIN (3, 0) FAR  w(0) 21397.
	create_child: MAIN (2, 6) FAR 33514 U 0.00
expand: MAIN (2, 0) FAR  w(0) 33514. F 0.01
expand: MAIN (3, 0) FAR  w(0) 21397.
	create_child: MAIN (2, 6) FAR 34187 U 0.00
expand: MAIN (2, 0) FAR  w(0) 34187. F 0.01
expand: MAIN (3, 0) FAR  w(0) 21397. F 0.01
expand: MAIN (4, 0) FAR  w(0) 13787.
	create_child: MAIN (3, 6) FAR 34577 U 0.00
expand: MAIN (3, 0) FAR  w(0) 34577.
	create_child: MAIN (2, 6) FAR 35147 U 0.00
expand: MAIN (2, 0) FAR  w(0) 35147. F 0.00
expand: MAIN (3, 0) FAR  w(0) 34577. F 0.01
expand: MAIN (4, 0) FAR  w(0) 13787.
	create_child: MAIN (3, 6) FAR 18134 U 0.00
expand: MAIN (3, 0) FAR  w(0) 18134. F 0.01
expand: MAIN (4, 0) FAR  w(0) 13787.
	create_child: MAIN (3, 6) FAR 24929 U 0.00
expand: MAIN (3, 0) FAR  w(0) 24929. F 0.01
expand: MAIN (4, 0) FAR  w(0) 13787. F 0.01
expand: MAIN (5, 0) FAR  w(0) 5068. F 0.00
expand: query!0 (6, 0) FAR  w(0) 1. F 0.00
(spacer::context::check_reachability :time 0.13 :before-memory 10.19 :after-memory 11.14)
Propagating: 1 2 3 4 5 6  ! 7 
(spacer::context::propagate :time 0.04 :before-memory 11.14 :after-memory 11.42)
Entering level 7
BRUNCH_STAT max_query_lvl 6
BRUNCH_STAT num_queries 46
BRUNCH_STAT num_reach_queries 0
BRUNCH_STAT num_reach_reuse 0
BRUNCH_STAT inductive_lvl 0
BRUNCH_STAT max_depth 7
BRUNCH_STAT cex_depth 0
expand: query!0 (7, 0) FAR  w(0) 1.
	create_child: MAIN (6, 7) FAR 5068 U 0.00
expand: MAIN (6, 0) FAR  w(0) 5068.
	create_child: MAIN (5, 7) FAR 13787 U 0.00
expand: MAIN (5, 0) FAR  w(0) 13787.
	create_child: MAIN (4, 7) FAR 21397 U 0.00
expand: MAIN (4, 0) FAR  w(0) 21397.
	create_child: MAIN (3, 7) FAR 33049 U 0.00
expand: MAIN (3, 0) FAR  w(0) 33049.
	create_child: MAIN (2, 7) FAR 42698 U 0.00
expand: MAIN (2, 0) FAR  w(0) 42698. F 0.01
expand: MAIN (3, 0) FAR  w(0) 33049.
	create_child: MAIN (2, 7) FAR 43336 U 0.00
expand: MAIN (2, 0) FAR  w(0) 43336. F 0.01
expand: MAIN (3, 0) FAR  w(0) 33049.
	create_child: MAIN (2, 7) FAR 43710 U 0.00
expand: MAIN (2, 0) FAR  w(0) 43710. F 0.01
expand: MAIN (3, 0) FAR  w(0) 33049. F 0.01
expand: MAIN (4, 0) FAR  w(0) 21397.
	create_child: MAIN (3, 7) FAR 34187 U 0.00
expand: MAIN (3, 0) FAR  w(0) 34187.
	create_child: MAIN (2, 7) FAR 44389 U 0.00
expand: MAIN (2, 0) FAR  w(0) 44389. F 0.01
expand: MAIN (3, 0) FAR  w(0) 34187. F 0.01
expand: MAIN (4, 0) FAR  w(0) 21397.
	create_child: MAIN (3, 7) FAR 45300 U 0.00
expand: MAIN (3, 0) FAR  w(0) 45300.
	create_child: MAIN (2, 7) FAR 45289 U 0.00
expand: MAIN (2, 0) FAR  w(0) 45289. F 0.01
expand: MAIN (3, 0) FAR  w(0) 45300. F 0.02
expand: MAIN (4, 0) FAR  w(0) 21397. F 0.01
expand: MAIN (5, 0) FAR  w(0) 13787.
	create_child: MAIN (4, 7) FAR 24929 U 0.00
expand: MAIN (4, 0) FAR  w(0) 24929. F 0.01
expand: MAIN (5, 0) FAR  w(0) 13787. F 0.01
expand: MAIN (6, 0) FAR  w(0) 5068. F 0.00
expand: query!0 (7, 0) FAR  w(0) 1. F 0.00
(spacer::context::check_reachability :time 0.14 :before-memory 11.42 :after-memory 12.32)
Propagating: 2 3 4 5 6 7  ! 8 
(spacer::context::propagate :time 0.06 :before-memory 12.32 :after-memory 13.99)
Entering level 8
BRUNCH_STAT max_query_lvl 7
BRUNCH_STAT num_queries 58
BRUNCH_STAT num_reach_queries 0
BRUNCH_STAT num_reach_reuse 0
BRUNCH_STAT inductive_lvl 0
BRUNCH_STAT max_depth 8
BRUNCH_STAT cex_depth 0
expand: query!0 (8, 0) FAR  w(0) 1.
	create_child: MAIN (7, 8) FAR 5068 U 0.00
expand: MAIN (7, 0) FAR  w(0) 5068.
	create_child: MAIN (6, 8) FAR 13787 U 0.00
expand: MAIN (6, 0) FAR  w(0) 13787.
	create_child: MAIN (5, 8) FAR 21397 U 0.00
expand: MAIN (5, 0) FAR  w(0) 21397.
	create_child: MAIN (4, 8) FAR 33049 U 0.00
expand: MAIN (4, 0) FAR  w(0) 33049.
	create_child: MAIN (3, 8) FAR 42698 U 0.00
expand: MAIN (3, 0) FAR  w(0) 42698.
	create_child: MAIN (2, 8) FAR 54327 U 0.00
expand: MAIN (2, 0) FAR  w(0) 54327. F 0.01
expand: MAIN (3, 0) FAR  w(0) 42698.
	create_child: MAIN (2, 8) FAR 54895 U 0.00
expand: MAIN (2, 0) FAR  w(0) 54895. F 0.01
expand: MAIN (3, 0) FAR  w(0) 42698.
	create_child: MAIN (2, 8) FAR 55387 U 0.00
expand: MAIN (2, 0) FAR  w(0) 55387. F 0.01
expand: MAIN (3, 0) FAR  w(0) 42698.
	create_child: MAIN (2, 8) FAR 55540 U 0.00
expand: MAIN (2, 0) FAR  w(0) 55540. F 0.01
expand: MAIN (3, 0) FAR  w(0) 42698. F 0.01
expand: MAIN (4, 0) FAR  w(0) 33049.
	create_child: MAIN (3, 8) FAR 43710 U 0.00
expand: MAIN (3, 0) FAR  w(0) 43710.
	create_child: MAIN (2, 8) FAR 57427 U 0.00
expand: MAIN (2, 0) FAR  w(0) 57427. F 0.01
expand: MAIN (3, 0) FAR  w(0) 43710. F 0.01
expand: MAIN (4, 0) FAR  w(0) 33049.
	create_child: MAIN (3, 8) FAR 58864 U 0.00
expand: MAIN (3, 0) FAR  w(0) 58864. F 0.01
expand: MAIN (4, 0) FAR  w(0) 33049. F 0.01
expand: MAIN (5, 0) FAR  w(0) 21397. F 0.01
expand: MAIN (6, 0) FAR  w(0) 13787. F 0.01
expand: MAIN (7, 0) FAR  w(0) 5068. F 0.00
expand: query!0 (8, 0) FAR  w(0) 1. F 0.00
(spacer::context::check_reachability :time 0.15 :before-memory 13.99 :after-memory 14.82)
Propagating: 2 3 4 5 6 7 8  ! 9 
(spacer::context::propagate :time 0.08 :before-memory 14.82 :after-memory 15.77)
Entering level 9
BRUNCH_STAT max_query_lvl 8
BRUNCH_STAT num_queries 70
BRUNCH_STAT num_reach_queries 0
BRUNCH_STAT num_reach_reuse 0
BRUNCH_STAT inductive_lvl 0
BRUNCH_STAT max_depth 9
BRUNCH_STAT cex_depth 0
expand: query!0 (9, 0) FAR  w(0) 1.
	create_child: MAIN (8, 9) FAR 5068 U 0.00
expand: MAIN (8, 0) FAR  w(0) 5068.
	create_child: MAIN (7, 9) FAR 13787 U 0.00
expand: MAIN (7, 0) FAR  w(0) 13787.
	create_child: MAIN (6, 9) FAR 21397 U 0.00
expand: MAIN (6, 0) FAR  w(0) 21397.
	create_child: MAIN (5, 9) FAR 33049 U 0.00
expand: MAIN (5, 0) FAR  w(0) 33049.
	create_child: MAIN (4, 9) FAR 42698 U 0.00
expand: MAIN (4, 0) FAR  w(0) 42698.
	create_child: MAIN (3, 9) FAR 54327 U 0.00
expand: MAIN (3, 0) FAR  w(0) 54327.
	create_child: MAIN (2, 9) FAR 69630 U 0.00
expand: MAIN (2, 0) FAR  w(0) 69630. F 0.01
expand: MAIN (3, 0) FAR  w(0) 54327.
	create_child: MAIN (2, 9) FAR 70577 U 0.00
expand: MAIN (2, 0) FAR  w(0) 70577. F 0.01
expand: MAIN (3, 0) FAR  w(0) 54327.
	create_child: MAIN (2, 9) FAR 71226 U 0.00
expand: MAIN (2, 0) FAR  w(0) 71226. F 0.01
expand: MAIN (3, 0) FAR  w(0) 54327. F 0.01
expand: MAIN (4, 0) FAR  w(0) 42698. F 0.01
expand: MAIN (5, 0) FAR  w(0) 33049. F 0.01
expand: MAIN (6, 0) FAR  w(0) 21397. F 0.01
expand: MAIN (7, 0) FAR  w(0) 13787. F 0.02
expand: MAIN (8, 0) FAR  w(0) 5068. F 0.00
expand: query!0 (9, 0) FAR  w(0) 1. F 0.00
(spacer::context::check_reachability :time 0.13 :before-memory 15.77 :after-memory 16.39)
Propagating: 2 3 4 5 6 7 8 9  ! 10 
(spacer::context::propagate :time 0.07 :before-memory 16.39 :after-memory 16.68)
Entering level 10
BRUNCH_STAT max_query_lvl 9
BRUNCH_STAT num_queries 79
BRUNCH_STAT num_reach_queries 0
BRUNCH_STAT num_reach_reuse 0
BRUNCH_STAT inductive_lvl 0
BRUNCH_STAT max_depth 10
BRUNCH_STAT cex_depth 0
expand: query!0 (10, 0) FAR  w(0) 1.
	create_child: MAIN (9, 10) FAR 5068 U 0.00
expand: MAIN (9, 0) FAR  w(0) 5068.
	create_child: MAIN (8, 10) FAR 13787 U 0.00
expand: MAIN (8, 0) FAR  w(0) 13787.
	create_child: MAIN (7, 10) FAR 21397 U 0.00
expand: MAIN (7, 0) FAR  w(0) 21397.
	create_child: MAIN (6, 10) FAR 33049 U 0.00
expand: MAIN (6, 0) FAR  w(0) 33049.
	create_child: MAIN (5, 10) FAR 42698 U 0.00
expand: MAIN (5, 0) FAR  w(0) 42698.
	create_child: MAIN (4, 10) FAR 54327 U 0.00
expand: MAIN (4, 0) FAR  w(0) 54327.
	create_child: MAIN (3, 10) FAR 71226 U 0.00
expand: MAIN (3, 0) FAR  w(0) 71226.
	create_child: MAIN (2, 10) FAR 78404 U 0.00
expand: MAIN (2, 0) FAR  w(0) 78404. F 0.01
expand: MAIN (3, 0) FAR  w(0) 71226.
	create_child: MAIN (2, 10) FAR 78387 U 0.00
expand: MAIN (2, 0) FAR  w(0) 78387. F 0.01
expand: MAIN (3, 0) FAR  w(0) 71226.
	create_child: MAIN (2, 10) FAR 79403 U 0.00
expand: MAIN (2, 0) FAR  w(0) 79403. F 0.01
expand: MAIN (3, 0) FAR  w(0) 71226. F 0.01
expand: MAIN (4, 0) FAR  w(0) 54327. F 0.01
expand: MAIN (5, 0) FAR  w(0) 42698. F 0.01
expand: MAIN (6, 0) FAR  w(0) 33049. F 0.01
expand: MAIN (7, 0) FAR  w(0) 21397. F 0.01
expand: MAIN (8, 0) FAR  w(0) 13787. F 0.01
expand: MAIN (9, 0) FAR  w(0) 5068. F 0.00
expand: query!0 (10, 0) FAR  w(0) 1. F 0.00
(spacer::context::check_reachability :time 0.14 :before-memory 16.68 :after-memory 17.23)
Propagating: 2 3 4 5 6 7 8 9 10  ! 11 
(spacer::context::propagate :time 0.07 :before-memory 17.23 :after-memory 17.42)
Entering level 11
BRUNCH_STAT max_query_lvl 10
BRUNCH_STAT num_queries 89
BRUNCH_STAT num_reach_queries 0
BRUNCH_STAT num_reach_reuse 0
BRUNCH_STAT inductive_lvl 0
BRUNCH_STAT max_depth 11
BRUNCH_STAT cex_depth 0
expand: query!0 (11, 0) FAR  w(0) 1.
	create_child: MAIN (10, 11) FAR 5068 U 0.00
expand: MAIN (10, 0) FAR  w(0) 5068.
	create_child: MAIN (9, 11) FAR 13787 U 0.00
expand: MAIN (9, 0) FAR  w(0) 13787.
	create_child: MAIN (8, 11) FAR 21397 U 0.00
expand: MAIN (8, 0) FAR  w(0) 21397.
	create_child: MAIN (7, 11) FAR 33049 U 0.00
expand: MAIN (7, 0) FAR  w(0) 33049.
	create_child: MAIN (6, 11) FAR 42698 U 0.00
expand: MAIN (6, 0) FAR  w(0) 42698.
	create_child: MAIN (5, 11) FAR 54327 U 0.00
expand: MAIN (5, 0) FAR  w(0) 54327.
	create_child: MAIN (4, 11) FAR 71226 U 0.00
expand: MAIN (4, 0) FAR  w(0) 71226.
	create_child: MAIN (3, 11) FAR 78404 U 0.00
expand: MAIN (3, 0) FAR  w(0) 78404. F 0.01
expand: MAIN (4, 0) FAR  w(0) 71226.
	create_child: MAIN (3, 11) FAR 79403 U 0.00
expand: MAIN (3, 0) FAR  w(0) 79403.
	create_child: MAIN (2, 11) FAR 86845 U 0.00
expand: MAIN (2, 0) FAR  w(0) 86845. F 0.01
expand: MAIN (3, 0) FAR  w(0) 79403.
	create_child: MAIN (2, 11) FAR 87475 U 0.00
expand: MAIN (2, 0) FAR  w(0) 87475. F 0.01
expand: MAIN (3, 0) FAR  w(0) 79403. F 0.01
expand: MAIN (4, 0) FAR  w(0) 71226. F 0.01
expand: MAIN (5, 0) FAR  w(0) 54327. F 0.01
expand: MAIN (6, 0) FAR  w(0) 42698. F 0.01
expand: MAIN (7, 0) FAR  w(0) 33049. F 0.01
expand: MAIN (8, 0) FAR  w(0) 21397. F 0.01
expand: MAIN (9, 0) FAR  w(0) 13787. F 0.01
expand: MAIN (10, 0) FAR  w(0) 5068. F 0.00
expand: query!0 (11, 0) FAR  w(0) 1. F 0.00
(spacer::context::check_reachability :time 0.16 :before-memory 17.42 :after-memory 18.06)
Propagating: 2 3 4 5 6 7 8 9 10 11  ! 12 
(spacer::context::propagate :time 0.08 :before-memory 18.06 :after-memory 18.15)
Entering level 12
BRUNCH_STAT max_query_lvl 11
BRUNCH_STAT num_queries 100
BRUNCH_STAT num_reach_queries 0
BRUNCH_STAT num_reach_reuse 0
BRUNCH_STAT inductive_lvl 0
BRUNCH_STAT max_depth 12
BRUNCH_STAT cex_depth 0
expand: query!0 (12, 0) FAR  w(0) 1.
	create_child: MAIN (11, 12) FAR 5068 U 0.00
expand: MAIN (11, 0) FAR  w(0) 5068.
	create_child: MAIN (10, 12) FAR 13787 U 0.00
expand: MAIN (10, 0) FAR  w(0) 13787.
	create_child: MAIN (9, 12) FAR 21397 U 0.00
expand: MAIN (9, 0) FAR  w(0) 21397.
	create_child: MAIN (8, 12) FAR 33049 U 0.00
expand: MAIN (8, 0) FAR  w(0) 33049.
	create_child: MAIN (7, 12) FAR 42698 U 0.00
expand: MAIN (7, 0) FAR  w(0) 42698.
	create_child: MAIN (6, 12) FAR 54327 U 0.00
expand: MAIN (6, 0) FAR  w(0) 54327.
	create_child: MAIN (5, 12) FAR 71226 U 0.00
expand: MAIN (5, 0) FAR  w(0) 71226.
	create_child: MAIN (4, 12) FAR 79403 U 0.00
expand: MAIN (4, 0) FAR  w(0) 79403.
	create_child: MAIN (3, 12) FAR 87475 U 0.00
expand: MAIN (3, 0) FAR  w(0) 87475.
	create_child: MAIN (2, 12) FAR 93757 U 0.00
expand: MAIN (2, 0) FAR  w(0) 93757. F 0.01
expand: MAIN (3, 0) FAR  w(0) 87475.
	create_child: MAIN (2, 12) FAR 94201 U 0.00
expand: MAIN (2, 0) FAR  w(0) 94201. F 0.01
expand: MAIN (3, 0) FAR  w(0) 87475. F 0.01
expand: MAIN (4, 0) FAR  w(0) 79403.
	create_child: MAIN (3, 12) FAR 95103 U 0.00
expand: MAIN (3, 0) FAR  w(0) 95103. F 0.01
expand: MAIN (4, 0) FAR  w(0) 79403. F 0.01
expand: MAIN (5, 0) FAR  w(0) 71226. F 0.01
expand: MAIN (6, 0) FAR  w(0) 54327. F 0.01
expand: MAIN (7, 0) FAR  w(0) 42698. F 0.01
expand: MAIN (8, 0) FAR  w(0) 33049. F 0.01
expand: MAIN (9, 0) FAR  w(0) 21397. F 0.01
expand: MAIN (10, 0) FAR  w(0) 13787. F 0.01
expand: MAIN (11, 0) FAR  w(0) 5068. F 0.00
expand: query!0 (12, 0) FAR  w(0) 1. F 0.00
(spacer::context::check_reachability :time 0.19 :before-memory 18.15 :after-memory 18.99)
Propagating: 2 3 4 5 6 7 8 9 10 11 12  ! 13 
(spacer::context::propagate :time 0.10 :before-memory 18.99 :after-memory 19.19)
Entering level 13
BRUNCH_STAT max_query_lvl 12
BRUNCH_STAT num_queries 112
BRUNCH_STAT num_reach_queries 0
BRUNCH_STAT num_reach_reuse 0
BRUNCH_STAT inductive_lvl 0
BRUNCH_STAT max_depth 13
BRUNCH_STAT cex_depth 0
expand: query!0 (13, 0) FAR  w(0) 1.
	create_child: MAIN (12, 13) FAR 5068 U 0.00
expand: MAIN (12, 0) FAR  w(0) 5068.
	create_child: MAIN (11, 13) FAR 13787 U 0.00
expand: MAIN (11, 0) FAR  w(0) 13787.
	create_child: MAIN (10, 13) FAR 21397 U 0.00
expand: MAIN (10, 0) FAR  w(0) 21397.
	create_child: MAIN (9, 13) FAR 33049 U 0.00
expand: MAIN (9, 0) FAR  w(0) 33049.
	create_child: MAIN (8, 13) FAR 42698 U 0.00
expand: MAIN (8, 0) FAR  w(0) 42698.
	create_child: MAIN (7, 13) FAR 54327 U 0.00
expand: MAIN (7, 0) FAR  w(0) 54327.
	create_child: MAIN (6, 13) FAR 71226 U 0.00
expand: MAIN (6, 0) FAR  w(0) 71226.
	create_child: MAIN (5, 13) FAR 78404 U 0.00
expand: MAIN (5, 0) FAR  w(0) 78404. F 0.02
expand: MAIN (6, 0) FAR  w(0) 71226.
	create_child: MAIN (5, 13) FAR 79403 U 0.00
expand: MAIN (5, 0) FAR  w(0) 79403.
	create_child: MAIN (4, 13) FAR 87475 U 0.00
expand: MAIN (4, 0) FAR  w(0) 87475.
	create_child: MAIN (3, 13) FAR 94201 U 0.00
expand: MAIN (3, 0) FAR  w(0) 94201.
	create_child: MAIN (2, 13) FAR 101409 U 0.00
expand: MAIN (2, 0) FAR  w(0) 101409. F 0.01
expand: MAIN (3, 0) FAR  w(0) 94201.
	create_child: MAIN (2, 13) FAR 102019 U 0.00
expand: MAIN (2, 0) FAR  w(0) 102019. F 0.02
expand: MAIN (3, 0) FAR  w(0) 94201. F 0.01
expand: MAIN (4, 0) FAR  w(0) 87475.
	create_child: MAIN (3, 13) FAR 102513 U 0.00
expand: MAIN (3, 0) FAR  w(0) 102513. F 0.01
expand: MAIN (4, 0) FAR  w(0) 87475. F 0.01
expand: MAIN (5, 0) FAR  w(0) 79403.
	create_child: MAIN (4, 13) FAR 103305 UNDEF 0.00
expand: MAIN (4, 0) FAR  w(0) 103305.
	create_child: MAIN (3, 13) FAR 103318 U 0.00
expand: MAIN (3, 0) FAR  w(0) 103318.
	create_child: MAIN (2, 13) FAR 103521 U 0.00
expand: MAIN (2, 0) FAR  w(0) 103521.
	create_child: MAIN (1, 13) FAR 102228 U 0.00
expand: MAIN (1, 0) FAR  w(0) 102228. T 0.01
is-reachable: MAIN (2, 0) FAR 103521 T 0.01
is-reachable: MAIN (3, 0) FAR 103318 T 0.01
is-reachable: MAIN (4, 0) FAR 103305 T 0.01
is-reachable: MAIN (5, 0) FAR 79403 F 0.01
Deleting closed node: MAIN(2, 13) 103521
Deleting closed node: MAIN(3, 13) 103318
Deleting closed node: MAIN(4, 13) 103305
expand: MAIN (5, 0) FAR  w(1) 79403.
	create_child: MAIN (4, 13) FAR 95103 U 0.00
expand: MAIN (4, 0) FAR  w(0) 95103.
	create_child: MAIN (3, 13) FAR 109824 U 0.01
expand: MAIN (3, 0) FAR  w(0) 109824. F 0.02
expand: MAIN (4, 0) FAR  w(0) 95103. F 0.01
expand: MAIN (5, 0) FAR  w(1) 79403. F 0.02
expand: MAIN (6, 0) FAR  w(0) 71226. F 0.02
expand: MAIN (7, 0) FAR  w(0) 54327. F 0.02
expand: MAIN (8, 0) FAR  w(0) 42698. F 0.02
expand: MAIN (9, 0) FAR  w(0) 33049. F 0.02
expand: MAIN (10, 0) FAR  w(0) 21397. F 0.02
expand: MAIN (11, 0) FAR  w(0) 13787. F 0.01
expand: MAIN (12, 0) FAR  w(0) 5068. F 0.00
expand: query!0 (13, 0) FAR  w(0) 1. F 0.00
(spacer::context::check_reachability :time 0.38 :before-memory 19.19 :after-memory 25.39)
Propagating: 2 3 4 5 6 7 8 9 10 11 12 13  ! 14 
(spacer::context::propagate :time 0.09 :before-memory 25.39 :after-memory 25.58)
Entering level 14
BRUNCH_STAT max_query_lvl 13
BRUNCH_STAT num_queries 132
BRUNCH_STAT num_reach_queries 4
BRUNCH_STAT num_reach_reuse 1
BRUNCH_STAT inductive_lvl 0
BRUNCH_STAT max_depth 14
BRUNCH_STAT cex_depth 0
expand: query!0 (14, 0) FAR  w(0) 1.
	create_child: MAIN (13, 14) FAR 5068 U 0.00
expand: MAIN (13, 0) FAR  w(0) 5068.
	create_child: MAIN (12, 14) FAR 13787 U 0.00
expand: MAIN (12, 0) FAR  w(0) 13787.
	create_child: MAIN (11, 14) FAR 21397 U 0.00
expand: MAIN (11, 0) FAR  w(0) 21397.
	create_child: MAIN (10, 14) FAR 33049 U 0.00
expand: MAIN (10, 0) FAR  w(0) 33049.
	create_child: MAIN (9, 14) FAR 42698 U 0.00
expand: MAIN (9, 0) FAR  w(0) 42698.
	create_child: MAIN (8, 14) FAR 54327 U 0.00
expand: MAIN (8, 0) FAR  w(0) 54327.
	create_child: MAIN (7, 14) FAR 71226 U 0.00
expand: MAIN (7, 0) FAR  w(0) 71226.
	create_child: MAIN (6, 14) FAR 79403 U 0.01
expand: MAIN (6, 0) FAR  w(0) 79403.
	create_child: MAIN (5, 14) FAR 87475 U 0.00
expand: MAIN (5, 0) FAR  w(0) 87475.
	create_child: MAIN (4, 14) FAR 94201 U 0.01
expand: MAIN (4, 0) FAR  w(0) 94201.
	create_child: MAIN (3, 14) FAR 102019 U 0.01
expand: MAIN (3, 0) FAR  w(0) 102019.
	create_child: MAIN (2, 14) FAR 122349 U 0.00
expand: MAIN (2, 0) FAR  w(0) 122349. F 0.02
expand: MAIN (3, 0) FAR  w(0) 102019. F 0.02
expand: MAIN (4, 0) FAR  w(0) 94201. F 0.02
expand: MAIN (5, 0) FAR  w(0) 87475. F 0.02
expand: MAIN (6, 0) FAR  w(0) 79403. F 0.02
expand: MAIN (7, 0) FAR  w(0) 71226. F 0.02
expand: MAIN (8, 0) FAR  w(0) 54327. F 0.02
expand: MAIN (9, 0) FAR  w(0) 42698. F 0.02
expand: MAIN (10, 0) FAR  w(0) 33049. F 0.02
expand: MAIN (11, 0) FAR  w(0) 21397. F 0.02
expand: MAIN (12, 0) FAR  w(0) 13787. F 0.01
expand: MAIN (13, 0) FAR  w(0) 5068. F 0.00
expand: query!0 (14, 0) FAR  w(0) 1. F 0.00
(spacer::context::check_reachability :time 0.25 :before-memory 25.58 :after-memory 26.41)
Propagating: 2 3 4 5 6 7 8 9 10 11 12 13 14  ! 15 
(spacer::context::propagate :time 0.10 :before-memory 26.41 :after-memory 26.42)
Entering level 15
BRUNCH_STAT max_query_lvl 14
BRUNCH_STAT num_queries 144
BRUNCH_STAT num_reach_queries 4
BRUNCH_STAT num_reach_reuse 1
BRUNCH_STAT inductive_lvl 0
BRUNCH_STAT max_depth 15
BRUNCH_STAT cex_depth 0
expand: query!0 (15, 0) FAR  w(0) 1.
	create_child: MAIN (14, 15) FAR 5068 U 0.00
expand: MAIN (14, 0) FAR  w(0) 5068.
	create_child: MAIN (13, 15) FAR 13787 U 0.00
expand: MAIN (13, 0) FAR  w(0) 13787.
	create_child: MAIN (12, 15) FAR 21397 U 0.00
expand: MAIN (12, 0) FAR  w(0) 21397.
	create_child: MAIN (11, 15) FAR 33049 U 0.00
expand: MAIN (11, 0) FAR  w(0) 33049.
	create_child: MAIN (10, 15) FAR 42698 U 0.00
expand: MAIN (10, 0) FAR  w(0) 42698.
	create_child: MAIN (9, 15) FAR 54327 U 0.00
expand: MAIN (9, 0) FAR  w(0) 54327.
	create_child: MAIN (8, 15) FAR 71226 U 0.00
expand: MAIN (8, 0) FAR  w(0) 71226.
	create_child: MAIN (7, 15) FAR 79403 U 0.00
expand: MAIN (7, 0) FAR  w(0) 79403.
	create_child: MAIN (6, 15) FAR 87475 U 0.00
expand: MAIN (6, 0) FAR  w(0) 87475.
	create_child: MAIN (5, 15) FAR 94201 U 0.00
expand: MAIN (5, 0) FAR  w(0) 94201.
	create_child: MAIN (4, 15) FAR 102019 U 0.00
expand: MAIN (4, 0) FAR  w(0) 102019.
	create_child: MAIN (3, 15) FAR 122349 U 0.00
expand: MAIN (3, 0) FAR  w(0) 122349.
	create_child: MAIN (2, 15) FAR 130216 U 0.00
expand: MAIN (2, 0) FAR  w(0) 130216. F 0.02
expand: MAIN (3, 0) FAR  w(0) 122349. F 0.02
expand: MAIN (4, 0) FAR  w(0) 102019. F 0.02
expand: MAIN (5, 0) FAR  w(0) 94201. F 0.02
expand: MAIN (6, 0) FAR  w(0) 87475. F 0.02
expand: MAIN (7, 0) FAR  w(0) 79403. F 0.02
expand: MAIN (8, 0) FAR  w(0) 71226. F 0.02
expand: MAIN (9, 0) FAR  w(0) 54327. F 0.02
expand: MAIN (10, 0) FAR  w(0) 42698. F 0.02
expand: MAIN (11, 0) FAR  w(0) 33049. F 0.02
expand: MAIN (12, 0) FAR  w(0) 21397. F 0.02
expand: MAIN (13, 0) FAR  w(0) 13787. F 0.01
expand: MAIN (14, 0) FAR  w(0) 5068. F 0.00
expand: query!0 (15, 0) FAR  w(0) 1. F 0.00
(spacer::context::check_reachability :time 0.26 :before-memory 26.42 :after-memory 27.14)
Propagating: 2 3 4 5 6 7 8 9 10 11 12 13 14 15  ! 16 
(spacer::context::propagate :time 0.12 :before-memory 27.14 :after-memory 27.24)
Entering level 16
BRUNCH_STAT max_query_lvl 15
BRUNCH_STAT num_queries 157
BRUNCH_STAT num_reach_queries 4
BRUNCH_STAT num_reach_reuse 1
BRUNCH_STAT inductive_lvl 0
BRUNCH_STAT max_depth 16
BRUNCH_STAT cex_depth 0
expand: query!0 (16, 0) FAR  w(0) 1.
	create_child: MAIN (15, 16) FAR 5068 U 0.00
expand: MAIN (15, 0) FAR  w(0) 5068.
	create_child: MAIN (14, 16) FAR 13787 U 0.00
expand: MAIN (14, 0) FAR  w(0) 13787.
	create_child: MAIN (13, 16) FAR 21397 U 0.00
expand: MAIN (13, 0) FAR  w(0) 21397.
	create_child: MAIN (12, 16) FAR 33049 U 0.00
expand: MAIN (12, 0) FAR  w(0) 33049.
	create_child: MAIN (11, 16) FAR 42698 U 0.00
expand: MAIN (11, 0) FAR  w(0) 42698.
	create_child: MAIN (10, 16) FAR 54327 U 0.00
expand: MAIN (10, 0) FAR  w(0) 54327.
	create_child: MAIN (9, 16) FAR 71226 U 0.00
expand: MAIN (9, 0) FAR  w(0) 71226.
	create_child: MAIN (8, 16) FAR 79403 U 0.00
expand: MAIN (8, 0) FAR  w(0) 79403.
	create_child: MAIN (7, 16) FAR 87475 U 0.00
expand: MAIN (7, 0) FAR  w(0) 87475.
	create_child: MAIN (6, 16) FAR 94201 U 0.00
expand: MAIN (6, 0) FAR  w(0) 94201.
	create_child: MAIN (5, 16) FAR 102019 U 0.00
expand: MAIN (5, 0) FAR  w(0) 102019.
	create_child: MAIN (4, 16) FAR 122349 U 0.00
expand: MAIN (4, 0) FAR  w(0) 122349.
	create_child: MAIN (3, 16) FAR 130216 U 0.00
expand: MAIN (3, 0) FAR  w(0) 130216.
	create_child: MAIN (2, 16) FAR 138214 U 0.00
expand: MAIN (2, 0) FAR  w(0) 138214. F 0.03
expand: MAIN (3, 0) FAR  w(0) 130216. F 0.02
expand: MAIN (4, 0) FAR  w(0) 122349. F 0.02
expand: MAIN (5, 0) FAR  w(0) 102019. F 0.02
expand: MAIN (6, 0) FAR  w(0) 94201. F 0.02
expand: MAIN (7, 0) FAR  w(0) 87475. F 0.02
expand: MAIN (8, 0) FAR  w(0) 79403. F 0.02
expand: MAIN (9, 0) FAR  w(0) 71226. F 0.02
expand: MAIN (10, 0) FAR  w(0) 54327. F 0.02
expand: MAIN (11, 0) FAR  w(0) 42698. F 0.02
expand: MAIN (12, 0) FAR  w(0) 33049. F 0.02
expand: MAIN (13, 0) FAR  w(0) 21397. F 0.01
expand: MAIN (14, 0) FAR  w(0) 13787. F 0.01
expand: MAIN (15, 0) FAR  w(0) 5068. F 0.00
expand: query!0 (16, 0) FAR  w(0) 1. F 0.00
(spacer::context::check_reachability :time 0.29 :before-memory 27.24 :after-memory 28.81)
Propagating: 2 3 4 5 6 7 8 9 10 11 12 13 14 15 16  ! 17 
(spacer::context::propagate :time 0.13 :before-memory 28.81 :after-memory 29.02)
Entering level 17
BRUNCH_STAT max_query_lvl 16
BRUNCH_STAT num_queries 171
BRUNCH_STAT num_reach_queries 4
BRUNCH_STAT num_reach_reuse 1
BRUNCH_STAT inductive_lvl 0
BRUNCH_STAT max_depth 17
BRUNCH_STAT cex_depth 0
expand: query!0 (17, 0) FAR  w(0) 1.
	create_child: MAIN (16, 17) FAR 5068 U 0.00
expand: MAIN (16, 0) FAR  w(0) 5068.
	create_child: MAIN (15, 17) FAR 13787 U 0.00
expand: MAIN (15, 0) FAR  w(0) 13787.
	create_child: MAIN (14, 17) FAR 21397 U 0.00
expand: MAIN (14, 0) FAR  w(0) 21397.
	create_child: MAIN (13, 17) FAR 33049 U 0.00
expand: MAIN (13, 0) FAR  w(0) 33049.
	create_child: MAIN (12, 17) FAR 42698 U 0.00
expand: MAIN (12, 0) FAR  w(0) 42698.
	create_child: MAIN (11, 17) FAR 54327 U 0.00
expand: MAIN (11, 0) FAR  w(0) 54327.
	create_child: MAIN (10, 17) FAR 71226 U 0.00
expand: MAIN (10, 0) FAR  w(0) 71226.
	create_child: MAIN (9, 17) FAR 79403 U 0.00
expand: MAIN (9, 0) FAR  w(0) 79403.
	create_child: MAIN (8, 17) FAR 87475 U 0.00
expand: MAIN (8, 0) FAR  w(0) 87475.
	create_child: MAIN (7, 17) FAR 94201 U 0.00
expand: MAIN (7, 0) FAR  w(0) 94201.
	create_child: MAIN (6, 17) FAR 102019 U 0.00
expand: MAIN (6, 0) FAR  w(0) 102019.
	create_child: MAIN (5, 17) FAR 122349 U 0.00
expand: MAIN (5, 0) FAR  w(0) 122349.
	create_child: MAIN (4, 17) FAR 130216 U 0.00
expand: MAIN (4, 0) FAR  w(0) 130216.
	create_child: MAIN (3, 17) FAR 138214 U 0.01
expand: MAIN (3, 0) FAR  w(0) 138214.
	create_child: MAIN (2, 17) FAR 144373 U 0.00
expand: MAIN (2, 0) FAR  w(0) 144373. F 0.02
expand: MAIN (3, 0) FAR  w(0) 138214. F 0.02
expand: MAIN (4, 0) FAR  w(0) 130216. F 0.02
expand: MAIN (5, 0) FAR  w(0) 122349. F 0.02
expand: MAIN (6, 0) FAR  w(0) 102019. F 0.02
expand: MAIN (7, 0) FAR  w(0) 94201. F 0.02
expand: MAIN (8, 0) FAR  w(0) 87475. F 0.02
expand: MAIN (9, 0) FAR  w(0) 79403. F 0.02
expand: MAIN (10, 0) FAR  w(0) 71226. F 0.02
expand: MAIN (11, 0) FAR  w(0) 54327. F 0.02
expand: MAIN (12, 0) FAR  w(0) 42698. F 0.02
expand: MAIN (13, 0) FAR  w(0) 33049. F 0.02
expand: MAIN (14, 0) FAR  w(0) 21397. F 0.02
expand: MAIN (15, 0) FAR  w(0) 13787. F 0.02
expand: MAIN (16, 0) FAR  w(0) 5068. F 0.00
expand: query!0 (17, 0) FAR  w(0) 1. F 0.00
(spacer::context::check_reachability :time 0.31 :before-memory 29.02 :after-memory 29.61)
Propagating: 2 3 4 5 6 7 8 9 10 11 12 13 14 15 16 17  ! 18 
(spacer::context::propagate :time 0.15 :before-memory 29.61 :after-memory 29.71)
Entering level 18
BRUNCH_STAT max_query_lvl 17
BRUNCH_STAT num_queries 186
BRUNCH_STAT num_reach_queries 4
BRUNCH_STAT num_reach_reuse 1
BRUNCH_STAT inductive_lvl 0
BRUNCH_STAT max_depth 18
BRUNCH_STAT cex_depth 0
expand: query!0 (18, 0) FAR  w(0) 1.
	create_child: MAIN (17, 18) FAR 5068 U 0.00
expand: MAIN (17, 0) FAR  w(0) 5068.
	create_child: MAIN (16, 18) FAR 13787 U 0.00
expand: MAIN (16, 0) FAR  w(0) 13787.
	create_child: MAIN (15, 18) FAR 21397 U 0.00
expand: MAIN (15, 0) FAR  w(0) 21397.
	create_child: MAIN (14, 18) FAR 33049 U 0.00
expand: MAIN (14, 0) FAR  w(0) 33049.
	create_child: MAIN (13, 18) FAR 42698 U 0.00
expand: MAIN (13, 0) FAR  w(0) 42698.
	create_child: MAIN (12, 18) FAR 54327 U 0.00
expand: MAIN (12, 0) FAR  w(0) 54327.
	create_child: MAIN (11, 18) FAR 71226 U 0.00
expand: MAIN (11, 0) FAR  w(0) 71226.
	create_child: MAIN (10, 18) FAR 79403 U 0.00
expand: MAIN (10, 0) FAR  w(0) 79403.
	create_child: MAIN (9, 18) FAR 87475 U 0.00
expand: MAIN (9, 0) FAR  w(0) 87475.
	create_child: MAIN (8, 18) FAR 94201 U 0.00
expand: MAIN (8, 0) FAR  w(0) 94201.
	create_child: MAIN (7, 18) FAR 102019 U 0.00
expand: MAIN (7, 0) FAR  w(0) 102019.
	create_child: MAIN (6, 18) FAR 122349 U 0.00
expand: MAIN (6, 0) FAR  w(0) 122349.
	create_child: MAIN (5, 18) FAR 130216 U 0.00
expand: MAIN (5, 0) FAR  w(0) 130216.
	create_child: MAIN (4, 18) FAR 138214 U 0.00
expand: MAIN (4, 0) FAR  w(0) 138214.
	create_child: MAIN (3, 18) FAR 144373 U 0.00
expand: MAIN (3, 0) FAR  w(0) 144373.
	create_child: MAIN (2, 18) FAR 151551 U 0.00
expand: MAIN (2, 0) FAR  w(0) 151551. F 0.02
expand: MAIN (3, 0) FAR  w(0) 144373. F 0.02
expand: MAIN (4, 0) FAR  w(0) 138214. F 0.02
expand: MAIN (5, 0) FAR  w(0) 130216. F 0.02
expand: MAIN (6, 0) FAR  w(0) 122349. F 0.02
expand: MAIN (7, 0) FAR  w(0) 102019. F 0.02
expand: MAIN (8, 0) FAR  w(0) 94201. F 0.02
expand: MAIN (9, 0) FAR  w(0) 87475. F 0.02
expand: MAIN (10, 0) FAR  w(0) 79403. F 0.02
expand: MAIN (11, 0) FAR  w(0) 71226. F 0.02
expand: MAIN (12, 0) FAR  w(0) 54327. F 0.02
expand: MAIN (13, 0) FAR  w(0) 42698. F 0.02
expand: MAIN (14, 0) FAR  w(0) 33049. F 0.02
expand: MAIN (15, 0) FAR  w(0) 21397. F 0.02
expand: MAIN (16, 0) FAR  w(0) 13787. F 0.01
expand: MAIN (17, 0) FAR  w(0) 5068. F 0.00
expand: query!0 (18, 0) FAR  w(0) 1. F 0.00
(spacer::context::check_reachability :time 0.35 :before-memory 29.71 :after-memory 30.33)
Propagating: 2 3 4 5 6 7 8 9 10 11 12 13 14 15 16 17 18  ! 19 
(spacer::context::propagate :time 0.17 :before-memory 30.33 :after-memory 30.43)
Entering level 19
BRUNCH_STAT max_query_lvl 18
BRUNCH_STAT num_queries 202
BRUNCH_STAT num_reach_queries 4
BRUNCH_STAT num_reach_reuse 1
BRUNCH_STAT inductive_lvl 0
BRUNCH_STAT max_depth 19
BRUNCH_STAT cex_depth 0
expand: query!0 (19, 0) FAR  w(0) 1.
	create_child: MAIN (18, 19) FAR 5068 U 0.00
expand: MAIN (18, 0) FAR  w(0) 5068.
	create_child: MAIN (17, 19) FAR 13787 U 0.00
expand: MAIN (17, 0) FAR  w(0) 13787.
	create_child: MAIN (16, 19) FAR 21397 U 0.00
expand: MAIN (16, 0) FAR  w(0) 21397.
	create_child: MAIN (15, 19) FAR 33049 U 0.00
expand: MAIN (15, 0) FAR  w(0) 33049.
	create_child: MAIN (14, 19) FAR 42698 U 0.00
expand: MAIN (14, 0) FAR  w(0) 42698.
	create_child: MAIN (13, 19) FAR 54327 U 0.00
expand: MAIN (13, 0) FAR  w(0) 54327.
	create_child: MAIN (12, 19) FAR 71226 U 0.00
expand: MAIN (12, 0) FAR  w(0) 71226.
	create_child: MAIN (11, 19) FAR 79403 U 0.00
expand: MAIN (11, 0) FAR  w(0) 79403.
	create_child: MAIN (10, 19) FAR 87475 U 0.00
expand: MAIN (10, 0) FAR  w(0) 87475.
	create_child: MAIN (9, 19) FAR 94201 U 0.00
expand: MAIN (9, 0) FAR  w(0) 94201.
	create_child: MAIN (8, 19) FAR 102019 U 0.00
expand: MAIN (8, 0) FAR  w(0) 102019.
	create_child: MAIN (7, 19) FAR 122349 U 0.00
expand: MAIN (7, 0) FAR  w(0) 122349.
	create_child: MAIN (6, 19) FAR 130216 U 0.00
expand: MAIN (6, 0) FAR  w(0) 130216.
	create_child: MAIN (5, 19) FAR 138214 U 0.01
expand: MAIN (5, 0) FAR  w(0) 138214.
	create_child: MAIN (4, 19) FAR 144373 U 0.00
expand: MAIN (4, 0) FAR  w(0) 144373.
	create_child: MAIN (3, 19) FAR 151551 U 0.00
expand: MAIN (3, 0) FAR  w(0) 151551.
	create_child: MAIN (2, 19) FAR 158460 U 0.00
expand: MAIN (2, 0) FAR  w(0) 158460. F 0.02
expand: MAIN (3, 0) FAR  w(0) 151551. F 0.03
expand: MAIN (4, 0) FAR  w(0) 144373. F 0.02
expand: MAIN (5, 0) FAR  w(0) 138214. F 0.02
expand: MAIN (6, 0) FAR  w(0) 130216. F 0.02
expand: MAIN (7, 0) FAR  w(0) 122349. F 0.02
expand: MAIN (8, 0) FAR  w(0) 102019. F 0.02
expand: MAIN (9, 0) FAR  w(0) 94201. F 0.02
expand: MAIN (10, 0) FAR  w(0) 87475. F 0.02
expand: MAIN (11, 0) FAR  w(0) 79403. F 0.02
expand: MAIN (12, 0) FAR  w(0) 71226. F 0.02
expand: MAIN (13, 0) FAR  w(0) 54327. F 0.02
expand: MAIN (14, 0) FAR  w(0) 42698. F 0.02
expand: MAIN (15, 0) FAR  w(0) 33049. F 0.02
expand: MAIN (16, 0) FAR  w(0) 21397. F 0.02
expand: MAIN (17, 0) FAR  w(0) 13787. F 0.02
expand: MAIN (18, 0) FAR  w(0) 5068. F 0.00
expand: query!0 (19, 0) FAR  w(0) 1. F 0.00
(spacer::context::check_reachability :time 0.38 :before-memory 30.43 :after-memory 31.10)
Propagating: 2 3 4 5 6 7 8 9 10 11 12 13 14 15 16 17 18 19  ! 20 
(spacer::context::propagate :time 0.19 :before-memory 31.10 :after-memory 31.31)
Entering level 20
BRUNCH_STAT max_query_lvl 19
BRUNCH_STAT num_queries 219
BRUNCH_STAT num_reach_queries 4
BRUNCH_STAT num_reach_reuse 1
BRUNCH_STAT inductive_lvl 0
BRUNCH_STAT max_depth 20
BRUNCH_STAT cex_depth 0
expand: query!0 (20, 0) FAR  w(0) 1.
	create_child: MAIN (19, 20) FAR 5068 U 0.00
expand: MAIN (19, 0) FAR  w(0) 5068.
	create_child: MAIN (18, 20) FAR 13787 U 0.00
expand: MAIN (18, 0) FAR  w(0) 13787.
	create_child: MAIN (17, 20) FAR 21397 U 0.01
expand: MAIN (17, 0) FAR  w(0) 21397.
	create_child: MAIN (16, 20) FAR 33049 U 0.01
expand: MAIN (16, 0) FAR  w(0) 33049.
	create_child: MAIN (15, 20) FAR 42698 U 0.00
expand: MAIN (15, 0) FAR  w(0) 42698.
	create_child: MAIN (14, 20) FAR 54327 U 0.00
expand: MAIN (14, 0) FAR  w(0) 54327.
	create_child: MAIN (13, 20) FAR 71226 U 0.00
expand: MAIN (13, 0) FAR  w(0) 71226.
	create_child: MAIN (12, 20) FAR 79403 U 0.00
expand: MAIN (12, 0) FAR  w(0) 79403.
	create_child: MAIN (11, 20) FAR 87475 U 0.00
expand: MAIN (11, 0) FAR  w(0) 87475.
	create_child: MAIN (10, 20) FAR 94201 U 0.00
expand: MAIN (10, 0) FAR  w(0) 94201.
	create_child: MAIN (9, 20) FAR 102019 U 0.00
expand: MAIN (9, 0) FAR  w(0) 102019.
	create_child: MAIN (8, 20) FAR 122349 U 0.00
expand: MAIN (8, 0) FAR  w(0) 122349.
	create_child: MAIN (7, 20) FAR 130216 U 0.00
expand: MAIN (7, 0) FAR  w(0) 130216.
	create_child: MAIN (6, 20) FAR 138214 U 0.01
expand: MAIN (6, 0) FAR  w(0) 138214.
	create_child: MAIN (5, 20) FAR 144373 U 0.00
expand: MAIN (5, 0) FAR  w(0) 144373.
	create_child: MAIN (4, 20) FAR 151551 U 0.00
expand: MAIN (4, 0) FAR  w(0) 151551.
	create_child: MAIN (3, 20) FAR 158460 U 0.01
expand: MAIN (3, 0) FAR  w(0) 158460.
	create_child: MAIN (2, 20) FAR 165639 U 0.00
expand: MAIN (2, 0) FAR  w(0) 165639. F 0.03
expand: MAIN (3, 0) FAR  w(0) 158460. F 0.03
expand: MAIN (4, 0) FAR  w(0) 151551. F 0.02
expand: MAIN (5, 0) FAR  w(0) 144373. F 0.02
expand: MAIN (6, 0) FAR  w(0) 138214. F 0.02
expand: MAIN (7, 0) FAR  w(0) 130216. F 0.02
expand: MAIN (8, 0) FAR  w(0) 122349. F 0.02
expand: MAIN (9, 0) FAR  w(0) 102019. F 0.02
expand: MAIN (10, 0) FAR  w(0) 94201. F 0.02
expand: MAIN (11, 0) FAR  w(0) 87475. F 0.02
expand: MAIN (12, 0) FAR  w(0) 79403. F 0.02
expand: MAIN (13, 0) FAR  w(0) 71226. F 0.02
expand: MAIN (14, 0) FAR  w(0) 54327. F 0.02
expand: MAIN (15, 0) FAR  w(0) 42698. F 0.02
expand: MAIN (16, 0) FAR  w(0) 33049. F 0.02
expand: MAIN (17, 0) FAR  w(0) 21397. F 0.02
expand: MAIN (18, 0) FAR  w(0) 13787. F 0.02
expand: MAIN (19, 0) FAR  w(0) 5068. F 0.00
expand: query!0 (20, 0) FAR  w(0) 1. F 0.00
(spacer::context::check_reachability :time 0.44 :before-memory 31.31 :after-memory 31.95)
Propagating: 2 3 4 5 6 7 8 9 10 11 12 13 14 15 16 17 18 19 20  ! 21 
(spacer::context::propagate :time 0.21 :before-memory 31.95 :after-memory 32.05)
Entering level 21
BRUNCH_STAT max_query_lvl 20
BRUNCH_STAT num_queries 237
BRUNCH_STAT num_reach_queries 4
BRUNCH_STAT num_reach_reuse 1
BRUNCH_STAT inductive_lvl 0
BRUNCH_STAT max_depth 21
BRUNCH_STAT cex_depth 0
expand: query!0 (21, 0) FAR  w(0) 1.
	create_child: MAIN (20, 21) FAR 5068 U 0.00
expand: MAIN (20, 0) FAR  w(0) 5068.
	create_child: MAIN (19, 21) FAR 13787 U 0.00
expand: MAIN (19, 0) FAR  w(0) 13787.
	create_child: MAIN (18, 21) FAR 21397 U 0.00
expand: MAIN (18, 0) FAR  w(0) 21397.
	create_child: MAIN (17, 21) FAR 33049 U 0.00
expand: MAIN (17, 0) FAR  w(0) 33049.
	create_child: MAIN (16, 21) FAR 42698 U 0.00
expand: MAIN (16, 0) FAR  w(0) 42698.
	create_child: MAIN (15, 21) FAR 54327 U 0.00
expand: MAIN (15, 0) FAR  w(0) 54327.
	create_child: MAIN (14, 21) FAR 71226 U 0.00
expand: MAIN (14, 0) FAR  w(0) 71226.
	create_child: MAIN (13, 21) FAR 79403 U 0.00
expand: MAIN (13, 0) FAR  w(0) 79403.
	create_child: MAIN (12, 21) FAR 87475 U 0.00
expand: MAIN (12, 0) FAR  w(0) 87475.
	create_child: MAIN (11, 21) FAR 94201 U 0.00
expand: MAIN (11, 0) FAR  w(0) 94201.
	create_child: MAIN (10, 21) FAR 102019 U 0.00
expand: MAIN (10, 0) FAR  w(0) 102019.
	create_child: MAIN (9, 21) FAR 122349 U 0.01
expand: MAIN (9, 0) FAR  w(0) 122349.
	create_child: MAIN (8, 21) FAR 130216 U 0.01
expand: MAIN (8, 0) FAR  w(0) 130216.
	create_child: MAIN (7, 21) FAR 138214 U 0.01
expand: MAIN (7, 0) FAR  w(0) 138214.
	create_child: MAIN (6, 21) FAR 144373 U 0.01
expand: MAIN (6, 0) FAR  w(0) 144373.
	create_child: MAIN (5, 21) FAR 151551 U 0.01
expand: MAIN (5, 0) FAR  w(0) 151551.
	create_child: MAIN (4, 21) FAR 158460 U 0.01
expand: MAIN (4, 0) FAR  w(0) 158460.
	create_child: MAIN (3, 21) FAR 165639 U 0.01
expand: MAIN (3, 0) FAR  w(0) 165639.
	create_child: MAIN (2, 21) FAR 173505 U 0.01
expand: MAIN (2, 0) FAR  w(0) 173505. F 0.03
expand: MAIN (3, 0) FAR  w(0) 165639. F 0.03
expand: MAIN (4, 0) FAR  w(0) 158460. F 0.02
expand: MAIN (5, 0) FAR  w(0) 151551. F 0.02
expand: MAIN (6, 0) FAR  w(0) 144373. F 0.02
expand: MAIN (7, 0) FAR  w(0) 138214. F 0.02
expand: MAIN (8, 0) FAR  w(0) 130216. F 0.02
expand: MAIN (9, 0) FAR  w(0) 122349. F 0.02
expand: MAIN (10, 0) FAR  w(0) 102019. F 0.02
expand: MAIN (11, 0) FAR  w(0) 94201. F 0.02
expand: MAIN (12, 0) FAR  w(0) 87475. F 0.02
expand: MAIN (13, 0) FAR  w(0) 79403. F 0.02
expand: MAIN (14, 0) FAR  w(0) 71226. F 0.02
expand: MAIN (15, 0) FAR  w(0) 54327. F 0.02
expand: MAIN (16, 0) FAR  w(0) 42698. F 0.02
expand: MAIN (17, 0) FAR  w(0) 33049. F 0.02
expand: MAIN (18, 0) FAR  w(0) 21397. F 0.02
expand: MAIN (19, 0) FAR  w(0) 13787. F 0.02
expand: MAIN (20, 0) FAR  w(0) 5068. F 0.00
expand: query!0 (21, 0) FAR  w(0) 1. F 0.00
(spacer::context::check_reachability :time 0.50 :before-memory 32.05 :after-memory 32.73)
Propagating: 2 3 4 5 6 7 8 9 10 11 12 13 14 15 16 17 18 19 20 21  ! 22 
(spacer::context::propagate :time 0.26 :before-memory 32.73 :after-memory 32.83)
Entering level 22
BRUNCH_STAT max_query_lvl 21
BRUNCH_STAT num_queries 256
BRUNCH_STAT num_reach_queries 4
BRUNCH_STAT num_reach_reuse 1
BRUNCH_STAT inductive_lvl 0
BRUNCH_STAT max_depth 22
BRUNCH_STAT cex_depth 0
expand: query!0 (22, 0) FAR  w(0) 1.
	create_child: MAIN (21, 22) FAR 5068 U 0.00
expand: MAIN (21, 0) FAR  w(0) 5068.
	create_child: MAIN (20, 22) FAR 13787 U 0.01
expand: MAIN (20, 0) FAR  w(0) 13787.
	create_child: MAIN (19, 22) FAR 21397 U 0.01
expand: MAIN (19, 0) FAR  w(0) 21397.
	create_child: MAIN (18, 22) FAR 33049 U 0.01
expand: MAIN (18, 0) FAR  w(0) 33049.
	create_child: MAIN (17, 22) FAR 42698 U 0.01
expand: MAIN (17, 0) FAR  w(0) 42698.
	create_child: MAIN (16, 22) FAR 54327 U 0.01
expand: MAIN (16, 0) FAR  w(0) 54327.
	create_child: MAIN (15, 22) FAR 71226 U 0.01
expand: MAIN (15, 0) FAR  w(0) 71226.
	create_child: MAIN (14, 22) FAR 79403 U 0.01
expand: MAIN (14, 0) FAR  w(0) 79403.
	create_child: MAIN (13, 22) FAR 87475 U 0.01
expand: MAIN (13, 0) FAR  w(0) 87475.
	create_child: MAIN (12, 22) FAR 94201 U 0.01
expand: MAIN (12, 0) FAR  w(0) 94201.
	create_child: MAIN (11, 22) FAR 102019 U 0.01
expand: MAIN (11, 0) FAR  w(0) 102019.
	create_child: MAIN (10, 22) FAR 122349 U 0.01
expand: MAIN (10, 0) FAR  w(0) 122349.
	create_child: MAIN (9, 22) FAR 130216 U 0.01
expand: MAIN (9, 0) FAR  w(0) 130216.
	create_child: MAIN (8, 22) FAR 138214 U 0.01
expand: MAIN (8, 0) FAR  w(0) 138214.
	create_child: MAIN (7, 22) FAR 144373 U 0.01
expand: MAIN (7, 0) FAR  w(0) 144373.
	create_child: MAIN (6, 22) FAR 151551 U 0.01
expand: MAIN (6, 0) FAR  w(0) 151551.
	create_child: MAIN (5, 22) FAR 158460 U 0.01
expand: MAIN (5, 0) FAR  w(0) 158460.
	create_child: MAIN (4, 22) FAR 165639 U 0.01
expand: MAIN (4, 0) FAR  w(0) 165639.
	create_child: MAIN (3, 22) FAR 173505 U 0.01
expand: MAIN (3, 0) FAR  w(0) 173505.
	create_child: MAIN (2, 22) FAR 181205 U 0.01
expand: MAIN (2, 0) FAR  w(0) 181205. F 0.03
expand: MAIN (3, 0) FAR  w(0) 173505. F 0.03
expand: MAIN (4, 0) FAR  w(0) 165639. F 0.02
expand: MAIN (5, 0) FAR  w(0) 158460. F 0.02
expand: MAIN (6, 0) FAR  w(0) 151551. F 0.02
expand: MAIN (7, 0) FAR  w(0) 144373. F 0.02
expand: MAIN (8, 0) FAR  w(0) 138214. F 0.02
expand: MAIN (9, 0) FAR  w(0) 130216. F 0.02
expand: MAIN (10, 0) FAR  w(0) 122349. F 0.02
expand: MAIN (11, 0) FAR  w(0) 102019. F 0.02
expand: MAIN (12, 0) FAR  w(0) 94201. F 0.03
expand: MAIN (13, 0) FAR  w(0) 87475. F 0.02
expand: MAIN (14, 0) FAR  w(0) 79403. F 0.02
expand: MAIN (15, 0) FAR  w(0) 71226. F 0.02
expand: MAIN (16, 0) FAR  w(0) 54327. F 0.02
expand: MAIN (17, 0) FAR  w(0) 42698. F 0.02
expand: MAIN (18, 0) FAR  w(0) 33049. F 0.02
expand: MAIN (19, 0) FAR  w(0) 21397. F 0.02
expand: MAIN (20, 0) FAR  w(0) 13787. F 0.02
expand: MAIN (21, 0) FAR  w(0) 5068. F 0.00
expand: query!0 (22, 0) FAR  w(0) 1. F 0.00
(spacer::context::check_reachability :time 0.57 :before-memory 32.83 :after-memory 33.45)
Propagating: 2 3 4 5 6 7 8 9 10 11 12 13 14 15 16 17 18 19 20 21 22  ! 23 
(spacer::context::propagate :time 0.30 :before-memory 33.45 :after-memory 33.66)
Entering level 23
BRUNCH_STAT max_query_lvl 22
BRUNCH_STAT num_queries 276
BRUNCH_STAT num_reach_queries 4
BRUNCH_STAT num_reach_reuse 1
BRUNCH_STAT inductive_lvl 0
BRUNCH_STAT max_depth 23
BRUNCH_STAT cex_depth 0
expand: query!0 (23, 0) FAR  w(0) 1.
	create_child: MAIN (22, 23) FAR 5068 U 0.00
expand: MAIN (22, 0) FAR  w(0) 5068.
	create_child: MAIN (21, 23) FAR 13787 U 0.01
expand: MAIN (21, 0) FAR  w(0) 13787.
	create_child: MAIN (20, 23) FAR 21397 U 0.01
expand: MAIN (20, 0) FAR  w(0) 21397.
	create_child: MAIN (19, 23) FAR 33049 U 0.01
expand: MAIN (19, 0) FAR  w(0) 33049.
	create_child: MAIN (18, 23) FAR 42698 U 0.01
expand: MAIN (18, 0) FAR  w(0) 42698.
	create_child: MAIN (17, 23) FAR 54327 U 0.01
expand: MAIN (17, 0) FAR  w(0) 54327.
	create_child: MAIN (16, 23) FAR 71226 U 0.01
expand: MAIN (16, 0) FAR  w(0) 71226.
	create_child: MAIN (15, 23) FAR 79403 U 0.01
expand: MAIN (15, 0) FAR  w(0) 79403.
	create_child: MAIN (14, 23) FAR 87475 U 0.01
expand: MAIN (14, 0) FAR  w(0) 87475.
	create_child: MAIN (13, 23) FAR 94201 U 0.01
expand: MAIN (13, 0) FAR  w(0) 94201.
	create_child: MAIN (12, 23) FAR 102019 U 0.01
expand: MAIN (12, 0) FAR  w(0) 102019.
	create_child: MAIN (11, 23) FAR 122349 U 0.01
expand: MAIN (11, 0) FAR  w(0) 122349.
	create_child: MAIN (10, 23) FAR 130216 U 0.01
expand: MAIN (10, 0) FAR  w(0) 130216.
	create_child: MAIN (9, 23) FAR 138214 U 0.01
expand: MAIN (9, 0) FAR  w(0) 138214.
	create_child: MAIN (8, 23) FAR 144373 U 0.01
expand: MAIN (8, 0) FAR  w(0) 144373.
	create_child: MAIN (7, 23) FAR 151551 U 0.01
expand: MAIN (7, 0) FAR  w(0) 151551.
	create_child: MAIN (6, 23) FAR 158460 U 0.01
expand: MAIN (6, 0) FAR  w(0) 158460.
	create_child: MAIN (5, 23) FAR 165639 U 0.01
expand: MAIN (5, 0) FAR  w(0) 165639.
	create_child: MAIN (4, 23) FAR 173505 U 0.01
expand: MAIN (4, 0) FAR  w(0) 173505.
	create_child: MAIN (3, 23) FAR 181205 U 0.01
expand: MAIN (3, 0) FAR  w(0) 181205.
	create_child: MAIN (2, 23) FAR 189560 U 0.01
expand: MAIN (2, 0) FAR  w(0) 189560. F 0.03
expand: MAIN (3, 0) FAR  w(0) 181205. F 0.03
expand: MAIN (4, 0) FAR  w(0) 173505. F 0.02
expand: MAIN (5, 0) FAR  w(0) 165639. F 0.02
expand: MAIN (6, 0) FAR  w(0) 158460. F 0.02
expand: MAIN (7, 0) FAR  w(0) 151551. F 0.02
expand: MAIN (8, 0) FAR  w(0) 144373. F 0.02
expand: MAIN (9, 0) FAR  w(0) 138214. F 0.02
expand: MAIN (10, 0) FAR  w(0) 130216. F 0.02
expand: MAIN (11, 0) FAR  w(0) 122349. F 0.02
expand: MAIN (12, 0) FAR  w(0) 102019. F 0.03
expand: MAIN (13, 0) FAR  w(0) 94201. F 0.03
expand: MAIN (14, 0) FAR  w(0) 87475. F 0.02
expand: MAIN (15, 0) FAR  w(0) 79403. F 0.03
expand: MAIN (16, 0) FAR  w(0) 71226. F 0.02
expand: MAIN (17, 0) FAR  w(0) 54327. F 0.02
expand: MAIN (18, 0) FAR  w(0) 42698. F 0.02
expand: MAIN (19, 0) FAR  w(0) 33049. F 0.02
expand: MAIN (20, 0) FAR  w(0) 21397. F 0.02
expand: MAIN (21, 0) FAR  w(0) 13787. F 0.02
expand: MAIN (22, 0) FAR  w(0) 5068. F 0.00
expand: query!0 (23, 0) FAR  w(0) 1. F 0.00
(spacer::context::check_reachability :time 0.61 :before-memory 33.66 :after-memory 34.28)
Propagating: 2 3 4 5 6 7 8 9 10 11 12 13 14 15 16 17 18 19 20 21 22 23  ! 24 
(spacer::context::propagate :time 0.41 :before-memory 34.28 :after-memory 34.48)
Entering level 24
BRUNCH_STAT max_query_lvl 23
BRUNCH_STAT num_queries 297
BRUNCH_STAT num_reach_queries 4
BRUNCH_STAT num_reach_reuse 1
BRUNCH_STAT inductive_lvl 0
BRUNCH_STAT max_depth 24
BRUNCH_STAT cex_depth 0
expand: query!0 (24, 0) FAR  w(0) 1.
	create_child: MAIN (23, 24) FAR 5068 U 0.00
expand: MAIN (23, 0) FAR  w(0) 5068.
	create_child: MAIN (22, 24) FAR 13787 U 0.01
expand: MAIN (22, 0) FAR  w(0) 13787.
	create_child: MAIN (21, 24) FAR 21397 U 0.01
expand: MAIN (21, 0) FAR  w(0) 21397.
	create_child: MAIN (20, 24) FAR 33049 U 0.01
expand: MAIN (20, 0) FAR  w(0) 33049.
	create_child: MAIN (19, 24) FAR 42698 U 0.01
expand: MAIN (19, 0) FAR  w(0) 42698.
	create_child: MAIN (18, 24) FAR 54327 U 0.01
expand: MAIN (18, 0) FAR  w(0) 54327.
	create_child: MAIN (17, 24) FAR 71226 U 0.01
expand: MAIN (17, 0) FAR  w(0) 71226.
	create_child: MAIN (16, 24) FAR 79403 U 0.01
expand: MAIN (16, 0) FAR  w(0) 79403.
	create_child: MAIN (15, 24) FAR 87475 U 0.01
expand: MAIN (15, 0) FAR  w(0) 87475.
	create_child: MAIN (14, 24) FAR 94201 U 0.01
expand: MAIN (14, 0) FAR  w(0) 94201.
	create_child: MAIN (13, 24) FAR 102019 U 0.01
expand: MAIN (13, 0) FAR  w(0) 102019.
	create_child: MAIN (12, 24) FAR 122349 U 0.01
expand: MAIN (12, 0) FAR  w(0) 122349.
	create_child: MAIN (11, 24) FAR 130216 U 0.01
expand: MAIN (11, 0) FAR  w(0) 130216.
	create_child: MAIN (10, 24) FAR 138214 U 0.01
expand: MAIN (10, 0) FAR  w(0) 138214.
	create_child: MAIN (9, 24) FAR 144373 U 0.01
expand: MAIN (9, 0) FAR  w(0) 144373.
	create_child: MAIN (8, 24) FAR 151551 U 0.01
expand: MAIN (8, 0) FAR  w(0) 151551.
	create_child: MAIN (7, 24) FAR 158460 U 0.01
expand: MAIN (7, 0) FAR  w(0) 158460.
	create_child: MAIN (6, 24) FAR 165639 U 0.01
expand: MAIN (6, 0) FAR  w(0) 165639.
	create_child: MAIN (5, 24) FAR 173505 U 0.01
expand: MAIN (5, 0) FAR  w(0) 173505.
	create_child: MAIN (4, 24) FAR 181205 U 0.01
expand: MAIN (4, 0) FAR  w(0) 181205.
	create_child: MAIN (3, 24) FAR 189560 U 0.01
expand: MAIN (3, 0) FAR  w(0) 189560.
	create_child: MAIN (2, 24) FAR 197711 U 0.01
expand: MAIN (2, 0) FAR  w(0) 197711. F 0.03
expand: MAIN (3, 0) FAR  w(0) 189560. F 0.04
expand: MAIN (4, 0) FAR  w(0) 181205. F 0.03
expand: MAIN (5, 0) FAR  w(0) 173505. F 0.03
expand: MAIN (6, 0) FAR  w(0) 165639. F 0.04
expand: MAIN (7, 0) FAR  w(0) 158460. F 0.03
expand: MAIN (8, 0) FAR  w(0) 151551. F 0.04
expand: MAIN (9, 0) FAR  w(0) 144373. F 0.04
expand: MAIN (10, 0) FAR  w(0) 138214. F 0.05
expand: MAIN (11, 0) FAR  w(0) 130216. F 0.05
expand: MAIN (12, 0) FAR  w(0) 122349. F 0.05
expand: MAIN (13, 0) FAR  w(0) 102019. F 0.05
expand: MAIN (14, 0) FAR  w(0) 94201. F 0.05
expand: MAIN (15, 0) FAR  w(0) 87475. F 0.06
expand: MAIN (16, 0) FAR  w(0) 79403. F 0.07
expand: MAIN (17, 0) FAR  w(0) 71226. F 0.07
expand: MAIN (18, 0) FAR  w(0) 54327. F 0.08
expand: MAIN (19, 0) FAR  w(0) 42698. F 0.09
expand: MAIN (20, 0) FAR  w(0) 33049. F 0.09
expand: MAIN (21, 0) FAR  w(0) 21397. F 0.02
expand: MAIN (22, 0) FAR  w(0) 13787. F 0.02
expand: MAIN (23, 0) FAR  w(0) 5068. F 0.00
expand: query!0 (24, 0) FAR  w(0) 1. F 0.00
(spacer::context::check_reachability :time 1.16 :before-memory 34.48 :after-memory 35.05)
Propagating: 2 3 4 5 6 7 8 9 10 11 12 13 14 15 16 17 18 19 20 21 22 23 24  ! 25 
(spacer::context::propagate :time 0.35 :before-memory 35.05 :after-memory 40.40)
Entering level 25
BRUNCH_STAT max_query_lvl 24
BRUNCH_STAT num_queries 319
BRUNCH_STAT num_reach_queries 4
BRUNCH_STAT num_reach_reuse 1
BRUNCH_STAT inductive_lvl 0
BRUNCH_STAT max_depth 25
BRUNCH_STAT cex_depth 0
expand: query!0 (25, 0) FAR  w(0) 1.
	create_child: MAIN (24, 25) FAR 5068 U 0.00
expand: MAIN (24, 0) FAR  w(0) 5068.
	create_child: MAIN (23, 25) FAR 13787 U 0.00
expand: MAIN (23, 0) FAR  w(0) 13787.
	create_child: MAIN (22, 25) FAR 21397 U 0.00
expand: MAIN (22, 0) FAR  w(0) 21397.
	create_child: MAIN (21, 25) FAR 33049 U 0.00
expand: MAIN (21, 0) FAR  w(0) 33049.
	create_child: MAIN (20, 25) FAR 42698 U 0.00
expand: MAIN (20, 0) FAR  w(0) 42698.
	create_child: MAIN (19, 25) FAR 54327 U 0.01
expand: MAIN (19, 0) FAR  w(0) 54327.
	create_child: MAIN (18, 25) FAR 71226 U 0.01
expand: MAIN (18, 0) FAR  w(0) 71226.
	create_child: MAIN (17, 25) FAR 79403 U 0.01
expand: MAIN (17, 0) FAR  w(0) 79403.
	create_child: MAIN (16, 25) FAR 87475 U 0.01
expand: MAIN (16, 0) FAR  w(0) 87475.
	create_child: MAIN (15, 25) FAR 94201 U 0.01
expand: MAIN (15, 0) FAR  w(0) 94201.
	create_child: MAIN (14, 25) FAR 102019 U 0.01
expand: MAIN (14, 0) FAR  w(0) 102019.
	create_child: MAIN (13, 25) FAR 122349 U 0.01
expand: MAIN (13, 0) FAR  w(0) 122349.
	create_child: MAIN (12, 25) FAR 130216 U 0.01
expand: MAIN (12, 0) FAR  w(0) 130216.
	create_child: MAIN (11, 25) FAR 138214 U 0.01
expand: MAIN (11, 0) FAR  w(0) 138214.
	create_child: MAIN (10, 25) FAR 144373 U 0.01
expand: MAIN (10, 0) FAR  w(0) 144373.
	create_child: MAIN (9, 25) FAR 151551 U 0.01
expand: MAIN (9, 0) FAR  w(0) 151551.
	create_child: MAIN (8, 25) FAR 158460 U 0.01
expand: MAIN (8, 0) FAR  w(0) 158460.
	create_child: MAIN (7, 25) FAR 165639 U 0.01
expand: MAIN (7, 0) FAR  w(0) 165639.
	create_child: MAIN (6, 25) FAR 173505 U 0.01
expand: MAIN (6, 0) FAR  w(0) 173505.
	create_child: MAIN (5, 25) FAR 181205 U 0.01
expand: MAIN (5, 0) FAR  w(0) 181205.
	create_child: MAIN (4, 25) FAR 189560 U 0.01
expand: MAIN (4, 0) FAR  w(0) 189560.
	create_child: MAIN (3, 25) FAR 197711 U 0.01
expand: MAIN (3, 0) FAR  w(0) 197711.
	create_child: MAIN (2, 25) FAR 206451 U 0.01
expand: MAIN (2, 0) FAR  w(0) 206451. F 0.03
expand: MAIN (3, 0) FAR  w(0) 197711. F 0.03
expand: MAIN (4, 0) FAR  w(0) 189560. F 0.02
expand: MAIN (5, 0) FAR  w(0) 181205. F 0.02
expand: MAIN (6, 0) FAR  w(0) 173505. F 0.03
expand: MAIN (7, 0) FAR  w(0) 165639. F 0.03
expand: MAIN (8, 0) FAR  w(0) 158460. F 0.02
expand: MAIN (9, 0) FAR  w(0) 151551. F 0.02
expand: MAIN (10, 0) FAR  w(0) 144373. F 0.02
expand: MAIN (11, 0) FAR  w(0) 138214. F 0.02
expand: MAIN (12, 0) FAR  w(0) 130216. F 0.02
expand: MAIN (13, 0) FAR  w(0) 122349. F 0.03
expand: MAIN (14, 0) FAR  w(0) 102019. F 0.03
expand: MAIN (15, 0) FAR  w(0) 94201. F 0.02
expand: MAIN (16, 0) FAR  w(0) 87475. F 0.02
expand: MAIN (17, 0) FAR  w(0) 79403. F 0.03
expand: MAIN (18, 0) FAR  w(0) 71226. F 0.03
expand: MAIN (19, 0) FAR  w(0) 54327. F 0.03
expand: MAIN (20, 0) FAR  w(0) 42698. F 0.03
expand: MAIN (21, 0) FAR  w(0) 33049. F 0.02
expand: MAIN (22, 0) FAR  w(0) 21397. F 0.02
expand: MAIN (23, 0) FAR  w(0) 13787. F 0.02
expand: MAIN (24, 0) FAR  w(0) 5068. F 0.00
expand: query!0 (25, 0) FAR  w(0) 1. F 0.00
(spacer::context::check_reachability :time 0.68 :before-memory 40.40 :after-memory 42.24)
Propagating: 2 3 4 5 6 7 8 9 10 11 12 13 14 15 16 17 18 19 20 21 22 23 24 25  ! 26 
(spacer::context::propagate :time 0.35 :before-memory 42.24 :after-memory 42.34)
Entering level 26
BRUNCH_STAT max_query_lvl 25
BRUNCH_STAT num_queries 342
BRUNCH_STAT num_reach_queries 4
BRUNCH_STAT num_reach_reuse 1
BRUNCH_STAT inductive_lvl 0
BRUNCH_STAT max_depth 26
BRUNCH_STAT cex_depth 0
expand: query!0 (26, 0) FAR  w(0) 1.
	create_child: MAIN (25, 26) FAR 5068 U 0.00
expand: MAIN (25, 0) FAR  w(0) 5068.
	create_child: MAIN (24, 26) FAR 13787 U 0.01
expand: MAIN (24, 0) FAR  w(0) 13787.
	create_child: MAIN (23, 26) FAR 21397 U 0.01
expand: MAIN (23, 0) FAR  w(0) 21397.
	create_child: MAIN (22, 26) FAR 33049 U 0.01
expand: MAIN (22, 0) FAR  w(0) 33049.
	create_child: MAIN (21, 26) FAR 42698 U 0.01
expand: MAIN (21, 0) FAR  w(0) 42698.
	create_child: MAIN (20, 26) FAR 54327 U 0.01
expand: MAIN (20, 0) FAR  w(0) 54327.
	create_child: MAIN (19, 26) FAR 71226 U 0.01
expand: MAIN (19, 0) FAR  w(0) 71226.
	create_child: MAIN (18, 26) FAR 79403 U 0.01
expand: MAIN (18, 0) FAR  w(0) 79403.
	create_child: MAIN (17, 26) FAR 87475 U 0.01
expand: MAIN (17, 0) FAR  w(0) 87475.
	create_child: MAIN (16, 26) FAR 94201 U 0.01
expand: MAIN (16, 0) FAR  w(0) 94201.
	create_child: MAIN (15, 26) FAR 102019 U 0.01
expand: MAIN (15, 0) FAR  w(0) 102019.
	create_child: MAIN (14, 26) FAR 122349 U 0.01
expand: MAIN (14, 0) FAR  w(0) 122349.
	create_child: MAIN (13, 26) FAR 130216 U 0.01
expand: MAIN (13, 0) FAR  w(0) 130216.
	create_child: MAIN (12, 26) FAR 138214 U 0.01
expand: MAIN (12, 0) FAR  w(0) 138214.
	create_child: MAIN (11, 26) FAR 144373 U 0.01
expand: MAIN (11, 0) FAR  w(0) 144373.
	create_child: MAIN (10, 26) FAR 151551 U 0.01
expand: MAIN (10, 0) FAR  w(0) 151551.
	create_child: MAIN (9, 26) FAR 158460 U 0.01
expand: MAIN (9, 0) FAR  w(0) 158460.
	create_child: MAIN (8, 26) FAR 165639 U 0.01
expand: MAIN (8, 0) FAR  w(0) 165639.
	create_child: MAIN (7, 26) FAR 173505 U 0.01
expand: MAIN (7, 0) FAR  w(0) 173505.
	create_child: MAIN (6, 26) FAR 181205 U 0.01
expand: MAIN (6, 0) FAR  w(0) 181205.
	create_child: MAIN (5, 26) FAR 189560 U 0.01
expand: MAIN (5, 0) FAR  w(0) 189560.
	create_child: MAIN (4, 26) FAR 197711 U 0.01
expand: MAIN (4, 0) FAR  w(0) 197711.
	create_child: MAIN (3, 26) FAR 206451 U 0.01
expand: MAIN (3, 0) FAR  w(0) 206451.
	create_child: MAIN (2, 26) FAR 216627 U 0.01
expand: MAIN (2, 0) FAR  w(0) 216627. F 0.03
expand: MAIN (3, 0) FAR  w(0) 206451. F 0.04
expand: MAIN (4, 0) FAR  w(0) 197711. F 0.03
expand: MAIN (5, 0) FAR  w(0) 189560. F 0.03
expand: MAIN (6, 0) FAR  w(0) 181205. F 0.03
expand: MAIN (7, 0) FAR  w(0) 173505. F 0.03
expand: MAIN (8, 0) FAR  w(0) 165639. F 0.03
expand: MAIN (9, 0) FAR  w(0) 158460. F 0.03
expand: MAIN (10, 0) FAR  w(0) 151551. F 0.03
expand: MAIN (11, 0) FAR  w(0) 144373. F 0.03
expand: MAIN (12, 0) FAR  w(0) 138214. F 0.03
expand: MAIN (13, 0) FAR  w(0) 130216. F 0.03
expand: MAIN (14, 0) FAR  w(0) 122349. F 0.03
expand: MAIN (15, 0) FAR  w(0) 102019. F 0.03
expand: MAIN (16, 0) FAR  w(0) 94201. F 0.03
expand: MAIN (17, 0) FAR  w(0) 87475. F 0.03
expand: MAIN (18, 0) FAR  w(0) 79403. F 0.03
expand: MAIN (19, 0) FAR  w(0) 71226. F 0.03
expand: MAIN (20, 0) FAR  w(0) 54327. F 0.03
expand: MAIN (21, 0) FAR  w(0) 42698. F 0.03
expand: MAIN (22, 0) FAR  w(0) 33049. F 0.03
expand: MAIN (23, 0) FAR  w(0) 21397. F 0.02
expand: MAIN (24, 0) FAR  w(0) 13787. F 0.02
expand: MAIN (25, 0) FAR  w(0) 5068. F 0.00
expand: query!0 (26, 0) FAR  w(0) 1. F 0.00
(spacer::context::check_reachability :time 0.81 :before-memory 42.34 :after-memory 43.46)
Propagating: 2 3 4 5 6 7 8 9 10 11 12 13 14 15 16 17 18 19 20 21 22 23 24 25 26  ! 27 
(spacer::context::propagate :time 0.49 :before-memory 43.46 :after-memory 43.66)
Entering level 27
BRUNCH_STAT max_query_lvl 26
BRUNCH_STAT num_queries 366
BRUNCH_STAT num_reach_queries 4
BRUNCH_STAT num_reach_reuse 1
BRUNCH_STAT inductive_lvl 0
BRUNCH_STAT max_depth 27
BRUNCH_STAT cex_depth 0
expand: query!0 (27, 0) FAR  w(0) 1.
	create_child: MAIN (26, 27) FAR 5068 U 0.00
expand: MAIN (26, 0) FAR  w(0) 5068.
	create_child: MAIN (25, 27) FAR 13787 U 0.00
expand: MAIN (25, 0) FAR  w(0) 13787.
	create_child: MAIN (24, 27) FAR 21397 U 0.01
expand: MAIN (24, 0) FAR  w(0) 21397.
	create_child: MAIN (23, 27) FAR 33049 U 0.01
expand: MAIN (23, 0) FAR  w(0) 33049.
	create_child: MAIN (22, 27) FAR 42698 U 0.01
expand: MAIN (22, 0) FAR  w(0) 42698.
	create_child: MAIN (21, 27) FAR 54327 U 0.01
expand: MAIN (21, 0) FAR  w(0) 54327.
	create_child: MAIN (20, 27) FAR 71226 U 0.01
expand: MAIN (20, 0) FAR  w(0) 71226.
	create_child: MAIN (19, 27) FAR 79403 U 0.01
expand: MAIN (19, 0) FAR  w(0) 79403.
	create_child: MAIN (18, 27) FAR 87475 U 0.01
expand: MAIN (18, 0) FAR  w(0) 87475.
	create_child: MAIN (17, 27) FAR 94201 U 0.01
expand: MAIN (17, 0) FAR  w(0) 94201.
	create_child: MAIN (16, 27) FAR 102019 U 0.01
expand: MAIN (16, 0) FAR  w(0) 102019.
	create_child: MAIN (15, 27) FAR 122349 U 0.01
expand: MAIN (15, 0) FAR  w(0) 122349.
	create_child: MAIN (14, 27) FAR 130216 U 0.01
expand: MAIN (14, 0) FAR  w(0) 130216.
	create_child: MAIN (13, 27) FAR 138214 U 0.01
expand: MAIN (13, 0) FAR  w(0) 138214.
	create_child: MAIN (12, 27) FAR 144373 U 0.01
expand: MAIN (12, 0) FAR  w(0) 144373.
	create_child: MAIN (11, 27) FAR 151551 U 0.01
expand: MAIN (11, 0) FAR  w(0) 151551.
	create_child: MAIN (10, 27) FAR 158460 U 0.01
expand: MAIN (10, 0) FAR  w(0) 158460.
	create_child: MAIN (9, 27) FAR 165639 U 0.01
expand: MAIN (9, 0) FAR  w(0) 165639.
	create_child: MAIN (8, 27) FAR 173505 U 0.01
expand: MAIN (8, 0) FAR  w(0) 173505.
	create_child: MAIN (7, 27) FAR 181205 U 0.01
expand: MAIN (7, 0) FAR  w(0) 181205.
	create_child: MAIN (6, 27) FAR 189560 U 0.01
expand: MAIN (6, 0) FAR  w(0) 189560.
	create_child: MAIN (5, 27) FAR 197711 U 0.01
expand: MAIN (5, 0) FAR  w(0) 197711.
	create_child: MAIN (4, 27) FAR 206451 U 0.01
expand: MAIN (4, 0) FAR  w(0) 206451.
	create_child: MAIN (3, 27) FAR 216627 U 0.01
expand: MAIN (3, 0) FAR  w(0) 216627.
	create_child: MAIN (2, 27) FAR 225526 U 0.01
expand: MAIN (2, 0) FAR  w(0) 225526. F 0.02
expand: MAIN (3, 0) FAR  w(0) 216627. F 0.02
expand: MAIN (4, 0) FAR  w(0) 206451. F 0.03
expand: MAIN (5, 0) FAR  w(0) 197711. F 0.03
expand: MAIN (6, 0) FAR  w(0) 189560. F 0.03
expand: MAIN (7, 0) FAR  w(0) 181205. F 0.02
expand: MAIN (8, 0) FAR  w(0) 173505. F 0.02
expand: MAIN (9, 0) FAR  w(0) 165639. F 0.02
expand: MAIN (10, 0) FAR  w(0) 158460. F 0.03
expand: MAIN (11, 0) FAR  w(0) 151551. F 0.03
expand: MAIN (12, 0) FAR  w(0) 144373. F 0.02
expand: MAIN (13, 0) FAR  w(0) 138214. F 0.03
expand: MAIN (14, 0) FAR  w(0) 130216. F 0.02
expand: MAIN (15, 0) FAR  w(0) 122349. F 0.02
expand: MAIN (16, 0) FAR  w(0) 102019. F 0.02
expand: MAIN (17, 0) FAR  w(0) 94201. F 0.03
expand: MAIN (18, 0) FAR  w(0) 87475. F 0.02
expand: MAIN (19, 0) FAR  w(0) 79403. F 0.03
expand: MAIN (20, 0) FAR  w(0) 71226. F 0.03
expand: MAIN (21, 0) FAR  w(0) 54327. F 0.02
expand: MAIN (22, 0) FAR  w(0) 42698. F 0.03
expand: MAIN (23, 0) FAR  w(0) 33049. F 0.02
expand: MAIN (24, 0) FAR  w(0) 21397. F 0.03
expand: MAIN (25, 0) FAR  w(0) 13787. F 0.03
expand: MAIN (26, 0) FAR  w(0) 5068. F 0.00
expand: query!0 (27, 0) FAR  w(0) 1. F 0.00
(spacer::context::check_reachability :time 0.78 :before-memory 43.66 :after-memory 45.88)
Propagating: 2 3 4 5 6 7 8 9 10 11 12 13 14 15 16 17 18 19 20 21 22 23 24 25 26 27  ! 28 
(spacer::context::propagate :time 0.39 :before-memory 45.88 :after-memory 46.18)
Entering level 28
BRUNCH_STAT max_query_lvl 27
BRUNCH_STAT num_queries 391
BRUNCH_STAT num_reach_queries 4
BRUNCH_STAT num_reach_reuse 1
BRUNCH_STAT inductive_lvl 0
BRUNCH_STAT max_depth 28
BRUNCH_STAT cex_depth 0
expand: query!0 (28, 0) FAR  w(0) 1.
	create_child: MAIN (27, 28) FAR 5068 U 0.00
expand: MAIN (27, 0) FAR  w(0) 5068.
	create_child: MAIN (26, 28) FAR 13787 U 0.00
expand: MAIN (26, 0) FAR  w(0) 13787.
	create_child: MAIN (25, 28) FAR 21397 U 0.01
expand: MAIN (25, 0) FAR  w(0) 21397.
	create_child: MAIN (24, 28) FAR 33049 U 0.01
expand: MAIN (24, 0) FAR  w(0) 33049.
	create_child: MAIN (23, 28) FAR 42698 U 0.01
expand: MAIN (23, 0) FAR  w(0) 42698.
	create_child: MAIN (22, 28) FAR 54327 U 0.01
expand: MAIN (22, 0) FAR  w(0) 54327.
	create_child: MAIN (21, 28) FAR 71226 U 0.01
expand: MAIN (21, 0) FAR  w(0) 71226.
	create_child: MAIN (20, 28) FAR 79403 U 0.01
expand: MAIN (20, 0) FAR  w(0) 79403.
	create_child: MAIN (19, 28) FAR 87475 U 0.01
expand: MAIN (19, 0) FAR  w(0) 87475.
	create_child: MAIN (18, 28) FAR 94201 U 0.01
expand: MAIN (18, 0) FAR  w(0) 94201.
	create_child: MAIN (17, 28) FAR 102019 U 0.01
expand: MAIN (17, 0) FAR  w(0) 102019.
	create_child: MAIN (16, 28) FAR 122349 U 0.01
expand: MAIN (16, 0) FAR  w(0) 122349.
	create_child: MAIN (15, 28) FAR 130216 U 0.01
expand: MAIN (15, 0) FAR  w(0) 130216.
	create_child: MAIN (14, 28) FAR 138214 U 0.01
expand: MAIN (14, 0) FAR  w(0) 138214.
	create_child: MAIN (13, 28) FAR 144373 U 0.01
expand: MAIN (13, 0) FAR  w(0) 144373.
	create_child: MAIN (12, 28) FAR 151551 U 0.01
expand: MAIN (12, 0) FAR  w(0) 151551.
	create_child: MAIN (11, 28) FAR 158460 U 0.01
expand: MAIN (11, 0) FAR  w(0) 158460.
	create_child: MAIN (10, 28) FAR 165639 U 0.01
expand: MAIN (10, 0) FAR  w(0) 165639.
	create_child: MAIN (9, 28) FAR 173505 U 0.01
expand: MAIN (9, 0) FAR  w(0) 173505.
	create_child: MAIN (8, 28) FAR 181205 U 0.01
expand: MAIN (8, 0) FAR  w(0) 181205.
	create_child: MAIN (7, 28) FAR 189560 U 0.01
expand: MAIN (7, 0) FAR  w(0) 189560.
	create_child: MAIN (6, 28) FAR 197711 U 0.01
expand: MAIN (6, 0) FAR  w(0) 197711.
	create_child: MAIN (5, 28) FAR 206451 U 0.01
expand: MAIN (5, 0) FAR  w(0) 206451. F 0.03
expand: MAIN (6, 0) FAR  w(0) 197711. F 0.03
expand: MAIN (7, 0) FAR  w(0) 189560. F 0.03
expand: MAIN (8, 0) FAR  w(0) 181205. F 0.03
expand: MAIN (9, 0) FAR  w(0) 173505. F 0.02
expand: MAIN (10, 0) FAR  w(0) 165639. F 0.02
expand: MAIN (11, 0) FAR  w(0) 158460. F 0.03
expand: MAIN (12, 0) FAR  w(0) 151551. F 0.02
expand: MAIN (13, 0) FAR  w(0) 144373. F 0.02
expand: MAIN (14, 0) FAR  w(0) 138214. F 0.03
expand: MAIN (15, 0) FAR  w(0) 130216. F 0.03
expand: MAIN (16, 0) FAR  w(0) 122349. F 0.03
expand: MAIN (17, 0) FAR  w(0) 102019. F 0.03
expand: MAIN (18, 0) FAR  w(0) 94201. F 0.02
expand: MAIN (19, 0) FAR  w(0) 87475. F 0.03
expand: MAIN (20, 0) FAR  w(0) 79403. F 0.03
expand: MAIN (21, 0) FAR  w(0) 71226. F 0.03
expand: MAIN (22, 0) FAR  w(0) 54327. F 0.03
expand: MAIN (23, 0) FAR  w(0) 42698. F 0.03
expand: MAIN (24, 0) FAR  w(0) 33049. F 0.03
expand: MAIN (25, 0) FAR  w(0) 21397. F 0.03
expand: MAIN (26, 0) FAR  w(0) 13787. F 0.02
expand: MAIN (27, 0) FAR  w(0) 5068. F 0.00
expand: query!0 (28, 0) FAR  w(0) 1. F 0.00
(spacer::context::check_reachability :time 0.71 :before-memory 46.18 :after-memory 46.80)
Propagating: 5 6 7 8 9 10 11 12 13 14 15 16 17 18 19 20 21 22 23 24 25 26 27 28  ! 29 
(spacer::context::propagate :time 0.31 :before-memory 46.80 :after-memory 47.20)
Entering level 29
BRUNCH_STAT max_query_lvl 28
BRUNCH_STAT num_queries 414
BRUNCH_STAT num_reach_queries 4
BRUNCH_STAT num_reach_reuse 1
BRUNCH_STAT inductive_lvl 0
BRUNCH_STAT max_depth 29
BRUNCH_STAT cex_depth 0
expand: query!0 (29, 0) FAR  w(0) 1.
	create_child: MAIN (28, 29) FAR 5068 U 0.00
expand: MAIN (28, 0) FAR  w(0) 5068.
	create_child: MAIN (27, 29) FAR 13787 U 0.01
expand: MAIN (27, 0) FAR  w(0) 13787.
	create_child: MAIN (26, 29) FAR 21397 U 0.01
expand: MAIN (26, 0) FAR  w(0) 21397.
	create_child: MAIN (25, 29) FAR 33049 U 0.01
expand: MAIN (25, 0) FAR  w(0) 33049.
	create_child: MAIN (24, 29) FAR 42698 U 0.01
expand: MAIN (24, 0) FAR  w(0) 42698.
	create_child: MAIN (23, 29) FAR 54327 U 0.01
expand: MAIN (23, 0) FAR  w(0) 54327.
	create_child: MAIN (22, 29) FAR 71226 U 0.01
expand: MAIN (22, 0) FAR  w(0) 71226.
	create_child: MAIN (21, 29) FAR 79403 U 0.01
expand: MAIN (21, 0) FAR  w(0) 79403.
	create_child: MAIN (20, 29) FAR 87475 U 0.01
expand: MAIN (20, 0) FAR  w(0) 87475.
	create_child: MAIN (19, 29) FAR 94201 U 0.01
expand: MAIN (19, 0) FAR  w(0) 94201.
	create_child: MAIN (18, 29) FAR 102019 U 0.01
expand: MAIN (18, 0) FAR  w(0) 102019.
	create_child: MAIN (17, 29) FAR 122349 U 0.01
expand: MAIN (17, 0) FAR  w(0) 122349.
	create_child: MAIN (16, 29) FAR 130216 U 0.01
expand: MAIN (16, 0) FAR  w(0) 130216.
	create_child: MAIN (15, 29) FAR 138214 U 0.01
expand: MAIN (15, 0) FAR  w(0) 138214.
	create_child: MAIN (14, 29) FAR 144373 U 0.01
expand: MAIN (14, 0) FAR  w(0) 144373.
	create_child: MAIN (13, 29) FAR 151551 U 0.01
expand: MAIN (13, 0) FAR  w(0) 151551.
	create_child: MAIN (12, 29) FAR 158460 U 0.01
expand: MAIN (12, 0) FAR  w(0) 158460.
	create_child: MAIN (11, 29) FAR 165639 U 0.01
expand: MAIN (11, 0) FAR  w(0) 165639.
	create_child: MAIN (10, 29) FAR 173505 U 0.01
expand: MAIN (10, 0) FAR  w(0) 173505.
	create_child: MAIN (9, 29) FAR 181205 U 0.01
expand: MAIN (9, 0) FAR  w(0) 181205.
	create_child: MAIN (8, 29) FAR 189560 U 0.01
expand: MAIN (8, 0) FAR  w(0) 189560.
	create_child: MAIN (7, 29) FAR 197711 U 0.01
expand: MAIN (7, 0) FAR  w(0) 197711.
	create_child: MAIN (6, 29) FAR 206451 U 0.01
expand: MAIN (6, 0) FAR  w(0) 206451.
	create_child: MAIN (5, 29) FAR 216627 U 0.01
expand: MAIN (5, 0) FAR  w(0) 216627. F 0.03
expand: MAIN (6, 0) FAR  w(0) 206451. F 0.03
expand: MAIN (7, 0) FAR  w(0) 197711. F 0.03
expand: MAIN (8, 0) FAR  w(0) 189560. F 0.03
expand: MAIN (9, 0) FAR  w(0) 181205. F 0.03
expand: MAIN (10, 0) FAR  w(0) 173505. F 0.03
expand: MAIN (11, 0) FAR  w(0) 165639. F 0.03
expand: MAIN (12, 0) FAR  w(0) 158460. F 0.03
expand: MAIN (13, 0) FAR  w(0) 151551. F 0.03
expand: MAIN (14, 0) FAR  w(0) 144373. F 0.03
expand: MAIN (15, 0) FAR  w(0) 138214. F 0.03
expand: MAIN (16, 0) FAR  w(0) 130216. F 0.05
expand: MAIN (17, 0) FAR  w(0) 122349. F 0.03
expand: MAIN (18, 0) FAR  w(0) 102019. F 0.03
expand: MAIN (19, 0) FAR  w(0) 94201. F 0.03
expand: MAIN (20, 0) FAR  w(0) 87475. F 0.05
expand: MAIN (21, 0) FAR  w(0) 79403. F 0.05
expand: MAIN (22, 0) FAR  w(0) 71226. F 0.04
expand: MAIN (23, 0) FAR  w(0) 54327. F 0.05
expand: MAIN (24, 0) FAR  w(0) 42698. F 0.04
expand: MAIN (25, 0) FAR  w(0) 33049. F 0.03
expand: MAIN (26, 0) FAR  w(0) 21397. F 0.02
expand: MAIN (27, 0) FAR  w(0) 13787. F 0.02
expand: MAIN (28, 0) FAR  w(0) 5068. F 0.00
expand: query!0 (29, 0) FAR  w(0) 1. F 0.00
(spacer::context::check_reachability :time 0.89 :before-memory 47.20 :after-memory 47.93)
Propagating: 5 
(spacer::context::propagate :time 0.00 :before-memory 47.93 :after-memory 47.83)
(define-fun MAIN ((x!0 Int)
 (x!1 Bool)
 (x!2 Int)
 (x!3 Int)
 (x!4 Int)
 (x!5 Int)
 (x!6 Int)
 (x!7 Int)
 (x!8 Bool)
 (x!9 Bool)
 (x!10 Bool)
 (x!11 Bool)) Bool
  (let ((a!1 (+ x!5 (* (- 1) x!3) (* (- 1) x!4) (* (- 1) x!6)))
        (a!3 (or (>= (+ x!0 (* (- 1) x!6)) 0) (not x!9)))
        (a!4 (not (>= (+ x!4 x!6 (* (- 1) x!0)) 2)))
        (a!5 (or (<= (+ x!2 x!3 x!4 x!5 x!6 (* (- 1) x!0)) 0) (not x!9)))
        (a!7 (not (>= (+ x!5 x!6 (* (- 1) x!0)) (- 1))))
        (a!8 (or (not (>= (+ x!3 x!4 x!5 x!6) 2)) (not x!9) (<= x!3 0)))
        (a!9 (or (>= (+ x!0
                        (* (- 1) x!2)
                        (* (- 1) x!4)
                        (* (- 1) x!5)
                        (* (- 1) x!6))
                     0)
                 (not x!9))))
  (let ((a!2 (or (>= (+ x!0 (* (- 1) x!2) (* (- 1) x!5) (* (- 1) x!6)) 0)
                 (not x!9)
                 (not (<= a!1 (- 2)))
                 (<= (+ x!3 x!4 x!5 x!6) 0)))
        (a!6 (or (<= (+ x!4 x!5 x!6 (* (- 1) x!0)) 0)
                 (not x!9)
                 (not (<= a!1 (- 2))))))
    (and a!2
         x!11
         (not x!8)
         (not x!10)
         (not x!1)
         a!3
         (or a!4 (not x!9))
         (or (not (<= x!0 0)) (not x!9))
         (or (not (<= a!1 0)) (not x!9) (<= x!5 0))
         a!5
         a!6
         (or (not (>= x!5 2)) (not x!9))
         (or (not (<= a!1 (- 3))) (not x!9) a!7 (<= x!3 0))
         a!8
         a!9
         (or (not (>= x!2 2)) (not x!9) (not (<= a!1 (- 2))) a!7)))))
BRUNCH_STAT max_query_lvl 29
BRUNCH_STAT num_queries 438
BRUNCH_STAT num_reach_queries 4
BRUNCH_STAT num_reach_reuse 1
BRUNCH_STAT inductive_lvl 5
BRUNCH_STAT max_depth 29
BRUNCH_STAT cex_depth 0
(:SPACER-expand-node-undef             1
 :SPACER-inductive-level               5
 :SPACER-max-depth                     29
 :SPACER-max-query-lvl                 29
 :SPACER-num-invariants                132
 :SPACER-num-lemmas                    463
 :SPACER-num-properties                33
 :SPACER-num-queries                   438
 :SPACER-num-reach-queries             4
 :SPACER-num-reuse-reach-facts         1
 :added-eqs                            159693
 :arith-add-rows                       349556
 :arith-assert-diseq                   100602
 :arith-assert-lower                   370333
 :arith-assert-upper                   436148
 :arith-bound-prop                     7954
 :arith-conflicts                      660
 :arith-eq-adapter                     26012
 :arith-fixed-eqs                      39336
 :arith-gcd-tests                      271
 :arith-gomory-cuts                    3
 :arith-ineq-splits                    11
 :arith-offset-eqs                     32177
 :arith-pivots                         26051
 :bool-inductive-gen                   434
 :bool-inductive-gen-failures          1862
 :conflicts                            6234
 :decisions                            2067705
 :del-clause                           611
 :final-checks                         3875
 :minimized-lits                       24941
 :mk-bool-var                          16725
 :mk-clause                            22615
 :num-checks                           6086
 :propagations                         5864359
 :time.itp_solver.itp_core             1.47
 :time.spacer.init_rules               0.00
 :time.spacer.init_rules.pt.init       0.00
 :time.spacer.solve                    15.20
 :time.spacer.solve.propagate          4.60
 :time.spacer.solve.reach              10.60
 :time.spacer.solve.reach.children     0.59
 :time.spacer.solve.reach.gen.bool_ind 6.56
 :time.spacer.solve.reach.is-reach     0.04
 :time.virtual_solver.proof            0.97
 :time.virtual_solver.smt.total        12.88
 :time.virtual_solver.smt.total.sat    11.02
 :time.virtual_solver.smt.total.undef  0.47
 :virtual_solver.checks                6086
 :virtual_solver.checks.sat            3746
 :virtual_solver.checks.undef          115)
BRUNCH_STAT max_query_lvl 29
BRUNCH_STAT num_queries 438
BRUNCH_STAT num_reach_queries 4
BRUNCH_STAT num_reach_reuse 1
BRUNCH_STAT inductive_lvl 5
BRUNCH_STAT max_depth 29
BRUNCH_STAT cex_depth 0

real	0m15.501s
user	0m15.288s
sys	0m0.088s
