(transform N7datalog13mk_coi_filterE...no-op 0s)
(transform N7datalog25mk_interp_tail_simplifierE...14 rules 0s)
(transform N7datalog27mk_quantifier_instantiationE...no-op 0s)
(transform N7datalog8mk_scaleE...no-op 0s)
(transform N7datalog18mk_karr_invariantsE...no-op 0s)
(transform N7datalog14mk_array_blastE...no-op 0s)
(transform N7datalog22mk_subsumption_checkerE...13 rules 0s)
(transform N7datalog12mk_bit_blastE...no-op 0s)
(transform N7datalog15mk_rule_inlinerE...3 rules 0.00548604s)
(transform N7datalog13mk_coi_filterE...no-op 0s)
(transform N7datalog25mk_interp_tail_simplifierE...3 rules 0s)
(transform N7datalog22mk_subsumption_checkerE...no-op 0s)
(transform N7datalog15mk_rule_inlinerE...no-op 0s)
(transform N7datalog13mk_coi_filterE...no-op 0s)
(transform N7datalog25mk_interp_tail_simplifierE...3 rules 0s)
(transform N7datalog22mk_subsumption_checkerE...no-op 0s)
(transform N7datalog15mk_rule_inlinerE...no-op 0s)
(transform N7datalog22mk_subsumption_checkerE...no-op 0s)
(transform N7datalog15mk_rule_inlinerE...no-op 0s)
(transform N7datalog22mk_subsumption_checkerE...no-op 0s)
(transform N7datalog15mk_rule_inlinerE...no-op 0s)
(transform N7datalog22mk_subsumption_checkerE...no-op 0s)
(transform N7datalog8mk_sliceE...no-op 0s)
expand: query!0 (0, 0) FAR  w(0) 1. F 0.00
(spacer::context::check_reachability :time 0.00 :before-memory 4.59 :after-memory 5.22)
Entering level 1
BRUNCH_STAT max_query_lvl 0
BRUNCH_STAT num_queries 0
BRUNCH_STAT num_reach_queries 0
BRUNCH_STAT num_reach_reuse 0
BRUNCH_STAT inductive_lvl 0
BRUNCH_STAT max_depth 1
BRUNCH_STAT cex_depth 0
expand: query!0 (1, 0) FAR  w(0) 1.
	create_child: MAIN (0, 1) FAR 5066 U 0.00
expand: MAIN (0, 0) FAR  w(0) 5066. F 0.00
expand: query!0 (1, 0) FAR  w(0) 1. F 0.00
(spacer::context::check_reachability :time 0.01 :before-memory 5.22 :after-memory 6.45)
Propagating: 0 1  ! 2 
(spacer::context::propagate :time 0.00 :before-memory 6.45 :after-memory 6.55)
Entering level 2
BRUNCH_STAT max_query_lvl 1
BRUNCH_STAT num_queries 1
BRUNCH_STAT num_reach_queries 0
BRUNCH_STAT num_reach_reuse 0
BRUNCH_STAT inductive_lvl 0
BRUNCH_STAT max_depth 2
BRUNCH_STAT cex_depth 0
expand: query!0 (2, 0) FAR  w(0) 1.
	create_child: MAIN (1, 2) FAR 5066 U 0.00
expand: MAIN (1, 0) FAR  w(0) 5066.
	create_child: MAIN (0, 2) FAR 9547 U 0.00
expand: MAIN (0, 0) FAR  w(0) 9547. F 0.00
expand: MAIN (1, 0) FAR  w(0) 5066.
	create_child: MAIN (0, 2) FAR 9598 U 0.00
expand: MAIN (0, 0) FAR  w(0) 9598. F 0.00
expand: MAIN (1, 0) FAR  w(0) 5066.
	create_child: MAIN (0, 2) FAR 9947 U 0.00
expand: MAIN (0, 0) FAR  w(0) 9947. F 0.00
expand: MAIN (1, 0) FAR  w(0) 5066.
	create_child: MAIN (0, 2) FAR 10103 U 0.00
expand: MAIN (0, 0) FAR  w(0) 10103. F 0.00
expand: MAIN (1, 0) FAR  w(0) 5066.
	create_child: MAIN (0, 2) FAR 10029 U 0.00
expand: MAIN (0, 0) FAR  w(0) 10029. F 0.00
expand: MAIN (1, 0) FAR  w(0) 5066.
	create_child: MAIN (0, 2) FAR 10192 U 0.00
expand: MAIN (0, 0) FAR  w(0) 10192. F 0.00
expand: MAIN (1, 0) FAR  w(0) 5066.
	create_child: MAIN (0, 2) FAR 10461 U 0.00
expand: MAIN (0, 0) FAR  w(0) 10461. F 0.00
expand: MAIN (1, 0) FAR  w(0) 5066. F 0.00
expand: query!0 (2, 0) FAR  w(0) 1. F 0.00
(spacer::context::check_reachability :time 0.02 :before-memory 6.55 :after-memory 6.74)
Propagating: 0 1 2  ! 3 
(spacer::context::propagate :time 0.01 :before-memory 6.74 :after-memory 6.74)
Entering level 3
BRUNCH_STAT max_query_lvl 2
BRUNCH_STAT num_queries 9
BRUNCH_STAT num_reach_queries 0
BRUNCH_STAT num_reach_reuse 0
BRUNCH_STAT inductive_lvl 0
BRUNCH_STAT max_depth 3
BRUNCH_STAT cex_depth 0
expand: query!0 (3, 0) FAR  w(0) 1.
	create_child: MAIN (2, 3) FAR 5066 U 0.00
expand: MAIN (2, 0) FAR  w(0) 5066.
	create_child: MAIN (1, 3) FAR 11425 U 0.00
expand: MAIN (1, 0) FAR  w(0) 11425. F 0.00
expand: MAIN (2, 0) FAR  w(0) 5066.
	create_child: MAIN (1, 3) FAR 11803 U 0.00
expand: MAIN (1, 0) FAR  w(0) 11803. F 0.00
expand: MAIN (2, 0) FAR  w(0) 5066. F 0.00
expand: query!0 (3, 0) FAR  w(0) 1. F 0.00
(spacer::context::check_reachability :time 0.01 :before-memory 6.74 :after-memory 6.84)
Propagating: 1 2 3  ! 4 
(spacer::context::propagate :time 0.00 :before-memory 6.84 :after-memory 7.17)
Entering level 4
BRUNCH_STAT max_query_lvl 3
BRUNCH_STAT num_queries 12
BRUNCH_STAT num_reach_queries 0
BRUNCH_STAT num_reach_reuse 0
BRUNCH_STAT inductive_lvl 0
BRUNCH_STAT max_depth 4
BRUNCH_STAT cex_depth 0
expand: query!0 (4, 0) FAR  w(0) 1.
	create_child: MAIN (3, 4) FAR 5066 U 0.00
expand: MAIN (3, 0) FAR  w(0) 5066.
	create_child: MAIN (2, 4) FAR 12294 U 0.00
expand: MAIN (2, 0) FAR  w(0) 12294. F 0.00
expand: MAIN (3, 0) FAR  w(0) 5066.
	create_child: MAIN (2, 4) FAR 12490 U 0.00
expand: MAIN (2, 0) FAR  w(0) 12490. F 0.00
expand: MAIN (3, 0) FAR  w(0) 5066.
	create_child: MAIN (2, 4) FAR 12797 U 0.00
expand: MAIN (2, 0) FAR  w(0) 12797. F 0.00
expand: MAIN (3, 0) FAR  w(0) 5066.
	create_child: MAIN (2, 4) FAR 12907 U 0.00
expand: MAIN (2, 0) FAR  w(0) 12907.
	create_child: MAIN (1, 4) FAR 13012 U 0.00
expand: MAIN (1, 0) FAR  w(0) 13012. F 0.00
expand: MAIN (2, 0) FAR  w(0) 12907.
	create_child: MAIN (1, 4) FAR 13162 U 0.00
expand: MAIN (1, 0) FAR  w(0) 13162. T 0.00
is-reachable: MAIN (2, 0) FAR 12907 T 0.01
is-reachable: MAIN (3, 0) FAR 5066 T 0.01
is-reachable: query!0 (4, 0) FAR 1 T 0.00
(spacer::context::check_reachability :time 0.04 :before-memory 7.17 :after-memory 8.29)
BRUNCH_STAT max_query_lvl 4
BRUNCH_STAT num_queries 19
BRUNCH_STAT num_reach_queries 4
BRUNCH_STAT num_reach_reuse 1
BRUNCH_STAT inductive_lvl 0
BRUNCH_STAT max_depth 4
BRUNCH_STAT cex_depth 4
(:SPACER-cex-depth                     4
 :SPACER-max-depth                     4
 :SPACER-max-query-lvl                 4
 :SPACER-num-invariants                2
 :SPACER-num-lemmas                    20
 :SPACER-num-properties                15
 :SPACER-num-queries                   19
 :SPACER-num-reach-queries             4
 :SPACER-num-reuse-reach-facts         1
 :added-eqs                            2402
 :arith-add-rows                       735
 :arith-assert-diseq                   971
 :arith-assert-lower                   1746
 :arith-assert-upper                   1920
 :arith-bound-prop                     187
 :arith-conflicts                      18
 :arith-eq-adapter                     396
 :arith-fixed-eqs                      281
 :arith-offset-eqs                     583
 :arith-pivots                         217
 :bool-inductive-gen                   16
 :bool-inductive-gen-failures          20
 :conflicts                            163
 :decisions                            3440
 :del-clause                           226
 :final-checks                         50
 :minimized-lits                       33
 :mk-bool-var                          1619
 :mk-clause                            4323
 :num-checks                           108
 :propagations                         30932
 :time.itp_solver.itp_core             0.01
 :time.spacer.init_rules               0.00
 :time.spacer.init_rules.pt.init       0.00
 :time.spacer.solve                    0.09
 :time.spacer.solve.propagate          0.01
 :time.spacer.solve.reach              0.08
 :time.spacer.solve.reach.children     0.01
 :time.spacer.solve.reach.gen.bool_ind 0.01
 :time.spacer.solve.reach.is-reach     0.02
 :time.virtual_solver.proof            0.01
 :time.virtual_solver.smt.total        0.06
 :time.virtual_solver.smt.total.sat    0.04
 :virtual_solver.checks                108
 :virtual_solver.checks.sat            50)
BRUNCH_STAT max_query_lvl 4
BRUNCH_STAT num_queries 19
BRUNCH_STAT num_reach_queries 4
BRUNCH_STAT num_reach_reuse 1
BRUNCH_STAT inductive_lvl 0
BRUNCH_STAT max_depth 4
BRUNCH_STAT cex_depth 4

real	0m0.138s
user	0m0.128s
sys	0m0.008s
