(transform N7datalog13mk_coi_filterE...no-op 0s)
(transform N7datalog25mk_interp_tail_simplifierE...11 rules 0s)
(transform N7datalog27mk_quantifier_instantiationE...no-op 0s)
(transform N7datalog8mk_scaleE...no-op 0s)
(transform N7datalog18mk_karr_invariantsE...no-op 0s)
(transform N7datalog14mk_array_blastE...no-op 0s)
(transform N7datalog22mk_subsumption_checkerE...10 rules 0s)
(transform N7datalog12mk_bit_blastE...no-op 0s)
(transform N7datalog15mk_rule_inlinerE...3 rules 0.00191402s)
(transform N7datalog13mk_coi_filterE...no-op 0s)
(transform N7datalog25mk_interp_tail_simplifierE...3 rules 0s)
(transform N7datalog22mk_subsumption_checkerE...no-op 0s)
(transform N7datalog15mk_rule_inlinerE...no-op 0s)
(transform N7datalog13mk_coi_filterE...no-op 0s)
(transform N7datalog25mk_interp_tail_simplifierE...3 rules 0s)
(transform N7datalog22mk_subsumption_checkerE...no-op 0s)
(transform N7datalog15mk_rule_inlinerE...no-op 0s)
(transform N7datalog22mk_subsumption_checkerE...no-op 0s)
(transform N7datalog15mk_rule_inlinerE...no-op 0s)
(transform N7datalog22mk_subsumption_checkerE...no-op 0s)
(transform N7datalog15mk_rule_inlinerE...no-op 0s)
(transform N7datalog22mk_subsumption_checkerE...no-op 0s)
(transform N7datalog8mk_sliceE...no-op 0s)
expand: query!0 (0, 0) FAR  w(0) 1. F 0.00
(spacer::context::check_reachability :time 0.00 :before-memory 4.20 :after-memory 4.79)
Entering level 1
BRUNCH_STAT max_query_lvl 0
BRUNCH_STAT num_queries 0
BRUNCH_STAT num_reach_queries 0
BRUNCH_STAT num_reach_reuse 0
BRUNCH_STAT inductive_lvl 0
BRUNCH_STAT max_depth 1
BRUNCH_STAT cex_depth 0
expand: query!0 (1, 0) FAR  w(0) 1.
	create_child: MAIN (0, 1) FAR 1270 U 0.00
expand: MAIN (0, 0) FAR  w(0) 1270. F 0.00
expand: query!0 (1, 0) FAR  w(0) 1. F 0.00
(spacer::context::check_reachability :time 0.00 :before-memory 4.79 :after-memory 5.32)
Propagating: 0 1  ! 2 
(spacer::context::propagate :time 0.00 :before-memory 5.32 :after-memory 5.32)
Entering level 2
BRUNCH_STAT max_query_lvl 1
BRUNCH_STAT num_queries 1
BRUNCH_STAT num_reach_queries 0
BRUNCH_STAT num_reach_reuse 0
BRUNCH_STAT inductive_lvl 0
BRUNCH_STAT max_depth 2
BRUNCH_STAT cex_depth 0
expand: query!0 (2, 0) FAR  w(0) 1.
	create_child: MAIN (1, 2) FAR 1270 U 0.00
expand: MAIN (1, 0) FAR  w(0) 1270.
	create_child: MAIN (0, 2) FAR 2171 U 0.00
expand: MAIN (0, 0) FAR  w(0) 2171. F 0.00
expand: MAIN (1, 0) FAR  w(0) 1270.
	create_child: MAIN (0, 2) FAR 2383 U 0.00
expand: MAIN (0, 0) FAR  w(0) 2383. F 0.00
expand: MAIN (1, 0) FAR  w(0) 1270.
	create_child: MAIN (0, 2) FAR 2533 U 0.00
expand: MAIN (0, 0) FAR  w(0) 2533. F 0.00
expand: MAIN (1, 0) FAR  w(0) 1270. F 0.00
expand: query!0 (2, 0) FAR  w(0) 1. F 0.00
(spacer::context::check_reachability :time 0.01 :before-memory 5.32 :after-memory 5.60)
Propagating: 0 1 2  ! 3 
(spacer::context::propagate :time 0.00 :before-memory 5.60 :after-memory 5.60)
Entering level 3
BRUNCH_STAT max_query_lvl 2
BRUNCH_STAT num_queries 5
BRUNCH_STAT num_reach_queries 0
BRUNCH_STAT num_reach_reuse 0
BRUNCH_STAT inductive_lvl 0
BRUNCH_STAT max_depth 3
BRUNCH_STAT cex_depth 0
expand: query!0 (3, 0) FAR  w(0) 1.
	create_child: MAIN (2, 3) FAR 1270 U 0.00
expand: MAIN (2, 0) FAR  w(0) 1270.
	create_child: MAIN (1, 3) FAR 3121 U 0.00
expand: MAIN (1, 0) FAR  w(0) 3121.
	create_child: MAIN (0, 3) FAR 3083 U 0.00
expand: MAIN (0, 0) FAR  w(0) 3083. F 0.00
expand: MAIN (1, 0) FAR  w(0) 3121. F 0.00
expand: MAIN (2, 0) FAR  w(0) 1270.
	create_child: MAIN (1, 3) FAR 3159 U 0.00
expand: MAIN (1, 0) FAR  w(0) 3159. F 0.00
expand: MAIN (2, 0) FAR  w(0) 1270. F 0.00
expand: query!0 (3, 0) FAR  w(0) 1. F 0.00
(spacer::context::check_reachability :time 0.01 :before-memory 5.60 :after-memory 5.60)
Propagating: 0 
(spacer::context::propagate :time 0.00 :before-memory 5.60 :after-memory 5.60)
(define-fun MAIN ((x!0 Int)
 (x!1 Int)
 (x!2 Bool)
 (x!3 Bool)
 (x!4 Bool)
 (x!5 Int)
 (x!6 Bool)
 (x!7 Bool)
 (x!8 Int)
 (x!9 Bool)
 (x!10 Bool)
 (x!11 Bool)) Bool
  (let ((a!1 (or (not (<= (+ x!0 x!1) 0)) (not x!2))))
    (and a!1 x!11 (not x!10) (<= x!5 0))))
BRUNCH_STAT max_query_lvl 3
BRUNCH_STAT num_queries 9
BRUNCH_STAT num_reach_queries 0
BRUNCH_STAT num_reach_reuse 0
BRUNCH_STAT inductive_lvl 0
BRUNCH_STAT max_depth 3
BRUNCH_STAT cex_depth 0
(:SPACER-max-depth                     3
 :SPACER-max-query-lvl                 3
 :SPACER-num-invariants                6
 :SPACER-num-lemmas                    13
 :SPACER-num-properties                5
 :SPACER-num-queries                   9
 :added-eqs                            186
 :arith-add-rows                       221
 :arith-assert-diseq                   42
 :arith-assert-lower                   225
 :arith-assert-upper                   200
 :arith-bound-prop                     37
 :arith-conflicts                      7
 :arith-eq-adapter                     49
 :arith-fixed-eqs                      20
 :arith-offset-eqs                     54
 :arith-pivots                         65
 :bool-inductive-gen                   9
 :bool-inductive-gen-failures          13
 :conflicts                            48
 :decisions                            590
 :del-clause                           2
 :final-checks                         23
 :minimized-lits                       3
 :mk-bool-var                          274
 :mk-clause                            334
 :num-checks                           54
 :propagations                         2897
 :time.itp_solver.itp_core             0.00
 :time.spacer.init_rules               0.00
 :time.spacer.init_rules.pt.init       0.00
 :time.spacer.solve                    0.02
 :time.spacer.solve.propagate          0.00
 :time.spacer.solve.reach              0.02
 :time.spacer.solve.reach.children     0.00
 :time.spacer.solve.reach.gen.bool_ind 0.00
 :time.virtual_solver.proof            0.00
 :time.virtual_solver.smt.total        0.01
 :time.virtual_solver.smt.total.sat    0.00
 :virtual_solver.checks                54
 :virtual_solver.checks.sat            23)
BRUNCH_STAT max_query_lvl 3
BRUNCH_STAT num_queries 9
BRUNCH_STAT num_reach_queries 0
BRUNCH_STAT num_reach_reuse 0
BRUNCH_STAT inductive_lvl 0
BRUNCH_STAT max_depth 3
BRUNCH_STAT cex_depth 0

real	0m0.040s
user	0m0.040s
sys	0m0.000s
