(transform N7datalog13mk_coi_filterE...no-op 0s)
(transform N7datalog25mk_interp_tail_simplifierE...11 rules 0s)
(transform N7datalog27mk_quantifier_instantiationE...no-op 0s)
(transform N7datalog8mk_scaleE...no-op 0s)
(transform N7datalog18mk_karr_invariantsE...no-op 0s)
(transform N7datalog14mk_array_blastE...no-op 0s)
(transform N7datalog22mk_subsumption_checkerE...10 rules 0s)
(transform N7datalog12mk_bit_blastE...no-op 0s)
(transform N7datalog15mk_rule_inlinerE...3 rules 0.0018545s)
(transform N7datalog13mk_coi_filterE...no-op 0s)
(transform N7datalog25mk_interp_tail_simplifierE...3 rules 0s)
(transform N7datalog22mk_subsumption_checkerE...no-op 0s)
(transform N7datalog15mk_rule_inlinerE...no-op 0s)
(transform N7datalog13mk_coi_filterE...no-op 0s)
(transform N7datalog25mk_interp_tail_simplifierE...3 rules 0s)
(transform N7datalog22mk_subsumption_checkerE...no-op 0s)
(transform N7datalog15mk_rule_inlinerE...no-op 0s)
(transform N7datalog22mk_subsumption_checkerE...no-op 0s)
(transform N7datalog15mk_rule_inlinerE...no-op 0s)
(transform N7datalog22mk_subsumption_checkerE...no-op 0s)
(transform N7datalog15mk_rule_inlinerE...no-op 0s)
(transform N7datalog22mk_subsumption_checkerE...no-op 0s)
(transform N7datalog8mk_sliceE...no-op 0s)
expand: query!0 (0, 0) FAR  w(0) 1. F 0.00
(spacer::context::check_reachability :time 0.00 :before-memory 4.21 :after-memory 4.69)
Entering level 1
BRUNCH_STAT max_query_lvl 0
BRUNCH_STAT num_queries 0
BRUNCH_STAT num_reach_queries 0
BRUNCH_STAT num_reach_reuse 0
BRUNCH_STAT inductive_lvl 0
BRUNCH_STAT max_depth 1
BRUNCH_STAT cex_depth 0
expand: query!0 (1, 0) FAR  w(0) 1.
	create_child: MAIN (0, 1) FAR 1136 U 0.00
expand: MAIN (0, 0) FAR  w(0) 1136. F 0.00
expand: query!0 (1, 0) FAR  w(0) 1. F 0.00
(spacer::context::check_reachability :time 0.00 :before-memory 4.69 :after-memory 5.33)
Propagating: 0 1  ! 2 
(spacer::context::propagate :time 0.00 :before-memory 5.33 :after-memory 5.33)
Entering level 2
BRUNCH_STAT max_query_lvl 1
BRUNCH_STAT num_queries 1
BRUNCH_STAT num_reach_queries 0
BRUNCH_STAT num_reach_reuse 0
BRUNCH_STAT inductive_lvl 0
BRUNCH_STAT max_depth 2
BRUNCH_STAT cex_depth 0
expand: query!0 (2, 0) FAR  w(0) 1.
	create_child: MAIN (1, 2) FAR 1136 U 0.00
expand: MAIN (1, 0) FAR  w(0) 1136.
	create_child: MAIN (0, 2) FAR 2044 U 0.00
expand: MAIN (0, 0) FAR  w(0) 2044. F 0.00
expand: MAIN (1, 0) FAR  w(0) 1136.
	create_child: MAIN (0, 2) FAR 2155 U 0.00
expand: MAIN (0, 0) FAR  w(0) 2155. F 0.00
expand: MAIN (1, 0) FAR  w(0) 1136.
	create_child: MAIN (0, 2) FAR 2317 U 0.00
expand: MAIN (0, 0) FAR  w(0) 2317. F 0.00
expand: MAIN (1, 0) FAR  w(0) 1136.
	create_child: MAIN (0, 2) FAR 2506 U 0.00
expand: MAIN (0, 0) FAR  w(0) 2506. F 0.00
expand: MAIN (1, 0) FAR  w(0) 1136.
	create_child: MAIN (0, 2) FAR 2668 U 0.00
expand: MAIN (0, 0) FAR  w(0) 2668. F 0.00
expand: MAIN (1, 0) FAR  w(0) 1136. F 0.00
expand: query!0 (2, 0) FAR  w(0) 1. F 0.00
(spacer::context::check_reachability :time 0.01 :before-memory 5.33 :after-memory 5.64)
Propagating: 0 
(spacer::context::propagate :time 0.00 :before-memory 5.64 :after-memory 5.64)
(define-fun MAIN ((x!0 Int)
 (x!1 Int)
 (x!2 Bool)
 (x!3 Bool)
 (x!4 Bool)
 (x!5 Int)
 (x!6 Bool)
 (x!7 Bool)
 (x!8 Int)
 (x!9 Bool)
 (x!10 Bool)
 (x!11 Bool)) Bool
  (and (or (>= (+ x!0 x!1) 0) (not x!2)) x!11 (not x!10) (<= x!5 0) (<= x!8 0)))
BRUNCH_STAT max_query_lvl 2
BRUNCH_STAT num_queries 7
BRUNCH_STAT num_reach_queries 0
BRUNCH_STAT num_reach_reuse 0
BRUNCH_STAT inductive_lvl 0
BRUNCH_STAT max_depth 2
BRUNCH_STAT cex_depth 0
(:SPACER-max-depth                     2
 :SPACER-max-query-lvl                 2
 :SPACER-num-invariants                7
 :SPACER-num-lemmas                    10
 :SPACER-num-properties                6
 :SPACER-num-queries                   7
 :added-eqs                            128
 :arith-add-rows                       128
 :arith-assert-diseq                   30
 :arith-assert-lower                   161
 :arith-assert-upper                   139
 :arith-bound-prop                     26
 :arith-conflicts                      9
 :arith-eq-adapter                     33
 :arith-fixed-eqs                      26
 :arith-offset-eqs                     25
 :arith-pivots                         39
 :bool-inductive-gen                   7
 :bool-inductive-gen-failures          8
 :conflicts                            40
 :decisions                            369
 :del-clause                           21
 :final-checks                         14
 :minimized-lits                       2
 :mk-bool-var                          298
 :mk-clause                            332
 :num-checks                           38
 :propagations                         1902
 :time.itp_solver.itp_core             0.00
 :time.spacer.init_rules               0.00
 :time.spacer.init_rules.pt.init       0.00
 :time.spacer.solve                    0.02
 :time.spacer.solve.propagate          0.00
 :time.spacer.solve.reach              0.01
 :time.spacer.solve.reach.children     0.00
 :time.spacer.solve.reach.gen.bool_ind 0.00
 :time.virtual_solver.proof            0.00
 :time.virtual_solver.smt.total        0.01
 :time.virtual_solver.smt.total.sat    0.00
 :virtual_solver.checks                38
 :virtual_solver.checks.sat            14)
BRUNCH_STAT max_query_lvl 2
BRUNCH_STAT num_queries 7
BRUNCH_STAT num_reach_queries 0
BRUNCH_STAT num_reach_reuse 0
BRUNCH_STAT inductive_lvl 0
BRUNCH_STAT max_depth 2
BRUNCH_STAT cex_depth 0

real	0m0.036s
user	0m0.028s
sys	0m0.008s
