(transform N7datalog13mk_coi_filterE...no-op 0s)
(transform N7datalog25mk_interp_tail_simplifierE...26 rules 0s)
(transform N7datalog27mk_quantifier_instantiationE...no-op 0s)
(transform N7datalog8mk_scaleE...no-op 0s)
(transform N7datalog18mk_karr_invariantsE...no-op 0s)
(transform N7datalog14mk_array_blastE...no-op 0s)
(transform N7datalog22mk_subsumption_checkerE...25 rules 0s)
(transform N7datalog12mk_bit_blastE...no-op 0s)
(transform N7datalog15mk_rule_inlinerE...3 rules 0.0146565s)
(transform N7datalog13mk_coi_filterE...no-op 0s)
(transform N7datalog25mk_interp_tail_simplifierE...3 rules 0s)
(transform N7datalog22mk_subsumption_checkerE...no-op 0s)
(transform N7datalog15mk_rule_inlinerE...no-op 0s)
(transform N7datalog13mk_coi_filterE...no-op 0s)
(transform N7datalog25mk_interp_tail_simplifierE...3 rules 0s)
(transform N7datalog22mk_subsumption_checkerE...no-op 0s)
(transform N7datalog15mk_rule_inlinerE...no-op 0s)
(transform N7datalog22mk_subsumption_checkerE...no-op 0s)
(transform N7datalog15mk_rule_inlinerE...no-op 0s)
(transform N7datalog22mk_subsumption_checkerE...no-op 0s)
(transform N7datalog15mk_rule_inlinerE...no-op 0s)
(transform N7datalog22mk_subsumption_checkerE...no-op 0s)
(transform N7datalog8mk_sliceE...3 rules 0s)
expand: query!0 (0, 0) FAR  w(0) 1. F 0.00
(spacer::context::check_reachability :time 0.00 :before-memory 5.07 :after-memory 5.55)
Entering level 1
BRUNCH_STAT max_query_lvl 0
BRUNCH_STAT num_queries 0
BRUNCH_STAT num_reach_queries 0
BRUNCH_STAT num_reach_reuse 0
BRUNCH_STAT inductive_lvl 0
BRUNCH_STAT max_depth 1
BRUNCH_STAT cex_depth 0
expand: query!0 (1, 0) FAR  w(0) 1.
	create_child: MAIN!slice!1 (0, 1) FAR 5733 U 0.00
expand: MAIN!slice!1 (0, 0) FAR  w(0) 5733. F 0.00
expand: query!0 (1, 0) FAR  w(0) 1. F 0.00
(spacer::context::check_reachability :time 0.00 :before-memory 5.55 :after-memory 6.33)
Propagating: 0 1  ! 2 
(spacer::context::propagate :time 0.00 :before-memory 6.33 :after-memory 6.33)
Entering level 2
BRUNCH_STAT max_query_lvl 1
BRUNCH_STAT num_queries 1
BRUNCH_STAT num_reach_queries 0
BRUNCH_STAT num_reach_reuse 0
BRUNCH_STAT inductive_lvl 0
BRUNCH_STAT max_depth 2
BRUNCH_STAT cex_depth 0
expand: query!0 (2, 0) FAR  w(0) 1.
	create_child: MAIN!slice!1 (1, 2) FAR 5733 U 0.00
expand: MAIN!slice!1 (1, 0) FAR  w(0) 5733.
	create_child: MAIN!slice!1 (0, 2) FAR 8066 U 0.00
expand: MAIN!slice!1 (0, 0) FAR  w(0) 8066. F 0.00
expand: MAIN!slice!1 (1, 0) FAR  w(0) 5733.
	create_child: MAIN!slice!1 (0, 2) FAR 8152 U 0.00
expand: MAIN!slice!1 (0, 0) FAR  w(0) 8152. F 0.00
expand: MAIN!slice!1 (1, 0) FAR  w(0) 5733.
	create_child: MAIN!slice!1 (0, 2) FAR 8253 U 0.00
expand: MAIN!slice!1 (0, 0) FAR  w(0) 8253. F 0.00
expand: MAIN!slice!1 (1, 0) FAR  w(0) 5733.
	create_child: MAIN!slice!1 (0, 2) FAR 8235 U 0.00
expand: MAIN!slice!1 (0, 0) FAR  w(0) 8235. F 0.00
expand: MAIN!slice!1 (1, 0) FAR  w(0) 5733.
	create_child: MAIN!slice!1 (0, 2) FAR 8335 U 0.00
expand: MAIN!slice!1 (0, 0) FAR  w(0) 8335. F 0.00
expand: MAIN!slice!1 (1, 0) FAR  w(0) 5733.
	create_child: MAIN!slice!1 (0, 2) FAR 8371 U 0.00
expand: MAIN!slice!1 (0, 0) FAR  w(0) 8371. F 0.00
expand: MAIN!slice!1 (1, 0) FAR  w(0) 5733.
	create_child: MAIN!slice!1 (0, 2) FAR 8425 U 0.00
expand: MAIN!slice!1 (0, 0) FAR  w(0) 8425. F 0.00
expand: MAIN!slice!1 (1, 0) FAR  w(0) 5733.
	create_child: MAIN!slice!1 (0, 2) FAR 8403 U 0.00
expand: MAIN!slice!1 (0, 0) FAR  w(0) 8403. F 0.00
expand: MAIN!slice!1 (1, 0) FAR  w(0) 5733.
	create_child: MAIN!slice!1 (0, 2) FAR 8587 U 0.00
expand: MAIN!slice!1 (0, 0) FAR  w(0) 8587. F 0.00
expand: MAIN!slice!1 (1, 0) FAR  w(0) 5733.
	create_child: MAIN!slice!1 (0, 2) FAR 8575 U 0.00
expand: MAIN!slice!1 (0, 0) FAR  w(0) 8575. F 0.00
expand: MAIN!slice!1 (1, 0) FAR  w(0) 5733.
	create_child: MAIN!slice!1 (0, 2) FAR 8687 U 0.00
expand: MAIN!slice!1 (0, 0) FAR  w(0) 8687. F 0.00
expand: MAIN!slice!1 (1, 0) FAR  w(0) 5733.
	create_child: MAIN!slice!1 (0, 2) FAR 8638 U 0.00
expand: MAIN!slice!1 (0, 0) FAR  w(0) 8638. F 0.00
expand: MAIN!slice!1 (1, 0) FAR  w(0) 5733.
	create_child: MAIN!slice!1 (0, 2) FAR 8672 U 0.00
expand: MAIN!slice!1 (0, 0) FAR  w(0) 8672. F 0.00
expand: MAIN!slice!1 (1, 0) FAR  w(0) 5733.
	create_child: MAIN!slice!1 (0, 2) FAR 8741 U 0.00
expand: MAIN!slice!1 (0, 0) FAR  w(0) 8741. F 0.00
expand: MAIN!slice!1 (1, 0) FAR  w(0) 5733.
	create_child: MAIN!slice!1 (0, 2) FAR 8819 U 0.00
expand: MAIN!slice!1 (0, 0) FAR  w(0) 8819. F 0.00
expand: MAIN!slice!1 (1, 0) FAR  w(0) 5733.
	create_child: MAIN!slice!1 (0, 2) FAR 9030 U 0.00
expand: MAIN!slice!1 (0, 0) FAR  w(0) 9030. F 0.00
expand: MAIN!slice!1 (1, 0) FAR  w(0) 5733.
	create_child: MAIN!slice!1 (0, 2) FAR 8994 U 0.00
expand: MAIN!slice!1 (0, 0) FAR  w(0) 8994. F 0.00
expand: MAIN!slice!1 (1, 0) FAR  w(0) 5733.
	create_child: MAIN!slice!1 (0, 2) FAR 9172 U 0.00
expand: MAIN!slice!1 (0, 0) FAR  w(0) 9172. F 0.00
expand: MAIN!slice!1 (1, 0) FAR  w(0) 5733. F 0.00
expand: query!0 (2, 0) FAR  w(0) 1. F 0.00
(spacer::context::check_reachability :time 0.03 :before-memory 6.33 :after-memory 6.53)
Propagating: 0 1 2  ! 3 
(spacer::context::propagate :time 0.00 :before-memory 6.53 :after-memory 6.53)
Entering level 3
BRUNCH_STAT max_query_lvl 2
BRUNCH_STAT num_queries 20
BRUNCH_STAT num_reach_queries 0
BRUNCH_STAT num_reach_reuse 0
BRUNCH_STAT inductive_lvl 0
BRUNCH_STAT max_depth 3
BRUNCH_STAT cex_depth 0
expand: query!0 (3, 0) FAR  w(0) 1.
	create_child: MAIN!slice!1 (2, 3) FAR 5733 U 0.00
expand: MAIN!slice!1 (2, 0) FAR  w(0) 5733.
	create_child: MAIN!slice!1 (1, 3) FAR 10243 U 0.00
expand: MAIN!slice!1 (1, 0) FAR  w(0) 10243. F 0.00
expand: MAIN!slice!1 (2, 0) FAR  w(0) 5733.
	create_child: MAIN!slice!1 (1, 3) FAR 10272 U 0.00
expand: MAIN!slice!1 (1, 0) FAR  w(0) 10272. F 0.00
expand: MAIN!slice!1 (2, 0) FAR  w(0) 5733.
	create_child: MAIN!slice!1 (1, 3) FAR 10465 U 0.00
expand: MAIN!slice!1 (1, 0) FAR  w(0) 10465. F 0.00
expand: MAIN!slice!1 (2, 0) FAR  w(0) 5733.
	create_child: MAIN!slice!1 (1, 3) FAR 10512 U 0.00
expand: MAIN!slice!1 (1, 0) FAR  w(0) 10512. F 0.00
expand: MAIN!slice!1 (2, 0) FAR  w(0) 5733.
	create_child: MAIN!slice!1 (1, 3) FAR 10767 U 0.00
expand: MAIN!slice!1 (1, 0) FAR  w(0) 10767. F 0.00
expand: MAIN!slice!1 (2, 0) FAR  w(0) 5733.
	create_child: MAIN!slice!1 (1, 3) FAR 10849 U 0.00
expand: MAIN!slice!1 (1, 0) FAR  w(0) 10849. F 0.00
expand: MAIN!slice!1 (2, 0) FAR  w(0) 5733.
	create_child: MAIN!slice!1 (1, 3) FAR 10942 U 0.00
expand: MAIN!slice!1 (1, 0) FAR  w(0) 10942. F 0.00
expand: MAIN!slice!1 (2, 0) FAR  w(0) 5733.
	create_child: MAIN!slice!1 (1, 3) FAR 11142 U 0.00
expand: MAIN!slice!1 (1, 0) FAR  w(0) 11142. F 0.00
expand: MAIN!slice!1 (2, 0) FAR  w(0) 5733.
	create_child: MAIN!slice!1 (1, 3) FAR 11212 U 0.00
expand: MAIN!slice!1 (1, 0) FAR  w(0) 11212. F 0.00
expand: MAIN!slice!1 (2, 0) FAR  w(0) 5733.
	create_child: MAIN!slice!1 (1, 3) FAR 11403 U 0.00
expand: MAIN!slice!1 (1, 0) FAR  w(0) 11403. F 0.00
expand: MAIN!slice!1 (2, 0) FAR  w(0) 5733.
	create_child: MAIN!slice!1 (1, 3) FAR 11446 U 0.00
expand: MAIN!slice!1 (1, 0) FAR  w(0) 11446. F 0.00
expand: MAIN!slice!1 (2, 0) FAR  w(0) 5733.
	create_child: MAIN!slice!1 (1, 3) FAR 11714 U 0.00
expand: MAIN!slice!1 (1, 0) FAR  w(0) 11714. F 0.00
expand: MAIN!slice!1 (2, 0) FAR  w(0) 5733.
	create_child: MAIN!slice!1 (1, 3) FAR 11765 U 0.00
expand: MAIN!slice!1 (1, 0) FAR  w(0) 11765. F 0.00
expand: MAIN!slice!1 (2, 0) FAR  w(0) 5733. F 0.00
expand: query!0 (3, 0) FAR  w(0) 1. F 0.00
(spacer::context::check_reachability :time 0.03 :before-memory 6.53 :after-memory 7.18)
Propagating: 1 
(spacer::context::propagate :time 0.00 :before-memory 7.18 :after-memory 7.18)
(define-fun MAIN!slice!1 ((x!0 Bool)
 (x!1 Bool)
 (x!2 Bool)
 (x!3 Bool)
 (x!4 Bool)
 (x!5 Bool)
 (x!6 Bool)
 (x!7 Bool)
 (x!8 Bool)
 (x!9 Bool)
 (x!10 Bool)
 (x!11 Bool)
 (x!12 Bool)
 (x!13 Bool)
 (x!14 Bool)
 (x!15 Bool)
 (x!16 Bool)
 (x!17 Bool)
 (x!18 Bool)
 (x!19 Bool)
 (x!20 Bool)
 (x!21 Bool)
 (x!22 Bool)
 (x!23 Bool)
 (x!24 Bool)
 (x!25 Bool)
 (x!26 Bool)
 (x!27 Bool)
 (x!28 Bool)
 (x!29 Bool)
 (x!30 Bool)
 (x!31 Bool)
 (x!32 Bool)
 (x!33 Bool)
 (x!34 Bool)
 (x!35 Bool)
 (x!36 Bool)
 (x!37 Bool)
 (x!38 Bool)) Bool
  (and (or (not x!26) (not x!5))
       x!38
       (not x!2)
       (not x!4)
       (not x!6)
       (not x!8)
       (not x!11)
       (not x!13)
       (not x!15)
       (not x!17)
       (not x!23)
       (not x!25)
       (not x!27)
       (not x!32)
       (not x!35)
       (not x!0)
       (or (not x!16) x!34)
       (or x!9 (not x!28))
       (or (not x!21) x!14)
       (or (not x!14) x!21)
       (or (not x!24) x!21)
       (or (not x!20) x!1)
       (or x!28 (not x!9))
       (or (not x!29) x!28)
       (or x!10 (not x!29))
       (or x!12 (not x!31))
       (or (not x!26) (not x!7))))
BRUNCH_STAT max_query_lvl 3
BRUNCH_STAT num_queries 34
BRUNCH_STAT num_reach_queries 0
BRUNCH_STAT num_reach_reuse 0
BRUNCH_STAT inductive_lvl 1
BRUNCH_STAT max_depth 3
BRUNCH_STAT cex_depth 0
(:SPACER-inductive-level               1
 :SPACER-max-depth                     3
 :SPACER-max-query-lvl                 3
 :SPACER-num-invariants                28
 :SPACER-num-lemmas                    38
 :SPACER-num-properties                33
 :SPACER-num-queries                   34
 :arith-assert-lower                   13
 :arith-assert-upper                   13
 :bool-inductive-gen                   34
 :bool-inductive-gen-failures          52
 :conflicts                            139
 :decisions                            3535
 :final-checks                         75
 :minimized-lits                       33
 :mk-bool-var                          884
 :mk-clause                            1099
 :num-checks                           175
 :propagations                         27403
 :time.itp_solver.itp_core             0.01
 :time.spacer.init_rules               0.00
 :time.spacer.init_rules.pt.init       0.00
 :time.spacer.solve                    0.07
 :time.spacer.solve.propagate          0.00
 :time.spacer.solve.reach              0.07
 :time.spacer.solve.reach.children     0.02
 :time.spacer.solve.reach.gen.bool_ind 0.01
 :time.virtual_solver.proof            0.01
 :time.virtual_solver.smt.total        0.03
 :time.virtual_solver.smt.total.sat    0.02
 :virtual_solver.checks                175
 :virtual_solver.checks.sat            75)
BRUNCH_STAT max_query_lvl 3
BRUNCH_STAT num_queries 34
BRUNCH_STAT num_reach_queries 0
BRUNCH_STAT num_reach_reuse 0
BRUNCH_STAT inductive_lvl 1
BRUNCH_STAT max_depth 3
BRUNCH_STAT cex_depth 0

real	0m0.117s
user	0m0.112s
sys	0m0.004s
