(transform N7datalog13mk_coi_filterE...no-op 0s)
(transform N7datalog25mk_interp_tail_simplifierE...12 rules 0s)
(transform N7datalog27mk_quantifier_instantiationE...no-op 0s)
(transform N7datalog8mk_scaleE...no-op 0s)
(transform N7datalog18mk_karr_invariantsE...no-op 0s)
(transform N7datalog14mk_array_blastE...no-op 0s)
(transform N7datalog22mk_subsumption_checkerE...11 rules 0s)
(transform N7datalog12mk_bit_blastE...no-op 0s)
(transform N7datalog15mk_rule_inlinerE...3 rules 0.00350193s)
(transform N7datalog13mk_coi_filterE...no-op 0s)
(transform N7datalog25mk_interp_tail_simplifierE...3 rules 0s)
(transform N7datalog22mk_subsumption_checkerE...no-op 0s)
(transform N7datalog15mk_rule_inlinerE...no-op 0s)
(transform N7datalog13mk_coi_filterE...no-op 0s)
(transform N7datalog25mk_interp_tail_simplifierE...3 rules 0s)
(transform N7datalog22mk_subsumption_checkerE...no-op 0s)
(transform N7datalog15mk_rule_inlinerE...no-op 0s)
(transform N7datalog22mk_subsumption_checkerE...no-op 0s)
(transform N7datalog15mk_rule_inlinerE...no-op 0s)
(transform N7datalog22mk_subsumption_checkerE...no-op 0s)
(transform N7datalog15mk_rule_inlinerE...no-op 0s)
(transform N7datalog22mk_subsumption_checkerE...no-op 0s)
(transform N7datalog8mk_sliceE...no-op 0s)
expand: query!0 (0, 0) FAR  w(0) 1. F 0.00
(spacer::context::check_reachability :time 0.00 :before-memory 4.47 :after-memory 4.97)
Entering level 1
BRUNCH_STAT max_query_lvl 0
BRUNCH_STAT num_queries 0
BRUNCH_STAT num_reach_queries 0
BRUNCH_STAT num_reach_reuse 0
BRUNCH_STAT inductive_lvl 0
BRUNCH_STAT max_depth 1
BRUNCH_STAT cex_depth 0
expand: query!0 (1, 0) FAR  w(0) 1.
	create_child: MAIN (0, 1) FAR 3355 U 0.00
expand: MAIN (0, 0) FAR  w(0) 3355. F 0.00
expand: query!0 (1, 0) FAR  w(0) 1. F 0.00
(spacer::context::check_reachability :time 0.00 :before-memory 4.97 :after-memory 5.91)
Propagating: 0 1  ! 2 
(spacer::context::propagate :time 0.00 :before-memory 5.91 :after-memory 6.20)
Entering level 2
BRUNCH_STAT max_query_lvl 1
BRUNCH_STAT num_queries 1
BRUNCH_STAT num_reach_queries 0
BRUNCH_STAT num_reach_reuse 0
BRUNCH_STAT inductive_lvl 0
BRUNCH_STAT max_depth 2
BRUNCH_STAT cex_depth 0
expand: query!0 (2, 0) FAR  w(0) 1.
	create_child: MAIN (1, 2) FAR 3355 U 0.00
expand: MAIN (1, 0) FAR  w(0) 3355.
	create_child: MAIN (0, 2) FAR 6856 U 0.00
expand: MAIN (0, 0) FAR  w(0) 6856. F 0.00
expand: MAIN (1, 0) FAR  w(0) 3355.
	create_child: MAIN (0, 2) FAR 7055 U 0.00
expand: MAIN (0, 0) FAR  w(0) 7055. F 0.00
expand: MAIN (1, 0) FAR  w(0) 3355.
	create_child: MAIN (0, 2) FAR 7267 U 0.00
expand: MAIN (0, 0) FAR  w(0) 7267. F 0.00
expand: MAIN (1, 0) FAR  w(0) 3355.
	create_child: MAIN (0, 2) FAR 7634 U 0.00
expand: MAIN (0, 0) FAR  w(0) 7634. F 0.00
expand: MAIN (1, 0) FAR  w(0) 3355.
	create_child: MAIN (0, 2) FAR 7851 U 0.00
expand: MAIN (0, 0) FAR  w(0) 7851. F 0.00
expand: MAIN (1, 0) FAR  w(0) 3355. F 0.00
expand: query!0 (2, 0) FAR  w(0) 1. F 0.00
(spacer::context::check_reachability :time 0.02 :before-memory 6.20 :after-memory 6.37)
Propagating: 0 1 2  ! 3 
(spacer::context::propagate :time 0.00 :before-memory 6.37 :after-memory 6.37)
Entering level 3
BRUNCH_STAT max_query_lvl 2
BRUNCH_STAT num_queries 7
BRUNCH_STAT num_reach_queries 0
BRUNCH_STAT num_reach_reuse 0
BRUNCH_STAT inductive_lvl 0
BRUNCH_STAT max_depth 3
BRUNCH_STAT cex_depth 0
expand: query!0 (3, 0) FAR  w(0) 1.
	create_child: MAIN (2, 3) FAR 3355 U 0.00
expand: MAIN (2, 0) FAR  w(0) 3355.
	create_child: MAIN (1, 3) FAR 8709 U 0.00
expand: MAIN (1, 0) FAR  w(0) 8709. F 0.00
expand: MAIN (2, 0) FAR  w(0) 3355.
	create_child: MAIN (1, 3) FAR 9090 U 0.00
expand: MAIN (1, 0) FAR  w(0) 9090. F 0.00
expand: MAIN (2, 0) FAR  w(0) 3355.
	create_child: MAIN (1, 3) FAR 7851 U 0.00
expand: MAIN (1, 0) FAR  w(0) 7851. T 0.00
is-reachable: MAIN (2, 0) FAR 3355 T 0.01
is-reachable: query!0 (3, 0) FAR 1 T 0.00
(spacer::context::check_reachability :time 0.03 :before-memory 6.37 :after-memory 7.55)
BRUNCH_STAT max_query_lvl 3
BRUNCH_STAT num_queries 11
BRUNCH_STAT num_reach_queries 3
BRUNCH_STAT num_reach_reuse 1
BRUNCH_STAT inductive_lvl 0
BRUNCH_STAT max_depth 3
BRUNCH_STAT cex_depth 3
(:SPACER-cex-depth                     3
 :SPACER-max-depth                     3
 :SPACER-max-query-lvl                 3
 :SPACER-num-invariants                5
 :SPACER-num-lemmas                    12
 :SPACER-num-properties                9
 :SPACER-num-queries                   11
 :SPACER-num-reach-queries             3
 :SPACER-num-reuse-reach-facts         1
 :added-eqs                            1052
 :arith-add-rows                       502
 :arith-assert-diseq                   455
 :arith-assert-lower                   927
 :arith-assert-upper                   859
 :arith-bound-prop                     158
 :arith-conflicts                      13
 :arith-eq-adapter                     189
 :arith-fixed-eqs                      153
 :arith-offset-eqs                     144
 :arith-pivots                         121
 :bool-inductive-gen                   9
 :bool-inductive-gen-failures          8
 :conflicts                            132
 :decisions                            1296
 :del-clause                           101
 :final-checks                         26
 :minimized-lits                       201
 :mk-bool-var                          995
 :mk-clause                            2544
 :num-checks                           58
 :propagations                         13938
 :time.itp_solver.itp_core             0.00
 :time.spacer.init_rules               0.00
 :time.spacer.init_rules.pt.init       0.00
 :time.spacer.solve                    0.05
 :time.spacer.solve.propagate          0.00
 :time.spacer.solve.reach              0.05
 :time.spacer.solve.reach.children     0.01
 :time.spacer.solve.reach.gen.bool_ind 0.00
 :time.spacer.solve.reach.is-reach     0.01
 :time.virtual_solver.proof            0.00
 :time.virtual_solver.smt.total        0.03
 :time.virtual_solver.smt.total.sat    0.02
 :virtual_solver.checks                58
 :virtual_solver.checks.sat            26)
BRUNCH_STAT max_query_lvl 3
BRUNCH_STAT num_queries 11
BRUNCH_STAT num_reach_queries 3
BRUNCH_STAT num_reach_reuse 1
BRUNCH_STAT inductive_lvl 0
BRUNCH_STAT max_depth 3
BRUNCH_STAT cex_depth 3

real	0m0.085s
user	0m0.080s
sys	0m0.004s
