(transform N7datalog13mk_coi_filterE...no-op 0s)
(transform N7datalog25mk_interp_tail_simplifierE...14 rules 0s)
(transform N7datalog27mk_quantifier_instantiationE...no-op 0s)
(transform N7datalog8mk_scaleE...no-op 0s)
(transform N7datalog18mk_karr_invariantsE...no-op 0s)
(transform N7datalog14mk_array_blastE...no-op 0s)
(transform N7datalog22mk_subsumption_checkerE...13 rules 0s)
(transform N7datalog12mk_bit_blastE...no-op 0s)
(transform N7datalog15mk_rule_inlinerE...3 rules 0.00377415s)
(transform N7datalog13mk_coi_filterE...no-op 0s)
(transform N7datalog25mk_interp_tail_simplifierE...3 rules 0s)
(transform N7datalog22mk_subsumption_checkerE...no-op 0s)
(transform N7datalog15mk_rule_inlinerE...no-op 0s)
(transform N7datalog13mk_coi_filterE...no-op 0s)
(transform N7datalog25mk_interp_tail_simplifierE...3 rules 0s)
(transform N7datalog22mk_subsumption_checkerE...no-op 0s)
(transform N7datalog15mk_rule_inlinerE...no-op 0s)
(transform N7datalog22mk_subsumption_checkerE...no-op 0s)
(transform N7datalog15mk_rule_inlinerE...no-op 0s)
(transform N7datalog22mk_subsumption_checkerE...no-op 0s)
(transform N7datalog15mk_rule_inlinerE...no-op 0s)
(transform N7datalog22mk_subsumption_checkerE...no-op 0s)
(transform N7datalog8mk_sliceE...no-op 0s)
expand: query!0 (0, 0) FAR  w(0) 1. F 0.00
(spacer::context::check_reachability :time 0.00 :before-memory 4.46 :after-memory 5.08)
Entering level 1
BRUNCH_STAT max_query_lvl 0
BRUNCH_STAT num_queries 0
BRUNCH_STAT num_reach_queries 0
BRUNCH_STAT num_reach_reuse 0
BRUNCH_STAT inductive_lvl 0
BRUNCH_STAT max_depth 1
BRUNCH_STAT cex_depth 0
expand: query!0 (1, 0) FAR  w(0) 1.
	create_child: MAIN (0, 1) FAR 3595 U 0.00
expand: MAIN (0, 0) FAR  w(0) 3595. F 0.00
expand: query!0 (1, 0) FAR  w(0) 1. F 0.00
(spacer::context::check_reachability :time 0.00 :before-memory 5.08 :after-memory 6.10)
Propagating: 0 1  ! 2 
(spacer::context::propagate :time 0.00 :before-memory 6.10 :after-memory 6.10)
Entering level 2
BRUNCH_STAT max_query_lvl 1
BRUNCH_STAT num_queries 1
BRUNCH_STAT num_reach_queries 0
BRUNCH_STAT num_reach_reuse 0
BRUNCH_STAT inductive_lvl 0
BRUNCH_STAT max_depth 2
BRUNCH_STAT cex_depth 0
expand: query!0 (2, 0) FAR  w(0) 1.
	create_child: MAIN (1, 2) FAR 3595 U 0.00
expand: MAIN (1, 0) FAR  w(0) 3595.
	create_child: MAIN (0, 2) FAR 7186 U 0.00
expand: MAIN (0, 0) FAR  w(0) 7186. F 0.00
expand: MAIN (1, 0) FAR  w(0) 3595.
	create_child: MAIN (0, 2) FAR 7176 U 0.00
expand: MAIN (0, 0) FAR  w(0) 7176. F 0.00
expand: MAIN (1, 0) FAR  w(0) 3595.
	create_child: MAIN (0, 2) FAR 7408 U 0.00
expand: MAIN (0, 0) FAR  w(0) 7408. F 0.00
expand: MAIN (1, 0) FAR  w(0) 3595.
	create_child: MAIN (0, 2) FAR 7571 U 0.00
expand: MAIN (0, 0) FAR  w(0) 7571. F 0.00
expand: MAIN (1, 0) FAR  w(0) 3595.
	create_child: MAIN (0, 2) FAR 7684 U 0.00
expand: MAIN (0, 0) FAR  w(0) 7684. F 0.00
expand: MAIN (1, 0) FAR  w(0) 3595.
	create_child: MAIN (0, 2) FAR 7799 U 0.00
expand: MAIN (0, 0) FAR  w(0) 7799. F 0.00
expand: MAIN (1, 0) FAR  w(0) 3595.
	create_child: MAIN (0, 2) FAR 7980 U 0.00
expand: MAIN (0, 0) FAR  w(0) 7980. F 0.00
expand: MAIN (1, 0) FAR  w(0) 3595.
	create_child: MAIN (0, 2) FAR 8113 U 0.00
expand: MAIN (0, 0) FAR  w(0) 8113. F 0.00
expand: MAIN (1, 0) FAR  w(0) 3595.
	create_child: MAIN (0, 2) FAR 8253 U 0.00
expand: MAIN (0, 0) FAR  w(0) 8253. F 0.00
expand: MAIN (1, 0) FAR  w(0) 3595. F 0.00
expand: query!0 (2, 0) FAR  w(0) 1. F 0.00
(spacer::context::check_reachability :time 0.03 :before-memory 6.10 :after-memory 6.53)
Propagating: 0 1 2  ! 3 
(spacer::context::propagate :time 0.00 :before-memory 6.53 :after-memory 6.64)
Entering level 3
BRUNCH_STAT max_query_lvl 2
BRUNCH_STAT num_queries 11
BRUNCH_STAT num_reach_queries 0
BRUNCH_STAT num_reach_reuse 0
BRUNCH_STAT inductive_lvl 0
BRUNCH_STAT max_depth 3
BRUNCH_STAT cex_depth 0
expand: query!0 (3, 0) FAR  w(0) 1.
	create_child: MAIN (2, 3) FAR 3595 U 0.00
expand: MAIN (2, 0) FAR  w(0) 3595.
	create_child: MAIN (1, 3) FAR 10472 U 0.00
expand: MAIN (1, 0) FAR  w(0) 10472. F 0.00
expand: MAIN (2, 0) FAR  w(0) 3595.
	create_child: MAIN (1, 3) FAR 10566 U 0.00
expand: MAIN (1, 0) FAR  w(0) 10566. F 0.00
expand: MAIN (2, 0) FAR  w(0) 3595.
	create_child: MAIN (1, 3) FAR 10817 U 0.00
expand: MAIN (1, 0) FAR  w(0) 10817. F 0.00
expand: MAIN (2, 0) FAR  w(0) 3595.
	create_child: MAIN (1, 3) FAR 10973 U 0.00
expand: MAIN (1, 0) FAR  w(0) 10973. F 0.00
expand: MAIN (2, 0) FAR  w(0) 3595. F 0.00
expand: query!0 (3, 0) FAR  w(0) 1. F 0.00
(spacer::context::check_reachability :time 0.02 :before-memory 6.64 :after-memory 6.88)
Propagating: 1 2 3  ! 4 
(spacer::context::propagate :time 0.01 :before-memory 6.88 :after-memory 7.25)
Entering level 4
BRUNCH_STAT max_query_lvl 3
BRUNCH_STAT num_queries 16
BRUNCH_STAT num_reach_queries 0
BRUNCH_STAT num_reach_reuse 0
BRUNCH_STAT inductive_lvl 0
BRUNCH_STAT max_depth 4
BRUNCH_STAT cex_depth 0
expand: query!0 (4, 0) FAR  w(0) 1.
	create_child: MAIN (3, 4) FAR 3595 U 0.00
expand: MAIN (3, 0) FAR  w(0) 3595.
	create_child: MAIN (2, 4) FAR 10817 U 0.00
expand: MAIN (2, 0) FAR  w(0) 10817. F 0.00
expand: MAIN (3, 0) FAR  w(0) 3595. F 0.00
expand: query!0 (4, 0) FAR  w(0) 1. F 0.00
(spacer::context::check_reachability :time 0.01 :before-memory 7.25 :after-memory 7.47)
Propagating: 2 
(spacer::context::propagate :time 0.00 :before-memory 7.47 :after-memory 7.47)
(define-fun MAIN ((x!0 Int)
 (x!1 Int)
 (x!2 Int)
 (x!3 Int)
 (x!4 Int)
 (x!5 Int)
 (x!6 Bool)
 (x!7 Bool)
 (x!8 Bool)
 (x!9 Int)
 (x!10 Bool)
 (x!11 Bool)) Bool
  (let ((a!1 (or (>= (+ x!9 (* (- 1) x!2)) 0) (not x!7)))
        (a!2 (or (<= (+ x!0 (* (- 1) x!9)) 0) (not x!7)))
        (a!3 (or (<= (+ x!0 x!1 x!3 x!4 (* (- 1) x!9)) 0) (not x!7)))
        (a!4 (or (>= (+ x!9
                        (* (- 1) x!0)
                        (* (- 1) x!1)
                        (* (- 1) x!2)
                        (* (- 1) x!3)
                        (* (- 1) x!4))
                     0)
                 (not x!7))))
    (and a!1
         x!11
         (>= x!1 0)
         (not x!6)
         (not x!10)
         (not x!8)
         (>= x!3 0)
         a!2
         (or (>= x!9 0) (not x!7))
         a!3
         a!4)))
BRUNCH_STAT max_query_lvl 4
BRUNCH_STAT num_queries 18
BRUNCH_STAT num_reach_queries 0
BRUNCH_STAT num_reach_reuse 0
BRUNCH_STAT inductive_lvl 2
BRUNCH_STAT max_depth 4
BRUNCH_STAT cex_depth 0
(:SPACER-inductive-level               2
 :SPACER-max-depth                     4
 :SPACER-max-query-lvl                 4
 :SPACER-num-invariants                12
 :SPACER-num-lemmas                    23
 :SPACER-num-properties                16
 :SPACER-num-queries                   18
 :added-eqs                            1420
 :arith-add-rows                       1330
 :arith-assert-diseq                   696
 :arith-assert-lower                   1693
 :arith-assert-upper                   1227
 :arith-bound-prop                     152
 :arith-conflicts                      28
 :arith-eq-adapter                     183
 :arith-fixed-eqs                      196
 :arith-offset-eqs                     151
 :arith-pivots                         218
 :bool-inductive-gen                   18
 :bool-inductive-gen-failures          23
 :conflicts                            207
 :decisions                            2368
 :del-clause                           75
 :final-checks                         42
 :minimized-lits                       228
 :mk-bool-var                          758
 :mk-clause                            1619
 :num-checks                           120
 :propagations                         24285
 :time.itp_solver.itp_core             0.01
 :time.spacer.init_rules               0.00
 :time.spacer.init_rules.pt.init       0.00
 :time.spacer.solve                    0.07
 :time.spacer.solve.propagate          0.01
 :time.spacer.solve.reach              0.06
 :time.spacer.solve.reach.children     0.01
 :time.spacer.solve.reach.gen.bool_ind 0.01
 :time.virtual_solver.proof            0.01
 :time.virtual_solver.smt.total        0.05
 :time.virtual_solver.smt.total.sat    0.02
 :virtual_solver.checks                120
 :virtual_solver.checks.sat            42)
BRUNCH_STAT max_query_lvl 4
BRUNCH_STAT num_queries 18
BRUNCH_STAT num_reach_queries 0
BRUNCH_STAT num_reach_reuse 0
BRUNCH_STAT inductive_lvl 2
BRUNCH_STAT max_depth 4
BRUNCH_STAT cex_depth 0

real	0m0.112s
user	0m0.108s
sys	0m0.000s
