(transform N7datalog13mk_coi_filterE...no-op 0s)
(transform N7datalog25mk_interp_tail_simplifierE...14 rules 0s)
(transform N7datalog27mk_quantifier_instantiationE...no-op 0s)
(transform N7datalog8mk_scaleE...no-op 0s)
(transform N7datalog18mk_karr_invariantsE...no-op 0s)
(transform N7datalog14mk_array_blastE...no-op 0s)
(transform N7datalog22mk_subsumption_checkerE...13 rules 0s)
(transform N7datalog12mk_bit_blastE...no-op 0s)
(transform N7datalog15mk_rule_inlinerE...3 rules 0.00373937s)
(transform N7datalog13mk_coi_filterE...no-op 0s)
(transform N7datalog25mk_interp_tail_simplifierE...3 rules 0s)
(transform N7datalog22mk_subsumption_checkerE...no-op 0s)
(transform N7datalog15mk_rule_inlinerE...no-op 0s)
(transform N7datalog13mk_coi_filterE...no-op 0s)
(transform N7datalog25mk_interp_tail_simplifierE...3 rules 0s)
(transform N7datalog22mk_subsumption_checkerE...no-op 0s)
(transform N7datalog15mk_rule_inlinerE...no-op 0s)
(transform N7datalog22mk_subsumption_checkerE...no-op 0s)
(transform N7datalog15mk_rule_inlinerE...no-op 0s)
(transform N7datalog22mk_subsumption_checkerE...no-op 0s)
(transform N7datalog15mk_rule_inlinerE...no-op 0s)
(transform N7datalog22mk_subsumption_checkerE...no-op 0s)
(transform N7datalog8mk_sliceE...no-op 0s)
expand: query!0 (0, 0) FAR  w(0) 1. F 0.00
(spacer::context::check_reachability :time 0.00 :before-memory 4.45 :after-memory 4.98)
Entering level 1
BRUNCH_STAT max_query_lvl 0
BRUNCH_STAT num_queries 0
BRUNCH_STAT num_reach_queries 0
BRUNCH_STAT num_reach_reuse 0
BRUNCH_STAT inductive_lvl 0
BRUNCH_STAT max_depth 1
BRUNCH_STAT cex_depth 0
expand: query!0 (1, 0) FAR  w(0) 1.
	create_child: MAIN (0, 1) FAR 3450 U 0.00
expand: MAIN (0, 0) FAR  w(0) 3450. F 0.00
expand: query!0 (1, 0) FAR  w(0) 1. F 0.00
(spacer::context::check_reachability :time 0.00 :before-memory 4.98 :after-memory 6.06)
Propagating: 0 1  ! 2 
(spacer::context::propagate :time 0.00 :before-memory 6.06 :after-memory 6.06)
Entering level 2
BRUNCH_STAT max_query_lvl 1
BRUNCH_STAT num_queries 1
BRUNCH_STAT num_reach_queries 0
BRUNCH_STAT num_reach_reuse 0
BRUNCH_STAT inductive_lvl 0
BRUNCH_STAT max_depth 2
BRUNCH_STAT cex_depth 0
expand: query!0 (2, 0) FAR  w(0) 1.
	create_child: MAIN (1, 2) FAR 3450 U 0.00
expand: MAIN (1, 0) FAR  w(0) 3450.
	create_child: MAIN (0, 2) FAR 6415 U 0.00
expand: MAIN (0, 0) FAR  w(0) 6415. F 0.00
expand: MAIN (1, 0) FAR  w(0) 3450.
	create_child: MAIN (0, 2) FAR 6290 U 0.00
expand: MAIN (0, 0) FAR  w(0) 6290. F 0.00
expand: MAIN (1, 0) FAR  w(0) 3450.
	create_child: MAIN (0, 2) FAR 6512 U 0.00
expand: MAIN (0, 0) FAR  w(0) 6512. F 0.00
expand: MAIN (1, 0) FAR  w(0) 3450. F 0.00
expand: query!0 (2, 0) FAR  w(0) 1. F 0.00
(spacer::context::check_reachability :time 0.01 :before-memory 6.06 :after-memory 6.30)
Propagating: 0 
(spacer::context::propagate :time 0.00 :before-memory 6.30 :after-memory 6.30)
(define-fun MAIN ((x!0 Int)
 (x!1 Int)
 (x!2 Int)
 (x!3 Int)
 (x!4 Int)
 (x!5 Int)
 (x!6 Bool)
 (x!7 Bool)
 (x!8 Bool)
 (x!9 Int)
 (x!10 Bool)
 (x!11 Bool)) Bool
  (and (>= (+ x!9 (* (- 1) x!4)) 0) x!11 (not x!6) (not x!10)))
BRUNCH_STAT max_query_lvl 2
BRUNCH_STAT num_queries 5
BRUNCH_STAT num_reach_queries 0
BRUNCH_STAT num_reach_reuse 0
BRUNCH_STAT inductive_lvl 0
BRUNCH_STAT max_depth 2
BRUNCH_STAT cex_depth 0
(:SPACER-max-depth                     2
 :SPACER-max-query-lvl                 2
 :SPACER-num-invariants                5
 :SPACER-num-lemmas                    8
 :SPACER-num-properties                5
 :SPACER-num-queries                   5
 :added-eqs                            304
 :arith-add-rows                       45
 :arith-assert-diseq                   50
 :arith-assert-lower                   100
 :arith-assert-upper                   146
 :arith-bound-prop                     20
 :arith-conflicts                      2
 :arith-eq-adapter                     67
 :arith-fixed-eqs                      25
 :arith-offset-eqs                     48
 :arith-pivots                         25
 :bool-inductive-gen                   5
 :bool-inductive-gen-failures          5
 :conflicts                            35
 :decisions                            300
 :del-clause                           115
 :final-checks                         7
 :minimized-lits                       2
 :mk-bool-var                          491
 :mk-clause                            1156
 :num-checks                           25
 :propagations                         2582
 :time.itp_solver.itp_core             0.00
 :time.spacer.init_rules               0.00
 :time.spacer.init_rules.pt.init       0.00
 :time.spacer.solve                    0.01
 :time.spacer.solve.propagate          0.00
 :time.spacer.solve.reach              0.01
 :time.spacer.solve.reach.children     0.00
 :time.spacer.solve.reach.gen.bool_ind 0.00
 :time.virtual_solver.proof            0.00
 :time.virtual_solver.smt.total        0.01
 :time.virtual_solver.smt.total.sat    0.00
 :virtual_solver.checks                25
 :virtual_solver.checks.sat            7)
BRUNCH_STAT max_query_lvl 2
BRUNCH_STAT num_queries 5
BRUNCH_STAT num_reach_queries 0
BRUNCH_STAT num_reach_reuse 0
BRUNCH_STAT inductive_lvl 0
BRUNCH_STAT max_depth 2
BRUNCH_STAT cex_depth 0

real	0m0.041s
user	0m0.032s
sys	0m0.008s
