(transform N7datalog13mk_coi_filterE...no-op 0s)
(transform N7datalog25mk_interp_tail_simplifierE...12 rules 0s)
(transform N7datalog27mk_quantifier_instantiationE...no-op 0s)
(transform N7datalog8mk_scaleE...no-op 0s)
(transform N7datalog18mk_karr_invariantsE...no-op 0s)
(transform N7datalog14mk_array_blastE...no-op 0s)
(transform N7datalog22mk_subsumption_checkerE...11 rules 0s)
(transform N7datalog12mk_bit_blastE...no-op 0s)
(transform N7datalog15mk_rule_inlinerE...3 rules 0.00311752s)
(transform N7datalog13mk_coi_filterE...no-op 0s)
(transform N7datalog25mk_interp_tail_simplifierE...3 rules 0s)
(transform N7datalog22mk_subsumption_checkerE...no-op 0s)
(transform N7datalog15mk_rule_inlinerE...no-op 0s)
(transform N7datalog13mk_coi_filterE...no-op 0s)
(transform N7datalog25mk_interp_tail_simplifierE...3 rules 0s)
(transform N7datalog22mk_subsumption_checkerE...no-op 0s)
(transform N7datalog15mk_rule_inlinerE...no-op 0s)
(transform N7datalog22mk_subsumption_checkerE...no-op 0s)
(transform N7datalog15mk_rule_inlinerE...no-op 0s)
(transform N7datalog22mk_subsumption_checkerE...no-op 0s)
(transform N7datalog15mk_rule_inlinerE...no-op 0s)
(transform N7datalog22mk_subsumption_checkerE...no-op 0s)
(transform N7datalog8mk_sliceE...no-op 0s)
expand: query!0 (0, 0) FAR  w(0) 1. F 0.00
(spacer::context::check_reachability :time 0.00 :before-memory 4.37 :after-memory 4.95)
Entering level 1
BRUNCH_STAT max_query_lvl 0
BRUNCH_STAT num_queries 0
BRUNCH_STAT num_reach_queries 0
BRUNCH_STAT num_reach_reuse 0
BRUNCH_STAT inductive_lvl 0
BRUNCH_STAT max_depth 1
BRUNCH_STAT cex_depth 0
expand: query!0 (1, 0) FAR  w(0) 1.
	create_child: MAIN (0, 1) FAR 3127 U 0.00
expand: MAIN (0, 0) FAR  w(0) 3127. F 0.00
expand: query!0 (1, 0) FAR  w(0) 1. F 0.00
(spacer::context::check_reachability :time 0.00 :before-memory 4.95 :after-memory 5.85)
Propagating: 0 1  ! 2 
(spacer::context::propagate :time 0.00 :before-memory 5.85 :after-memory 5.85)
Entering level 2
BRUNCH_STAT max_query_lvl 1
BRUNCH_STAT num_queries 1
BRUNCH_STAT num_reach_queries 0
BRUNCH_STAT num_reach_reuse 0
BRUNCH_STAT inductive_lvl 0
BRUNCH_STAT max_depth 2
BRUNCH_STAT cex_depth 0
expand: query!0 (2, 0) FAR  w(0) 1.
	create_child: MAIN (1, 2) FAR 3127 U 0.00
expand: MAIN (1, 0) FAR  w(0) 3127.
	create_child: MAIN (0, 2) FAR 5831 U 0.00
expand: MAIN (0, 0) FAR  w(0) 5831. F 0.00
expand: MAIN (1, 0) FAR  w(0) 3127. F 0.00
expand: query!0 (2, 0) FAR  w(0) 1. F 0.00
(spacer::context::check_reachability :time 0.00 :before-memory 5.85 :after-memory 6.17)
Propagating: 0 1 2  ! 3 
(spacer::context::propagate :time 0.00 :before-memory 6.17 :after-memory 6.17)
Entering level 3
BRUNCH_STAT max_query_lvl 2
BRUNCH_STAT num_queries 3
BRUNCH_STAT num_reach_queries 0
BRUNCH_STAT num_reach_reuse 0
BRUNCH_STAT inductive_lvl 0
BRUNCH_STAT max_depth 3
BRUNCH_STAT cex_depth 0
expand: query!0 (3, 0) FAR  w(0) 1.
	create_child: MAIN (2, 3) FAR 3127 U 0.00
expand: MAIN (2, 0) FAR  w(0) 3127.
	create_child: MAIN (1, 3) FAR 5831 U 0.00
expand: MAIN (1, 0) FAR  w(0) 5831. F 0.00
expand: MAIN (2, 0) FAR  w(0) 3127.
	create_child: MAIN (1, 3) FAR 6205 U 0.00
expand: MAIN (1, 0) FAR  w(0) 6205. F 0.00
expand: MAIN (2, 0) FAR  w(0) 3127.
	create_child: MAIN (1, 3) FAR 6323 U 0.00
expand: MAIN (1, 0) FAR  w(0) 6323.
	create_child: MAIN (0, 3) FAR 6398 U 0.00
expand: MAIN (0, 0) FAR  w(0) 6398. F 0.00
expand: MAIN (1, 0) FAR  w(0) 6323. F 0.00
expand: MAIN (2, 0) FAR  w(0) 3127. F 0.00
expand: query!0 (3, 0) FAR  w(0) 1. F 0.00
(spacer::context::check_reachability :time 0.01 :before-memory 6.17 :after-memory 6.30)
Propagating: 0 1 2 3  ! 4 
(spacer::context::propagate :time 0.00 :before-memory 6.30 :after-memory 6.30)
Entering level 4
BRUNCH_STAT max_query_lvl 3
BRUNCH_STAT num_queries 8
BRUNCH_STAT num_reach_queries 0
BRUNCH_STAT num_reach_reuse 0
BRUNCH_STAT inductive_lvl 0
BRUNCH_STAT max_depth 4
BRUNCH_STAT cex_depth 0
expand: query!0 (4, 0) FAR  w(0) 1.
	create_child: MAIN (3, 4) FAR 3127 U 0.00
expand: MAIN (3, 0) FAR  w(0) 3127.
	create_child: MAIN (2, 4) FAR 6323 U 0.00
expand: MAIN (2, 0) FAR  w(0) 6323.
	create_child: MAIN (1, 4) FAR 7219 U 0.00
expand: MAIN (1, 0) FAR  w(0) 7219. F 0.00
expand: MAIN (2, 0) FAR  w(0) 6323.
	create_child: MAIN (1, 4) FAR 6398 U 0.00
expand: MAIN (1, 0) FAR  w(0) 6398. F 0.00
expand: MAIN (2, 0) FAR  w(0) 6323. F 0.00
expand: MAIN (3, 0) FAR  w(0) 3127.
	create_child: MAIN (2, 4) FAR 7646 U 0.00
expand: MAIN (2, 0) FAR  w(0) 7646. F 0.00
expand: MAIN (3, 0) FAR  w(0) 3127. F 0.00
expand: query!0 (4, 0) FAR  w(0) 1. F 0.00
(spacer::context::check_reachability :time 0.01 :before-memory 6.30 :after-memory 6.41)
Propagating: 1 2 3 4  ! 5 
(spacer::context::propagate :time 0.00 :before-memory 6.41 :after-memory 6.41)
Entering level 5
BRUNCH_STAT max_query_lvl 4
BRUNCH_STAT num_queries 13
BRUNCH_STAT num_reach_queries 0
BRUNCH_STAT num_reach_reuse 0
BRUNCH_STAT inductive_lvl 0
BRUNCH_STAT max_depth 5
BRUNCH_STAT cex_depth 0
expand: query!0 (5, 0) FAR  w(0) 1.
	create_child: MAIN (4, 5) FAR 3127 U 0.00
expand: MAIN (4, 0) FAR  w(0) 3127.
	create_child: MAIN (3, 5) FAR 6323 U 0.00
expand: MAIN (3, 0) FAR  w(0) 6323.
	create_child: MAIN (2, 5) FAR 7219 U 0.00
expand: MAIN (2, 0) FAR  w(0) 7219. F 0.00
expand: MAIN (3, 0) FAR  w(0) 6323. F 0.00
expand: MAIN (4, 0) FAR  w(0) 3127. F 0.00
expand: query!0 (5, 0) FAR  w(0) 1. F 0.00
(spacer::context::check_reachability :time 0.01 :before-memory 6.41 :after-memory 6.52)
Propagating: 2 3 4 5  ! 6 
(spacer::context::propagate :time 0.00 :before-memory 6.52 :after-memory 6.52)
Entering level 6
BRUNCH_STAT max_query_lvl 5
BRUNCH_STAT num_queries 16
BRUNCH_STAT num_reach_queries 0
BRUNCH_STAT num_reach_reuse 0
BRUNCH_STAT inductive_lvl 0
BRUNCH_STAT max_depth 6
BRUNCH_STAT cex_depth 0
expand: query!0 (6, 0) FAR  w(0) 1.
	create_child: MAIN (5, 6) FAR 3127 U 0.00
expand: MAIN (5, 0) FAR  w(0) 3127.
	create_child: MAIN (4, 6) FAR 6323 U 0.00
expand: MAIN (4, 0) FAR  w(0) 6323.
	create_child: MAIN (3, 6) FAR 7219 U 0.00
expand: MAIN (3, 0) FAR  w(0) 7219. F 0.00
expand: MAIN (4, 0) FAR  w(0) 6323. F 0.00
expand: MAIN (5, 0) FAR  w(0) 3127. F 0.00
expand: query!0 (6, 0) FAR  w(0) 1. F 0.00
(spacer::context::check_reachability :time 0.01 :before-memory 6.52 :after-memory 6.52)
Propagating: 3 4 5 6  ! 7 
(spacer::context::propagate :time 0.00 :before-memory 6.52 :after-memory 6.52)
Entering level 7
BRUNCH_STAT max_query_lvl 6
BRUNCH_STAT num_queries 19
BRUNCH_STAT num_reach_queries 0
BRUNCH_STAT num_reach_reuse 0
BRUNCH_STAT inductive_lvl 0
BRUNCH_STAT max_depth 7
BRUNCH_STAT cex_depth 0
expand: query!0 (7, 0) FAR  w(0) 1.
	create_child: MAIN (6, 7) FAR 3127 U 0.00
expand: MAIN (6, 0) FAR  w(0) 3127.
	create_child: MAIN (5, 7) FAR 6323 U 0.00
expand: MAIN (5, 0) FAR  w(0) 6323.
	create_child: MAIN (4, 7) FAR 6398 U 0.00
expand: MAIN (4, 0) FAR  w(0) 6398.
	create_child: MAIN (3, 7) FAR 9767 U 0.00
expand: MAIN (3, 0) FAR  w(0) 9767. F 0.00
expand: MAIN (4, 0) FAR  w(0) 6398. F 0.00
expand: MAIN (5, 0) FAR  w(0) 6323.
	create_child: MAIN (4, 7) FAR 7219 U 0.00
expand: MAIN (4, 0) FAR  w(0) 7219. F 0.00
expand: MAIN (5, 0) FAR  w(0) 6323. F 0.00
expand: MAIN (6, 0) FAR  w(0) 3127. F 0.00
expand: query!0 (7, 0) FAR  w(0) 1. F 0.00
(spacer::context::check_reachability :time 0.02 :before-memory 6.52 :after-memory 6.64)
Propagating: 3 4 5 6 7  ! 8 
(spacer::context::propagate :time 0.00 :before-memory 6.64 :after-memory 6.64)
Entering level 8
BRUNCH_STAT max_query_lvl 7
BRUNCH_STAT num_queries 24
BRUNCH_STAT num_reach_queries 0
BRUNCH_STAT num_reach_reuse 0
BRUNCH_STAT inductive_lvl 0
BRUNCH_STAT max_depth 8
BRUNCH_STAT cex_depth 0
expand: query!0 (8, 0) FAR  w(0) 1.
	create_child: MAIN (7, 8) FAR 3127 U 0.00
expand: MAIN (7, 0) FAR  w(0) 3127.
	create_child: MAIN (6, 8) FAR 6323 U 0.00
expand: MAIN (6, 0) FAR  w(0) 6323.
	create_child: MAIN (5, 8) FAR 6398 U 0.00
expand: MAIN (5, 0) FAR  w(0) 6398.
	create_child: MAIN (4, 8) FAR 9767 U 0.00
expand: MAIN (4, 0) FAR  w(0) 9767.
	create_child: MAIN (3, 8) FAR 10601 U 0.00
expand: MAIN (3, 0) FAR  w(0) 10601. F 0.00
expand: MAIN (4, 0) FAR  w(0) 9767. F 0.00
expand: MAIN (5, 0) FAR  w(0) 6398. F 0.00
expand: MAIN (6, 0) FAR  w(0) 6323.
	create_child: MAIN (5, 8) FAR 7219 U 0.00
expand: MAIN (5, 0) FAR  w(0) 7219. F 0.00
expand: MAIN (6, 0) FAR  w(0) 6323. F 0.00
expand: MAIN (7, 0) FAR  w(0) 3127. F 0.00
expand: query!0 (8, 0) FAR  w(0) 1. F 0.00
(spacer::context::check_reachability :time 0.02 :before-memory 6.64 :after-memory 6.67)
Propagating: 3 4 
(spacer::context::propagate :time 0.00 :before-memory 6.67 :after-memory 6.67)
(define-fun MAIN ((x!0 Int)
 (x!1 Int)
 (x!2 Int)
 (x!3 Int)
 (x!4 Int)
 (x!5 Int)
 (x!6 Bool)
 (x!7 Bool)
 (x!8 Bool)
 (x!9 Bool)) Bool
  (and (<= x!2 0)
       x!9
       (not x!8)
       (or (not (>= x!3 2)) (not x!7))
       (or (<= x!3 0) (not x!7) (<= x!1 0))
       (or (<= x!0 0) (not x!7) (<= x!1 0))
       (or (not (>= x!1 2)) (not x!7))
       (or (<= x!0 0) (not x!7) (<= x!3 0))))
BRUNCH_STAT max_query_lvl 8
BRUNCH_STAT num_queries 30
BRUNCH_STAT num_reach_queries 0
BRUNCH_STAT num_reach_reuse 0
BRUNCH_STAT inductive_lvl 4
BRUNCH_STAT max_depth 8
BRUNCH_STAT cex_depth 0
(:SPACER-inductive-level               4
 :SPACER-max-depth                     8
 :SPACER-max-query-lvl                 8
 :SPACER-num-invariants                11
 :SPACER-num-lemmas                    39
 :SPACER-num-properties                15
 :SPACER-num-queries                   30
 :added-eqs                            3196
 :arith-add-rows                       258
 :arith-assert-diseq                   1555
 :arith-assert-lower                   3138
 :arith-assert-upper                   2641
 :arith-bound-prop                     102
 :arith-conflicts                      6
 :arith-eq-adapter                     537
 :arith-fixed-eqs                      560
 :arith-offset-eqs                     212
 :arith-pivots                         173
 :bool-inductive-gen                   30
 :bool-inductive-gen-failures          50
 :conflicts                            247
 :decisions                            5909
 :del-clause                           391
 :final-checks                         121
 :minimized-lits                       131
 :mk-bool-var                          1679
 :mk-clause                            1785
 :num-checks                           240
 :propagations                         45345
 :time.itp_solver.itp_core             0.02
 :time.spacer.init_rules               0.00
 :time.spacer.init_rules.pt.init       0.00
 :time.spacer.solve                    0.11
 :time.spacer.solve.propagate          0.02
 :time.spacer.solve.reach              0.09
 :time.spacer.solve.reach.children     0.01
 :time.spacer.solve.reach.gen.bool_ind 0.02
 :time.virtual_solver.proof            0.01
 :time.virtual_solver.smt.total        0.07
 :time.virtual_solver.smt.total.sat    0.04
 :virtual_solver.checks                240
 :virtual_solver.checks.sat            121)
BRUNCH_STAT max_query_lvl 8
BRUNCH_STAT num_queries 30
BRUNCH_STAT num_reach_queries 0
BRUNCH_STAT num_reach_reuse 0
BRUNCH_STAT inductive_lvl 4
BRUNCH_STAT max_depth 8
BRUNCH_STAT cex_depth 0

real	0m0.140s
user	0m0.136s
sys	0m0.000s
