(transform N7datalog13mk_coi_filterE...no-op 0s)
(transform N7datalog25mk_interp_tail_simplifierE...12 rules 0s)
(transform N7datalog27mk_quantifier_instantiationE...no-op 0s)
(transform N7datalog8mk_scaleE...no-op 0s)
(transform N7datalog18mk_karr_invariantsE...no-op 0s)
(transform N7datalog14mk_array_blastE...no-op 0s)
(transform N7datalog22mk_subsumption_checkerE...11 rules 0s)
(transform N7datalog12mk_bit_blastE...no-op 0s)
(transform N7datalog15mk_rule_inlinerE...3 rules 0.00352772s)
(transform N7datalog13mk_coi_filterE...no-op 0s)
(transform N7datalog25mk_interp_tail_simplifierE...3 rules 0s)
(transform N7datalog22mk_subsumption_checkerE...no-op 0s)
(transform N7datalog15mk_rule_inlinerE...no-op 0s)
(transform N7datalog13mk_coi_filterE...no-op 0s)
(transform N7datalog25mk_interp_tail_simplifierE...3 rules 0s)
(transform N7datalog22mk_subsumption_checkerE...no-op 0s)
(transform N7datalog15mk_rule_inlinerE...no-op 0s)
(transform N7datalog22mk_subsumption_checkerE...no-op 0s)
(transform N7datalog15mk_rule_inlinerE...no-op 0s)
(transform N7datalog22mk_subsumption_checkerE...no-op 0s)
(transform N7datalog15mk_rule_inlinerE...no-op 0s)
(transform N7datalog22mk_subsumption_checkerE...no-op 0s)
(transform N7datalog8mk_sliceE...no-op 0s)
expand: query!0 (0, 0) FAR  w(0) 1. F 0.00
(spacer::context::check_reachability :time 0.00 :before-memory 4.47 :after-memory 4.98)
Entering level 1
BRUNCH_STAT max_query_lvl 0
BRUNCH_STAT num_queries 0
BRUNCH_STAT num_reach_queries 0
BRUNCH_STAT num_reach_reuse 0
BRUNCH_STAT inductive_lvl 0
BRUNCH_STAT max_depth 1
BRUNCH_STAT cex_depth 0
expand: query!0 (1, 0) FAR  w(0) 1.
	create_child: MAIN (0, 1) FAR 3366 U 0.00
expand: MAIN (0, 0) FAR  w(0) 3366. F 0.00
expand: query!0 (1, 0) FAR  w(0) 1. F 0.00
(spacer::context::check_reachability :time 0.00 :before-memory 4.98 :after-memory 5.90)
Propagating: 0 1  ! 2 
(spacer::context::propagate :time 0.00 :before-memory 5.90 :after-memory 6.16)
Entering level 2
BRUNCH_STAT max_query_lvl 1
BRUNCH_STAT num_queries 1
BRUNCH_STAT num_reach_queries 0
BRUNCH_STAT num_reach_reuse 0
BRUNCH_STAT inductive_lvl 0
BRUNCH_STAT max_depth 2
BRUNCH_STAT cex_depth 0
expand: query!0 (2, 0) FAR  w(0) 1.
	create_child: MAIN (1, 2) FAR 3366 U 0.00
expand: MAIN (1, 0) FAR  w(0) 3366.
	create_child: MAIN (0, 2) FAR 6960 U 0.00
expand: MAIN (0, 0) FAR  w(0) 6960. F 0.00
expand: MAIN (1, 0) FAR  w(0) 3366.
	create_child: MAIN (0, 2) FAR 6949 U 0.00
expand: MAIN (0, 0) FAR  w(0) 6949. F 0.00
expand: MAIN (1, 0) FAR  w(0) 3366.
	create_child: MAIN (0, 2) FAR 6978 U 0.00
expand: MAIN (0, 0) FAR  w(0) 6978. F 0.00
expand: MAIN (1, 0) FAR  w(0) 3366.
	create_child: MAIN (0, 2) FAR 7223 U 0.00
expand: MAIN (0, 0) FAR  w(0) 7223. F 0.00
expand: MAIN (1, 0) FAR  w(0) 3366.
	create_child: MAIN (0, 2) FAR 7422 U 0.00
expand: MAIN (0, 0) FAR  w(0) 7422. F 0.00
expand: MAIN (1, 0) FAR  w(0) 3366. F 0.00
expand: query!0 (2, 0) FAR  w(0) 1. F 0.00
(spacer::context::check_reachability :time 0.01 :before-memory 6.16 :after-memory 6.31)
Propagating: 0 1 2  ! 3 
(spacer::context::propagate :time 0.00 :before-memory 6.31 :after-memory 6.31)
Entering level 3
BRUNCH_STAT max_query_lvl 2
BRUNCH_STAT num_queries 7
BRUNCH_STAT num_reach_queries 0
BRUNCH_STAT num_reach_reuse 0
BRUNCH_STAT inductive_lvl 0
BRUNCH_STAT max_depth 3
BRUNCH_STAT cex_depth 0
expand: query!0 (3, 0) FAR  w(0) 1.
	create_child: MAIN (2, 3) FAR 3366 U 0.00
expand: MAIN (2, 0) FAR  w(0) 3366.
	create_child: MAIN (1, 3) FAR 7422 U 0.00
expand: MAIN (1, 0) FAR  w(0) 7422. T 0.00
is-reachable: MAIN (2, 0) FAR 3366 T 0.01
is-reachable: query!0 (3, 0) FAR 1 T 0.00
(spacer::context::check_reachability :time 0.02 :before-memory 6.31 :after-memory 7.34)
BRUNCH_STAT max_query_lvl 3
BRUNCH_STAT num_queries 9
BRUNCH_STAT num_reach_queries 3
BRUNCH_STAT num_reach_reuse 1
BRUNCH_STAT inductive_lvl 0
BRUNCH_STAT max_depth 3
BRUNCH_STAT cex_depth 3
(:SPACER-cex-depth                     3
 :SPACER-max-depth                     3
 :SPACER-max-query-lvl                 3
 :SPACER-num-invariants                3
 :SPACER-num-lemmas                    10
 :SPACER-num-properties                7
 :SPACER-num-queries                   9
 :SPACER-num-reach-queries             3
 :SPACER-num-reuse-reach-facts         1
 :added-eqs                            644
 :arith-add-rows                       232
 :arith-assert-diseq                   288
 :arith-assert-lower                   649
 :arith-assert-upper                   518
 :arith-bound-prop                     73
 :arith-conflicts                      13
 :arith-eq-adapter                     134
 :arith-fixed-eqs                      80
 :arith-offset-eqs                     61
 :arith-pivots                         70
 :bool-inductive-gen                   7
 :bool-inductive-gen-failures          6
 :conflicts                            88
 :decisions                            776
 :del-clause                           95
 :final-checks                         19
 :minimized-lits                       117
 :mk-bool-var                          909
 :mk-clause                            2402
 :num-checks                           43
 :propagations                         9375
 :time.itp_solver.itp_core             0.00
 :time.spacer.init_rules               0.00
 :time.spacer.init_rules.pt.init       0.00
 :time.spacer.solve                    0.04
 :time.spacer.solve.propagate          0.01
 :time.spacer.solve.reach              0.04
 :time.spacer.solve.reach.children     0.00
 :time.spacer.solve.reach.gen.bool_ind 0.00
 :time.spacer.solve.reach.is-reach     0.01
 :time.virtual_solver.proof            0.00
 :time.virtual_solver.smt.total        0.03
 :time.virtual_solver.smt.total.sat    0.02
 :virtual_solver.checks                43
 :virtual_solver.checks.sat            19)
BRUNCH_STAT max_query_lvl 3
BRUNCH_STAT num_queries 9
BRUNCH_STAT num_reach_queries 3
BRUNCH_STAT num_reach_reuse 1
BRUNCH_STAT inductive_lvl 0
BRUNCH_STAT max_depth 3
BRUNCH_STAT cex_depth 3

real	0m0.076s
user	0m0.064s
sys	0m0.008s
