(transform N7datalog13mk_coi_filterE...no-op 0s)
(transform N7datalog25mk_interp_tail_simplifierE...12 rules 0s)
(transform N7datalog27mk_quantifier_instantiationE...no-op 0s)
(transform N7datalog8mk_scaleE...no-op 0s)
(transform N7datalog18mk_karr_invariantsE...no-op 0s)
(transform N7datalog14mk_array_blastE...no-op 0s)
(transform N7datalog22mk_subsumption_checkerE...11 rules 0s)
(transform N7datalog12mk_bit_blastE...no-op 0s)
(transform N7datalog15mk_rule_inlinerE...3 rules 0.00347815s)
(transform N7datalog13mk_coi_filterE...no-op 0s)
(transform N7datalog25mk_interp_tail_simplifierE...3 rules 0s)
(transform N7datalog22mk_subsumption_checkerE...no-op 0s)
(transform N7datalog15mk_rule_inlinerE...no-op 0s)
(transform N7datalog13mk_coi_filterE...no-op 0s)
(transform N7datalog25mk_interp_tail_simplifierE...3 rules 0s)
(transform N7datalog22mk_subsumption_checkerE...no-op 0s)
(transform N7datalog15mk_rule_inlinerE...no-op 0s)
(transform N7datalog22mk_subsumption_checkerE...no-op 0s)
(transform N7datalog15mk_rule_inlinerE...no-op 0s)
(transform N7datalog22mk_subsumption_checkerE...no-op 0s)
(transform N7datalog15mk_rule_inlinerE...no-op 0s)
(transform N7datalog22mk_subsumption_checkerE...no-op 0s)
(transform N7datalog8mk_sliceE...no-op 0s)
expand: query!0 (0, 0) FAR  w(0) 1. F 0.00
(spacer::context::check_reachability :time 0.00 :before-memory 4.47 :after-memory 4.97)
Entering level 1
BRUNCH_STAT max_query_lvl 0
BRUNCH_STAT num_queries 0
BRUNCH_STAT num_reach_queries 0
BRUNCH_STAT num_reach_reuse 0
BRUNCH_STAT inductive_lvl 0
BRUNCH_STAT max_depth 1
BRUNCH_STAT cex_depth 0
expand: query!0 (1, 0) FAR  w(0) 1.
	create_child: MAIN (0, 1) FAR 3357 U 0.00
expand: MAIN (0, 0) FAR  w(0) 3357. F 0.00
expand: query!0 (1, 0) FAR  w(0) 1. F 0.00
(spacer::context::check_reachability :time 0.00 :before-memory 4.97 :after-memory 6.03)
Propagating: 0 1  ! 2 
(spacer::context::propagate :time 0.00 :before-memory 6.03 :after-memory 6.13)
Entering level 2
BRUNCH_STAT max_query_lvl 1
BRUNCH_STAT num_queries 1
BRUNCH_STAT num_reach_queries 0
BRUNCH_STAT num_reach_reuse 0
BRUNCH_STAT inductive_lvl 0
BRUNCH_STAT max_depth 2
BRUNCH_STAT cex_depth 0
expand: query!0 (2, 0) FAR  w(0) 1.
	create_child: MAIN (1, 2) FAR 3357 U 0.00
expand: MAIN (1, 0) FAR  w(0) 3357.
	create_child: MAIN (0, 2) FAR 6858 U 0.00
expand: MAIN (0, 0) FAR  w(0) 6858. F 0.00
expand: MAIN (1, 0) FAR  w(0) 3357.
	create_child: MAIN (0, 2) FAR 7047 U 0.00
expand: MAIN (0, 0) FAR  w(0) 7047. F 0.00
expand: MAIN (1, 0) FAR  w(0) 3357.
	create_child: MAIN (0, 2) FAR 7269 U 0.00
expand: MAIN (0, 0) FAR  w(0) 7269. F 0.00
expand: MAIN (1, 0) FAR  w(0) 3357.
	create_child: MAIN (0, 2) FAR 7635 U 0.00
expand: MAIN (0, 0) FAR  w(0) 7635. F 0.00
expand: MAIN (1, 0) FAR  w(0) 3357.
	create_child: MAIN (0, 2) FAR 7848 U 0.00
expand: MAIN (0, 0) FAR  w(0) 7848. F 0.00
expand: MAIN (1, 0) FAR  w(0) 3357. F 0.00
expand: query!0 (2, 0) FAR  w(0) 1. F 0.00
(spacer::context::check_reachability :time 0.01 :before-memory 6.13 :after-memory 6.37)
Propagating: 0 1 2  ! 3 
(spacer::context::propagate :time 0.00 :before-memory 6.37 :after-memory 6.37)
Entering level 3
BRUNCH_STAT max_query_lvl 2
BRUNCH_STAT num_queries 7
BRUNCH_STAT num_reach_queries 0
BRUNCH_STAT num_reach_reuse 0
BRUNCH_STAT inductive_lvl 0
BRUNCH_STAT max_depth 3
BRUNCH_STAT cex_depth 0
expand: query!0 (3, 0) FAR  w(0) 1.
	create_child: MAIN (2, 3) FAR 3357 U 0.00
expand: MAIN (2, 0) FAR  w(0) 3357.
	create_child: MAIN (1, 3) FAR 8704 U 0.00
expand: MAIN (1, 0) FAR  w(0) 8704. F 0.00
expand: MAIN (2, 0) FAR  w(0) 3357.
	create_child: MAIN (1, 3) FAR 9085 U 0.00
expand: MAIN (1, 0) FAR  w(0) 9085. F 0.00
expand: MAIN (2, 0) FAR  w(0) 3357.
	create_child: MAIN (1, 3) FAR 7848 U 0.00
expand: MAIN (1, 0) FAR  w(0) 7848. T 0.00
is-reachable: MAIN (2, 0) FAR 3357 T 0.01
is-reachable: query!0 (3, 0) FAR 1 T 0.00
(spacer::context::check_reachability :time 0.02 :before-memory 6.37 :after-memory 7.56)
BRUNCH_STAT max_query_lvl 3
BRUNCH_STAT num_queries 11
BRUNCH_STAT num_reach_queries 3
BRUNCH_STAT num_reach_reuse 1
BRUNCH_STAT inductive_lvl 0
BRUNCH_STAT max_depth 3
BRUNCH_STAT cex_depth 3
(:SPACER-cex-depth                     3
 :SPACER-max-depth                     3
 :SPACER-max-query-lvl                 3
 :SPACER-num-invariants                5
 :SPACER-num-lemmas                    12
 :SPACER-num-properties                9
 :SPACER-num-queries                   11
 :SPACER-num-reach-queries             3
 :SPACER-num-reuse-reach-facts         1
 :added-eqs                            1029
 :arith-add-rows                       473
 :arith-assert-diseq                   460
 :arith-assert-lower                   947
 :arith-assert-upper                   864
 :arith-bound-prop                     152
 :arith-conflicts                      14
 :arith-eq-adapter                     187
 :arith-fixed-eqs                      148
 :arith-offset-eqs                     115
 :arith-pivots                         117
 :bool-inductive-gen                   9
 :bool-inductive-gen-failures          8
 :conflicts                            134
 :decisions                            1302
 :del-clause                           95
 :final-checks                         26
 :minimized-lits                       210
 :mk-bool-var                          993
 :mk-clause                            2534
 :num-checks                           58
 :propagations                         14036
 :time.itp_solver.itp_core             0.00
 :time.spacer.init_rules               0.00
 :time.spacer.init_rules.pt.init       0.00
 :time.spacer.solve                    0.05
 :time.spacer.solve.propagate          0.00
 :time.spacer.solve.reach              0.05
 :time.spacer.solve.reach.children     0.00
 :time.spacer.solve.reach.gen.bool_ind 0.00
 :time.spacer.solve.reach.is-reach     0.01
 :time.virtual_solver.proof            0.00
 :time.virtual_solver.smt.total        0.03
 :time.virtual_solver.smt.total.sat    0.02
 :virtual_solver.checks                58
 :virtual_solver.checks.sat            26)
BRUNCH_STAT max_query_lvl 3
BRUNCH_STAT num_queries 11
BRUNCH_STAT num_reach_queries 3
BRUNCH_STAT num_reach_reuse 1
BRUNCH_STAT inductive_lvl 0
BRUNCH_STAT max_depth 3
BRUNCH_STAT cex_depth 3

real	0m0.082s
user	0m0.076s
sys	0m0.004s
