(transform N7datalog13mk_coi_filterE...no-op 0s)
(transform N7datalog25mk_interp_tail_simplifierE...12 rules 0s)
(transform N7datalog27mk_quantifier_instantiationE...no-op 0s)
(transform N7datalog8mk_scaleE...no-op 0s)
(transform N7datalog18mk_karr_invariantsE...no-op 0s)
(transform N7datalog14mk_array_blastE...no-op 0s)
(transform N7datalog22mk_subsumption_checkerE...11 rules 0s)
(transform N7datalog12mk_bit_blastE...no-op 0s)
(transform N7datalog15mk_rule_inlinerE...3 rules 0.00317129s)
(transform N7datalog13mk_coi_filterE...no-op 0s)
(transform N7datalog25mk_interp_tail_simplifierE...3 rules 0s)
(transform N7datalog22mk_subsumption_checkerE...no-op 0s)
(transform N7datalog15mk_rule_inlinerE...no-op 0s)
(transform N7datalog13mk_coi_filterE...no-op 0s)
(transform N7datalog25mk_interp_tail_simplifierE...3 rules 0s)
(transform N7datalog22mk_subsumption_checkerE...no-op 0s)
(transform N7datalog15mk_rule_inlinerE...no-op 0s)
(transform N7datalog22mk_subsumption_checkerE...no-op 0s)
(transform N7datalog15mk_rule_inlinerE...no-op 0s)
(transform N7datalog22mk_subsumption_checkerE...no-op 0s)
(transform N7datalog15mk_rule_inlinerE...no-op 0s)
(transform N7datalog22mk_subsumption_checkerE...no-op 0s)
(transform N7datalog8mk_sliceE...no-op 0s)
expand: query!0 (0, 0) FAR  w(0) 1. F 0.00
(spacer::context::check_reachability :time 0.00 :before-memory 4.59 :after-memory 4.96)
Entering level 1
BRUNCH_STAT max_query_lvl 0
BRUNCH_STAT num_queries 0
BRUNCH_STAT num_reach_queries 0
BRUNCH_STAT num_reach_reuse 0
BRUNCH_STAT inductive_lvl 0
BRUNCH_STAT max_depth 1
BRUNCH_STAT cex_depth 0
expand: query!0 (1, 0) FAR  w(0) 1.
	create_child: MAIN (0, 1) FAR 3179 U 0.00
expand: MAIN (0, 0) FAR  w(0) 3179. F 0.00
expand: query!0 (1, 0) FAR  w(0) 1. F 0.00
(spacer::context::check_reachability :time 0.00 :before-memory 4.96 :after-memory 5.85)
Propagating: 0 1  ! 2 
(spacer::context::propagate :time 0.00 :before-memory 5.85 :after-memory 5.85)
Entering level 2
BRUNCH_STAT max_query_lvl 1
BRUNCH_STAT num_queries 1
BRUNCH_STAT num_reach_queries 0
BRUNCH_STAT num_reach_reuse 0
BRUNCH_STAT inductive_lvl 0
BRUNCH_STAT max_depth 2
BRUNCH_STAT cex_depth 0
expand: query!0 (2, 0) FAR  w(0) 1.
	create_child: MAIN (1, 2) FAR 3179 U 0.00
expand: MAIN (1, 0) FAR  w(0) 3179.
	create_child: MAIN (0, 2) FAR 5926 U 0.00
expand: MAIN (0, 0) FAR  w(0) 5926. F 0.00
expand: MAIN (1, 0) FAR  w(0) 3179.
	create_child: MAIN (0, 2) FAR 6095 U 0.00
expand: MAIN (0, 0) FAR  w(0) 6095. F 0.00
expand: MAIN (1, 0) FAR  w(0) 3179. F 0.00
expand: query!0 (2, 0) FAR  w(0) 1. F 0.00
(spacer::context::check_reachability :time 0.01 :before-memory 5.94 :after-memory 6.23)
Propagating: 0 1 2  ! 3 
(spacer::context::propagate :time 0.00 :before-memory 6.23 :after-memory 6.23)
Entering level 3
BRUNCH_STAT max_query_lvl 2
BRUNCH_STAT num_queries 4
BRUNCH_STAT num_reach_queries 0
BRUNCH_STAT num_reach_reuse 0
BRUNCH_STAT inductive_lvl 0
BRUNCH_STAT max_depth 3
BRUNCH_STAT cex_depth 0
expand: query!0 (3, 0) FAR  w(0) 1.
	create_child: MAIN (2, 3) FAR 3179 U 0.00
expand: MAIN (2, 0) FAR  w(0) 3179.
	create_child: MAIN (1, 3) FAR 6095 U 0.00
expand: MAIN (1, 0) FAR  w(0) 6095.
	create_child: MAIN (0, 3) FAR 6292 U 0.00
expand: MAIN (0, 0) FAR  w(0) 6292. F 0.00
expand: MAIN (1, 0) FAR  w(0) 6095. F 0.00
expand: MAIN (2, 0) FAR  w(0) 3179.
	create_child: MAIN (1, 3) FAR 6805 U 0.00
expand: MAIN (1, 0) FAR  w(0) 6805. F 0.00
expand: MAIN (2, 0) FAR  w(0) 3179. F 0.00
expand: query!0 (3, 0) FAR  w(0) 1. F 0.00
(spacer::context::check_reachability :time 0.01 :before-memory 6.23 :after-memory 6.23)
Propagating: 0 1 2 3  ! 4 
(spacer::context::propagate :time 0.00 :before-memory 6.23 :after-memory 6.23)
Entering level 4
BRUNCH_STAT max_query_lvl 3
BRUNCH_STAT num_queries 8
BRUNCH_STAT num_reach_queries 0
BRUNCH_STAT num_reach_reuse 0
BRUNCH_STAT inductive_lvl 0
BRUNCH_STAT max_depth 4
BRUNCH_STAT cex_depth 0
expand: query!0 (4, 0) FAR  w(0) 1.
	create_child: MAIN (3, 4) FAR 3179 U 0.00
expand: MAIN (3, 0) FAR  w(0) 3179.
	create_child: MAIN (2, 4) FAR 6095 U 0.00
expand: MAIN (2, 0) FAR  w(0) 6095.
	create_child: MAIN (1, 4) FAR 6292 U 0.00
expand: MAIN (1, 0) FAR  w(0) 6292. F 0.00
expand: MAIN (2, 0) FAR  w(0) 6095.
	create_child: MAIN (1, 4) FAR 7507 U 0.00
expand: MAIN (1, 0) FAR  w(0) 7507. F 0.00
expand: MAIN (2, 0) FAR  w(0) 6095. F 0.00
expand: MAIN (3, 0) FAR  w(0) 3179. F 0.00
expand: query!0 (4, 0) FAR  w(0) 1. F 0.00
(spacer::context::check_reachability :time 0.01 :before-memory 6.23 :after-memory 6.35)
Propagating: 1 2 3 4  ! 5 
(spacer::context::propagate :time 0.00 :before-memory 6.35 :after-memory 6.35)
Entering level 5
BRUNCH_STAT max_query_lvl 4
BRUNCH_STAT num_queries 12
BRUNCH_STAT num_reach_queries 0
BRUNCH_STAT num_reach_reuse 0
BRUNCH_STAT inductive_lvl 0
BRUNCH_STAT max_depth 5
BRUNCH_STAT cex_depth 0
expand: query!0 (5, 0) FAR  w(0) 1.
	create_child: MAIN (4, 5) FAR 3179 U 0.00
expand: MAIN (4, 0) FAR  w(0) 3179.
	create_child: MAIN (3, 5) FAR 8296 U 0.00
expand: MAIN (3, 0) FAR  w(0) 8296. F 0.00
expand: MAIN (4, 0) FAR  w(0) 3179.
	create_child: MAIN (3, 5) FAR 6095 U 0.00
expand: MAIN (3, 0) FAR  w(0) 6095.
	create_child: MAIN (2, 5) FAR 7507 U 0.00
expand: MAIN (2, 0) FAR  w(0) 7507.
	create_child: MAIN (1, 5) FAR 8729 U 0.00
expand: MAIN (1, 0) FAR  w(0) 8729. F 0.00
expand: MAIN (2, 0) FAR  w(0) 7507. F 0.00
expand: MAIN (3, 0) FAR  w(0) 6095. F 0.00
expand: MAIN (4, 0) FAR  w(0) 3179. F 0.00
expand: query!0 (5, 0) FAR  w(0) 1. F 0.00
(spacer::context::check_reachability :time 0.02 :before-memory 6.35 :after-memory 6.56)
Propagating: 1 2 3 
(spacer::context::propagate :time 0.00 :before-memory 6.56 :after-memory 6.56)
(define-fun MAIN ((x!0 Int)
 (x!1 Int)
 (x!2 Int)
 (x!3 Int)
 (x!4 Int)
 (x!5 Int)
 (x!6 Bool)
 (x!7 Bool)
 (x!8 Bool)
 (x!9 Bool)) Bool
  (and (or (not (= x!0 1)) (not x!7))
       x!9
       (not x!8)
       (or (not (>= x!1 2)) (not x!7))
       (>= x!0 0)
       (<= x!2 0)
       (or (<= x!1 0) (= x!3 0) (not x!7))
       (or (<= x!1 0) (not x!7) (<= x!0 0))
       (>= x!2 0)))
BRUNCH_STAT max_query_lvl 5
BRUNCH_STAT num_queries 17
BRUNCH_STAT num_reach_queries 0
BRUNCH_STAT num_reach_reuse 0
BRUNCH_STAT inductive_lvl 3
BRUNCH_STAT max_depth 5
BRUNCH_STAT cex_depth 0
(:SPACER-inductive-level               3
 :SPACER-max-depth                     5
 :SPACER-max-query-lvl                 5
 :SPACER-num-invariants                10
 :SPACER-num-lemmas                    23
 :SPACER-num-properties                14
 :SPACER-num-queries                   17
 :added-eqs                            1811
 :arith-add-rows                       92
 :arith-assert-diseq                   862
 :arith-assert-lower                   1558
 :arith-assert-upper                   1401
 :arith-bound-prop                     90
 :arith-conflicts                      6
 :arith-eq-adapter                     346
 :arith-fixed-eqs                      290
 :arith-offset-eqs                     101
 :arith-pivots                         80
 :bool-inductive-gen                   17
 :bool-inductive-gen-failures          19
 :conflicts                            164
 :decisions                            2500
 :del-clause                           175
 :final-checks                         54
 :minimized-lits                       100
 :mk-bool-var                          1033
 :mk-clause                            1519
 :num-checks                           126
 :propagations                         24824
 :time.itp_solver.itp_core             0.01
 :time.spacer.init_rules               0.00
 :time.spacer.init_rules.pt.init       0.00
 :time.spacer.solve                    0.06
 :time.spacer.solve.propagate          0.01
 :time.spacer.solve.reach              0.05
 :time.spacer.solve.reach.children     0.01
 :time.spacer.solve.reach.gen.bool_ind 0.01
 :time.virtual_solver.proof            0.01
 :time.virtual_solver.smt.total        0.04
 :time.virtual_solver.smt.total.sat    0.02
 :virtual_solver.checks                126
 :virtual_solver.checks.sat            54)
BRUNCH_STAT max_query_lvl 5
BRUNCH_STAT num_queries 17
BRUNCH_STAT num_reach_queries 0
BRUNCH_STAT num_reach_reuse 0
BRUNCH_STAT inductive_lvl 3
BRUNCH_STAT max_depth 5
BRUNCH_STAT cex_depth 0

real	0m0.096s
user	0m0.084s
sys	0m0.008s
