(transform N7datalog13mk_coi_filterE...no-op 0s)
(transform N7datalog25mk_interp_tail_simplifierE...12 rules 0s)
(transform N7datalog27mk_quantifier_instantiationE...no-op 0s)
(transform N7datalog8mk_scaleE...no-op 0s)
(transform N7datalog18mk_karr_invariantsE...no-op 0s)
(transform N7datalog14mk_array_blastE...no-op 0s)
(transform N7datalog22mk_subsumption_checkerE...11 rules 0s)
(transform N7datalog12mk_bit_blastE...no-op 0s)
(transform N7datalog15mk_rule_inlinerE...3 rules 0.00313342s)
(transform N7datalog13mk_coi_filterE...no-op 0s)
(transform N7datalog25mk_interp_tail_simplifierE...3 rules 0s)
(transform N7datalog22mk_subsumption_checkerE...no-op 0s)
(transform N7datalog15mk_rule_inlinerE...no-op 0s)
(transform N7datalog13mk_coi_filterE...no-op 0s)
(transform N7datalog25mk_interp_tail_simplifierE...3 rules 0s)
(transform N7datalog22mk_subsumption_checkerE...no-op 0s)
(transform N7datalog15mk_rule_inlinerE...no-op 0s)
(transform N7datalog22mk_subsumption_checkerE...no-op 0s)
(transform N7datalog15mk_rule_inlinerE...no-op 0s)
(transform N7datalog22mk_subsumption_checkerE...no-op 0s)
(transform N7datalog15mk_rule_inlinerE...no-op 0s)
(transform N7datalog22mk_subsumption_checkerE...no-op 0s)
(transform N7datalog8mk_sliceE...no-op 0s)
expand: query!0 (0, 0) FAR  w(0) 1. F 0.00
(spacer::context::check_reachability :time 0.00 :before-memory 4.59 :after-memory 4.95)
Entering level 1
BRUNCH_STAT max_query_lvl 0
BRUNCH_STAT num_queries 0
BRUNCH_STAT num_reach_queries 0
BRUNCH_STAT num_reach_reuse 0
BRUNCH_STAT inductive_lvl 0
BRUNCH_STAT max_depth 1
BRUNCH_STAT cex_depth 0
expand: query!0 (1, 0) FAR  w(0) 1.
	create_child: MAIN (0, 1) FAR 3152 U 0.00
expand: MAIN (0, 0) FAR  w(0) 3152. F 0.00
expand: query!0 (1, 0) FAR  w(0) 1. F 0.00
(spacer::context::check_reachability :time 0.00 :before-memory 4.95 :after-memory 5.86)
Propagating: 0 1  ! 2 
(spacer::context::propagate :time 0.00 :before-memory 5.86 :after-memory 5.86)
Entering level 2
BRUNCH_STAT max_query_lvl 1
BRUNCH_STAT num_queries 1
BRUNCH_STAT num_reach_queries 0
BRUNCH_STAT num_reach_reuse 0
BRUNCH_STAT inductive_lvl 0
BRUNCH_STAT max_depth 2
BRUNCH_STAT cex_depth 0
expand: query!0 (2, 0) FAR  w(0) 1.
	create_child: MAIN (1, 2) FAR 3152 U 0.00
expand: MAIN (1, 0) FAR  w(0) 3152.
	create_child: MAIN (0, 2) FAR 6007 U 0.00
expand: MAIN (0, 0) FAR  w(0) 6007. F 0.00
expand: MAIN (1, 0) FAR  w(0) 3152. F 0.00
expand: query!0 (2, 0) FAR  w(0) 1. F 0.00
(spacer::context::check_reachability :time 0.00 :before-memory 5.86 :after-memory 6.16)
Propagating: 0 1 2  ! 3 
(spacer::context::propagate :time 0.00 :before-memory 6.16 :after-memory 6.16)
Entering level 3
BRUNCH_STAT max_query_lvl 2
BRUNCH_STAT num_queries 3
BRUNCH_STAT num_reach_queries 0
BRUNCH_STAT num_reach_reuse 0
BRUNCH_STAT inductive_lvl 0
BRUNCH_STAT max_depth 3
BRUNCH_STAT cex_depth 0
expand: query!0 (3, 0) FAR  w(0) 1.
	create_child: MAIN (2, 3) FAR 3152 U 0.00
expand: MAIN (2, 0) FAR  w(0) 3152.
	create_child: MAIN (1, 3) FAR 6007 U 0.00
expand: MAIN (1, 0) FAR  w(0) 6007.
	create_child: MAIN (0, 3) FAR 6129 U 0.00
expand: MAIN (0, 0) FAR  w(0) 6129. F 0.00
expand: MAIN (1, 0) FAR  w(0) 6007. F 0.00
expand: MAIN (2, 0) FAR  w(0) 3152.
	create_child: MAIN (1, 3) FAR 6746 U 0.00
expand: MAIN (1, 0) FAR  w(0) 6746. F 0.00
expand: MAIN (2, 0) FAR  w(0) 3152.
	create_child: MAIN (1, 3) FAR 6851 U 0.00
expand: MAIN (1, 0) FAR  w(0) 6851. F 0.00
expand: MAIN (2, 0) FAR  w(0) 3152. F 0.00
expand: query!0 (3, 0) FAR  w(0) 1. F 0.00
(spacer::context::check_reachability :time 0.01 :before-memory 6.16 :after-memory 6.30)
Propagating: 0 1 2 3  ! 4 
(spacer::context::propagate :time 0.00 :before-memory 6.30 :after-memory 6.30)
Entering level 4
BRUNCH_STAT max_query_lvl 3
BRUNCH_STAT num_queries 8
BRUNCH_STAT num_reach_queries 0
BRUNCH_STAT num_reach_reuse 0
BRUNCH_STAT inductive_lvl 0
BRUNCH_STAT max_depth 4
BRUNCH_STAT cex_depth 0
expand: query!0 (4, 0) FAR  w(0) 1.
	create_child: MAIN (3, 4) FAR 3152 U 0.00
expand: MAIN (3, 0) FAR  w(0) 3152.
	create_child: MAIN (2, 4) FAR 7146 U 0.00
expand: MAIN (2, 0) FAR  w(0) 7146.
	create_child: MAIN (1, 4) FAR 7217 U 0.00
expand: MAIN (1, 0) FAR  w(0) 7217. F 0.00
expand: MAIN (2, 0) FAR  w(0) 7146.
	create_child: MAIN (1, 4) FAR 7403 U 0.00
expand: MAIN (1, 0) FAR  w(0) 7403. F 0.00
expand: MAIN (2, 0) FAR  w(0) 7146. F 0.00
expand: MAIN (3, 0) FAR  w(0) 3152. F 0.00
expand: query!0 (4, 0) FAR  w(0) 1. F 0.00
(spacer::context::check_reachability :time 0.01 :before-memory 6.30 :after-memory 6.43)
Propagating: 1 2 3 4  ! 5 
(spacer::context::propagate :time 0.00 :before-memory 6.43 :after-memory 6.43)
Entering level 5
BRUNCH_STAT max_query_lvl 4
BRUNCH_STAT num_queries 12
BRUNCH_STAT num_reach_queries 0
BRUNCH_STAT num_reach_reuse 0
BRUNCH_STAT inductive_lvl 0
BRUNCH_STAT max_depth 5
BRUNCH_STAT cex_depth 0
expand: query!0 (5, 0) FAR  w(0) 1.
	create_child: MAIN (4, 5) FAR 3152 U 0.00
expand: MAIN (4, 0) FAR  w(0) 3152.
	create_child: MAIN (3, 5) FAR 7146 U 0.00
expand: MAIN (3, 0) FAR  w(0) 7146.
	create_child: MAIN (2, 5) FAR 7403 U 0.00
expand: MAIN (2, 0) FAR  w(0) 7403.
	create_child: MAIN (1, 5) FAR 8581 U 0.00
expand: MAIN (1, 0) FAR  w(0) 8581. F 0.00
expand: MAIN (2, 0) FAR  w(0) 7403. F 0.00
expand: MAIN (3, 0) FAR  w(0) 7146. F 0.00
expand: MAIN (4, 0) FAR  w(0) 3152.
	create_child: MAIN (3, 5) FAR 8858 U 0.00
expand: MAIN (3, 0) FAR  w(0) 8858. F 0.00
expand: MAIN (4, 0) FAR  w(0) 3152. F 0.00
expand: query!0 (5, 0) FAR  w(0) 1. F 0.00
(spacer::context::check_reachability :time 0.02 :before-memory 6.43 :after-memory 6.54)
Propagating: 1 2 3 
(spacer::context::propagate :time 0.00 :before-memory 6.54 :after-memory 6.54)
(define-fun MAIN ((x!0 Int)
 (x!1 Int)
 (x!2 Int)
 (x!3 Int)
 (x!4 Int)
 (x!5 Int)
 (x!6 Bool)
 (x!7 Bool)
 (x!8 Bool)
 (x!9 Bool)) Bool
  (and (or (>= x!0 0) (not x!7) (<= x!1 0))
       x!9
       (not x!8)
       (or (not (>= x!1 2)) (not x!7))
       (<= x!2 0)
       (or (not (= x!0 1)) (not x!7) (<= x!1 0))
       (>= x!2 0)))
BRUNCH_STAT max_query_lvl 5
BRUNCH_STAT num_queries 17
BRUNCH_STAT num_reach_queries 0
BRUNCH_STAT num_reach_reuse 0
BRUNCH_STAT inductive_lvl 3
BRUNCH_STAT max_depth 5
BRUNCH_STAT cex_depth 0
(:SPACER-inductive-level               3
 :SPACER-max-depth                     5
 :SPACER-max-query-lvl                 5
 :SPACER-num-invariants                8
 :SPACER-num-lemmas                    23
 :SPACER-num-properties                13
 :SPACER-num-queries                   17
 :added-eqs                            1695
 :arith-add-rows                       115
 :arith-assert-diseq                   987
 :arith-assert-lower                   1539
 :arith-assert-upper                   1524
 :arith-bound-prop                     94
 :arith-conflicts                      5
 :arith-eq-adapter                     322
 :arith-fixed-eqs                      302
 :arith-offset-eqs                     94
 :arith-pivots                         99
 :bool-inductive-gen                   17
 :bool-inductive-gen-failures          21
 :conflicts                            145
 :decisions                            2958
 :del-clause                           212
 :final-checks                         57
 :minimized-lits                       62
 :mk-bool-var                          1006
 :mk-clause                            1525
 :num-checks                           124
 :propagations                         22342
 :time.itp_solver.itp_core             0.01
 :time.spacer.init_rules               0.00
 :time.spacer.init_rules.pt.init       0.00
 :time.spacer.solve                    0.06
 :time.spacer.solve.propagate          0.01
 :time.spacer.solve.reach              0.05
 :time.spacer.solve.reach.children     0.01
 :time.spacer.solve.reach.gen.bool_ind 0.01
 :time.virtual_solver.proof            0.01
 :time.virtual_solver.smt.total        0.04
 :time.virtual_solver.smt.total.sat    0.02
 :virtual_solver.checks                124
 :virtual_solver.checks.sat            57)
BRUNCH_STAT max_query_lvl 5
BRUNCH_STAT num_queries 17
BRUNCH_STAT num_reach_queries 0
BRUNCH_STAT num_reach_reuse 0
BRUNCH_STAT inductive_lvl 3
BRUNCH_STAT max_depth 5
BRUNCH_STAT cex_depth 0

real	0m0.091s
user	0m0.084s
sys	0m0.004s
