(transform N7datalog13mk_coi_filterE...no-op 0s)
(transform N7datalog25mk_interp_tail_simplifierE...14 rules 0s)
(transform N7datalog27mk_quantifier_instantiationE...no-op 0s)
(transform N7datalog8mk_scaleE...no-op 0s)
(transform N7datalog18mk_karr_invariantsE...no-op 0s)
(transform N7datalog14mk_array_blastE...no-op 0s)
(transform N7datalog22mk_subsumption_checkerE...13 rules 0s)
(transform N7datalog12mk_bit_blastE...no-op 0s)
(transform N7datalog15mk_rule_inlinerE...3 rules 0.00375334s)
(transform N7datalog13mk_coi_filterE...no-op 0s)
(transform N7datalog25mk_interp_tail_simplifierE...3 rules 0s)
(transform N7datalog22mk_subsumption_checkerE...no-op 0s)
(transform N7datalog15mk_rule_inlinerE...no-op 0s)
(transform N7datalog13mk_coi_filterE...no-op 0s)
(transform N7datalog25mk_interp_tail_simplifierE...3 rules 0s)
(transform N7datalog22mk_subsumption_checkerE...no-op 0s)
(transform N7datalog15mk_rule_inlinerE...no-op 0s)
(transform N7datalog22mk_subsumption_checkerE...no-op 0s)
(transform N7datalog15mk_rule_inlinerE...no-op 0s)
(transform N7datalog22mk_subsumption_checkerE...no-op 0s)
(transform N7datalog15mk_rule_inlinerE...no-op 0s)
(transform N7datalog22mk_subsumption_checkerE...no-op 0s)
(transform N7datalog8mk_sliceE...no-op 0s)
expand: query!0 (0, 0) FAR  w(0) 1. F 0.00
(spacer::context::check_reachability :time 0.00 :before-memory 4.46 :after-memory 4.99)
Entering level 1
BRUNCH_STAT max_query_lvl 0
BRUNCH_STAT num_queries 0
BRUNCH_STAT num_reach_queries 0
BRUNCH_STAT num_reach_reuse 0
BRUNCH_STAT inductive_lvl 0
BRUNCH_STAT max_depth 1
BRUNCH_STAT cex_depth 0
expand: query!0 (1, 0) FAR  w(0) 1.
	create_child: MAIN (0, 1) FAR 3475 U 0.00
expand: MAIN (0, 0) FAR  w(0) 3475. F 0.00
expand: query!0 (1, 0) FAR  w(0) 1. F 0.00
(spacer::context::check_reachability :time 0.00 :before-memory 4.99 :after-memory 6.09)
Propagating: 0 1  ! 2 
(spacer::context::propagate :time 0.00 :before-memory 6.09 :after-memory 6.09)
Entering level 2
BRUNCH_STAT max_query_lvl 1
BRUNCH_STAT num_queries 1
BRUNCH_STAT num_reach_queries 0
BRUNCH_STAT num_reach_reuse 0
BRUNCH_STAT inductive_lvl 0
BRUNCH_STAT max_depth 2
BRUNCH_STAT cex_depth 0
expand: query!0 (2, 0) FAR  w(0) 1.
	create_child: MAIN (1, 2) FAR 3475 U 0.00
expand: MAIN (1, 0) FAR  w(0) 3475.
	create_child: MAIN (0, 2) FAR 6772 U 0.00
expand: MAIN (0, 0) FAR  w(0) 6772. F 0.00
expand: MAIN (1, 0) FAR  w(0) 3475.
	create_child: MAIN (0, 2) FAR 6813 U 0.00
expand: MAIN (0, 0) FAR  w(0) 6813. F 0.00
expand: MAIN (1, 0) FAR  w(0) 3475.
	create_child: MAIN (0, 2) FAR 6855 U 0.00
expand: MAIN (0, 0) FAR  w(0) 6855. F 0.00
expand: MAIN (1, 0) FAR  w(0) 3475.
	create_child: MAIN (0, 2) FAR 7062 U 0.00
expand: MAIN (0, 0) FAR  w(0) 7062. F 0.00
expand: MAIN (1, 0) FAR  w(0) 3475.
	create_child: MAIN (0, 2) FAR 7140 U 0.00
expand: MAIN (0, 0) FAR  w(0) 7140. F 0.00
expand: MAIN (1, 0) FAR  w(0) 3475.
	create_child: MAIN (0, 2) FAR 7320 U 0.00
expand: MAIN (0, 0) FAR  w(0) 7320. F 0.00
expand: MAIN (1, 0) FAR  w(0) 3475.
	create_child: MAIN (0, 2) FAR 7396 U 0.00
expand: MAIN (0, 0) FAR  w(0) 7396. F 0.00
expand: MAIN (1, 0) FAR  w(0) 3475. F 0.00
expand: query!0 (2, 0) FAR  w(0) 1. F 0.00
(spacer::context::check_reachability :time 0.02 :before-memory 6.09 :after-memory 6.37)
Propagating: 0 1 2  ! 3 
(spacer::context::propagate :time 0.00 :before-memory 6.37 :after-memory 6.37)
Entering level 3
BRUNCH_STAT max_query_lvl 2
BRUNCH_STAT num_queries 9
BRUNCH_STAT num_reach_queries 0
BRUNCH_STAT num_reach_reuse 0
BRUNCH_STAT inductive_lvl 0
BRUNCH_STAT max_depth 3
BRUNCH_STAT cex_depth 0
expand: query!0 (3, 0) FAR  w(0) 1.
	create_child: MAIN (2, 3) FAR 3475 U 0.00
expand: MAIN (2, 0) FAR  w(0) 3475.
	create_child: MAIN (1, 3) FAR 7320 U 0.00
expand: MAIN (1, 0) FAR  w(0) 7320. F 0.00
expand: MAIN (2, 0) FAR  w(0) 3475. F 0.00
expand: query!0 (3, 0) FAR  w(0) 1. F 0.00
(spacer::context::check_reachability :time 0.01 :before-memory 6.37 :after-memory 6.52)
Propagating: 1 2 3  ! 4 
(spacer::context::propagate :time 0.00 :before-memory 6.52 :after-memory 6.52)
Entering level 4
BRUNCH_STAT max_query_lvl 3
BRUNCH_STAT num_queries 11
BRUNCH_STAT num_reach_queries 0
BRUNCH_STAT num_reach_reuse 0
BRUNCH_STAT inductive_lvl 0
BRUNCH_STAT max_depth 4
BRUNCH_STAT cex_depth 0
expand: query!0 (4, 0) FAR  w(0) 1.
	create_child: MAIN (3, 4) FAR 3475 U 0.00
expand: MAIN (3, 0) FAR  w(0) 3475.
	create_child: MAIN (2, 4) FAR 7062 U 0.00
expand: MAIN (2, 0) FAR  w(0) 7062. F 0.00
expand: MAIN (3, 0) FAR  w(0) 3475.
	create_child: MAIN (2, 4) FAR 9998 U 0.00
expand: MAIN (2, 0) FAR  w(0) 9998. F 0.00
expand: MAIN (3, 0) FAR  w(0) 3475. F 0.00
expand: query!0 (4, 0) FAR  w(0) 1. F 0.00
(spacer::context::check_reachability :time 0.01 :before-memory 6.52 :after-memory 6.79)
Propagating: 2 3 4  ! 5 
(spacer::context::propagate :time 0.00 :before-memory 6.79 :after-memory 6.79)
Entering level 5
BRUNCH_STAT max_query_lvl 4
BRUNCH_STAT num_queries 14
BRUNCH_STAT num_reach_queries 0
BRUNCH_STAT num_reach_reuse 0
BRUNCH_STAT inductive_lvl 0
BRUNCH_STAT max_depth 5
BRUNCH_STAT cex_depth 0
expand: query!0 (5, 0) FAR  w(0) 1.
	create_child: MAIN (4, 5) FAR 3475 U 0.00
expand: MAIN (4, 0) FAR  w(0) 3475.
	create_child: MAIN (3, 5) FAR 11433 UNDEF 0.00
expand: MAIN (3, 0) FAR  w(0) 11433. T 0.00
is-reachable: MAIN (4, 0) FAR 3475 F 0.00
expand: MAIN (4, 0) FAR  w(1) 3475.
	create_child: MAIN (3, 5) FAR 9998 U 0.00
expand: MAIN (3, 0) FAR  w(0) 9998.
	create_child: MAIN (2, 5) FAR 11700 UNDEF 0.00
expand: MAIN (2, 0) FAR  w(0) 11700. F 0.00
expand: MAIN (3, 0) FAR  w(0) 9998. F 0.01
expand: MAIN (4, 0) FAR  w(1) 3475. F 0.00
expand: query!0 (5, 0) FAR  w(0) 1. F 0.00
(spacer::context::check_reachability :time 0.02 :before-memory 6.79 :after-memory 7.30)
Propagating: 2 
(spacer::context::propagate :time 0.00 :before-memory 7.30 :after-memory 7.30)
(define-fun MAIN ((x!0 Int)
 (x!1 Int)
 (x!2 Int)
 (x!3 Int)
 (x!4 Int)
 (x!5 Int)
 (x!6 Bool)
 (x!7 Bool)
 (x!8 Bool)
 (x!9 Int)
 (x!10 Bool)
 (x!11 Bool)) Bool
  (let ((a!1 (not (<= (+ x!1
                         x!9
                         (* (- 1) x!0)
                         (* (- 1) x!2)
                         (* (- 1) x!3)
                         (* (- 1) x!4))
                      (- 4))))
        (a!2 (or (<= (+ x!0 x!1 x!3 x!4 (* (- 1) x!9)) 0) (not x!7)))
        (a!3 (not (>= (+ x!1 x!2 x!3 x!4 (* (- 1) x!9)) 0)))
        (a!4 (not (<= (+ x!1 x!9 (* (- 1) x!0) (* (- 1) x!3) (* (- 1) x!4))
                      (- 3)))))
    (and (or a!1 (not x!7))
         x!11
         (not x!6)
         (not x!10)
         (not x!8)
         a!2
         (or a!3 (not x!7) (<= x!0 0))
         (or a!4 (not x!7)))))
BRUNCH_STAT max_query_lvl 5
BRUNCH_STAT num_queries 18
BRUNCH_STAT num_reach_queries 0
BRUNCH_STAT num_reach_reuse 0
BRUNCH_STAT inductive_lvl 2
BRUNCH_STAT max_depth 5
BRUNCH_STAT cex_depth 0
(:SPACER-expand-node-undef             2
 :SPACER-inductive-level               2
 :SPACER-max-depth                     5
 :SPACER-max-query-lvl                 5
 :SPACER-num-invariants                9
 :SPACER-num-lemmas                    23
 :SPACER-num-properties                13
 :SPACER-num-queries                   18
 :added-eqs                            1705
 :arith-add-rows                       1626
 :arith-assert-diseq                   777
 :arith-assert-lower                   1902
 :arith-assert-upper                   1329
 :arith-bound-prop                     182
 :arith-conflicts                      26
 :arith-eq-adapter                     259
 :arith-fixed-eqs                      215
 :arith-gcd-tests                      26
 :arith-offset-eqs                     179
 :arith-pivots                         265
 :bool-inductive-gen                   17
 :bool-inductive-gen-failures          21
 :conflicts                            212
 :decisions                            2888
 :del-clause                           127
 :final-checks                         50
 :minimized-lits                       249
 :mk-bool-var                          878
 :mk-clause                            1606
 :num-checks                           115
 :propagations                         26982
 :time.itp_solver.itp_core             0.01
 :time.spacer.init_rules               0.00
 :time.spacer.init_rules.pt.init       0.00
 :time.spacer.solve                    0.08
 :time.spacer.solve.propagate          0.01
 :time.spacer.solve.reach              0.06
 :time.spacer.solve.reach.children     0.01
 :time.spacer.solve.reach.gen.bool_ind 0.01
 :time.spacer.solve.reach.is-reach     0.00
 :time.virtual_solver.proof            0.01
 :time.virtual_solver.smt.total        0.05
 :time.virtual_solver.smt.total.sat    0.02
 :time.virtual_solver.smt.total.undef  0.00
 :virtual_solver.checks                115
 :virtual_solver.checks.sat            48
 :virtual_solver.checks.undef          2)
BRUNCH_STAT max_query_lvl 5
BRUNCH_STAT num_queries 18
BRUNCH_STAT num_reach_queries 0
BRUNCH_STAT num_reach_reuse 0
BRUNCH_STAT inductive_lvl 2
BRUNCH_STAT max_depth 5
BRUNCH_STAT cex_depth 0

real	0m0.113s
user	0m0.108s
sys	0m0.004s
