(transform N7datalog13mk_coi_filterE...no-op 0s)
(transform N7datalog25mk_interp_tail_simplifierE...14 rules 0s)
(transform N7datalog27mk_quantifier_instantiationE...no-op 0s)
(transform N7datalog8mk_scaleE...no-op 0s)
(transform N7datalog18mk_karr_invariantsE...no-op 0s)
(transform N7datalog14mk_array_blastE...no-op 0s)
(transform N7datalog22mk_subsumption_checkerE...13 rules 0s)
(transform N7datalog12mk_bit_blastE...no-op 0s)
(transform N7datalog15mk_rule_inlinerE...3 rules 0.00383649s)
(transform N7datalog13mk_coi_filterE...no-op 0s)
(transform N7datalog25mk_interp_tail_simplifierE...3 rules 0s)
(transform N7datalog22mk_subsumption_checkerE...no-op 0s)
(transform N7datalog15mk_rule_inlinerE...no-op 0s)
(transform N7datalog13mk_coi_filterE...no-op 0s)
(transform N7datalog25mk_interp_tail_simplifierE...3 rules 0s)
(transform N7datalog22mk_subsumption_checkerE...no-op 0s)
(transform N7datalog15mk_rule_inlinerE...no-op 0s)
(transform N7datalog22mk_subsumption_checkerE...no-op 0s)
(transform N7datalog15mk_rule_inlinerE...no-op 0s)
(transform N7datalog22mk_subsumption_checkerE...no-op 0s)
(transform N7datalog15mk_rule_inlinerE...no-op 0s)
(transform N7datalog22mk_subsumption_checkerE...no-op 0s)
(transform N7datalog8mk_sliceE...no-op 0s)
expand: query!0 (0, 0) FAR  w(0) 1. F 0.00
(spacer::context::check_reachability :time 0.00 :before-memory 4.47 :after-memory 5.08)
Entering level 1
BRUNCH_STAT max_query_lvl 0
BRUNCH_STAT num_queries 0
BRUNCH_STAT num_reach_queries 0
BRUNCH_STAT num_reach_reuse 0
BRUNCH_STAT inductive_lvl 0
BRUNCH_STAT max_depth 1
BRUNCH_STAT cex_depth 0
expand: query!0 (1, 0) FAR  w(0) 1.
	create_child: MAIN (0, 1) FAR 3629 U 0.00
expand: MAIN (0, 0) FAR  w(0) 3629. F 0.00
expand: query!0 (1, 0) FAR  w(0) 1. F 0.00
(spacer::context::check_reachability :time 0.00 :before-memory 5.08 :after-memory 6.10)
Propagating: 0 1  ! 2 
(spacer::context::propagate :time 0.00 :before-memory 6.10 :after-memory 6.10)
Entering level 2
BRUNCH_STAT max_query_lvl 1
BRUNCH_STAT num_queries 1
BRUNCH_STAT num_reach_queries 0
BRUNCH_STAT num_reach_reuse 0
BRUNCH_STAT inductive_lvl 0
BRUNCH_STAT max_depth 2
BRUNCH_STAT cex_depth 0
expand: query!0 (2, 0) FAR  w(0) 1.
	create_child: MAIN (1, 2) FAR 3629 U 0.00
expand: MAIN (1, 0) FAR  w(0) 3629.
	create_child: MAIN (0, 2) FAR 7206 U 0.00
expand: MAIN (0, 0) FAR  w(0) 7206. F 0.00
expand: MAIN (1, 0) FAR  w(0) 3629.
	create_child: MAIN (0, 2) FAR 7415 U 0.00
expand: MAIN (0, 0) FAR  w(0) 7415. F 0.00
expand: MAIN (1, 0) FAR  w(0) 3629.
	create_child: MAIN (0, 2) FAR 7450 U 0.00
expand: MAIN (0, 0) FAR  w(0) 7450. F 0.00
expand: MAIN (1, 0) FAR  w(0) 3629.
	create_child: MAIN (0, 2) FAR 7633 U 0.00
expand: MAIN (0, 0) FAR  w(0) 7633. F 0.00
expand: MAIN (1, 0) FAR  w(0) 3629.
	create_child: MAIN (0, 2) FAR 7780 U 0.00
expand: MAIN (0, 0) FAR  w(0) 7780. F 0.00
expand: MAIN (1, 0) FAR  w(0) 3629.
	create_child: MAIN (0, 2) FAR 8074 U 0.00
expand: MAIN (0, 0) FAR  w(0) 8074. F 0.00
expand: MAIN (1, 0) FAR  w(0) 3629.
	create_child: MAIN (0, 2) FAR 8279 U 0.00
expand: MAIN (0, 0) FAR  w(0) 8279. F 0.00
expand: MAIN (1, 0) FAR  w(0) 3629.
	create_child: MAIN (0, 2) FAR 8419 U 0.00
expand: MAIN (0, 0) FAR  w(0) 8419. F 0.00
expand: MAIN (1, 0) FAR  w(0) 3629.
	create_child: MAIN (0, 2) FAR 8569 U 0.00
expand: MAIN (0, 0) FAR  w(0) 8569. F 0.00
expand: MAIN (1, 0) FAR  w(0) 3629. F 0.00
expand: query!0 (2, 0) FAR  w(0) 1. F 0.00
(spacer::context::check_reachability :time 0.03 :before-memory 6.10 :after-memory 6.54)
Propagating: 0 1 2  ! 3 
(spacer::context::propagate :time 0.00 :before-memory 6.54 :after-memory 6.54)
Entering level 3
BRUNCH_STAT max_query_lvl 2
BRUNCH_STAT num_queries 11
BRUNCH_STAT num_reach_queries 0
BRUNCH_STAT num_reach_reuse 0
BRUNCH_STAT inductive_lvl 0
BRUNCH_STAT max_depth 3
BRUNCH_STAT cex_depth 0
expand: query!0 (3, 0) FAR  w(0) 1.
	create_child: MAIN (2, 3) FAR 3629 U 0.00
expand: MAIN (2, 0) FAR  w(0) 3629.
	create_child: MAIN (1, 3) FAR 9500 U 0.00
expand: MAIN (1, 0) FAR  w(0) 9500. F 0.00
expand: MAIN (2, 0) FAR  w(0) 3629.
	create_child: MAIN (1, 3) FAR 9899 U 0.00
expand: MAIN (1, 0) FAR  w(0) 9899. F 0.00
expand: MAIN (2, 0) FAR  w(0) 3629.
	create_child: MAIN (1, 3) FAR 8279 U 0.00
expand: MAIN (1, 0) FAR  w(0) 8279. T 0.00
is-reachable: MAIN (2, 0) FAR 3629 T 0.02
is-reachable: query!0 (3, 0) FAR 1 T 0.01
(spacer::context::check_reachability :time 0.04 :before-memory 6.54 :after-memory 8.01)
BRUNCH_STAT max_query_lvl 3
BRUNCH_STAT num_queries 15
BRUNCH_STAT num_reach_queries 3
BRUNCH_STAT num_reach_reuse 1
BRUNCH_STAT inductive_lvl 0
BRUNCH_STAT max_depth 3
BRUNCH_STAT cex_depth 3
(:SPACER-cex-depth                     3
 :SPACER-max-depth                     3
 :SPACER-max-query-lvl                 3
 :SPACER-num-invariants                4
 :SPACER-num-lemmas                    16
 :SPACER-num-properties                13
 :SPACER-num-queries                   15
 :SPACER-num-reach-queries             3
 :SPACER-num-reuse-reach-facts         1
 :added-eqs                            1903
 :arith-add-rows                       1158
 :arith-assert-diseq                   716
 :arith-assert-lower                   1592
 :arith-assert-upper                   1507
 :arith-bound-prop                     197
 :arith-conflicts                      32
 :arith-eq-adapter                     224
 :arith-fixed-eqs                      233
 :arith-offset-eqs                     293
 :arith-pivots                         210
 :bool-inductive-gen                   13
 :bool-inductive-gen-failures          14
 :conflicts                            267
 :decisions                            1881
 :del-clause                           67
 :final-checks                         32
 :minimized-lits                       443
 :mk-bool-var                          1095
 :mk-clause                            2874
 :num-checks                           77
 :propagations                         29705
 :time.itp_solver.itp_core             0.01
 :time.spacer.init_rules               0.00
 :time.spacer.init_rules.pt.init       0.00
 :time.spacer.solve                    0.08
 :time.spacer.solve.propagate          0.01
 :time.spacer.solve.reach              0.07
 :time.spacer.solve.reach.children     0.01
 :time.spacer.solve.reach.gen.bool_ind 0.00
 :time.spacer.solve.reach.is-reach     0.02
 :time.virtual_solver.proof            0.00
 :time.virtual_solver.smt.total        0.05
 :time.virtual_solver.smt.total.sat    0.03
 :virtual_solver.checks                77
 :virtual_solver.checks.sat            32)
BRUNCH_STAT max_query_lvl 3
BRUNCH_STAT num_queries 15
BRUNCH_STAT num_reach_queries 3
BRUNCH_STAT num_reach_reuse 1
BRUNCH_STAT inductive_lvl 0
BRUNCH_STAT max_depth 3
BRUNCH_STAT cex_depth 3

real	0m0.111s
user	0m0.100s
sys	0m0.008s
