(transform N7datalog13mk_coi_filterE...no-op 0s)
(transform N7datalog25mk_interp_tail_simplifierE...15 rules 0s)
(transform N7datalog27mk_quantifier_instantiationE...no-op 0s)
(transform N7datalog8mk_scaleE...no-op 0s)
(transform N7datalog18mk_karr_invariantsE...no-op 0s)
(transform N7datalog14mk_array_blastE...no-op 0s)
(transform N7datalog22mk_subsumption_checkerE...14 rules 0s)
(transform N7datalog12mk_bit_blastE...no-op 0s)
(transform N7datalog15mk_rule_inlinerE...3 rules 0.00537351s)
(transform N7datalog13mk_coi_filterE...no-op 0s)
(transform N7datalog25mk_interp_tail_simplifierE...3 rules 0s)
(transform N7datalog22mk_subsumption_checkerE...no-op 0s)
(transform N7datalog15mk_rule_inlinerE...no-op 0s)
(transform N7datalog13mk_coi_filterE...no-op 0s)
(transform N7datalog25mk_interp_tail_simplifierE...3 rules 0s)
(transform N7datalog22mk_subsumption_checkerE...no-op 0s)
(transform N7datalog15mk_rule_inlinerE...no-op 0s)
(transform N7datalog22mk_subsumption_checkerE...no-op 0s)
(transform N7datalog15mk_rule_inlinerE...no-op 0s)
(transform N7datalog22mk_subsumption_checkerE...no-op 0s)
(transform N7datalog15mk_rule_inlinerE...no-op 0s)
(transform N7datalog22mk_subsumption_checkerE...no-op 0s)
(transform N7datalog8mk_sliceE...no-op 0s)
expand: query!0 (0, 0) FAR  w(0) 1. F 0.00
(spacer::context::check_reachability :time 0.00 :before-memory 4.52 :after-memory 5.04)
Entering level 1
BRUNCH_STAT max_query_lvl 0
BRUNCH_STAT num_queries 0
BRUNCH_STAT num_reach_queries 0
BRUNCH_STAT num_reach_reuse 0
BRUNCH_STAT inductive_lvl 0
BRUNCH_STAT max_depth 1
BRUNCH_STAT cex_depth 0
expand: query!0 (1, 0) FAR  w(0) 1.
	create_child: MAIN (0, 1) FAR 3239 U 0.00
expand: MAIN (0, 0) FAR  w(0) 3239. F 0.00
expand: query!0 (1, 0) FAR  w(0) 1. F 0.00
(spacer::context::check_reachability :time 0.00 :before-memory 5.04 :after-memory 5.84)
Propagating: 0 1  ! 2 
(spacer::context::propagate :time 0.00 :before-memory 5.84 :after-memory 5.84)
Entering level 2
BRUNCH_STAT max_query_lvl 1
BRUNCH_STAT num_queries 1
BRUNCH_STAT num_reach_queries 0
BRUNCH_STAT num_reach_reuse 0
BRUNCH_STAT inductive_lvl 0
BRUNCH_STAT max_depth 2
BRUNCH_STAT cex_depth 0
expand: query!0 (2, 0) FAR  w(0) 1.
	create_child: MAIN (1, 2) FAR 3239 U 0.00
expand: MAIN (1, 0) FAR  w(0) 3239.
	create_child: MAIN (0, 2) FAR 5021 U 0.00
expand: MAIN (0, 0) FAR  w(0) 5021. F 0.00
expand: MAIN (1, 0) FAR  w(0) 3239.
	create_child: MAIN (0, 2) FAR 5235 U 0.00
expand: MAIN (0, 0) FAR  w(0) 5235. F 0.00
expand: MAIN (1, 0) FAR  w(0) 3239.
	create_child: MAIN (0, 2) FAR 5582 U 0.00
expand: MAIN (0, 0) FAR  w(0) 5582. F 0.00
expand: MAIN (1, 0) FAR  w(0) 3239.
	create_child: MAIN (0, 2) FAR 5863 U 0.00
expand: MAIN (0, 0) FAR  w(0) 5863. F 0.00
expand: MAIN (1, 0) FAR  w(0) 3239.
	create_child: MAIN (0, 2) FAR 6044 U 0.00
expand: MAIN (0, 0) FAR  w(0) 6044. F 0.00
expand: MAIN (1, 0) FAR  w(0) 3239.
	create_child: MAIN (0, 2) FAR 6103 U 0.00
expand: MAIN (0, 0) FAR  w(0) 6103. F 0.00
expand: MAIN (1, 0) FAR  w(0) 3239.
	create_child: MAIN (0, 2) FAR 6146 U 0.00
expand: MAIN (0, 0) FAR  w(0) 6146. F 0.00
expand: MAIN (1, 0) FAR  w(0) 3239. F 0.00
expand: query!0 (2, 0) FAR  w(0) 1. F 0.00
(spacer::context::check_reachability :time 0.02 :before-memory 5.84 :after-memory 6.29)
Propagating: 0 1 2  ! 3 
(spacer::context::propagate :time 0.00 :before-memory 6.29 :after-memory 6.29)
Entering level 3
BRUNCH_STAT max_query_lvl 2
BRUNCH_STAT num_queries 9
BRUNCH_STAT num_reach_queries 0
BRUNCH_STAT num_reach_reuse 0
BRUNCH_STAT inductive_lvl 0
BRUNCH_STAT max_depth 3
BRUNCH_STAT cex_depth 0
expand: query!0 (3, 0) FAR  w(0) 1.
	create_child: MAIN (2, 3) FAR 3239 U 0.00
expand: MAIN (2, 0) FAR  w(0) 3239.
	create_child: MAIN (1, 3) FAR 6697 U 0.00
expand: MAIN (1, 0) FAR  w(0) 6697. F 0.00
expand: MAIN (2, 0) FAR  w(0) 3239.
	create_child: MAIN (1, 3) FAR 6905 U 0.00
expand: MAIN (1, 0) FAR  w(0) 6905. F 0.00
expand: MAIN (2, 0) FAR  w(0) 3239.
	create_child: MAIN (1, 3) FAR 7014 U 0.00
expand: MAIN (1, 0) FAR  w(0) 7014. F 0.00
expand: MAIN (2, 0) FAR  w(0) 3239. F 0.00
expand: query!0 (3, 0) FAR  w(0) 1. F 0.00
(spacer::context::check_reachability :time 0.01 :before-memory 6.29 :after-memory 6.38)
Propagating: 1 2 3  ! 4 
(spacer::context::propagate :time 0.00 :before-memory 6.38 :after-memory 6.38)
Entering level 4
BRUNCH_STAT max_query_lvl 3
BRUNCH_STAT num_queries 13
BRUNCH_STAT num_reach_queries 0
BRUNCH_STAT num_reach_reuse 0
BRUNCH_STAT inductive_lvl 0
BRUNCH_STAT max_depth 4
BRUNCH_STAT cex_depth 0
expand: query!0 (4, 0) FAR  w(0) 1.
	create_child: MAIN (3, 4) FAR 3239 U 0.00
expand: MAIN (3, 0) FAR  w(0) 3239.
	create_child: MAIN (2, 4) FAR 7353 U 0.00
expand: MAIN (2, 0) FAR  w(0) 7353. F 0.00
expand: MAIN (3, 0) FAR  w(0) 3239.
	create_child: MAIN (2, 4) FAR 7606 U 0.00
expand: MAIN (2, 0) FAR  w(0) 7606.
	create_child: MAIN (1, 4) FAR 7764 U 0.00
expand: MAIN (1, 0) FAR  w(0) 7764. F 0.00
expand: MAIN (2, 0) FAR  w(0) 7606.
	create_child: MAIN (1, 4) FAR 8009 U 0.00
expand: MAIN (1, 0) FAR  w(0) 8009. F 0.00
expand: MAIN (2, 0) FAR  w(0) 7606.
	create_child: MAIN (1, 4) FAR 8279 U 0.00
expand: MAIN (1, 0) FAR  w(0) 8279. F 0.00
expand: MAIN (2, 0) FAR  w(0) 7606. F 0.00
expand: MAIN (3, 0) FAR  w(0) 3239.
	create_child: MAIN (2, 4) FAR 8234 U 0.00
expand: MAIN (2, 0) FAR  w(0) 8234.
	create_child: MAIN (1, 4) FAR 8509 U 0.00
expand: MAIN (1, 0) FAR  w(0) 8509. F 0.00
expand: MAIN (2, 0) FAR  w(0) 8234.
	create_child: MAIN (1, 4) FAR 8823 U 0.00
expand: MAIN (1, 0) FAR  w(0) 8823. F 0.00
expand: MAIN (2, 0) FAR  w(0) 8234.
	create_child: MAIN (1, 4) FAR 8926 U 0.00
expand: MAIN (1, 0) FAR  w(0) 8926. F 0.00
expand: MAIN (2, 0) FAR  w(0) 8234. F 0.00
expand: MAIN (3, 0) FAR  w(0) 3239. F 0.00
expand: query!0 (4, 0) FAR  w(0) 1. F 0.00
(spacer::context::check_reachability :time 0.03 :before-memory 6.38 :after-memory 6.57)
Propagating: 1 2 3 4  ! 5 
(spacer::context::propagate :time 0.00 :before-memory 6.57 :after-memory 6.57)
Entering level 5
BRUNCH_STAT max_query_lvl 4
BRUNCH_STAT num_queries 23
BRUNCH_STAT num_reach_queries 0
BRUNCH_STAT num_reach_reuse 0
BRUNCH_STAT inductive_lvl 0
BRUNCH_STAT max_depth 5
BRUNCH_STAT cex_depth 0
expand: query!0 (5, 0) FAR  w(0) 1.
	create_child: MAIN (4, 5) FAR 3239 U 0.00
expand: MAIN (4, 0) FAR  w(0) 3239.
	create_child: MAIN (3, 5) FAR 9258 U 0.00
expand: MAIN (3, 0) FAR  w(0) 9258.
	create_child: MAIN (2, 5) FAR 9381 U 0.00
expand: MAIN (2, 0) FAR  w(0) 9381.
	create_child: MAIN (1, 5) FAR 9532 U 0.00
expand: MAIN (1, 0) FAR  w(0) 9532. F 0.00
expand: MAIN (2, 0) FAR  w(0) 9381. F 0.00
expand: MAIN (3, 0) FAR  w(0) 9258. F 0.00
expand: MAIN (4, 0) FAR  w(0) 3239.
	create_child: MAIN (3, 5) FAR 10026 U 0.00
expand: MAIN (3, 0) FAR  w(0) 10026.
	create_child: MAIN (2, 5) FAR 10202 U 0.00
expand: MAIN (2, 0) FAR  w(0) 10202. F 0.00
expand: MAIN (3, 0) FAR  w(0) 10026. F 0.00
expand: MAIN (4, 0) FAR  w(0) 3239. F 0.00
expand: query!0 (5, 0) FAR  w(0) 1. F 0.00
(spacer::context::check_reachability :time 0.02 :before-memory 6.57 :after-memory 6.77)
Propagating: 1 2 3 4 5  ! 6 
(spacer::context::propagate :time 0.01 :before-memory 6.77 :after-memory 6.77)
Entering level 6
BRUNCH_STAT max_query_lvl 5
BRUNCH_STAT num_queries 29
BRUNCH_STAT num_reach_queries 0
BRUNCH_STAT num_reach_reuse 0
BRUNCH_STAT inductive_lvl 0
BRUNCH_STAT max_depth 6
BRUNCH_STAT cex_depth 0
expand: query!0 (6, 0) FAR  w(0) 1.
	create_child: MAIN (5, 6) FAR 3239 U 0.00
expand: MAIN (5, 0) FAR  w(0) 3239.
	create_child: MAIN (4, 6) FAR 9991 U 0.00
expand: MAIN (4, 0) FAR  w(0) 9991. F 0.00
expand: MAIN (5, 0) FAR  w(0) 3239.
	create_child: MAIN (4, 6) FAR 10878 U 0.00
expand: MAIN (4, 0) FAR  w(0) 10878. F 0.00
expand: MAIN (5, 0) FAR  w(0) 3239.
	create_child: MAIN (4, 6) FAR 11099 U 0.00
expand: MAIN (4, 0) FAR  w(0) 11099. F 0.00
expand: MAIN (5, 0) FAR  w(0) 3239.
	create_child: MAIN (4, 6) FAR 11301 U 0.00
expand: MAIN (4, 0) FAR  w(0) 11301.
	create_child: MAIN (3, 6) FAR 11459 U 0.00
expand: MAIN (3, 0) FAR  w(0) 11459.
	create_child: MAIN (2, 6) FAR 11492 U 0.00
expand: MAIN (2, 0) FAR  w(0) 11492. F 0.00
expand: MAIN (3, 0) FAR  w(0) 11459. F 0.00
expand: MAIN (4, 0) FAR  w(0) 11301. F 0.00
expand: MAIN (5, 0) FAR  w(0) 3239. F 0.00
expand: query!0 (6, 0) FAR  w(0) 1. F 0.00
(spacer::context::check_reachability :time 0.02 :before-memory 6.77 :after-memory 7.20)
Propagating: 2 3 4 5 6  ! 7 
(spacer::context::propagate :time 0.00 :before-memory 7.20 :after-memory 7.20)
Entering level 7
BRUNCH_STAT max_query_lvl 6
BRUNCH_STAT num_queries 36
BRUNCH_STAT num_reach_queries 0
BRUNCH_STAT num_reach_reuse 0
BRUNCH_STAT inductive_lvl 0
BRUNCH_STAT max_depth 7
BRUNCH_STAT cex_depth 0
expand: query!0 (7, 0) FAR  w(0) 1.
	create_child: MAIN (6, 7) FAR 3239 U 0.00
expand: MAIN (6, 0) FAR  w(0) 3239.
	create_child: MAIN (5, 7) FAR 11774 U 0.00
expand: MAIN (5, 0) FAR  w(0) 11774.
	create_child: MAIN (4, 7) FAR 11921 U 0.00
expand: MAIN (4, 0) FAR  w(0) 11921.
	create_child: MAIN (3, 7) FAR 11902 U 0.00
expand: MAIN (3, 0) FAR  w(0) 11902. F 0.00
expand: MAIN (4, 0) FAR  w(0) 11921. F 0.00
expand: MAIN (5, 0) FAR  w(0) 11774. F 0.00
expand: MAIN (6, 0) FAR  w(0) 3239.
	create_child: MAIN (5, 7) FAR 11934 U 0.00
expand: MAIN (5, 0) FAR  w(0) 11934.
	create_child: MAIN (4, 7) FAR 12194 U 0.00
expand: MAIN (4, 0) FAR  w(0) 12194.
	create_child: MAIN (3, 7) FAR 12131 U 0.00
expand: MAIN (3, 0) FAR  w(0) 12131. F 0.00
expand: MAIN (4, 0) FAR  w(0) 12194. F 0.00
expand: MAIN (5, 0) FAR  w(0) 11934. F 0.00
expand: MAIN (6, 0) FAR  w(0) 3239. F 0.00
expand: query!0 (7, 0) FAR  w(0) 1. F 0.00
(spacer::context::check_reachability :time 0.02 :before-memory 7.20 :after-memory 7.30)
Propagating: 3 4 5 6 7  ! 8 
(spacer::context::propagate :time 0.01 :before-memory 7.30 :after-memory 7.30)
Entering level 8
BRUNCH_STAT max_query_lvl 7
BRUNCH_STAT num_queries 43
BRUNCH_STAT num_reach_queries 0
BRUNCH_STAT num_reach_reuse 0
BRUNCH_STAT inductive_lvl 0
BRUNCH_STAT max_depth 8
BRUNCH_STAT cex_depth 0
expand: query!0 (8, 0) FAR  w(0) 1.
	create_child: MAIN (7, 8) FAR 3239 U 0.00
expand: MAIN (7, 0) FAR  w(0) 3239.
	create_child: MAIN (6, 8) FAR 11774 U 0.00
expand: MAIN (6, 0) FAR  w(0) 11774.
	create_child: MAIN (5, 8) FAR 11921 U 0.00
expand: MAIN (5, 0) FAR  w(0) 11921.
	create_child: MAIN (4, 8) FAR 11902 U 0.00
expand: MAIN (4, 0) FAR  w(0) 11902.
	create_child: MAIN (3, 8) FAR 13012 U 0.00
expand: MAIN (3, 0) FAR  w(0) 13012. F 0.00
expand: MAIN (4, 0) FAR  w(0) 11902. F 0.00
expand: MAIN (5, 0) FAR  w(0) 11921. F 0.00
expand: MAIN (6, 0) FAR  w(0) 11774. F 0.00
expand: MAIN (7, 0) FAR  w(0) 3239.
	create_child: MAIN (6, 8) FAR 11934 U 0.00
expand: MAIN (6, 0) FAR  w(0) 11934.
	create_child: MAIN (5, 8) FAR 12194 U 0.00
expand: MAIN (5, 0) FAR  w(0) 12194.
	create_child: MAIN (4, 8) FAR 12131 U 0.00
expand: MAIN (4, 0) FAR  w(0) 12131.
	create_child: MAIN (3, 8) FAR 13489 U 0.00
expand: MAIN (3, 0) FAR  w(0) 13489. F 0.00
expand: MAIN (4, 0) FAR  w(0) 12131. F 0.00
expand: MAIN (5, 0) FAR  w(0) 12194. F 0.00
expand: MAIN (6, 0) FAR  w(0) 11934. F 0.00
expand: MAIN (7, 0) FAR  w(0) 3239. F 0.00
expand: query!0 (8, 0) FAR  w(0) 1. F 0.00
(spacer::context::check_reachability :time 0.02 :before-memory 7.30 :after-memory 7.49)
Propagating: 3 4 5 6 7 8  ! 9 
(spacer::context::propagate :time 0.01 :before-memory 7.49 :after-memory 7.49)
Entering level 9
BRUNCH_STAT max_query_lvl 8
BRUNCH_STAT num_queries 52
BRUNCH_STAT num_reach_queries 0
BRUNCH_STAT num_reach_reuse 0
BRUNCH_STAT inductive_lvl 0
BRUNCH_STAT max_depth 9
BRUNCH_STAT cex_depth 0
expand: query!0 (9, 0) FAR  w(0) 1.
	create_child: MAIN (8, 9) FAR 3239 U 0.00
expand: MAIN (8, 0) FAR  w(0) 3239.
	create_child: MAIN (7, 9) FAR 11774 U 0.00
expand: MAIN (7, 0) FAR  w(0) 11774.
	create_child: MAIN (6, 9) FAR 11921 U 0.00
expand: MAIN (6, 0) FAR  w(0) 11921.
	create_child: MAIN (5, 9) FAR 11902 U 0.00
expand: MAIN (5, 0) FAR  w(0) 11902.
	create_child: MAIN (4, 9) FAR 13012 U 0.00
expand: MAIN (4, 0) FAR  w(0) 13012.
	create_child: MAIN (3, 9) FAR 14185 U 0.00
expand: MAIN (3, 0) FAR  w(0) 14185. F 0.00
expand: MAIN (4, 0) FAR  w(0) 13012. F 0.00
expand: MAIN (5, 0) FAR  w(0) 11902. F 0.00
expand: MAIN (6, 0) FAR  w(0) 11921. F 0.00
expand: MAIN (7, 0) FAR  w(0) 11774. F 0.00
expand: MAIN (8, 0) FAR  w(0) 3239.
	create_child: MAIN (7, 9) FAR 14655 U 0.00
expand: MAIN (7, 0) FAR  w(0) 14655.
	create_child: MAIN (6, 9) FAR 14818 U 0.00
expand: MAIN (6, 0) FAR  w(0) 14818.
	create_child: MAIN (5, 9) FAR 14773 U 0.00
expand: MAIN (5, 0) FAR  w(0) 14773.
	create_child: MAIN (4, 9) FAR 14889 U 0.00
expand: MAIN (4, 0) FAR  w(0) 14889. F 0.00
expand: MAIN (5, 0) FAR  w(0) 14773. F 0.00
expand: MAIN (6, 0) FAR  w(0) 14818. F 0.00
expand: MAIN (7, 0) FAR  w(0) 14655. F 0.00
expand: MAIN (8, 0) FAR  w(0) 3239. F 0.00
expand: query!0 (9, 0) FAR  w(0) 1. F 0.00
(spacer::context::check_reachability :time 0.03 :before-memory 7.49 :after-memory 7.58)
Propagating: 3 4 5 6 7 8 9  ! 10 
(spacer::context::propagate :time 0.01 :before-memory 7.58 :after-memory 7.58)
Entering level 10
BRUNCH_STAT max_query_lvl 9
BRUNCH_STAT num_queries 62
BRUNCH_STAT num_reach_queries 0
BRUNCH_STAT num_reach_reuse 0
BRUNCH_STAT inductive_lvl 0
BRUNCH_STAT max_depth 10
BRUNCH_STAT cex_depth 0
expand: query!0 (10, 0) FAR  w(0) 1.
	create_child: MAIN (9, 10) FAR 3239 U 0.00
expand: MAIN (9, 0) FAR  w(0) 3239.
	create_child: MAIN (8, 10) FAR 11774 U 0.00
expand: MAIN (8, 0) FAR  w(0) 11774.
	create_child: MAIN (7, 10) FAR 11921 U 0.00
expand: MAIN (7, 0) FAR  w(0) 11921.
	create_child: MAIN (6, 10) FAR 11902 U 0.00
expand: MAIN (6, 0) FAR  w(0) 11902.
	create_child: MAIN (5, 10) FAR 13012 U 0.00
expand: MAIN (5, 0) FAR  w(0) 13012.
	create_child: MAIN (4, 10) FAR 14185 U 0.00
expand: MAIN (4, 0) FAR  w(0) 14185.
	create_child: MAIN (3, 10) FAR 15861 U 0.00
expand: MAIN (3, 0) FAR  w(0) 15861. F 0.00
expand: MAIN (4, 0) FAR  w(0) 14185. F 0.00
expand: MAIN (5, 0) FAR  w(0) 13012. F 0.00
expand: MAIN (6, 0) FAR  w(0) 11902. F 0.00
expand: MAIN (7, 0) FAR  w(0) 11921. F 0.00
expand: MAIN (8, 0) FAR  w(0) 11774. F 0.00
expand: MAIN (9, 0) FAR  w(0) 3239.
	create_child: MAIN (8, 10) FAR 15992 U 0.00
expand: MAIN (8, 0) FAR  w(0) 15992.
	create_child: MAIN (7, 10) FAR 16212 U 0.00
expand: MAIN (7, 0) FAR  w(0) 16212.
	create_child: MAIN (6, 10) FAR 16255 U 0.00
expand: MAIN (6, 0) FAR  w(0) 16255.
	create_child: MAIN (5, 10) FAR 16100 U 0.00
expand: MAIN (5, 0) FAR  w(0) 16100.
	create_child: MAIN (4, 10) FAR 16199 U 0.00
expand: MAIN (4, 0) FAR  w(0) 16199. F 0.00
expand: MAIN (5, 0) FAR  w(0) 16100. F 0.00
expand: MAIN (6, 0) FAR  w(0) 16255. F 0.00
expand: MAIN (7, 0) FAR  w(0) 16212. F 0.00
expand: MAIN (8, 0) FAR  w(0) 15992. F 0.00
expand: MAIN (9, 0) FAR  w(0) 3239. F 0.00
expand: query!0 (10, 0) FAR  w(0) 1. F 0.00
(spacer::context::check_reachability :time 0.04 :before-memory 7.58 :after-memory 7.78)
Propagating: 3 4 5 6 7 8 9 10  ! 11 
(spacer::context::propagate :time 0.01 :before-memory 7.78 :after-memory 7.78)
Entering level 11
BRUNCH_STAT max_query_lvl 10
BRUNCH_STAT num_queries 74
BRUNCH_STAT num_reach_queries 0
BRUNCH_STAT num_reach_reuse 0
BRUNCH_STAT inductive_lvl 0
BRUNCH_STAT max_depth 11
BRUNCH_STAT cex_depth 0
expand: query!0 (11, 0) FAR  w(0) 1.
	create_child: MAIN (10, 11) FAR 3239 U 0.00
expand: MAIN (10, 0) FAR  w(0) 3239.
	create_child: MAIN (9, 11) FAR 11774 U 0.00
expand: MAIN (9, 0) FAR  w(0) 11774.
	create_child: MAIN (8, 11) FAR 11921 U 0.00
expand: MAIN (8, 0) FAR  w(0) 11921.
	create_child: MAIN (7, 11) FAR 11902 U 0.00
expand: MAIN (7, 0) FAR  w(0) 11902.
	create_child: MAIN (6, 11) FAR 13012 U 0.00
expand: MAIN (6, 0) FAR  w(0) 13012.
	create_child: MAIN (5, 11) FAR 14185 U 0.00
expand: MAIN (5, 0) FAR  w(0) 14185.
	create_child: MAIN (4, 11) FAR 15861 U 0.00
expand: MAIN (4, 0) FAR  w(0) 15861. F 0.00
expand: MAIN (5, 0) FAR  w(0) 14185. F 0.00
expand: MAIN (6, 0) FAR  w(0) 13012. F 0.00
expand: MAIN (7, 0) FAR  w(0) 11902. F 0.00
expand: MAIN (8, 0) FAR  w(0) 11921. F 0.00
expand: MAIN (9, 0) FAR  w(0) 11774. F 0.00
expand: MAIN (10, 0) FAR  w(0) 3239.
	create_child: MAIN (9, 11) FAR 11934 U 0.00
expand: MAIN (9, 0) FAR  w(0) 11934.
	create_child: MAIN (8, 11) FAR 12194 U 0.00
expand: MAIN (8, 0) FAR  w(0) 12194.
	create_child: MAIN (7, 11) FAR 12131 U 0.00
expand: MAIN (7, 0) FAR  w(0) 12131.
	create_child: MAIN (6, 11) FAR 13489 U 0.00
expand: MAIN (6, 0) FAR  w(0) 13489.
	create_child: MAIN (5, 11) FAR 17178 U 0.00
expand: MAIN (5, 0) FAR  w(0) 17178. F 0.00
expand: MAIN (6, 0) FAR  w(0) 13489. F 0.00
expand: MAIN (7, 0) FAR  w(0) 12131. F 0.00
expand: MAIN (8, 0) FAR  w(0) 12194. F 0.00
expand: MAIN (9, 0) FAR  w(0) 11934. F 0.00
expand: MAIN (10, 0) FAR  w(0) 3239. F 0.00
expand: query!0 (11, 0) FAR  w(0) 1. F 0.00
(spacer::context::check_reachability :time 0.03 :before-memory 7.78 :after-memory 7.87)
Propagating: 4 5 6 7 8 9 10 11  ! 12 
(spacer::context::propagate :time 0.01 :before-memory 7.87 :after-memory 7.87)
Entering level 12
BRUNCH_STAT max_query_lvl 11
BRUNCH_STAT num_queries 86
BRUNCH_STAT num_reach_queries 0
BRUNCH_STAT num_reach_reuse 0
BRUNCH_STAT inductive_lvl 0
BRUNCH_STAT max_depth 12
BRUNCH_STAT cex_depth 0
expand: query!0 (12, 0) FAR  w(0) 1.
	create_child: MAIN (11, 12) FAR 3239 U 0.00
expand: MAIN (11, 0) FAR  w(0) 3239.
	create_child: MAIN (10, 12) FAR 11774 U 0.00
expand: MAIN (10, 0) FAR  w(0) 11774.
	create_child: MAIN (9, 12) FAR 11921 U 0.00
expand: MAIN (9, 0) FAR  w(0) 11921.
	create_child: MAIN (8, 12) FAR 11902 U 0.00
expand: MAIN (8, 0) FAR  w(0) 11902.
	create_child: MAIN (7, 12) FAR 13012 U 0.00
expand: MAIN (7, 0) FAR  w(0) 13012.
	create_child: MAIN (6, 12) FAR 14185 U 0.00
expand: MAIN (6, 0) FAR  w(0) 14185.
	create_child: MAIN (5, 12) FAR 15861 U 0.00
expand: MAIN (5, 0) FAR  w(0) 15861.
	create_child: MAIN (4, 12) FAR 18689 U 0.00
expand: MAIN (4, 0) FAR  w(0) 18689. F 0.00
expand: MAIN (5, 0) FAR  w(0) 15861. F 0.00
expand: MAIN (6, 0) FAR  w(0) 14185. F 0.00
expand: MAIN (7, 0) FAR  w(0) 13012. F 0.00
expand: MAIN (8, 0) FAR  w(0) 11902. F 0.00
expand: MAIN (9, 0) FAR  w(0) 11921. F 0.00
expand: MAIN (10, 0) FAR  w(0) 11774. F 0.00
expand: MAIN (11, 0) FAR  w(0) 3239.
	create_child: MAIN (10, 12) FAR 11934 U 0.00
expand: MAIN (10, 0) FAR  w(0) 11934.
	create_child: MAIN (9, 12) FAR 12194 U 0.00
expand: MAIN (9, 0) FAR  w(0) 12194.
	create_child: MAIN (8, 12) FAR 12131 U 0.00
expand: MAIN (8, 0) FAR  w(0) 12131.
	create_child: MAIN (7, 12) FAR 13489 U 0.00
expand: MAIN (7, 0) FAR  w(0) 13489.
	create_child: MAIN (6, 12) FAR 17178 U 0.00
expand: MAIN (6, 0) FAR  w(0) 17178.
	create_child: MAIN (5, 12) FAR 19125 U 0.00
expand: MAIN (5, 0) FAR  w(0) 19125. F 0.00
expand: MAIN (6, 0) FAR  w(0) 17178. F 0.00
expand: MAIN (7, 0) FAR  w(0) 13489. F 0.00
expand: MAIN (8, 0) FAR  w(0) 12131. F 0.00
expand: MAIN (9, 0) FAR  w(0) 12194. F 0.00
expand: MAIN (10, 0) FAR  w(0) 11934. F 0.00
expand: MAIN (11, 0) FAR  w(0) 3239. F 0.00
expand: query!0 (12, 0) FAR  w(0) 1. F 0.00
(spacer::context::check_reachability :time 0.04 :before-memory 7.87 :after-memory 8.06)
Propagating: 4 5 6 7 8 9 10 11 12  ! 13 
(spacer::context::propagate :time 0.02 :before-memory 8.06 :after-memory 8.06)
Entering level 13
BRUNCH_STAT max_query_lvl 12
BRUNCH_STAT num_queries 100
BRUNCH_STAT num_reach_queries 0
BRUNCH_STAT num_reach_reuse 0
BRUNCH_STAT inductive_lvl 0
BRUNCH_STAT max_depth 13
BRUNCH_STAT cex_depth 0
expand: query!0 (13, 0) FAR  w(0) 1.
	create_child: MAIN (12, 13) FAR 3239 U 0.00
expand: MAIN (12, 0) FAR  w(0) 3239.
	create_child: MAIN (11, 13) FAR 11774 U 0.00
expand: MAIN (11, 0) FAR  w(0) 11774.
	create_child: MAIN (10, 13) FAR 11921 U 0.00
expand: MAIN (10, 0) FAR  w(0) 11921.
	create_child: MAIN (9, 13) FAR 11902 U 0.00
expand: MAIN (9, 0) FAR  w(0) 11902.
	create_child: MAIN (8, 13) FAR 13012 U 0.00
expand: MAIN (8, 0) FAR  w(0) 13012.
	create_child: MAIN (7, 13) FAR 14185 U 0.00
expand: MAIN (7, 0) FAR  w(0) 14185.
	create_child: MAIN (6, 13) FAR 15861 U 0.00
expand: MAIN (6, 0) FAR  w(0) 15861.
	create_child: MAIN (5, 13) FAR 18689 U 0.00
expand: MAIN (5, 0) FAR  w(0) 18689.
	create_child: MAIN (4, 13) FAR 20562 U 0.00
expand: MAIN (4, 0) FAR  w(0) 20562.
	create_child: MAIN (3, 13) FAR 20313 U 0.00
expand: MAIN (3, 0) FAR  w(0) 20313.
	create_child: MAIN (2, 13) FAR 20876 U 0.00
expand: MAIN (2, 0) FAR  w(0) 20876.
	create_child: MAIN (1, 13) FAR 21392 U 0.00
expand: MAIN (1, 0) FAR  w(0) 21392.
	create_child: MAIN (0, 13) FAR 21276 U 0.00
expand: MAIN (0, 0) FAR  w(0) 21276. F 0.00
expand: MAIN (1, 0) FAR  w(0) 21392. F 0.00
expand: MAIN (2, 0) FAR  w(0) 20876.
	create_child: MAIN (1, 13) FAR 21603 U 0.00
expand: MAIN (1, 0) FAR  w(0) 21603. F 0.00
expand: MAIN (2, 0) FAR  w(0) 20876. F 0.00
expand: MAIN (3, 0) FAR  w(0) 20313. F 0.00
expand: MAIN (4, 0) FAR  w(0) 20562. F 0.00
expand: MAIN (5, 0) FAR  w(0) 18689. F 0.00
expand: MAIN (6, 0) FAR  w(0) 15861. F 0.00
expand: MAIN (7, 0) FAR  w(0) 14185. F 0.00
expand: MAIN (8, 0) FAR  w(0) 13012. F 0.00
expand: MAIN (9, 0) FAR  w(0) 11902. F 0.00
expand: MAIN (10, 0) FAR  w(0) 11921.
	create_child: MAIN (9, 13) FAR 22148 U 0.00
expand: MAIN (9, 0) FAR  w(0) 22148.
	create_child: MAIN (8, 13) FAR 22047 U 0.00
expand: MAIN (8, 0) FAR  w(0) 22047.
	create_child: MAIN (7, 13) FAR 22005 U 0.00
expand: MAIN (7, 0) FAR  w(0) 22005.
	create_child: MAIN (6, 13) FAR 22107 U 0.00
expand: MAIN (6, 0) FAR  w(0) 22107.
	create_child: MAIN (5, 13) FAR 21207 U 0.00
expand: MAIN (5, 0) FAR  w(0) 21207.
	create_child: MAIN (4, 13) FAR 20639 U 0.00
expand: MAIN (4, 0) FAR  w(0) 20639.
	create_child: MAIN (3, 13) FAR 22373 U 0.00
expand: MAIN (3, 0) FAR  w(0) 22373.
	create_child: MAIN (2, 13) FAR 22208 U 0.00
expand: MAIN (2, 0) FAR  w(0) 22208.
	create_child: MAIN (1, 13) FAR 22566 U 0.00
expand: MAIN (1, 0) FAR  w(0) 22566.
	create_child: MAIN (0, 13) FAR 20734 U 0.00
expand: MAIN (0, 0) FAR  w(0) 20734. F 0.00
expand: MAIN (1, 0) FAR  w(0) 22566. F 0.00
expand: MAIN (2, 0) FAR  w(0) 22208. F 0.00
expand: MAIN (3, 0) FAR  w(0) 22373.
	create_child: MAIN (2, 13) FAR 22729 U 0.00
expand: MAIN (2, 0) FAR  w(0) 22729. F 0.00
expand: MAIN (3, 0) FAR  w(0) 22373.
	create_child: MAIN (2, 13) FAR 21401 U 0.00
expand: MAIN (2, 0) FAR  w(0) 21401. F 0.00
expand: MAIN (3, 0) FAR  w(0) 22373.
	create_child: MAIN (2, 13) FAR 22986 U 0.00
expand: MAIN (2, 0) FAR  w(0) 22986. F 0.00
expand: MAIN (3, 0) FAR  w(0) 22373. F 0.00
expand: MAIN (4, 0) FAR  w(0) 20639.
	create_child: MAIN (3, 13) FAR 20196 U 0.00
expand: MAIN (3, 0) FAR  w(0) 20196. F 0.00
expand: MAIN (4, 0) FAR  w(0) 20639.
	create_child: MAIN (3, 13) FAR 21728 U 0.00
expand: MAIN (3, 0) FAR  w(0) 21728.
	create_child: MAIN (2, 13) FAR 22980 U 0.00
expand: MAIN (2, 0) FAR  w(0) 22980. F 0.00
expand: MAIN (3, 0) FAR  w(0) 21728. F 0.00
expand: MAIN (4, 0) FAR  w(0) 20639. F 0.00
expand: MAIN (5, 0) FAR  w(0) 21207.
	create_child: MAIN (4, 13) FAR 22484 U 0.00
expand: MAIN (4, 0) FAR  w(0) 22484.
	create_child: MAIN (3, 13) FAR 22004 U 0.00
expand: MAIN (3, 0) FAR  w(0) 22004.
	create_child: MAIN (2, 13) FAR 23151 U 0.00
expand: MAIN (2, 0) FAR  w(0) 23151.
	create_child: MAIN (1, 13) FAR 22739 U 0.00
expand: MAIN (1, 0) FAR  w(0) 22739. F 0.00
expand: MAIN (2, 0) FAR  w(0) 23151. F 0.00
expand: MAIN (3, 0) FAR  w(0) 22004. F 0.00
expand: MAIN (4, 0) FAR  w(0) 22484. F 0.00
expand: MAIN (5, 0) FAR  w(0) 21207. F 0.00
expand: MAIN (6, 0) FAR  w(0) 22107. F 0.00
expand: MAIN (7, 0) FAR  w(0) 22005. F 0.00
expand: MAIN (8, 0) FAR  w(0) 22047.
	create_child: MAIN (7, 13) FAR 23971 U 0.00
expand: MAIN (7, 0) FAR  w(0) 23971.
	create_child: MAIN (6, 13) FAR 24113 U 0.00
expand: MAIN (6, 0) FAR  w(0) 24113. F 0.00
expand: MAIN (7, 0) FAR  w(0) 23971. F 0.00
expand: MAIN (8, 0) FAR  w(0) 22047. F 0.00
expand: MAIN (9, 0) FAR  w(0) 22148.
	create_child: MAIN (8, 13) FAR 23744 U 0.00
expand: MAIN (8, 0) FAR  w(0) 23744.
	create_child: MAIN (7, 13) FAR 23906 U 0.00
expand: MAIN (7, 0) FAR  w(0) 23906.
	create_child: MAIN (6, 13) FAR 23912 U 0.00
expand: MAIN (6, 0) FAR  w(0) 23912.
	create_child: MAIN (5, 13) FAR 24454 U 0.00
expand: MAIN (5, 0) FAR  w(0) 24454. F 0.00
expand: MAIN (6, 0) FAR  w(0) 23912. F 0.00
expand: MAIN (7, 0) FAR  w(0) 23906. F 0.00
expand: MAIN (8, 0) FAR  w(0) 23744. F 0.00
expand: MAIN (9, 0) FAR  w(0) 22148. F 0.00
expand: MAIN (10, 0) FAR  w(0) 11921.
	create_child: MAIN (9, 13) FAR 24657 U 0.00
expand: MAIN (9, 0) FAR  w(0) 24657.
	create_child: MAIN (8, 13) FAR 24673 U 0.00
expand: MAIN (8, 0) FAR  w(0) 24673.
	create_child: MAIN (7, 13) FAR 24878 U 0.00
expand: MAIN (7, 0) FAR  w(0) 24878.
	create_child: MAIN (6, 13) FAR 24891 U 0.00
expand: MAIN (6, 0) FAR  w(0) 24891.
	create_child: MAIN (5, 13) FAR 24682 U 0.00
expand: MAIN (5, 0) FAR  w(0) 24682.
	create_child: MAIN (4, 13) FAR 24706 U 0.00
expand: MAIN (4, 0) FAR  w(0) 24706. F 0.00
expand: MAIN (5, 0) FAR  w(0) 24682. F 0.00
expand: MAIN (6, 0) FAR  w(0) 24891. F 0.00
expand: MAIN (7, 0) FAR  w(0) 24878. F 0.00
expand: MAIN (8, 0) FAR  w(0) 24673. F 0.00
expand: MAIN (9, 0) FAR  w(0) 24657. F 0.00
expand: MAIN (10, 0) FAR  w(0) 11921. F 0.00
expand: MAIN (11, 0) FAR  w(0) 11774.
	create_child: MAIN (10, 13) FAR 25282 U 0.00
expand: MAIN (10, 0) FAR  w(0) 25282. F 0.00
expand: MAIN (11, 0) FAR  w(0) 11774.
	create_child: MAIN (10, 13) FAR 25178 U 0.00
expand: MAIN (10, 0) FAR  w(0) 25178.
	create_child: MAIN (9, 13) FAR 25377 U 0.00
expand: MAIN (9, 0) FAR  w(0) 25377.
	create_child: MAIN (8, 13) FAR 25451 U 0.00
expand: MAIN (8, 0) FAR  w(0) 25451.
	create_child: MAIN (7, 13) FAR 25495 U 0.00
expand: MAIN (7, 0) FAR  w(0) 25495.
	create_child: MAIN (6, 13) FAR 25601 U 0.00
expand: MAIN (6, 0) FAR  w(0) 25601.
	create_child: MAIN (5, 13) FAR 25442 U 0.00
expand: MAIN (5, 0) FAR  w(0) 25442.
	create_child: MAIN (4, 13) FAR 25568 U 0.00
expand: MAIN (4, 0) FAR  w(0) 25568.
	create_child: MAIN (3, 13) FAR 25405 U 0.00
expand: MAIN (3, 0) FAR  w(0) 25405.
	create_child: MAIN (2, 13) FAR 25441 U 0.00
expand: MAIN (2, 0) FAR  w(0) 25441. F 0.00
expand: MAIN (3, 0) FAR  w(0) 25405. F 0.00
expand: MAIN (4, 0) FAR  w(0) 25568. F 0.00
expand: MAIN (5, 0) FAR  w(0) 25442. F 0.00
expand: MAIN (6, 0) FAR  w(0) 25601. F 0.00
expand: MAIN (7, 0) FAR  w(0) 25495. F 0.00
expand: MAIN (8, 0) FAR  w(0) 25451. F 0.00
expand: MAIN (9, 0) FAR  w(0) 25377. F 0.00
expand: MAIN (10, 0) FAR  w(0) 25178. F 0.00
expand: MAIN (11, 0) FAR  w(0) 11774. F 0.00
expand: MAIN (12, 0) FAR  w(0) 3239.
	create_child: MAIN (11, 13) FAR 25981 U 0.00
expand: MAIN (11, 0) FAR  w(0) 25981.
	create_child: MAIN (10, 13) FAR 26383 U 0.00
expand: MAIN (10, 0) FAR  w(0) 26383.
	create_child: MAIN (9, 13) FAR 26278 U 0.00
expand: MAIN (9, 0) FAR  w(0) 26278.
	create_child: MAIN (8, 13) FAR 26416 U 0.00
expand: MAIN (8, 0) FAR  w(0) 26416.
	create_child: MAIN (7, 13) FAR 26489 U 0.00
expand: MAIN (7, 0) FAR  w(0) 26489.
	create_child: MAIN (6, 13) FAR 26452 U 0.00
expand: MAIN (6, 0) FAR  w(0) 26452.
	create_child: MAIN (5, 13) FAR 26589 U 0.00
expand: MAIN (5, 0) FAR  w(0) 26589.
	create_child: MAIN (4, 13) FAR 26310 U 0.00
expand: MAIN (4, 0) FAR  w(0) 26310.
	create_child: MAIN (3, 13) FAR 26664 U 0.00
expand: MAIN (3, 0) FAR  w(0) 26664.
	create_child: MAIN (2, 13) FAR 26792 U 0.00
expand: MAIN (2, 0) FAR  w(0) 26792.
	create_child: MAIN (1, 13) FAR 26273 U 0.00
expand: MAIN (1, 0) FAR  w(0) 26273. T 0.00
is-reachable: MAIN (2, 0) FAR 26792 T 0.00
is-reachable: MAIN (3, 0) FAR 26664 T 0.00
is-reachable: MAIN (4, 0) FAR 26310 T 0.00
is-reachable: MAIN (5, 0) FAR 26589 T 0.00
is-reachable: MAIN (6, 0) FAR 26452 T 0.00
is-reachable: MAIN (7, 0) FAR 26489 T 0.00
is-reachable: MAIN (8, 0) FAR 26416 T 0.00
is-reachable: MAIN (9, 0) FAR 26278 T 0.00
is-reachable: MAIN (10, 0) FAR 26383 T 0.00
is-reachable: MAIN (11, 0) FAR 25981 T 0.00
is-reachable: MAIN (12, 0) FAR 3239 T 0.00
is-reachable: query!0 (13, 0) FAR 1 T 0.01
(spacer::context::check_reachability :time 0.36 :before-memory 8.06 :after-memory 11.01)
BRUNCH_STAT max_query_lvl 13
BRUNCH_STAT num_queries 167
BRUNCH_STAT num_reach_queries 13
BRUNCH_STAT num_reach_reuse 1
BRUNCH_STAT inductive_lvl 0
BRUNCH_STAT max_depth 13
BRUNCH_STAT cex_depth 13
(:SPACER-cex-depth                     13
 :SPACER-max-depth                     13
 :SPACER-max-query-lvl                 13
 :SPACER-num-invariants                18
 :SPACER-num-lemmas                    168
 :SPACER-num-properties                91
 :SPACER-num-queries                   167
 :SPACER-num-reach-queries             13
 :SPACER-num-reuse-reach-facts         1
 :added-eqs                            9420
 :arith-add-rows                       2087
 :arith-assert-diseq                   4102
 :arith-assert-lower                   29952
 :arith-assert-upper                   25116
 :arith-bound-prop                     668
 :arith-conflicts                      83
 :arith-eq-adapter                     2032
 :arith-fixed-eqs                      1950
 :arith-offset-eqs                     781
 :arith-pivots                         733
 :bool-inductive-gen                   155
 :bool-inductive-gen-failures          200
 :conflicts                            681
 :decisions                            59661
 :del-clause                           132
 :final-checks                         408
 :minimized-lits                       11
 :mk-bool-var                          4329
 :mk-clause                            5407
 :num-checks                           998
 :propagations                         309704
 :time.itp_solver.itp_core             0.06
 :time.spacer.init_rules               0.00
 :time.spacer.init_rules.pt.init       0.00
 :time.spacer.solve                    0.73
 :time.spacer.solve.propagate          0.08
 :time.spacer.solve.reach              0.64
 :time.spacer.solve.reach.children     0.17
 :time.spacer.solve.reach.gen.bool_ind 0.11
 :time.spacer.solve.reach.is-reach     0.06
 :time.virtual_solver.proof            0.04
 :time.virtual_solver.smt.total        0.43
 :time.virtual_solver.smt.total.sat    0.30
 :virtual_solver.checks                998
 :virtual_solver.checks.sat            408)
BRUNCH_STAT max_query_lvl 13
BRUNCH_STAT num_queries 167
BRUNCH_STAT num_reach_queries 13
BRUNCH_STAT num_reach_reuse 1
BRUNCH_STAT inductive_lvl 0
BRUNCH_STAT max_depth 13
BRUNCH_STAT cex_depth 13

real	0m0.789s
user	0m0.756s
sys	0m0.032s
