(transform N7datalog13mk_coi_filterE...no-op 0s)
(transform N7datalog25mk_interp_tail_simplifierE...15 rules 0s)
(transform N7datalog27mk_quantifier_instantiationE...no-op 0s)
(transform N7datalog8mk_scaleE...no-op 0s)
(transform N7datalog18mk_karr_invariantsE...no-op 0s)
(transform N7datalog14mk_array_blastE...no-op 0s)
(transform N7datalog22mk_subsumption_checkerE...14 rules 0s)
(transform N7datalog12mk_bit_blastE...no-op 0s)
(transform N7datalog15mk_rule_inlinerE...3 rules 0.00543347s)
(transform N7datalog13mk_coi_filterE...no-op 0s)
(transform N7datalog25mk_interp_tail_simplifierE...3 rules 0s)
(transform N7datalog22mk_subsumption_checkerE...no-op 0s)
(transform N7datalog15mk_rule_inlinerE...no-op 0s)
(transform N7datalog13mk_coi_filterE...no-op 0s)
(transform N7datalog25mk_interp_tail_simplifierE...3 rules 0s)
(transform N7datalog22mk_subsumption_checkerE...no-op 0s)
(transform N7datalog15mk_rule_inlinerE...no-op 0s)
(transform N7datalog22mk_subsumption_checkerE...no-op 0s)
(transform N7datalog15mk_rule_inlinerE...no-op 0s)
(transform N7datalog22mk_subsumption_checkerE...no-op 0s)
(transform N7datalog15mk_rule_inlinerE...no-op 0s)
(transform N7datalog22mk_subsumption_checkerE...no-op 0s)
(transform N7datalog8mk_sliceE...no-op 0s)
expand: query!0 (0, 0) FAR  w(0) 1. F 0.00
(spacer::context::check_reachability :time 0.00 :before-memory 4.52 :after-memory 5.06)
Entering level 1
BRUNCH_STAT max_query_lvl 0
BRUNCH_STAT num_queries 0
BRUNCH_STAT num_reach_queries 0
BRUNCH_STAT num_reach_reuse 0
BRUNCH_STAT inductive_lvl 0
BRUNCH_STAT max_depth 1
BRUNCH_STAT cex_depth 0
expand: query!0 (1, 0) FAR  w(0) 1.
	create_child: MAIN (0, 1) FAR 3343 U 0.00
expand: MAIN (0, 0) FAR  w(0) 3343. F 0.00
expand: query!0 (1, 0) FAR  w(0) 1. F 0.00
(spacer::context::check_reachability :time 0.00 :before-memory 5.06 :after-memory 5.86)
Propagating: 0 1  ! 2 
(spacer::context::propagate :time 0.00 :before-memory 5.86 :after-memory 5.86)
Entering level 2
BRUNCH_STAT max_query_lvl 1
BRUNCH_STAT num_queries 1
BRUNCH_STAT num_reach_queries 0
BRUNCH_STAT num_reach_reuse 0
BRUNCH_STAT inductive_lvl 0
BRUNCH_STAT max_depth 2
BRUNCH_STAT cex_depth 0
expand: query!0 (2, 0) FAR  w(0) 1.
	create_child: MAIN (1, 2) FAR 3343 U 0.00
expand: MAIN (1, 0) FAR  w(0) 3343.
	create_child: MAIN (0, 2) FAR 5129 U 0.00
expand: MAIN (0, 0) FAR  w(0) 5129. F 0.00
expand: MAIN (1, 0) FAR  w(0) 3343.
	create_child: MAIN (0, 2) FAR 5399 U 0.00
expand: MAIN (0, 0) FAR  w(0) 5399. F 0.00
expand: MAIN (1, 0) FAR  w(0) 3343.
	create_child: MAIN (0, 2) FAR 5487 U 0.00
expand: MAIN (0, 0) FAR  w(0) 5487. F 0.00
expand: MAIN (1, 0) FAR  w(0) 3343.
	create_child: MAIN (0, 2) FAR 5633 U 0.00
expand: MAIN (0, 0) FAR  w(0) 5633. F 0.00
expand: MAIN (1, 0) FAR  w(0) 3343.
	create_child: MAIN (0, 2) FAR 5754 U 0.00
expand: MAIN (0, 0) FAR  w(0) 5754. F 0.00
expand: MAIN (1, 0) FAR  w(0) 3343.
	create_child: MAIN (0, 2) FAR 5871 U 0.00
expand: MAIN (0, 0) FAR  w(0) 5871. F 0.00
expand: MAIN (1, 0) FAR  w(0) 3343. F 0.00
expand: query!0 (2, 0) FAR  w(0) 1. F 0.00
(spacer::context::check_reachability :time 0.01 :before-memory 5.86 :after-memory 6.22)
Propagating: 0 1 2  ! 3 
(spacer::context::propagate :time 0.00 :before-memory 6.22 :after-memory 6.22)
Entering level 3
BRUNCH_STAT max_query_lvl 2
BRUNCH_STAT num_queries 8
BRUNCH_STAT num_reach_queries 0
BRUNCH_STAT num_reach_reuse 0
BRUNCH_STAT inductive_lvl 0
BRUNCH_STAT max_depth 3
BRUNCH_STAT cex_depth 0
expand: query!0 (3, 0) FAR  w(0) 1.
	create_child: MAIN (2, 3) FAR 3343 U 0.00
expand: MAIN (2, 0) FAR  w(0) 3343.
	create_child: MAIN (1, 3) FAR 6398 U 0.00
expand: MAIN (1, 0) FAR  w(0) 6398. F 0.00
expand: MAIN (2, 0) FAR  w(0) 3343.
	create_child: MAIN (1, 3) FAR 6459 U 0.00
expand: MAIN (1, 0) FAR  w(0) 6459.
	create_child: MAIN (0, 3) FAR 6591 U 0.00
expand: MAIN (0, 0) FAR  w(0) 6591. F 0.00
expand: MAIN (1, 0) FAR  w(0) 6459.
	create_child: MAIN (0, 3) FAR 6864 U 0.00
expand: MAIN (0, 0) FAR  w(0) 6864. F 0.00
expand: MAIN (1, 0) FAR  w(0) 6459. F 0.00
expand: MAIN (2, 0) FAR  w(0) 3343.
	create_child: MAIN (1, 3) FAR 7276 U 0.00
expand: MAIN (1, 0) FAR  w(0) 7276. F 0.00
expand: MAIN (2, 0) FAR  w(0) 3343.
	create_child: MAIN (1, 3) FAR 7395 U 0.00
expand: MAIN (1, 0) FAR  w(0) 7395. F 0.00
expand: MAIN (2, 0) FAR  w(0) 3343.
	create_child: MAIN (1, 3) FAR 7584 U 0.00
expand: MAIN (1, 0) FAR  w(0) 7584. F 0.00
expand: MAIN (2, 0) FAR  w(0) 3343.
	create_child: MAIN (1, 3) FAR 7641 U 0.00
expand: MAIN (1, 0) FAR  w(0) 7641. F 0.00
expand: MAIN (2, 0) FAR  w(0) 3343.
	create_child: MAIN (1, 3) FAR 7662 U 0.00
expand: MAIN (1, 0) FAR  w(0) 7662. F 0.00
expand: MAIN (2, 0) FAR  w(0) 3343.
	create_child: MAIN (1, 3) FAR 7906 U 0.00
expand: MAIN (1, 0) FAR  w(0) 7906. F 0.00
expand: MAIN (2, 0) FAR  w(0) 3343.
	create_child: MAIN (1, 3) FAR 8031 U 0.00
expand: MAIN (1, 0) FAR  w(0) 8031. F 0.00
expand: MAIN (2, 0) FAR  w(0) 3343.
	create_child: MAIN (1, 3) FAR 8150 U 0.00
expand: MAIN (1, 0) FAR  w(0) 8150. F 0.00
expand: MAIN (2, 0) FAR  w(0) 3343.
	create_child: MAIN (1, 3) FAR 8331 U 0.00
expand: MAIN (1, 0) FAR  w(0) 8331. F 0.00
expand: MAIN (2, 0) FAR  w(0) 3343. F 0.00
expand: query!0 (3, 0) FAR  w(0) 1. F 0.00
(spacer::context::check_reachability :time 0.04 :before-memory 6.22 :after-memory 6.61)
Propagating: 0 1 2 3  ! 4 
(spacer::context::propagate :time 0.01 :before-memory 6.61 :after-memory 6.61)
Entering level 4
BRUNCH_STAT max_query_lvl 3
BRUNCH_STAT num_queries 22
BRUNCH_STAT num_reach_queries 0
BRUNCH_STAT num_reach_reuse 0
BRUNCH_STAT inductive_lvl 0
BRUNCH_STAT max_depth 4
BRUNCH_STAT cex_depth 0
expand: query!0 (4, 0) FAR  w(0) 1.
	create_child: MAIN (3, 4) FAR 3343 U 0.00
expand: MAIN (3, 0) FAR  w(0) 3343.
	create_child: MAIN (2, 4) FAR 8824 U 0.00
expand: MAIN (2, 0) FAR  w(0) 8824.
	create_child: MAIN (1, 4) FAR 9087 U 0.00
expand: MAIN (1, 0) FAR  w(0) 9087. F 0.00
expand: MAIN (2, 0) FAR  w(0) 8824.
	create_child: MAIN (1, 4) FAR 9401 U 0.00
expand: MAIN (1, 0) FAR  w(0) 9401. F 0.00
expand: MAIN (2, 0) FAR  w(0) 8824. F 0.00
expand: MAIN (3, 0) FAR  w(0) 3343. F 0.00
expand: query!0 (4, 0) FAR  w(0) 1. F 0.00
(spacer::context::check_reachability :time 0.01 :before-memory 6.61 :after-memory 6.70)
Propagating: 1 2 3 4  ! 5 
(spacer::context::propagate :time 0.00 :before-memory 6.70 :after-memory 6.70)
Entering level 5
BRUNCH_STAT max_query_lvl 4
BRUNCH_STAT num_queries 26
BRUNCH_STAT num_reach_queries 0
BRUNCH_STAT num_reach_reuse 0
BRUNCH_STAT inductive_lvl 0
BRUNCH_STAT max_depth 5
BRUNCH_STAT cex_depth 0
expand: query!0 (5, 0) FAR  w(0) 1.
	create_child: MAIN (4, 5) FAR 3343 U 0.00
expand: MAIN (4, 0) FAR  w(0) 3343.
	create_child: MAIN (3, 5) FAR 9708 U 0.00
expand: MAIN (3, 0) FAR  w(0) 9708. F 0.00
expand: MAIN (4, 0) FAR  w(0) 3343.
	create_child: MAIN (3, 5) FAR 10126 U 0.00
expand: MAIN (3, 0) FAR  w(0) 10126.
	create_child: MAIN (2, 5) FAR 10225 U 0.00
expand: MAIN (2, 0) FAR  w(0) 10225. F 0.00
expand: MAIN (3, 0) FAR  w(0) 10126.
	create_child: MAIN (2, 5) FAR 10287 U 0.00
expand: MAIN (2, 0) FAR  w(0) 10287.
	create_child: MAIN (1, 5) FAR 10386 U 0.00
expand: MAIN (1, 0) FAR  w(0) 10386. F 0.00
expand: MAIN (2, 0) FAR  w(0) 10287.
	create_child: MAIN (1, 5) FAR 10607 U 0.00
expand: MAIN (1, 0) FAR  w(0) 10607. F 0.00
expand: MAIN (2, 0) FAR  w(0) 10287. F 0.00
expand: MAIN (3, 0) FAR  w(0) 10126. F 0.00
expand: MAIN (4, 0) FAR  w(0) 3343.
	create_child: MAIN (3, 5) FAR 10782 U 0.00
expand: MAIN (3, 0) FAR  w(0) 10782. F 0.00
expand: MAIN (4, 0) FAR  w(0) 3343.
	create_child: MAIN (3, 5) FAR 10957 U 0.00
expand: MAIN (3, 0) FAR  w(0) 10957.
	create_child: MAIN (2, 5) FAR 11209 U 0.00
expand: MAIN (2, 0) FAR  w(0) 11209. F 0.00
expand: MAIN (3, 0) FAR  w(0) 10957.
	create_child: MAIN (2, 5) FAR 10994 U 0.00
expand: MAIN (2, 0) FAR  w(0) 10994. F 0.00
expand: MAIN (3, 0) FAR  w(0) 10957.
	create_child: MAIN (2, 5) FAR 11076 U 0.00
expand: MAIN (2, 0) FAR  w(0) 11076. F 0.00
expand: MAIN (3, 0) FAR  w(0) 10957.
	create_child: MAIN (2, 5) FAR 11610 U 0.00
expand: MAIN (2, 0) FAR  w(0) 11610. F 0.00
expand: MAIN (3, 0) FAR  w(0) 10957.
	create_child: MAIN (2, 5) FAR 11734 U 0.00
expand: MAIN (2, 0) FAR  w(0) 11734. F 0.00
expand: MAIN (3, 0) FAR  w(0) 10957. F 0.00
expand: MAIN (4, 0) FAR  w(0) 3343.
	create_child: MAIN (3, 5) FAR 11977 U 0.00
expand: MAIN (3, 0) FAR  w(0) 11977.
	create_child: MAIN (2, 5) FAR 12204 U 0.00
expand: MAIN (2, 0) FAR  w(0) 12204. F 0.00
expand: MAIN (3, 0) FAR  w(0) 11977. F 0.00
expand: MAIN (4, 0) FAR  w(0) 3343.
	create_child: MAIN (3, 5) FAR 12386 U 0.00
expand: MAIN (3, 0) FAR  w(0) 12386.
	create_child: MAIN (2, 5) FAR 12385 U 0.00
expand: MAIN (2, 0) FAR  w(0) 12385.
	create_child: MAIN (1, 5) FAR 12283 U 0.00
expand: MAIN (1, 0) FAR  w(0) 12283. F 0.00
expand: MAIN (2, 0) FAR  w(0) 12385. F 0.00
expand: MAIN (3, 0) FAR  w(0) 12386. F 0.00
expand: MAIN (4, 0) FAR  w(0) 3343. F 0.00
expand: query!0 (5, 0) FAR  w(0) 1. F 0.00
(spacer::context::check_reachability :time 0.07 :before-memory 6.70 :after-memory 7.40)
Propagating: 1 2 3 4 5  ! 6 
(spacer::context::propagate :time 0.01 :before-memory 7.40 :after-memory 7.40)
Entering level 6
BRUNCH_STAT max_query_lvl 5
BRUNCH_STAT num_queries 45
BRUNCH_STAT num_reach_queries 0
BRUNCH_STAT num_reach_reuse 0
BRUNCH_STAT inductive_lvl 0
BRUNCH_STAT max_depth 6
BRUNCH_STAT cex_depth 0
expand: query!0 (6, 0) FAR  w(0) 1.
	create_child: MAIN (5, 6) FAR 3343 U 0.00
expand: MAIN (5, 0) FAR  w(0) 3343.
	create_child: MAIN (4, 6) FAR 13898 U 0.00
expand: MAIN (4, 0) FAR  w(0) 13898.
	create_child: MAIN (3, 6) FAR 13970 U 0.00
expand: MAIN (3, 0) FAR  w(0) 13970.
	create_child: MAIN (2, 6) FAR 14021 U 0.00
expand: MAIN (2, 0) FAR  w(0) 14021. F 0.00
expand: MAIN (3, 0) FAR  w(0) 13970. F 0.00
expand: MAIN (4, 0) FAR  w(0) 13898. F 0.00
expand: MAIN (5, 0) FAR  w(0) 3343.
	create_child: MAIN (4, 6) FAR 11977 U 0.00
expand: MAIN (4, 0) FAR  w(0) 11977.
	create_child: MAIN (3, 6) FAR 12204 U 0.00
expand: MAIN (3, 0) FAR  w(0) 12204.
	create_child: MAIN (2, 6) FAR 14282 U 0.00
expand: MAIN (2, 0) FAR  w(0) 14282. F 0.00
expand: MAIN (3, 0) FAR  w(0) 12204. F 0.00
expand: MAIN (4, 0) FAR  w(0) 11977. F 0.00
expand: MAIN (5, 0) FAR  w(0) 3343.
	create_child: MAIN (4, 6) FAR 12386 U 0.00
expand: MAIN (4, 0) FAR  w(0) 12386.
	create_child: MAIN (3, 6) FAR 12385 U 0.00
expand: MAIN (3, 0) FAR  w(0) 12385.
	create_child: MAIN (2, 6) FAR 12283 U 0.00
expand: MAIN (2, 0) FAR  w(0) 12283.
	create_child: MAIN (1, 6) FAR 14677 U 0.00
expand: MAIN (1, 0) FAR  w(0) 14677. F 0.00
expand: MAIN (2, 0) FAR  w(0) 12283. F 0.00
expand: MAIN (3, 0) FAR  w(0) 12385. F 0.00
expand: MAIN (4, 0) FAR  w(0) 12386. F 0.00
expand: MAIN (5, 0) FAR  w(0) 3343. F 0.00
expand: query!0 (6, 0) FAR  w(0) 1. F 0.00
(spacer::context::check_reachability :time 0.04 :before-memory 7.40 :after-memory 7.59)
Propagating: 1 2 3 4 5 6  ! 7 
(spacer::context::propagate :time 0.01 :before-memory 7.59 :after-memory 7.59)
Entering level 7
BRUNCH_STAT max_query_lvl 6
BRUNCH_STAT num_queries 56
BRUNCH_STAT num_reach_queries 0
BRUNCH_STAT num_reach_reuse 0
BRUNCH_STAT inductive_lvl 0
BRUNCH_STAT max_depth 7
BRUNCH_STAT cex_depth 0
expand: query!0 (7, 0) FAR  w(0) 1.
	create_child: MAIN (6, 7) FAR 3343 U 0.00
expand: MAIN (6, 0) FAR  w(0) 3343.
	create_child: MAIN (5, 7) FAR 13898 U 0.00
expand: MAIN (5, 0) FAR  w(0) 13898.
	create_child: MAIN (4, 7) FAR 13970 U 0.00
expand: MAIN (4, 0) FAR  w(0) 13970.
	create_child: MAIN (3, 7) FAR 14021 U 0.00
expand: MAIN (3, 0) FAR  w(0) 14021.
	create_child: MAIN (2, 7) FAR 15825 U 0.00
expand: MAIN (2, 0) FAR  w(0) 15825. F 0.00
expand: MAIN (3, 0) FAR  w(0) 14021. F 0.00
expand: MAIN (4, 0) FAR  w(0) 13970. F 0.00
expand: MAIN (5, 0) FAR  w(0) 13898. F 0.00
expand: MAIN (6, 0) FAR  w(0) 3343.
	create_child: MAIN (5, 7) FAR 15716 U 0.00
expand: MAIN (5, 0) FAR  w(0) 15716.
	create_child: MAIN (4, 7) FAR 16124 U 0.00
expand: MAIN (4, 0) FAR  w(0) 16124.
	create_child: MAIN (3, 7) FAR 16350 U 0.00
expand: MAIN (3, 0) FAR  w(0) 16350.
	create_child: MAIN (2, 7) FAR 16362 U 0.00
expand: MAIN (2, 0) FAR  w(0) 16362.
	create_child: MAIN (1, 7) FAR 16331 U 0.00
expand: MAIN (1, 0) FAR  w(0) 16331. F 0.00
expand: MAIN (2, 0) FAR  w(0) 16362.
	create_child: MAIN (1, 7) FAR 16570 U 0.00
expand: MAIN (1, 0) FAR  w(0) 16570. F 0.00
expand: MAIN (2, 0) FAR  w(0) 16362. F 0.00
expand: MAIN (3, 0) FAR  w(0) 16350. F 0.00
expand: MAIN (4, 0) FAR  w(0) 16124. F 0.00
expand: MAIN (5, 0) FAR  w(0) 15716. F 0.00
expand: MAIN (6, 0) FAR  w(0) 3343. F 0.00
expand: query!0 (7, 0) FAR  w(0) 1. F 0.00
(spacer::context::check_reachability :time 0.04 :before-memory 7.59 :after-memory 7.79)
Propagating: 1 2 3 4 5 6 7  ! 8 
(spacer::context::propagate :time 0.01 :before-memory 7.79 :after-memory 7.79)
Entering level 8
BRUNCH_STAT max_query_lvl 7
BRUNCH_STAT num_queries 67
BRUNCH_STAT num_reach_queries 0
BRUNCH_STAT num_reach_reuse 0
BRUNCH_STAT inductive_lvl 0
BRUNCH_STAT max_depth 8
BRUNCH_STAT cex_depth 0
expand: query!0 (8, 0) FAR  w(0) 1.
	create_child: MAIN (7, 8) FAR 3343 U 0.00
expand: MAIN (7, 0) FAR  w(0) 3343.
	create_child: MAIN (6, 8) FAR 17640 U 0.00
expand: MAIN (6, 0) FAR  w(0) 17640.
	create_child: MAIN (5, 8) FAR 17668 U 0.00
expand: MAIN (5, 0) FAR  w(0) 17668.
	create_child: MAIN (4, 8) FAR 17782 U 0.00
expand: MAIN (4, 0) FAR  w(0) 17782.
	create_child: MAIN (3, 8) FAR 17575 U 0.00
expand: MAIN (3, 0) FAR  w(0) 17575.
	create_child: MAIN (2, 8) FAR 17840 U 0.00
expand: MAIN (2, 0) FAR  w(0) 17840. F 0.00
expand: MAIN (3, 0) FAR  w(0) 17575. F 0.00
expand: MAIN (4, 0) FAR  w(0) 17782. F 0.00
expand: MAIN (5, 0) FAR  w(0) 17668. F 0.00
expand: MAIN (6, 0) FAR  w(0) 17640. F 0.00
expand: MAIN (7, 0) FAR  w(0) 3343.
	create_child: MAIN (6, 8) FAR 17860 U 0.00
expand: MAIN (6, 0) FAR  w(0) 17860.
	create_child: MAIN (5, 8) FAR 18210 U 0.00
expand: MAIN (5, 0) FAR  w(0) 18210.
	create_child: MAIN (4, 8) FAR 18216 U 0.00
expand: MAIN (4, 0) FAR  w(0) 18216.
	create_child: MAIN (3, 8) FAR 18337 U 0.00
expand: MAIN (3, 0) FAR  w(0) 18337.
	create_child: MAIN (2, 8) FAR 18444 U 0.00
expand: MAIN (2, 0) FAR  w(0) 18444.
	create_child: MAIN (1, 8) FAR 18533 U 0.00
expand: MAIN (1, 0) FAR  w(0) 18533. F 0.00
expand: MAIN (2, 0) FAR  w(0) 18444. F 0.00
expand: MAIN (3, 0) FAR  w(0) 18337. F 0.00
expand: MAIN (4, 0) FAR  w(0) 18216. F 0.00
expand: MAIN (5, 0) FAR  w(0) 18210. F 0.00
expand: MAIN (6, 0) FAR  w(0) 17860. F 0.00
expand: MAIN (7, 0) FAR  w(0) 3343. F 0.00
expand: query!0 (8, 0) FAR  w(0) 1. F 0.00
(spacer::context::check_reachability :time 0.04 :before-memory 7.79 :after-memory 8.08)
Propagating: 1 2 3 4 5 6 7 8  ! 9 10 
(spacer::context::propagate :time 0.02 :before-memory 8.08 :after-memory 8.17)
Entering level 9
BRUNCH_STAT max_query_lvl 8
BRUNCH_STAT num_queries 79
BRUNCH_STAT num_reach_queries 0
BRUNCH_STAT num_reach_reuse 0
BRUNCH_STAT inductive_lvl 0
BRUNCH_STAT max_depth 9
BRUNCH_STAT cex_depth 0
expand: query!0 (9, 0) FAR  w(0) 1. F 0.00
(spacer::context::check_reachability :time 0.00 :before-memory 8.17 :after-memory 8.17)
Propagating: 9  ! 10 
(spacer::context::propagate :time 0.00 :before-memory 8.17 :after-memory 8.17)
Entering level 10
BRUNCH_STAT max_query_lvl 9
BRUNCH_STAT num_queries 79
BRUNCH_STAT num_reach_queries 0
BRUNCH_STAT num_reach_reuse 0
BRUNCH_STAT inductive_lvl 0
BRUNCH_STAT max_depth 10
BRUNCH_STAT cex_depth 0
expand: query!0 (10, 0) FAR  w(0) 1.
	create_child: MAIN (9, 10) FAR 3343 U 0.00
expand: MAIN (9, 0) FAR  w(0) 3343.
	create_child: MAIN (8, 10) FAR 21210 U 0.00
expand: MAIN (8, 0) FAR  w(0) 21210.
	create_child: MAIN (7, 10) FAR 21303 U 0.00
expand: MAIN (7, 0) FAR  w(0) 21303.
	create_child: MAIN (6, 10) FAR 21362 U 0.00
expand: MAIN (6, 0) FAR  w(0) 21362.
	create_child: MAIN (5, 10) FAR 21398 U 0.00
expand: MAIN (5, 0) FAR  w(0) 21398.
	create_child: MAIN (4, 10) FAR 21305 U 0.00
expand: MAIN (4, 0) FAR  w(0) 21305.
	create_child: MAIN (3, 10) FAR 21298 U 0.00
expand: MAIN (3, 0) FAR  w(0) 21298.
	create_child: MAIN (2, 10) FAR 21723 U 0.00
expand: MAIN (2, 0) FAR  w(0) 21723. F 0.00
expand: MAIN (3, 0) FAR  w(0) 21298. F 0.00
expand: MAIN (4, 0) FAR  w(0) 21305. F 0.00
expand: MAIN (5, 0) FAR  w(0) 21398. F 0.00
expand: MAIN (6, 0) FAR  w(0) 21362. F 0.00
expand: MAIN (7, 0) FAR  w(0) 21303. F 0.00
expand: MAIN (8, 0) FAR  w(0) 21210. F 0.00
expand: MAIN (9, 0) FAR  w(0) 3343.
	create_child: MAIN (8, 10) FAR 17860 U 0.00
expand: MAIN (8, 0) FAR  w(0) 17860.
	create_child: MAIN (7, 10) FAR 18210 U 0.00
expand: MAIN (7, 0) FAR  w(0) 18210.
	create_child: MAIN (6, 10) FAR 18216 U 0.00
expand: MAIN (6, 0) FAR  w(0) 18216.
	create_child: MAIN (5, 10) FAR 18337 U 0.00
expand: MAIN (5, 0) FAR  w(0) 18337.
	create_child: MAIN (4, 10) FAR 18444 U 0.00
expand: MAIN (4, 0) FAR  w(0) 18444.
	create_child: MAIN (3, 10) FAR 18533 U 0.00
expand: MAIN (3, 0) FAR  w(0) 18533.
	create_child: MAIN (2, 10) FAR 22445 U 0.00
expand: MAIN (2, 0) FAR  w(0) 22445.
	create_child: MAIN (1, 10) FAR 22275 U 0.00
expand: MAIN (1, 0) FAR  w(0) 22275. F 0.00
expand: MAIN (2, 0) FAR  w(0) 22445. F 0.00
expand: MAIN (3, 0) FAR  w(0) 18533. F 0.00
expand: MAIN (4, 0) FAR  w(0) 18444.
	create_child: MAIN (3, 10) FAR 22809 U 0.00
expand: MAIN (3, 0) FAR  w(0) 22809. F 0.00
expand: MAIN (4, 0) FAR  w(0) 18444. F 0.00
expand: MAIN (5, 0) FAR  w(0) 18337. F 0.00
expand: MAIN (6, 0) FAR  w(0) 18216. F 0.00
expand: MAIN (7, 0) FAR  w(0) 18210. F 0.00
expand: MAIN (8, 0) FAR  w(0) 17860. F 0.00
expand: MAIN (9, 0) FAR  w(0) 3343.
	create_child: MAIN (8, 10) FAR 23628 U 0.00
expand: MAIN (8, 0) FAR  w(0) 23628.
	create_child: MAIN (7, 10) FAR 23904 U 0.00
expand: MAIN (7, 0) FAR  w(0) 23904.
	create_child: MAIN (6, 10) FAR 23928 U 0.00
expand: MAIN (6, 0) FAR  w(0) 23928.
	create_child: MAIN (5, 10) FAR 24035 U 0.00
expand: MAIN (5, 0) FAR  w(0) 24035.
	create_child: MAIN (4, 10) FAR 24068 U 0.00
expand: MAIN (4, 0) FAR  w(0) 24068.
	create_child: MAIN (3, 10) FAR 23978 U 0.00
expand: MAIN (3, 0) FAR  w(0) 23978. F 0.00
expand: MAIN (4, 0) FAR  w(0) 24068. F 0.00
expand: MAIN (5, 0) FAR  w(0) 24035. F 0.00
expand: MAIN (6, 0) FAR  w(0) 23928. F 0.00
expand: MAIN (7, 0) FAR  w(0) 23904. F 0.00
expand: MAIN (8, 0) FAR  w(0) 23628. F 0.00
expand: MAIN (9, 0) FAR  w(0) 3343.
	create_child: MAIN (8, 10) FAR 24770 U 0.00
expand: MAIN (8, 0) FAR  w(0) 24770.
	create_child: MAIN (7, 10) FAR 25009 U 0.00
expand: MAIN (7, 0) FAR  w(0) 25009.
	create_child: MAIN (6, 10) FAR 25039 U 0.00
expand: MAIN (6, 0) FAR  w(0) 25039.
	create_child: MAIN (5, 10) FAR 25142 U 0.00
expand: MAIN (5, 0) FAR  w(0) 25142.
	create_child: MAIN (4, 10) FAR 25001 U 0.00
expand: MAIN (4, 0) FAR  w(0) 25001.
	create_child: MAIN (3, 10) FAR 24969 U 0.00
expand: MAIN (3, 0) FAR  w(0) 24969.
	create_child: MAIN (2, 10) FAR 25137 U 0.00
expand: MAIN (2, 0) FAR  w(0) 25137. F 0.00
expand: MAIN (3, 0) FAR  w(0) 24969. F 0.00
expand: MAIN (4, 0) FAR  w(0) 25001. F 0.00
expand: MAIN (5, 0) FAR  w(0) 25142. F 0.00
expand: MAIN (6, 0) FAR  w(0) 25039. F 0.00
expand: MAIN (7, 0) FAR  w(0) 25009. F 0.00
expand: MAIN (8, 0) FAR  w(0) 24770. F 0.00
expand: MAIN (9, 0) FAR  w(0) 3343. F 0.00
expand: query!0 (10, 0) FAR  w(0) 1. F 0.00
(spacer::context::check_reachability :time 0.14 :before-memory 8.17 :after-memory 9.32)
Propagating: 1 2 3 4 5 6 7 8 9 10  ! 11 
(spacer::context::propagate :time 0.05 :before-memory 9.32 :after-memory 9.42)
Entering level 11
BRUNCH_STAT max_query_lvl 10
BRUNCH_STAT num_queries 109
BRUNCH_STAT num_reach_queries 0
BRUNCH_STAT num_reach_reuse 0
BRUNCH_STAT inductive_lvl 0
BRUNCH_STAT max_depth 11
BRUNCH_STAT cex_depth 0
expand: query!0 (11, 0) FAR  w(0) 1.
	create_child: MAIN (10, 11) FAR 3343 U 0.00
expand: MAIN (10, 0) FAR  w(0) 3343.
	create_child: MAIN (9, 11) FAR 27305 U 0.00
expand: MAIN (9, 0) FAR  w(0) 27305.
	create_child: MAIN (8, 11) FAR 28077 U 0.00
expand: MAIN (8, 0) FAR  w(0) 28077.
	create_child: MAIN (7, 11) FAR 28073 U 0.00
expand: MAIN (7, 0) FAR  w(0) 28073.
	create_child: MAIN (6, 11) FAR 28125 U 0.00
expand: MAIN (6, 0) FAR  w(0) 28125.
	create_child: MAIN (5, 11) FAR 28217 U 0.00
expand: MAIN (5, 0) FAR  w(0) 28217.
	create_child: MAIN (4, 11) FAR 28053 U 0.00
expand: MAIN (4, 0) FAR  w(0) 28053.
	create_child: MAIN (3, 11) FAR 28113 U 0.00
expand: MAIN (3, 0) FAR  w(0) 28113.
	create_child: MAIN (2, 11) FAR 28418 U 0.00
expand: MAIN (2, 0) FAR  w(0) 28418. F 0.00
expand: MAIN (3, 0) FAR  w(0) 28113. F 0.00
expand: MAIN (4, 0) FAR  w(0) 28053. F 0.00
expand: MAIN (5, 0) FAR  w(0) 28217. F 0.00
expand: MAIN (6, 0) FAR  w(0) 28125. F 0.00
expand: MAIN (7, 0) FAR  w(0) 28073. F 0.00
expand: MAIN (8, 0) FAR  w(0) 28077. F 0.00
expand: MAIN (9, 0) FAR  w(0) 27305. F 0.00
expand: MAIN (10, 0) FAR  w(0) 3343. F 0.00
expand: query!0 (11, 0) FAR  w(0) 1. F 0.00
(spacer::context::check_reachability :time 0.03 :before-memory 9.42 :after-memory 9.63)
Propagating: 2 3 4 5 6 7 8 9 10 11  ! 12 
(spacer::context::propagate :time 0.04 :before-memory 9.63 :after-memory 9.74)
Entering level 12
BRUNCH_STAT max_query_lvl 11
BRUNCH_STAT num_queries 118
BRUNCH_STAT num_reach_queries 0
BRUNCH_STAT num_reach_reuse 0
BRUNCH_STAT inductive_lvl 0
BRUNCH_STAT max_depth 12
BRUNCH_STAT cex_depth 0
expand: query!0 (12, 0) FAR  w(0) 1.
	create_child: MAIN (11, 12) FAR 3343 U 0.00
expand: MAIN (11, 0) FAR  w(0) 3343.
	create_child: MAIN (10, 12) FAR 29898 U 0.00
expand: MAIN (10, 0) FAR  w(0) 29898.
	create_child: MAIN (9, 12) FAR 29973 U 0.00
expand: MAIN (9, 0) FAR  w(0) 29973.
	create_child: MAIN (8, 12) FAR 29971 U 0.00
expand: MAIN (8, 0) FAR  w(0) 29971.
	create_child: MAIN (7, 12) FAR 30068 U 0.00
expand: MAIN (7, 0) FAR  w(0) 30068.
	create_child: MAIN (6, 12) FAR 29996 U 0.00
expand: MAIN (6, 0) FAR  w(0) 29996.
	create_child: MAIN (5, 12) FAR 30139 U 0.00
expand: MAIN (5, 0) FAR  w(0) 30139.
	create_child: MAIN (4, 12) FAR 29993 U 0.00
expand: MAIN (4, 0) FAR  w(0) 29993.
	create_child: MAIN (3, 12) FAR 30293 U 0.00
expand: MAIN (3, 0) FAR  w(0) 30293.
	create_child: MAIN (2, 12) FAR 30200 U 0.00
expand: MAIN (2, 0) FAR  w(0) 30200.
	create_child: MAIN (1, 12) FAR 30326 U 0.00
expand: MAIN (1, 0) FAR  w(0) 30326. F 0.00
expand: MAIN (2, 0) FAR  w(0) 30200. F 0.00
expand: MAIN (3, 0) FAR  w(0) 30293. F 0.00
expand: MAIN (4, 0) FAR  w(0) 29993. F 0.00
expand: MAIN (5, 0) FAR  w(0) 30139. F 0.00
expand: MAIN (6, 0) FAR  w(0) 29996. F 0.00
expand: MAIN (7, 0) FAR  w(0) 30068. F 0.00
expand: MAIN (8, 0) FAR  w(0) 29971. F 0.00
expand: MAIN (9, 0) FAR  w(0) 29973. F 0.00
expand: MAIN (10, 0) FAR  w(0) 29898. F 0.00
expand: MAIN (11, 0) FAR  w(0) 3343. F 0.00
expand: query!0 (12, 0) FAR  w(0) 1. F 0.00
(spacer::context::check_reachability :time 0.04 :before-memory 9.74 :after-memory 9.93)
Propagating: 1 2 3 4 5 6 7 8 9 10 11 12  ! 13 
(spacer::context::propagate :time 0.05 :before-memory 9.93 :after-memory 10.03)
Entering level 13
BRUNCH_STAT max_query_lvl 12
BRUNCH_STAT num_queries 129
BRUNCH_STAT num_reach_queries 0
BRUNCH_STAT num_reach_reuse 0
BRUNCH_STAT inductive_lvl 0
BRUNCH_STAT max_depth 13
BRUNCH_STAT cex_depth 0
expand: query!0 (13, 0) FAR  w(0) 1.
	create_child: MAIN (12, 13) FAR 3343 U 0.00
expand: MAIN (12, 0) FAR  w(0) 3343.
	create_child: MAIN (11, 13) FAR 29898 U 0.00
expand: MAIN (11, 0) FAR  w(0) 29898.
	create_child: MAIN (10, 13) FAR 29973 U 0.00
expand: MAIN (10, 0) FAR  w(0) 29973.
	create_child: MAIN (9, 13) FAR 29971 U 0.00
expand: MAIN (9, 0) FAR  w(0) 29971.
	create_child: MAIN (8, 13) FAR 30068 U 0.00
expand: MAIN (8, 0) FAR  w(0) 30068.
	create_child: MAIN (7, 13) FAR 29996 U 0.00
expand: MAIN (7, 0) FAR  w(0) 29996.
	create_child: MAIN (6, 13) FAR 30139 U 0.00
expand: MAIN (6, 0) FAR  w(0) 30139.
	create_child: MAIN (5, 13) FAR 29993 U 0.00
expand: MAIN (5, 0) FAR  w(0) 29993.
	create_child: MAIN (4, 13) FAR 30293 U 0.00
expand: MAIN (4, 0) FAR  w(0) 30293.
	create_child: MAIN (3, 13) FAR 30200 U 0.00
expand: MAIN (3, 0) FAR  w(0) 30200.
	create_child: MAIN (2, 13) FAR 30326 U 0.00
expand: MAIN (2, 0) FAR  w(0) 30326.
	create_child: MAIN (1, 13) FAR 33698 U 0.00
expand: MAIN (1, 0) FAR  w(0) 33698. F 0.00
expand: MAIN (2, 0) FAR  w(0) 30326. F 0.00
expand: MAIN (3, 0) FAR  w(0) 30200. F 0.00
expand: MAIN (4, 0) FAR  w(0) 30293. F 0.00
expand: MAIN (5, 0) FAR  w(0) 29993. F 0.00
expand: MAIN (6, 0) FAR  w(0) 30139. F 0.00
expand: MAIN (7, 0) FAR  w(0) 29996. F 0.00
expand: MAIN (8, 0) FAR  w(0) 30068. F 0.00
expand: MAIN (9, 0) FAR  w(0) 29971. F 0.00
expand: MAIN (10, 0) FAR  w(0) 29973. F 0.00
expand: MAIN (11, 0) FAR  w(0) 29898. F 0.00
expand: MAIN (12, 0) FAR  w(0) 3343. F 0.00
expand: query!0 (13, 0) FAR  w(0) 1. F 0.00
(spacer::context::check_reachability :time 0.04 :before-memory 10.03 :after-memory 10.13)
Propagating: 1 2 3 4 5 6 7 8 9 10 11 12 13  ! 14 
(spacer::context::propagate :time 0.05 :before-memory 10.13 :after-memory 10.32)
Entering level 14
BRUNCH_STAT max_query_lvl 13
BRUNCH_STAT num_queries 141
BRUNCH_STAT num_reach_queries 0
BRUNCH_STAT num_reach_reuse 0
BRUNCH_STAT inductive_lvl 0
BRUNCH_STAT max_depth 14
BRUNCH_STAT cex_depth 0
expand: query!0 (14, 0) FAR  w(0) 1.
	create_child: MAIN (13, 14) FAR 3343 U 0.00
expand: MAIN (13, 0) FAR  w(0) 3343.
	create_child: MAIN (12, 14) FAR 29898 U 0.00
expand: MAIN (12, 0) FAR  w(0) 29898.
	create_child: MAIN (11, 14) FAR 29973 U 0.00
expand: MAIN (11, 0) FAR  w(0) 29973.
	create_child: MAIN (10, 14) FAR 29971 U 0.00
expand: MAIN (10, 0) FAR  w(0) 29971.
	create_child: MAIN (9, 14) FAR 30068 U 0.00
expand: MAIN (9, 0) FAR  w(0) 30068.
	create_child: MAIN (8, 14) FAR 29996 U 0.00
expand: MAIN (8, 0) FAR  w(0) 29996.
	create_child: MAIN (7, 14) FAR 30139 U 0.00
expand: MAIN (7, 0) FAR  w(0) 30139.
	create_child: MAIN (6, 14) FAR 29993 U 0.00
expand: MAIN (6, 0) FAR  w(0) 29993.
	create_child: MAIN (5, 14) FAR 30293 U 0.00
expand: MAIN (5, 0) FAR  w(0) 30293.
	create_child: MAIN (4, 14) FAR 30200 U 0.00
expand: MAIN (4, 0) FAR  w(0) 30200.
	create_child: MAIN (3, 14) FAR 30326 U 0.00
expand: MAIN (3, 0) FAR  w(0) 30326.
	create_child: MAIN (2, 14) FAR 33698 U 0.00
expand: MAIN (2, 0) FAR  w(0) 33698.
	create_child: MAIN (1, 14) FAR 36868 U 0.00
expand: MAIN (1, 0) FAR  w(0) 36868. F 0.00
expand: MAIN (2, 0) FAR  w(0) 33698. F 0.00
expand: MAIN (3, 0) FAR  w(0) 30326. F 0.00
expand: MAIN (4, 0) FAR  w(0) 30200. F 0.00
expand: MAIN (5, 0) FAR  w(0) 30293. F 0.00
expand: MAIN (6, 0) FAR  w(0) 29993. F 0.00
expand: MAIN (7, 0) FAR  w(0) 30139. F 0.00
expand: MAIN (8, 0) FAR  w(0) 29996. F 0.00
expand: MAIN (9, 0) FAR  w(0) 30068. F 0.00
expand: MAIN (10, 0) FAR  w(0) 29971. F 0.00
expand: MAIN (11, 0) FAR  w(0) 29973. F 0.00
expand: MAIN (12, 0) FAR  w(0) 29898. F 0.00
expand: MAIN (13, 0) FAR  w(0) 3343. F 0.00
expand: query!0 (14, 0) FAR  w(0) 1. F 0.00
(spacer::context::check_reachability :time 0.04 :before-memory 10.32 :after-memory 10.42)
Propagating: 1 2 3 4 5 6 7 8 9 10 11 12 13 14  ! 15 
(spacer::context::propagate :time 0.06 :before-memory 10.42 :after-memory 10.62)
Entering level 15
BRUNCH_STAT max_query_lvl 14
BRUNCH_STAT num_queries 154
BRUNCH_STAT num_reach_queries 0
BRUNCH_STAT num_reach_reuse 0
BRUNCH_STAT inductive_lvl 0
BRUNCH_STAT max_depth 15
BRUNCH_STAT cex_depth 0
expand: query!0 (15, 0) FAR  w(0) 1.
	create_child: MAIN (14, 15) FAR 3343 U 0.00
expand: MAIN (14, 0) FAR  w(0) 3343.
	create_child: MAIN (13, 15) FAR 29898 U 0.00
expand: MAIN (13, 0) FAR  w(0) 29898.
	create_child: MAIN (12, 15) FAR 29973 U 0.00
expand: MAIN (12, 0) FAR  w(0) 29973.
	create_child: MAIN (11, 15) FAR 29971 U 0.00
expand: MAIN (11, 0) FAR  w(0) 29971.
	create_child: MAIN (10, 15) FAR 30068 U 0.00
expand: MAIN (10, 0) FAR  w(0) 30068.
	create_child: MAIN (9, 15) FAR 29996 U 0.00
expand: MAIN (9, 0) FAR  w(0) 29996.
	create_child: MAIN (8, 15) FAR 30139 U 0.00
expand: MAIN (8, 0) FAR  w(0) 30139.
	create_child: MAIN (7, 15) FAR 29993 U 0.00
expand: MAIN (7, 0) FAR  w(0) 29993.
	create_child: MAIN (6, 15) FAR 30293 U 0.00
expand: MAIN (6, 0) FAR  w(0) 30293.
	create_child: MAIN (5, 15) FAR 30200 U 0.00
expand: MAIN (5, 0) FAR  w(0) 30200.
	create_child: MAIN (4, 15) FAR 30326 U 0.00
expand: MAIN (4, 0) FAR  w(0) 30326.
	create_child: MAIN (3, 15) FAR 33698 U 0.00
expand: MAIN (3, 0) FAR  w(0) 33698.
	create_child: MAIN (2, 15) FAR 36868 U 0.00
expand: MAIN (2, 0) FAR  w(0) 36868.
	create_child: MAIN (1, 15) FAR 40493 U 0.00
expand: MAIN (1, 0) FAR  w(0) 40493. F 0.00
expand: MAIN (2, 0) FAR  w(0) 36868. F 0.00
expand: MAIN (3, 0) FAR  w(0) 33698. F 0.00
expand: MAIN (4, 0) FAR  w(0) 30326. F 0.00
expand: MAIN (5, 0) FAR  w(0) 30200. F 0.00
expand: MAIN (6, 0) FAR  w(0) 30293. F 0.00
expand: MAIN (7, 0) FAR  w(0) 29993. F 0.00
expand: MAIN (8, 0) FAR  w(0) 30139. F 0.00
expand: MAIN (9, 0) FAR  w(0) 29996. F 0.00
expand: MAIN (10, 0) FAR  w(0) 30068. F 0.00
expand: MAIN (11, 0) FAR  w(0) 29971. F 0.00
expand: MAIN (12, 0) FAR  w(0) 29973. F 0.00
expand: MAIN (13, 0) FAR  w(0) 29898. F 0.00
expand: MAIN (14, 0) FAR  w(0) 3343. F 0.00
expand: query!0 (15, 0) FAR  w(0) 1. F 0.00
(spacer::context::check_reachability :time 0.05 :before-memory 10.62 :after-memory 10.71)
Propagating: 1 2 3 4 5 6 7 8 9 10 11 12 13 14 15  ! 16 
(spacer::context::propagate :time 0.06 :before-memory 10.71 :after-memory 10.91)
Entering level 16
BRUNCH_STAT max_query_lvl 15
BRUNCH_STAT num_queries 168
BRUNCH_STAT num_reach_queries 0
BRUNCH_STAT num_reach_reuse 0
BRUNCH_STAT inductive_lvl 0
BRUNCH_STAT max_depth 16
BRUNCH_STAT cex_depth 0
expand: query!0 (16, 0) FAR  w(0) 1.
	create_child: MAIN (15, 16) FAR 3343 U 0.00
expand: MAIN (15, 0) FAR  w(0) 3343.
	create_child: MAIN (14, 16) FAR 29898 U 0.00
expand: MAIN (14, 0) FAR  w(0) 29898.
	create_child: MAIN (13, 16) FAR 29973 U 0.00
expand: MAIN (13, 0) FAR  w(0) 29973.
	create_child: MAIN (12, 16) FAR 29971 U 0.00
expand: MAIN (12, 0) FAR  w(0) 29971.
	create_child: MAIN (11, 16) FAR 30068 U 0.00
expand: MAIN (11, 0) FAR  w(0) 30068.
	create_child: MAIN (10, 16) FAR 29996 U 0.00
expand: MAIN (10, 0) FAR  w(0) 29996.
	create_child: MAIN (9, 16) FAR 30139 U 0.00
expand: MAIN (9, 0) FAR  w(0) 30139.
	create_child: MAIN (8, 16) FAR 29993 U 0.00
expand: MAIN (8, 0) FAR  w(0) 29993.
	create_child: MAIN (7, 16) FAR 30293 U 0.00
expand: MAIN (7, 0) FAR  w(0) 30293.
	create_child: MAIN (6, 16) FAR 30200 U 0.00
expand: MAIN (6, 0) FAR  w(0) 30200.
	create_child: MAIN (5, 16) FAR 30326 U 0.00
expand: MAIN (5, 0) FAR  w(0) 30326.
	create_child: MAIN (4, 16) FAR 33698 U 0.00
expand: MAIN (4, 0) FAR  w(0) 33698.
	create_child: MAIN (3, 16) FAR 36868 U 0.00
expand: MAIN (3, 0) FAR  w(0) 36868.
	create_child: MAIN (2, 16) FAR 43517 U 0.00
expand: MAIN (2, 0) FAR  w(0) 43517.
	create_child: MAIN (1, 16) FAR 43636 U 0.00
expand: MAIN (1, 0) FAR  w(0) 43636. F 0.00
expand: MAIN (2, 0) FAR  w(0) 43517. F 0.00
expand: MAIN (3, 0) FAR  w(0) 36868. F 0.00
expand: MAIN (4, 0) FAR  w(0) 33698. F 0.00
expand: MAIN (5, 0) FAR  w(0) 30326. F 0.00
expand: MAIN (6, 0) FAR  w(0) 30200. F 0.00
expand: MAIN (7, 0) FAR  w(0) 30293. F 0.00
expand: MAIN (8, 0) FAR  w(0) 29993. F 0.00
expand: MAIN (9, 0) FAR  w(0) 30139. F 0.00
expand: MAIN (10, 0) FAR  w(0) 29996. F 0.00
expand: MAIN (11, 0) FAR  w(0) 30068. F 0.00
expand: MAIN (12, 0) FAR  w(0) 29971. F 0.00
expand: MAIN (13, 0) FAR  w(0) 29973. F 0.00
expand: MAIN (14, 0) FAR  w(0) 29898. F 0.00
expand: MAIN (15, 0) FAR  w(0) 3343. F 0.00
expand: query!0 (16, 0) FAR  w(0) 1. F 0.00
(spacer::context::check_reachability :time 0.05 :before-memory 10.91 :after-memory 11.13)
Propagating: 1 2 3 4 5 6 7 8 9 10 11 12 13 14 15 16  ! 17 
(spacer::context::propagate :time 0.07 :before-memory 11.13 :after-memory 11.32)
Entering level 17
BRUNCH_STAT max_query_lvl 16
BRUNCH_STAT num_queries 183
BRUNCH_STAT num_reach_queries 0
BRUNCH_STAT num_reach_reuse 0
BRUNCH_STAT inductive_lvl 0
BRUNCH_STAT max_depth 17
BRUNCH_STAT cex_depth 0
expand: query!0 (17, 0) FAR  w(0) 1.
	create_child: MAIN (16, 17) FAR 3343 U 0.00
expand: MAIN (16, 0) FAR  w(0) 3343.
	create_child: MAIN (15, 17) FAR 29898 U 0.01
expand: MAIN (15, 0) FAR  w(0) 29898.
	create_child: MAIN (14, 17) FAR 29973 U 0.00
expand: MAIN (14, 0) FAR  w(0) 29973.
	create_child: MAIN (13, 17) FAR 29971 U 0.00
expand: MAIN (13, 0) FAR  w(0) 29971.
	create_child: MAIN (12, 17) FAR 30068 U 0.00
expand: MAIN (12, 0) FAR  w(0) 30068.
	create_child: MAIN (11, 17) FAR 29996 U 0.00
expand: MAIN (11, 0) FAR  w(0) 29996.
	create_child: MAIN (10, 17) FAR 30139 U 0.00
expand: MAIN (10, 0) FAR  w(0) 30139.
	create_child: MAIN (9, 17) FAR 29993 U 0.00
expand: MAIN (9, 0) FAR  w(0) 29993.
	create_child: MAIN (8, 17) FAR 30293 U 0.00
expand: MAIN (8, 0) FAR  w(0) 30293.
	create_child: MAIN (7, 17) FAR 30200 U 0.00
expand: MAIN (7, 0) FAR  w(0) 30200.
	create_child: MAIN (6, 17) FAR 30326 U 0.00
expand: MAIN (6, 0) FAR  w(0) 30326.
	create_child: MAIN (5, 17) FAR 33698 U 0.00
expand: MAIN (5, 0) FAR  w(0) 33698.
	create_child: MAIN (4, 17) FAR 36868 U 0.00
expand: MAIN (4, 0) FAR  w(0) 36868.
	create_child: MAIN (3, 17) FAR 43517 U 0.00
expand: MAIN (3, 0) FAR  w(0) 43517.
	create_child: MAIN (2, 17) FAR 43636 U 0.00
expand: MAIN (2, 0) FAR  w(0) 43636.
	create_child: MAIN (1, 17) FAR 47397 U 0.00
expand: MAIN (1, 0) FAR  w(0) 47397. F 0.00
expand: MAIN (2, 0) FAR  w(0) 43636. F 0.00
expand: MAIN (3, 0) FAR  w(0) 43517. F 0.00
expand: MAIN (4, 0) FAR  w(0) 36868. F 0.00
expand: MAIN (5, 0) FAR  w(0) 33698. F 0.00
expand: MAIN (6, 0) FAR  w(0) 30326. F 0.00
expand: MAIN (7, 0) FAR  w(0) 30200. F 0.00
expand: MAIN (8, 0) FAR  w(0) 30293. F 0.00
expand: MAIN (9, 0) FAR  w(0) 29993. F 0.00
expand: MAIN (10, 0) FAR  w(0) 30139. F 0.00
expand: MAIN (11, 0) FAR  w(0) 29996. F 0.00
expand: MAIN (12, 0) FAR  w(0) 30068. F 0.00
expand: MAIN (13, 0) FAR  w(0) 29971. F 0.00
expand: MAIN (14, 0) FAR  w(0) 29973. F 0.00
expand: MAIN (15, 0) FAR  w(0) 29898. F 0.00
expand: MAIN (16, 0) FAR  w(0) 3343. F 0.00
expand: query!0 (17, 0) FAR  w(0) 1. F 0.00
(spacer::context::check_reachability :time 0.06 :before-memory 11.32 :after-memory 12.68)
Propagating: 1 2 3 4 5 6 7 8 9 10 11 12 13 14 15 16 17  ! 18 
(spacer::context::propagate :time 0.07 :before-memory 12.68 :after-memory 12.88)
Entering level 18
BRUNCH_STAT max_query_lvl 17
BRUNCH_STAT num_queries 199
BRUNCH_STAT num_reach_queries 0
BRUNCH_STAT num_reach_reuse 0
BRUNCH_STAT inductive_lvl 0
BRUNCH_STAT max_depth 18
BRUNCH_STAT cex_depth 0
expand: query!0 (18, 0) FAR  w(0) 1.
	create_child: MAIN (17, 18) FAR 3343 U 0.00
expand: MAIN (17, 0) FAR  w(0) 3343.
	create_child: MAIN (16, 18) FAR 29898 U 0.00
expand: MAIN (16, 0) FAR  w(0) 29898.
	create_child: MAIN (15, 18) FAR 29973 U 0.00
expand: MAIN (15, 0) FAR  w(0) 29973.
	create_child: MAIN (14, 18) FAR 29971 U 0.00
expand: MAIN (14, 0) FAR  w(0) 29971.
	create_child: MAIN (13, 18) FAR 30068 U 0.00
expand: MAIN (13, 0) FAR  w(0) 30068.
	create_child: MAIN (12, 18) FAR 29996 U 0.00
expand: MAIN (12, 0) FAR  w(0) 29996.
	create_child: MAIN (11, 18) FAR 30139 U 0.00
expand: MAIN (11, 0) FAR  w(0) 30139.
	create_child: MAIN (10, 18) FAR 29993 U 0.00
expand: MAIN (10, 0) FAR  w(0) 29993.
	create_child: MAIN (9, 18) FAR 30293 U 0.00
expand: MAIN (9, 0) FAR  w(0) 30293.
	create_child: MAIN (8, 18) FAR 30200 U 0.00
expand: MAIN (8, 0) FAR  w(0) 30200.
	create_child: MAIN (7, 18) FAR 30326 U 0.00
expand: MAIN (7, 0) FAR  w(0) 30326.
	create_child: MAIN (6, 18) FAR 33698 U 0.00
expand: MAIN (6, 0) FAR  w(0) 33698.
	create_child: MAIN (5, 18) FAR 36868 U 0.00
expand: MAIN (5, 0) FAR  w(0) 36868.
	create_child: MAIN (4, 18) FAR 43517 U 0.00
expand: MAIN (4, 0) FAR  w(0) 43517.
	create_child: MAIN (3, 18) FAR 43636 U 0.00
expand: MAIN (3, 0) FAR  w(0) 43636.
	create_child: MAIN (2, 18) FAR 47397 U 0.00
expand: MAIN (2, 0) FAR  w(0) 47397.
	create_child: MAIN (1, 18) FAR 51067 U 0.00
expand: MAIN (1, 0) FAR  w(0) 51067. F 0.00
expand: MAIN (2, 0) FAR  w(0) 47397. F 0.00
expand: MAIN (3, 0) FAR  w(0) 43636. F 0.00
expand: MAIN (4, 0) FAR  w(0) 43517. F 0.00
expand: MAIN (5, 0) FAR  w(0) 36868. F 0.00
expand: MAIN (6, 0) FAR  w(0) 33698. F 0.00
expand: MAIN (7, 0) FAR  w(0) 30326. F 0.00
expand: MAIN (8, 0) FAR  w(0) 30200. F 0.00
expand: MAIN (9, 0) FAR  w(0) 30293. F 0.00
expand: MAIN (10, 0) FAR  w(0) 29993. F 0.00
expand: MAIN (11, 0) FAR  w(0) 30139. F 0.00
expand: MAIN (12, 0) FAR  w(0) 29996. F 0.00
expand: MAIN (13, 0) FAR  w(0) 30068. F 0.00
expand: MAIN (14, 0) FAR  w(0) 29971. F 0.00
expand: MAIN (15, 0) FAR  w(0) 29973. F 0.00
expand: MAIN (16, 0) FAR  w(0) 29898. F 0.00
expand: MAIN (17, 0) FAR  w(0) 3343. F 0.00
expand: query!0 (18, 0) FAR  w(0) 1. F 0.00
(spacer::context::check_reachability :time 0.06 :before-memory 12.88 :after-memory 13.08)
Propagating: 1 2 3 4 5 6 7 8 9 10 11 12 13 14 15 16 17 18  ! 19 
(spacer::context::propagate :time 0.08 :before-memory 13.08 :after-memory 13.17)
Entering level 19
BRUNCH_STAT max_query_lvl 18
BRUNCH_STAT num_queries 216
BRUNCH_STAT num_reach_queries 0
BRUNCH_STAT num_reach_reuse 0
BRUNCH_STAT inductive_lvl 0
BRUNCH_STAT max_depth 19
BRUNCH_STAT cex_depth 0
expand: query!0 (19, 0) FAR  w(0) 1.
	create_child: MAIN (18, 19) FAR 3343 U 0.00
expand: MAIN (18, 0) FAR  w(0) 3343.
	create_child: MAIN (17, 19) FAR 29898 U 0.00
expand: MAIN (17, 0) FAR  w(0) 29898.
	create_child: MAIN (16, 19) FAR 29973 U 0.00
expand: MAIN (16, 0) FAR  w(0) 29973.
	create_child: MAIN (15, 19) FAR 29971 U 0.00
expand: MAIN (15, 0) FAR  w(0) 29971.
	create_child: MAIN (14, 19) FAR 30068 U 0.00
expand: MAIN (14, 0) FAR  w(0) 30068.
	create_child: MAIN (13, 19) FAR 29996 U 0.00
expand: MAIN (13, 0) FAR  w(0) 29996.
	create_child: MAIN (12, 19) FAR 30139 U 0.00
expand: MAIN (12, 0) FAR  w(0) 30139.
	create_child: MAIN (11, 19) FAR 29993 U 0.00
expand: MAIN (11, 0) FAR  w(0) 29993.
	create_child: MAIN (10, 19) FAR 30293 U 0.00
expand: MAIN (10, 0) FAR  w(0) 30293.
	create_child: MAIN (9, 19) FAR 30200 U 0.00
expand: MAIN (9, 0) FAR  w(0) 30200.
	create_child: MAIN (8, 19) FAR 30326 U 0.00
expand: MAIN (8, 0) FAR  w(0) 30326.
	create_child: MAIN (7, 19) FAR 33698 U 0.00
expand: MAIN (7, 0) FAR  w(0) 33698.
	create_child: MAIN (6, 19) FAR 36868 U 0.00
expand: MAIN (6, 0) FAR  w(0) 36868.
	create_child: MAIN (5, 19) FAR 43517 U 0.00
expand: MAIN (5, 0) FAR  w(0) 43517.
	create_child: MAIN (4, 19) FAR 43636 U 0.00
expand: MAIN (4, 0) FAR  w(0) 43636.
	create_child: MAIN (3, 19) FAR 47397 U 0.00
expand: MAIN (3, 0) FAR  w(0) 47397.
	create_child: MAIN (2, 19) FAR 51067 U 0.00
expand: MAIN (2, 0) FAR  w(0) 51067.
	create_child: MAIN (1, 19) FAR 55075 U 0.00
expand: MAIN (1, 0) FAR  w(0) 55075. F 0.00
expand: MAIN (2, 0) FAR  w(0) 51067. F 0.00
expand: MAIN (3, 0) FAR  w(0) 47397. F 0.00
expand: MAIN (4, 0) FAR  w(0) 43636. F 0.00
expand: MAIN (5, 0) FAR  w(0) 43517. F 0.00
expand: MAIN (6, 0) FAR  w(0) 36868. F 0.00
expand: MAIN (7, 0) FAR  w(0) 33698. F 0.00
expand: MAIN (8, 0) FAR  w(0) 30326. F 0.00
expand: MAIN (9, 0) FAR  w(0) 30200. F 0.00
expand: MAIN (10, 0) FAR  w(0) 30293. F 0.00
expand: MAIN (11, 0) FAR  w(0) 29993. F 0.00
expand: MAIN (12, 0) FAR  w(0) 30139. F 0.00
expand: MAIN (13, 0) FAR  w(0) 29996. F 0.00
expand: MAIN (14, 0) FAR  w(0) 30068. F 0.00
expand: MAIN (15, 0) FAR  w(0) 29971. F 0.00
expand: MAIN (16, 0) FAR  w(0) 29973. F 0.00
expand: MAIN (17, 0) FAR  w(0) 29898. F 0.00
expand: MAIN (18, 0) FAR  w(0) 3343. F 0.00
expand: query!0 (19, 0) FAR  w(0) 1. F 0.00
(spacer::context::check_reachability :time 0.07 :before-memory 13.17 :after-memory 13.37)
Propagating: 1 2 3 4 5 6 7 8 9 10 11 12 13 14 15 16 17 18 19  ! 20 
(spacer::context::propagate :time 0.10 :before-memory 13.37 :after-memory 13.47)
Entering level 20
BRUNCH_STAT max_query_lvl 19
BRUNCH_STAT num_queries 234
BRUNCH_STAT num_reach_queries 0
BRUNCH_STAT num_reach_reuse 0
BRUNCH_STAT inductive_lvl 0
BRUNCH_STAT max_depth 20
BRUNCH_STAT cex_depth 0
expand: query!0 (20, 0) FAR  w(0) 1.
	create_child: MAIN (19, 20) FAR 3343 U 0.00
expand: MAIN (19, 0) FAR  w(0) 3343.
	create_child: MAIN (18, 20) FAR 29898 U 0.00
expand: MAIN (18, 0) FAR  w(0) 29898.
	create_child: MAIN (17, 20) FAR 29973 U 0.00
expand: MAIN (17, 0) FAR  w(0) 29973.
	create_child: MAIN (16, 20) FAR 29971 U 0.00
expand: MAIN (16, 0) FAR  w(0) 29971.
	create_child: MAIN (15, 20) FAR 30068 U 0.00
expand: MAIN (15, 0) FAR  w(0) 30068.
	create_child: MAIN (14, 20) FAR 29996 U 0.00
expand: MAIN (14, 0) FAR  w(0) 29996.
	create_child: MAIN (13, 20) FAR 30139 U 0.00
expand: MAIN (13, 0) FAR  w(0) 30139.
	create_child: MAIN (12, 20) FAR 29993 U 0.00
expand: MAIN (12, 0) FAR  w(0) 29993.
	create_child: MAIN (11, 20) FAR 30293 U 0.00
expand: MAIN (11, 0) FAR  w(0) 30293.
	create_child: MAIN (10, 20) FAR 30200 U 0.00
expand: MAIN (10, 0) FAR  w(0) 30200.
	create_child: MAIN (9, 20) FAR 30326 U 0.00
expand: MAIN (9, 0) FAR  w(0) 30326.
	create_child: MAIN (8, 20) FAR 33698 U 0.00
expand: MAIN (8, 0) FAR  w(0) 33698.
	create_child: MAIN (7, 20) FAR 36868 U 0.00
expand: MAIN (7, 0) FAR  w(0) 36868.
	create_child: MAIN (6, 20) FAR 43517 U 0.00
expand: MAIN (6, 0) FAR  w(0) 43517.
	create_child: MAIN (5, 20) FAR 58782 U 0.00
expand: MAIN (5, 0) FAR  w(0) 58782.
	create_child: MAIN (4, 20) FAR 59170 U 0.00
expand: MAIN (4, 0) FAR  w(0) 59170.
	create_child: MAIN (3, 20) FAR 59090 U 0.00
expand: MAIN (3, 0) FAR  w(0) 59090.
	create_child: MAIN (2, 20) FAR 59079 U 0.00
expand: MAIN (2, 0) FAR  w(0) 59079.
	create_child: MAIN (1, 20) FAR 59339 U 0.00
expand: MAIN (1, 0) FAR  w(0) 59339. F 0.00
expand: MAIN (2, 0) FAR  w(0) 59079. F 0.00
expand: MAIN (3, 0) FAR  w(0) 59090. F 0.00
expand: MAIN (4, 0) FAR  w(0) 59170. F 0.00
expand: MAIN (5, 0) FAR  w(0) 58782. F 0.00
expand: MAIN (6, 0) FAR  w(0) 43517. F 0.00
expand: MAIN (7, 0) FAR  w(0) 36868. F 0.00
expand: MAIN (8, 0) FAR  w(0) 33698. F 0.00
expand: MAIN (9, 0) FAR  w(0) 30326. F 0.00
expand: MAIN (10, 0) FAR  w(0) 30200. F 0.00
expand: MAIN (11, 0) FAR  w(0) 30293. F 0.00
expand: MAIN (12, 0) FAR  w(0) 29993. F 0.00
expand: MAIN (13, 0) FAR  w(0) 30139. F 0.00
expand: MAIN (14, 0) FAR  w(0) 29996. F 0.00
expand: MAIN (15, 0) FAR  w(0) 30068. F 0.00
expand: MAIN (16, 0) FAR  w(0) 29971. F 0.00
expand: MAIN (17, 0) FAR  w(0) 29973. F 0.00
expand: MAIN (18, 0) FAR  w(0) 29898. F 0.00
expand: MAIN (19, 0) FAR  w(0) 3343. F 0.00
expand: query!0 (20, 0) FAR  w(0) 1. F 0.00
(spacer::context::check_reachability :time 0.08 :before-memory 13.47 :after-memory 13.66)
Propagating: 1 2 3 4 5 6 7 8 9 10 11 12 13 14 15 16 17 18 19 20  ! 21 
(spacer::context::propagate :time 0.12 :before-memory 13.66 :after-memory 13.86)
Entering level 21
BRUNCH_STAT max_query_lvl 20
BRUNCH_STAT num_queries 253
BRUNCH_STAT num_reach_queries 0
BRUNCH_STAT num_reach_reuse 0
BRUNCH_STAT inductive_lvl 0
BRUNCH_STAT max_depth 21
BRUNCH_STAT cex_depth 0
expand: query!0 (21, 0) FAR  w(0) 1.
	create_child: MAIN (20, 21) FAR 3343 U 0.00
expand: MAIN (20, 0) FAR  w(0) 3343.
	create_child: MAIN (19, 21) FAR 29898 U 0.00
expand: MAIN (19, 0) FAR  w(0) 29898.
	create_child: MAIN (18, 21) FAR 29973 U 0.00
expand: MAIN (18, 0) FAR  w(0) 29973.
	create_child: MAIN (17, 21) FAR 29971 U 0.00
expand: MAIN (17, 0) FAR  w(0) 29971.
	create_child: MAIN (16, 21) FAR 30068 U 0.00
expand: MAIN (16, 0) FAR  w(0) 30068.
	create_child: MAIN (15, 21) FAR 29996 U 0.00
expand: MAIN (15, 0) FAR  w(0) 29996.
	create_child: MAIN (14, 21) FAR 30139 U 0.00
expand: MAIN (14, 0) FAR  w(0) 30139.
	create_child: MAIN (13, 21) FAR 29993 U 0.00
expand: MAIN (13, 0) FAR  w(0) 29993.
	create_child: MAIN (12, 21) FAR 30293 U 0.00
expand: MAIN (12, 0) FAR  w(0) 30293.
	create_child: MAIN (11, 21) FAR 30200 U 0.00
expand: MAIN (11, 0) FAR  w(0) 30200.
	create_child: MAIN (10, 21) FAR 30326 U 0.00
expand: MAIN (10, 0) FAR  w(0) 30326.
	create_child: MAIN (9, 21) FAR 33698 U 0.00
expand: MAIN (9, 0) FAR  w(0) 33698.
	create_child: MAIN (8, 21) FAR 36868 U 0.00
expand: MAIN (8, 0) FAR  w(0) 36868.
	create_child: MAIN (7, 21) FAR 43517 U 0.00
expand: MAIN (7, 0) FAR  w(0) 43517.
	create_child: MAIN (6, 21) FAR 58782 U 0.00
expand: MAIN (6, 0) FAR  w(0) 58782.
	create_child: MAIN (5, 21) FAR 59170 U 0.00
expand: MAIN (5, 0) FAR  w(0) 59170.
	create_child: MAIN (4, 21) FAR 59090 U 0.00
expand: MAIN (4, 0) FAR  w(0) 59090.
	create_child: MAIN (3, 21) FAR 59079 U 0.00
expand: MAIN (3, 0) FAR  w(0) 59079.
	create_child: MAIN (2, 21) FAR 59339 U 0.00
expand: MAIN (2, 0) FAR  w(0) 59339.
	create_child: MAIN (1, 21) FAR 63593 U 0.00
expand: MAIN (1, 0) FAR  w(0) 63593. F 0.00
expand: MAIN (2, 0) FAR  w(0) 59339. F 0.00
expand: MAIN (3, 0) FAR  w(0) 59079. F 0.00
expand: MAIN (4, 0) FAR  w(0) 59090. F 0.00
expand: MAIN (5, 0) FAR  w(0) 59170. F 0.00
expand: MAIN (6, 0) FAR  w(0) 58782. F 0.00
expand: MAIN (7, 0) FAR  w(0) 43517. F 0.00
expand: MAIN (8, 0) FAR  w(0) 36868. F 0.00
expand: MAIN (9, 0) FAR  w(0) 33698. F 0.00
expand: MAIN (10, 0) FAR  w(0) 30326. F 0.00
expand: MAIN (11, 0) FAR  w(0) 30200. F 0.00
expand: MAIN (12, 0) FAR  w(0) 30293. F 0.00
expand: MAIN (13, 0) FAR  w(0) 29993. F 0.00
expand: MAIN (14, 0) FAR  w(0) 30139. F 0.00
expand: MAIN (15, 0) FAR  w(0) 29996. F 0.00
expand: MAIN (16, 0) FAR  w(0) 30068. F 0.00
expand: MAIN (17, 0) FAR  w(0) 29971. F 0.00
expand: MAIN (18, 0) FAR  w(0) 29973. F 0.00
expand: MAIN (19, 0) FAR  w(0) 29898. F 0.00
expand: MAIN (20, 0) FAR  w(0) 3343. F 0.00
expand: query!0 (21, 0) FAR  w(0) 1. F 0.00
(spacer::context::check_reachability :time 0.08 :before-memory 13.86 :after-memory 14.31)
Propagating: 1 2 3 4 5 6 7 8 9 10 11 12 13 14 15 16 17 18 19 20 21  ! 22 
(spacer::context::propagate :time 0.08 :before-memory 14.31 :after-memory 14.41)
Entering level 22
BRUNCH_STAT max_query_lvl 21
BRUNCH_STAT num_queries 273
BRUNCH_STAT num_reach_queries 0
BRUNCH_STAT num_reach_reuse 0
BRUNCH_STAT inductive_lvl 0
BRUNCH_STAT max_depth 22
BRUNCH_STAT cex_depth 0
expand: query!0 (22, 0) FAR  w(0) 1.
	create_child: MAIN (21, 22) FAR 3343 U 0.00
expand: MAIN (21, 0) FAR  w(0) 3343.
	create_child: MAIN (20, 22) FAR 29898 U 0.00
expand: MAIN (20, 0) FAR  w(0) 29898.
	create_child: MAIN (19, 22) FAR 29973 U 0.00
expand: MAIN (19, 0) FAR  w(0) 29973.
	create_child: MAIN (18, 22) FAR 29971 U 0.00
expand: MAIN (18, 0) FAR  w(0) 29971.
	create_child: MAIN (17, 22) FAR 30068 U 0.00
expand: MAIN (17, 0) FAR  w(0) 30068.
	create_child: MAIN (16, 22) FAR 29996 U 0.00
expand: MAIN (16, 0) FAR  w(0) 29996.
	create_child: MAIN (15, 22) FAR 30139 U 0.00
expand: MAIN (15, 0) FAR  w(0) 30139.
	create_child: MAIN (14, 22) FAR 29993 U 0.00
expand: MAIN (14, 0) FAR  w(0) 29993.
	create_child: MAIN (13, 22) FAR 30293 U 0.00
expand: MAIN (13, 0) FAR  w(0) 30293.
	create_child: MAIN (12, 22) FAR 30200 U 0.00
expand: MAIN (12, 0) FAR  w(0) 30200.
	create_child: MAIN (11, 22) FAR 30326 U 0.00
expand: MAIN (11, 0) FAR  w(0) 30326.
	create_child: MAIN (10, 22) FAR 33698 U 0.00
expand: MAIN (10, 0) FAR  w(0) 33698.
	create_child: MAIN (9, 22) FAR 36868 U 0.00
expand: MAIN (9, 0) FAR  w(0) 36868.
	create_child: MAIN (8, 22) FAR 43517 U 0.00
expand: MAIN (8, 0) FAR  w(0) 43517.
	create_child: MAIN (7, 22) FAR 58782 U 0.00
expand: MAIN (7, 0) FAR  w(0) 58782.
	create_child: MAIN (6, 22) FAR 59170 U 0.00
expand: MAIN (6, 0) FAR  w(0) 59170.
	create_child: MAIN (5, 22) FAR 59090 U 0.00
expand: MAIN (5, 0) FAR  w(0) 59090.
	create_child: MAIN (4, 22) FAR 59079 U 0.00
expand: MAIN (4, 0) FAR  w(0) 59079.
	create_child: MAIN (3, 22) FAR 59339 U 0.00
expand: MAIN (3, 0) FAR  w(0) 59339.
	create_child: MAIN (2, 22) FAR 63593 U 0.00
expand: MAIN (2, 0) FAR  w(0) 63593.
	create_child: MAIN (1, 22) FAR 67547 U 0.00
expand: MAIN (1, 0) FAR  w(0) 67547. F 0.00
expand: MAIN (2, 0) FAR  w(0) 63593. F 0.00
expand: MAIN (3, 0) FAR  w(0) 59339. F 0.00
expand: MAIN (4, 0) FAR  w(0) 59079. F 0.00
expand: MAIN (5, 0) FAR  w(0) 59090. F 0.00
expand: MAIN (6, 0) FAR  w(0) 59170. F 0.00
expand: MAIN (7, 0) FAR  w(0) 58782. F 0.00
expand: MAIN (8, 0) FAR  w(0) 43517. F 0.00
expand: MAIN (9, 0) FAR  w(0) 36868. F 0.00
expand: MAIN (10, 0) FAR  w(0) 33698. F 0.00
expand: MAIN (11, 0) FAR  w(0) 30326. F 0.00
expand: MAIN (12, 0) FAR  w(0) 30200. F 0.00
expand: MAIN (13, 0) FAR  w(0) 30293. F 0.00
expand: MAIN (14, 0) FAR  w(0) 29993. F 0.00
expand: MAIN (15, 0) FAR  w(0) 30139. F 0.00
expand: MAIN (16, 0) FAR  w(0) 29996. F 0.00
expand: MAIN (17, 0) FAR  w(0) 30068. F 0.00
expand: MAIN (18, 0) FAR  w(0) 29971. F 0.00
expand: MAIN (19, 0) FAR  w(0) 29973. F 0.00
expand: MAIN (20, 0) FAR  w(0) 29898. F 0.00
expand: MAIN (21, 0) FAR  w(0) 3343. F 0.00
expand: query!0 (22, 0) FAR  w(0) 1. F 0.00
(spacer::context::check_reachability :time 0.09 :before-memory 14.41 :after-memory 14.60)
Propagating: 1 2 3 4 5 6 7 8 9 10 11 12 13 14 15 16 17 18 19 20 21 22  ! 23 
(spacer::context::propagate :time 0.09 :before-memory 14.60 :after-memory 14.70)
Entering level 23
BRUNCH_STAT max_query_lvl 22
BRUNCH_STAT num_queries 294
BRUNCH_STAT num_reach_queries 0
BRUNCH_STAT num_reach_reuse 0
BRUNCH_STAT inductive_lvl 0
BRUNCH_STAT max_depth 23
BRUNCH_STAT cex_depth 0
expand: query!0 (23, 0) FAR  w(0) 1.
	create_child: MAIN (22, 23) FAR 3343 U 0.00
expand: MAIN (22, 0) FAR  w(0) 3343.
	create_child: MAIN (21, 23) FAR 29898 U 0.00
expand: MAIN (21, 0) FAR  w(0) 29898.
	create_child: MAIN (20, 23) FAR 29973 U 0.00
expand: MAIN (20, 0) FAR  w(0) 29973.
	create_child: MAIN (19, 23) FAR 29971 U 0.00
expand: MAIN (19, 0) FAR  w(0) 29971.
	create_child: MAIN (18, 23) FAR 30068 U 0.00
expand: MAIN (18, 0) FAR  w(0) 30068.
	create_child: MAIN (17, 23) FAR 29996 U 0.00
expand: MAIN (17, 0) FAR  w(0) 29996.
	create_child: MAIN (16, 23) FAR 30139 U 0.00
expand: MAIN (16, 0) FAR  w(0) 30139.
	create_child: MAIN (15, 23) FAR 29993 U 0.00
expand: MAIN (15, 0) FAR  w(0) 29993.
	create_child: MAIN (14, 23) FAR 30293 U 0.00
expand: MAIN (14, 0) FAR  w(0) 30293.
	create_child: MAIN (13, 23) FAR 30200 U 0.00
expand: MAIN (13, 0) FAR  w(0) 30200.
	create_child: MAIN (12, 23) FAR 30326 U 0.00
expand: MAIN (12, 0) FAR  w(0) 30326.
	create_child: MAIN (11, 23) FAR 33698 U 0.00
expand: MAIN (11, 0) FAR  w(0) 33698.
	create_child: MAIN (10, 23) FAR 36868 U 0.00
expand: MAIN (10, 0) FAR  w(0) 36868.
	create_child: MAIN (9, 23) FAR 43517 U 0.00
expand: MAIN (9, 0) FAR  w(0) 43517.
	create_child: MAIN (8, 23) FAR 58782 U 0.00
expand: MAIN (8, 0) FAR  w(0) 58782.
	create_child: MAIN (7, 23) FAR 59170 U 0.00
expand: MAIN (7, 0) FAR  w(0) 59170.
	create_child: MAIN (6, 23) FAR 59090 U 0.00
expand: MAIN (6, 0) FAR  w(0) 59090.
	create_child: MAIN (5, 23) FAR 59079 U 0.00
expand: MAIN (5, 0) FAR  w(0) 59079.
	create_child: MAIN (4, 23) FAR 59339 U 0.00
expand: MAIN (4, 0) FAR  w(0) 59339.
	create_child: MAIN (3, 23) FAR 63593 U 0.00
expand: MAIN (3, 0) FAR  w(0) 63593.
	create_child: MAIN (2, 23) FAR 67547 U 0.00
expand: MAIN (2, 0) FAR  w(0) 67547.
	create_child: MAIN (1, 23) FAR 72365 U 0.00
expand: MAIN (1, 0) FAR  w(0) 72365. F 0.00
expand: MAIN (2, 0) FAR  w(0) 67547. F 0.00
expand: MAIN (3, 0) FAR  w(0) 63593. F 0.00
expand: MAIN (4, 0) FAR  w(0) 59339. F 0.00
expand: MAIN (5, 0) FAR  w(0) 59079. F 0.00
expand: MAIN (6, 0) FAR  w(0) 59090. F 0.00
expand: MAIN (7, 0) FAR  w(0) 59170. F 0.00
expand: MAIN (8, 0) FAR  w(0) 58782. F 0.00
expand: MAIN (9, 0) FAR  w(0) 43517. F 0.00
expand: MAIN (10, 0) FAR  w(0) 36868. F 0.00
expand: MAIN (11, 0) FAR  w(0) 33698. F 0.00
expand: MAIN (12, 0) FAR  w(0) 30326. F 0.00
expand: MAIN (13, 0) FAR  w(0) 30200. F 0.00
expand: MAIN (14, 0) FAR  w(0) 30293. F 0.00
expand: MAIN (15, 0) FAR  w(0) 29993. F 0.00
expand: MAIN (16, 0) FAR  w(0) 30139. F 0.00
expand: MAIN (17, 0) FAR  w(0) 29996. F 0.00
expand: MAIN (18, 0) FAR  w(0) 30068. F 0.00
expand: MAIN (19, 0) FAR  w(0) 29971. F 0.00
expand: MAIN (20, 0) FAR  w(0) 29973. F 0.00
expand: MAIN (21, 0) FAR  w(0) 29898. F 0.00
expand: MAIN (22, 0) FAR  w(0) 3343. F 0.00
expand: query!0 (23, 0) FAR  w(0) 1. F 0.00
(spacer::context::check_reachability :time 0.09 :before-memory 14.70 :after-memory 14.97)
Propagating: 1 2 3 4 5 6 7 8 9 10 11 12 13 14 15 16 17 18 19 20 21 22 23  ! 24 
(spacer::context::propagate :time 0.10 :before-memory 14.97 :after-memory 15.17)
Entering level 24
BRUNCH_STAT max_query_lvl 23
BRUNCH_STAT num_queries 316
BRUNCH_STAT num_reach_queries 0
BRUNCH_STAT num_reach_reuse 0
BRUNCH_STAT inductive_lvl 0
BRUNCH_STAT max_depth 24
BRUNCH_STAT cex_depth 0
expand: query!0 (24, 0) FAR  w(0) 1.
	create_child: MAIN (23, 24) FAR 3343 U 0.00
expand: MAIN (23, 0) FAR  w(0) 3343.
	create_child: MAIN (22, 24) FAR 29898 U 0.00
expand: MAIN (22, 0) FAR  w(0) 29898.
	create_child: MAIN (21, 24) FAR 29973 U 0.00
expand: MAIN (21, 0) FAR  w(0) 29973.
	create_child: MAIN (20, 24) FAR 29971 U 0.00
expand: MAIN (20, 0) FAR  w(0) 29971.
	create_child: MAIN (19, 24) FAR 30068 U 0.00
expand: MAIN (19, 0) FAR  w(0) 30068.
	create_child: MAIN (18, 24) FAR 29996 U 0.00
expand: MAIN (18, 0) FAR  w(0) 29996.
	create_child: MAIN (17, 24) FAR 30139 U 0.00
expand: MAIN (17, 0) FAR  w(0) 30139.
	create_child: MAIN (16, 24) FAR 29993 U 0.00
expand: MAIN (16, 0) FAR  w(0) 29993.
	create_child: MAIN (15, 24) FAR 30293 U 0.00
expand: MAIN (15, 0) FAR  w(0) 30293.
	create_child: MAIN (14, 24) FAR 30200 U 0.00
expand: MAIN (14, 0) FAR  w(0) 30200.
	create_child: MAIN (13, 24) FAR 30326 U 0.00
expand: MAIN (13, 0) FAR  w(0) 30326.
	create_child: MAIN (12, 24) FAR 33698 U 0.00
expand: MAIN (12, 0) FAR  w(0) 33698.
	create_child: MAIN (11, 24) FAR 36868 U 0.00
expand: MAIN (11, 0) FAR  w(0) 36868.
	create_child: MAIN (10, 24) FAR 43517 U 0.00
expand: MAIN (10, 0) FAR  w(0) 43517.
	create_child: MAIN (9, 24) FAR 58782 U 0.00
expand: MAIN (9, 0) FAR  w(0) 58782.
	create_child: MAIN (8, 24) FAR 59170 U 0.00
expand: MAIN (8, 0) FAR  w(0) 59170.
	create_child: MAIN (7, 24) FAR 59090 U 0.00
expand: MAIN (7, 0) FAR  w(0) 59090.
	create_child: MAIN (6, 24) FAR 59079 U 0.00
expand: MAIN (6, 0) FAR  w(0) 59079.
	create_child: MAIN (5, 24) FAR 59339 U 0.00
expand: MAIN (5, 0) FAR  w(0) 59339.
	create_child: MAIN (4, 24) FAR 63593 U 0.00
expand: MAIN (4, 0) FAR  w(0) 63593.
	create_child: MAIN (3, 24) FAR 67547 U 0.00
expand: MAIN (3, 0) FAR  w(0) 67547.
	create_child: MAIN (2, 24) FAR 72365 U 0.00
expand: MAIN (2, 0) FAR  w(0) 72365.
	create_child: MAIN (1, 24) FAR 76615 U 0.00
expand: MAIN (1, 0) FAR  w(0) 76615.
	create_child: MAIN (0, 24) FAR 76518 U 0.00
expand: MAIN (0, 0) FAR  w(0) 76518. F 0.00
expand: MAIN (1, 0) FAR  w(0) 76615. F 0.00
expand: MAIN (2, 0) FAR  w(0) 72365.
	create_child: MAIN (1, 24) FAR 76021 U 0.00
expand: MAIN (1, 0) FAR  w(0) 76021. F 0.00
expand: MAIN (2, 0) FAR  w(0) 72365. F 0.00
expand: MAIN (3, 0) FAR  w(0) 67547.
	create_child: MAIN (2, 24) FAR 76586 U 0.00
expand: MAIN (2, 0) FAR  w(0) 76586.
	create_child: MAIN (1, 24) FAR 76520 U 0.00
expand: MAIN (1, 0) FAR  w(0) 76520. F 0.00
expand: MAIN (2, 0) FAR  w(0) 76586. F 0.00
expand: MAIN (3, 0) FAR  w(0) 67547. F 0.00
expand: MAIN (4, 0) FAR  w(0) 63593.
	create_child: MAIN (3, 24) FAR 76768 U 0.00
expand: MAIN (3, 0) FAR  w(0) 76768.
	create_child: MAIN (2, 24) FAR 76014 U 0.00
expand: MAIN (2, 0) FAR  w(0) 76014.
	create_child: MAIN (1, 24) FAR 76474 U 0.00
expand: MAIN (1, 0) FAR  w(0) 76474. F 0.00
expand: MAIN (2, 0) FAR  w(0) 76014. F 0.00
expand: MAIN (3, 0) FAR  w(0) 76768. F 0.00
expand: MAIN (4, 0) FAR  w(0) 63593. F 0.00
expand: MAIN (5, 0) FAR  w(0) 59339.
	create_child: MAIN (4, 24) FAR 77610 U 0.00
expand: MAIN (4, 0) FAR  w(0) 77610.
	create_child: MAIN (3, 24) FAR 76665 U 0.00
expand: MAIN (3, 0) FAR  w(0) 76665. F 0.00
expand: MAIN (4, 0) FAR  w(0) 77610. F 0.00
expand: MAIN (5, 0) FAR  w(0) 59339. F 0.00
expand: MAIN (6, 0) FAR  w(0) 59079.
	create_child: MAIN (5, 24) FAR 77778 U 0.00
expand: MAIN (5, 0) FAR  w(0) 77778.
	create_child: MAIN (4, 24) FAR 77418 U 0.00
expand: MAIN (4, 0) FAR  w(0) 77418. F 0.00
expand: MAIN (5, 0) FAR  w(0) 77778. F 0.00
expand: MAIN (6, 0) FAR  w(0) 59079. F 0.00
expand: MAIN (7, 0) FAR  w(0) 59090.
	create_child: MAIN (6, 24) FAR 78123 U 0.00
expand: MAIN (6, 0) FAR  w(0) 78123.
	create_child: MAIN (5, 24) FAR 76248 U 0.00
expand: MAIN (5, 0) FAR  w(0) 76248. F 0.00
expand: MAIN (6, 0) FAR  w(0) 78123. F 0.00
expand: MAIN (7, 0) FAR  w(0) 59090. F 0.00
expand: MAIN (8, 0) FAR  w(0) 59170.
	create_child: MAIN (7, 24) FAR 77055 U 0.00
expand: MAIN (7, 0) FAR  w(0) 77055.
	create_child: MAIN (6, 24) FAR 78299 U 0.00
expand: MAIN (6, 0) FAR  w(0) 78299. F 0.00
expand: MAIN (7, 0) FAR  w(0) 77055. F 0.00
expand: MAIN (8, 0) FAR  w(0) 59170. F 0.00
expand: MAIN (9, 0) FAR  w(0) 58782.
	create_child: MAIN (8, 24) FAR 78213 U 0.00
expand: MAIN (8, 0) FAR  w(0) 78213.
	create_child: MAIN (7, 24) FAR 78425 U 0.00
expand: MAIN (7, 0) FAR  w(0) 78425. F 0.00
expand: MAIN (8, 0) FAR  w(0) 78213. F 0.00
expand: MAIN (9, 0) FAR  w(0) 58782. F 0.00
expand: MAIN (10, 0) FAR  w(0) 43517.
	create_child: MAIN (9, 24) FAR 43636 U 0.00
expand: MAIN (9, 0) FAR  w(0) 43636.
	create_child: MAIN (8, 24) FAR 47397 U 0.00
expand: MAIN (8, 0) FAR  w(0) 47397.
	create_child: MAIN (7, 24) FAR 51067 U 0.00
expand: MAIN (7, 0) FAR  w(0) 51067.
	create_child: MAIN (6, 24) FAR 55075 U 0.00
expand: MAIN (6, 0) FAR  w(0) 55075.
	create_child: MAIN (5, 24) FAR 77565 U 0.00
expand: MAIN (5, 0) FAR  w(0) 77565.
	create_child: MAIN (4, 24) FAR 78328 U 0.00
expand: MAIN (4, 0) FAR  w(0) 78328.
	create_child: MAIN (3, 24) FAR 78903 U 0.00
expand: MAIN (3, 0) FAR  w(0) 78903.
	create_child: MAIN (2, 24) FAR 78240 U 0.00
expand: MAIN (2, 0) FAR  w(0) 78240.
	create_child: MAIN (1, 24) FAR 78784 U 0.00
expand: MAIN (1, 0) FAR  w(0) 78784. F 0.00
expand: MAIN (2, 0) FAR  w(0) 78240. F 0.00
expand: MAIN (3, 0) FAR  w(0) 78903. F 0.00
expand: MAIN (4, 0) FAR  w(0) 78328. F 0.00
expand: MAIN (5, 0) FAR  w(0) 77565. F 0.00
expand: MAIN (6, 0) FAR  w(0) 55075. F 0.00
expand: MAIN (7, 0) FAR  w(0) 51067. F 0.00
expand: MAIN (8, 0) FAR  w(0) 47397. F 0.00
expand: MAIN (9, 0) FAR  w(0) 43636. F 0.00
expand: MAIN (10, 0) FAR  w(0) 43517. F 0.00
expand: MAIN (11, 0) FAR  w(0) 36868. F 0.00
expand: MAIN (12, 0) FAR  w(0) 33698. F 0.00
expand: MAIN (13, 0) FAR  w(0) 30326. F 0.00
expand: MAIN (14, 0) FAR  w(0) 30200. F 0.00
expand: MAIN (15, 0) FAR  w(0) 30293. F 0.00
expand: MAIN (16, 0) FAR  w(0) 29993. F 0.00
expand: MAIN (17, 0) FAR  w(0) 30139. F 0.00
expand: MAIN (18, 0) FAR  w(0) 29996. F 0.00
expand: MAIN (19, 0) FAR  w(0) 30068. F 0.00
expand: MAIN (20, 0) FAR  w(0) 29971. F 0.00
expand: MAIN (21, 0) FAR  w(0) 29973. F 0.00
expand: MAIN (22, 0) FAR  w(0) 29898. F 0.00
expand: MAIN (23, 0) FAR  w(0) 3343. F 0.00
expand: query!0 (24, 0) FAR  w(0) 1. F 0.00
(spacer::context::check_reachability :time 0.24 :before-memory 15.17 :after-memory 15.66)
Propagating: 0 1 2 3 4 5 6 7 8 9 10 11 12 13 14 15 16 17 18 19 20 21 22 23 24  ! 25 
(spacer::context::propagate :time 0.14 :before-memory 15.66 :after-memory 16.05)
Entering level 25
BRUNCH_STAT max_query_lvl 24
BRUNCH_STAT num_queries 365
BRUNCH_STAT num_reach_queries 0
BRUNCH_STAT num_reach_reuse 0
BRUNCH_STAT inductive_lvl 0
BRUNCH_STAT max_depth 25
BRUNCH_STAT cex_depth 0
expand: query!0 (25, 0) FAR  w(0) 1.
	create_child: MAIN (24, 25) FAR 3343 U 0.00
expand: MAIN (24, 0) FAR  w(0) 3343.
	create_child: MAIN (23, 25) FAR 86548 U 0.00
expand: MAIN (23, 0) FAR  w(0) 86548.
	create_child: MAIN (22, 25) FAR 86628 U 0.00
expand: MAIN (22, 0) FAR  w(0) 86628.
	create_child: MAIN (21, 25) FAR 86668 U 0.00
expand: MAIN (21, 0) FAR  w(0) 86668.
	create_child: MAIN (20, 25) FAR 86701 U 0.00
expand: MAIN (20, 0) FAR  w(0) 86701.
	create_child: MAIN (19, 25) FAR 86658 U 0.00
expand: MAIN (19, 0) FAR  w(0) 86658.
	create_child: MAIN (18, 25) FAR 86704 U 0.00
expand: MAIN (18, 0) FAR  w(0) 86704.
	create_child: MAIN (17, 25) FAR 86855 U 0.00
expand: MAIN (17, 0) FAR  w(0) 86855.
	create_child: MAIN (16, 25) FAR 86890 U 0.00
expand: MAIN (16, 0) FAR  w(0) 86890.
	create_child: MAIN (15, 25) FAR 86721 U 0.00
expand: MAIN (15, 0) FAR  w(0) 86721.
	create_child: MAIN (14, 25) FAR 86870 U 0.00
expand: MAIN (14, 0) FAR  w(0) 86870.
	create_child: MAIN (13, 25) FAR 86768 U 0.00
expand: MAIN (13, 0) FAR  w(0) 86768.
	create_child: MAIN (12, 25) FAR 86969 U 0.00
expand: MAIN (12, 0) FAR  w(0) 86969.
	create_child: MAIN (11, 25) FAR 86614 U 0.00
expand: MAIN (11, 0) FAR  w(0) 86614.
	create_child: MAIN (10, 25) FAR 86562 U 0.00
expand: MAIN (10, 0) FAR  w(0) 86562.
	create_child: MAIN (9, 25) FAR 86780 U 0.00
expand: MAIN (9, 0) FAR  w(0) 86780.
	create_child: MAIN (8, 25) FAR 87146 U 0.00
expand: MAIN (8, 0) FAR  w(0) 87146.
	create_child: MAIN (7, 25) FAR 87121 U 0.00
expand: MAIN (7, 0) FAR  w(0) 87121.
	create_child: MAIN (6, 25) FAR 86955 U 0.00
expand: MAIN (6, 0) FAR  w(0) 86955.
	create_child: MAIN (5, 25) FAR 87409 U 0.00
expand: MAIN (5, 0) FAR  w(0) 87409.
	create_child: MAIN (4, 25) FAR 87365 U 0.00
expand: MAIN (4, 0) FAR  w(0) 87365.
	create_child: MAIN (3, 25) FAR 87163 U 0.00
expand: MAIN (3, 0) FAR  w(0) 87163.
	create_child: MAIN (2, 25) FAR 87186 U 0.00
expand: MAIN (2, 0) FAR  w(0) 87186.
	create_child: MAIN (1, 25) FAR 87429 U 0.00
expand: MAIN (1, 0) FAR  w(0) 87429. F 0.00
expand: MAIN (2, 0) FAR  w(0) 87186. F 0.00
expand: MAIN (3, 0) FAR  w(0) 87163. F 0.00
expand: MAIN (4, 0) FAR  w(0) 87365. F 0.00
expand: MAIN (5, 0) FAR  w(0) 87409. F 0.00
expand: MAIN (6, 0) FAR  w(0) 86955. F 0.00
expand: MAIN (7, 0) FAR  w(0) 87121. F 0.00
expand: MAIN (8, 0) FAR  w(0) 87146. F 0.00
expand: MAIN (9, 0) FAR  w(0) 86780. F 0.00
expand: MAIN (10, 0) FAR  w(0) 86562. F 0.00
expand: MAIN (11, 0) FAR  w(0) 86614. F 0.00
expand: MAIN (12, 0) FAR  w(0) 86969. F 0.00
expand: MAIN (13, 0) FAR  w(0) 86768. F 0.00
expand: MAIN (14, 0) FAR  w(0) 86870. F 0.00
expand: MAIN (15, 0) FAR  w(0) 86721. F 0.00
expand: MAIN (16, 0) FAR  w(0) 86890. F 0.00
expand: MAIN (17, 0) FAR  w(0) 86855. F 0.00
expand: MAIN (18, 0) FAR  w(0) 86704. F 0.00
expand: MAIN (19, 0) FAR  w(0) 86658. F 0.00
expand: MAIN (20, 0) FAR  w(0) 86701. F 0.00
expand: MAIN (21, 0) FAR  w(0) 86668. F 0.00
expand: MAIN (22, 0) FAR  w(0) 86628. F 0.00
expand: MAIN (23, 0) FAR  w(0) 86548. F 0.00
expand: MAIN (24, 0) FAR  w(0) 3343. F 0.00
expand: query!0 (25, 0) FAR  w(0) 1. F 0.00
(spacer::context::check_reachability :time 0.12 :before-memory 16.05 :after-memory 16.35)
Propagating: 1 2 3 4 5 6 7 8 9 10 11 12 13 14 15 16 17 18 19 20 21 22 23 24 25  ! 26 
(spacer::context::propagate :time 0.13 :before-memory 16.35 :after-memory 16.45)
Entering level 26
BRUNCH_STAT max_query_lvl 25
BRUNCH_STAT num_queries 389
BRUNCH_STAT num_reach_queries 0
BRUNCH_STAT num_reach_reuse 0
BRUNCH_STAT inductive_lvl 0
BRUNCH_STAT max_depth 26
BRUNCH_STAT cex_depth 0
expand: query!0 (26, 0) FAR  w(0) 1.
	create_child: MAIN (25, 26) FAR 3343 U 0.00
expand: MAIN (25, 0) FAR  w(0) 3343.
	create_child: MAIN (24, 26) FAR 86548 U 0.00
expand: MAIN (24, 0) FAR  w(0) 86548.
	create_child: MAIN (23, 26) FAR 86628 U 0.00
expand: MAIN (23, 0) FAR  w(0) 86628.
	create_child: MAIN (22, 26) FAR 86668 U 0.00
expand: MAIN (22, 0) FAR  w(0) 86668.
	create_child: MAIN (21, 26) FAR 86701 U 0.00
expand: MAIN (21, 0) FAR  w(0) 86701.
	create_child: MAIN (20, 26) FAR 86658 U 0.00
expand: MAIN (20, 0) FAR  w(0) 86658.
	create_child: MAIN (19, 26) FAR 86704 U 0.00
expand: MAIN (19, 0) FAR  w(0) 86704.
	create_child: MAIN (18, 26) FAR 86855 U 0.00
expand: MAIN (18, 0) FAR  w(0) 86855.
	create_child: MAIN (17, 26) FAR 86890 U 0.00
expand: MAIN (17, 0) FAR  w(0) 86890.
	create_child: MAIN (16, 26) FAR 86721 U 0.00
expand: MAIN (16, 0) FAR  w(0) 86721.
	create_child: MAIN (15, 26) FAR 86870 U 0.00
expand: MAIN (15, 0) FAR  w(0) 86870.
	create_child: MAIN (14, 26) FAR 86768 U 0.00
expand: MAIN (14, 0) FAR  w(0) 86768.
	create_child: MAIN (13, 26) FAR 86969 U 0.00
expand: MAIN (13, 0) FAR  w(0) 86969.
	create_child: MAIN (12, 26) FAR 86614 U 0.00
expand: MAIN (12, 0) FAR  w(0) 86614.
	create_child: MAIN (11, 26) FAR 86562 U 0.00
expand: MAIN (11, 0) FAR  w(0) 86562.
	create_child: MAIN (10, 26) FAR 91319 U 0.00
expand: MAIN (10, 0) FAR  w(0) 91319.
	create_child: MAIN (9, 26) FAR 91836 U 0.00
expand: MAIN (9, 0) FAR  w(0) 91836.
	create_child: MAIN (8, 26) FAR 91853 U 0.00
expand: MAIN (8, 0) FAR  w(0) 91853.
	create_child: MAIN (7, 26) FAR 91921 U 0.00
expand: MAIN (7, 0) FAR  w(0) 91921.
	create_child: MAIN (6, 26) FAR 91366 U 0.00
expand: MAIN (6, 0) FAR  w(0) 91366.
	create_child: MAIN (5, 26) FAR 92156 U 0.00
expand: MAIN (5, 0) FAR  w(0) 92156.
	create_child: MAIN (4, 26) FAR 92058 U 0.00
expand: MAIN (4, 0) FAR  w(0) 92058.
	create_child: MAIN (3, 26) FAR 91270 U 0.00
expand: MAIN (3, 0) FAR  w(0) 91270.
	create_child: MAIN (2, 26) FAR 92024 U 0.00
expand: MAIN (2, 0) FAR  w(0) 92024.
	create_child: MAIN (1, 26) FAR 91852 U 0.00
expand: MAIN (1, 0) FAR  w(0) 91852. F 0.00
expand: MAIN (2, 0) FAR  w(0) 92024. F 0.00
expand: MAIN (3, 0) FAR  w(0) 91270. F 0.00
expand: MAIN (4, 0) FAR  w(0) 92058. F 0.00
expand: MAIN (5, 0) FAR  w(0) 92156. F 0.00
expand: MAIN (6, 0) FAR  w(0) 91366. F 0.00
expand: MAIN (7, 0) FAR  w(0) 91921. F 0.00
expand: MAIN (8, 0) FAR  w(0) 91853. F 0.00
expand: MAIN (9, 0) FAR  w(0) 91836. F 0.00
expand: MAIN (10, 0) FAR  w(0) 91319. F 0.00
expand: MAIN (11, 0) FAR  w(0) 86562. F 0.00
expand: MAIN (12, 0) FAR  w(0) 86614. F 0.00
expand: MAIN (13, 0) FAR  w(0) 86969. F 0.00
expand: MAIN (14, 0) FAR  w(0) 86768. F 0.00
expand: MAIN (15, 0) FAR  w(0) 86870. F 0.00
expand: MAIN (16, 0) FAR  w(0) 86721. F 0.00
expand: MAIN (17, 0) FAR  w(0) 86890. F 0.00
expand: MAIN (18, 0) FAR  w(0) 86855. F 0.00
expand: MAIN (19, 0) FAR  w(0) 86704. F 0.00
expand: MAIN (20, 0) FAR  w(0) 86658. F 0.00
expand: MAIN (21, 0) FAR  w(0) 86701. F 0.00
expand: MAIN (22, 0) FAR  w(0) 86668. F 0.00
expand: MAIN (23, 0) FAR  w(0) 86628. F 0.00
expand: MAIN (24, 0) FAR  w(0) 86548. F 0.00
expand: MAIN (25, 0) FAR  w(0) 3343. F 0.00
expand: query!0 (26, 0) FAR  w(0) 1. F 0.00
(spacer::context::check_reachability :time 0.12 :before-memory 16.45 :after-memory 16.94)
Propagating: 1 2 3 4 5 6 7 8 9 10 11 12 13 14 15 16 17 18 19 20 21 22 23 24 25 26  ! 27 
(spacer::context::propagate :time 0.15 :before-memory 16.94 :after-memory 19.54)
Entering level 27
BRUNCH_STAT max_query_lvl 26
BRUNCH_STAT num_queries 414
BRUNCH_STAT num_reach_queries 0
BRUNCH_STAT num_reach_reuse 0
BRUNCH_STAT inductive_lvl 0
BRUNCH_STAT max_depth 27
BRUNCH_STAT cex_depth 0
expand: query!0 (27, 0) FAR  w(0) 1.
	create_child: MAIN (26, 27) FAR 3343 U 0.00
expand: MAIN (26, 0) FAR  w(0) 3343.
	create_child: MAIN (25, 27) FAR 86548 U 0.00
expand: MAIN (25, 0) FAR  w(0) 86548.
	create_child: MAIN (24, 27) FAR 86628 U 0.00
expand: MAIN (24, 0) FAR  w(0) 86628.
	create_child: MAIN (23, 27) FAR 86668 U 0.00
expand: MAIN (23, 0) FAR  w(0) 86668.
	create_child: MAIN (22, 27) FAR 86701 U 0.00
expand: MAIN (22, 0) FAR  w(0) 86701.
	create_child: MAIN (21, 27) FAR 86658 U 0.00
expand: MAIN (21, 0) FAR  w(0) 86658.
	create_child: MAIN (20, 27) FAR 86704 U 0.00
expand: MAIN (20, 0) FAR  w(0) 86704.
	create_child: MAIN (19, 27) FAR 86855 U 0.00
expand: MAIN (19, 0) FAR  w(0) 86855.
	create_child: MAIN (18, 27) FAR 86890 U 0.00
expand: MAIN (18, 0) FAR  w(0) 86890.
	create_child: MAIN (17, 27) FAR 86721 U 0.00
expand: MAIN (17, 0) FAR  w(0) 86721.
	create_child: MAIN (16, 27) FAR 86870 U 0.00
expand: MAIN (16, 0) FAR  w(0) 86870.
	create_child: MAIN (15, 27) FAR 86768 U 0.00
expand: MAIN (15, 0) FAR  w(0) 86768.
	create_child: MAIN (14, 27) FAR 86969 U 0.00
expand: MAIN (14, 0) FAR  w(0) 86969.
	create_child: MAIN (13, 27) FAR 86614 U 0.00
expand: MAIN (13, 0) FAR  w(0) 86614.
	create_child: MAIN (12, 27) FAR 86562 U 0.00
expand: MAIN (12, 0) FAR  w(0) 86562.
	create_child: MAIN (11, 27) FAR 91319 U 0.00
expand: MAIN (11, 0) FAR  w(0) 91319.
	create_child: MAIN (10, 27) FAR 96370 U 0.00
expand: MAIN (10, 0) FAR  w(0) 96370.
	create_child: MAIN (9, 27) FAR 96166 U 0.00
expand: MAIN (9, 0) FAR  w(0) 96166.
	create_child: MAIN (8, 27) FAR 96283 U 0.00
expand: MAIN (8, 0) FAR  w(0) 96283.
	create_child: MAIN (7, 27) FAR 96535 U 0.00
expand: MAIN (7, 0) FAR  w(0) 96535.
	create_child: MAIN (6, 27) FAR 96270 U 0.00
expand: MAIN (6, 0) FAR  w(0) 96270.
	create_child: MAIN (5, 27) FAR 96137 U 0.00
expand: MAIN (5, 0) FAR  w(0) 96137.
	create_child: MAIN (4, 27) FAR 96165 U 0.00
expand: MAIN (4, 0) FAR  w(0) 96165.
	create_child: MAIN (3, 27) FAR 96195 U 0.00
expand: MAIN (3, 0) FAR  w(0) 96195.
	create_child: MAIN (2, 27) FAR 96766 U 0.00
expand: MAIN (2, 0) FAR  w(0) 96766.
	create_child: MAIN (1, 27) FAR 97164 U 0.00
expand: MAIN (1, 0) FAR  w(0) 97164. F 0.00
expand: MAIN (2, 0) FAR  w(0) 96766. F 0.00
expand: MAIN (3, 0) FAR  w(0) 96195. F 0.00
expand: MAIN (4, 0) FAR  w(0) 96165. F 0.00
expand: MAIN (5, 0) FAR  w(0) 96137. F 0.00
expand: MAIN (6, 0) FAR  w(0) 96270. F 0.00
expand: MAIN (7, 0) FAR  w(0) 96535. F 0.00
expand: MAIN (8, 0) FAR  w(0) 96283. F 0.00
expand: MAIN (9, 0) FAR  w(0) 96166. F 0.00
expand: MAIN (10, 0) FAR  w(0) 96370. F 0.00
expand: MAIN (11, 0) FAR  w(0) 91319. F 0.00
expand: MAIN (12, 0) FAR  w(0) 86562. F 0.00
expand: MAIN (13, 0) FAR  w(0) 86614. F 0.00
expand: MAIN (14, 0) FAR  w(0) 86969. F 0.00
expand: MAIN (15, 0) FAR  w(0) 86768. F 0.00
expand: MAIN (16, 0) FAR  w(0) 86870. F 0.00
expand: MAIN (17, 0) FAR  w(0) 86721. F 0.00
expand: MAIN (18, 0) FAR  w(0) 86890. F 0.00
expand: MAIN (19, 0) FAR  w(0) 86855. F 0.00
expand: MAIN (20, 0) FAR  w(0) 86704. F 0.00
expand: MAIN (21, 0) FAR  w(0) 86658. F 0.00
expand: MAIN (22, 0) FAR  w(0) 86701. F 0.00
expand: MAIN (23, 0) FAR  w(0) 86668. F 0.00
expand: MAIN (24, 0) FAR  w(0) 86628. F 0.00
expand: MAIN (25, 0) FAR  w(0) 86548. F 0.00
expand: MAIN (26, 0) FAR  w(0) 3343. F 0.00
expand: query!0 (27, 0) FAR  w(0) 1. F 0.00
(spacer::context::check_reachability :time 0.12 :before-memory 19.54 :after-memory 19.93)
Propagating: 1 2 3 4 5 6 7 8 9 10 11 12 13 14 15 16 17 18 19 20 21 22 23 24 25 26 27  ! 28 
(spacer::context::propagate :time 0.14 :before-memory 19.93 :after-memory 20.12)
Entering level 28
BRUNCH_STAT max_query_lvl 27
BRUNCH_STAT num_queries 440
BRUNCH_STAT num_reach_queries 0
BRUNCH_STAT num_reach_reuse 0
BRUNCH_STAT inductive_lvl 0
BRUNCH_STAT max_depth 28
BRUNCH_STAT cex_depth 0
expand: query!0 (28, 0) FAR  w(0) 1.
	create_child: MAIN (27, 28) FAR 3343 U 0.00
expand: MAIN (27, 0) FAR  w(0) 3343.
	create_child: MAIN (26, 28) FAR 86548 U 0.00
expand: MAIN (26, 0) FAR  w(0) 86548.
	create_child: MAIN (25, 28) FAR 86628 U 0.00
expand: MAIN (25, 0) FAR  w(0) 86628.
	create_child: MAIN (24, 28) FAR 86668 U 0.00
expand: MAIN (24, 0) FAR  w(0) 86668.
	create_child: MAIN (23, 28) FAR 86701 U 0.00
expand: MAIN (23, 0) FAR  w(0) 86701.
	create_child: MAIN (22, 28) FAR 86658 U 0.00
expand: MAIN (22, 0) FAR  w(0) 86658.
	create_child: MAIN (21, 28) FAR 86704 U 0.00
expand: MAIN (21, 0) FAR  w(0) 86704.
	create_child: MAIN (20, 28) FAR 86855 U 0.00
expand: MAIN (20, 0) FAR  w(0) 86855.
	create_child: MAIN (19, 28) FAR 86890 U 0.00
expand: MAIN (19, 0) FAR  w(0) 86890.
	create_child: MAIN (18, 28) FAR 86721 U 0.00
expand: MAIN (18, 0) FAR  w(0) 86721.
	create_child: MAIN (17, 28) FAR 86870 U 0.00
expand: MAIN (17, 0) FAR  w(0) 86870.
	create_child: MAIN (16, 28) FAR 86768 U 0.00
expand: MAIN (16, 0) FAR  w(0) 86768.
	create_child: MAIN (15, 28) FAR 86969 U 0.00
expand: MAIN (15, 0) FAR  w(0) 86969.
	create_child: MAIN (14, 28) FAR 86614 U 0.00
expand: MAIN (14, 0) FAR  w(0) 86614.
	create_child: MAIN (13, 28) FAR 86562 U 0.00
expand: MAIN (13, 0) FAR  w(0) 86562.
	create_child: MAIN (12, 28) FAR 91319 U 0.00
expand: MAIN (12, 0) FAR  w(0) 91319.
	create_child: MAIN (11, 28) FAR 96370 U 0.00
expand: MAIN (11, 0) FAR  w(0) 96370.
	create_child: MAIN (10, 28) FAR 101085 U 0.00
expand: MAIN (10, 0) FAR  w(0) 101085.
	create_child: MAIN (9, 28) FAR 101207 U 0.00
expand: MAIN (9, 0) FAR  w(0) 101207.
	create_child: MAIN (8, 28) FAR 101542 U 0.00
expand: MAIN (8, 0) FAR  w(0) 101542.
	create_child: MAIN (7, 28) FAR 100867 U 0.00
expand: MAIN (7, 0) FAR  w(0) 100867.
	create_child: MAIN (6, 28) FAR 101330 U 0.00
expand: MAIN (6, 0) FAR  w(0) 101330.
	create_child: MAIN (5, 28) FAR 101729 U 0.00
expand: MAIN (5, 0) FAR  w(0) 101729.
	create_child: MAIN (4, 28) FAR 101680 U 0.00
expand: MAIN (4, 0) FAR  w(0) 101680.
	create_child: MAIN (3, 28) FAR 101473 U 0.00
expand: MAIN (3, 0) FAR  w(0) 101473.
	create_child: MAIN (2, 28) FAR 101663 U 0.00
expand: MAIN (2, 0) FAR  w(0) 101663.
	create_child: MAIN (1, 28) FAR 101549 U 0.00
expand: MAIN (1, 0) FAR  w(0) 101549. F 0.00
expand: MAIN (2, 0) FAR  w(0) 101663. F 0.00
expand: MAIN (3, 0) FAR  w(0) 101473. F 0.00
expand: MAIN (4, 0) FAR  w(0) 101680. F 0.00
expand: MAIN (5, 0) FAR  w(0) 101729. F 0.00
expand: MAIN (6, 0) FAR  w(0) 101330. F 0.00
expand: MAIN (7, 0) FAR  w(0) 100867. F 0.00
expand: MAIN (8, 0) FAR  w(0) 101542. F 0.00
expand: MAIN (9, 0) FAR  w(0) 101207. F 0.00
expand: MAIN (10, 0) FAR  w(0) 101085. F 0.00
expand: MAIN (11, 0) FAR  w(0) 96370. F 0.00
expand: MAIN (12, 0) FAR  w(0) 91319. F 0.00
expand: MAIN (13, 0) FAR  w(0) 86562. F 0.00
expand: MAIN (14, 0) FAR  w(0) 86614. F 0.00
expand: MAIN (15, 0) FAR  w(0) 86969. F 0.00
expand: MAIN (16, 0) FAR  w(0) 86768. F 0.00
expand: MAIN (17, 0) FAR  w(0) 86870. F 0.00
expand: MAIN (18, 0) FAR  w(0) 86721. F 0.00
expand: MAIN (19, 0) FAR  w(0) 86890. F 0.00
expand: MAIN (20, 0) FAR  w(0) 86855. F 0.00
expand: MAIN (21, 0) FAR  w(0) 86704. F 0.00
expand: MAIN (22, 0) FAR  w(0) 86658. F 0.00
expand: MAIN (23, 0) FAR  w(0) 86701. F 0.00
expand: MAIN (24, 0) FAR  w(0) 86668. F 0.00
expand: MAIN (25, 0) FAR  w(0) 86628. F 0.00
expand: MAIN (26, 0) FAR  w(0) 86548. F 0.00
expand: MAIN (27, 0) FAR  w(0) 3343. F 0.00
expand: query!0 (28, 0) FAR  w(0) 1. F 0.00
(spacer::context::check_reachability :time 0.13 :before-memory 20.12 :after-memory 20.33)
Propagating: 1 2 3 4 5 6 7 8 9 10 11 12 13 14 15 16 17 18 19 20 21 22 23 24 25 26 27 28  ! 29 
(spacer::context::propagate :time 0.15 :before-memory 20.33 :after-memory 20.62)
Entering level 29
BRUNCH_STAT max_query_lvl 28
BRUNCH_STAT num_queries 467
BRUNCH_STAT num_reach_queries 0
BRUNCH_STAT num_reach_reuse 0
BRUNCH_STAT inductive_lvl 0
BRUNCH_STAT max_depth 29
BRUNCH_STAT cex_depth 0
expand: query!0 (29, 0) FAR  w(0) 1.
	create_child: MAIN (28, 29) FAR 3343 U 0.00
expand: MAIN (28, 0) FAR  w(0) 3343.
	create_child: MAIN (27, 29) FAR 86548 U 0.00
expand: MAIN (27, 0) FAR  w(0) 86548.
	create_child: MAIN (26, 29) FAR 86628 U 0.00
expand: MAIN (26, 0) FAR  w(0) 86628.
	create_child: MAIN (25, 29) FAR 86668 U 0.00
expand: MAIN (25, 0) FAR  w(0) 86668.
	create_child: MAIN (24, 29) FAR 86701 U 0.00
expand: MAIN (24, 0) FAR  w(0) 86701.
	create_child: MAIN (23, 29) FAR 86658 U 0.00
expand: MAIN (23, 0) FAR  w(0) 86658.
	create_child: MAIN (22, 29) FAR 86704 U 0.00
expand: MAIN (22, 0) FAR  w(0) 86704.
	create_child: MAIN (21, 29) FAR 86855 U 0.00
expand: MAIN (21, 0) FAR  w(0) 86855.
	create_child: MAIN (20, 29) FAR 86890 U 0.00
expand: MAIN (20, 0) FAR  w(0) 86890.
	create_child: MAIN (19, 29) FAR 86721 U 0.00
expand: MAIN (19, 0) FAR  w(0) 86721.
	create_child: MAIN (18, 29) FAR 86870 U 0.00
expand: MAIN (18, 0) FAR  w(0) 86870.
	create_child: MAIN (17, 29) FAR 86768 U 0.00
expand: MAIN (17, 0) FAR  w(0) 86768.
	create_child: MAIN (16, 29) FAR 86969 U 0.00
expand: MAIN (16, 0) FAR  w(0) 86969.
	create_child: MAIN (15, 29) FAR 86614 U 0.00
expand: MAIN (15, 0) FAR  w(0) 86614.
	create_child: MAIN (14, 29) FAR 86562 U 0.00
expand: MAIN (14, 0) FAR  w(0) 86562.
	create_child: MAIN (13, 29) FAR 91319 U 0.00
expand: MAIN (13, 0) FAR  w(0) 91319.
	create_child: MAIN (12, 29) FAR 96370 U 0.00
expand: MAIN (12, 0) FAR  w(0) 96370.
	create_child: MAIN (11, 29) FAR 101085 U 0.00
expand: MAIN (11, 0) FAR  w(0) 101085.
	create_child: MAIN (10, 29) FAR 106123 U 0.00
expand: MAIN (10, 0) FAR  w(0) 106123.
	create_child: MAIN (9, 29) FAR 106671 U 0.00
expand: MAIN (9, 0) FAR  w(0) 106671.
	create_child: MAIN (8, 29) FAR 106477 U 0.00
expand: MAIN (8, 0) FAR  w(0) 106477.
	create_child: MAIN (7, 29) FAR 106345 U 0.00
expand: MAIN (7, 0) FAR  w(0) 106345.
	create_child: MAIN (6, 29) FAR 106655 U 0.00
expand: MAIN (6, 0) FAR  w(0) 106655.
	create_child: MAIN (5, 29) FAR 106714 U 0.00
expand: MAIN (5, 0) FAR  w(0) 106714.
	create_child: MAIN (4, 29) FAR 105886 U 0.00
expand: MAIN (4, 0) FAR  w(0) 105886.
	create_child: MAIN (3, 29) FAR 106689 U 0.00
expand: MAIN (3, 0) FAR  w(0) 106689.
	create_child: MAIN (2, 29) FAR 106357 U 0.00
expand: MAIN (2, 0) FAR  w(0) 106357.
	create_child: MAIN (1, 29) FAR 106492 U 0.00
expand: MAIN (1, 0) FAR  w(0) 106492. F 0.00
expand: MAIN (2, 0) FAR  w(0) 106357. F 0.00
expand: MAIN (3, 0) FAR  w(0) 106689. F 0.00
expand: MAIN (4, 0) FAR  w(0) 105886. F 0.00
expand: MAIN (5, 0) FAR  w(0) 106714. F 0.00
expand: MAIN (6, 0) FAR  w(0) 106655. F 0.00
expand: MAIN (7, 0) FAR  w(0) 106345. F 0.00
expand: MAIN (8, 0) FAR  w(0) 106477. F 0.00
expand: MAIN (9, 0) FAR  w(0) 106671. F 0.00
expand: MAIN (10, 0) FAR  w(0) 106123. F 0.00
expand: MAIN (11, 0) FAR  w(0) 101085. F 0.00
expand: MAIN (12, 0) FAR  w(0) 96370. F 0.00
expand: MAIN (13, 0) FAR  w(0) 91319. F 0.00
expand: MAIN (14, 0) FAR  w(0) 86562. F 0.00
expand: MAIN (15, 0) FAR  w(0) 86614. F 0.00
expand: MAIN (16, 0) FAR  w(0) 86969. F 0.00
expand: MAIN (17, 0) FAR  w(0) 86768. F 0.00
expand: MAIN (18, 0) FAR  w(0) 86870. F 0.00
expand: MAIN (19, 0) FAR  w(0) 86721. F 0.00
expand: MAIN (20, 0) FAR  w(0) 86890. F 0.00
expand: MAIN (21, 0) FAR  w(0) 86855. F 0.00
expand: MAIN (22, 0) FAR  w(0) 86704. F 0.00
expand: MAIN (23, 0) FAR  w(0) 86658. F 0.00
expand: MAIN (24, 0) FAR  w(0) 86701. F 0.00
expand: MAIN (25, 0) FAR  w(0) 86668. F 0.00
expand: MAIN (26, 0) FAR  w(0) 86628. F 0.00
expand: MAIN (27, 0) FAR  w(0) 86548. F 0.00
expand: MAIN (28, 0) FAR  w(0) 3343. F 0.00
expand: query!0 (29, 0) FAR  w(0) 1. F 0.00
(spacer::context::check_reachability :time 0.14 :before-memory 20.62 :after-memory 20.94)
Propagating: 1 2 3 4 5 6 7 8 9 10 11 12 13 14 15 16 17 18 19 20 21 22 23 24 25 26 27 28 29  ! 30 
(spacer::context::propagate :time 0.16 :before-memory 20.94 :after-memory 21.04)
Entering level 30
BRUNCH_STAT max_query_lvl 29
BRUNCH_STAT num_queries 495
BRUNCH_STAT num_reach_queries 0
BRUNCH_STAT num_reach_reuse 0
BRUNCH_STAT inductive_lvl 0
BRUNCH_STAT max_depth 30
BRUNCH_STAT cex_depth 0
expand: query!0 (30, 0) FAR  w(0) 1.
	create_child: MAIN (29, 30) FAR 3343 U 0.00
expand: MAIN (29, 0) FAR  w(0) 3343.
	create_child: MAIN (28, 30) FAR 86548 U 0.00
expand: MAIN (28, 0) FAR  w(0) 86548.
	create_child: MAIN (27, 30) FAR 86628 U 0.00
expand: MAIN (27, 0) FAR  w(0) 86628.
	create_child: MAIN (26, 30) FAR 86668 U 0.00
expand: MAIN (26, 0) FAR  w(0) 86668.
	create_child: MAIN (25, 30) FAR 86701 U 0.00
expand: MAIN (25, 0) FAR  w(0) 86701.
	create_child: MAIN (24, 30) FAR 86658 U 0.00
expand: MAIN (24, 0) FAR  w(0) 86658.
	create_child: MAIN (23, 30) FAR 86704 U 0.00
expand: MAIN (23, 0) FAR  w(0) 86704.
	create_child: MAIN (22, 30) FAR 86855 U 0.00
expand: MAIN (22, 0) FAR  w(0) 86855.
	create_child: MAIN (21, 30) FAR 86890 U 0.00
expand: MAIN (21, 0) FAR  w(0) 86890.
	create_child: MAIN (20, 30) FAR 86721 U 0.00
expand: MAIN (20, 0) FAR  w(0) 86721.
	create_child: MAIN (19, 30) FAR 86870 U 0.00
expand: MAIN (19, 0) FAR  w(0) 86870.
	create_child: MAIN (18, 30) FAR 86768 U 0.00
expand: MAIN (18, 0) FAR  w(0) 86768.
	create_child: MAIN (17, 30) FAR 86969 U 0.00
expand: MAIN (17, 0) FAR  w(0) 86969.
	create_child: MAIN (16, 30) FAR 86614 U 0.00
expand: MAIN (16, 0) FAR  w(0) 86614.
	create_child: MAIN (15, 30) FAR 86562 U 0.00
expand: MAIN (15, 0) FAR  w(0) 86562.
	create_child: MAIN (14, 30) FAR 91319 U 0.00
expand: MAIN (14, 0) FAR  w(0) 91319.
	create_child: MAIN (13, 30) FAR 96370 U 0.00
expand: MAIN (13, 0) FAR  w(0) 96370.
	create_child: MAIN (12, 30) FAR 101085 U 0.00
expand: MAIN (12, 0) FAR  w(0) 101085.
	create_child: MAIN (11, 30) FAR 106123 U 0.00
expand: MAIN (11, 0) FAR  w(0) 106123.
	create_child: MAIN (10, 30) FAR 111541 U 0.00
expand: MAIN (10, 0) FAR  w(0) 111541.
	create_child: MAIN (9, 30) FAR 111266 U 0.00
expand: MAIN (9, 0) FAR  w(0) 111266.
	create_child: MAIN (8, 30) FAR 111669 U 0.00
expand: MAIN (8, 0) FAR  w(0) 111669.
	create_child: MAIN (7, 30) FAR 111289 U 0.00
expand: MAIN (7, 0) FAR  w(0) 111289.
	create_child: MAIN (6, 30) FAR 111097 U 0.00
expand: MAIN (6, 0) FAR  w(0) 111097.
	create_child: MAIN (5, 30) FAR 111012 U 0.00
expand: MAIN (5, 0) FAR  w(0) 111012.
	create_child: MAIN (4, 30) FAR 111430 U 0.01
expand: MAIN (4, 0) FAR  w(0) 111430.
	create_child: MAIN (3, 30) FAR 111906 U 0.00
expand: MAIN (3, 0) FAR  w(0) 111906.
	create_child: MAIN (2, 30) FAR 111895 U 0.00
expand: MAIN (2, 0) FAR  w(0) 111895.
	create_child: MAIN (1, 30) FAR 112001 U 0.00
expand: MAIN (1, 0) FAR  w(0) 112001. F 0.00
expand: MAIN (2, 0) FAR  w(0) 111895. F 0.00
expand: MAIN (3, 0) FAR  w(0) 111906. F 0.00
expand: MAIN (4, 0) FAR  w(0) 111430. F 0.00
expand: MAIN (5, 0) FAR  w(0) 111012. F 0.00
expand: MAIN (6, 0) FAR  w(0) 111097. F 0.00
expand: MAIN (7, 0) FAR  w(0) 111289. F 0.00
expand: MAIN (8, 0) FAR  w(0) 111669. F 0.00
expand: MAIN (9, 0) FAR  w(0) 111266. F 0.00
expand: MAIN (10, 0) FAR  w(0) 111541. F 0.00
expand: MAIN (11, 0) FAR  w(0) 106123. F 0.00
expand: MAIN (12, 0) FAR  w(0) 101085. F 0.00
expand: MAIN (13, 0) FAR  w(0) 96370. F 0.00
expand: MAIN (14, 0) FAR  w(0) 91319. F 0.00
expand: MAIN (15, 0) FAR  w(0) 86562. F 0.00
expand: MAIN (16, 0) FAR  w(0) 86614. F 0.00
expand: MAIN (17, 0) FAR  w(0) 86969. F 0.00
expand: MAIN (18, 0) FAR  w(0) 86768. F 0.00
expand: MAIN (19, 0) FAR  w(0) 86870. F 0.00
expand: MAIN (20, 0) FAR  w(0) 86721. F 0.00
expand: MAIN (21, 0) FAR  w(0) 86890. F 0.00
expand: MAIN (22, 0) FAR  w(0) 86855. F 0.00
expand: MAIN (23, 0) FAR  w(0) 86704. F 0.00
expand: MAIN (24, 0) FAR  w(0) 86658. F 0.00
expand: MAIN (25, 0) FAR  w(0) 86701. F 0.00
expand: MAIN (26, 0) FAR  w(0) 86668. F 0.00
expand: MAIN (27, 0) FAR  w(0) 86628. F 0.00
expand: MAIN (28, 0) FAR  w(0) 86548. F 0.00
expand: MAIN (29, 0) FAR  w(0) 3343. F 0.00
expand: query!0 (30, 0) FAR  w(0) 1. F 0.00
(spacer::context::check_reachability :time 0.15 :before-memory 21.04 :after-memory 21.32)
Propagating: 1 2 3 4 5 6 7 8 9 10 11 12 13 14 15 16 17 18 19 20 21 22 23 24 25 26 27 28 29 30  ! 31 
(spacer::context::propagate :time 0.17 :before-memory 21.32 :after-memory 21.52)
Entering level 31
BRUNCH_STAT max_query_lvl 30
BRUNCH_STAT num_queries 524
BRUNCH_STAT num_reach_queries 0
BRUNCH_STAT num_reach_reuse 0
BRUNCH_STAT inductive_lvl 0
BRUNCH_STAT max_depth 31
BRUNCH_STAT cex_depth 0
expand: query!0 (31, 0) FAR  w(0) 1.
	create_child: MAIN (30, 31) FAR 3343 U 0.00
expand: MAIN (30, 0) FAR  w(0) 3343.
	create_child: MAIN (29, 31) FAR 86548 U 0.00
expand: MAIN (29, 0) FAR  w(0) 86548.
	create_child: MAIN (28, 31) FAR 86628 U 0.00
expand: MAIN (28, 0) FAR  w(0) 86628.
	create_child: MAIN (27, 31) FAR 86668 U 0.00
expand: MAIN (27, 0) FAR  w(0) 86668.
	create_child: MAIN (26, 31) FAR 86701 U 0.00
expand: MAIN (26, 0) FAR  w(0) 86701.
	create_child: MAIN (25, 31) FAR 86658 U 0.00
expand: MAIN (25, 0) FAR  w(0) 86658.
	create_child: MAIN (24, 31) FAR 86704 U 0.00
expand: MAIN (24, 0) FAR  w(0) 86704.
	create_child: MAIN (23, 31) FAR 86855 U 0.00
expand: MAIN (23, 0) FAR  w(0) 86855.
	create_child: MAIN (22, 31) FAR 86890 U 0.00
expand: MAIN (22, 0) FAR  w(0) 86890.
	create_child: MAIN (21, 31) FAR 86721 U 0.00
expand: MAIN (21, 0) FAR  w(0) 86721.
	create_child: MAIN (20, 31) FAR 86870 U 0.00
expand: MAIN (20, 0) FAR  w(0) 86870.
	create_child: MAIN (19, 31) FAR 86768 U 0.00
expand: MAIN (19, 0) FAR  w(0) 86768.
	create_child: MAIN (18, 31) FAR 86969 U 0.00
expand: MAIN (18, 0) FAR  w(0) 86969.
	create_child: MAIN (17, 31) FAR 86614 U 0.00
expand: MAIN (17, 0) FAR  w(0) 86614.
	create_child: MAIN (16, 31) FAR 86562 U 0.00
expand: MAIN (16, 0) FAR  w(0) 86562.
	create_child: MAIN (15, 31) FAR 91319 U 0.00
expand: MAIN (15, 0) FAR  w(0) 91319.
	create_child: MAIN (14, 31) FAR 96370 U 0.00
expand: MAIN (14, 0) FAR  w(0) 96370.
	create_child: MAIN (13, 31) FAR 101085 U 0.00
expand: MAIN (13, 0) FAR  w(0) 101085.
	create_child: MAIN (12, 31) FAR 106123 U 0.00
expand: MAIN (12, 0) FAR  w(0) 106123.
	create_child: MAIN (11, 31) FAR 111541 U 0.00
expand: MAIN (11, 0) FAR  w(0) 111541.
	create_child: MAIN (10, 31) FAR 117017 U 0.01
expand: MAIN (10, 0) FAR  w(0) 117017.
	create_child: MAIN (9, 31) FAR 116649 U 0.00
expand: MAIN (9, 0) FAR  w(0) 116649.
	create_child: MAIN (8, 31) FAR 116601 U 0.00
expand: MAIN (8, 0) FAR  w(0) 116601.
	create_child: MAIN (7, 31) FAR 117124 U 0.00
expand: MAIN (7, 0) FAR  w(0) 117124.
	create_child: MAIN (6, 31) FAR 116432 U 0.00
expand: MAIN (6, 0) FAR  w(0) 116432.
	create_child: MAIN (5, 31) FAR 116851 U 0.01
expand: MAIN (5, 0) FAR  w(0) 116851.
	create_child: MAIN (4, 31) FAR 116425 U 0.00
expand: MAIN (4, 0) FAR  w(0) 116425.
	create_child: MAIN (3, 31) FAR 116966 U 0.00
expand: MAIN (3, 0) FAR  w(0) 116966.
	create_child: MAIN (2, 31) FAR 116809 U 0.00
expand: MAIN (2, 0) FAR  w(0) 116809.
	create_child: MAIN (1, 31) FAR 116486 U 0.01
expand: MAIN (1, 0) FAR  w(0) 116486. F 0.00
expand: MAIN (2, 0) FAR  w(0) 116809. F 0.00
expand: MAIN (3, 0) FAR  w(0) 116966. F 0.00
expand: MAIN (4, 0) FAR  w(0) 116425. F 0.00
expand: MAIN (5, 0) FAR  w(0) 116851. F 0.00
expand: MAIN (6, 0) FAR  w(0) 116432. F 0.00
expand: MAIN (7, 0) FAR  w(0) 117124. F 0.00
expand: MAIN (8, 0) FAR  w(0) 116601. F 0.00
expand: MAIN (9, 0) FAR  w(0) 116649. F 0.00
expand: MAIN (10, 0) FAR  w(0) 117017. F 0.00
expand: MAIN (11, 0) FAR  w(0) 111541. F 0.00
expand: MAIN (12, 0) FAR  w(0) 106123. F 0.00
expand: MAIN (13, 0) FAR  w(0) 101085. F 0.00
expand: MAIN (14, 0) FAR  w(0) 96370. F 0.00
expand: MAIN (15, 0) FAR  w(0) 91319. F 0.00
expand: MAIN (16, 0) FAR  w(0) 86562. F 0.00
expand: MAIN (17, 0) FAR  w(0) 86614. F 0.00
expand: MAIN (18, 0) FAR  w(0) 86969. F 0.00
expand: MAIN (19, 0) FAR  w(0) 86768. F 0.00
expand: MAIN (20, 0) FAR  w(0) 86870. F 0.00
expand: MAIN (21, 0) FAR  w(0) 86721. F 0.00
expand: MAIN (22, 0) FAR  w(0) 86890. F 0.00
expand: MAIN (23, 0) FAR  w(0) 86855. F 0.00
expand: MAIN (24, 0) FAR  w(0) 86704. F 0.00
expand: MAIN (25, 0) FAR  w(0) 86658. F 0.00
expand: MAIN (26, 0) FAR  w(0) 86701. F 0.00
expand: MAIN (27, 0) FAR  w(0) 86668. F 0.00
expand: MAIN (28, 0) FAR  w(0) 86628. F 0.00
expand: MAIN (29, 0) FAR  w(0) 86548. F 0.00
expand: MAIN (30, 0) FAR  w(0) 3343. F 0.00
expand: query!0 (31, 0) FAR  w(0) 1. F 0.00
(spacer::context::check_reachability :time 0.17 :before-memory 21.52 :after-memory 21.70)
Propagating: 1 2 3 4 5 6 7 8 9 10 11 12 13 14 15 16 17 18 19 20 21 22 23 24 25 26 27 28 29 30 31  ! 32 
(spacer::context::propagate :time 0.18 :before-memory 21.70 :after-memory 21.90)
Entering level 32
BRUNCH_STAT max_query_lvl 31
BRUNCH_STAT num_queries 554
BRUNCH_STAT num_reach_queries 0
BRUNCH_STAT num_reach_reuse 0
BRUNCH_STAT inductive_lvl 0
BRUNCH_STAT max_depth 32
BRUNCH_STAT cex_depth 0
expand: query!0 (32, 0) FAR  w(0) 1.
	create_child: MAIN (31, 32) FAR 3343 U 0.00
expand: MAIN (31, 0) FAR  w(0) 3343.
	create_child: MAIN (30, 32) FAR 86548 U 0.00
expand: MAIN (30, 0) FAR  w(0) 86548.
	create_child: MAIN (29, 32) FAR 86628 U 0.00
expand: MAIN (29, 0) FAR  w(0) 86628.
	create_child: MAIN (28, 32) FAR 86668 U 0.00
expand: MAIN (28, 0) FAR  w(0) 86668.
	create_child: MAIN (27, 32) FAR 86701 U 0.00
expand: MAIN (27, 0) FAR  w(0) 86701.
	create_child: MAIN (26, 32) FAR 86658 U 0.00
expand: MAIN (26, 0) FAR  w(0) 86658.
	create_child: MAIN (25, 32) FAR 86704 U 0.00
expand: MAIN (25, 0) FAR  w(0) 86704.
	create_child: MAIN (24, 32) FAR 86855 U 0.00
expand: MAIN (24, 0) FAR  w(0) 86855.
	create_child: MAIN (23, 32) FAR 86890 U 0.00
expand: MAIN (23, 0) FAR  w(0) 86890.
	create_child: MAIN (22, 32) FAR 86721 U 0.00
expand: MAIN (22, 0) FAR  w(0) 86721.
	create_child: MAIN (21, 32) FAR 86870 U 0.00
expand: MAIN (21, 0) FAR  w(0) 86870.
	create_child: MAIN (20, 32) FAR 86768 U 0.00
expand: MAIN (20, 0) FAR  w(0) 86768.
	create_child: MAIN (19, 32) FAR 86969 U 0.00
expand: MAIN (19, 0) FAR  w(0) 86969.
	create_child: MAIN (18, 32) FAR 86614 U 0.00
expand: MAIN (18, 0) FAR  w(0) 86614.
	create_child: MAIN (17, 32) FAR 86562 U 0.00
expand: MAIN (17, 0) FAR  w(0) 86562.
	create_child: MAIN (16, 32) FAR 91319 U 0.00
expand: MAIN (16, 0) FAR  w(0) 91319.
	create_child: MAIN (15, 32) FAR 96370 U 0.00
expand: MAIN (15, 0) FAR  w(0) 96370.
	create_child: MAIN (14, 32) FAR 101085 U 0.00
expand: MAIN (14, 0) FAR  w(0) 101085.
	create_child: MAIN (13, 32) FAR 106123 U 0.00
expand: MAIN (13, 0) FAR  w(0) 106123.
	create_child: MAIN (12, 32) FAR 111541 U 0.00
expand: MAIN (12, 0) FAR  w(0) 111541.
	create_child: MAIN (11, 32) FAR 117017 U 0.00
expand: MAIN (11, 0) FAR  w(0) 117017.
	create_child: MAIN (10, 32) FAR 121933 U 0.00
expand: MAIN (10, 0) FAR  w(0) 121933.
	create_child: MAIN (9, 32) FAR 121685 U 0.00
expand: MAIN (9, 0) FAR  w(0) 121685.
	create_child: MAIN (8, 32) FAR 121976 U 0.01
expand: MAIN (8, 0) FAR  w(0) 121976.
	create_child: MAIN (7, 32) FAR 122649 U 0.00
expand: MAIN (7, 0) FAR  w(0) 122649.
	create_child: MAIN (6, 32) FAR 122038 U 0.01
expand: MAIN (6, 0) FAR  w(0) 122038.
	create_child: MAIN (5, 32) FAR 122522 U 0.01
expand: MAIN (5, 0) FAR  w(0) 122522.
	create_child: MAIN (4, 32) FAR 122330 U 0.01
expand: MAIN (4, 0) FAR  w(0) 122330.
	create_child: MAIN (3, 32) FAR 122537 U 0.01
expand: MAIN (3, 0) FAR  w(0) 122537.
	create_child: MAIN (2, 32) FAR 122894 U 0.01
expand: MAIN (2, 0) FAR  w(0) 122894.
	create_child: MAIN (1, 32) FAR 122047 U 0.01
expand: MAIN (1, 0) FAR  w(0) 122047. F 0.01
expand: MAIN (2, 0) FAR  w(0) 122894. F 0.00
expand: MAIN (3, 0) FAR  w(0) 122537. F 0.00
expand: MAIN (4, 0) FAR  w(0) 122330. F 0.00
expand: MAIN (5, 0) FAR  w(0) 122522. F 0.00
expand: MAIN (6, 0) FAR  w(0) 122038. F 0.00
expand: MAIN (7, 0) FAR  w(0) 122649. F 0.00
expand: MAIN (8, 0) FAR  w(0) 121976. F 0.00
expand: MAIN (9, 0) FAR  w(0) 121685. F 0.00
expand: MAIN (10, 0) FAR  w(0) 121933. F 0.00
expand: MAIN (11, 0) FAR  w(0) 117017. F 0.00
expand: MAIN (12, 0) FAR  w(0) 111541. F 0.00
expand: MAIN (13, 0) FAR  w(0) 106123. F 0.00
expand: MAIN (14, 0) FAR  w(0) 101085. F 0.00
expand: MAIN (15, 0) FAR  w(0) 96370. F 0.00
expand: MAIN (16, 0) FAR  w(0) 91319. F 0.00
expand: MAIN (17, 0) FAR  w(0) 86562. F 0.00
expand: MAIN (18, 0) FAR  w(0) 86614. F 0.00
expand: MAIN (19, 0) FAR  w(0) 86969. F 0.00
expand: MAIN (20, 0) FAR  w(0) 86768. F 0.00
expand: MAIN (21, 0) FAR  w(0) 86870. F 0.00
expand: MAIN (22, 0) FAR  w(0) 86721. F 0.00
expand: MAIN (23, 0) FAR  w(0) 86890. F 0.00
expand: MAIN (24, 0) FAR  w(0) 86855. F 0.00
expand: MAIN (25, 0) FAR  w(0) 86704. F 0.00
expand: MAIN (26, 0) FAR  w(0) 86658. F 0.00
expand: MAIN (27, 0) FAR  w(0) 86701. F 0.00
expand: MAIN (28, 0) FAR  w(0) 86668. F 0.00
expand: MAIN (29, 0) FAR  w(0) 86628. F 0.00
expand: MAIN (30, 0) FAR  w(0) 86548. F 0.00
expand: MAIN (31, 0) FAR  w(0) 3343. F 0.00
expand: query!0 (32, 0) FAR  w(0) 1. F 0.00
(spacer::context::check_reachability :time 0.18 :before-memory 21.90 :after-memory 22.16)
Propagating: 1 2 3 4 5 6 7 8 9 10 11 12 13 14 15 16 17 18 19 20 21 22 23 24 25 26 27 28 29 30 31 32  ! 33 
(spacer::context::propagate :time 0.25 :before-memory 22.16 :after-memory 22.36)
Entering level 33
BRUNCH_STAT max_query_lvl 32
BRUNCH_STAT num_queries 585
BRUNCH_STAT num_reach_queries 0
BRUNCH_STAT num_reach_reuse 0
BRUNCH_STAT inductive_lvl 0
BRUNCH_STAT max_depth 33
BRUNCH_STAT cex_depth 0
expand: query!0 (33, 0) FAR  w(0) 1.
	create_child: MAIN (32, 33) FAR 3343 U 0.00
expand: MAIN (32, 0) FAR  w(0) 3343.
	create_child: MAIN (31, 33) FAR 86548 U 0.00
expand: MAIN (31, 0) FAR  w(0) 86548.
	create_child: MAIN (30, 33) FAR 86628 U 0.00
expand: MAIN (30, 0) FAR  w(0) 86628.
	create_child: MAIN (29, 33) FAR 86668 U 0.00
expand: MAIN (29, 0) FAR  w(0) 86668.
	create_child: MAIN (28, 33) FAR 86701 U 0.00
expand: MAIN (28, 0) FAR  w(0) 86701.
	create_child: MAIN (27, 33) FAR 86658 U 0.01
expand: MAIN (27, 0) FAR  w(0) 86658.
	create_child: MAIN (26, 33) FAR 86704 U 0.01
expand: MAIN (26, 0) FAR  w(0) 86704.
	create_child: MAIN (25, 33) FAR 86855 U 0.01
expand: MAIN (25, 0) FAR  w(0) 86855.
	create_child: MAIN (24, 33) FAR 86890 U 0.01
expand: MAIN (24, 0) FAR  w(0) 86890.
	create_child: MAIN (23, 33) FAR 86721 U 0.01
expand: MAIN (23, 0) FAR  w(0) 86721.
	create_child: MAIN (22, 33) FAR 86870 U 0.01
expand: MAIN (22, 0) FAR  w(0) 86870.
	create_child: MAIN (21, 33) FAR 86768 U 0.01
expand: MAIN (21, 0) FAR  w(0) 86768.
	create_child: MAIN (20, 33) FAR 86969 U 0.01
expand: MAIN (20, 0) FAR  w(0) 86969.
	create_child: MAIN (19, 33) FAR 86614 U 0.01
expand: MAIN (19, 0) FAR  w(0) 86614.
	create_child: MAIN (18, 33) FAR 86562 U 0.01
expand: MAIN (18, 0) FAR  w(0) 86562.
	create_child: MAIN (17, 33) FAR 91319 U 0.01
expand: MAIN (17, 0) FAR  w(0) 91319.
	create_child: MAIN (16, 33) FAR 96370 U 0.01
expand: MAIN (16, 0) FAR  w(0) 96370.
	create_child: MAIN (15, 33) FAR 101085 U 0.01
expand: MAIN (15, 0) FAR  w(0) 101085.
	create_child: MAIN (14, 33) FAR 106123 U 0.01
expand: MAIN (14, 0) FAR  w(0) 106123.
	create_child: MAIN (13, 33) FAR 111541 U 0.01
expand: MAIN (13, 0) FAR  w(0) 111541.
	create_child: MAIN (12, 33) FAR 117017 U 0.01
expand: MAIN (12, 0) FAR  w(0) 117017.
	create_child: MAIN (11, 33) FAR 121933 U 0.01
expand: MAIN (11, 0) FAR  w(0) 121933.
	create_child: MAIN (10, 33) FAR 127712 U 0.01
expand: MAIN (10, 0) FAR  w(0) 127712.
	create_child: MAIN (9, 33) FAR 76518 U 0.01
expand: MAIN (9, 0) FAR  w(0) 76518.
	create_child: MAIN (8, 33) FAR 128011 U 0.01
expand: MAIN (8, 0) FAR  w(0) 128011.
	create_child: MAIN (7, 33) FAR 127437 U 0.01
expand: MAIN (7, 0) FAR  w(0) 127437.
	create_child: MAIN (6, 33) FAR 127325 U 0.01
expand: MAIN (6, 0) FAR  w(0) 127325.
	create_child: MAIN (5, 33) FAR 127487 U 0.01
expand: MAIN (5, 0) FAR  w(0) 127487.
	create_child: MAIN (4, 33) FAR 127438 U 0.01
expand: MAIN (4, 0) FAR  w(0) 127438.
	create_child: MAIN (3, 33) FAR 127743 U 0.01
expand: MAIN (3, 0) FAR  w(0) 127743.
	create_child: MAIN (2, 33) FAR 128261 U 0.01
expand: MAIN (2, 0) FAR  w(0) 128261.
	create_child: MAIN (1, 33) FAR 128494 U 0.01
expand: MAIN (1, 0) FAR  w(0) 128494. T 0.01
is-reachable: MAIN (2, 0) FAR 128261 T 0.01
is-reachable: MAIN (3, 0) FAR 127743 T 0.01
is-reachable: MAIN (4, 0) FAR 127438 T 0.01
is-reachable: MAIN (5, 0) FAR 127487 T 0.01
is-reachable: MAIN (6, 0) FAR 127325 T 0.01
is-reachable: MAIN (7, 0) FAR 127437 T 0.01
is-reachable: MAIN (8, 0) FAR 128011 T 0.01
is-reachable: MAIN (9, 0) FAR 76518 T 0.01
is-reachable: MAIN (10, 0) FAR 127712 T 0.01
is-reachable: MAIN (11, 0) FAR 121933 T 0.01
is-reachable: MAIN (12, 0) FAR 117017 T 0.01
is-reachable: MAIN (13, 0) FAR 111541 T 0.01
is-reachable: MAIN (14, 0) FAR 106123 T 0.01
is-reachable: MAIN (15, 0) FAR 101085 T 0.01
is-reachable: MAIN (16, 0) FAR 96370 T 0.01
is-reachable: MAIN (17, 0) FAR 91319 T 0.01
is-reachable: MAIN (18, 0) FAR 86562 T 0.01
is-reachable: MAIN (19, 0) FAR 86614 T 0.01
is-reachable: MAIN (20, 0) FAR 86969 T 0.01
is-reachable: MAIN (21, 0) FAR 86768 T 0.01
is-reachable: MAIN (22, 0) FAR 86870 T 0.01
is-reachable: MAIN (23, 0) FAR 86721 T 0.01
is-reachable: MAIN (24, 0) FAR 86890 T 0.01
is-reachable: MAIN (25, 0) FAR 86855 T 0.01
is-reachable: MAIN (26, 0) FAR 86704 T 0.01
is-reachable: MAIN (27, 0) FAR 86658 T 0.01
is-reachable: MAIN (28, 0) FAR 86701 T 0.01
is-reachable: MAIN (29, 0) FAR 86668 T 0.01
is-reachable: MAIN (30, 0) FAR 86628 T 0.01
is-reachable: MAIN (31, 0) FAR 86548 T 0.01
is-reachable: MAIN (32, 0) FAR 3343 T 0.01
is-reachable: query!0 (33, 0) FAR 1 T 0.01
(spacer::context::check_reachability :time 0.40 :before-memory 22.36 :after-memory 26.43)
BRUNCH_STAT max_query_lvl 33
BRUNCH_STAT num_queries 617
BRUNCH_STAT num_reach_queries 33
BRUNCH_STAT num_reach_reuse 1
BRUNCH_STAT inductive_lvl 0
BRUNCH_STAT max_depth 33
BRUNCH_STAT cex_depth 33
(:SPACER-cex-depth                     33
 :SPACER-max-depth                     33
 :SPACER-max-query-lvl                 33
 :SPACER-num-invariants                20
 :SPACER-num-lemmas                    617
 :SPACER-num-properties                124
 :SPACER-num-queries                   617
 :SPACER-num-reach-queries             33
 :SPACER-num-reuse-reach-facts         1
 :added-eqs                            71296
 :arith-add-rows                       8745
 :arith-assert-diseq                   30215
 :arith-assert-lower                   307405
 :arith-assert-upper                   169419
 :arith-bound-prop                     3582
 :arith-conflicts                      179
 :arith-eq-adapter                     8200
 :arith-fixed-eqs                      15650
 :arith-offset-eqs                     5311
 :arith-pivots                         1655
 :bool-inductive-gen                   585
 :bool-inductive-gen-failures          639
 :conflicts                            3117
 :decisions                            658789
 :del-clause                           219
 :final-checks                         2561
 :minimized-lits                       82
 :mk-bool-var                          14871
 :mk-clause                            15847
 :num-checks                           5496
 :propagations                         1827648
 :time.itp_solver.itp_core             0.23
 :time.spacer.init_rules               0.00
 :time.spacer.init_rules.pt.init       0.00
 :time.spacer.solve                    5.52
 :time.spacer.solve.propagate          2.57
 :time.spacer.solve.reach              2.96
 :time.spacer.solve.reach.children     0.84
 :time.spacer.solve.reach.gen.bool_ind 0.25
 :time.spacer.solve.reach.is-reach     0.21
 :time.virtual_solver.proof            0.12
 :time.virtual_solver.smt.total        4.20
 :time.virtual_solver.smt.total.sat    3.40
 :virtual_solver.checks                5496
 :virtual_solver.checks.sat            2561)
BRUNCH_STAT max_query_lvl 33
BRUNCH_STAT num_queries 617
BRUNCH_STAT num_reach_queries 33
BRUNCH_STAT num_reach_reuse 1
BRUNCH_STAT inductive_lvl 0
BRUNCH_STAT max_depth 33
BRUNCH_STAT cex_depth 33

real	0m5.752s
user	0m5.540s
sys	0m0.120s
