(transform N7datalog13mk_coi_filterE...no-op 0s)
(transform N7datalog25mk_interp_tail_simplifierE...15 rules 0s)
(transform N7datalog27mk_quantifier_instantiationE...no-op 0s)
(transform N7datalog8mk_scaleE...no-op 0s)
(transform N7datalog18mk_karr_invariantsE...no-op 0s)
(transform N7datalog14mk_array_blastE...no-op 0s)
(transform N7datalog22mk_subsumption_checkerE...14 rules 0s)
(transform N7datalog12mk_bit_blastE...no-op 0s)
(transform N7datalog15mk_rule_inlinerE...3 rules 0.00534031s)
(transform N7datalog13mk_coi_filterE...no-op 0s)
(transform N7datalog25mk_interp_tail_simplifierE...3 rules 0s)
(transform N7datalog22mk_subsumption_checkerE...no-op 0s)
(transform N7datalog15mk_rule_inlinerE...no-op 0s)
(transform N7datalog13mk_coi_filterE...no-op 0s)
(transform N7datalog25mk_interp_tail_simplifierE...3 rules 0s)
(transform N7datalog22mk_subsumption_checkerE...no-op 0s)
(transform N7datalog15mk_rule_inlinerE...no-op 0s)
(transform N7datalog22mk_subsumption_checkerE...no-op 0s)
(transform N7datalog15mk_rule_inlinerE...no-op 0s)
(transform N7datalog22mk_subsumption_checkerE...no-op 0s)
(transform N7datalog15mk_rule_inlinerE...no-op 0s)
(transform N7datalog22mk_subsumption_checkerE...no-op 0s)
(transform N7datalog8mk_sliceE...no-op 0s)
expand: query!0 (0, 0) FAR  w(0) 1. F 0.00
(spacer::context::check_reachability :time 0.00 :before-memory 4.52 :after-memory 5.04)
Entering level 1
BRUNCH_STAT max_query_lvl 0
BRUNCH_STAT num_queries 0
BRUNCH_STAT num_reach_queries 0
BRUNCH_STAT num_reach_reuse 0
BRUNCH_STAT inductive_lvl 0
BRUNCH_STAT max_depth 1
BRUNCH_STAT cex_depth 0
expand: query!0 (1, 0) FAR  w(0) 1.
	create_child: MAIN (0, 1) FAR 3265 U 0.00
expand: MAIN (0, 0) FAR  w(0) 3265. F 0.00
expand: query!0 (1, 0) FAR  w(0) 1. F 0.00
(spacer::context::check_reachability :time 0.00 :before-memory 5.04 :after-memory 5.84)
Propagating: 0 1  ! 2 
(spacer::context::propagate :time 0.00 :before-memory 5.84 :after-memory 5.84)
Entering level 2
BRUNCH_STAT max_query_lvl 1
BRUNCH_STAT num_queries 1
BRUNCH_STAT num_reach_queries 0
BRUNCH_STAT num_reach_reuse 0
BRUNCH_STAT inductive_lvl 0
BRUNCH_STAT max_depth 2
BRUNCH_STAT cex_depth 0
expand: query!0 (2, 0) FAR  w(0) 1.
	create_child: MAIN (1, 2) FAR 3265 U 0.00
expand: MAIN (1, 0) FAR  w(0) 3265.
	create_child: MAIN (0, 2) FAR 5180 U 0.00
expand: MAIN (0, 0) FAR  w(0) 5180. F 0.00
expand: MAIN (1, 0) FAR  w(0) 3265.
	create_child: MAIN (0, 2) FAR 5526 U 0.00
expand: MAIN (0, 0) FAR  w(0) 5526. F 0.00
expand: MAIN (1, 0) FAR  w(0) 3265.
	create_child: MAIN (0, 2) FAR 5620 U 0.00
expand: MAIN (0, 0) FAR  w(0) 5620. F 0.00
expand: MAIN (1, 0) FAR  w(0) 3265.
	create_child: MAIN (0, 2) FAR 5742 U 0.00
expand: MAIN (0, 0) FAR  w(0) 5742. F 0.00
expand: MAIN (1, 0) FAR  w(0) 3265.
	create_child: MAIN (0, 2) FAR 5814 U 0.00
expand: MAIN (0, 0) FAR  w(0) 5814. F 0.00
expand: MAIN (1, 0) FAR  w(0) 3265.
	create_child: MAIN (0, 2) FAR 5830 U 0.00
expand: MAIN (0, 0) FAR  w(0) 5830. F 0.00
expand: MAIN (1, 0) FAR  w(0) 3265.
	create_child: MAIN (0, 2) FAR 5902 U 0.00
expand: MAIN (0, 0) FAR  w(0) 5902. F 0.00
expand: MAIN (1, 0) FAR  w(0) 3265.
	create_child: MAIN (0, 2) FAR 5961 U 0.00
expand: MAIN (0, 0) FAR  w(0) 5961. F 0.00
expand: MAIN (1, 0) FAR  w(0) 3265.
	create_child: MAIN (0, 2) FAR 6018 U 0.00
expand: MAIN (0, 0) FAR  w(0) 6018. F 0.00
expand: MAIN (1, 0) FAR  w(0) 3265.
	create_child: MAIN (0, 2) FAR 6164 U 0.00
expand: MAIN (0, 0) FAR  w(0) 6164. F 0.00
expand: MAIN (1, 0) FAR  w(0) 3265.
	create_child: MAIN (0, 2) FAR 6243 U 0.00
expand: MAIN (0, 0) FAR  w(0) 6243. F 0.00
expand: MAIN (1, 0) FAR  w(0) 3265.
	create_child: MAIN (0, 2) FAR 6359 U 0.00
expand: MAIN (0, 0) FAR  w(0) 6359. F 0.00
expand: MAIN (1, 0) FAR  w(0) 3265. F 0.00
expand: query!0 (2, 0) FAR  w(0) 1. F 0.00
(spacer::context::check_reachability :time 0.02 :before-memory 5.84 :after-memory 6.27)
Propagating: 0 1 2  ! 3 
(spacer::context::propagate :time 0.00 :before-memory 6.27 :after-memory 6.27)
Entering level 3
BRUNCH_STAT max_query_lvl 2
BRUNCH_STAT num_queries 14
BRUNCH_STAT num_reach_queries 0
BRUNCH_STAT num_reach_reuse 0
BRUNCH_STAT inductive_lvl 0
BRUNCH_STAT max_depth 3
BRUNCH_STAT cex_depth 0
expand: query!0 (3, 0) FAR  w(0) 1.
	create_child: MAIN (2, 3) FAR 3265 U 0.00
expand: MAIN (2, 0) FAR  w(0) 3265.
	create_child: MAIN (1, 3) FAR 7598 U 0.00
expand: MAIN (1, 0) FAR  w(0) 7598. F 0.00
expand: MAIN (2, 0) FAR  w(0) 3265. F 0.00
expand: query!0 (3, 0) FAR  w(0) 1. F 0.00
(spacer::context::check_reachability :time 0.00 :before-memory 6.27 :after-memory 6.36)
Propagating: 1 2 3  ! 4 
(spacer::context::propagate :time 0.00 :before-memory 6.36 :after-memory 6.36)
Entering level 4
BRUNCH_STAT max_query_lvl 3
BRUNCH_STAT num_queries 16
BRUNCH_STAT num_reach_queries 0
BRUNCH_STAT num_reach_reuse 0
BRUNCH_STAT inductive_lvl 0
BRUNCH_STAT max_depth 4
BRUNCH_STAT cex_depth 0
expand: query!0 (4, 0) FAR  w(0) 1.
	create_child: MAIN (3, 4) FAR 3265 U 0.00
expand: MAIN (3, 0) FAR  w(0) 3265.
	create_child: MAIN (2, 4) FAR 7982 U 0.00
expand: MAIN (2, 0) FAR  w(0) 7982. F 0.00
expand: MAIN (3, 0) FAR  w(0) 3265.
	create_child: MAIN (2, 4) FAR 8056 U 0.00
expand: MAIN (2, 0) FAR  w(0) 8056. F 0.00
expand: MAIN (3, 0) FAR  w(0) 3265.
	create_child: MAIN (2, 4) FAR 8156 U 0.00
expand: MAIN (2, 0) FAR  w(0) 8156. F 0.00
expand: MAIN (3, 0) FAR  w(0) 3265. F 0.00
expand: query!0 (4, 0) FAR  w(0) 1. F 0.00
(spacer::context::check_reachability :time 0.01 :before-memory 6.36 :after-memory 6.46)
Propagating: 2 3 4  ! 5 
(spacer::context::propagate :time 0.00 :before-memory 6.46 :after-memory 6.46)
Entering level 5
BRUNCH_STAT max_query_lvl 4
BRUNCH_STAT num_queries 20
BRUNCH_STAT num_reach_queries 0
BRUNCH_STAT num_reach_reuse 0
BRUNCH_STAT inductive_lvl 0
BRUNCH_STAT max_depth 5
BRUNCH_STAT cex_depth 0
expand: query!0 (5, 0) FAR  w(0) 1.
	create_child: MAIN (4, 5) FAR 3265 U 0.00
expand: MAIN (4, 0) FAR  w(0) 3265.
	create_child: MAIN (3, 5) FAR 8384 U 0.00
expand: MAIN (3, 0) FAR  w(0) 8384. F 0.00
expand: MAIN (4, 0) FAR  w(0) 3265. F 0.00
expand: query!0 (5, 0) FAR  w(0) 1. F 0.00
(spacer::context::check_reachability :time 0.00 :before-memory 6.46 :after-memory 6.46)
Propagating: 3 
(spacer::context::propagate :time 0.00 :before-memory 6.46 :after-memory 6.46)
(define-fun MAIN ((x!0 Int)
 (x!1 Bool)
 (x!2 Bool)
 (x!3 Bool)
 (x!4 Int)
 (x!5 Int)
 (x!6 Int)
 (x!7 Bool)
 (x!8 Int)
 (x!9 Bool)
 (x!10 Bool)
 (x!11 Bool)
 (x!12 Int)
 (x!13 Bool)
 (x!14 Bool)
 (x!15 Bool)
 (x!16 Bool)
 (x!17 Bool)
 (x!18 Bool)
 (x!19 Bool)
 (x!20 Bool)
 (x!21 Bool)
 (x!22 Bool)) Bool
  (let ((a!1 (not (>= (+ x!4 (* (- 1) x!6)) 10))))
    (and (or (not (<= x!0 (- 11))) (not x!2))
         x!22
         (not x!21)
         (not x!20)
         (not x!17)
         (not x!3)
         (not x!10)
         (= (+ x!0 x!4 (* (- 1) x!6)) 0)
         (not (>= x!0 21))
         (or a!1 x!15)
         (or (not x!15) x!9))))
BRUNCH_STAT max_query_lvl 5
BRUNCH_STAT num_queries 22
BRUNCH_STAT num_reach_queries 0
BRUNCH_STAT num_reach_reuse 0
BRUNCH_STAT inductive_lvl 3
BRUNCH_STAT max_depth 5
BRUNCH_STAT cex_depth 0
(:SPACER-inductive-level               3
 :SPACER-max-depth                     5
 :SPACER-max-query-lvl                 5
 :SPACER-num-invariants                12
 :SPACER-num-lemmas                    28
 :SPACER-num-properties                19
 :SPACER-num-queries                   22
 :added-eqs                            976
 :arith-add-rows                       211
 :arith-assert-diseq                   340
 :arith-assert-lower                   1064
 :arith-assert-upper                   1203
 :arith-bound-prop                     74
 :arith-conflicts                      11
 :arith-eq-adapter                     311
 :arith-fixed-eqs                      91
 :arith-offset-eqs                     143
 :arith-pivots                         130
 :bool-inductive-gen                   22
 :bool-inductive-gen-failures          25
 :conflicts                            99
 :decisions                            2734
 :del-clause                           69
 :final-checks                         44
 :minimized-lits                       3
 :mk-bool-var                          689
 :mk-clause                            1065
 :num-checks                           113
 :propagations                         15862
 :time.itp_solver.itp_core             0.01
 :time.spacer.init_rules               0.00
 :time.spacer.init_rules.pt.init       0.00
 :time.spacer.solve                    0.05
 :time.spacer.solve.propagate          0.01
 :time.spacer.solve.reach              0.04
 :time.spacer.solve.reach.children     0.01
 :time.spacer.solve.reach.gen.bool_ind 0.00
 :time.virtual_solver.proof            0.00
 :time.virtual_solver.smt.total        0.03
 :time.virtual_solver.smt.total.sat    0.02
 :virtual_solver.checks                113
 :virtual_solver.checks.sat            44)
BRUNCH_STAT max_query_lvl 5
BRUNCH_STAT num_queries 22
BRUNCH_STAT num_reach_queries 0
BRUNCH_STAT num_reach_reuse 0
BRUNCH_STAT inductive_lvl 3
BRUNCH_STAT max_depth 5
BRUNCH_STAT cex_depth 0

real	0m0.084s
user	0m0.068s
sys	0m0.012s
