(transform N7datalog13mk_coi_filterE...no-op 0s)
(transform N7datalog25mk_interp_tail_simplifierE...7 rules 0.00173748s)
(transform N7datalog27mk_quantifier_instantiationE...no-op 0s)
(transform N7datalog8mk_scaleE...no-op 0s)
(transform N7datalog18mk_karr_invariantsE...no-op 0s)
(transform N7datalog14mk_array_blastE...no-op 0s)
(transform N7datalog22mk_subsumption_checkerE...6 rules 0s)
(transform N7datalog12mk_bit_blastE...no-op 0s)
(transform N7datalog15mk_rule_inlinerE...3 rules 0.0121905s)
(transform N7datalog13mk_coi_filterE...no-op 0s)
(transform N7datalog25mk_interp_tail_simplifierE...3 rules 0s)
(transform N7datalog22mk_subsumption_checkerE...no-op 0s)
(transform N7datalog15mk_rule_inlinerE...no-op 0s)
(transform N7datalog13mk_coi_filterE...no-op 0s)
(transform N7datalog25mk_interp_tail_simplifierE...3 rules 0s)
(transform N7datalog22mk_subsumption_checkerE...no-op 0s)
(transform N7datalog15mk_rule_inlinerE...no-op 0s)
(transform N7datalog22mk_subsumption_checkerE...no-op 0s)
(transform N7datalog15mk_rule_inlinerE...no-op 0s)
(transform N7datalog22mk_subsumption_checkerE...no-op 0s)
(transform N7datalog15mk_rule_inlinerE...no-op 0s)
(transform N7datalog22mk_subsumption_checkerE...no-op 0s)
(transform N7datalog8mk_sliceE...no-op 0s)
expand: query!0 (0, 0) FAR  w(0) 1. F 0.00
(spacer::context::check_reachability :time 0.00 :before-memory 5.38 :after-memory 6.55)
Entering level 1
BRUNCH_STAT max_query_lvl 0
BRUNCH_STAT num_queries 0
BRUNCH_STAT num_reach_queries 0
BRUNCH_STAT num_reach_reuse 0
BRUNCH_STAT inductive_lvl 0
BRUNCH_STAT max_depth 1
BRUNCH_STAT cex_depth 0
expand: query!0 (1, 0) FAR  w(0) 1.
	create_child: MAIN (0, 1) FAR 12988 UNDEF 0.00
expand: MAIN (0, 0) FAR  w(0) 12988. UNDEF 0.01
expand: MAIN (0, 0) FAR  w(1) 12988. F 0.01
expand: query!0 (1, 0) FAR  w(0) 1. F 0.00
(spacer::context::check_reachability :time 0.03 :before-memory 6.55 :after-memory 9.13)
Propagating: 0 1  ! 2 
(spacer::context::propagate :time 0.02 :before-memory 9.13 :after-memory 9.54)
Entering level 2
BRUNCH_STAT max_query_lvl 1
BRUNCH_STAT num_queries 1
BRUNCH_STAT num_reach_queries 0
BRUNCH_STAT num_reach_reuse 0
BRUNCH_STAT inductive_lvl 0
BRUNCH_STAT max_depth 2
BRUNCH_STAT cex_depth 0
expand: query!0 (2, 0) FAR  w(0) 1.
	create_child: MAIN (1, 2) FAR 12988 UNDEF 0.00
expand: MAIN (1, 0) FAR  w(0) 12988.
	create_child: MAIN (0, 2) FAR 23171 UNDEF 0.02
expand: MAIN (0, 0) FAR  w(0) 23171. F 0.00
expand: MAIN (1, 0) FAR  w(0) 12988.
	create_child: MAIN (0, 2) FAR 23970 UNDEF 0.01
expand: MAIN (0, 0) FAR  w(0) 23970. F 0.00
expand: MAIN (1, 0) FAR  w(0) 12988.
	create_child: MAIN (0, 2) FAR 24046 UNDEF 0.01
expand: MAIN (0, 0) FAR  w(0) 24046. F 0.00
expand: MAIN (1, 0) FAR  w(0) 12988.
	create_child: MAIN (0, 2) FAR 24403 UNDEF 0.01
expand: MAIN (0, 0) FAR  w(0) 24403. F 0.00
expand: MAIN (1, 0) FAR  w(0) 12988.
	create_child: MAIN (0, 2) FAR 24626 UNDEF 0.01
expand: MAIN (0, 0) FAR  w(0) 24626. F 0.00
expand: MAIN (1, 0) FAR  w(0) 12988.
	create_child: MAIN (0, 2) FAR 24551 UNDEF 0.01
expand: MAIN (0, 0) FAR  w(0) 24551. F 0.00
expand: MAIN (1, 0) FAR  w(0) 12988.
	create_child: MAIN (0, 2) FAR 25277 UNDEF 0.01
expand: MAIN (0, 0) FAR  w(0) 25277. F 0.00
expand: MAIN (1, 0) FAR  w(0) 12988.
	create_child: MAIN (0, 2) FAR 25441 UNDEF 0.01
expand: MAIN (0, 0) FAR  w(0) 25441. F 0.00
expand: MAIN (1, 0) FAR  w(0) 12988.
	create_child: MAIN (0, 2) FAR 25475 UNDEF 0.01
expand: MAIN (0, 0) FAR  w(0) 25475. F 0.00
expand: MAIN (1, 0) FAR  w(0) 12988.
	create_child: MAIN (0, 2) FAR 25901 UNDEF 0.01
expand: MAIN (0, 0) FAR  w(0) 25901. F 0.00
expand: MAIN (1, 0) FAR  w(0) 12988.
	create_child: MAIN (0, 2) FAR 25675 UNDEF 0.01
expand: MAIN (0, 0) FAR  w(0) 25675. F 0.01
expand: MAIN (1, 0) FAR  w(0) 12988.
	create_child: MAIN (0, 2) FAR 25916 UNDEF 0.01
expand: MAIN (0, 0) FAR  w(0) 25916. F 0.01
expand: MAIN (1, 0) FAR  w(0) 12988.
	create_child: MAIN (0, 2) FAR 26117 UNDEF 0.01
expand: MAIN (0, 0) FAR  w(0) 26117. F 0.00
expand: MAIN (1, 0) FAR  w(0) 12988. F 0.01
expand: query!0 (2, 0) FAR  w(0) 1. F 0.00
(spacer::context::check_reachability :time 0.17 :before-memory 9.54 :after-memory 10.97)
Propagating: 0 1 2  ! 3 
(spacer::context::propagate :time 0.32 :before-memory 10.97 :after-memory 12.13)
Entering level 3
BRUNCH_STAT max_query_lvl 2
BRUNCH_STAT num_queries 15
BRUNCH_STAT num_reach_queries 0
BRUNCH_STAT num_reach_reuse 0
BRUNCH_STAT inductive_lvl 0
BRUNCH_STAT max_depth 3
BRUNCH_STAT cex_depth 0
expand: query!0 (3, 0) FAR  w(0) 1.
	create_child: MAIN (2, 3) FAR 12988 UNDEF 0.00
expand: MAIN (2, 0) FAR  w(0) 12988.
	create_child: MAIN (1, 3) FAR 30869 UNDEF 0.01
expand: MAIN (1, 0) FAR  w(0) 30869. F 0.02
expand: MAIN (2, 0) FAR  w(0) 12988.
	create_child: MAIN (1, 3) FAR 31415 UNDEF 0.01
expand: MAIN (1, 0) FAR  w(0) 31415. F 0.02
expand: MAIN (2, 0) FAR  w(0) 12988.
	create_child: MAIN (1, 3) FAR 32320 UNDEF 0.01
expand: MAIN (1, 0) FAR  w(0) 32320. F 0.02
expand: MAIN (2, 0) FAR  w(0) 12988. F 0.00
expand: query!0 (3, 0) FAR  w(0) 1. F 0.00
(spacer::context::check_reachability :time 0.09 :before-memory 12.13 :after-memory 12.32)
Propagating: 1 2 3  ! 4 
(spacer::context::propagate :time 0.31 :before-memory 12.32 :after-memory 13.09)
Entering level 4
BRUNCH_STAT max_query_lvl 3
BRUNCH_STAT num_queries 19
BRUNCH_STAT num_reach_queries 0
BRUNCH_STAT num_reach_reuse 0
BRUNCH_STAT inductive_lvl 0
BRUNCH_STAT max_depth 4
BRUNCH_STAT cex_depth 0
expand: query!0 (4, 0) FAR  w(0) 1.
	create_child: MAIN (3, 4) FAR 12988 UNDEF 0.00
expand: MAIN (3, 0) FAR  w(0) 12988.
	create_child: MAIN (2, 4) FAR 34218 UNDEF 0.01
expand: MAIN (2, 0) FAR  w(0) 34218. F 0.02
expand: MAIN (3, 0) FAR  w(0) 12988.
	create_child: MAIN (2, 4) FAR 34574 UNDEF 0.01
expand: MAIN (2, 0) FAR  w(0) 34574. F 0.03
expand: MAIN (3, 0) FAR  w(0) 12988.
	create_child: MAIN (2, 4) FAR 34760 UNDEF 0.01
expand: MAIN (2, 0) FAR  w(0) 34760. F 0.01
expand: MAIN (3, 0) FAR  w(0) 12988.
	create_child: MAIN (2, 4) FAR 35252 UNDEF 0.01
expand: MAIN (2, 0) FAR  w(0) 35252. F 0.03
expand: MAIN (3, 0) FAR  w(0) 12988.
	create_child: MAIN (2, 4) FAR 36457 UNDEF 0.01
expand: MAIN (2, 0) FAR  w(0) 36457. F 0.01
expand: MAIN (3, 0) FAR  w(0) 12988.
	create_child: MAIN (2, 4) FAR 36421 UNDEF 0.01
expand: MAIN (2, 0) FAR  w(0) 36421. F 0.01
expand: MAIN (3, 0) FAR  w(0) 12988.
	create_child: MAIN (2, 4) FAR 37176 UNDEF 0.01
expand: MAIN (2, 0) FAR  w(0) 37176. F 0.00
expand: MAIN (3, 0) FAR  w(0) 12988.
	create_child: MAIN (2, 4) FAR 36085 UNDEF 0.01
expand: MAIN (2, 0) FAR  w(0) 36085. F 0.04
expand: MAIN (3, 0) FAR  w(0) 12988.
	create_child: MAIN (2, 4) FAR 37138 UNDEF 0.01
expand: MAIN (2, 0) FAR  w(0) 37138. F 0.03
expand: MAIN (3, 0) FAR  w(0) 12988.
	create_child: MAIN (2, 4) FAR 37737 UNDEF 0.01
expand: MAIN (2, 0) FAR  w(0) 37737.
	create_child: MAIN (1, 4) FAR 38536 UNDEF 0.01
expand: MAIN (1, 0) FAR  w(0) 38536. F 0.01
expand: MAIN (2, 0) FAR  w(0) 37737.
	create_child: MAIN (1, 4) FAR 38770 UNDEF 0.01
expand: MAIN (1, 0) FAR  w(0) 38770. F 0.00
expand: MAIN (2, 0) FAR  w(0) 37737. F 0.03
expand: MAIN (3, 0) FAR  w(0) 12988. F 0.00
expand: query!0 (4, 0) FAR  w(0) 1. F 0.00
(spacer::context::check_reachability :time 0.36 :before-memory 13.09 :after-memory 13.85)
Propagating: 1 2 3 
(spacer::context::propagate :time 0.14 :before-memory 13.85 :after-memory 14.15)
(define-fun MAIN ((x!0 Int)
 (x!1 Bool)
 (x!2 Bool)
 (x!3 Int)
 (x!4 Bool)
 (x!5 Bool)
 (x!6 Bool)
 (x!7 Int)
 (x!8 Bool)
 (x!9 Bool)
 (x!10 Bool)
 (x!11 Bool)
 (x!12 Bool)
 (x!13 Bool)
 (x!14 Bool)
 (x!15 Bool)
 (x!16 Bool)
 (x!17 Bool)
 (x!18 Bool)
 (x!19 Bool)
 (x!20 Int)
 (x!21 Int)
 (x!22 Int)
 (x!23 Bool)
 (x!24 Int)
 (x!25 Bool)
 (x!26 Bool)
 (x!27 Int)
 (x!28 Int)
 (x!29 Int)
 (x!30 Bool)
 (x!31 Bool)
 (x!32 Bool)
 (x!33 Bool)
 (x!34 Int)
 (x!35 Int)
 (x!36 Int)
 (x!37 Bool)
 (x!38 Int)
 (x!39 Int)
 (x!40 Int)
 (x!41 Bool)
 (x!42 Int)
 (x!43 Bool)
 (x!44 Bool)) Bool
  (let ((a!1 (+ (div x!27 1) (* (- 60) (div (div x!27 1) 60)))))
  (let ((a!2 (+ (* (- 1) (div x!27 1))
                (* 60 (div (div x!27 1) 60))
                (* 10 (div a!1 10)))))
    (and (or x!19 (not x!1))
         x!44
         x!31
         (>= x!40 0)
         (or x!30 (not x!15))
         (or (not x!19) x!1)
         (not (>= x!24 640))
         (not (<= x!29 1))
         (not (>= x!29 5))
         (not (>= x!39 640))
         (or (not (<= x!3 1)) (not (>= x!28 2)))
         (<= (+ x!3 (* (- 1) x!28)) 0)
         (or (not (<= x!3 1)) (not (<= x!29 3)))
         (or (<= x!40 0) (not (>= a!2 0)))
         (or (not x!16) x!37)
         (or (not x!18) x!2)
         (or x!17 (not x!10))
         (not (>= x!42 640))
         (or (not (>= x!35 640)) (not (<= x!3 1)))))))
BRUNCH_STAT max_query_lvl 4
BRUNCH_STAT num_queries 32
BRUNCH_STAT num_reach_queries 0
BRUNCH_STAT num_reach_reuse 0
BRUNCH_STAT inductive_lvl 3
BRUNCH_STAT max_depth 4
BRUNCH_STAT cex_depth 0
(:SPACER-expand-node-undef             33
 :SPACER-inductive-level               3
 :SPACER-max-depth                     4
 :SPACER-max-query-lvl                 4
 :SPACER-num-invariants                21
 :SPACER-num-lemmas                    37
 :SPACER-num-properties                28
 :SPACER-num-queries                   32
 :added-eqs                            68510
 :arith-add-rows                       57995
 :arith-assert-diseq                   22881
 :arith-assert-lower                   36634
 :arith-assert-upper                   33167
 :arith-bound-prop                     1660
 :arith-conflicts                      207
 :arith-eq-adapter                     15731
 :arith-fixed-eqs                      7560
 :arith-gcd-tests                      13940
 :arith-gomory-cuts                    176
 :arith-ineq-splits                    261
 :arith-offset-eqs                     6934
 :arith-pivots                         4416
 :bool-inductive-gen                   32
 :bool-inductive-gen-failures          35
 :conflicts                            892
 :decisions                            85254
 :del-clause                           19382
 :final-checks                         1169
 :interface-eqs                        528
 :minimized-lits                       1660
 :mk-bool-var                          25080
 :mk-clause                            26411
 :num-checks                           224
 :propagations                         338602
 :restarts                             2
 :time.itp_solver.itp_core             0.03
 :time.spacer.init_rules               0.00
 :time.spacer.init_rules.pt.init       0.00
 :time.spacer.solve                    1.44
 :time.spacer.solve.propagate          0.79
 :time.spacer.solve.reach              0.65
 :time.spacer.solve.reach.children     0.05
 :time.spacer.solve.reach.gen.bool_ind 0.26
 :time.virtual_solver.proof            0.02
 :time.virtual_solver.smt.total        1.35
 :time.virtual_solver.smt.total.sat    0.76
 :time.virtual_solver.smt.total.undef  0.43
 :virtual_solver.checks                224
 :virtual_solver.checks.sat            16
 :virtual_solver.checks.undef          71)
BRUNCH_STAT max_query_lvl 4
BRUNCH_STAT num_queries 32
BRUNCH_STAT num_reach_queries 0
BRUNCH_STAT num_reach_reuse 0
BRUNCH_STAT inductive_lvl 3
BRUNCH_STAT max_depth 4
BRUNCH_STAT cex_depth 0

real	0m1.565s
user	0m1.536s
sys	0m0.028s
