(transform N7datalog13mk_coi_filterE...no-op 0s)
(transform N7datalog25mk_interp_tail_simplifierE...7 rules 0.00155102s)
(transform N7datalog27mk_quantifier_instantiationE...no-op 0s)
(transform N7datalog8mk_scaleE...no-op 0s)
(transform N7datalog18mk_karr_invariantsE...no-op 0s)
(transform N7datalog14mk_array_blastE...no-op 0s)
(transform N7datalog22mk_subsumption_checkerE...6 rules 0s)
(transform N7datalog12mk_bit_blastE...no-op 0s)
(transform N7datalog15mk_rule_inlinerE...3 rules 0.0113508s)
(transform N7datalog13mk_coi_filterE...no-op 0s)
(transform N7datalog25mk_interp_tail_simplifierE...3 rules 0s)
(transform N7datalog22mk_subsumption_checkerE...no-op 0s)
(transform N7datalog15mk_rule_inlinerE...no-op 0s)
(transform N7datalog13mk_coi_filterE...no-op 0s)
(transform N7datalog25mk_interp_tail_simplifierE...3 rules 0s)
(transform N7datalog22mk_subsumption_checkerE...no-op 0s)
(transform N7datalog15mk_rule_inlinerE...no-op 0s)
(transform N7datalog22mk_subsumption_checkerE...no-op 0s)
(transform N7datalog15mk_rule_inlinerE...no-op 0s)
(transform N7datalog22mk_subsumption_checkerE...no-op 0s)
(transform N7datalog15mk_rule_inlinerE...no-op 0s)
(transform N7datalog22mk_subsumption_checkerE...no-op 0s)
(transform N7datalog8mk_sliceE...no-op 0s)
expand: query!0 (0, 0) FAR  w(0) 1. F 0.00
(spacer::context::check_reachability :time 0.00 :before-memory 5.29 :after-memory 6.53)
Entering level 1
BRUNCH_STAT max_query_lvl 0
BRUNCH_STAT num_queries 0
BRUNCH_STAT num_reach_queries 0
BRUNCH_STAT num_reach_reuse 0
BRUNCH_STAT inductive_lvl 0
BRUNCH_STAT max_depth 1
BRUNCH_STAT cex_depth 0
expand: query!0 (1, 0) FAR  w(0) 1.
	create_child: MAIN (0, 1) FAR 11908 U 0.00
expand: MAIN (0, 0) FAR  w(0) 11908. F 0.01
expand: query!0 (1, 0) FAR  w(0) 1. F 0.00
(spacer::context::check_reachability :time 0.01 :before-memory 6.53 :after-memory 8.38)
Propagating: 0 1  ! 2 
(spacer::context::propagate :time 0.05 :before-memory 8.38 :after-memory 9.17)
Entering level 2
BRUNCH_STAT max_query_lvl 1
BRUNCH_STAT num_queries 1
BRUNCH_STAT num_reach_queries 0
BRUNCH_STAT num_reach_reuse 0
BRUNCH_STAT inductive_lvl 0
BRUNCH_STAT max_depth 2
BRUNCH_STAT cex_depth 0
expand: query!0 (2, 0) FAR  w(0) 1.
	create_child: MAIN (1, 2) FAR 11908 U 0.00
expand: MAIN (1, 0) FAR  w(0) 11908.
	create_child: MAIN (0, 2) FAR 18870 U 0.00
expand: MAIN (0, 0) FAR  w(0) 18870. F 0.00
expand: MAIN (1, 0) FAR  w(0) 11908.
	create_child: MAIN (0, 2) FAR 21139 UNDEF 0.00
expand: MAIN (0, 0) FAR  w(0) 21139. F 0.00
expand: MAIN (1, 0) FAR  w(0) 11908.
	create_child: MAIN (0, 2) FAR 21628 UNDEF 0.00
expand: MAIN (0, 0) FAR  w(0) 21628. F 0.00
expand: MAIN (1, 0) FAR  w(0) 11908.
	create_child: MAIN (0, 2) FAR 21602 UNDEF 0.00
expand: MAIN (0, 0) FAR  w(0) 21602. F 0.00
expand: MAIN (1, 0) FAR  w(0) 11908.
	create_child: MAIN (0, 2) FAR 22072 UNDEF 0.01
expand: MAIN (0, 0) FAR  w(0) 22072. F 0.01
expand: MAIN (1, 0) FAR  w(0) 11908.
	create_child: MAIN (0, 2) FAR 22393 UNDEF 0.01
expand: MAIN (0, 0) FAR  w(0) 22393. F 0.00
expand: MAIN (1, 0) FAR  w(0) 11908.
	create_child: MAIN (0, 2) FAR 22389 UNDEF 0.00
expand: MAIN (0, 0) FAR  w(0) 22389. F 0.00
expand: MAIN (1, 0) FAR  w(0) 11908.
	create_child: MAIN (0, 2) FAR 22917 UNDEF 0.00
expand: MAIN (0, 0) FAR  w(0) 22917. F 0.00
expand: MAIN (1, 0) FAR  w(0) 11908.
	create_child: MAIN (0, 2) FAR 22862 UNDEF 0.01
expand: MAIN (0, 0) FAR  w(0) 22862. F 0.00
expand: MAIN (1, 0) FAR  w(0) 11908.
	create_child: MAIN (0, 2) FAR 23089 UNDEF 0.01
expand: MAIN (0, 0) FAR  w(0) 23089. F 0.01
expand: MAIN (1, 0) FAR  w(0) 11908.
	create_child: MAIN (0, 2) FAR 23800 UNDEF 0.01
expand: MAIN (0, 0) FAR  w(0) 23800. F 0.00
expand: MAIN (1, 0) FAR  w(0) 11908.
	create_child: MAIN (0, 2) FAR 24036 UNDEF 0.01
expand: MAIN (0, 0) FAR  w(0) 24036. F 0.00
expand: MAIN (1, 0) FAR  w(0) 11908.
	create_child: MAIN (0, 2) FAR 24303 UNDEF 0.00
expand: MAIN (0, 0) FAR  w(0) 24303. F 0.00
expand: MAIN (1, 0) FAR  w(0) 11908.
	create_child: MAIN (0, 2) FAR 24423 UNDEF 0.00
expand: MAIN (0, 0) FAR  w(0) 24423. F 0.00
expand: MAIN (1, 0) FAR  w(0) 11908.
	create_child: MAIN (0, 2) FAR 24201 UNDEF 0.01
expand: MAIN (0, 0) FAR  w(0) 24201. F 0.00
expand: MAIN (1, 0) FAR  w(0) 11908.
	create_child: MAIN (0, 2) FAR 24435 UNDEF 0.01
expand: MAIN (0, 0) FAR  w(0) 24435. F 0.00
expand: MAIN (1, 0) FAR  w(0) 11908.
	create_child: MAIN (0, 2) FAR 24466 UNDEF 0.00
expand: MAIN (0, 0) FAR  w(0) 24466. F 0.00
expand: MAIN (1, 0) FAR  w(0) 11908.
	create_child: MAIN (0, 2) FAR 24537 UNDEF 0.00
expand: MAIN (0, 0) FAR  w(0) 24537. UNDEF 0.00
expand: MAIN (0, 0) FAR  w(1) 24537. T 0.01
is-reachable: MAIN (1, 0) FAR 11908 F 0.01
expand: MAIN (1, 0) FAR  w(1) 11908.
	create_child: MAIN (0, 2) FAR 25160 U 0.02
expand: MAIN (0, 0) FAR  w(0) 25160. F 0.01
expand: MAIN (1, 0) FAR  w(1) 11908. F 0.00
expand: query!0 (2, 0) FAR  w(0) 1. F 0.00
(spacer::context::check_reachability :time 0.20 :before-memory 9.17 :after-memory 10.56)
Propagating: 0 1 2  ! 3 
(spacer::context::propagate :time 5.54 :before-memory 10.56 :after-memory 15.60)
Entering level 3
BRUNCH_STAT max_query_lvl 2
BRUNCH_STAT num_queries 21
BRUNCH_STAT num_reach_queries 0
BRUNCH_STAT num_reach_reuse 0
BRUNCH_STAT inductive_lvl 0
BRUNCH_STAT max_depth 3
BRUNCH_STAT cex_depth 0
expand: query!0 (3, 0) FAR  w(0) 1.
	create_child: MAIN (2, 3) FAR 11908 U 0.00
expand: MAIN (2, 0) FAR  w(0) 11908.
	create_child: MAIN (1, 3) FAR 37617 UNDEF 0.01
expand: MAIN (1, 0) FAR  w(0) 37617.
	create_child: MAIN (0, 3) FAR 37601 UNDEF 0.01
expand: MAIN (0, 0) FAR  w(0) 37601. F 0.00
expand: MAIN (1, 0) FAR  w(0) 37617.
	create_child: MAIN (0, 3) FAR 38092 UNDEF 0.01
expand: MAIN (0, 0) FAR  w(0) 38092. F 0.00
expand: MAIN (1, 0) FAR  w(0) 37617.
	create_child: MAIN (0, 3) FAR 38078 UNDEF 0.01
expand: MAIN (0, 0) FAR  w(0) 38078. F 0.00
expand: MAIN (1, 0) FAR  w(0) 37617.
	create_child: MAIN (0, 3) FAR 38200 UNDEF 0.01
expand: MAIN (0, 0) FAR  w(0) 38200. F 0.00
expand: MAIN (1, 0) FAR  w(0) 37617. F 0.00
expand: MAIN (2, 0) FAR  w(0) 11908.
	create_child: MAIN (1, 3) FAR 38189 UNDEF 0.01
expand: MAIN (1, 0) FAR  w(0) 38189. F 0.02
expand: MAIN (2, 0) FAR  w(0) 11908.
	create_child: MAIN (1, 3) FAR 37800 UNDEF 0.01
expand: MAIN (1, 0) FAR  w(0) 37800. F 0.04
expand: MAIN (2, 0) FAR  w(0) 11908.
	create_child: MAIN (1, 3) FAR 38397 UNDEF 0.01
expand: MAIN (1, 0) FAR  w(0) 38397. F 0.00
expand: MAIN (2, 0) FAR  w(0) 11908.
	create_child: MAIN (1, 3) FAR 38157 UNDEF 0.01
expand: MAIN (1, 0) FAR  w(0) 38157. F 0.00
expand: MAIN (2, 0) FAR  w(0) 11908.
	create_child: MAIN (1, 3) FAR 39065 UNDEF 0.01
expand: MAIN (1, 0) FAR  w(0) 39065. F 0.03
expand: MAIN (2, 0) FAR  w(0) 11908.
	create_child: MAIN (1, 3) FAR 38934 UNDEF 0.01
expand: MAIN (1, 0) FAR  w(0) 38934. F 0.04
expand: MAIN (2, 0) FAR  w(0) 11908. F 0.00
expand: query!0 (3, 0) FAR  w(0) 1. F 0.00
(spacer::context::check_reachability :time 0.26 :before-memory 15.60 :after-memory 16.13)
Propagating: 0 1 2 3  ! 4 
(spacer::context::propagate :time 32.82 :before-memory 16.13 :after-memory 23.42)
Entering level 4
BRUNCH_STAT max_query_lvl 3
BRUNCH_STAT num_queries 33
BRUNCH_STAT num_reach_queries 0
BRUNCH_STAT num_reach_reuse 0
BRUNCH_STAT inductive_lvl 0
BRUNCH_STAT max_depth 4
BRUNCH_STAT cex_depth 0
expand: query!0 (4, 0) FAR  w(0) 1.
	create_child: MAIN (3, 4) FAR 11908 U 0.00
expand: MAIN (3, 0) FAR  w(0) 11908.
	create_child: MAIN (2, 4) FAR 38474 U 0.01
expand: MAIN (2, 0) FAR  w(0) 38474.
	create_child: MAIN (1, 4) FAR 49823 U 0.01
expand: MAIN (1, 0) FAR  w(0) 49823. F 0.00
expand: MAIN (2, 0) FAR  w(0) 38474.
	create_child: MAIN (1, 4) FAR 49851 U 0.01
expand: MAIN (1, 0) FAR  w(0) 49851. F 0.04
expand: MAIN (2, 0) FAR  w(0) 38474. F 0.01
expand: MAIN (3, 0) FAR  w(0) 11908.
	create_child: MAIN (2, 4) FAR 39949 UNDEF 0.01
expand: MAIN (2, 0) FAR  w(0) 39949.
	create_child: MAIN (1, 4) FAR 47368 UNDEF 0.01
expand: MAIN (1, 0) FAR  w(0) 47368.
	create_child: MAIN (0, 4) FAR 45113 UNDEF 0.02
expand: MAIN (0, 0) FAR  w(0) 45113. UNDEF 0.01
expand: MAIN (0, 0) FAR  w(1) 45113. T 0.14
is-reachable: MAIN (1, 0) FAR 47368 T 0.64
is-reachable: MAIN (2, 0) FAR 39949 T 1.07
is-reachable: MAIN (3, 0) FAR 11908 T 1.03
is-reachable: query!0 (4, 0) FAR 1 T 0.03
(spacer::context::check_reachability :time 3.06 :before-memory 23.42 :after-memory 29.43)
BRUNCH_STAT max_query_lvl 4
BRUNCH_STAT num_queries 40
BRUNCH_STAT num_reach_queries 4
BRUNCH_STAT num_reach_reuse 0
BRUNCH_STAT inductive_lvl 0
BRUNCH_STAT max_depth 4
BRUNCH_STAT cex_depth 4
(:SPACER-cex-depth                     4
 :SPACER-expand-node-undef             33
 :SPACER-max-depth                     4
 :SPACER-max-query-lvl                 4
 :SPACER-num-invariants                19
 :SPACER-num-lemmas                    39
 :SPACER-num-properties                33
 :SPACER-num-queries                   40
 :SPACER-num-reach-queries             4
 :added-eqs                            96962
 :arith-add-rows                       1323241
 :arith-assert-diseq                   41890
 :arith-assert-lower                   49700
 :arith-assert-upper                   60152
 :arith-bound-prop                     12218
 :arith-conflicts                      674
 :arith-eq-adapter                     19436
 :arith-fixed-eqs                      12846
 :arith-gcd-tests                      496244
 :arith-gomory-cuts                    1599
 :arith-ineq-splits                    1841
 :arith-offset-eqs                     12378
 :arith-pivots                         12284
 :bool-inductive-gen                   35
 :bool-inductive-gen-failures          36
 :conflicts                            1675
 :decisions                            202157
 :del-clause                           17238
 :final-checks                         4553
 :interface-eqs                        577
 :minimized-lits                       7116
 :mk-bool-var                          30611
 :mk-clause                            34008
 :num-checks                           254
 :propagations                         635773
 :restarts                             5
 :time.itp_solver.itp_core             0.02
 :time.spacer.init_rules               0.00
 :time.spacer.init_rules.pt.init       0.00
 :time.spacer.solve                    41.95
 :time.spacer.solve.propagate          38.41
 :time.spacer.solve.reach              3.54
 :time.spacer.solve.reach.children     0.06
 :time.spacer.solve.reach.gen.bool_ind 0.21
 :time.spacer.solve.reach.is-reach     2.78
 :time.virtual_solver.proof            0.01
 :time.virtual_solver.smt.total        41.75
 :time.virtual_solver.smt.total.sat    41.21
 :time.virtual_solver.smt.total.undef  0.38
 :virtual_solver.checks                254
 :virtual_solver.checks.sat            39
 :virtual_solver.checks.undef          63)
BRUNCH_STAT max_query_lvl 4
BRUNCH_STAT num_queries 40
BRUNCH_STAT num_reach_queries 4
BRUNCH_STAT num_reach_reuse 0
BRUNCH_STAT inductive_lvl 0
BRUNCH_STAT max_depth 4
BRUNCH_STAT cex_depth 4

real	0m42.076s
user	0m42.024s
sys	0m0.048s
