(transform N7datalog13mk_coi_filterE...no-op 0s)
(transform N7datalog25mk_interp_tail_simplifierE...7 rules 0.0016572s)
(transform N7datalog27mk_quantifier_instantiationE...no-op 0s)
(transform N7datalog8mk_scaleE...no-op 0s)
(transform N7datalog18mk_karr_invariantsE...no-op 0s)
(transform N7datalog14mk_array_blastE...no-op 0s)
(transform N7datalog22mk_subsumption_checkerE...6 rules 0s)
(transform N7datalog12mk_bit_blastE...no-op 0s)
(transform N7datalog15mk_rule_inlinerE...3 rules 0.0119327s)
(transform N7datalog13mk_coi_filterE...no-op 0s)
(transform N7datalog25mk_interp_tail_simplifierE...3 rules 0s)
(transform N7datalog22mk_subsumption_checkerE...no-op 0s)
(transform N7datalog15mk_rule_inlinerE...no-op 0s)
(transform N7datalog13mk_coi_filterE...no-op 0s)
(transform N7datalog25mk_interp_tail_simplifierE...3 rules 0s)
(transform N7datalog22mk_subsumption_checkerE...no-op 0s)
(transform N7datalog15mk_rule_inlinerE...no-op 0s)
(transform N7datalog22mk_subsumption_checkerE...no-op 0s)
(transform N7datalog15mk_rule_inlinerE...no-op 0s)
(transform N7datalog22mk_subsumption_checkerE...no-op 0s)
(transform N7datalog15mk_rule_inlinerE...no-op 0s)
(transform N7datalog22mk_subsumption_checkerE...no-op 0s)
(transform N7datalog8mk_sliceE...no-op 0s)
expand: query!0 (0, 0) FAR  w(0) 1. F 0.00
(spacer::context::check_reachability :time 0.00 :before-memory 5.37 :after-memory 6.55)
Entering level 1
BRUNCH_STAT max_query_lvl 0
BRUNCH_STAT num_queries 0
BRUNCH_STAT num_reach_queries 0
BRUNCH_STAT num_reach_reuse 0
BRUNCH_STAT inductive_lvl 0
BRUNCH_STAT max_depth 1
BRUNCH_STAT cex_depth 0
expand: query!0 (1, 0) FAR  w(0) 1.
	create_child: MAIN (0, 1) FAR 12275 U 0.00
expand: MAIN (0, 0) FAR  w(0) 12275. F 0.01
expand: query!0 (1, 0) FAR  w(0) 1. F 0.00
(spacer::context::check_reachability :time 0.01 :before-memory 6.55 :after-memory 8.53)
Propagating: 0 1  ! 2 
(spacer::context::propagate :time 0.03 :before-memory 8.53 :after-memory 9.41)
Entering level 2
BRUNCH_STAT max_query_lvl 1
BRUNCH_STAT num_queries 1
BRUNCH_STAT num_reach_queries 0
BRUNCH_STAT num_reach_reuse 0
BRUNCH_STAT inductive_lvl 0
BRUNCH_STAT max_depth 2
BRUNCH_STAT cex_depth 0
expand: query!0 (2, 0) FAR  w(0) 1.
	create_child: MAIN (1, 2) FAR 12275 U 0.00
expand: MAIN (1, 0) FAR  w(0) 12275.
	create_child: MAIN (0, 2) FAR 21343 UNDEF 0.01
expand: MAIN (0, 0) FAR  w(0) 21343. UNDEF 0.00
expand: MAIN (0, 0) FAR  w(1) 21343. T 0.01
is-reachable: MAIN (1, 0) FAR 12275 T 0.03
is-reachable: query!0 (2, 0) FAR 1 T 0.03
(spacer::context::check_reachability :time 0.08 :before-memory 9.41 :after-memory 12.09)
BRUNCH_STAT max_query_lvl 2
BRUNCH_STAT num_queries 3
BRUNCH_STAT num_reach_queries 2
BRUNCH_STAT num_reach_reuse 0
BRUNCH_STAT inductive_lvl 0
BRUNCH_STAT max_depth 2
BRUNCH_STAT cex_depth 2
(:SPACER-cex-depth                     2
 :SPACER-expand-node-undef             2
 :SPACER-max-depth                     2
 :SPACER-max-query-lvl                 2
 :SPACER-num-lemmas                    3
 :SPACER-num-properties                2
 :SPACER-num-queries                   3
 :SPACER-num-reach-queries             2
 :added-eqs                            6998
 :arith-add-rows                       1766
 :arith-assert-diseq                   2260
 :arith-assert-lower                   2890
 :arith-assert-upper                   3041
 :arith-bound-prop                     301
 :arith-conflicts                      34
 :arith-eq-adapter                     1539
 :arith-fixed-eqs                      590
 :arith-gcd-tests                      201
 :arith-gomory-cuts                    8
 :arith-ineq-splits                    10
 :arith-offset-eqs                     684
 :arith-pivots                         366
 :bool-inductive-gen                   1
 :bool-inductive-gen-failures          1
 :conflicts                            122
 :decisions                            6861
 :del-clause                           1253
 :final-checks                         78
 :interface-eqs                        35
 :minimized-lits                       198
 :mk-bool-var                          4910
 :mk-clause                            7699
 :num-checks                           14
 :propagations                         30763
 :time.itp_solver.itp_core             0.00
 :time.spacer.init_rules               0.00
 :time.spacer.init_rules.pt.init       0.00
 :time.spacer.solve                    0.13
 :time.spacer.solve.propagate          0.03
 :time.spacer.solve.reach              0.10
 :time.spacer.solve.reach.children     0.00
 :time.spacer.solve.reach.gen.bool_ind 0.00
 :time.spacer.solve.reach.is-reach     0.06
 :time.virtual_solver.proof            0.00
 :time.virtual_solver.smt.total        0.10
 :time.virtual_solver.smt.total.sat    0.07
 :time.virtual_solver.smt.total.undef  0.01
 :virtual_solver.checks                14
 :virtual_solver.checks.sat            7
 :virtual_solver.checks.undef          2)
BRUNCH_STAT max_query_lvl 2
BRUNCH_STAT num_queries 3
BRUNCH_STAT num_reach_queries 2
BRUNCH_STAT num_reach_reuse 0
BRUNCH_STAT inductive_lvl 0
BRUNCH_STAT max_depth 2
BRUNCH_STAT cex_depth 2

real	0m0.212s
user	0m0.196s
sys	0m0.012s
