(transform N7datalog13mk_coi_filterE...no-op 0s)
(transform N7datalog25mk_interp_tail_simplifierE...7 rules 0.00203509s)
(transform N7datalog27mk_quantifier_instantiationE...no-op 0s)
(transform N7datalog8mk_scaleE...no-op 0s)
(transform N7datalog18mk_karr_invariantsE...no-op 0s)
(transform N7datalog14mk_array_blastE...no-op 0s)
(transform N7datalog22mk_subsumption_checkerE...6 rules 0s)
(transform N7datalog12mk_bit_blastE...no-op 0s)
(transform N7datalog15mk_rule_inlinerE...3 rules 0.0140762s)
(transform N7datalog13mk_coi_filterE...no-op 0s)
(transform N7datalog25mk_interp_tail_simplifierE...3 rules 0s)
(transform N7datalog22mk_subsumption_checkerE...no-op 0s)
(transform N7datalog15mk_rule_inlinerE...no-op 0s)
(transform N7datalog13mk_coi_filterE...no-op 0s)
(transform N7datalog25mk_interp_tail_simplifierE...3 rules 0s)
(transform N7datalog22mk_subsumption_checkerE...no-op 0s)
(transform N7datalog15mk_rule_inlinerE...no-op 0s)
(transform N7datalog22mk_subsumption_checkerE...no-op 0s)
(transform N7datalog15mk_rule_inlinerE...no-op 0s)
(transform N7datalog22mk_subsumption_checkerE...no-op 0s)
(transform N7datalog15mk_rule_inlinerE...no-op 0s)
(transform N7datalog22mk_subsumption_checkerE...no-op 0s)
(transform N7datalog8mk_sliceE...no-op 0.00102525s)
expand: query!0 (0, 0) FAR  w(0) 1. F 0.00
(spacer::context::check_reachability :time 0.00 :before-memory 5.38 :after-memory 6.62)
Entering level 1
BRUNCH_STAT max_query_lvl 0
BRUNCH_STAT num_queries 0
BRUNCH_STAT num_reach_queries 0
BRUNCH_STAT num_reach_reuse 0
BRUNCH_STAT inductive_lvl 0
BRUNCH_STAT max_depth 1
BRUNCH_STAT cex_depth 0
expand: query!0 (1, 0) FAR  w(0) 1.
	create_child: MAIN (0, 1) FAR 12541 U 0.00
expand: MAIN (0, 0) FAR  w(0) 12541. F 0.01
expand: query!0 (1, 0) FAR  w(0) 1. F 0.00
(spacer::context::check_reachability :time 0.01 :before-memory 6.62 :after-memory 8.62)
Propagating: 0 1  ! 2 
(spacer::context::propagate :time 0.02 :before-memory 8.62 :after-memory 9.12)
Entering level 2
BRUNCH_STAT max_query_lvl 1
BRUNCH_STAT num_queries 1
BRUNCH_STAT num_reach_queries 0
BRUNCH_STAT num_reach_reuse 0
BRUNCH_STAT inductive_lvl 0
BRUNCH_STAT max_depth 2
BRUNCH_STAT cex_depth 0
expand: query!0 (2, 0) FAR  w(0) 1.
	create_child: MAIN (1, 2) FAR 12541 U 0.00
expand: MAIN (1, 0) FAR  w(0) 12541.
	create_child: MAIN (0, 2) FAR 21564 UNDEF 0.01
expand: MAIN (0, 0) FAR  w(0) 21564. F 0.00
expand: MAIN (1, 0) FAR  w(0) 12541.
	create_child: MAIN (0, 2) FAR 21552 UNDEF 0.01
expand: MAIN (0, 0) FAR  w(0) 21552. F 0.00
expand: MAIN (1, 0) FAR  w(0) 12541.
	create_child: MAIN (0, 2) FAR 21769 UNDEF 0.01
expand: MAIN (0, 0) FAR  w(0) 21769. F 0.00
expand: MAIN (1, 0) FAR  w(0) 12541.
	create_child: MAIN (0, 2) FAR 22610 UNDEF 0.01
expand: MAIN (0, 0) FAR  w(0) 22610. F 0.00
expand: MAIN (1, 0) FAR  w(0) 12541. F 0.00
expand: query!0 (2, 0) FAR  w(0) 1. F 0.00
(spacer::context::check_reachability :time 0.05 :before-memory 9.12 :after-memory 9.37)
Propagating: 0 1 2  ! 3 
(spacer::context::propagate :time 0.03 :before-memory 9.37 :after-memory 9.60)
Entering level 3
BRUNCH_STAT max_query_lvl 2
BRUNCH_STAT num_queries 6
BRUNCH_STAT num_reach_queries 0
BRUNCH_STAT num_reach_reuse 0
BRUNCH_STAT inductive_lvl 0
BRUNCH_STAT max_depth 3
BRUNCH_STAT cex_depth 0
expand: query!0 (3, 0) FAR  w(0) 1.
	create_child: MAIN (2, 3) FAR 12541 U 0.00
expand: MAIN (2, 0) FAR  w(0) 12541.
	create_child: MAIN (1, 3) FAR 24033 U 0.01
expand: MAIN (1, 0) FAR  w(0) 24033. F 0.00
expand: MAIN (2, 0) FAR  w(0) 12541.
	create_child: MAIN (1, 3) FAR 24227 U 0.01
expand: MAIN (1, 0) FAR  w(0) 24227. F 0.00
expand: MAIN (2, 0) FAR  w(0) 12541.
	create_child: MAIN (1, 3) FAR 24793 U 0.01
expand: MAIN (1, 0) FAR  w(0) 24793. F 0.02
expand: MAIN (2, 0) FAR  w(0) 12541.
	create_child: MAIN (1, 3) FAR 25605 UNDEF 0.01
expand: MAIN (1, 0) FAR  w(0) 25605. F 0.02
expand: MAIN (2, 0) FAR  w(0) 12541.
	create_child: MAIN (1, 3) FAR 26718 UNDEF 0.00
expand: MAIN (1, 0) FAR  w(0) 26718. F 0.01
expand: MAIN (2, 0) FAR  w(0) 12541.
	create_child: MAIN (1, 3) FAR 26614 UNDEF 0.00
expand: MAIN (1, 0) FAR  w(0) 26614.
	create_child: MAIN (0, 3) FAR 27126 UNDEF 0.01
expand: MAIN (0, 0) FAR  w(0) 27126. F 0.00
expand: MAIN (1, 0) FAR  w(0) 26614.
	create_child: MAIN (0, 3) FAR 27783 UNDEF 0.01
expand: MAIN (0, 0) FAR  w(0) 27783. F 0.01
expand: MAIN (1, 0) FAR  w(0) 26614. F 0.01
expand: MAIN (2, 0) FAR  w(0) 12541.
	create_child: MAIN (1, 3) FAR 27286 UNDEF 0.01
expand: MAIN (1, 0) FAR  w(0) 27286.
	create_child: MAIN (0, 3) FAR 28244 UNDEF 0.01
expand: MAIN (0, 0) FAR  w(0) 28244. UNDEF 0.00
expand: MAIN (0, 0) FAR  w(1) 28244. T 0.00
is-reachable: MAIN (1, 0) FAR 27286 T 0.02
is-reachable: MAIN (2, 0) FAR 12541 T 0.13
is-reachable: query!0 (3, 0) FAR 1 T 0.03
(spacer::context::check_reachability :time 0.32 :before-memory 9.60 :after-memory 15.06)
BRUNCH_STAT max_query_lvl 3
BRUNCH_STAT num_queries 17
BRUNCH_STAT num_reach_queries 3
BRUNCH_STAT num_reach_reuse 0
BRUNCH_STAT inductive_lvl 0
BRUNCH_STAT max_depth 3
BRUNCH_STAT cex_depth 3
(:SPACER-cex-depth                     3
 :SPACER-expand-node-undef             12
 :SPACER-max-depth                     3
 :SPACER-max-query-lvl                 3
 :SPACER-num-invariants                5
 :SPACER-num-lemmas                    17
 :SPACER-num-properties                14
 :SPACER-num-queries                   17
 :SPACER-num-reach-queries             3
 :added-eqs                            22355
 :arith-add-rows                       6844
 :arith-assert-diseq                   6999
 :arith-assert-lower                   10820
 :arith-assert-upper                   9581
 :arith-bound-prop                     789
 :arith-conflicts                      55
 :arith-eq-adapter                     5516
 :arith-fixed-eqs                      1851
 :arith-gcd-tests                      391
 :arith-gomory-cuts                    5
 :arith-ineq-splits                    8
 :arith-offset-eqs                     1659
 :arith-pivots                         1291
 :bool-inductive-gen                   14
 :bool-inductive-gen-failures          13
 :conflicts                            372
 :decisions                            19578
 :del-clause                           7242
 :final-checks                         115
 :interface-eqs                        43
 :minimized-lits                       292
 :mk-bool-var                          12893
 :mk-clause                            18484
 :num-checks                           95
 :propagations                         119024
 :time.itp_solver.itp_core             0.01
 :time.spacer.init_rules               0.00
 :time.spacer.init_rules.pt.init       0.00
 :time.spacer.solve                    0.44
 :time.spacer.solve.propagate          0.05
 :time.spacer.solve.reach              0.39
 :time.spacer.solve.reach.children     0.02
 :time.spacer.solve.reach.gen.bool_ind 0.05
 :time.spacer.solve.reach.is-reach     0.18
 :time.virtual_solver.proof            0.01
 :time.virtual_solver.smt.total        0.33
 :time.virtual_solver.smt.total.sat    0.18
 :time.virtual_solver.smt.total.undef  0.08
 :virtual_solver.checks                95
 :virtual_solver.checks.sat            18
 :virtual_solver.checks.undef          19)
BRUNCH_STAT max_query_lvl 3
BRUNCH_STAT num_queries 17
BRUNCH_STAT num_reach_queries 3
BRUNCH_STAT num_reach_reuse 0
BRUNCH_STAT inductive_lvl 0
BRUNCH_STAT max_depth 3
BRUNCH_STAT cex_depth 3

real	0m0.569s
user	0m0.548s
sys	0m0.016s
