(transform N7datalog13mk_coi_filterE...no-op 0s)
(transform N7datalog25mk_interp_tail_simplifierE...12 rules 0s)
(transform N7datalog27mk_quantifier_instantiationE...no-op 0s)
(transform N7datalog8mk_scaleE...no-op 0s)
(transform N7datalog18mk_karr_invariantsE...no-op 0s)
(transform N7datalog14mk_array_blastE...no-op 0s)
(transform N7datalog22mk_subsumption_checkerE...11 rules 0s)
(transform N7datalog12mk_bit_blastE...no-op 0s)
(transform N7datalog15mk_rule_inlinerE...3 rules 0.00644144s)
(transform N7datalog13mk_coi_filterE...no-op 0s)
(transform N7datalog25mk_interp_tail_simplifierE...3 rules 0s)
(transform N7datalog22mk_subsumption_checkerE...no-op 0s)
(transform N7datalog15mk_rule_inlinerE...no-op 0s)
(transform N7datalog13mk_coi_filterE...no-op 0s)
(transform N7datalog25mk_interp_tail_simplifierE...3 rules 0s)
(transform N7datalog22mk_subsumption_checkerE...no-op 0s)
(transform N7datalog15mk_rule_inlinerE...no-op 0s)
(transform N7datalog22mk_subsumption_checkerE...no-op 0s)
(transform N7datalog15mk_rule_inlinerE...no-op 0s)
(transform N7datalog22mk_subsumption_checkerE...no-op 0s)
(transform N7datalog15mk_rule_inlinerE...no-op 0s)
(transform N7datalog22mk_subsumption_checkerE...no-op 0s)
(transform N7datalog8mk_sliceE...no-op 0s)
expand: query!0 (0, 0) FAR  w(0) 1. F 0.00
(spacer::context::check_reachability :time 0.00 :before-memory 4.79 :after-memory 5.47)
Entering level 1
BRUNCH_STAT max_query_lvl 0
BRUNCH_STAT num_queries 0
BRUNCH_STAT num_reach_queries 0
BRUNCH_STAT num_reach_reuse 0
BRUNCH_STAT inductive_lvl 0
BRUNCH_STAT max_depth 1
BRUNCH_STAT cex_depth 0
expand: query!0 (1, 0) FAR  w(0) 1.
	create_child: MAIN (0, 1) FAR 6019 U 0.00
expand: MAIN (0, 0) FAR  w(0) 6019. F 0.00
expand: query!0 (1, 0) FAR  w(0) 1. F 0.00
(spacer::context::check_reachability :time 0.01 :before-memory 5.47 :after-memory 6.71)
Propagating: 0 1  ! 2 
(spacer::context::propagate :time 0.00 :before-memory 6.71 :after-memory 6.80)
Entering level 2
BRUNCH_STAT max_query_lvl 1
BRUNCH_STAT num_queries 1
BRUNCH_STAT num_reach_queries 0
BRUNCH_STAT num_reach_reuse 0
BRUNCH_STAT inductive_lvl 0
BRUNCH_STAT max_depth 2
BRUNCH_STAT cex_depth 0
expand: query!0 (2, 0) FAR  w(0) 1.
	create_child: MAIN (1, 2) FAR 6019 U 0.00
expand: MAIN (1, 0) FAR  w(0) 6019.
	create_child: MAIN (0, 2) FAR 10674 U 0.00
expand: MAIN (0, 0) FAR  w(0) 10674. F 0.00
expand: MAIN (1, 0) FAR  w(0) 6019.
	create_child: MAIN (0, 2) FAR 10858 U 0.00
expand: MAIN (0, 0) FAR  w(0) 10858. F 0.00
expand: MAIN (1, 0) FAR  w(0) 6019.
	create_child: MAIN (0, 2) FAR 10975 U 0.00
expand: MAIN (0, 0) FAR  w(0) 10975. F 0.00
expand: MAIN (1, 0) FAR  w(0) 6019.
	create_child: MAIN (0, 2) FAR 11082 U 0.00
expand: MAIN (0, 0) FAR  w(0) 11082. F 0.00
expand: MAIN (1, 0) FAR  w(0) 6019. F 0.00
expand: query!0 (2, 0) FAR  w(0) 1. F 0.00
(spacer::context::check_reachability :time 0.01 :before-memory 6.80 :after-memory 7.00)
Propagating: 0 1 2  ! 3 
(spacer::context::propagate :time 0.00 :before-memory 7.00 :after-memory 7.00)
Entering level 3
BRUNCH_STAT max_query_lvl 2
BRUNCH_STAT num_queries 6
BRUNCH_STAT num_reach_queries 0
BRUNCH_STAT num_reach_reuse 0
BRUNCH_STAT inductive_lvl 0
BRUNCH_STAT max_depth 3
BRUNCH_STAT cex_depth 0
expand: query!0 (3, 0) FAR  w(0) 1.
	create_child: MAIN (2, 3) FAR 6019 U 0.00
expand: MAIN (2, 0) FAR  w(0) 6019.
	create_child: MAIN (1, 3) FAR 11416 U 0.00
expand: MAIN (1, 0) FAR  w(0) 11416. F 0.00
expand: MAIN (2, 0) FAR  w(0) 6019. F 0.00
expand: query!0 (3, 0) FAR  w(0) 1. F 0.00
(spacer::context::check_reachability :time 0.00 :before-memory 7.00 :after-memory 7.00)
Propagating: 1 2 
(spacer::context::propagate :time 0.00 :before-memory 7.00 :after-memory 7.00)
(define-fun MAIN ((x!0 Bool)
 (x!1 Bool)
 (x!2 Int)
 (x!3 Int)
 (x!4 Int)
 (x!5 Int)
 (x!6 Int)
 (x!7 Int)
 (x!8 Int)
 (x!9 Int)
 (x!10 Int)
 (x!11 Int)
 (x!12 Int)
 (x!13 Int)
 (x!14 Int)
 (x!15 Int)
 (x!16 Bool)
 (x!17 Bool)) Bool
  (and (>= x!7 0) x!17))
BRUNCH_STAT max_query_lvl 3
BRUNCH_STAT num_queries 8
BRUNCH_STAT num_reach_queries 0
BRUNCH_STAT num_reach_reuse 0
BRUNCH_STAT inductive_lvl 2
BRUNCH_STAT max_depth 3
BRUNCH_STAT cex_depth 0
(:SPACER-inductive-level               2
 :SPACER-max-depth                     3
 :SPACER-max-query-lvl                 3
 :SPACER-num-invariants                3
 :SPACER-num-lemmas                    12
 :SPACER-num-properties                7
 :SPACER-num-queries                   8
 :added-eqs                            885
 :arith-assert-diseq                   672
 :arith-assert-lower                   956
 :arith-assert-upper                   1024
 :arith-bound-prop                     66
 :arith-conflicts                      1
 :arith-eq-adapter                     216
 :arith-fixed-eqs                      103
 :arith-offset-eqs                     12
 :arith-pivots                         37
 :bool-inductive-gen                   8
 :bool-inductive-gen-failures          8
 :conflicts                            53
 :decisions                            1228
 :del-clause                           386
 :final-checks                         17
 :mk-bool-var                          918
 :mk-clause                            2453
 :num-checks                           45
 :propagations                         9846
 :time.itp_solver.itp_core             0.00
 :time.spacer.init_rules               0.00
 :time.spacer.init_rules.pt.init       0.00
 :time.spacer.solve                    0.03
 :time.spacer.solve.propagate          0.01
 :time.spacer.solve.reach              0.02
 :time.spacer.solve.reach.children     0.00
 :time.spacer.solve.reach.gen.bool_ind 0.00
 :time.virtual_solver.proof            0.00
 :time.virtual_solver.smt.total        0.02
 :time.virtual_solver.smt.total.sat    0.01
 :virtual_solver.checks                45
 :virtual_solver.checks.sat            17)
BRUNCH_STAT max_query_lvl 3
BRUNCH_STAT num_queries 8
BRUNCH_STAT num_reach_queries 0
BRUNCH_STAT num_reach_reuse 0
BRUNCH_STAT inductive_lvl 2
BRUNCH_STAT max_depth 3
BRUNCH_STAT cex_depth 0

real	0m0.065s
user	0m0.056s
sys	0m0.008s
