(transform N7datalog13mk_coi_filterE...no-op 0s)
(transform N7datalog25mk_interp_tail_simplifierE...12 rules 0s)
(transform N7datalog27mk_quantifier_instantiationE...no-op 0s)
(transform N7datalog8mk_scaleE...no-op 0s)
(transform N7datalog18mk_karr_invariantsE...no-op 0s)
(transform N7datalog14mk_array_blastE...no-op 0s)
(transform N7datalog22mk_subsumption_checkerE...11 rules 0s)
(transform N7datalog12mk_bit_blastE...no-op 0s)
(transform N7datalog15mk_rule_inlinerE...3 rules 0.00658697s)
(transform N7datalog13mk_coi_filterE...no-op 0s)
(transform N7datalog25mk_interp_tail_simplifierE...3 rules 0s)
(transform N7datalog22mk_subsumption_checkerE...no-op 0s)
(transform N7datalog15mk_rule_inlinerE...no-op 0s)
(transform N7datalog13mk_coi_filterE...no-op 0s)
(transform N7datalog25mk_interp_tail_simplifierE...3 rules 0s)
(transform N7datalog22mk_subsumption_checkerE...no-op 0s)
(transform N7datalog15mk_rule_inlinerE...no-op 0s)
(transform N7datalog22mk_subsumption_checkerE...no-op 0s)
(transform N7datalog15mk_rule_inlinerE...no-op 0s)
(transform N7datalog22mk_subsumption_checkerE...no-op 0s)
(transform N7datalog15mk_rule_inlinerE...no-op 0s)
(transform N7datalog22mk_subsumption_checkerE...no-op 0s)
(transform N7datalog8mk_sliceE...no-op 0s)
expand: query!0 (0, 0) FAR  w(0) 1. F 0.00
(spacer::context::check_reachability :time 0.00 :before-memory 4.80 :after-memory 5.48)
Entering level 1
BRUNCH_STAT max_query_lvl 0
BRUNCH_STAT num_queries 0
BRUNCH_STAT num_reach_queries 0
BRUNCH_STAT num_reach_reuse 0
BRUNCH_STAT inductive_lvl 0
BRUNCH_STAT max_depth 1
BRUNCH_STAT cex_depth 0
expand: query!0 (1, 0) FAR  w(0) 1.
	create_child: MAIN (0, 1) FAR 6157 U 0.00
expand: MAIN (0, 0) FAR  w(0) 6157. F 0.01
expand: query!0 (1, 0) FAR  w(0) 1. F 0.00
(spacer::context::check_reachability :time 0.01 :before-memory 5.48 :after-memory 6.76)
Propagating: 0 1  ! 2 
(spacer::context::propagate :time 0.00 :before-memory 6.76 :after-memory 6.86)
Entering level 2
BRUNCH_STAT max_query_lvl 1
BRUNCH_STAT num_queries 1
BRUNCH_STAT num_reach_queries 0
BRUNCH_STAT num_reach_reuse 0
BRUNCH_STAT inductive_lvl 0
BRUNCH_STAT max_depth 2
BRUNCH_STAT cex_depth 0
expand: query!0 (2, 0) FAR  w(0) 1.
	create_child: MAIN (1, 2) FAR 6157 U 0.00
expand: MAIN (1, 0) FAR  w(0) 6157.
	create_child: MAIN (0, 2) FAR 10947 U 0.00
expand: MAIN (0, 0) FAR  w(0) 10947. F 0.00
expand: MAIN (1, 0) FAR  w(0) 6157.
	create_child: MAIN (0, 2) FAR 11210 U 0.00
expand: MAIN (0, 0) FAR  w(0) 11210. F 0.00
expand: MAIN (1, 0) FAR  w(0) 6157.
	create_child: MAIN (0, 2) FAR 11247 U 0.00
expand: MAIN (0, 0) FAR  w(0) 11247. F 0.00
expand: MAIN (1, 0) FAR  w(0) 6157.
	create_child: MAIN (0, 2) FAR 11238 U 0.00
expand: MAIN (0, 0) FAR  w(0) 11238. F 0.00
expand: MAIN (1, 0) FAR  w(0) 6157.
	create_child: MAIN (0, 2) FAR 11771 U 0.00
expand: MAIN (0, 0) FAR  w(0) 11771. F 0.00
expand: MAIN (1, 0) FAR  w(0) 6157. F 0.00
expand: query!0 (2, 0) FAR  w(0) 1. F 0.00
(spacer::context::check_reachability :time 0.02 :before-memory 6.86 :after-memory 7.34)
Propagating: 0 1 2  ! 3 
(spacer::context::propagate :time 0.00 :before-memory 7.34 :after-memory 7.44)
Entering level 3
BRUNCH_STAT max_query_lvl 2
BRUNCH_STAT num_queries 7
BRUNCH_STAT num_reach_queries 0
BRUNCH_STAT num_reach_reuse 0
BRUNCH_STAT inductive_lvl 0
BRUNCH_STAT max_depth 3
BRUNCH_STAT cex_depth 0
expand: query!0 (3, 0) FAR  w(0) 1.
	create_child: MAIN (2, 3) FAR 6157 U 0.00
expand: MAIN (2, 0) FAR  w(0) 6157.
	create_child: MAIN (1, 3) FAR 12307 U 0.00
expand: MAIN (1, 0) FAR  w(0) 12307. F 0.00
expand: MAIN (2, 0) FAR  w(0) 6157.
	create_child: MAIN (1, 3) FAR 12684 U 0.00
expand: MAIN (1, 0) FAR  w(0) 12684. F 0.00
expand: MAIN (2, 0) FAR  w(0) 6157. F 0.00
expand: query!0 (3, 0) FAR  w(0) 1. F 0.00
(spacer::context::check_reachability :time 0.01 :before-memory 7.44 :after-memory 7.51)
Propagating: 1 2 3  ! 4 
(spacer::context::propagate :time 0.00 :before-memory 7.51 :after-memory 7.51)
Entering level 4
BRUNCH_STAT max_query_lvl 3
BRUNCH_STAT num_queries 10
BRUNCH_STAT num_reach_queries 0
BRUNCH_STAT num_reach_reuse 0
BRUNCH_STAT inductive_lvl 0
BRUNCH_STAT max_depth 4
BRUNCH_STAT cex_depth 0
expand: query!0 (4, 0) FAR  w(0) 1.
	create_child: MAIN (3, 4) FAR 6157 U 0.00
expand: MAIN (3, 0) FAR  w(0) 6157.
	create_child: MAIN (2, 4) FAR 13451 U 0.00
expand: MAIN (2, 0) FAR  w(0) 13451. F 0.00
expand: MAIN (3, 0) FAR  w(0) 6157. F 0.00
expand: query!0 (4, 0) FAR  w(0) 1. F 0.00
(spacer::context::check_reachability :time 0.00 :before-memory 7.51 :after-memory 7.60)
Propagating: 2 3 4  ! 5 
(spacer::context::propagate :time 0.00 :before-memory 7.60 :after-memory 7.60)
Entering level 5
BRUNCH_STAT max_query_lvl 4
BRUNCH_STAT num_queries 12
BRUNCH_STAT num_reach_queries 0
BRUNCH_STAT num_reach_reuse 0
BRUNCH_STAT inductive_lvl 0
BRUNCH_STAT max_depth 5
BRUNCH_STAT cex_depth 0
expand: query!0 (5, 0) FAR  w(0) 1.
	create_child: MAIN (4, 5) FAR 6157 U 0.00
expand: MAIN (4, 0) FAR  w(0) 6157.
	create_child: MAIN (3, 5) FAR 14204 U 0.00
expand: MAIN (3, 0) FAR  w(0) 14204. F 0.00
expand: MAIN (4, 0) FAR  w(0) 6157. F 0.00
expand: query!0 (5, 0) FAR  w(0) 1. F 0.00
(spacer::context::check_reachability :time 0.00 :before-memory 7.60 :after-memory 7.71)
Propagating: 3 
(spacer::context::propagate :time 0.00 :before-memory 7.71 :after-memory 7.71)
(define-fun MAIN ((x!0 Bool)
 (x!1 Bool)
 (x!2 Int)
 (x!3 Int)
 (x!4 Int)
 (x!5 Int)
 (x!6 Int)
 (x!7 Int)
 (x!8 Int)
 (x!9 Int)
 (x!10 Int)
 (x!11 Int)
 (x!12 Int)
 (x!13 Int)
 (x!14 Int)
 (x!15 Int)
 (x!16 Bool)
 (x!17 Bool)) Bool
  (and (>= x!4 0) x!17 (not x!1) (>= x!7 0) (>= x!6 0) (>= x!5 0)))
BRUNCH_STAT max_query_lvl 5
BRUNCH_STAT num_queries 14
BRUNCH_STAT num_reach_queries 0
BRUNCH_STAT num_reach_reuse 0
BRUNCH_STAT inductive_lvl 3
BRUNCH_STAT max_depth 5
BRUNCH_STAT cex_depth 0
(:SPACER-inductive-level               3
 :SPACER-max-depth                     5
 :SPACER-max-query-lvl                 5
 :SPACER-num-invariants                7
 :SPACER-num-lemmas                    20
 :SPACER-num-properties                11
 :SPACER-num-queries                   14
 :added-eqs                            1896
 :arith-assert-diseq                   1163
 :arith-assert-lower                   1664
 :arith-assert-upper                   1934
 :arith-bound-prop                     94
 :arith-conflicts                      2
 :arith-eq-adapter                     402
 :arith-fixed-eqs                      247
 :arith-offset-eqs                     45
 :arith-pivots                         62
 :bool-inductive-gen                   14
 :bool-inductive-gen-failures          14
 :conflicts                            134
 :decisions                            1753
 :del-clause                           598
 :final-checks                         29
 :minimized-lits                       43
 :mk-bool-var                          1123
 :mk-clause                            2954
 :num-checks                           90
 :propagations                         21805
 :time.itp_solver.itp_core             0.01
 :time.spacer.init_rules               0.00
 :time.spacer.init_rules.pt.init       0.00
 :time.spacer.solve                    0.05
 :time.spacer.solve.propagate          0.01
 :time.spacer.solve.reach              0.04
 :time.spacer.solve.reach.children     0.01
 :time.spacer.solve.reach.gen.bool_ind 0.00
 :time.virtual_solver.proof            0.00
 :time.virtual_solver.smt.total        0.04
 :time.virtual_solver.smt.total.sat    0.02
 :virtual_solver.checks                90
 :virtual_solver.checks.sat            29)
BRUNCH_STAT max_query_lvl 5
BRUNCH_STAT num_queries 14
BRUNCH_STAT num_reach_queries 0
BRUNCH_STAT num_reach_reuse 0
BRUNCH_STAT inductive_lvl 3
BRUNCH_STAT max_depth 5
BRUNCH_STAT cex_depth 0

real	0m0.096s
user	0m0.088s
sys	0m0.008s
