(transform N7datalog13mk_coi_filterE...no-op 0s)
(transform N7datalog25mk_interp_tail_simplifierE...11 rules 0s)
(transform N7datalog27mk_quantifier_instantiationE...no-op 0s)
(transform N7datalog8mk_scaleE...no-op 0s)
(transform N7datalog18mk_karr_invariantsE...no-op 0s)
(transform N7datalog14mk_array_blastE...no-op 0s)
(transform N7datalog22mk_subsumption_checkerE...10 rules 0s)
(transform N7datalog12mk_bit_blastE...no-op 0s)
(transform N7datalog15mk_rule_inlinerE...3 rules 0.00135074s)
(transform N7datalog13mk_coi_filterE...no-op 0s)
(transform N7datalog25mk_interp_tail_simplifierE...3 rules 0s)
(transform N7datalog22mk_subsumption_checkerE...no-op 0s)
(transform N7datalog15mk_rule_inlinerE...no-op 0s)
(transform N7datalog13mk_coi_filterE...no-op 0s)
(transform N7datalog25mk_interp_tail_simplifierE...3 rules 0s)
(transform N7datalog22mk_subsumption_checkerE...no-op 0s)
(transform N7datalog15mk_rule_inlinerE...no-op 0s)
(transform N7datalog22mk_subsumption_checkerE...no-op 0s)
(transform N7datalog15mk_rule_inlinerE...no-op 0s)
(transform N7datalog22mk_subsumption_checkerE...no-op 0s)
(transform N7datalog15mk_rule_inlinerE...no-op 0s)
(transform N7datalog22mk_subsumption_checkerE...no-op 0s)
(transform N7datalog8mk_sliceE...no-op 0s)
expand: query!0 (0, 0) FAR  w(0) 1. F 0.00
(spacer::context::check_reachability :time 0.00 :before-memory 4.18 :after-memory 4.80)
Entering level 1
BRUNCH_STAT max_query_lvl 0
BRUNCH_STAT num_queries 0
BRUNCH_STAT num_reach_queries 0
BRUNCH_STAT num_reach_reuse 0
BRUNCH_STAT inductive_lvl 0
BRUNCH_STAT max_depth 1
BRUNCH_STAT cex_depth 0
expand: query!0 (1, 0) FAR  w(0) 1.
	create_child: MAIN (0, 1) FAR 1221 U 0.00
expand: MAIN (0, 0) FAR  w(0) 1221. F 0.00
expand: query!0 (1, 0) FAR  w(0) 1. F 0.00
(spacer::context::check_reachability :time 0.00 :before-memory 4.80 :after-memory 5.32)
Propagating: 0 1  ! 2 
(spacer::context::propagate :time 0.00 :before-memory 5.32 :after-memory 5.32)
Entering level 2
BRUNCH_STAT max_query_lvl 1
BRUNCH_STAT num_queries 1
BRUNCH_STAT num_reach_queries 0
BRUNCH_STAT num_reach_reuse 0
BRUNCH_STAT inductive_lvl 0
BRUNCH_STAT max_depth 2
BRUNCH_STAT cex_depth 0
expand: query!0 (2, 0) FAR  w(0) 1.
	create_child: MAIN (1, 2) FAR 1221 U 0.00
expand: MAIN (1, 0) FAR  w(0) 1221.
	create_child: MAIN (0, 2) FAR 2018 U 0.00
expand: MAIN (0, 0) FAR  w(0) 2018. F 0.00
expand: MAIN (1, 0) FAR  w(0) 1221.
	create_child: MAIN (0, 2) FAR 2058 U 0.00
expand: MAIN (0, 0) FAR  w(0) 2058. F 0.00
expand: MAIN (1, 0) FAR  w(0) 1221.
	create_child: MAIN (0, 2) FAR 2125 U 0.00
expand: MAIN (0, 0) FAR  w(0) 2125. F 0.00
expand: MAIN (1, 0) FAR  w(0) 1221. F 0.00
expand: query!0 (2, 0) FAR  w(0) 1. F 0.00
(spacer::context::check_reachability :time 0.00 :before-memory 5.32 :after-memory 5.32)
Propagating: 0 1 2  ! 3 
(spacer::context::propagate :time 0.00 :before-memory 5.32 :after-memory 5.32)
Entering level 3
BRUNCH_STAT max_query_lvl 2
BRUNCH_STAT num_queries 5
BRUNCH_STAT num_reach_queries 0
BRUNCH_STAT num_reach_reuse 0
BRUNCH_STAT inductive_lvl 0
BRUNCH_STAT max_depth 3
BRUNCH_STAT cex_depth 0
expand: query!0 (3, 0) FAR  w(0) 1.
	create_child: MAIN (2, 3) FAR 1221 U 0.00
expand: MAIN (2, 0) FAR  w(0) 1221.
	create_child: MAIN (1, 3) FAR 2404 U 0.00
expand: MAIN (1, 0) FAR  w(0) 2404. F 0.00
expand: MAIN (2, 0) FAR  w(0) 1221.
	create_child: MAIN (1, 3) FAR 2535 U 0.00
expand: MAIN (1, 0) FAR  w(0) 2535. F 0.00
expand: MAIN (2, 0) FAR  w(0) 1221.
	create_child: MAIN (1, 3) FAR 2718 U 0.00
expand: MAIN (1, 0) FAR  w(0) 2718. F 0.00
expand: MAIN (2, 0) FAR  w(0) 1221. F 0.00
expand: query!0 (3, 0) FAR  w(0) 1. F 0.00
(spacer::context::check_reachability :time 0.01 :before-memory 5.32 :after-memory 5.60)
Propagating: 1 2 3  ! 4 
(spacer::context::propagate :time 0.00 :before-memory 5.60 :after-memory 5.60)
Entering level 4
BRUNCH_STAT max_query_lvl 3
BRUNCH_STAT num_queries 9
BRUNCH_STAT num_reach_queries 0
BRUNCH_STAT num_reach_reuse 0
BRUNCH_STAT inductive_lvl 0
BRUNCH_STAT max_depth 4
BRUNCH_STAT cex_depth 0
expand: query!0 (4, 0) FAR  w(0) 1.
	create_child: MAIN (3, 4) FAR 1221 U 0.00
expand: MAIN (3, 0) FAR  w(0) 1221.
	create_child: MAIN (2, 4) FAR 2814 U 0.00
expand: MAIN (2, 0) FAR  w(0) 2814. F 0.00
expand: MAIN (3, 0) FAR  w(0) 1221. F 0.00
expand: query!0 (4, 0) FAR  w(0) 1. F 0.00
(spacer::context::check_reachability :time 0.00 :before-memory 5.60 :after-memory 5.60)
Propagating: 2 
(spacer::context::propagate :time 0.00 :before-memory 5.60 :after-memory 5.60)
(define-fun MAIN ((x!0 Bool)
 (x!1 Bool)
 (x!2 Bool)
 (x!3 Bool)
 (x!4 Bool)
 (x!5 Int)
 (x!6 Bool)
 (x!7 Bool)) Bool
  (and (or (not (<= x!5 0)) (not x!3))
       x!7
       (or (not x!2) (not x!0))
       (or (not x!0) x!3)))
BRUNCH_STAT max_query_lvl 4
BRUNCH_STAT num_queries 11
BRUNCH_STAT num_reach_queries 0
BRUNCH_STAT num_reach_reuse 0
BRUNCH_STAT inductive_lvl 2
BRUNCH_STAT max_depth 4
BRUNCH_STAT cex_depth 0
(:SPACER-inductive-level               2
 :SPACER-max-depth                     4
 :SPACER-max-query-lvl                 4
 :SPACER-num-invariants                5
 :SPACER-num-lemmas                    16
 :SPACER-num-properties                9
 :SPACER-num-queries                   11
 :added-eqs                            187
 :arith-add-rows                       28
 :arith-assert-diseq                   122
 :arith-assert-lower                   191
 :arith-assert-upper                   224
 :arith-bound-prop                     19
 :arith-eq-adapter                     46
 :arith-fixed-eqs                      50
 :arith-pivots                         19
 :bool-inductive-gen                   11
 :bool-inductive-gen-failures          15
 :conflicts                            54
 :decisions                            667
 :del-clause                           14
 :final-checks                         29
 :mk-bool-var                          390
 :mk-clause                            484
 :num-checks                           63
 :propagations                         3849
 :time.itp_solver.itp_core             0.00
 :time.spacer.init_rules               0.00
 :time.spacer.init_rules.pt.init       0.00
 :time.spacer.solve                    0.02
 :time.spacer.solve.propagate          0.00
 :time.spacer.solve.reach              0.02
 :time.spacer.solve.reach.children     0.00
 :time.spacer.solve.reach.gen.bool_ind 0.00
 :time.virtual_solver.proof            0.00
 :time.virtual_solver.smt.total        0.01
 :time.virtual_solver.smt.total.sat    0.01
 :virtual_solver.checks                63
 :virtual_solver.checks.sat            29)
BRUNCH_STAT max_query_lvl 4
BRUNCH_STAT num_queries 11
BRUNCH_STAT num_reach_queries 0
BRUNCH_STAT num_reach_reuse 0
BRUNCH_STAT inductive_lvl 2
BRUNCH_STAT max_depth 4
BRUNCH_STAT cex_depth 0

real	0m0.040s
user	0m0.028s
sys	0m0.008s
