(transform N7datalog13mk_coi_filterE...no-op 0s)
(transform N7datalog25mk_interp_tail_simplifierE...14 rules 0s)
(transform N7datalog27mk_quantifier_instantiationE...no-op 0s)
(transform N7datalog8mk_scaleE...no-op 0s)
(transform N7datalog18mk_karr_invariantsE...no-op 0s)
(transform N7datalog14mk_array_blastE...no-op 0s)
(transform N7datalog22mk_subsumption_checkerE...13 rules 0s)
(transform N7datalog12mk_bit_blastE...no-op 0s)
(transform N7datalog15mk_rule_inlinerE...3 rules 0.0021218s)
(transform N7datalog13mk_coi_filterE...no-op 0s)
(transform N7datalog25mk_interp_tail_simplifierE...3 rules 0s)
(transform N7datalog22mk_subsumption_checkerE...no-op 0s)
(transform N7datalog15mk_rule_inlinerE...no-op 0s)
(transform N7datalog13mk_coi_filterE...no-op 0s)
(transform N7datalog25mk_interp_tail_simplifierE...3 rules 0s)
(transform N7datalog22mk_subsumption_checkerE...no-op 0s)
(transform N7datalog15mk_rule_inlinerE...no-op 0s)
(transform N7datalog22mk_subsumption_checkerE...no-op 0s)
(transform N7datalog15mk_rule_inlinerE...no-op 0s)
(transform N7datalog22mk_subsumption_checkerE...no-op 0s)
(transform N7datalog15mk_rule_inlinerE...no-op 0s)
(transform N7datalog22mk_subsumption_checkerE...no-op 0s)
(transform N7datalog8mk_sliceE...no-op 0s)
expand: query!0 (0, 0) FAR  w(0) 1. F 0.00
(spacer::context::check_reachability :time 0.00 :before-memory 4.25 :after-memory 4.74)
Entering level 1
BRUNCH_STAT max_query_lvl 0
BRUNCH_STAT num_queries 0
BRUNCH_STAT num_reach_queries 0
BRUNCH_STAT num_reach_reuse 0
BRUNCH_STAT inductive_lvl 0
BRUNCH_STAT max_depth 1
BRUNCH_STAT cex_depth 0
expand: query!0 (1, 0) FAR  w(0) 1.
	create_child: MAIN (0, 1) FAR 1714 U 0.00
expand: MAIN (0, 0) FAR  w(0) 1714. F 0.00
expand: query!0 (1, 0) FAR  w(0) 1. F 0.00
(spacer::context::check_reachability :time 0.00 :before-memory 4.74 :after-memory 5.56)
Propagating: 0 1  ! 2 
(spacer::context::propagate :time 0.00 :before-memory 5.56 :after-memory 5.56)
Entering level 2
BRUNCH_STAT max_query_lvl 1
BRUNCH_STAT num_queries 1
BRUNCH_STAT num_reach_queries 0
BRUNCH_STAT num_reach_reuse 0
BRUNCH_STAT inductive_lvl 0
BRUNCH_STAT max_depth 2
BRUNCH_STAT cex_depth 0
expand: query!0 (2, 0) FAR  w(0) 1.
	create_child: MAIN (1, 2) FAR 1714 U 0.00
expand: MAIN (1, 0) FAR  w(0) 1714.
	create_child: MAIN (0, 2) FAR 3055 U 0.00
expand: MAIN (0, 0) FAR  w(0) 3055. F 0.00
expand: MAIN (1, 0) FAR  w(0) 1714.
	create_child: MAIN (0, 2) FAR 3252 U 0.00
expand: MAIN (0, 0) FAR  w(0) 3252. F 0.00
expand: MAIN (1, 0) FAR  w(0) 1714.
	create_child: MAIN (0, 2) FAR 3337 U 0.00
expand: MAIN (0, 0) FAR  w(0) 3337. F 0.00
expand: MAIN (1, 0) FAR  w(0) 1714.
	create_child: MAIN (0, 2) FAR 3408 U 0.00
expand: MAIN (0, 0) FAR  w(0) 3408. F 0.00
expand: MAIN (1, 0) FAR  w(0) 1714.
	create_child: MAIN (0, 2) FAR 3459 U 0.00
expand: MAIN (0, 0) FAR  w(0) 3459. F 0.00
expand: MAIN (1, 0) FAR  w(0) 1714.
	create_child: MAIN (0, 2) FAR 3502 U 0.00
expand: MAIN (0, 0) FAR  w(0) 3502. F 0.00
expand: MAIN (1, 0) FAR  w(0) 1714. F 0.00
expand: query!0 (2, 0) FAR  w(0) 1. F 0.00
(spacer::context::check_reachability :time 0.01 :before-memory 5.56 :after-memory 5.65)
Propagating: 0 1 2  ! 3 
(spacer::context::propagate :time 0.00 :before-memory 5.65 :after-memory 5.65)
Entering level 3
BRUNCH_STAT max_query_lvl 2
BRUNCH_STAT num_queries 8
BRUNCH_STAT num_reach_queries 0
BRUNCH_STAT num_reach_reuse 0
BRUNCH_STAT inductive_lvl 0
BRUNCH_STAT max_depth 3
BRUNCH_STAT cex_depth 0
expand: query!0 (3, 0) FAR  w(0) 1.
	create_child: MAIN (2, 3) FAR 1714 U 0.00
expand: MAIN (2, 0) FAR  w(0) 1714.
	create_child: MAIN (1, 3) FAR 4109 U 0.00
expand: MAIN (1, 0) FAR  w(0) 4109. T 0.00
is-reachable: MAIN (2, 0) FAR 1714 T 0.00
is-reachable: query!0 (3, 0) FAR 1 T 0.00
(spacer::context::check_reachability :time 0.01 :before-memory 5.65 :after-memory 6.23)
BRUNCH_STAT max_query_lvl 3
BRUNCH_STAT num_queries 10
BRUNCH_STAT num_reach_queries 3
BRUNCH_STAT num_reach_reuse 1
BRUNCH_STAT inductive_lvl 0
BRUNCH_STAT max_depth 3
BRUNCH_STAT cex_depth 3
(:SPACER-cex-depth                     3
 :SPACER-max-depth                     3
 :SPACER-max-query-lvl                 3
 :SPACER-num-invariants                3
 :SPACER-num-lemmas                    11
 :SPACER-num-properties                8
 :SPACER-num-queries                   10
 :SPACER-num-reach-queries             3
 :SPACER-num-reuse-reach-facts         1
 :added-eqs                            513
 :arith-add-rows                       250
 :arith-assert-diseq                   105
 :arith-assert-lower                   449
 :arith-assert-upper                   259
 :arith-bound-prop                     74
 :arith-conflicts                      10
 :arith-eq-adapter                     103
 :arith-fixed-eqs                      102
 :arith-offset-eqs                     69
 :arith-pivots                         70
 :bool-inductive-gen                   8
 :bool-inductive-gen-failures          9
 :conflicts                            67
 :decisions                            685
 :del-clause                           35
 :final-checks                         22
 :minimized-lits                       15
 :mk-bool-var                          573
 :mk-clause                            1109
 :num-checks                           48
 :propagations                         4693
 :time.itp_solver.itp_core             0.00
 :time.spacer.init_rules               0.00
 :time.spacer.init_rules.pt.init       0.00
 :time.spacer.solve                    0.03
 :time.spacer.solve.propagate          0.00
 :time.spacer.solve.reach              0.02
 :time.spacer.solve.reach.children     0.00
 :time.spacer.solve.reach.gen.bool_ind 0.00
 :time.spacer.solve.reach.is-reach     0.01
 :time.virtual_solver.proof            0.00
 :time.virtual_solver.smt.total        0.02
 :time.virtual_solver.smt.total.sat    0.01
 :virtual_solver.checks                48
 :virtual_solver.checks.sat            22)
BRUNCH_STAT max_query_lvl 3
BRUNCH_STAT num_queries 10
BRUNCH_STAT num_reach_queries 3
BRUNCH_STAT num_reach_reuse 1
BRUNCH_STAT inductive_lvl 0
BRUNCH_STAT max_depth 3
BRUNCH_STAT cex_depth 3

real	0m0.051s
user	0m0.044s
sys	0m0.004s
