(transform N7datalog13mk_coi_filterE...no-op 0s)
(transform N7datalog25mk_interp_tail_simplifierE...14 rules 0s)
(transform N7datalog27mk_quantifier_instantiationE...no-op 0s)
(transform N7datalog8mk_scaleE...no-op 0s)
(transform N7datalog18mk_karr_invariantsE...no-op 0s)
(transform N7datalog14mk_array_blastE...no-op 0s)
(transform N7datalog22mk_subsumption_checkerE...13 rules 0s)
(transform N7datalog12mk_bit_blastE...no-op 0s)
(transform N7datalog15mk_rule_inlinerE...3 rules 0.00260985s)
(transform N7datalog13mk_coi_filterE...no-op 0s)
(transform N7datalog25mk_interp_tail_simplifierE...3 rules 0s)
(transform N7datalog22mk_subsumption_checkerE...no-op 0s)
(transform N7datalog15mk_rule_inlinerE...no-op 0s)
(transform N7datalog13mk_coi_filterE...no-op 0s)
(transform N7datalog25mk_interp_tail_simplifierE...3 rules 0s)
(transform N7datalog22mk_subsumption_checkerE...no-op 0s)
(transform N7datalog15mk_rule_inlinerE...no-op 0s)
(transform N7datalog22mk_subsumption_checkerE...no-op 0s)
(transform N7datalog15mk_rule_inlinerE...no-op 0s)
(transform N7datalog22mk_subsumption_checkerE...no-op 0s)
(transform N7datalog15mk_rule_inlinerE...no-op 0s)
(transform N7datalog22mk_subsumption_checkerE...no-op 0s)
(transform N7datalog8mk_sliceE...no-op 0s)
expand: query!0 (0, 0) FAR  w(0) 1. F 0.00
(spacer::context::check_reachability :time 0.00 :before-memory 4.30 :after-memory 4.81)
Entering level 1
BRUNCH_STAT max_query_lvl 0
BRUNCH_STAT num_queries 0
BRUNCH_STAT num_reach_queries 0
BRUNCH_STAT num_reach_reuse 0
BRUNCH_STAT inductive_lvl 0
BRUNCH_STAT max_depth 1
BRUNCH_STAT cex_depth 0
expand: query!0 (1, 0) FAR  w(0) 1.
	create_child: MAIN (0, 1) FAR 2086 U 0.00
expand: MAIN (0, 0) FAR  w(0) 2086. F 0.00
expand: query!0 (1, 0) FAR  w(0) 1. F 0.00
(spacer::context::check_reachability :time 0.00 :before-memory 4.81 :after-memory 5.61)
Propagating: 0 1  ! 2 
(spacer::context::propagate :time 0.00 :before-memory 5.61 :after-memory 5.61)
Entering level 2
BRUNCH_STAT max_query_lvl 1
BRUNCH_STAT num_queries 1
BRUNCH_STAT num_reach_queries 0
BRUNCH_STAT num_reach_reuse 0
BRUNCH_STAT inductive_lvl 0
BRUNCH_STAT max_depth 2
BRUNCH_STAT cex_depth 0
expand: query!0 (2, 0) FAR  w(0) 1.
	create_child: MAIN (1, 2) FAR 2086 U 0.00
expand: MAIN (1, 0) FAR  w(0) 2086.
	create_child: MAIN (0, 2) FAR 3846 U 0.00
expand: MAIN (0, 0) FAR  w(0) 3846. F 0.00
expand: MAIN (1, 0) FAR  w(0) 2086.
	create_child: MAIN (0, 2) FAR 4048 U 0.00
expand: MAIN (0, 0) FAR  w(0) 4048. F 0.00
expand: MAIN (1, 0) FAR  w(0) 2086.
	create_child: MAIN (0, 2) FAR 3983 U 0.00
expand: MAIN (0, 0) FAR  w(0) 3983. F 0.00
expand: MAIN (1, 0) FAR  w(0) 2086.
	create_child: MAIN (0, 2) FAR 4188 U 0.00
expand: MAIN (0, 0) FAR  w(0) 4188. F 0.00
expand: MAIN (1, 0) FAR  w(0) 2086.
	create_child: MAIN (0, 2) FAR 4264 U 0.00
expand: MAIN (0, 0) FAR  w(0) 4264. F 0.00
expand: MAIN (1, 0) FAR  w(0) 2086.
	create_child: MAIN (0, 2) FAR 4439 U 0.00
expand: MAIN (0, 0) FAR  w(0) 4439. F 0.00
expand: MAIN (1, 0) FAR  w(0) 2086.
	create_child: MAIN (0, 2) FAR 4690 U 0.00
expand: MAIN (0, 0) FAR  w(0) 4690. F 0.00
expand: MAIN (1, 0) FAR  w(0) 2086. F 0.00
expand: query!0 (2, 0) FAR  w(0) 1. F 0.00
(spacer::context::check_reachability :time 0.02 :before-memory 5.61 :after-memory 5.90)
Propagating: 0 1 2  ! 3 
(spacer::context::propagate :time 0.01 :before-memory 5.90 :after-memory 6.12)
Entering level 3
BRUNCH_STAT max_query_lvl 2
BRUNCH_STAT num_queries 9
BRUNCH_STAT num_reach_queries 0
BRUNCH_STAT num_reach_reuse 0
BRUNCH_STAT inductive_lvl 0
BRUNCH_STAT max_depth 3
BRUNCH_STAT cex_depth 0
expand: query!0 (3, 0) FAR  w(0) 1.
	create_child: MAIN (2, 3) FAR 2086 U 0.00
expand: MAIN (2, 0) FAR  w(0) 2086.
	create_child: MAIN (1, 3) FAR 5989 U 0.00
expand: MAIN (1, 0) FAR  w(0) 5989. F 0.00
expand: MAIN (2, 0) FAR  w(0) 2086.
	create_child: MAIN (1, 3) FAR 6515 U 0.00
expand: MAIN (1, 0) FAR  w(0) 6515. T 0.00
is-reachable: MAIN (2, 0) FAR 2086 T 0.01
is-reachable: query!0 (3, 0) FAR 1 T 0.00
(spacer::context::check_reachability :time 0.02 :before-memory 6.12 :after-memory 6.70)
BRUNCH_STAT max_query_lvl 3
BRUNCH_STAT num_queries 12
BRUNCH_STAT num_reach_queries 3
BRUNCH_STAT num_reach_reuse 1
BRUNCH_STAT inductive_lvl 0
BRUNCH_STAT max_depth 3
BRUNCH_STAT cex_depth 3
(:SPACER-cex-depth                     3
 :SPACER-max-depth                     3
 :SPACER-max-query-lvl                 3
 :SPACER-num-invariants                5
 :SPACER-num-lemmas                    13
 :SPACER-num-properties                10
 :SPACER-num-queries                   12
 :SPACER-num-reach-queries             3
 :SPACER-num-reuse-reach-facts         1
 :added-eqs                            1331
 :arith-add-rows                       754
 :arith-assert-diseq                   395
 :arith-assert-lower                   1016
 :arith-assert-upper                   919
 :arith-bound-prop                     137
 :arith-conflicts                      30
 :arith-eq-adapter                     218
 :arith-fixed-eqs                      204
 :arith-offset-eqs                     202
 :arith-pivots                         135
 :bool-inductive-gen                   10
 :bool-inductive-gen-failures          10
 :conflicts                            187
 :decisions                            873
 :del-clause                           55
 :final-checks                         22
 :minimized-lits                       112
 :mk-bool-var                          821
 :mk-clause                            1506
 :num-checks                           59
 :propagations                         12516
 :time.itp_solver.itp_core             0.00
 :time.spacer.init_rules               0.00
 :time.spacer.init_rules.pt.init       0.00
 :time.spacer.solve                    0.05
 :time.spacer.solve.propagate          0.01
 :time.spacer.solve.reach              0.04
 :time.spacer.solve.reach.children     0.00
 :time.spacer.solve.reach.gen.bool_ind 0.00
 :time.spacer.solve.reach.is-reach     0.01
 :time.virtual_solver.proof            0.00
 :time.virtual_solver.smt.total        0.03
 :time.virtual_solver.smt.total.sat    0.02
 :virtual_solver.checks                59
 :virtual_solver.checks.sat            22)
BRUNCH_STAT max_query_lvl 3
BRUNCH_STAT num_queries 12
BRUNCH_STAT num_reach_queries 3
BRUNCH_STAT num_reach_reuse 1
BRUNCH_STAT inductive_lvl 0
BRUNCH_STAT max_depth 3
BRUNCH_STAT cex_depth 3

real	0m0.077s
user	0m0.072s
sys	0m0.004s
