(transform N7datalog13mk_coi_filterE...no-op 0s)
(transform N7datalog25mk_interp_tail_simplifierE...14 rules 0s)
(transform N7datalog27mk_quantifier_instantiationE...no-op 0s)
(transform N7datalog8mk_scaleE...no-op 0s)
(transform N7datalog18mk_karr_invariantsE...no-op 0s)
(transform N7datalog14mk_array_blastE...no-op 0s)
(transform N7datalog22mk_subsumption_checkerE...13 rules 0s)
(transform N7datalog12mk_bit_blastE...no-op 0s)
(transform N7datalog15mk_rule_inlinerE...3 rules 0.00266077s)
(transform N7datalog13mk_coi_filterE...no-op 0s)
(transform N7datalog25mk_interp_tail_simplifierE...3 rules 0s)
(transform N7datalog22mk_subsumption_checkerE...no-op 0s)
(transform N7datalog15mk_rule_inlinerE...no-op 0s)
(transform N7datalog13mk_coi_filterE...no-op 0s)
(transform N7datalog25mk_interp_tail_simplifierE...3 rules 0s)
(transform N7datalog22mk_subsumption_checkerE...no-op 0s)
(transform N7datalog15mk_rule_inlinerE...no-op 0s)
(transform N7datalog22mk_subsumption_checkerE...no-op 0s)
(transform N7datalog15mk_rule_inlinerE...no-op 0s)
(transform N7datalog22mk_subsumption_checkerE...no-op 0s)
(transform N7datalog15mk_rule_inlinerE...no-op 0s)
(transform N7datalog22mk_subsumption_checkerE...no-op 0s)
(transform N7datalog8mk_sliceE...no-op 0s)
expand: query!0 (0, 0) FAR  w(0) 1. F 0.00
(spacer::context::check_reachability :time 0.00 :before-memory 4.30 :after-memory 4.81)
Entering level 1
BRUNCH_STAT max_query_lvl 0
BRUNCH_STAT num_queries 0
BRUNCH_STAT num_reach_queries 0
BRUNCH_STAT num_reach_reuse 0
BRUNCH_STAT inductive_lvl 0
BRUNCH_STAT max_depth 1
BRUNCH_STAT cex_depth 0
expand: query!0 (1, 0) FAR  w(0) 1.
	create_child: MAIN (0, 1) FAR 2127 U 0.00
expand: MAIN (0, 0) FAR  w(0) 2127. F 0.00
expand: query!0 (1, 0) FAR  w(0) 1. F 0.00
(spacer::context::check_reachability :time 0.00 :before-memory 4.81 :after-memory 5.60)
Propagating: 0 1  ! 2 
(spacer::context::propagate :time 0.00 :before-memory 5.60 :after-memory 5.60)
Entering level 2
BRUNCH_STAT max_query_lvl 1
BRUNCH_STAT num_queries 1
BRUNCH_STAT num_reach_queries 0
BRUNCH_STAT num_reach_reuse 0
BRUNCH_STAT inductive_lvl 0
BRUNCH_STAT max_depth 2
BRUNCH_STAT cex_depth 0
expand: query!0 (2, 0) FAR  w(0) 1.
	create_child: MAIN (1, 2) FAR 2127 U 0.00
expand: MAIN (1, 0) FAR  w(0) 2127.
	create_child: MAIN (0, 2) FAR 3890 U 0.00
expand: MAIN (0, 0) FAR  w(0) 3890. F 0.00
expand: MAIN (1, 0) FAR  w(0) 2127.
	create_child: MAIN (0, 2) FAR 4136 U 0.00
expand: MAIN (0, 0) FAR  w(0) 4136. F 0.00
expand: MAIN (1, 0) FAR  w(0) 2127.
	create_child: MAIN (0, 2) FAR 4218 U 0.00
expand: MAIN (0, 0) FAR  w(0) 4218. F 0.00
expand: MAIN (1, 0) FAR  w(0) 2127.
	create_child: MAIN (0, 2) FAR 4183 U 0.00
expand: MAIN (0, 0) FAR  w(0) 4183. F 0.00
expand: MAIN (1, 0) FAR  w(0) 2127.
	create_child: MAIN (0, 2) FAR 4636 U 0.00
expand: MAIN (0, 0) FAR  w(0) 4636. F 0.00
expand: MAIN (1, 0) FAR  w(0) 2127.
	create_child: MAIN (0, 2) FAR 4773 U 0.00
expand: MAIN (0, 0) FAR  w(0) 4773. F 0.00
expand: MAIN (1, 0) FAR  w(0) 2127.
	create_child: MAIN (0, 2) FAR 4852 U 0.00
expand: MAIN (0, 0) FAR  w(0) 4852. F 0.00
expand: MAIN (1, 0) FAR  w(0) 2127.
	create_child: MAIN (0, 2) FAR 5014 U 0.00
expand: MAIN (0, 0) FAR  w(0) 5014. F 0.00
expand: MAIN (1, 0) FAR  w(0) 2127.
	create_child: MAIN (0, 2) FAR 5110 U 0.00
expand: MAIN (0, 0) FAR  w(0) 5110. F 0.00
expand: MAIN (1, 0) FAR  w(0) 2127.
	create_child: MAIN (0, 2) FAR 5307 U 0.00
expand: MAIN (0, 0) FAR  w(0) 5307. F 0.00
expand: MAIN (1, 0) FAR  w(0) 2127. F 0.00
expand: query!0 (2, 0) FAR  w(0) 1. F 0.00
(spacer::context::check_reachability :time 0.02 :before-memory 5.60 :after-memory 5.92)
Propagating: 0 1 2  ! 3 
(spacer::context::propagate :time 0.01 :before-memory 5.92 :after-memory 6.28)
Entering level 3
BRUNCH_STAT max_query_lvl 2
BRUNCH_STAT num_queries 12
BRUNCH_STAT num_reach_queries 0
BRUNCH_STAT num_reach_reuse 0
BRUNCH_STAT inductive_lvl 0
BRUNCH_STAT max_depth 3
BRUNCH_STAT cex_depth 0
expand: query!0 (3, 0) FAR  w(0) 1.
	create_child: MAIN (2, 3) FAR 2127 U 0.00
expand: MAIN (2, 0) FAR  w(0) 2127.
	create_child: MAIN (1, 3) FAR 5110 U 0.00
expand: MAIN (1, 0) FAR  w(0) 5110. T 0.00
is-reachable: MAIN (2, 0) FAR 2127 T 0.01
is-reachable: query!0 (3, 0) FAR 1 T 0.00
(spacer::context::check_reachability :time 0.02 :before-memory 6.28 :after-memory 6.88)
BRUNCH_STAT max_query_lvl 3
BRUNCH_STAT num_queries 14
BRUNCH_STAT num_reach_queries 3
BRUNCH_STAT num_reach_reuse 1
BRUNCH_STAT inductive_lvl 0
BRUNCH_STAT max_depth 3
BRUNCH_STAT cex_depth 3
(:SPACER-cex-depth                     3
 :SPACER-max-depth                     3
 :SPACER-max-query-lvl                 3
 :SPACER-num-invariants                7
 :SPACER-num-lemmas                    15
 :SPACER-num-properties                12
 :SPACER-num-queries                   14
 :SPACER-num-reach-queries             3
 :SPACER-num-reuse-reach-facts         1
 :added-eqs                            1581
 :arith-add-rows                       1152
 :arith-assert-diseq                   473
 :arith-assert-lower                   1166
 :arith-assert-upper                   1137
 :arith-bound-prop                     191
 :arith-conflicts                      24
 :arith-eq-adapter                     187
 :arith-fixed-eqs                      270
 :arith-offset-eqs                     278
 :arith-pivots                         175
 :bool-inductive-gen                   12
 :bool-inductive-gen-failures          12
 :conflicts                            164
 :decisions                            970
 :del-clause                           58
 :final-checks                         25
 :minimized-lits                       118
 :mk-bool-var                          836
 :mk-clause                            1616
 :num-checks                           70
 :propagations                         13026
 :time.itp_solver.itp_core             0.00
 :time.spacer.init_rules               0.00
 :time.spacer.init_rules.pt.init       0.00
 :time.spacer.solve                    0.05
 :time.spacer.solve.propagate          0.01
 :time.spacer.solve.reach              0.04
 :time.spacer.solve.reach.children     0.01
 :time.spacer.solve.reach.gen.bool_ind 0.00
 :time.spacer.solve.reach.is-reach     0.01
 :time.virtual_solver.proof            0.00
 :time.virtual_solver.smt.total        0.04
 :time.virtual_solver.smt.total.sat    0.02
 :virtual_solver.checks                70
 :virtual_solver.checks.sat            25)
BRUNCH_STAT max_query_lvl 3
BRUNCH_STAT num_queries 14
BRUNCH_STAT num_reach_queries 3
BRUNCH_STAT num_reach_reuse 1
BRUNCH_STAT inductive_lvl 0
BRUNCH_STAT max_depth 3
BRUNCH_STAT cex_depth 3

real	0m0.082s
user	0m0.068s
sys	0m0.012s
