(transform N7datalog13mk_coi_filterE...no-op 0s)
(transform N7datalog25mk_interp_tail_simplifierE...14 rules 0s)
(transform N7datalog27mk_quantifier_instantiationE...no-op 0s)
(transform N7datalog8mk_scaleE...no-op 0s)
(transform N7datalog18mk_karr_invariantsE...no-op 0s)
(transform N7datalog14mk_array_blastE...no-op 0s)
(transform N7datalog22mk_subsumption_checkerE...13 rules 0s)
(transform N7datalog12mk_bit_blastE...no-op 0s)
(transform N7datalog15mk_rule_inlinerE...3 rules 0.00260667s)
(transform N7datalog13mk_coi_filterE...no-op 0s)
(transform N7datalog25mk_interp_tail_simplifierE...3 rules 0s)
(transform N7datalog22mk_subsumption_checkerE...no-op 0s)
(transform N7datalog15mk_rule_inlinerE...no-op 0s)
(transform N7datalog13mk_coi_filterE...no-op 0s)
(transform N7datalog25mk_interp_tail_simplifierE...3 rules 0s)
(transform N7datalog22mk_subsumption_checkerE...no-op 0s)
(transform N7datalog15mk_rule_inlinerE...no-op 0s)
(transform N7datalog22mk_subsumption_checkerE...no-op 0s)
(transform N7datalog15mk_rule_inlinerE...no-op 0s)
(transform N7datalog22mk_subsumption_checkerE...no-op 0s)
(transform N7datalog15mk_rule_inlinerE...no-op 0s)
(transform N7datalog22mk_subsumption_checkerE...no-op 0s)
(transform N7datalog8mk_sliceE...no-op 0s)
expand: query!0 (0, 0) FAR  w(0) 1. F 0.00
(spacer::context::check_reachability :time 0.00 :before-memory 4.30 :after-memory 4.81)
Entering level 1
BRUNCH_STAT max_query_lvl 0
BRUNCH_STAT num_queries 0
BRUNCH_STAT num_reach_queries 0
BRUNCH_STAT num_reach_reuse 0
BRUNCH_STAT inductive_lvl 0
BRUNCH_STAT max_depth 1
BRUNCH_STAT cex_depth 0
expand: query!0 (1, 0) FAR  w(0) 1.
	create_child: MAIN (0, 1) FAR 2113 U 0.00
expand: MAIN (0, 0) FAR  w(0) 2113. F 0.00
expand: query!0 (1, 0) FAR  w(0) 1. F 0.00
(spacer::context::check_reachability :time 0.00 :before-memory 4.81 :after-memory 5.61)
Propagating: 0 1  ! 2 
(spacer::context::propagate :time 0.00 :before-memory 5.61 :after-memory 5.61)
Entering level 2
BRUNCH_STAT max_query_lvl 1
BRUNCH_STAT num_queries 1
BRUNCH_STAT num_reach_queries 0
BRUNCH_STAT num_reach_reuse 0
BRUNCH_STAT inductive_lvl 0
BRUNCH_STAT max_depth 2
BRUNCH_STAT cex_depth 0
expand: query!0 (2, 0) FAR  w(0) 1.
	create_child: MAIN (1, 2) FAR 2113 U 0.00
expand: MAIN (1, 0) FAR  w(0) 2113.
	create_child: MAIN (0, 2) FAR 4022 U 0.00
expand: MAIN (0, 0) FAR  w(0) 4022. F 0.00
expand: MAIN (1, 0) FAR  w(0) 2113.
	create_child: MAIN (0, 2) FAR 4187 U 0.00
expand: MAIN (0, 0) FAR  w(0) 4187. F 0.00
expand: MAIN (1, 0) FAR  w(0) 2113.
	create_child: MAIN (0, 2) FAR 4154 U 0.00
expand: MAIN (0, 0) FAR  w(0) 4154. F 0.00
expand: MAIN (1, 0) FAR  w(0) 2113.
	create_child: MAIN (0, 2) FAR 4378 U 0.00
expand: MAIN (0, 0) FAR  w(0) 4378. F 0.00
expand: MAIN (1, 0) FAR  w(0) 2113.
	create_child: MAIN (0, 2) FAR 4496 U 0.00
expand: MAIN (0, 0) FAR  w(0) 4496. F 0.00
expand: MAIN (1, 0) FAR  w(0) 2113.
	create_child: MAIN (0, 2) FAR 4571 U 0.00
expand: MAIN (0, 0) FAR  w(0) 4571. F 0.00
expand: MAIN (1, 0) FAR  w(0) 2113.
	create_child: MAIN (0, 2) FAR 4716 U 0.00
expand: MAIN (0, 0) FAR  w(0) 4716. F 0.00
expand: MAIN (1, 0) FAR  w(0) 2113. F 0.00
expand: query!0 (2, 0) FAR  w(0) 1. F 0.00
(spacer::context::check_reachability :time 0.02 :before-memory 5.61 :after-memory 5.91)
Propagating: 0 1 2  ! 3 
(spacer::context::propagate :time 0.01 :before-memory 5.91 :after-memory 6.07)
Entering level 3
BRUNCH_STAT max_query_lvl 2
BRUNCH_STAT num_queries 9
BRUNCH_STAT num_reach_queries 0
BRUNCH_STAT num_reach_reuse 0
BRUNCH_STAT inductive_lvl 0
BRUNCH_STAT max_depth 3
BRUNCH_STAT cex_depth 0
expand: query!0 (3, 0) FAR  w(0) 1.
	create_child: MAIN (2, 3) FAR 2113 U 0.00
expand: MAIN (2, 0) FAR  w(0) 2113.
	create_child: MAIN (1, 3) FAR 4571 U 0.00
expand: MAIN (1, 0) FAR  w(0) 4571. F 0.00
expand: MAIN (2, 0) FAR  w(0) 2113.
	create_child: MAIN (1, 3) FAR 6576 U 0.00
expand: MAIN (1, 0) FAR  w(0) 6576. F 0.00
expand: MAIN (2, 0) FAR  w(0) 2113. F 0.00
expand: query!0 (3, 0) FAR  w(0) 1. F 0.00
(spacer::context::check_reachability :time 0.01 :before-memory 6.07 :after-memory 6.29)
Propagating: 1 
(spacer::context::propagate :time 0.00 :before-memory 6.29 :after-memory 6.29)
(define-fun MAIN ((x!0 Int)
 (x!1 Int)
 (x!2 Bool)
 (x!3 Bool)
 (x!4 Int)
 (x!5 Int)
 (x!6 Int)
 (x!7 Int)
 (x!8 Bool)
 (x!9 Bool)
 (x!10 Bool)
 (x!11 Bool)) Bool
  (and (or (<= x!5 0) (<= x!4 0))
       x!11
       (not x!2)
       (not x!8)
       (not x!3)
       (not (>= x!4 2))
       (= (+ x!4 x!5 x!6 (* (- 1) x!0)) 0)
       (>= (+ x!1 (* (- 1) x!4) (* (- 1) x!5) (* (- 1) x!6)) 0)
       (>= (+ x!4 x!5 x!6 (* (- 1) x!1)) 0)))
BRUNCH_STAT max_query_lvl 3
BRUNCH_STAT num_queries 12
BRUNCH_STAT num_reach_queries 0
BRUNCH_STAT num_reach_reuse 0
BRUNCH_STAT inductive_lvl 1
BRUNCH_STAT max_depth 3
BRUNCH_STAT cex_depth 0
(:SPACER-inductive-level               1
 :SPACER-max-depth                     3
 :SPACER-max-query-lvl                 3
 :SPACER-num-invariants                10
 :SPACER-num-lemmas                    16
 :SPACER-num-properties                11
 :SPACER-num-queries                   12
 :added-eqs                            1008
 :arith-add-rows                       594
 :arith-assert-diseq                   318
 :arith-assert-lower                   722
 :arith-assert-upper                   783
 :arith-bound-prop                     97
 :arith-conflicts                      19
 :arith-eq-adapter                     178
 :arith-fixed-eqs                      152
 :arith-offset-eqs                     197
 :arith-pivots                         123
 :bool-inductive-gen                   12
 :bool-inductive-gen-failures          13
 :conflicts                            131
 :decisions                            642
 :del-clause                           66
 :final-checks                         19
 :minimized-lits                       57
 :mk-bool-var                          540
 :mk-clause                            809
 :num-checks                           65
 :propagations                         8505
 :time.itp_solver.itp_core             0.00
 :time.spacer.init_rules               0.00
 :time.spacer.init_rules.pt.init       0.00
 :time.spacer.solve                    0.04
 :time.spacer.solve.propagate          0.01
 :time.spacer.solve.reach              0.03
 :time.spacer.solve.reach.children     0.01
 :time.spacer.solve.reach.gen.bool_ind 0.00
 :time.virtual_solver.proof            0.00
 :time.virtual_solver.smt.total        0.03
 :time.virtual_solver.smt.total.sat    0.01
 :virtual_solver.checks                65
 :virtual_solver.checks.sat            19)
BRUNCH_STAT max_query_lvl 3
BRUNCH_STAT num_queries 12
BRUNCH_STAT num_reach_queries 0
BRUNCH_STAT num_reach_reuse 0
BRUNCH_STAT inductive_lvl 1
BRUNCH_STAT max_depth 3
BRUNCH_STAT cex_depth 0

real	0m0.067s
user	0m0.052s
sys	0m0.012s
