(transform N7datalog13mk_coi_filterE...no-op 0s)
(transform N7datalog25mk_interp_tail_simplifierE...14 rules 0s)
(transform N7datalog27mk_quantifier_instantiationE...no-op 0s)
(transform N7datalog8mk_scaleE...no-op 0s)
(transform N7datalog18mk_karr_invariantsE...no-op 0s)
(transform N7datalog14mk_array_blastE...no-op 0s)
(transform N7datalog22mk_subsumption_checkerE...13 rules 0s)
(transform N7datalog12mk_bit_blastE...no-op 0s)
(transform N7datalog15mk_rule_inlinerE...3 rules 0.00300769s)
(transform N7datalog13mk_coi_filterE...no-op 0s)
(transform N7datalog25mk_interp_tail_simplifierE...3 rules 0s)
(transform N7datalog22mk_subsumption_checkerE...no-op 0s)
(transform N7datalog15mk_rule_inlinerE...no-op 0s)
(transform N7datalog13mk_coi_filterE...no-op 0s)
(transform N7datalog25mk_interp_tail_simplifierE...3 rules 0s)
(transform N7datalog22mk_subsumption_checkerE...no-op 0s)
(transform N7datalog15mk_rule_inlinerE...no-op 0s)
(transform N7datalog22mk_subsumption_checkerE...no-op 0s)
(transform N7datalog15mk_rule_inlinerE...no-op 0s)
(transform N7datalog22mk_subsumption_checkerE...no-op 0s)
(transform N7datalog15mk_rule_inlinerE...no-op 0s)
(transform N7datalog22mk_subsumption_checkerE...no-op 0s)
(transform N7datalog8mk_sliceE...no-op 0s)
expand: query!0 (0, 0) FAR  w(0) 1. F 0.00
(spacer::context::check_reachability :time 0.00 :before-memory 4.30 :after-memory 4.80)
Entering level 1
BRUNCH_STAT max_query_lvl 0
BRUNCH_STAT num_queries 0
BRUNCH_STAT num_reach_queries 0
BRUNCH_STAT num_reach_reuse 0
BRUNCH_STAT inductive_lvl 0
BRUNCH_STAT max_depth 1
BRUNCH_STAT cex_depth 0
expand: query!0 (1, 0) FAR  w(0) 1.
	create_child: MAIN (0, 1) FAR 2085 U 0.00
expand: MAIN (0, 0) FAR  w(0) 2085. F 0.00
expand: query!0 (1, 0) FAR  w(0) 1. F 0.00
(spacer::context::check_reachability :time 0.00 :before-memory 4.80 :after-memory 5.62)
Propagating: 0 1  ! 2 
(spacer::context::propagate :time 0.00 :before-memory 5.62 :after-memory 5.62)
Entering level 2
BRUNCH_STAT max_query_lvl 1
BRUNCH_STAT num_queries 1
BRUNCH_STAT num_reach_queries 0
BRUNCH_STAT num_reach_reuse 0
BRUNCH_STAT inductive_lvl 0
BRUNCH_STAT max_depth 2
BRUNCH_STAT cex_depth 0
expand: query!0 (2, 0) FAR  w(0) 1.
	create_child: MAIN (1, 2) FAR 2085 U 0.00
expand: MAIN (1, 0) FAR  w(0) 2085.
	create_child: MAIN (0, 2) FAR 3997 U 0.00
expand: MAIN (0, 0) FAR  w(0) 3997. F 0.00
expand: MAIN (1, 0) FAR  w(0) 2085.
	create_child: MAIN (0, 2) FAR 4131 U 0.00
expand: MAIN (0, 0) FAR  w(0) 4131. F 0.00
expand: MAIN (1, 0) FAR  w(0) 2085.
	create_child: MAIN (0, 2) FAR 4192 U 0.00
expand: MAIN (0, 0) FAR  w(0) 4192. F 0.00
expand: MAIN (1, 0) FAR  w(0) 2085.
	create_child: MAIN (0, 2) FAR 4280 U 0.00
expand: MAIN (0, 0) FAR  w(0) 4280. F 0.00
expand: MAIN (1, 0) FAR  w(0) 2085.
	create_child: MAIN (0, 2) FAR 4402 U 0.00
expand: MAIN (0, 0) FAR  w(0) 4402. F 0.00
expand: MAIN (1, 0) FAR  w(0) 2085.
	create_child: MAIN (0, 2) FAR 4479 U 0.00
expand: MAIN (0, 0) FAR  w(0) 4479. F 0.00
expand: MAIN (1, 0) FAR  w(0) 2085.
	create_child: MAIN (0, 2) FAR 4408 U 0.00
expand: MAIN (0, 0) FAR  w(0) 4408. F 0.00
expand: MAIN (1, 0) FAR  w(0) 2085.
	create_child: MAIN (0, 2) FAR 4765 U 0.00
expand: MAIN (0, 0) FAR  w(0) 4765. F 0.00
expand: MAIN (1, 0) FAR  w(0) 2085.
	create_child: MAIN (0, 2) FAR 4985 U 0.00
expand: MAIN (0, 0) FAR  w(0) 4985. F 0.00
expand: MAIN (1, 0) FAR  w(0) 2085. F 0.00
expand: query!0 (2, 0) FAR  w(0) 1. F 0.00
(spacer::context::check_reachability :time 0.03 :before-memory 5.62 :after-memory 6.06)
Propagating: 0 1 2  ! 3 
(spacer::context::propagate :time 0.01 :before-memory 6.06 :after-memory 6.16)
Entering level 3
BRUNCH_STAT max_query_lvl 2
BRUNCH_STAT num_queries 11
BRUNCH_STAT num_reach_queries 0
BRUNCH_STAT num_reach_reuse 0
BRUNCH_STAT inductive_lvl 0
BRUNCH_STAT max_depth 3
BRUNCH_STAT cex_depth 0
expand: query!0 (3, 0) FAR  w(0) 1.
	create_child: MAIN (2, 3) FAR 2085 U 0.00
expand: MAIN (2, 0) FAR  w(0) 2085.
	create_child: MAIN (1, 3) FAR 4985 U 0.00
expand: MAIN (1, 0) FAR  w(0) 4985. T 0.00
is-reachable: MAIN (2, 0) FAR 2085 T 0.01
is-reachable: query!0 (3, 0) FAR 1 T 0.00
(spacer::context::check_reachability :time 0.02 :before-memory 6.16 :after-memory 6.75)
BRUNCH_STAT max_query_lvl 3
BRUNCH_STAT num_queries 13
BRUNCH_STAT num_reach_queries 3
BRUNCH_STAT num_reach_reuse 1
BRUNCH_STAT inductive_lvl 0
BRUNCH_STAT max_depth 3
BRUNCH_STAT cex_depth 3
(:SPACER-cex-depth                     3
 :SPACER-max-depth                     3
 :SPACER-max-query-lvl                 3
 :SPACER-num-invariants                7
 :SPACER-num-lemmas                    14
 :SPACER-num-properties                11
 :SPACER-num-queries                   13
 :SPACER-num-reach-queries             3
 :SPACER-num-reuse-reach-facts         1
 :added-eqs                            1444
 :arith-add-rows                       1189
 :arith-assert-diseq                   486
 :arith-assert-lower                   1165
 :arith-assert-upper                   1136
 :arith-bound-prop                     162
 :arith-conflicts                      35
 :arith-eq-adapter                     182
 :arith-fixed-eqs                      231
 :arith-offset-eqs                     283
 :arith-pivots                         206
 :bool-inductive-gen                   11
 :bool-inductive-gen-failures          11
 :conflicts                            194
 :decisions                            884
 :del-clause                           130
 :final-checks                         23
 :minimized-lits                       104
 :mk-bool-var                          830
 :mk-clause                            1638
 :num-checks                           67
 :propagations                         13287
 :time.itp_solver.itp_core             0.00
 :time.spacer.init_rules               0.00
 :time.spacer.init_rules.pt.init       0.00
 :time.spacer.solve                    0.06
 :time.spacer.solve.propagate          0.01
 :time.spacer.solve.reach              0.05
 :time.spacer.solve.reach.children     0.01
 :time.spacer.solve.reach.gen.bool_ind 0.00
 :time.spacer.solve.reach.is-reach     0.02
 :time.virtual_solver.proof            0.00
 :time.virtual_solver.smt.total        0.04
 :time.virtual_solver.smt.total.sat    0.02
 :virtual_solver.checks                67
 :virtual_solver.checks.sat            23)
BRUNCH_STAT max_query_lvl 3
BRUNCH_STAT num_queries 13
BRUNCH_STAT num_reach_queries 3
BRUNCH_STAT num_reach_reuse 1
BRUNCH_STAT inductive_lvl 0
BRUNCH_STAT max_depth 3
BRUNCH_STAT cex_depth 3

real	0m0.091s
user	0m0.080s
sys	0m0.008s
