(transform N7datalog13mk_coi_filterE...no-op 0s)
(transform N7datalog25mk_interp_tail_simplifierE...14 rules 0s)
(transform N7datalog27mk_quantifier_instantiationE...no-op 0s)
(transform N7datalog8mk_scaleE...no-op 0s)
(transform N7datalog18mk_karr_invariantsE...no-op 0s)
(transform N7datalog14mk_array_blastE...no-op 0s)
(transform N7datalog22mk_subsumption_checkerE...13 rules 0s)
(transform N7datalog12mk_bit_blastE...no-op 0s)
(transform N7datalog15mk_rule_inlinerE...3 rules 0.0025792s)
(transform N7datalog13mk_coi_filterE...no-op 0s)
(transform N7datalog25mk_interp_tail_simplifierE...3 rules 0s)
(transform N7datalog22mk_subsumption_checkerE...no-op 0s)
(transform N7datalog15mk_rule_inlinerE...no-op 0s)
(transform N7datalog13mk_coi_filterE...no-op 0s)
(transform N7datalog25mk_interp_tail_simplifierE...3 rules 0s)
(transform N7datalog22mk_subsumption_checkerE...no-op 0s)
(transform N7datalog15mk_rule_inlinerE...no-op 0s)
(transform N7datalog22mk_subsumption_checkerE...no-op 0s)
(transform N7datalog15mk_rule_inlinerE...no-op 0s)
(transform N7datalog22mk_subsumption_checkerE...no-op 0s)
(transform N7datalog15mk_rule_inlinerE...no-op 0s)
(transform N7datalog22mk_subsumption_checkerE...no-op 0s)
(transform N7datalog8mk_sliceE...no-op 0s)
expand: query!0 (0, 0) FAR  w(0) 1. F 0.00
(spacer::context::check_reachability :time 0.00 :before-memory 4.30 :after-memory 4.81)
Entering level 1
BRUNCH_STAT max_query_lvl 0
BRUNCH_STAT num_queries 0
BRUNCH_STAT num_reach_queries 0
BRUNCH_STAT num_reach_reuse 0
BRUNCH_STAT inductive_lvl 0
BRUNCH_STAT max_depth 1
BRUNCH_STAT cex_depth 0
expand: query!0 (1, 0) FAR  w(0) 1.
	create_child: MAIN (0, 1) FAR 2084 U 0.00
expand: MAIN (0, 0) FAR  w(0) 2084. F 0.00
expand: query!0 (1, 0) FAR  w(0) 1. F 0.00
(spacer::context::check_reachability :time 0.00 :before-memory 4.81 :after-memory 5.61)
Propagating: 0 1  ! 2 
(spacer::context::propagate :time 0.00 :before-memory 5.61 :after-memory 5.61)
Entering level 2
BRUNCH_STAT max_query_lvl 1
BRUNCH_STAT num_queries 1
BRUNCH_STAT num_reach_queries 0
BRUNCH_STAT num_reach_reuse 0
BRUNCH_STAT inductive_lvl 0
BRUNCH_STAT max_depth 2
BRUNCH_STAT cex_depth 0
expand: query!0 (2, 0) FAR  w(0) 1.
	create_child: MAIN (1, 2) FAR 2084 U 0.00
expand: MAIN (1, 0) FAR  w(0) 2084.
	create_child: MAIN (0, 2) FAR 4194 U 0.00
expand: MAIN (0, 0) FAR  w(0) 4194. F 0.00
expand: MAIN (1, 0) FAR  w(0) 2084.
	create_child: MAIN (0, 2) FAR 4302 U 0.00
expand: MAIN (0, 0) FAR  w(0) 4302. F 0.00
expand: MAIN (1, 0) FAR  w(0) 2084.
	create_child: MAIN (0, 2) FAR 4411 U 0.00
expand: MAIN (0, 0) FAR  w(0) 4411. F 0.00
expand: MAIN (1, 0) FAR  w(0) 2084.
	create_child: MAIN (0, 2) FAR 4762 U 0.00
expand: MAIN (0, 0) FAR  w(0) 4762. F 0.00
expand: MAIN (1, 0) FAR  w(0) 2084.
	create_child: MAIN (0, 2) FAR 4939 U 0.00
expand: MAIN (0, 0) FAR  w(0) 4939. F 0.00
expand: MAIN (1, 0) FAR  w(0) 2084. F 0.00
expand: query!0 (2, 0) FAR  w(0) 1. F 0.00
(spacer::context::check_reachability :time 0.02 :before-memory 5.61 :after-memory 5.90)
Propagating: 0 1 2  ! 3 
(spacer::context::propagate :time 0.01 :before-memory 5.90 :after-memory 6.10)
Entering level 3
BRUNCH_STAT max_query_lvl 2
BRUNCH_STAT num_queries 7
BRUNCH_STAT num_reach_queries 0
BRUNCH_STAT num_reach_reuse 0
BRUNCH_STAT inductive_lvl 0
BRUNCH_STAT max_depth 3
BRUNCH_STAT cex_depth 0
expand: query!0 (3, 0) FAR  w(0) 1.
	create_child: MAIN (2, 3) FAR 2084 U 0.00
expand: MAIN (2, 0) FAR  w(0) 2084.
	create_child: MAIN (1, 3) FAR 6485 U 0.00
expand: MAIN (1, 0) FAR  w(0) 6485. F 0.00
expand: MAIN (2, 0) FAR  w(0) 2084. F 0.00
expand: query!0 (3, 0) FAR  w(0) 1. F 0.00
(spacer::context::check_reachability :time 0.00 :before-memory 6.10 :after-memory 6.19)
Propagating: 1 
(spacer::context::propagate :time 0.00 :before-memory 6.19 :after-memory 6.19)
(define-fun MAIN ((x!0 Int)
 (x!1 Int)
 (x!2 Bool)
 (x!3 Bool)
 (x!4 Int)
 (x!5 Int)
 (x!6 Int)
 (x!7 Int)
 (x!8 Bool)
 (x!9 Bool)
 (x!10 Bool)
 (x!11 Bool)) Bool
  (and (= (+ x!4 x!5 x!6 (* (- 1) x!1)) 0)
       x!11
       (not x!2)
       (not x!8)
       (not (>= x!4 2))
       (= (+ x!4 x!5 x!6 (* (- 1) x!0)) 0)))
BRUNCH_STAT max_query_lvl 3
BRUNCH_STAT num_queries 9
BRUNCH_STAT num_reach_queries 0
BRUNCH_STAT num_reach_reuse 0
BRUNCH_STAT inductive_lvl 1
BRUNCH_STAT max_depth 3
BRUNCH_STAT cex_depth 0
(:SPACER-inductive-level               1
 :SPACER-max-depth                     3
 :SPACER-max-query-lvl                 3
 :SPACER-num-invariants                7
 :SPACER-num-lemmas                    13
 :SPACER-num-properties                8
 :SPACER-num-queries                   9
 :added-eqs                            864
 :arith-add-rows                       496
 :arith-assert-diseq                   219
 :arith-assert-lower                   593
 :arith-assert-upper                   615
 :arith-bound-prop                     86
 :arith-conflicts                      22
 :arith-eq-adapter                     163
 :arith-fixed-eqs                      140
 :arith-offset-eqs                     113
 :arith-pivots                         93
 :bool-inductive-gen                   9
 :bool-inductive-gen-failures          9
 :conflicts                            133
 :decisions                            562
 :del-clause                           110
 :final-checks                         15
 :minimized-lits                       46
 :mk-bool-var                          508
 :mk-clause                            804
 :num-checks                           49
 :propagations                         7740
 :time.itp_solver.itp_core             0.00
 :time.spacer.init_rules               0.00
 :time.spacer.init_rules.pt.init       0.00
 :time.spacer.solve                    0.03
 :time.spacer.solve.propagate          0.01
 :time.spacer.solve.reach              0.02
 :time.spacer.solve.reach.children     0.00
 :time.spacer.solve.reach.gen.bool_ind 0.00
 :time.virtual_solver.proof            0.00
 :time.virtual_solver.smt.total        0.02
 :time.virtual_solver.smt.total.sat    0.01
 :virtual_solver.checks                49
 :virtual_solver.checks.sat            15)
BRUNCH_STAT max_query_lvl 3
BRUNCH_STAT num_queries 9
BRUNCH_STAT num_reach_queries 0
BRUNCH_STAT num_reach_reuse 0
BRUNCH_STAT inductive_lvl 1
BRUNCH_STAT max_depth 3
BRUNCH_STAT cex_depth 0

real	0m0.059s
user	0m0.052s
sys	0m0.004s
