(transform N7datalog13mk_coi_filterE...no-op 0s)
(transform N7datalog25mk_interp_tail_simplifierE...12 rules 0s)
(transform N7datalog27mk_quantifier_instantiationE...no-op 0s)
(transform N7datalog8mk_scaleE...no-op 0s)
(transform N7datalog18mk_karr_invariantsE...no-op 0s)
(transform N7datalog14mk_array_blastE...no-op 0s)
(transform N7datalog22mk_subsumption_checkerE...11 rules 0s)
(transform N7datalog12mk_bit_blastE...no-op 0s)
(transform N7datalog15mk_rule_inlinerE...3 rules 0.00411314s)
(transform N7datalog13mk_coi_filterE...no-op 0s)
(transform N7datalog25mk_interp_tail_simplifierE...3 rules 0s)
(transform N7datalog22mk_subsumption_checkerE...no-op 0s)
(transform N7datalog15mk_rule_inlinerE...no-op 0s)
(transform N7datalog13mk_coi_filterE...no-op 0s)
(transform N7datalog25mk_interp_tail_simplifierE...3 rules 0s)
(transform N7datalog22mk_subsumption_checkerE...no-op 0s)
(transform N7datalog15mk_rule_inlinerE...no-op 0s)
(transform N7datalog22mk_subsumption_checkerE...no-op 0s)
(transform N7datalog15mk_rule_inlinerE...no-op 0s)
(transform N7datalog22mk_subsumption_checkerE...no-op 0s)
(transform N7datalog15mk_rule_inlinerE...no-op 0s)
(transform N7datalog22mk_subsumption_checkerE...no-op 0s)
(transform N7datalog8mk_sliceE...no-op 0s)
expand: query!0 (0, 0) FAR  w(0) 1. F 0.00
(spacer::context::check_reachability :time 0.00 :before-memory 4.50 :after-memory 5.02)
Entering level 1
BRUNCH_STAT max_query_lvl 0
BRUNCH_STAT num_queries 0
BRUNCH_STAT num_reach_queries 0
BRUNCH_STAT num_reach_reuse 0
BRUNCH_STAT inductive_lvl 0
BRUNCH_STAT max_depth 1
BRUNCH_STAT cex_depth 0
expand: query!0 (1, 0) FAR  w(0) 1.
	create_child: MAIN (0, 1) FAR 3741 U 0.00
expand: MAIN (0, 0) FAR  w(0) 3741. F 0.00
expand: query!0 (1, 0) FAR  w(0) 1. F 0.00
(spacer::context::check_reachability :time 0.00 :before-memory 5.02 :after-memory 6.14)
Propagating: 0 1  ! 2 
(spacer::context::propagate :time 0.00 :before-memory 6.14 :after-memory 6.24)
Entering level 2
BRUNCH_STAT max_query_lvl 1
BRUNCH_STAT num_queries 1
BRUNCH_STAT num_reach_queries 0
BRUNCH_STAT num_reach_reuse 0
BRUNCH_STAT inductive_lvl 0
BRUNCH_STAT max_depth 2
BRUNCH_STAT cex_depth 0
expand: query!0 (2, 0) FAR  w(0) 1.
	create_child: MAIN (1, 2) FAR 3741 U 0.00
expand: MAIN (1, 0) FAR  w(0) 3741.
	create_child: MAIN (0, 2) FAR 6913 U 0.00
expand: MAIN (0, 0) FAR  w(0) 6913. F 0.00
expand: MAIN (1, 0) FAR  w(0) 3741.
	create_child: MAIN (0, 2) FAR 7076 U 0.00
expand: MAIN (0, 0) FAR  w(0) 7076. F 0.00
expand: MAIN (1, 0) FAR  w(0) 3741.
	create_child: MAIN (0, 2) FAR 7074 U 0.00
expand: MAIN (0, 0) FAR  w(0) 7074. F 0.00
expand: MAIN (1, 0) FAR  w(0) 3741. F 0.00
expand: query!0 (2, 0) FAR  w(0) 1. F 0.00
(spacer::context::check_reachability :time 0.01 :before-memory 6.24 :after-memory 6.34)
Propagating: 0 1 2  ! 3 
(spacer::context::propagate :time 0.00 :before-memory 6.34 :after-memory 6.34)
Entering level 3
BRUNCH_STAT max_query_lvl 2
BRUNCH_STAT num_queries 5
BRUNCH_STAT num_reach_queries 0
BRUNCH_STAT num_reach_reuse 0
BRUNCH_STAT inductive_lvl 0
BRUNCH_STAT max_depth 3
BRUNCH_STAT cex_depth 0
expand: query!0 (3, 0) FAR  w(0) 1.
	create_child: MAIN (2, 3) FAR 3741 U 0.00
expand: MAIN (2, 0) FAR  w(0) 3741.
	create_child: MAIN (1, 3) FAR 7693 U 0.00
expand: MAIN (1, 0) FAR  w(0) 7693. F 0.00
expand: MAIN (2, 0) FAR  w(0) 3741.
	create_child: MAIN (1, 3) FAR 7863 U 0.00
expand: MAIN (1, 0) FAR  w(0) 7863. F 0.00
expand: MAIN (2, 0) FAR  w(0) 3741.
	create_child: MAIN (1, 3) FAR 8050 U 0.00
expand: MAIN (1, 0) FAR  w(0) 8050. F 0.00
expand: MAIN (2, 0) FAR  w(0) 3741. F 0.00
expand: query!0 (3, 0) FAR  w(0) 1. F 0.00
(spacer::context::check_reachability :time 0.01 :before-memory 6.34 :after-memory 6.56)
Propagating: 1 
(spacer::context::propagate :time 0.00 :before-memory 6.56 :after-memory 6.56)
(define-fun MAIN ((x!0 Bool)
 (x!1 Bool)
 (x!2 Int)
 (x!3 Int)
 (x!4 Int)
 (x!5 Int)
 (x!6 Int)
 (x!7 Int)
 (x!8 Int)
 (x!9 Int)
 (x!10 Bool)
 (x!11 Bool)) Bool
  (and (not (>= x!9 3)) (not (>= x!8 3)) x!11 (not (>= x!7 3))))
BRUNCH_STAT max_query_lvl 3
BRUNCH_STAT num_queries 9
BRUNCH_STAT num_reach_queries 0
BRUNCH_STAT num_reach_reuse 0
BRUNCH_STAT inductive_lvl 1
BRUNCH_STAT max_depth 3
BRUNCH_STAT cex_depth 0
(:SPACER-inductive-level               1
 :SPACER-max-depth                     3
 :SPACER-max-query-lvl                 3
 :SPACER-num-invariants                5
 :SPACER-num-lemmas                    13
 :SPACER-num-properties                8
 :SPACER-num-queries                   9
 :added-eqs                            737
 :arith-add-rows                       161
 :arith-assert-diseq                   377
 :arith-assert-lower                   602
 :arith-assert-upper                   523
 :arith-bound-prop                     33
 :arith-conflicts                      1
 :arith-eq-adapter                     349
 :arith-fixed-eqs                      120
 :arith-offset-eqs                     35
 :arith-pivots                         111
 :bool-inductive-gen                   9
 :bool-inductive-gen-failures          9
 :conflicts                            85
 :decisions                            1019
 :del-clause                           404
 :final-checks                         17
 :minimized-lits                       10
 :mk-bool-var                          1021
 :mk-clause                            1709
 :num-checks                           50
 :propagations                         8639
 :time.itp_solver.itp_core             0.00
 :time.spacer.init_rules               0.00
 :time.spacer.init_rules.pt.init       0.00
 :time.spacer.solve                    0.03
 :time.spacer.solve.propagate          0.00
 :time.spacer.solve.reach              0.03
 :time.spacer.solve.reach.children     0.00
 :time.spacer.solve.reach.gen.bool_ind 0.00
 :time.virtual_solver.proof            0.00
 :time.virtual_solver.smt.total        0.02
 :time.virtual_solver.smt.total.sat    0.01
 :virtual_solver.checks                50
 :virtual_solver.checks.sat            17)
BRUNCH_STAT max_query_lvl 3
BRUNCH_STAT num_queries 9
BRUNCH_STAT num_reach_queries 0
BRUNCH_STAT num_reach_reuse 0
BRUNCH_STAT inductive_lvl 1
BRUNCH_STAT max_depth 3
BRUNCH_STAT cex_depth 0

real	0m0.059s
user	0m0.052s
sys	0m0.004s
