(transform N7datalog13mk_coi_filterE...no-op 0s)
(transform N7datalog25mk_interp_tail_simplifierE...11 rules 0s)
(transform N7datalog27mk_quantifier_instantiationE...no-op 0s)
(transform N7datalog8mk_scaleE...no-op 0s)
(transform N7datalog18mk_karr_invariantsE...no-op 0s)
(transform N7datalog14mk_array_blastE...no-op 0s)
(transform N7datalog22mk_subsumption_checkerE...10 rules 0s)
(transform N7datalog12mk_bit_blastE...no-op 0s)
(transform N7datalog15mk_rule_inlinerE...3 rules 0s)
(transform N7datalog13mk_coi_filterE...no-op 0s)
(transform N7datalog25mk_interp_tail_simplifierE...3 rules 0s)
(transform N7datalog22mk_subsumption_checkerE...no-op 0s)
(transform N7datalog15mk_rule_inlinerE...no-op 0s)
(transform N7datalog13mk_coi_filterE...no-op 0s)
(transform N7datalog25mk_interp_tail_simplifierE...3 rules 0s)
(transform N7datalog22mk_subsumption_checkerE...no-op 0s)
(transform N7datalog15mk_rule_inlinerE...no-op 0s)
(transform N7datalog22mk_subsumption_checkerE...no-op 0s)
(transform N7datalog15mk_rule_inlinerE...no-op 0s)
(transform N7datalog22mk_subsumption_checkerE...no-op 0s)
(transform N7datalog15mk_rule_inlinerE...no-op 0s)
(transform N7datalog22mk_subsumption_checkerE...no-op 0s)
(transform N7datalog8mk_sliceE...no-op 0s)
expand: query!0 (0, 0) FAR  w(0) 1. F 0.00
(spacer::context::check_reachability :time 0.00 :before-memory 4.18 :after-memory 4.59)
Entering level 1
BRUNCH_STAT max_query_lvl 0
BRUNCH_STAT num_queries 0
BRUNCH_STAT num_reach_queries 0
BRUNCH_STAT num_reach_reuse 0
BRUNCH_STAT inductive_lvl 0
BRUNCH_STAT max_depth 1
BRUNCH_STAT cex_depth 0
expand: query!0 (1, 0) FAR  w(0) 1.
	create_child: MAIN (0, 1) FAR 674 U 0.00
expand: MAIN (0, 0) FAR  w(0) 674. F 0.00
expand: query!0 (1, 0) FAR  w(0) 1. F 0.00
(spacer::context::check_reachability :time 0.00 :before-memory 4.59 :after-memory 5.05)
Propagating: 0 1  ! 2 
(spacer::context::propagate :time 0.00 :before-memory 5.05 :after-memory 5.05)
Entering level 2
BRUNCH_STAT max_query_lvl 1
BRUNCH_STAT num_queries 1
BRUNCH_STAT num_reach_queries 0
BRUNCH_STAT num_reach_reuse 0
BRUNCH_STAT inductive_lvl 0
BRUNCH_STAT max_depth 2
BRUNCH_STAT cex_depth 0
expand: query!0 (2, 0) FAR  w(0) 1.
	create_child: MAIN (1, 2) FAR 674 U 0.00
expand: MAIN (1, 0) FAR  w(0) 674.
	create_child: MAIN (0, 2) FAR 1251 U 0.00
expand: MAIN (0, 0) FAR  w(0) 1251. F 0.00
expand: MAIN (1, 0) FAR  w(0) 674.
	create_child: MAIN (0, 2) FAR 1335 U 0.00
expand: MAIN (0, 0) FAR  w(0) 1335. F 0.00
expand: MAIN (1, 0) FAR  w(0) 674.
	create_child: MAIN (0, 2) FAR 1381 U 0.00
expand: MAIN (0, 0) FAR  w(0) 1381. F 0.00
expand: MAIN (1, 0) FAR  w(0) 674.
	create_child: MAIN (0, 2) FAR 1422 U 0.00
expand: MAIN (0, 0) FAR  w(0) 1422. F 0.00
expand: MAIN (1, 0) FAR  w(0) 674. F 0.00
expand: query!0 (2, 0) FAR  w(0) 1. F 0.00
(spacer::context::check_reachability :time 0.01 :before-memory 5.05 :after-memory 5.24)
Propagating: 0 1 2  ! 3 
(spacer::context::propagate :time 0.00 :before-memory 5.24 :after-memory 5.24)
Entering level 3
BRUNCH_STAT max_query_lvl 2
BRUNCH_STAT num_queries 6
BRUNCH_STAT num_reach_queries 0
BRUNCH_STAT num_reach_reuse 0
BRUNCH_STAT inductive_lvl 0
BRUNCH_STAT max_depth 3
BRUNCH_STAT cex_depth 0
expand: query!0 (3, 0) FAR  w(0) 1.
	create_child: MAIN (2, 3) FAR 674 U 0.00
expand: MAIN (2, 0) FAR  w(0) 674.
	create_child: MAIN (1, 3) FAR 1819 U 0.00
expand: MAIN (1, 0) FAR  w(0) 1819. F 0.00
expand: MAIN (2, 0) FAR  w(0) 674.
	create_child: MAIN (1, 3) FAR 1422 U 0.00
expand: MAIN (1, 0) FAR  w(0) 1422. F 0.00
expand: MAIN (2, 0) FAR  w(0) 674.
	create_child: MAIN (1, 3) FAR 1335 U 0.00
expand: MAIN (1, 0) FAR  w(0) 1335.
	create_child: MAIN (0, 3) FAR 2114 U 0.00
expand: MAIN (0, 0) FAR  w(0) 2114. F 0.00
expand: MAIN (1, 0) FAR  w(0) 1335.
	create_child: MAIN (0, 3) FAR 2223 U 0.00
expand: MAIN (0, 0) FAR  w(0) 2223. F 0.00
expand: MAIN (1, 0) FAR  w(0) 1335. F 0.00
expand: MAIN (2, 0) FAR  w(0) 674.
	create_child: MAIN (1, 3) FAR 2326 U 0.00
expand: MAIN (1, 0) FAR  w(0) 2326. F 0.00
expand: MAIN (2, 0) FAR  w(0) 674. F 0.00
expand: query!0 (3, 0) FAR  w(0) 1. F 0.00
(spacer::context::check_reachability :time 0.01 :before-memory 5.24 :after-memory 5.24)
Propagating: 0 1 2 3  ! 4 
(spacer::context::propagate :time 0.00 :before-memory 5.24 :after-memory 5.49)
Entering level 4
BRUNCH_STAT max_query_lvl 3
BRUNCH_STAT num_queries 13
BRUNCH_STAT num_reach_queries 0
BRUNCH_STAT num_reach_reuse 0
BRUNCH_STAT inductive_lvl 0
BRUNCH_STAT max_depth 4
BRUNCH_STAT cex_depth 0
expand: query!0 (4, 0) FAR  w(0) 1.
	create_child: MAIN (3, 4) FAR 674 U 0.00
expand: MAIN (3, 0) FAR  w(0) 674.
	create_child: MAIN (2, 4) FAR 1819 U 0.00
expand: MAIN (2, 0) FAR  w(0) 1819. F 0.00
expand: MAIN (3, 0) FAR  w(0) 674.
	create_child: MAIN (2, 4) FAR 3111 U 0.00
expand: MAIN (2, 0) FAR  w(0) 3111. F 0.00
expand: MAIN (3, 0) FAR  w(0) 674.
	create_child: MAIN (2, 4) FAR 3305 U 0.00
expand: MAIN (2, 0) FAR  w(0) 3305. F 0.00
expand: MAIN (3, 0) FAR  w(0) 674. F 0.00
expand: query!0 (4, 0) FAR  w(0) 1. F 0.00
(spacer::context::check_reachability :time 0.01 :before-memory 5.49 :after-memory 5.49)
Propagating: 2 3 4  ! 5 
(spacer::context::propagate :time 0.00 :before-memory 5.49 :after-memory 5.49)
Entering level 5
BRUNCH_STAT max_query_lvl 4
BRUNCH_STAT num_queries 17
BRUNCH_STAT num_reach_queries 0
BRUNCH_STAT num_reach_reuse 0
BRUNCH_STAT inductive_lvl 0
BRUNCH_STAT max_depth 5
BRUNCH_STAT cex_depth 0
expand: query!0 (5, 0) FAR  w(0) 1.
	create_child: MAIN (4, 5) FAR 674 U 0.00
expand: MAIN (4, 0) FAR  w(0) 674.
	create_child: MAIN (3, 5) FAR 3546 U 0.00
expand: MAIN (3, 0) FAR  w(0) 3546. F 0.00
expand: MAIN (4, 0) FAR  w(0) 674.
	create_child: MAIN (3, 5) FAR 1422 U 0.00
expand: MAIN (3, 0) FAR  w(0) 1422. F 0.00
expand: MAIN (4, 0) FAR  w(0) 674. F 0.00
expand: query!0 (5, 0) FAR  w(0) 1. F 0.00
(spacer::context::check_reachability :time 0.00 :before-memory 5.49 :after-memory 5.49)
Propagating: 3 4 5  ! 6 
(spacer::context::propagate :time 0.00 :before-memory 5.49 :after-memory 5.49)
Entering level 6
BRUNCH_STAT max_query_lvl 5
BRUNCH_STAT num_queries 20
BRUNCH_STAT num_reach_queries 0
BRUNCH_STAT num_reach_reuse 0
BRUNCH_STAT inductive_lvl 0
BRUNCH_STAT max_depth 6
BRUNCH_STAT cex_depth 0
expand: query!0 (6, 0) FAR  w(0) 1.
	create_child: MAIN (5, 6) FAR 674 U 0.00
expand: MAIN (5, 0) FAR  w(0) 674.
	create_child: MAIN (4, 6) FAR 3546 U 0.00
expand: MAIN (4, 0) FAR  w(0) 3546. F 0.00
expand: MAIN (5, 0) FAR  w(0) 674.
	create_child: MAIN (4, 6) FAR 1819 U 0.00
expand: MAIN (4, 0) FAR  w(0) 1819. F 0.00
expand: MAIN (5, 0) FAR  w(0) 674.
	create_child: MAIN (4, 6) FAR 3111 U 0.00
expand: MAIN (4, 0) FAR  w(0) 3111. F 0.00
expand: MAIN (5, 0) FAR  w(0) 674.
	create_child: MAIN (4, 6) FAR 1422 U 0.00
expand: MAIN (4, 0) FAR  w(0) 1422. F 0.00
expand: MAIN (5, 0) FAR  w(0) 674. F 0.00
expand: query!0 (6, 0) FAR  w(0) 1. F 0.00
(spacer::context::check_reachability :time 0.01 :before-memory 5.49 :after-memory 5.59)
Propagating: 4 5 6  ! 7 
(spacer::context::propagate :time 0.00 :before-memory 5.59 :after-memory 5.59)
Entering level 7
BRUNCH_STAT max_query_lvl 6
BRUNCH_STAT num_queries 25
BRUNCH_STAT num_reach_queries 0
BRUNCH_STAT num_reach_reuse 0
BRUNCH_STAT inductive_lvl 0
BRUNCH_STAT max_depth 7
BRUNCH_STAT cex_depth 0
expand: query!0 (7, 0) FAR  w(0) 1.
	create_child: MAIN (6, 7) FAR 674 U 0.00
expand: MAIN (6, 0) FAR  w(0) 674.
	create_child: MAIN (5, 7) FAR 1335 U 0.00
expand: MAIN (5, 0) FAR  w(0) 1335.
	create_child: MAIN (4, 7) FAR 4689 U 0.00
expand: MAIN (4, 0) FAR  w(0) 4689. F 0.00
expand: MAIN (5, 0) FAR  w(0) 1335. F 0.00
expand: MAIN (6, 0) FAR  w(0) 674.
	create_child: MAIN (5, 7) FAR 1819 U 0.00
expand: MAIN (5, 0) FAR  w(0) 1819.
	create_child: MAIN (4, 7) FAR 5044 U 0.00
expand: MAIN (4, 0) FAR  w(0) 5044.
	create_child: MAIN (3, 7) FAR 5064 U 0.00
expand: MAIN (3, 0) FAR  w(0) 5064. F 0.00
expand: MAIN (4, 0) FAR  w(0) 5044. F 0.00
expand: MAIN (5, 0) FAR  w(0) 1819. F 0.00
expand: MAIN (6, 0) FAR  w(0) 674.
	create_child: MAIN (5, 7) FAR 3111 U 0.00
expand: MAIN (5, 0) FAR  w(0) 3111. F 0.00
expand: MAIN (6, 0) FAR  w(0) 674.
	create_child: MAIN (5, 7) FAR 1422 U 0.00
expand: MAIN (5, 0) FAR  w(0) 1422.
	create_child: MAIN (4, 7) FAR 5376 U 0.00
expand: MAIN (4, 0) FAR  w(0) 5376. F 0.00
expand: MAIN (5, 0) FAR  w(0) 1422. F 0.00
expand: MAIN (6, 0) FAR  w(0) 674. F 0.00
expand: query!0 (7, 0) FAR  w(0) 1. F 0.00
(spacer::context::check_reachability :time 0.02 :before-memory 5.59 :after-memory 5.89)
Propagating: 3 
(spacer::context::propagate :time 0.00 :before-memory 5.89 :after-memory 5.89)
(define-fun MAIN ((x!0 Bool)
 (x!1 Bool)
 (x!2 Bool)
 (x!3 Int)
 (x!4 Bool)
 (x!5 Bool)) Bool
  (and (or x!0 x!1 (= x!3 0))
       x!5
       (not x!2)
       (not x!4)
       (or (not (<= x!3 0)) (not x!0))
       (or (not (>= x!3 3)) (not x!0))
       (or (not (= x!3 1)) (not x!1))
       (or (not (>= x!3 2)) x!1 (not x!0))
       (or (not (<= x!3 2)) x!0 (= x!3 0))
       (not (>= x!3 4))
       (or (not (<= x!3 0)) (not x!1))))
BRUNCH_STAT max_query_lvl 7
BRUNCH_STAT num_queries 34
BRUNCH_STAT num_reach_queries 0
BRUNCH_STAT num_reach_reuse 0
BRUNCH_STAT inductive_lvl 3
BRUNCH_STAT max_depth 7
BRUNCH_STAT cex_depth 0
(:SPACER-inductive-level               3
 :SPACER-max-depth                     7
 :SPACER-max-query-lvl                 7
 :SPACER-num-invariants                17
 :SPACER-num-lemmas                    42
 :SPACER-num-properties                19
 :SPACER-num-queries                   34
 :added-eqs                            422
 :arith-assert-diseq                   532
 :arith-assert-lower                   858
 :arith-assert-upper                   793
 :arith-bound-prop                     15
 :arith-eq-adapter                     310
 :arith-fixed-eqs                      26
 :arith-offset-eqs                     10
 :arith-pivots                         45
 :bool-inductive-gen                   34
 :bool-inductive-gen-failures          49
 :conflicts                            152
 :decisions                            1959
 :del-clause                           150
 :final-checks                         111
 :minimized-lits                       27
 :mk-bool-var                          734
 :mk-clause                            592
 :num-checks                           236
 :propagations                         13093
 :time.itp_solver.itp_core             0.01
 :time.spacer.init_rules               0.00
 :time.spacer.init_rules.pt.init       0.00
 :time.spacer.solve                    0.06
 :time.spacer.solve.propagate          0.01
 :time.spacer.solve.reach              0.05
 :time.spacer.solve.reach.children     0.01
 :time.spacer.solve.reach.gen.bool_ind 0.01
 :time.virtual_solver.proof            0.00
 :time.virtual_solver.smt.total        0.04
 :time.virtual_solver.smt.total.sat    0.02
 :virtual_solver.checks                236
 :virtual_solver.checks.sat            111)
BRUNCH_STAT max_query_lvl 7
BRUNCH_STAT num_queries 34
BRUNCH_STAT num_reach_queries 0
BRUNCH_STAT num_reach_reuse 0
BRUNCH_STAT inductive_lvl 3
BRUNCH_STAT max_depth 7
BRUNCH_STAT cex_depth 0

real	0m0.082s
user	0m0.068s
sys	0m0.012s
