(transform N7datalog13mk_coi_filterE...no-op 0s)
(transform N7datalog25mk_interp_tail_simplifierE...11 rules 0s)
(transform N7datalog27mk_quantifier_instantiationE...no-op 0s)
(transform N7datalog8mk_scaleE...no-op 0s)
(transform N7datalog18mk_karr_invariantsE...no-op 0s)
(transform N7datalog14mk_array_blastE...no-op 0s)
(transform N7datalog22mk_subsumption_checkerE...10 rules 0s)
(transform N7datalog12mk_bit_blastE...no-op 0s)
(transform N7datalog15mk_rule_inlinerE...no-op 0s)
(transform N7datalog13mk_coi_filterE...no-op 0s)
(transform N7datalog25mk_interp_tail_simplifierE...10 rules 0s)
(transform N7datalog22mk_subsumption_checkerE...no-op 0s)
(transform N7datalog15mk_rule_inlinerE...no-op 0s)
(transform N7datalog13mk_coi_filterE...no-op 0s)
(transform N7datalog25mk_interp_tail_simplifierE...10 rules 0s)
(transform N7datalog22mk_subsumption_checkerE...no-op 0s)
(transform N7datalog15mk_rule_inlinerE...no-op 0s)
(transform N7datalog22mk_subsumption_checkerE...no-op 0s)
(transform N7datalog15mk_rule_inlinerE...no-op 0s)
(transform N7datalog22mk_subsumption_checkerE...no-op 0s)
(transform N7datalog15mk_rule_inlinerE...no-op 0s)
(transform N7datalog22mk_subsumption_checkerE...no-op 0s)
expand: query!0 (0, 0) FAR  w(0) 1. F 0.00
(spacer::context::check_reachability :time 0.00 :before-memory 10.34 :after-memory 10.76)
Entering level 1
BRUNCH_STAT max_query_lvl 0
BRUNCH_STAT num_queries 0
BRUNCH_STAT num_reach_queries 0
BRUNCH_STAT num_reach_reuse 0
BRUNCH_STAT inductive_lvl 0
BRUNCH_STAT max_depth 1
BRUNCH_STAT cex_depth 0
expand: query!0 (1, 0) FAR  w(0) 1.
	create_child: ERR (0, 1) FAR 1 U 0.00
expand: ERR (0, 0) FAR  w(0) 1. F 0.00
expand: query!0 (1, 0) FAR  w(0) 1. F 0.00
(spacer::context::check_reachability :time 0.00 :before-memory 10.76 :after-memory 11.23)
Propagating: 0 1  ! 2 
(spacer::context::propagate :time 0.00 :before-memory 11.23 :after-memory 11.23)
Entering level 2
BRUNCH_STAT max_query_lvl 1
BRUNCH_STAT num_queries 1
BRUNCH_STAT num_reach_queries 0
BRUNCH_STAT num_reach_reuse 0
BRUNCH_STAT inductive_lvl 0
BRUNCH_STAT max_depth 2
BRUNCH_STAT cex_depth 0
expand: query!0 (2, 0) FAR  w(0) 1.
	create_child: ERR (1, 2) FAR 1 U 0.00
expand: ERR (1, 0) FAR  w(0) 1.
	create_child: MAIN (0, 2) FAR 830 U 0.00
expand: MAIN (0, 0) FAR  w(0) 830. F 0.00
expand: ERR (1, 0) FAR  w(0) 1. F 0.00
expand: query!0 (2, 0) FAR  w(0) 1. F 0.00
(spacer::context::check_reachability :time 0.00 :before-memory 11.23 :after-memory 11.69)
Propagating: 0 1 2  ! 3 
(spacer::context::propagate :time 0.00 :before-memory 11.69 :after-memory 11.69)
Entering level 3
BRUNCH_STAT max_query_lvl 2
BRUNCH_STAT num_queries 3
BRUNCH_STAT num_reach_queries 0
BRUNCH_STAT num_reach_reuse 0
BRUNCH_STAT inductive_lvl 0
BRUNCH_STAT max_depth 3
BRUNCH_STAT cex_depth 0
expand: query!0 (3, 0) FAR  w(0) 1.
	create_child: ERR (2, 3) FAR 1 U 0.00
expand: ERR (2, 0) FAR  w(0) 1.
	create_child: MAIN (1, 3) FAR 830 U 0.00
expand: MAIN (1, 0) FAR  w(0) 830.
	create_child: top_step (0, 3) FAR 1394 U 0.00
expand: top_step (0, 0) FAR  w(0) 1394. F 0.00
expand: MAIN (1, 0) FAR  w(0) 830. F 0.00
expand: ERR (2, 0) FAR  w(0) 1. F 0.00
expand: query!0 (3, 0) FAR  w(0) 1. F 0.00
(spacer::context::check_reachability :time 0.00 :before-memory 11.69 :after-memory 12.30)
Propagating: 0 1 2 3  ! 4 
(spacer::context::propagate :time 0.00 :before-memory 12.30 :after-memory 12.30)
Entering level 4
BRUNCH_STAT max_query_lvl 3
BRUNCH_STAT num_queries 6
BRUNCH_STAT num_reach_queries 0
BRUNCH_STAT num_reach_reuse 0
BRUNCH_STAT inductive_lvl 0
BRUNCH_STAT max_depth 4
BRUNCH_STAT cex_depth 0
expand: query!0 (4, 0) FAR  w(0) 1.
	create_child: ERR (3, 4) FAR 1 U 0.00
expand: ERR (3, 0) FAR  w(0) 1.
	create_child: MAIN (2, 4) FAR 830 U 0.00
expand: MAIN (2, 0) FAR  w(0) 830.
	create_child: top_step (1, 4) FAR 1394 U 0.00
expand: top_step (1, 0) FAR  w(0) 1394.
	create_child: bool6_step (0, 4) FAR 509 U 0.00
expand: bool6_step (0, 0) FAR  w(0) 509. F 0.00
expand: top_step (1, 0) FAR  w(0) 1394.
	create_child: int6I_step (0, 4) FAR 632 U 0.00
expand: int6I_step (0, 0) FAR  w(0) 632. F 0.00
expand: top_step (1, 0) FAR  w(0) 1394. F 0.00
expand: MAIN (2, 0) FAR  w(0) 830. F 0.00
expand: ERR (3, 0) FAR  w(0) 1. F 0.00
expand: query!0 (4, 0) FAR  w(0) 1. F 0.00
(spacer::context::check_reachability :time 0.01 :before-memory 12.30 :after-memory 13.33)
Propagating: 0 1 2 
(spacer::context::propagate :time 0.00 :before-memory 13.33 :after-memory 13.33)
(define-fun ERR () Bool
  false)
(define-fun int6I_reset ((x!0 Int) (x!1 Bool) (x!2 Int) (x!3 Bool)) Bool
  true)
(define-fun top_step ((x!0 Bool)
 (x!1 Bool)
 (x!2 Int)
 (x!3 Bool)
 (x!4 Bool)
 (x!5 Bool)
 (x!6 Bool)
 (x!7 Bool)
 (x!8 Int)
 (x!9 Bool)
 (x!10 Bool)
 (x!11 Bool)
 (x!12 Bool)
 (x!13 Bool)) Bool
  x!1)
(define-fun bool6_reset ((x!0 Bool)
 (x!1 Bool)
 (x!2 Bool)
 (x!3 Bool)
 (x!4 Bool)
 (x!5 Bool)
 (x!6 Bool)
 (x!7 Bool)) Bool
  true)
(define-fun bool6_step ((x!0 Bool)
 (x!1 Bool)
 (x!2 Bool)
 (x!3 Bool)
 (x!4 Bool)
 (x!5 Bool)
 (x!6 Bool)
 (x!7 Bool)
 (x!8 Bool)
 (x!9 Bool)) Bool
  (not x!1))
(define-fun MAIN ((x!0 Int)
 (x!1 Bool)
 (x!2 Bool)
 (x!3 Bool)
 (x!4 Bool)
 (x!5 Bool)
 (x!6 Bool)) Bool
  x!6)
(define-fun int6I_step ((x!0 Bool)
 (x!1 Bool)
 (x!2 Int)
 (x!3 Bool)
 (x!4 Int)
 (x!5 Bool)) Bool
  (not x!1))
(define-fun top_reset ((x!0 Int)
 (x!1 Bool)
 (x!2 Bool)
 (x!3 Bool)
 (x!4 Bool)
 (x!5 Bool)
 (x!6 Int)
 (x!7 Bool)
 (x!8 Bool)
 (x!9 Bool)
 (x!10 Bool)
 (x!11 Bool)) Bool
  true)
BRUNCH_STAT max_query_lvl 4
BRUNCH_STAT num_queries 11
BRUNCH_STAT num_reach_queries 0
BRUNCH_STAT num_reach_reuse 2
BRUNCH_STAT inductive_lvl 2
BRUNCH_STAT max_depth 4
BRUNCH_STAT cex_depth 0
(:SPACER-inductive-level               2
 :SPACER-max-depth                     4
 :SPACER-max-query-lvl                 4
 :SPACER-num-invariants                6
 :SPACER-num-lemmas                    16
 :SPACER-num-properties                8
 :SPACER-num-queries                   11
 :SPACER-num-reuse-reach-facts         2
 :added-eqs                            46
 :arith-assert-diseq                   11
 :arith-assert-lower                   11
 :arith-assert-upper                   27
 :arith-bound-prop                     2
 :arith-eq-adapter                     9
 :arith-fixed-eqs                      1
 :arith-offset-eqs                     9
 :arith-pivots                         2
 :bool-inductive-gen                   4
 :bool-inductive-gen-failures          4
 :conflicts                            44
 :decisions                            171
 :del-clause                           4
 :final-checks                         22
 :mk-bool-var                          458
 :mk-clause                            484
 :num-checks                           61
 :propagations                         879
 :time.itp_solver.itp_core             0.00
 :time.spacer.init_rules               0.01
 :time.spacer.init_rules.pt.init       0.00
 :time.spacer.solve                    0.01
 :time.spacer.solve.propagate          0.00
 :time.spacer.solve.reach              0.01
 :time.spacer.solve.reach.children     0.00
 :time.spacer.solve.reach.gen.bool_ind 0.00
 :time.virtual_solver.proof            0.00
 :time.virtual_solver.smt.total        0.01
 :time.virtual_solver.smt.total.sat    0.00
 :virtual_solver.checks                61
 :virtual_solver.checks.sat            22)
BRUNCH_STAT max_query_lvl 4
BRUNCH_STAT num_queries 11
BRUNCH_STAT num_reach_queries 0
BRUNCH_STAT num_reach_reuse 2
BRUNCH_STAT inductive_lvl 2
BRUNCH_STAT max_depth 4
BRUNCH_STAT cex_depth 0

real	0m0.040s
user	0m0.032s
sys	0m0.004s
