(transform N7datalog13mk_coi_filterE...no-op 0s)
(transform N7datalog25mk_interp_tail_simplifierE...12 rules 0s)
(transform N7datalog27mk_quantifier_instantiationE...no-op 0s)
(transform N7datalog8mk_scaleE...no-op 0s)
(transform N7datalog18mk_karr_invariantsE...no-op 0s)
(transform N7datalog14mk_array_blastE...no-op 0s)
(transform N7datalog22mk_subsumption_checkerE...11 rules 0s)
(transform N7datalog12mk_bit_blastE...no-op 0s)
(transform N7datalog15mk_rule_inlinerE...no-op 0s)
(transform N7datalog13mk_coi_filterE...no-op 0s)
(transform N7datalog25mk_interp_tail_simplifierE...11 rules 0s)
(transform N7datalog22mk_subsumption_checkerE...no-op 0s)
(transform N7datalog15mk_rule_inlinerE...no-op 0s)
(transform N7datalog13mk_coi_filterE...no-op 0s)
(transform N7datalog25mk_interp_tail_simplifierE...11 rules 0s)
(transform N7datalog22mk_subsumption_checkerE...no-op 0s)
(transform N7datalog15mk_rule_inlinerE...no-op 0s)
(transform N7datalog22mk_subsumption_checkerE...no-op 0s)
(transform N7datalog15mk_rule_inlinerE...no-op 0s)
(transform N7datalog22mk_subsumption_checkerE...no-op 0s)
(transform N7datalog15mk_rule_inlinerE...no-op 0s)
(transform N7datalog22mk_subsumption_checkerE...no-op 0s)
expand: query!0 (0, 0) FAR  w(0) 1. F 0.00
(spacer::context::check_reachability :time 0.00 :before-memory 11.33 :after-memory 11.76)
Entering level 1
BRUNCH_STAT max_query_lvl 0
BRUNCH_STAT num_queries 0
BRUNCH_STAT num_reach_queries 0
BRUNCH_STAT num_reach_reuse 0
BRUNCH_STAT inductive_lvl 0
BRUNCH_STAT max_depth 1
BRUNCH_STAT cex_depth 0
expand: query!0 (1, 0) FAR  w(0) 1.
	create_child: ERR (0, 1) FAR 1 U 0.00
expand: ERR (0, 0) FAR  w(0) 1. F 0.00
expand: query!0 (1, 0) FAR  w(0) 1. F 0.00
(spacer::context::check_reachability :time 0.00 :before-memory 11.76 :after-memory 12.21)
Propagating: 0 1  ! 2 
(spacer::context::propagate :time 0.00 :before-memory 12.21 :after-memory 12.21)
Entering level 2
BRUNCH_STAT max_query_lvl 1
BRUNCH_STAT num_queries 1
BRUNCH_STAT num_reach_queries 0
BRUNCH_STAT num_reach_reuse 0
BRUNCH_STAT inductive_lvl 0
BRUNCH_STAT max_depth 2
BRUNCH_STAT cex_depth 0
expand: query!0 (2, 0) FAR  w(0) 1.
	create_child: ERR (1, 2) FAR 1 U 0.00
expand: ERR (1, 0) FAR  w(0) 1.
	create_child: MAIN (0, 2) FAR 1144 U 0.00
expand: MAIN (0, 0) FAR  w(0) 1144. F 0.00
expand: ERR (1, 0) FAR  w(0) 1. F 0.00
expand: query!0 (2, 0) FAR  w(0) 1. F 0.00
(spacer::context::check_reachability :time 0.00 :before-memory 12.21 :after-memory 12.66)
Propagating: 0 1 2  ! 3 
(spacer::context::propagate :time 0.00 :before-memory 12.66 :after-memory 12.66)
Entering level 3
BRUNCH_STAT max_query_lvl 2
BRUNCH_STAT num_queries 3
BRUNCH_STAT num_reach_queries 0
BRUNCH_STAT num_reach_reuse 0
BRUNCH_STAT inductive_lvl 0
BRUNCH_STAT max_depth 3
BRUNCH_STAT cex_depth 0
expand: query!0 (3, 0) FAR  w(0) 1.
	create_child: ERR (2, 3) FAR 1 U 0.00
expand: ERR (2, 0) FAR  w(0) 1.
	create_child: MAIN (1, 3) FAR 1144 U 0.00
expand: MAIN (1, 0) FAR  w(0) 1144.
	create_child: top_step (0, 3) FAR 1554 U 0.00
expand: top_step (0, 0) FAR  w(0) 1554. F 0.00
expand: MAIN (1, 0) FAR  w(0) 1144. F 0.00
expand: ERR (2, 0) FAR  w(0) 1. F 0.00
expand: query!0 (3, 0) FAR  w(0) 1. F 0.00
(spacer::context::check_reachability :time 0.00 :before-memory 12.66 :after-memory 13.39)
Propagating: 0 1 2 3  ! 4 
(spacer::context::propagate :time 0.00 :before-memory 13.39 :after-memory 13.39)
Entering level 4
BRUNCH_STAT max_query_lvl 3
BRUNCH_STAT num_queries 6
BRUNCH_STAT num_reach_queries 0
BRUNCH_STAT num_reach_reuse 0
BRUNCH_STAT inductive_lvl 0
BRUNCH_STAT max_depth 4
BRUNCH_STAT cex_depth 0
expand: query!0 (4, 0) FAR  w(0) 1.
	create_child: ERR (3, 4) FAR 1 U 0.00
expand: ERR (3, 0) FAR  w(0) 1.
	create_child: MAIN (2, 4) FAR 1144 U 0.00
expand: MAIN (2, 0) FAR  w(0) 1144.
	create_child: top_step (1, 4) FAR 1554 U 0.00
expand: top_step (1, 0) FAR  w(0) 1554.
	create_child: top_reset (1, 4) FAR 3340 X 0.00
expand: top_reset (1, 0) FAR  w(0) 3340.
	create_child: voiture_reset (0, 4) FAR 3768 U 0.00
expand: voiture_reset (0, 0) FAR  w(0) 3768. F 0.00
expand: top_reset (1, 0) FAR  w(0) 3340. F 0.00
expand: MAIN (2, 0) FAR  w(0) 1144.
	create_child: top_step (1, 4) FAR 4335 U 0.00
expand: top_step (1, 0) FAR  w(0) 4335.
	create_child: voiture_step (0, 4) FAR 4403 U 0.00
expand: voiture_step (0, 0) FAR  w(0) 4403. F 0.00
expand: top_step (1, 0) FAR  w(0) 4335. F 0.00
expand: MAIN (2, 0) FAR  w(0) 1144. F 0.00
expand: ERR (3, 0) FAR  w(0) 1. F 0.00
expand: query!0 (4, 0) FAR  w(0) 1. F 0.00
(spacer::context::check_reachability :time 0.01 :before-memory 13.39 :after-memory 15.78)
Propagating: 0 1 2 3 4  ! 5 
(spacer::context::propagate :time 0.00 :before-memory 15.78 :after-memory 15.78)
Entering level 5
BRUNCH_STAT max_query_lvl 4
BRUNCH_STAT num_queries 12
BRUNCH_STAT num_reach_queries 1
BRUNCH_STAT num_reach_reuse 5
BRUNCH_STAT inductive_lvl 0
BRUNCH_STAT max_depth 5
BRUNCH_STAT cex_depth 0
expand: query!0 (5, 0) FAR  w(0) 1.
	create_child: ERR (4, 5) FAR 1 U 0.00
expand: ERR (4, 0) FAR  w(0) 1.
	create_child: MAIN (3, 5) FAR 1144 U 0.00
expand: MAIN (3, 0) FAR  w(0) 1144.
	create_child: MAIN (2, 5) FAR 5275 U 0.00
expand: MAIN (2, 0) FAR  w(0) 5275.
	create_child: top_step (1, 5) FAR 5364 U 0.00
expand: top_step (1, 0) FAR  w(0) 5364.
	create_child: Sofar_step (0, 5) FAR 5446 U 0.00
expand: Sofar_step (0, 0) FAR  w(0) 5446.
	create_child: voiture_step (0, 5) FAR 5632 X 0.00
expand: voiture_step (0, 0) FAR  w(0) 5632. F 0.00
expand: top_step (1, 0) FAR  w(0) 5364. F 0.00
expand: MAIN (2, 0) FAR  w(0) 5275. F 0.00
expand: MAIN (3, 0) FAR  w(0) 1144.
	create_child: top_step (2, 5) FAR 5838 U 0.00
expand: top_step (2, 0) FAR  w(0) 5838.
	create_child: voiture_step (1, 5) FAR 5992 U 0.00
expand: voiture_step (1, 0) FAR  w(0) 5992. F 0.00
expand: top_step (2, 0) FAR  w(0) 5838. F 0.00
expand: MAIN (3, 0) FAR  w(0) 1144. F 0.00
expand: ERR (4, 0) FAR  w(0) 1. F 0.00
expand: query!0 (5, 0) FAR  w(0) 1. F 0.00
(spacer::context::check_reachability :time 0.02 :before-memory 15.78 :after-memory 17.22)
Propagating: 0 1 2 3 4 5  ! 6 
(spacer::context::propagate :time 0.00 :before-memory 17.22 :after-memory 17.22)
Entering level 6
BRUNCH_STAT max_query_lvl 5
BRUNCH_STAT num_queries 19
BRUNCH_STAT num_reach_queries 1
BRUNCH_STAT num_reach_reuse 9
BRUNCH_STAT inductive_lvl 0
BRUNCH_STAT max_depth 6
BRUNCH_STAT cex_depth 0
expand: query!0 (6, 0) FAR  w(0) 1.
	create_child: ERR (5, 6) FAR 1 U 0.00
expand: ERR (5, 0) FAR  w(0) 1.
	create_child: MAIN (4, 6) FAR 1144 U 0.00
expand: MAIN (4, 0) FAR  w(0) 1144.
	create_child: MAIN (3, 6) FAR 6339 U 0.00
expand: MAIN (3, 0) FAR  w(0) 6339.
	create_child: top_step (2, 6) FAR 6375 U 0.00
expand: top_step (2, 0) FAR  w(0) 6375. F 0.00
expand: MAIN (3, 0) FAR  w(0) 6339. F 0.00
expand: MAIN (4, 0) FAR  w(0) 1144. F 0.00
expand: ERR (5, 0) FAR  w(0) 1. F 0.00
expand: query!0 (6, 0) FAR  w(0) 1. F 0.00
(spacer::context::check_reachability :time 0.01 :before-memory 17.22 :after-memory 17.22)
Propagating: 2 
(spacer::context::propagate :time 0.00 :before-memory 17.22 :after-memory 17.22)
(define-fun ERR () Bool
  false)
(define-fun Sofar_step ((x!0 Bool)
 (x!1 Bool)
 (x!2 Bool)
 (x!3 Bool)
 (x!4 Bool)
 (x!5 Bool)) Bool
  true)
(define-fun excludes2_fun ((x!0 Bool) (x!1 Bool) (x!2 Bool)) Bool
  true)
(define-fun top_reset ((x!0 Int)
 (x!1 Int)
 (x!2 Int)
 (x!3 Bool)
 (x!4 Bool)
 (x!5 Bool)
 (x!6 Bool)
 (x!7 Int)
 (x!8 Int)
 (x!9 Int)
 (x!10 Bool)
 (x!11 Bool)
 (x!12 Bool)
 (x!13 Bool)) Bool
  x!11)
(define-fun Sofar_reset ((x!0 Bool) (x!1 Bool) (x!2 Bool) (x!3 Bool)) Bool
  true)
(define-fun MAIN ((x!0 Int)
 (x!1 Int)
 (x!2 Int)
 (x!3 Bool)
 (x!4 Bool)
 (x!5 Bool)
 (x!6 Bool)
 (x!7 Bool)) Bool
  (and (>= x!1 0) x!7))
(define-fun top_step ((x!0 Bool)
 (x!1 Bool)
 (x!2 Bool)
 (x!3 Int)
 (x!4 Int)
 (x!5 Int)
 (x!6 Bool)
 (x!7 Bool)
 (x!8 Bool)
 (x!9 Bool)
 (x!10 Int)
 (x!11 Int)
 (x!12 Int)
 (x!13 Bool)
 (x!14 Bool)
 (x!15 Bool)
 (x!16 Bool)) Bool
  (and (or (>= x!11 0) (not (>= x!4 0)))
       (or (>= x!11 0) (not x!7))
       (or (not x!7) x!2)
       (or (not (>= x!4 0)) x!2)))
(define-fun voiture_step ((x!0 Bool)
 (x!1 Bool)
 (x!2 Bool)
 (x!3 Bool)
 (x!4 Bool)
 (x!5 Int)
 (x!6 Int)
 (x!7 Int)
 (x!8 Bool)
 (x!9 Bool)
 (x!10 Bool)
 (x!11 Int)
 (x!12 Int)
 (x!13 Int)
 (x!14 Bool)
 (x!15 Bool)
 (x!16 Int)
 (x!17 Int)
 (x!18 Int)
 (x!19 Bool)
 (x!20 Bool)) Bool
  (let ((a!1 (or (>= (+ x!6 (* (- 1) x!12)) 0) (= x!6 0))))
    (and a!1 (or (= x!6 0) (not x!15)) (>= (+ x!17 (* (- 1) x!6)) 0))))
(define-fun voiture_reset ((x!0 Int)
 (x!1 Int)
 (x!2 Int)
 (x!3 Bool)
 (x!4 Bool)
 (x!5 Int)
 (x!6 Int)
 (x!7 Int)
 (x!8 Bool)
 (x!9 Bool)) Bool
  x!9)
BRUNCH_STAT max_query_lvl 6
BRUNCH_STAT num_queries 23
BRUNCH_STAT num_reach_queries 1
BRUNCH_STAT num_reach_reuse 10
BRUNCH_STAT inductive_lvl 2
BRUNCH_STAT max_depth 6
BRUNCH_STAT cex_depth 0
(:SPACER-inductive-level               2
 :SPACER-max-depth                     6
 :SPACER-max-query-lvl                 6
 :SPACER-num-invariants                13
 :SPACER-num-lemmas                    30
 :SPACER-num-properties                15
 :SPACER-num-queries                   23
 :SPACER-num-reach-queries             1
 :SPACER-num-reuse-reach-facts         10
 :added-eqs                            715
 :arith-add-rows                       134
 :arith-assert-diseq                   96
 :arith-assert-lower                   251
 :arith-assert-upper                   455
 :arith-bound-prop                     36
 :arith-conflicts                      8
 :arith-eq-adapter                     195
 :arith-fixed-eqs                      111
 :arith-offset-eqs                     43
 :arith-pivots                         119
 :bool-inductive-gen                   14
 :bool-inductive-gen-failures          20
 :conflicts                            123
 :decisions                            1085
 :del-clause                           143
 :final-checks                         59
 :minimized-lits                       2
 :mk-bool-var                          1649
 :mk-clause                            1402
 :num-checks                           161
 :propagations                         6795
 :time.itp_solver.itp_core             0.00
 :time.spacer.init_rules               0.01
 :time.spacer.init_rules.pt.init       0.00
 :time.spacer.solve                    0.04
 :time.spacer.solve.propagate          0.00
 :time.spacer.solve.pt.must_reachable  0.00
 :time.spacer.solve.reach              0.04
 :time.spacer.solve.reach.children     0.01
 :time.spacer.solve.reach.gen.bool_ind 0.00
 :time.virtual_solver.proof            0.00
 :time.virtual_solver.smt.total        0.03
 :time.virtual_solver.smt.total.sat    0.01
 :virtual_solver.checks                161
 :virtual_solver.checks.sat            59)
BRUNCH_STAT max_query_lvl 6
BRUNCH_STAT num_queries 23
BRUNCH_STAT num_reach_queries 1
BRUNCH_STAT num_reach_reuse 10
BRUNCH_STAT inductive_lvl 2
BRUNCH_STAT max_depth 6
BRUNCH_STAT cex_depth 0

real	0m0.076s
user	0m0.056s
sys	0m0.020s
