(transform N7datalog13mk_coi_filterE...no-op 0s)
(transform N7datalog25mk_interp_tail_simplifierE...12 rules 0s)
(transform N7datalog27mk_quantifier_instantiationE...no-op 0s)
(transform N7datalog8mk_scaleE...no-op 0s)
(transform N7datalog18mk_karr_invariantsE...no-op 0s)
(transform N7datalog14mk_array_blastE...no-op 0s)
(transform N7datalog22mk_subsumption_checkerE...11 rules 0s)
(transform N7datalog12mk_bit_blastE...no-op 0s)
(transform N7datalog15mk_rule_inlinerE...no-op 0s)
(transform N7datalog13mk_coi_filterE...no-op 0s)
(transform N7datalog25mk_interp_tail_simplifierE...11 rules 0s)
(transform N7datalog22mk_subsumption_checkerE...no-op 0s)
(transform N7datalog15mk_rule_inlinerE...no-op 0s)
(transform N7datalog13mk_coi_filterE...no-op 0s)
(transform N7datalog25mk_interp_tail_simplifierE...11 rules 0s)
(transform N7datalog22mk_subsumption_checkerE...no-op 0s)
(transform N7datalog15mk_rule_inlinerE...no-op 0s)
(transform N7datalog22mk_subsumption_checkerE...no-op 0s)
(transform N7datalog15mk_rule_inlinerE...no-op 0s)
(transform N7datalog22mk_subsumption_checkerE...no-op 0s)
(transform N7datalog15mk_rule_inlinerE...no-op 0s)
(transform N7datalog22mk_subsumption_checkerE...no-op 0s)
expand: query!0 (0, 0) FAR  w(0) 1. F 0.00
(spacer::context::check_reachability :time 0.00 :before-memory 11.33 :after-memory 11.76)
Entering level 1
BRUNCH_STAT max_query_lvl 0
BRUNCH_STAT num_queries 0
BRUNCH_STAT num_reach_queries 0
BRUNCH_STAT num_reach_reuse 0
BRUNCH_STAT inductive_lvl 0
BRUNCH_STAT max_depth 1
BRUNCH_STAT cex_depth 0
expand: query!0 (1, 0) FAR  w(0) 1.
	create_child: ERR (0, 1) FAR 1 U 0.00
expand: ERR (0, 0) FAR  w(0) 1. F 0.00
expand: query!0 (1, 0) FAR  w(0) 1. F 0.00
(spacer::context::check_reachability :time 0.00 :before-memory 11.76 :after-memory 12.20)
Propagating: 0 1  ! 2 
(spacer::context::propagate :time 0.00 :before-memory 12.20 :after-memory 12.20)
Entering level 2
BRUNCH_STAT max_query_lvl 1
BRUNCH_STAT num_queries 1
BRUNCH_STAT num_reach_queries 0
BRUNCH_STAT num_reach_reuse 0
BRUNCH_STAT inductive_lvl 0
BRUNCH_STAT max_depth 2
BRUNCH_STAT cex_depth 0
expand: query!0 (2, 0) FAR  w(0) 1.
	create_child: ERR (1, 2) FAR 1 U 0.00
expand: ERR (1, 0) FAR  w(0) 1.
	create_child: MAIN (0, 2) FAR 1142 U 0.00
expand: MAIN (0, 0) FAR  w(0) 1142. F 0.00
expand: ERR (1, 0) FAR  w(0) 1. F 0.00
expand: query!0 (2, 0) FAR  w(0) 1. F 0.00
(spacer::context::check_reachability :time 0.00 :before-memory 12.20 :after-memory 12.66)
Propagating: 0 1 2  ! 3 
(spacer::context::propagate :time 0.00 :before-memory 12.66 :after-memory 12.66)
Entering level 3
BRUNCH_STAT max_query_lvl 2
BRUNCH_STAT num_queries 3
BRUNCH_STAT num_reach_queries 0
BRUNCH_STAT num_reach_reuse 0
BRUNCH_STAT inductive_lvl 0
BRUNCH_STAT max_depth 3
BRUNCH_STAT cex_depth 0
expand: query!0 (3, 0) FAR  w(0) 1.
	create_child: ERR (2, 3) FAR 1 U 0.00
expand: ERR (2, 0) FAR  w(0) 1.
	create_child: MAIN (1, 3) FAR 1142 U 0.00
expand: MAIN (1, 0) FAR  w(0) 1142.
	create_child: top_step (0, 3) FAR 1552 U 0.00
expand: top_step (0, 0) FAR  w(0) 1552. F 0.00
expand: MAIN (1, 0) FAR  w(0) 1142. F 0.00
expand: ERR (2, 0) FAR  w(0) 1. F 0.00
expand: query!0 (3, 0) FAR  w(0) 1. F 0.00
(spacer::context::check_reachability :time 0.00 :before-memory 12.66 :after-memory 13.38)
Propagating: 0 1 2 3  ! 4 
(spacer::context::propagate :time 0.00 :before-memory 13.38 :after-memory 13.38)
Entering level 4
BRUNCH_STAT max_query_lvl 3
BRUNCH_STAT num_queries 6
BRUNCH_STAT num_reach_queries 0
BRUNCH_STAT num_reach_reuse 0
BRUNCH_STAT inductive_lvl 0
BRUNCH_STAT max_depth 4
BRUNCH_STAT cex_depth 0
expand: query!0 (4, 0) FAR  w(0) 1.
	create_child: ERR (3, 4) FAR 1 U 0.00
expand: ERR (3, 0) FAR  w(0) 1.
	create_child: MAIN (2, 4) FAR 1142 U 0.00
expand: MAIN (2, 0) FAR  w(0) 1142.
	create_child: top_step (1, 4) FAR 1552 U 0.00
expand: top_step (1, 0) FAR  w(0) 1552.
	create_child: top_reset (1, 4) FAR 3352 X 0.00
expand: top_reset (1, 0) FAR  w(0) 3352.
	create_child: voiture_reset (0, 4) FAR 3759 U 0.00
expand: voiture_reset (0, 0) FAR  w(0) 3759. F 0.00
expand: top_reset (1, 0) FAR  w(0) 3352. F 0.00
expand: MAIN (2, 0) FAR  w(0) 1142.
	create_child: top_step (1, 4) FAR 4321 U 0.00
expand: top_step (1, 0) FAR  w(0) 4321.
	create_child: voiture_step (0, 4) FAR 4411 U 0.00
expand: voiture_step (0, 0) FAR  w(0) 4411. F 0.00
expand: top_step (1, 0) FAR  w(0) 4321. F 0.00
expand: MAIN (2, 0) FAR  w(0) 1142. F 0.00
expand: ERR (3, 0) FAR  w(0) 1. F 0.00
expand: query!0 (4, 0) FAR  w(0) 1. F 0.00
(spacer::context::check_reachability :time 0.01 :before-memory 13.38 :after-memory 15.75)
Propagating: 0 1 2 3 4  ! 5 
(spacer::context::propagate :time 0.00 :before-memory 15.75 :after-memory 15.75)
Entering level 5
BRUNCH_STAT max_query_lvl 4
BRUNCH_STAT num_queries 12
BRUNCH_STAT num_reach_queries 1
BRUNCH_STAT num_reach_reuse 5
BRUNCH_STAT inductive_lvl 0
BRUNCH_STAT max_depth 5
BRUNCH_STAT cex_depth 0
expand: query!0 (5, 0) FAR  w(0) 1.
	create_child: ERR (4, 5) FAR 1 U 0.00
expand: ERR (4, 0) FAR  w(0) 1.
	create_child: MAIN (3, 5) FAR 1142 U 0.00
expand: MAIN (3, 0) FAR  w(0) 1142.
	create_child: MAIN (2, 5) FAR 5254 U 0.00
expand: MAIN (2, 0) FAR  w(0) 5254.
	create_child: top_step (1, 5) FAR 5288 U 0.00
expand: top_step (1, 0) FAR  w(0) 5288.
	create_child: voiture_step (0, 5) FAR 5360 U 0.00
expand: voiture_step (0, 0) FAR  w(0) 5360. F 0.00
expand: top_step (1, 0) FAR  w(0) 5288. F 0.00
expand: MAIN (2, 0) FAR  w(0) 5254. F 0.00
expand: MAIN (3, 0) FAR  w(0) 1142.
	create_child: top_step (2, 5) FAR 5542 U 0.00
expand: top_step (2, 0) FAR  w(0) 5542.
	create_child: voiture_step (1, 5) FAR 5636 U 0.00
expand: voiture_step (1, 0) FAR  w(0) 5636. F 0.00
expand: top_step (2, 0) FAR  w(0) 5542. F 0.00
expand: MAIN (3, 0) FAR  w(0) 1142. F 0.00
expand: ERR (4, 0) FAR  w(0) 1. F 0.00
expand: query!0 (5, 0) FAR  w(0) 1. F 0.00
(spacer::context::check_reachability :time 0.01 :before-memory 15.75 :after-memory 16.19)
Propagating: 0 1 2 3 4 5  ! 6 
(spacer::context::propagate :time 0.00 :before-memory 16.19 :after-memory 16.19)
Entering level 6
BRUNCH_STAT max_query_lvl 5
BRUNCH_STAT num_queries 19
BRUNCH_STAT num_reach_queries 1
BRUNCH_STAT num_reach_reuse 10
BRUNCH_STAT inductive_lvl 0
BRUNCH_STAT max_depth 6
BRUNCH_STAT cex_depth 0
expand: query!0 (6, 0) FAR  w(0) 1.
	create_child: ERR (5, 6) FAR 1 U 0.00
expand: ERR (5, 0) FAR  w(0) 1.
	create_child: MAIN (4, 6) FAR 1142 U 0.00
expand: MAIN (4, 0) FAR  w(0) 1142.
	create_child: MAIN (3, 6) FAR 5956 U 0.00
expand: MAIN (3, 0) FAR  w(0) 5956.
	create_child: top_step (2, 6) FAR 5974 U 0.00
expand: top_step (2, 0) FAR  w(0) 5974. F 0.00
expand: MAIN (3, 0) FAR  w(0) 5956. F 0.00
expand: MAIN (4, 0) FAR  w(0) 1142. F 0.00
expand: ERR (5, 0) FAR  w(0) 1. F 0.00
expand: query!0 (6, 0) FAR  w(0) 1. F 0.00
(spacer::context::check_reachability :time 0.00 :before-memory 16.19 :after-memory 16.19)
Propagating: 2 
(spacer::context::propagate :time 0.00 :before-memory 16.19 :after-memory 16.19)
(define-fun ERR () Bool
  false)
(define-fun Sofar_step ((x!0 Bool)
 (x!1 Bool)
 (x!2 Bool)
 (x!3 Bool)
 (x!4 Bool)
 (x!5 Bool)) Bool
  true)
(define-fun excludes2_fun ((x!0 Bool) (x!1 Bool) (x!2 Bool)) Bool
  true)
(define-fun top_reset ((x!0 Int)
 (x!1 Int)
 (x!2 Int)
 (x!3 Bool)
 (x!4 Bool)
 (x!5 Bool)
 (x!6 Bool)
 (x!7 Int)
 (x!8 Int)
 (x!9 Int)
 (x!10 Bool)
 (x!11 Bool)
 (x!12 Bool)
 (x!13 Bool)) Bool
  x!11)
(define-fun Sofar_reset ((x!0 Bool) (x!1 Bool) (x!2 Bool) (x!3 Bool)) Bool
  true)
(define-fun MAIN ((x!0 Int)
 (x!1 Int)
 (x!2 Int)
 (x!3 Bool)
 (x!4 Bool)
 (x!5 Bool)
 (x!6 Bool)
 (x!7 Bool)) Bool
  (and (not (>= x!1 3)) x!7))
(define-fun top_step ((x!0 Bool)
 (x!1 Bool)
 (x!2 Bool)
 (x!3 Int)
 (x!4 Int)
 (x!5 Int)
 (x!6 Bool)
 (x!7 Bool)
 (x!8 Bool)
 (x!9 Bool)
 (x!10 Int)
 (x!11 Int)
 (x!12 Int)
 (x!13 Bool)
 (x!14 Bool)
 (x!15 Bool)
 (x!16 Bool)) Bool
  (and (or (not (<= x!4 2)) (not (>= x!11 3)))
       (or x!2 (not x!7))
       (or (not (>= x!11 3)) (not x!7))
       (or (not (<= x!4 2)) x!2)))
(define-fun voiture_step ((x!0 Bool)
 (x!1 Bool)
 (x!2 Bool)
 (x!3 Bool)
 (x!4 Bool)
 (x!5 Int)
 (x!6 Int)
 (x!7 Int)
 (x!8 Bool)
 (x!9 Bool)
 (x!10 Bool)
 (x!11 Int)
 (x!12 Int)
 (x!13 Int)
 (x!14 Bool)
 (x!15 Bool)
 (x!16 Int)
 (x!17 Int)
 (x!18 Int)
 (x!19 Bool)
 (x!20 Bool)) Bool
  (let ((a!1 (or (= (+ x!6 (* (- 1) x!12)) 0) (= x!6 0))))
    (and a!1 (or (not x!15) (= x!6 0)) (>= (+ x!6 (* (- 1) x!17)) 0))))
(define-fun voiture_reset ((x!0 Int)
 (x!1 Int)
 (x!2 Int)
 (x!3 Bool)
 (x!4 Bool)
 (x!5 Int)
 (x!6 Int)
 (x!7 Int)
 (x!8 Bool)
 (x!9 Bool)) Bool
  x!9)
BRUNCH_STAT max_query_lvl 6
BRUNCH_STAT num_queries 23
BRUNCH_STAT num_reach_queries 1
BRUNCH_STAT num_reach_reuse 11
BRUNCH_STAT inductive_lvl 2
BRUNCH_STAT max_depth 6
BRUNCH_STAT cex_depth 0
(:SPACER-inductive-level               2
 :SPACER-max-depth                     6
 :SPACER-max-query-lvl                 6
 :SPACER-num-invariants                13
 :SPACER-num-lemmas                    30
 :SPACER-num-properties                15
 :SPACER-num-queries                   23
 :SPACER-num-reach-queries             1
 :SPACER-num-reuse-reach-facts         11
 :added-eqs                            689
 :arith-add-rows                       148
 :arith-assert-diseq                   81
 :arith-assert-lower                   338
 :arith-assert-upper                   273
 :arith-bound-prop                     27
 :arith-conflicts                      11
 :arith-eq-adapter                     146
 :arith-fixed-eqs                      81
 :arith-offset-eqs                     66
 :arith-pivots                         107
 :bool-inductive-gen                   14
 :bool-inductive-gen-failures          20
 :conflicts                            119
 :decisions                            976
 :del-clause                           133
 :final-checks                         57
 :minimized-lits                       1
 :mk-bool-var                          1448
 :mk-clause                            1255
 :num-checks                           156
 :propagations                         6200
 :time.itp_solver.itp_core             0.00
 :time.spacer.init_rules               0.01
 :time.spacer.init_rules.pt.init       0.00
 :time.spacer.solve                    0.04
 :time.spacer.solve.propagate          0.00
 :time.spacer.solve.pt.must_reachable  0.00
 :time.spacer.solve.reach              0.03
 :time.spacer.solve.reach.children     0.01
 :time.spacer.solve.reach.gen.bool_ind 0.00
 :time.virtual_solver.proof            0.00
 :time.virtual_solver.smt.total        0.02
 :time.virtual_solver.smt.total.sat    0.01
 :virtual_solver.checks                156
 :virtual_solver.checks.sat            57)
BRUNCH_STAT max_query_lvl 6
BRUNCH_STAT num_queries 23
BRUNCH_STAT num_reach_queries 1
BRUNCH_STAT num_reach_reuse 11
BRUNCH_STAT inductive_lvl 2
BRUNCH_STAT max_depth 6
BRUNCH_STAT cex_depth 0

real	0m0.069s
user	0m0.060s
sys	0m0.008s
