(transform N7datalog13mk_coi_filterE...no-op 0s)
(transform N7datalog25mk_interp_tail_simplifierE...12 rules 0s)
(transform N7datalog27mk_quantifier_instantiationE...no-op 0s)
(transform N7datalog8mk_scaleE...no-op 0s)
(transform N7datalog18mk_karr_invariantsE...no-op 0s)
(transform N7datalog14mk_array_blastE...no-op 0s)
(transform N7datalog22mk_subsumption_checkerE...11 rules 0s)
(transform N7datalog12mk_bit_blastE...no-op 0s)
(transform N7datalog15mk_rule_inlinerE...no-op 0s)
(transform N7datalog13mk_coi_filterE...no-op 0s)
(transform N7datalog25mk_interp_tail_simplifierE...11 rules 0s)
(transform N7datalog22mk_subsumption_checkerE...no-op 0s)
(transform N7datalog15mk_rule_inlinerE...no-op 0s)
(transform N7datalog13mk_coi_filterE...no-op 0s)
(transform N7datalog25mk_interp_tail_simplifierE...11 rules 0s)
(transform N7datalog22mk_subsumption_checkerE...no-op 0s)
(transform N7datalog15mk_rule_inlinerE...no-op 0s)
(transform N7datalog22mk_subsumption_checkerE...no-op 0s)
(transform N7datalog15mk_rule_inlinerE...no-op 0s)
(transform N7datalog22mk_subsumption_checkerE...no-op 0s)
(transform N7datalog15mk_rule_inlinerE...no-op 0s)
(transform N7datalog22mk_subsumption_checkerE...no-op 0s)
expand: query!0 (0, 0) FAR  w(0) 1. F 0.00
(spacer::context::check_reachability :time 0.00 :before-memory 11.33 :after-memory 11.77)
Entering level 1
BRUNCH_STAT max_query_lvl 0
BRUNCH_STAT num_queries 0
BRUNCH_STAT num_reach_queries 0
BRUNCH_STAT num_reach_reuse 0
BRUNCH_STAT inductive_lvl 0
BRUNCH_STAT max_depth 1
BRUNCH_STAT cex_depth 0
expand: query!0 (1, 0) FAR  w(0) 1.
	create_child: ERR (0, 1) FAR 1 U 0.00
expand: ERR (0, 0) FAR  w(0) 1. F 0.00
expand: query!0 (1, 0) FAR  w(0) 1. F 0.00
(spacer::context::check_reachability :time 0.00 :before-memory 11.77 :after-memory 12.20)
Propagating: 0 1  ! 2 
(spacer::context::propagate :time 0.00 :before-memory 12.20 :after-memory 12.20)
Entering level 2
BRUNCH_STAT max_query_lvl 1
BRUNCH_STAT num_queries 1
BRUNCH_STAT num_reach_queries 0
BRUNCH_STAT num_reach_reuse 0
BRUNCH_STAT inductive_lvl 0
BRUNCH_STAT max_depth 2
BRUNCH_STAT cex_depth 0
expand: query!0 (2, 0) FAR  w(0) 1.
	create_child: ERR (1, 2) FAR 1 U 0.00
expand: ERR (1, 0) FAR  w(0) 1.
	create_child: MAIN (0, 2) FAR 1164 U 0.00
expand: MAIN (0, 0) FAR  w(0) 1164. F 0.00
expand: ERR (1, 0) FAR  w(0) 1. F 0.00
expand: query!0 (2, 0) FAR  w(0) 1. F 0.00
(spacer::context::check_reachability :time 0.00 :before-memory 12.20 :after-memory 12.66)
Propagating: 0 1 2  ! 3 
(spacer::context::propagate :time 0.00 :before-memory 12.66 :after-memory 12.66)
Entering level 3
BRUNCH_STAT max_query_lvl 2
BRUNCH_STAT num_queries 3
BRUNCH_STAT num_reach_queries 0
BRUNCH_STAT num_reach_reuse 0
BRUNCH_STAT inductive_lvl 0
BRUNCH_STAT max_depth 3
BRUNCH_STAT cex_depth 0
expand: query!0 (3, 0) FAR  w(0) 1.
	create_child: ERR (2, 3) FAR 1 U 0.00
expand: ERR (2, 0) FAR  w(0) 1.
	create_child: MAIN (1, 3) FAR 1164 U 0.00
expand: MAIN (1, 0) FAR  w(0) 1164.
	create_child: top_step (0, 3) FAR 1574 U 0.00
expand: top_step (0, 0) FAR  w(0) 1574. F 0.00
expand: MAIN (1, 0) FAR  w(0) 1164. F 0.00
expand: ERR (2, 0) FAR  w(0) 1. F 0.00
expand: query!0 (3, 0) FAR  w(0) 1. F 0.00
(spacer::context::check_reachability :time 0.00 :before-memory 12.66 :after-memory 13.38)
Propagating: 0 1 2 3  ! 4 
(spacer::context::propagate :time 0.00 :before-memory 13.38 :after-memory 13.38)
Entering level 4
BRUNCH_STAT max_query_lvl 3
BRUNCH_STAT num_queries 6
BRUNCH_STAT num_reach_queries 0
BRUNCH_STAT num_reach_reuse 0
BRUNCH_STAT inductive_lvl 0
BRUNCH_STAT max_depth 4
BRUNCH_STAT cex_depth 0
expand: query!0 (4, 0) FAR  w(0) 1.
	create_child: ERR (3, 4) FAR 1 U 0.00
expand: ERR (3, 0) FAR  w(0) 1.
	create_child: MAIN (2, 4) FAR 1164 U 0.00
expand: MAIN (2, 0) FAR  w(0) 1164.
	create_child: top_step (1, 4) FAR 1574 U 0.00
expand: top_step (1, 0) FAR  w(0) 1574.
	create_child: top_reset (1, 4) FAR 3392 X 0.00
expand: top_reset (1, 0) FAR  w(0) 3392.
	create_child: voiture_reset (0, 4) FAR 3827 U 0.00
expand: voiture_reset (0, 0) FAR  w(0) 3827. F 0.00
expand: top_reset (1, 0) FAR  w(0) 3392. F 0.00
expand: MAIN (2, 0) FAR  w(0) 1164.
	create_child: top_step (1, 4) FAR 4365 U 0.00
expand: top_step (1, 0) FAR  w(0) 4365.
	create_child: voiture_step (0, 4) FAR 4438 U 0.00
expand: voiture_step (0, 0) FAR  w(0) 4438. F 0.00
expand: top_step (1, 0) FAR  w(0) 4365. F 0.00
expand: MAIN (2, 0) FAR  w(0) 1164. F 0.00
expand: ERR (3, 0) FAR  w(0) 1. F 0.00
expand: query!0 (4, 0) FAR  w(0) 1. F 0.00
(spacer::context::check_reachability :time 0.01 :before-memory 13.38 :after-memory 15.81)
Propagating: 0 1 2 3 4  ! 5 
(spacer::context::propagate :time 0.00 :before-memory 15.81 :after-memory 15.81)
Entering level 5
BRUNCH_STAT max_query_lvl 4
BRUNCH_STAT num_queries 12
BRUNCH_STAT num_reach_queries 1
BRUNCH_STAT num_reach_reuse 5
BRUNCH_STAT inductive_lvl 0
BRUNCH_STAT max_depth 5
BRUNCH_STAT cex_depth 0
expand: query!0 (5, 0) FAR  w(0) 1.
	create_child: ERR (4, 5) FAR 1 U 0.00
expand: ERR (4, 0) FAR  w(0) 1.
	create_child: MAIN (3, 5) FAR 1164 U 0.00
expand: MAIN (3, 0) FAR  w(0) 1164.
	create_child: MAIN (2, 5) FAR 5298 U 0.00
expand: MAIN (2, 0) FAR  w(0) 5298.
	create_child: top_step (1, 5) FAR 5352 U 0.00
expand: top_step (1, 0) FAR  w(0) 5352.
	create_child: Sofar_step (0, 5) FAR 5461 U 0.00
expand: Sofar_step (0, 0) FAR  w(0) 5461. F 0.00
expand: top_step (1, 0) FAR  w(0) 5352. F 0.00
expand: MAIN (2, 0) FAR  w(0) 5298. F 0.00
expand: MAIN (3, 0) FAR  w(0) 1164.
	create_child: MAIN (2, 5) FAR 5728 U 0.00
expand: MAIN (2, 0) FAR  w(0) 5728.
	create_child: top_step (1, 5) FAR 5726 U 0.00
expand: top_step (1, 0) FAR  w(0) 5726.
	create_child: voiture_step (0, 5) FAR 5787 U 0.00
expand: voiture_step (0, 0) FAR  w(0) 5787. F 0.00
expand: top_step (1, 0) FAR  w(0) 5726. F 0.00
expand: MAIN (2, 0) FAR  w(0) 5728. F 0.00
expand: MAIN (3, 0) FAR  w(0) 1164.
	create_child: MAIN (2, 5) FAR 6029 U 0.00
expand: MAIN (2, 0) FAR  w(0) 6029.
	create_child: top_step (1, 5) FAR 6014 U 0.00
expand: top_step (1, 0) FAR  w(0) 6014.
	create_child: voiture_step (0, 5) FAR 6073 U 0.00
expand: voiture_step (0, 0) FAR  w(0) 6073. F 0.00
expand: top_step (1, 0) FAR  w(0) 6014. F 0.00
expand: MAIN (2, 0) FAR  w(0) 6029. F 0.00
expand: MAIN (3, 0) FAR  w(0) 1164.
	create_child: top_step (2, 5) FAR 6297 U 0.00
expand: top_step (2, 0) FAR  w(0) 6297.
	create_child: voiture_step (1, 5) FAR 6443 U 0.00
expand: voiture_step (1, 0) FAR  w(0) 6443. F 0.00
expand: top_step (2, 0) FAR  w(0) 6297. F 0.00
expand: MAIN (3, 0) FAR  w(0) 1164. F 0.00
expand: ERR (4, 0) FAR  w(0) 1. F 0.00
expand: query!0 (5, 0) FAR  w(0) 1. F 0.00
(spacer::context::check_reachability :time 0.03 :before-memory 15.81 :after-memory 16.77)
Propagating: 0 1 2 3 4 5  ! 6 
(spacer::context::propagate :time 0.00 :before-memory 16.77 :after-memory 16.77)
Entering level 6
BRUNCH_STAT max_query_lvl 5
BRUNCH_STAT num_queries 25
BRUNCH_STAT num_reach_queries 1
BRUNCH_STAT num_reach_reuse 15
BRUNCH_STAT inductive_lvl 0
BRUNCH_STAT max_depth 6
BRUNCH_STAT cex_depth 0
expand: query!0 (6, 0) FAR  w(0) 1.
	create_child: ERR (5, 6) FAR 1 U 0.00
expand: ERR (5, 0) FAR  w(0) 1.
	create_child: MAIN (4, 6) FAR 1164 U 0.00
expand: MAIN (4, 0) FAR  w(0) 1164.
	create_child: MAIN (3, 6) FAR 6029 U 0.00
expand: MAIN (3, 0) FAR  w(0) 6029.
	create_child: top_step (2, 6) FAR 6934 U 0.00
expand: top_step (2, 0) FAR  w(0) 6934.
	create_child: MAIN (2, 6) FAR 6962 X 0.00
expand: MAIN (2, 0) FAR  w(0) 6962.
	create_child: top_step (1, 6) FAR 7022 U 0.00
expand: top_step (1, 0) FAR  w(0) 7022.
	create_child: voiture_step (0, 6) FAR 6591 U 0.00
expand: voiture_step (0, 0) FAR  w(0) 6591. F 0.00
expand: top_step (1, 0) FAR  w(0) 7022. F 0.00
expand: MAIN (2, 0) FAR  w(0) 6962. F 0.00
expand: MAIN (3, 0) FAR  w(0) 6029.
	create_child: top_step (2, 6) FAR 7235 U 0.00
expand: top_step (2, 0) FAR  w(0) 7235.
	create_child: voiture_step (1, 6) FAR 7303 U 0.00
expand: voiture_step (1, 0) FAR  w(0) 7303. F 0.00
expand: top_step (2, 0) FAR  w(0) 7235. F 0.00
expand: MAIN (3, 0) FAR  w(0) 6029. F 0.00
expand: MAIN (4, 0) FAR  w(0) 1164. F 0.00
expand: ERR (5, 0) FAR  w(0) 1. F 0.00
expand: query!0 (6, 0) FAR  w(0) 1. F 0.00
(spacer::context::check_reachability :time 0.02 :before-memory 16.77 :after-memory 16.96)
Propagating: 0 1 2 3 4 5 6  ! 7 
(spacer::context::propagate :time 0.00 :before-memory 16.96 :after-memory 16.96)
Entering level 7
BRUNCH_STAT max_query_lvl 6
BRUNCH_STAT num_queries 33
BRUNCH_STAT num_reach_queries 1
BRUNCH_STAT num_reach_reuse 20
BRUNCH_STAT inductive_lvl 0
BRUNCH_STAT max_depth 7
BRUNCH_STAT cex_depth 0
expand: query!0 (7, 0) FAR  w(0) 1.
	create_child: ERR (6, 7) FAR 1 U 0.00
expand: ERR (6, 0) FAR  w(0) 1.
	create_child: MAIN (5, 7) FAR 1164 U 0.00
expand: MAIN (5, 0) FAR  w(0) 1164.
	create_child: MAIN (4, 7) FAR 6029 U 0.00
expand: MAIN (4, 0) FAR  w(0) 6029.
	create_child: MAIN (3, 7) FAR 6962 U 0.00
expand: MAIN (3, 0) FAR  w(0) 6962.
	create_child: MAIN (2, 7) FAR 7734 U 0.00
expand: MAIN (2, 0) FAR  w(0) 7734.
	create_child: top_step (1, 7) FAR 7740 U 0.00
expand: top_step (1, 0) FAR  w(0) 7740.
	create_child: voiture_step (0, 7) FAR 7786 U 0.00
expand: voiture_step (0, 0) FAR  w(0) 7786. F 0.00
expand: top_step (1, 0) FAR  w(0) 7740. F 0.00
expand: MAIN (2, 0) FAR  w(0) 7734. F 0.00
expand: MAIN (3, 0) FAR  w(0) 6962.
	create_child: top_step (2, 7) FAR 8013 U 0.00
expand: top_step (2, 0) FAR  w(0) 8013.
	create_child: voiture_step (1, 7) FAR 7868 U 0.00
expand: voiture_step (1, 0) FAR  w(0) 7868. F 0.00
expand: top_step (2, 0) FAR  w(0) 8013. F 0.00
expand: MAIN (3, 0) FAR  w(0) 6962. F 0.00
expand: MAIN (4, 0) FAR  w(0) 6029. F 0.00
expand: MAIN (5, 0) FAR  w(0) 1164. F 0.00
expand: ERR (6, 0) FAR  w(0) 1. F 0.00
expand: query!0 (7, 0) FAR  w(0) 1. F 0.00
(spacer::context::check_reachability :time 0.02 :before-memory 16.96 :after-memory 17.26)
Propagating: 0 1 2 3 4 5 6 7  ! 8 
(spacer::context::propagate :time 0.00 :before-memory 17.26 :after-memory 17.26)
Entering level 8
BRUNCH_STAT max_query_lvl 7
BRUNCH_STAT num_queries 42
BRUNCH_STAT num_reach_queries 1
BRUNCH_STAT num_reach_reuse 27
BRUNCH_STAT inductive_lvl 0
BRUNCH_STAT max_depth 8
BRUNCH_STAT cex_depth 0
expand: query!0 (8, 0) FAR  w(0) 1.
	create_child: ERR (7, 8) FAR 1 U 0.00
expand: ERR (7, 0) FAR  w(0) 1.
	create_child: MAIN (6, 8) FAR 1164 U 0.00
expand: MAIN (6, 0) FAR  w(0) 1164.
	create_child: MAIN (5, 8) FAR 6029 U 0.00
expand: MAIN (5, 0) FAR  w(0) 6029.
	create_child: MAIN (4, 8) FAR 6962 U 0.00
expand: MAIN (4, 0) FAR  w(0) 6962.
	create_child: MAIN (3, 8) FAR 7734 U 0.00
expand: MAIN (3, 0) FAR  w(0) 7734.
	create_child: MAIN (2, 8) FAR 8592 U 0.00
expand: MAIN (2, 0) FAR  w(0) 8592.
	create_child: top_step (1, 8) FAR 8540 U 0.00
expand: top_step (1, 0) FAR  w(0) 8540.
	create_child: voiture_step (0, 8) FAR 8630 U 0.00
expand: voiture_step (0, 0) FAR  w(0) 8630. F 0.00
expand: top_step (1, 0) FAR  w(0) 8540. F 0.00
expand: MAIN (2, 0) FAR  w(0) 8592. F 0.00
expand: MAIN (3, 0) FAR  w(0) 7734.
	create_child: top_step (2, 8) FAR 8723 U 0.00
expand: top_step (2, 0) FAR  w(0) 8723.
	create_child: voiture_step (1, 8) FAR 8850 U 0.00
expand: voiture_step (1, 0) FAR  w(0) 8850. F 0.00
expand: top_step (2, 0) FAR  w(0) 8723. F 0.00
expand: MAIN (3, 0) FAR  w(0) 7734. F 0.00
expand: MAIN (4, 0) FAR  w(0) 6962. F 0.00
expand: MAIN (5, 0) FAR  w(0) 6029. F 0.00
expand: MAIN (6, 0) FAR  w(0) 1164. F 0.00
expand: ERR (7, 0) FAR  w(0) 1. F 0.00
expand: query!0 (8, 0) FAR  w(0) 1. F 0.00
(spacer::context::check_reachability :time 0.02 :before-memory 17.26 :after-memory 17.35)
Propagating: 0 1 2 3 4 5 6 7 8  ! 9 
(spacer::context::propagate :time 0.00 :before-memory 17.35 :after-memory 17.35)
Entering level 9
BRUNCH_STAT max_query_lvl 8
BRUNCH_STAT num_queries 52
BRUNCH_STAT num_reach_queries 1
BRUNCH_STAT num_reach_reuse 35
BRUNCH_STAT inductive_lvl 0
BRUNCH_STAT max_depth 9
BRUNCH_STAT cex_depth 0
expand: query!0 (9, 0) FAR  w(0) 1.
	create_child: ERR (8, 9) FAR 1 U 0.00
expand: ERR (8, 0) FAR  w(0) 1.
	create_child: MAIN (7, 9) FAR 1164 U 0.00
expand: MAIN (7, 0) FAR  w(0) 1164.
	create_child: MAIN (6, 9) FAR 5728 U 0.00
expand: MAIN (6, 0) FAR  w(0) 5728.
	create_child: top_step (5, 9) FAR 9390 U 0.00
expand: top_step (5, 0) FAR  w(0) 9390.
	create_child: voiture_step (4, 9) FAR 9457 U 0.00
expand: voiture_step (4, 0) FAR  w(0) 9457. F 0.00
expand: top_step (5, 0) FAR  w(0) 9390.
	create_child: voiture_step (4, 9) FAR 9490 U 0.00
expand: voiture_step (4, 0) FAR  w(0) 9490. F 0.00
expand: top_step (5, 0) FAR  w(0) 9390. F 0.00
expand: MAIN (6, 0) FAR  w(0) 5728. F 0.00
expand: MAIN (7, 0) FAR  w(0) 1164.
	create_child: MAIN (6, 9) FAR 6029 U 0.00
expand: MAIN (6, 0) FAR  w(0) 6029.
	create_child: MAIN (5, 9) FAR 6962 U 0.00
expand: MAIN (5, 0) FAR  w(0) 6962.
	create_child: MAIN (4, 9) FAR 7734 U 0.00
expand: MAIN (4, 0) FAR  w(0) 7734.
	create_child: MAIN (3, 9) FAR 8592 U 0.00
expand: MAIN (3, 0) FAR  w(0) 8592.
	create_child: MAIN (2, 9) FAR 9587 U 0.00
expand: MAIN (2, 0) FAR  w(0) 9587.
	create_child: top_step (1, 9) FAR 9393 U 0.00
expand: top_step (1, 0) FAR  w(0) 9393.
	create_child: voiture_step (0, 9) FAR 9692 U 0.00
expand: voiture_step (0, 0) FAR  w(0) 9692. F 0.00
expand: top_step (1, 0) FAR  w(0) 9393. F 0.00
expand: MAIN (2, 0) FAR  w(0) 9587. F 0.00
expand: MAIN (3, 0) FAR  w(0) 8592.
	create_child: top_step (2, 9) FAR 9856 U 0.00
expand: top_step (2, 0) FAR  w(0) 9856.
	create_child: voiture_step (1, 9) FAR 9930 U 0.00
expand: voiture_step (1, 0) FAR  w(0) 9930. F 0.00
expand: top_step (2, 0) FAR  w(0) 9856. F 0.00
expand: MAIN (3, 0) FAR  w(0) 8592. F 0.00
expand: MAIN (4, 0) FAR  w(0) 7734. F 0.00
expand: MAIN (5, 0) FAR  w(0) 6962. F 0.00
expand: MAIN (6, 0) FAR  w(0) 6029. F 0.00
expand: MAIN (7, 0) FAR  w(0) 1164. F 0.00
expand: ERR (8, 0) FAR  w(0) 1. F 0.00
expand: query!0 (9, 0) FAR  w(0) 1. F 0.00
(spacer::context::check_reachability :time 0.04 :before-memory 17.35 :after-memory 17.55)
Propagating: 0 1 2 3 4 5 6 7 8 9  ! 10 
(spacer::context::propagate :time 0.00 :before-memory 17.55 :after-memory 17.55)
Entering level 10
BRUNCH_STAT max_query_lvl 9
BRUNCH_STAT num_queries 67
BRUNCH_STAT num_reach_queries 1
BRUNCH_STAT num_reach_reuse 49
BRUNCH_STAT inductive_lvl 0
BRUNCH_STAT max_depth 10
BRUNCH_STAT cex_depth 0
expand: query!0 (10, 0) FAR  w(0) 1.
	create_child: ERR (9, 10) FAR 1 U 0.00
expand: ERR (9, 0) FAR  w(0) 1.
	create_child: MAIN (8, 10) FAR 1164 U 0.00
expand: MAIN (8, 0) FAR  w(0) 1164.
	create_child: MAIN (7, 10) FAR 6029 U 0.00
expand: MAIN (7, 0) FAR  w(0) 6029.
	create_child: MAIN (6, 10) FAR 6962 U 0.00
expand: MAIN (6, 0) FAR  w(0) 6962.
	create_child: MAIN (5, 10) FAR 7734 U 0.00
expand: MAIN (5, 0) FAR  w(0) 7734.
	create_child: MAIN (4, 10) FAR 8592 U 0.00
expand: MAIN (4, 0) FAR  w(0) 8592.
	create_child: MAIN (3, 10) FAR 9587 U 0.00
expand: MAIN (3, 0) FAR  w(0) 9587.
	create_child: MAIN (2, 10) FAR 10530 U 0.00
expand: MAIN (2, 0) FAR  w(0) 10530.
	create_child: top_step (1, 10) FAR 9874 U 0.00
expand: top_step (1, 0) FAR  w(0) 9874.
	create_child: voiture_step (0, 10) FAR 10604 U 0.00
expand: voiture_step (0, 0) FAR  w(0) 10604. F 0.00
expand: top_step (1, 0) FAR  w(0) 9874. F 0.00
expand: MAIN (2, 0) FAR  w(0) 10530. F 0.00
expand: MAIN (3, 0) FAR  w(0) 9587.
	create_child: top_step (2, 10) FAR 10776 U 0.00
expand: top_step (2, 0) FAR  w(0) 10776.
	create_child: voiture_step (1, 10) FAR 10832 U 0.00
expand: voiture_step (1, 0) FAR  w(0) 10832. F 0.00
expand: top_step (2, 0) FAR  w(0) 10776. F 0.00
expand: MAIN (3, 0) FAR  w(0) 9587. F 0.00
expand: MAIN (4, 0) FAR  w(0) 8592. F 0.00
expand: MAIN (5, 0) FAR  w(0) 7734. F 0.00
expand: MAIN (6, 0) FAR  w(0) 6962. F 0.00
expand: MAIN (7, 0) FAR  w(0) 6029. F 0.00
expand: MAIN (8, 0) FAR  w(0) 1164. F 0.00
expand: ERR (9, 0) FAR  w(0) 1. F 0.00
expand: query!0 (10, 0) FAR  w(0) 1. F 0.00
(spacer::context::check_reachability :time 0.03 :before-memory 17.55 :after-memory 17.64)
Propagating: 0 1 2 3 4 5 6 7 8 9 10  ! 11 
(spacer::context::propagate :time 0.00 :before-memory 17.64 :after-memory 17.64)
Entering level 11
BRUNCH_STAT max_query_lvl 10
BRUNCH_STAT num_queries 79
BRUNCH_STAT num_reach_queries 1
BRUNCH_STAT num_reach_reuse 59
BRUNCH_STAT inductive_lvl 0
BRUNCH_STAT max_depth 11
BRUNCH_STAT cex_depth 0
expand: query!0 (11, 0) FAR  w(0) 1.
	create_child: ERR (10, 11) FAR 1 U 0.00
expand: ERR (10, 0) FAR  w(0) 1.
	create_child: MAIN (9, 11) FAR 1164 U 0.00
expand: MAIN (9, 0) FAR  w(0) 1164.
	create_child: MAIN (8, 11) FAR 6029 U 0.00
expand: MAIN (8, 0) FAR  w(0) 6029.
	create_child: MAIN (7, 11) FAR 6962 U 0.00
expand: MAIN (7, 0) FAR  w(0) 6962.
	create_child: MAIN (6, 11) FAR 7734 U 0.00
expand: MAIN (6, 0) FAR  w(0) 7734.
	create_child: MAIN (5, 11) FAR 8592 U 0.00
expand: MAIN (5, 0) FAR  w(0) 8592.
	create_child: MAIN (4, 11) FAR 9587 U 0.00
expand: MAIN (4, 0) FAR  w(0) 9587.
	create_child: MAIN (3, 11) FAR 10530 U 0.00
expand: MAIN (3, 0) FAR  w(0) 10530.
	create_child: MAIN (2, 11) FAR 11432 U 0.00
expand: MAIN (2, 0) FAR  w(0) 11432.
	create_child: top_step (1, 11) FAR 10742 U 0.00
expand: top_step (1, 0) FAR  w(0) 10742.
	create_child: voiture_step (0, 11) FAR 10870 U 0.00
expand: voiture_step (0, 0) FAR  w(0) 10870. F 0.00
expand: top_step (1, 0) FAR  w(0) 10742. F 0.00
expand: MAIN (2, 0) FAR  w(0) 11432. F 0.00
expand: MAIN (3, 0) FAR  w(0) 10530.
	create_child: top_step (2, 11) FAR 11705 U 0.00
expand: top_step (2, 0) FAR  w(0) 11705.
	create_child: voiture_step (1, 11) FAR 11778 U 0.00
expand: voiture_step (1, 0) FAR  w(0) 11778. F 0.00
expand: top_step (2, 0) FAR  w(0) 11705. F 0.00
expand: MAIN (3, 0) FAR  w(0) 10530. F 0.00
expand: MAIN (4, 0) FAR  w(0) 9587. F 0.00
expand: MAIN (5, 0) FAR  w(0) 8592. F 0.00
expand: MAIN (6, 0) FAR  w(0) 7734. F 0.00
expand: MAIN (7, 0) FAR  w(0) 6962. F 0.00
expand: MAIN (8, 0) FAR  w(0) 6029. F 0.00
expand: MAIN (9, 0) FAR  w(0) 1164. F 0.00
expand: ERR (10, 0) FAR  w(0) 1. F 0.00
expand: query!0 (11, 0) FAR  w(0) 1. F 0.00
(spacer::context::check_reachability :time 0.03 :before-memory 17.64 :after-memory 18.11)
Propagating: 0 1 2 3 4 5 6 7 8 9 10 11  ! 12 
(spacer::context::propagate :time 0.00 :before-memory 18.11 :after-memory 18.22)
Entering level 12
BRUNCH_STAT max_query_lvl 11
BRUNCH_STAT num_queries 92
BRUNCH_STAT num_reach_queries 1
BRUNCH_STAT num_reach_reuse 70
BRUNCH_STAT inductive_lvl 0
BRUNCH_STAT max_depth 12
BRUNCH_STAT cex_depth 0
expand: query!0 (12, 0) FAR  w(0) 1.
	create_child: ERR (11, 12) FAR 1 U 0.00
expand: ERR (11, 0) FAR  w(0) 1.
	create_child: MAIN (10, 12) FAR 1164 U 0.00
expand: MAIN (10, 0) FAR  w(0) 1164.
	create_child: MAIN (9, 12) FAR 6029 U 0.00
expand: MAIN (9, 0) FAR  w(0) 6029.
	create_child: MAIN (8, 12) FAR 6962 U 0.00
expand: MAIN (8, 0) FAR  w(0) 6962.
	create_child: MAIN (7, 12) FAR 7734 U 0.00
expand: MAIN (7, 0) FAR  w(0) 7734.
	create_child: MAIN (6, 12) FAR 8592 U 0.00
expand: MAIN (6, 0) FAR  w(0) 8592.
	create_child: MAIN (5, 12) FAR 9587 U 0.00
expand: MAIN (5, 0) FAR  w(0) 9587.
	create_child: MAIN (4, 12) FAR 10530 U 0.00
expand: MAIN (4, 0) FAR  w(0) 10530.
	create_child: MAIN (3, 12) FAR 11432 U 0.00
expand: MAIN (3, 0) FAR  w(0) 11432.
	create_child: MAIN (2, 12) FAR 12395 U 0.00
expand: MAIN (2, 0) FAR  w(0) 12395.
	create_child: top_step (1, 12) FAR 12394 U 0.00
expand: top_step (1, 0) FAR  w(0) 12394.
	create_child: voiture_step (0, 12) FAR 12492 U 0.00
expand: voiture_step (0, 0) FAR  w(0) 12492. F 0.00
expand: top_step (1, 0) FAR  w(0) 12394. F 0.00
expand: MAIN (2, 0) FAR  w(0) 12395. F 0.00
expand: MAIN (3, 0) FAR  w(0) 11432.
	create_child: top_step (2, 12) FAR 12678 U 0.00
expand: top_step (2, 0) FAR  w(0) 12678.
	create_child: voiture_step (1, 12) FAR 12785 U 0.00
expand: voiture_step (1, 0) FAR  w(0) 12785. F 0.00
expand: top_step (2, 0) FAR  w(0) 12678. F 0.00
expand: MAIN (3, 0) FAR  w(0) 11432. F 0.00
expand: MAIN (4, 0) FAR  w(0) 10530. F 0.00
expand: MAIN (5, 0) FAR  w(0) 9587. F 0.00
expand: MAIN (6, 0) FAR  w(0) 8592. F 0.00
expand: MAIN (7, 0) FAR  w(0) 7734. F 0.00
expand: MAIN (8, 0) FAR  w(0) 6962. F 0.00
expand: MAIN (9, 0) FAR  w(0) 6029. F 0.00
expand: MAIN (10, 0) FAR  w(0) 1164. F 0.00
expand: ERR (11, 0) FAR  w(0) 1. F 0.00
expand: query!0 (12, 0) FAR  w(0) 1. F 0.00
(spacer::context::check_reachability :time 0.03 :before-memory 18.22 :after-memory 18.42)
Propagating: 0 1 2 3 4 5 6 7 8 9 10 11 12  ! 13 
(spacer::context::propagate :time 0.00 :before-memory 18.42 :after-memory 18.42)
Entering level 13
BRUNCH_STAT max_query_lvl 12
BRUNCH_STAT num_queries 106
BRUNCH_STAT num_reach_queries 1
BRUNCH_STAT num_reach_reuse 82
BRUNCH_STAT inductive_lvl 0
BRUNCH_STAT max_depth 13
BRUNCH_STAT cex_depth 0
expand: query!0 (13, 0) FAR  w(0) 1.
	create_child: ERR (12, 13) FAR 1 U 0.00
expand: ERR (12, 0) FAR  w(0) 1.
	create_child: MAIN (11, 13) FAR 1164 U 0.00
expand: MAIN (11, 0) FAR  w(0) 1164.
	create_child: MAIN (10, 13) FAR 6029 U 0.00
expand: MAIN (10, 0) FAR  w(0) 6029.
	create_child: MAIN (9, 13) FAR 6962 U 0.00
expand: MAIN (9, 0) FAR  w(0) 6962.
	create_child: MAIN (8, 13) FAR 7734 U 0.00
expand: MAIN (8, 0) FAR  w(0) 7734.
	create_child: MAIN (7, 13) FAR 8592 U 0.00
expand: MAIN (7, 0) FAR  w(0) 8592.
	create_child: MAIN (6, 13) FAR 9587 U 0.00
expand: MAIN (6, 0) FAR  w(0) 9587.
	create_child: MAIN (5, 13) FAR 10530 U 0.00
expand: MAIN (5, 0) FAR  w(0) 10530.
	create_child: MAIN (4, 13) FAR 11432 U 0.00
expand: MAIN (4, 0) FAR  w(0) 11432.
	create_child: MAIN (3, 13) FAR 12395 U 0.00
expand: MAIN (3, 0) FAR  w(0) 12395.
	create_child: MAIN (2, 13) FAR 13505 U 0.00
expand: MAIN (2, 0) FAR  w(0) 13505.
	create_child: top_step (1, 13) FAR 13503 U 0.00
expand: top_step (1, 0) FAR  w(0) 13503.
	create_child: voiture_step (0, 13) FAR 13573 U 0.00
expand: voiture_step (0, 0) FAR  w(0) 13573. F 0.00
expand: top_step (1, 0) FAR  w(0) 13503. F 0.00
expand: MAIN (2, 0) FAR  w(0) 13505. F 0.00
expand: MAIN (3, 0) FAR  w(0) 12395.
	create_child: top_step (2, 13) FAR 13715 U 0.00
expand: top_step (2, 0) FAR  w(0) 13715.
	create_child: voiture_step (1, 13) FAR 13800 U 0.00
expand: voiture_step (1, 0) FAR  w(0) 13800. F 0.00
expand: top_step (2, 0) FAR  w(0) 13715. F 0.00
expand: MAIN (3, 0) FAR  w(0) 12395. F 0.00
expand: MAIN (4, 0) FAR  w(0) 11432. F 0.00
expand: MAIN (5, 0) FAR  w(0) 10530. F 0.00
expand: MAIN (6, 0) FAR  w(0) 9587. F 0.00
expand: MAIN (7, 0) FAR  w(0) 8592. F 0.00
expand: MAIN (8, 0) FAR  w(0) 7734. F 0.00
expand: MAIN (9, 0) FAR  w(0) 6962. F 0.00
expand: MAIN (10, 0) FAR  w(0) 6029. F 0.00
expand: MAIN (11, 0) FAR  w(0) 1164. F 0.00
expand: ERR (12, 0) FAR  w(0) 1. F 0.00
expand: query!0 (13, 0) FAR  w(0) 1. F 0.00
(spacer::context::check_reachability :time 0.04 :before-memory 18.42 :after-memory 18.61)
Propagating: 0 1 2 3 4 5 6 7 8 9 10 11 12 13  ! 14 
(spacer::context::propagate :time 0.01 :before-memory 18.61 :after-memory 18.61)
Entering level 14
BRUNCH_STAT max_query_lvl 13
BRUNCH_STAT num_queries 121
BRUNCH_STAT num_reach_queries 1
BRUNCH_STAT num_reach_reuse 95
BRUNCH_STAT inductive_lvl 0
BRUNCH_STAT max_depth 14
BRUNCH_STAT cex_depth 0
expand: query!0 (14, 0) FAR  w(0) 1.
	create_child: ERR (13, 14) FAR 1 U 0.00
expand: ERR (13, 0) FAR  w(0) 1.
	create_child: MAIN (12, 14) FAR 1164 U 0.00
expand: MAIN (12, 0) FAR  w(0) 1164.
	create_child: MAIN (11, 14) FAR 6029 U 0.00
expand: MAIN (11, 0) FAR  w(0) 6029.
	create_child: MAIN (10, 14) FAR 6962 U 0.00
expand: MAIN (10, 0) FAR  w(0) 6962.
	create_child: MAIN (9, 14) FAR 7734 U 0.00
expand: MAIN (9, 0) FAR  w(0) 7734.
	create_child: MAIN (8, 14) FAR 8592 U 0.00
expand: MAIN (8, 0) FAR  w(0) 8592.
	create_child: MAIN (7, 14) FAR 9587 U 0.00
expand: MAIN (7, 0) FAR  w(0) 9587.
	create_child: MAIN (6, 14) FAR 10530 U 0.00
expand: MAIN (6, 0) FAR  w(0) 10530.
	create_child: MAIN (5, 14) FAR 11432 U 0.00
expand: MAIN (5, 0) FAR  w(0) 11432.
	create_child: MAIN (4, 14) FAR 12395 U 0.00
expand: MAIN (4, 0) FAR  w(0) 12395.
	create_child: MAIN (3, 14) FAR 13505 U 0.00
expand: MAIN (3, 0) FAR  w(0) 13505.
	create_child: MAIN (2, 14) FAR 14551 U 0.00
expand: MAIN (2, 0) FAR  w(0) 14551.
	create_child: top_step (1, 14) FAR 14589 U 0.00
expand: top_step (1, 0) FAR  w(0) 14589.
	create_child: top_reset (1, 14) FAR 14714 X 0.00
expand: top_reset (1, 0) FAR  w(0) 14714. T 0.00
is-reachable: MAIN (2, 0) FAR 14551 T 0.00
is-reachable: MAIN (3, 0) FAR 13505 T 0.00
is-reachable: MAIN (4, 0) FAR 12395 T 0.00
is-reachable: MAIN (5, 0) FAR 11432 T 0.00
is-reachable: MAIN (6, 0) FAR 10530 T 0.00
is-reachable: MAIN (7, 0) FAR 9587 T 0.00
is-reachable: MAIN (8, 0) FAR 8592 T 0.00
is-reachable: MAIN (9, 0) FAR 7734 T 0.00
is-reachable: MAIN (10, 0) FAR 6962 T 0.00
is-reachable: MAIN (11, 0) FAR 6029 T 0.00
is-reachable: MAIN (12, 0) FAR 1164 T 0.00
is-reachable: ERR (13, 0) FAR 1 T 0.00
is-reachable: query!0 (14, 0) FAR 1 T 0.00
(spacer::context::check_reachability :time 0.04 :before-memory 18.61 :after-memory 19.53)
BRUNCH_STAT max_query_lvl 14
BRUNCH_STAT num_queries 134
BRUNCH_STAT num_reach_queries 16
BRUNCH_STAT num_reach_reuse 110
BRUNCH_STAT inductive_lvl 0
BRUNCH_STAT max_depth 14
BRUNCH_STAT cex_depth 14
(:SPACER-cex-depth                     14
 :SPACER-max-depth                     14
 :SPACER-max-query-lvl                 14
 :SPACER-num-invariants                48
 :SPACER-num-lemmas                    135
 :SPACER-num-properties                63
 :SPACER-num-queries                   134
 :SPACER-num-reach-queries             16
 :SPACER-num-reuse-reach-facts         110
 :added-eqs                            8434
 :arith-add-rows                       995
 :arith-assert-diseq                   4063
 :arith-assert-lower                   7642
 :arith-assert-upper                   14144
 :arith-bound-prop                     376
 :arith-conflicts                      79
 :arith-eq-adapter                     2248
 :arith-fixed-eqs                      1664
 :arith-offset-eqs                     561
 :arith-pivots                         686
 :bool-inductive-gen                   105
 :bool-inductive-gen-failures          147
 :conflicts                            730
 :decisions                            9957
 :del-clause                           1328
 :final-checks                         370
 :minimized-lits                       9
 :mk-bool-var                          10145
 :mk-clause                            4778
 :num-checks                           1046
 :propagations                         84985
 :time.itp_solver.itp_core             0.02
 :time.spacer.init_rules               0.01
 :time.spacer.init_rules.pt.init       0.00
 :time.spacer.solve                    0.35
 :time.spacer.solve.propagate          0.03
 :time.spacer.solve.pt.must_reachable  0.00
 :time.spacer.solve.reach              0.31
 :time.spacer.solve.reach.children     0.07
 :time.spacer.solve.reach.gen.bool_ind 0.04
 :time.spacer.solve.reach.is-reach     0.02
 :time.virtual_solver.proof            0.01
 :time.virtual_solver.smt.total        0.21
 :time.virtual_solver.smt.total.sat    0.11
 :virtual_solver.checks                1046
 :virtual_solver.checks.sat            370)
BRUNCH_STAT max_query_lvl 14
BRUNCH_STAT num_queries 134
BRUNCH_STAT num_reach_queries 16
BRUNCH_STAT num_reach_reuse 110
BRUNCH_STAT inductive_lvl 0
BRUNCH_STAT max_depth 14
BRUNCH_STAT cex_depth 14

real	0m0.420s
user	0m0.400s
sys	0m0.016s
