(transform N7datalog13mk_coi_filterE...no-op 0s)
(transform N7datalog25mk_interp_tail_simplifierE...12 rules 0s)
(transform N7datalog27mk_quantifier_instantiationE...no-op 0s)
(transform N7datalog8mk_scaleE...no-op 0s)
(transform N7datalog18mk_karr_invariantsE...no-op 0s)
(transform N7datalog14mk_array_blastE...no-op 0s)
(transform N7datalog22mk_subsumption_checkerE...11 rules 0s)
(transform N7datalog12mk_bit_blastE...no-op 0s)
(transform N7datalog15mk_rule_inlinerE...no-op 0s)
(transform N7datalog13mk_coi_filterE...no-op 0s)
(transform N7datalog25mk_interp_tail_simplifierE...11 rules 0s)
(transform N7datalog22mk_subsumption_checkerE...no-op 0s)
(transform N7datalog15mk_rule_inlinerE...no-op 0s)
(transform N7datalog13mk_coi_filterE...no-op 0s)
(transform N7datalog25mk_interp_tail_simplifierE...11 rules 0s)
(transform N7datalog22mk_subsumption_checkerE...no-op 0s)
(transform N7datalog15mk_rule_inlinerE...no-op 0s)
(transform N7datalog22mk_subsumption_checkerE...no-op 0s)
(transform N7datalog15mk_rule_inlinerE...no-op 0s)
(transform N7datalog22mk_subsumption_checkerE...no-op 0s)
(transform N7datalog15mk_rule_inlinerE...no-op 0s)
(transform N7datalog22mk_subsumption_checkerE...no-op 0s)
expand: query!0 (0, 0) FAR  w(0) 1. F 0.00
(spacer::context::check_reachability :time 0.00 :before-memory 11.32 :after-memory 11.73)
Entering level 1
BRUNCH_STAT max_query_lvl 0
BRUNCH_STAT num_queries 0
BRUNCH_STAT num_reach_queries 0
BRUNCH_STAT num_reach_reuse 0
BRUNCH_STAT inductive_lvl 0
BRUNCH_STAT max_depth 1
BRUNCH_STAT cex_depth 0
expand: query!0 (1, 0) FAR  w(0) 1.
	create_child: ERR (0, 1) FAR 1 U 0.00
expand: ERR (0, 0) FAR  w(0) 1. F 0.00
expand: query!0 (1, 0) FAR  w(0) 1. F 0.00
(spacer::context::check_reachability :time 0.00 :before-memory 11.73 :after-memory 12.16)
Propagating: 0 1  ! 2 
(spacer::context::propagate :time 0.00 :before-memory 12.16 :after-memory 12.16)
Entering level 2
BRUNCH_STAT max_query_lvl 1
BRUNCH_STAT num_queries 1
BRUNCH_STAT num_reach_queries 0
BRUNCH_STAT num_reach_reuse 0
BRUNCH_STAT inductive_lvl 0
BRUNCH_STAT max_depth 2
BRUNCH_STAT cex_depth 0
expand: query!0 (2, 0) FAR  w(0) 1.
	create_child: ERR (1, 2) FAR 1 U 0.00
expand: ERR (1, 0) FAR  w(0) 1.
	create_child: MAIN (0, 2) FAR 1182 U 0.00
expand: MAIN (0, 0) FAR  w(0) 1182. F 0.00
expand: ERR (1, 0) FAR  w(0) 1. F 0.00
expand: query!0 (2, 0) FAR  w(0) 1. F 0.00
(spacer::context::check_reachability :time 0.00 :before-memory 12.16 :after-memory 12.62)
Propagating: 0 1 2  ! 3 
(spacer::context::propagate :time 0.00 :before-memory 12.62 :after-memory 12.74)
Entering level 3
BRUNCH_STAT max_query_lvl 2
BRUNCH_STAT num_queries 3
BRUNCH_STAT num_reach_queries 0
BRUNCH_STAT num_reach_reuse 0
BRUNCH_STAT inductive_lvl 0
BRUNCH_STAT max_depth 3
BRUNCH_STAT cex_depth 0
expand: query!0 (3, 0) FAR  w(0) 1.
	create_child: ERR (2, 3) FAR 1 U 0.00
expand: ERR (2, 0) FAR  w(0) 1.
	create_child: MAIN (1, 3) FAR 1182 U 0.00
expand: MAIN (1, 0) FAR  w(0) 1182.
	create_child: top_step (0, 3) FAR 1592 U 0.00
expand: top_step (0, 0) FAR  w(0) 1592. F 0.00
expand: MAIN (1, 0) FAR  w(0) 1182. F 0.00
expand: ERR (2, 0) FAR  w(0) 1. F 0.00
expand: query!0 (3, 0) FAR  w(0) 1. F 0.00
(spacer::context::check_reachability :time 0.00 :before-memory 12.74 :after-memory 13.37)
Propagating: 0 1 2 3  ! 4 
(spacer::context::propagate :time 0.00 :before-memory 13.37 :after-memory 13.37)
Entering level 4
BRUNCH_STAT max_query_lvl 3
BRUNCH_STAT num_queries 6
BRUNCH_STAT num_reach_queries 0
BRUNCH_STAT num_reach_reuse 0
BRUNCH_STAT inductive_lvl 0
BRUNCH_STAT max_depth 4
BRUNCH_STAT cex_depth 0
expand: query!0 (4, 0) FAR  w(0) 1.
	create_child: ERR (3, 4) FAR 1 U 0.00
expand: ERR (3, 0) FAR  w(0) 1.
	create_child: MAIN (2, 4) FAR 1182 U 0.00
expand: MAIN (2, 0) FAR  w(0) 1182.
	create_child: top_step (1, 4) FAR 1592 U 0.00
expand: top_step (1, 0) FAR  w(0) 1592.
	create_child: top_reset (1, 4) FAR 3553 X 0.00
expand: top_reset (1, 0) FAR  w(0) 3553.
	create_child: Sofar_reset (0, 4) FAR 4039 U 0.00
expand: Sofar_reset (0, 0) FAR  w(0) 4039. F 0.00
expand: top_reset (1, 0) FAR  w(0) 3553. F 0.00
expand: MAIN (2, 0) FAR  w(0) 1182.
	create_child: top_reset (1, 4) FAR 4625 U 0.00
expand: top_reset (1, 0) FAR  w(0) 4625.
	create_child: voiture_reset (0, 4) FAR 4652 U 0.00
expand: voiture_reset (0, 0) FAR  w(0) 4652. F 0.00
expand: top_reset (1, 0) FAR  w(0) 4625. F 0.00
expand: MAIN (2, 0) FAR  w(0) 1182.
	create_child: top_step (1, 4) FAR 4839 U 0.00
expand: top_step (1, 0) FAR  w(0) 4839.
	create_child: voiture_step (0, 4) FAR 4976 U 0.00
expand: voiture_step (0, 0) FAR  w(0) 4976. F 0.00
expand: top_step (1, 0) FAR  w(0) 4839.
	create_child: voiture_step (0, 4) FAR 5620 U 0.00
expand: voiture_step (0, 0) FAR  w(0) 5620. F 0.00
expand: top_step (1, 0) FAR  w(0) 4839.
	create_child: voiture_step (0, 4) FAR 4948 U 0.00
expand: voiture_step (0, 0) FAR  w(0) 4948. F 0.00
expand: top_step (1, 0) FAR  w(0) 4839. F 0.00
expand: MAIN (2, 0) FAR  w(0) 1182. F 0.00
expand: ERR (3, 0) FAR  w(0) 1. F 0.00
expand: query!0 (4, 0) FAR  w(0) 1. F 0.00
(spacer::context::check_reachability :time 0.02 :before-memory 13.37 :after-memory 16.48)
Propagating: 0 1 2 3 4  ! 5 
(spacer::context::propagate :time 0.00 :before-memory 16.48 :after-memory 16.48)
Entering level 5
BRUNCH_STAT max_query_lvl 4
BRUNCH_STAT num_queries 16
BRUNCH_STAT num_reach_queries 1
BRUNCH_STAT num_reach_reuse 11
BRUNCH_STAT inductive_lvl 0
BRUNCH_STAT max_depth 5
BRUNCH_STAT cex_depth 0
expand: query!0 (5, 0) FAR  w(0) 1.
	create_child: ERR (4, 5) FAR 1 U 0.00
expand: ERR (4, 0) FAR  w(0) 1.
	create_child: MAIN (3, 5) FAR 1182 U 0.00
expand: MAIN (3, 0) FAR  w(0) 1182.
	create_child: MAIN (2, 5) FAR 5951 U 0.00
expand: MAIN (2, 0) FAR  w(0) 5951.
	create_child: top_step (1, 5) FAR 6071 U 0.00
expand: top_step (1, 0) FAR  w(0) 6071.
	create_child: voiture_step (0, 5) FAR 6168 U 0.00
expand: voiture_step (0, 0) FAR  w(0) 6168. F 0.00
expand: top_step (1, 0) FAR  w(0) 6071. F 0.00
expand: MAIN (2, 0) FAR  w(0) 5951. F 0.00
expand: MAIN (3, 0) FAR  w(0) 1182.
	create_child: MAIN (2, 5) FAR 6459 U 0.00
expand: MAIN (2, 0) FAR  w(0) 6459.
	create_child: top_step (1, 5) FAR 6472 U 0.00
expand: top_step (1, 0) FAR  w(0) 6472.
	create_child: voiture_step (0, 5) FAR 6537 U 0.00
expand: voiture_step (0, 0) FAR  w(0) 6537. F 0.00
expand: top_step (1, 0) FAR  w(0) 6472. F 0.00
expand: MAIN (2, 0) FAR  w(0) 6459. F 0.00
expand: MAIN (3, 0) FAR  w(0) 1182.
	create_child: MAIN (2, 5) FAR 6696 U 0.00
expand: MAIN (2, 0) FAR  w(0) 6696.
	create_child: top_step (1, 5) FAR 6718 U 0.00
expand: top_step (1, 0) FAR  w(0) 6718.
	create_child: voiture_step (0, 5) FAR 6779 U 0.00
expand: voiture_step (0, 0) FAR  w(0) 6779. F 0.00
expand: top_step (1, 0) FAR  w(0) 6718. F 0.00
expand: MAIN (2, 0) FAR  w(0) 6696. F 0.00
expand: MAIN (3, 0) FAR  w(0) 1182.
	create_child: MAIN (2, 5) FAR 6935 U 0.00
expand: MAIN (2, 0) FAR  w(0) 6935.
	create_child: top_step (1, 5) FAR 6981 U 0.00
expand: top_step (1, 0) FAR  w(0) 6981.
	create_child: voiture_step (0, 5) FAR 7045 U 0.00
expand: voiture_step (0, 0) FAR  w(0) 7045. F 0.00
expand: top_step (1, 0) FAR  w(0) 6981. F 0.00
expand: MAIN (2, 0) FAR  w(0) 6935. F 0.00
expand: MAIN (3, 0) FAR  w(0) 1182.
	create_child: MAIN (2, 5) FAR 7394 U 0.00
expand: MAIN (2, 0) FAR  w(0) 7394.
	create_child: top_step (1, 5) FAR 7391 U 0.00
expand: top_step (1, 0) FAR  w(0) 7391.
	create_child: voiture_step (0, 5) FAR 7473 U 0.00
expand: voiture_step (0, 0) FAR  w(0) 7473. F 0.00
expand: top_step (1, 0) FAR  w(0) 7391. F 0.00
expand: MAIN (2, 0) FAR  w(0) 7394. F 0.00
expand: MAIN (3, 0) FAR  w(0) 1182.
	create_child: top_step (2, 5) FAR 7667 U 0.00
expand: top_step (2, 0) FAR  w(0) 7667.
	create_child: voiture_step (1, 5) FAR 8007 U 0.00
expand: voiture_step (1, 0) FAR  w(0) 8007. F 0.00
expand: top_step (2, 0) FAR  w(0) 7667.
	create_child: voiture_step (1, 5) FAR 8186 U 0.00
expand: voiture_step (1, 0) FAR  w(0) 8186. F 0.00
expand: top_step (2, 0) FAR  w(0) 7667.
	create_child: voiture_step (1, 5) FAR 8234 U 0.00
expand: voiture_step (1, 0) FAR  w(0) 8234. F 0.00
expand: top_step (2, 0) FAR  w(0) 7667.
	create_child: voiture_step (1, 5) FAR 8126 U 0.00
expand: voiture_step (1, 0) FAR  w(0) 8126. F 0.00
expand: top_step (2, 0) FAR  w(0) 7667. F 0.00
expand: MAIN (3, 0) FAR  w(0) 1182.
	create_child: top_step (2, 5) FAR 7603 U 0.00
expand: top_step (2, 0) FAR  w(0) 7603.
	create_child: voiture_step (1, 5) FAR 7624 U 0.00
expand: voiture_step (1, 0) FAR  w(0) 7624. F 0.00
expand: top_step (2, 0) FAR  w(0) 7603. F 0.00
expand: MAIN (3, 0) FAR  w(0) 1182. F 0.00
expand: ERR (4, 0) FAR  w(0) 1. F 0.00
expand: query!0 (5, 0) FAR  w(0) 1. F 0.00
(spacer::context::check_reachability :time 0.06 :before-memory 16.48 :after-memory 17.17)
Propagating: 0 1 2 3 4 5  ! 6 
(spacer::context::propagate :time 0.00 :before-memory 17.17 :after-memory 17.17)
Entering level 6
BRUNCH_STAT max_query_lvl 5
BRUNCH_STAT num_queries 40
BRUNCH_STAT num_reach_queries 1
BRUNCH_STAT num_reach_reuse 33
BRUNCH_STAT inductive_lvl 0
BRUNCH_STAT max_depth 6
BRUNCH_STAT cex_depth 0
expand: query!0 (6, 0) FAR  w(0) 1.
	create_child: ERR (5, 6) FAR 1 U 0.00
expand: ERR (5, 0) FAR  w(0) 1.
	create_child: MAIN (4, 6) FAR 1182 U 0.00
expand: MAIN (4, 0) FAR  w(0) 1182.
	create_child: MAIN (3, 6) FAR 8652 U 0.00
expand: MAIN (3, 0) FAR  w(0) 8652.
	create_child: top_step (2, 6) FAR 8628 U 0.00
expand: top_step (2, 0) FAR  w(0) 8628. F 0.00
expand: MAIN (3, 0) FAR  w(0) 8652.
	create_child: top_step (2, 6) FAR 8846 U 0.00
expand: top_step (2, 0) FAR  w(0) 8846. F 0.00
expand: MAIN (3, 0) FAR  w(0) 8652. F 0.00
expand: MAIN (4, 0) FAR  w(0) 1182.
	create_child: MAIN (3, 6) FAR 8984 U 0.00
expand: MAIN (3, 0) FAR  w(0) 8984.
	create_child: top_step (2, 6) FAR 8855 U 0.00
expand: top_step (2, 0) FAR  w(0) 8855. F 0.00
expand: MAIN (3, 0) FAR  w(0) 8984. F 0.00
expand: MAIN (4, 0) FAR  w(0) 1182.
	create_child: MAIN (3, 6) FAR 8852 U 0.00
expand: MAIN (3, 0) FAR  w(0) 8852.
	create_child: top_step (2, 6) FAR 9052 U 0.00
expand: top_step (2, 0) FAR  w(0) 9052. F 0.00
expand: MAIN (3, 0) FAR  w(0) 8852. F 0.00
expand: MAIN (4, 0) FAR  w(0) 1182.
	create_child: MAIN (3, 6) FAR 8864 U 0.00
expand: MAIN (3, 0) FAR  w(0) 8864.
	create_child: top_step (2, 6) FAR 9097 U 0.00
expand: top_step (2, 0) FAR  w(0) 9097. F 0.00
expand: MAIN (3, 0) FAR  w(0) 8864. F 0.00
expand: MAIN (4, 0) FAR  w(0) 1182.
	create_child: top_step (3, 6) FAR 9345 U 0.00
expand: top_step (3, 0) FAR  w(0) 9345.
	create_child: MAIN (3, 6) FAR 9609 X 0.00
expand: MAIN (3, 0) FAR  w(0) 9609. F 0.00
expand: MAIN (4, 0) FAR  w(0) 1182. F 0.00
expand: ERR (5, 0) FAR  w(0) 1. F 0.00
expand: query!0 (6, 0) FAR  w(0) 1. F 0.00
(spacer::context::check_reachability :time 0.03 :before-memory 17.17 :after-memory 17.45)
Propagating: 2 
(spacer::context::propagate :time 0.00 :before-memory 17.45 :after-memory 17.45)
(define-fun ERR () Bool
  false)
(define-fun top_reset ((x!0 Bool)
 (x!1 Bool)
 (x!2 Int)
 (x!3 Int)
 (x!4 Int)
 (x!5 Bool)
 (x!6 Bool)
 (x!7 Bool)
 (x!8 Bool)
 (x!9 Int)
 (x!10 Int)
 (x!11 Int)
 (x!12 Bool)
 (x!13 Bool)) Bool
  (and x!13 x!8))
(define-fun Sofar_step ((x!0 Bool)
 (x!1 Bool)
 (x!2 Bool)
 (x!3 Bool)
 (x!4 Bool)
 (x!5 Bool)) Bool
  true)
(define-fun excludes2_fun ((x!0 Bool) (x!1 Bool) (x!2 Bool)) Bool
  true)
(define-fun Sofar_reset ((x!0 Bool) (x!1 Bool) (x!2 Bool) (x!3 Bool)) Bool
  x!3)
(define-fun top_step ((x!0 Bool)
 (x!1 Bool)
 (x!2 Bool)
 (x!3 Bool)
 (x!4 Bool)
 (x!5 Int)
 (x!6 Int)
 (x!7 Int)
 (x!8 Bool)
 (x!9 Bool)
 (x!10 Bool)
 (x!11 Bool)
 (x!12 Int)
 (x!13 Int)
 (x!14 Int)
 (x!15 Bool)
 (x!16 Bool)) Bool
  (let ((a!1 (or (>= (+ x!7 (* (- 1) x!14)) 0) x!8 (not (>= x!14 11)))))
    (and (or (not (<= x!6 2)) (not (>= x!13 3)))
         (or x!2 (not x!9))
         (or (not (>= x!14 11)) (not x!9))
         (or (>= x!14 0) (not x!9))
         (or (<= x!13 0) (not x!9))
         (or (not (= x!14 10)) (not x!15))
         (or (>= x!13 0) (not x!9))
         (or (not (<= x!6 2))
             x!2
             (not (>= x!7 0))
             (not (<= x!7 9))
             (not (>= x!6 0)))
         (or (not (<= x!7 10))
             x!8
             x!2
             (not (>= x!6 0))
             (not (<= x!6 2))
             (not (>= x!7 0)))
         (or (not (>= x!7 0)) (>= x!14 0))
         (or (not (<= x!7 9)) (not (>= x!14 11)))
         a!1
         (or (not (>= x!6 0)) (>= x!13 0)))))
(define-fun voiture_step ((x!0 Bool)
 (x!1 Bool)
 (x!2 Bool)
 (x!3 Bool)
 (x!4 Bool)
 (x!5 Int)
 (x!6 Int)
 (x!7 Int)
 (x!8 Bool)
 (x!9 Bool)
 (x!10 Bool)
 (x!11 Int)
 (x!12 Int)
 (x!13 Int)
 (x!14 Bool)
 (x!15 Bool)
 (x!16 Int)
 (x!17 Int)
 (x!18 Int)
 (x!19 Bool)
 (x!20 Bool)) Bool
  (let ((a!1 (or (not (>= x!5 11)) x!14 (= (+ x!5 (* (- 1) x!13)) 0)))
        (a!2 (or (not (>= x!5 11))
                 (= (+ x!5 (* (- 1) x!13)) 1)
                 (<= (+ x!5 (* (- 1) x!13)) 0)))
        (a!3 (or (<= (+ x!6 (* (- 1) x!12)) 0) (= x!6 0))))
    (and a!1
         (or (= x!6 0) (not x!15))
         (or (not (>= x!5 11)) (not x!15))
         (or (>= x!5 0) (not x!15))
         (>= (+ x!5 (* (- 1) x!18)) 0)
         (>= (+ x!18 (* (- 1) x!5)) 0)
         (>= (+ x!6 (* (- 1) x!17)) 0)
         (<= (+ x!6 (* (- 1) x!17)) 0)
         (or (not (= x!18 10)) (not x!19))
         (or (>= x!6 0) (not (>= x!12 0)))
         (or (>= x!5 0) (not (>= x!13 0)))
         a!2
         a!3)))
(define-fun voiture_reset ((x!0 Int)
 (x!1 Int)
 (x!2 Int)
 (x!3 Bool)
 (x!4 Bool)
 (x!5 Int)
 (x!6 Int)
 (x!7 Int)
 (x!8 Bool)
 (x!9 Bool)) Bool
  x!9)
(define-fun MAIN ((x!0 Bool)
 (x!1 Bool)
 (x!2 Int)
 (x!3 Int)
 (x!4 Int)
 (x!5 Bool)
 (x!6 Bool)
 (x!7 Bool)) Bool
  (and (or (not (>= x!4 10)) (not x!5))
       x!7
       (not (>= x!3 3))
       (not (>= x!4 11))
       (>= x!4 0)
       (>= x!3 0)))
BRUNCH_STAT max_query_lvl 6
BRUNCH_STAT num_queries 52
BRUNCH_STAT num_reach_queries 2
BRUNCH_STAT num_reach_reuse 40
BRUNCH_STAT inductive_lvl 2
BRUNCH_STAT max_depth 6
BRUNCH_STAT cex_depth 0
(:SPACER-inductive-level               2
 :SPACER-max-depth                     6
 :SPACER-max-query-lvl                 6
 :SPACER-num-invariants                38
 :SPACER-num-lemmas                    59
 :SPACER-num-properties                40
 :SPACER-num-queries                   52
 :SPACER-num-reach-queries             2
 :SPACER-num-reuse-reach-facts         40
 :added-eqs                            2867
 :arith-add-rows                       320
 :arith-assert-diseq                   661
 :arith-assert-lower                   1786
 :arith-assert-upper                   2423
 :arith-bound-prop                     178
 :arith-conflicts                      15
 :arith-eq-adapter                     752
 :arith-fixed-eqs                      454
 :arith-offset-eqs                     216
 :arith-pivots                         269
 :bool-inductive-gen                   43
 :bool-inductive-gen-failures          76
 :conflicts                            287
 :decisions                            3988
 :del-clause                           318
 :final-checks                         143
 :minimized-lits                       3
 :mk-bool-var                          3600
 :mk-clause                            2029
 :num-checks                           388
 :propagations                         29167
 :time.itp_solver.itp_core             0.01
 :time.spacer.init_rules               0.01
 :time.spacer.init_rules.pt.init       0.00
 :time.spacer.solve                    0.12
 :time.spacer.solve.propagate          0.00
 :time.spacer.solve.pt.must_reachable  0.00
 :time.spacer.solve.reach              0.12
 :time.spacer.solve.reach.children     0.02
 :time.spacer.solve.reach.gen.bool_ind 0.02
 :time.virtual_solver.proof            0.01
 :time.virtual_solver.smt.total        0.07
 :time.virtual_solver.smt.total.sat    0.03
 :virtual_solver.checks                388
 :virtual_solver.checks.sat            143)
BRUNCH_STAT max_query_lvl 6
BRUNCH_STAT num_queries 52
BRUNCH_STAT num_reach_queries 2
BRUNCH_STAT num_reach_reuse 40
BRUNCH_STAT inductive_lvl 2
BRUNCH_STAT max_depth 6
BRUNCH_STAT cex_depth 0

real	0m0.164s
user	0m0.156s
sys	0m0.004s
