(transform N7datalog13mk_coi_filterE...no-op 0s)
(transform N7datalog25mk_interp_tail_simplifierE...12 rules 0s)
(transform N7datalog27mk_quantifier_instantiationE...no-op 0s)
(transform N7datalog8mk_scaleE...no-op 0s)
(transform N7datalog18mk_karr_invariantsE...no-op 0s)
(transform N7datalog14mk_array_blastE...no-op 0s)
(transform N7datalog22mk_subsumption_checkerE...11 rules 0s)
(transform N7datalog12mk_bit_blastE...no-op 0s)
(transform N7datalog15mk_rule_inlinerE...no-op 0s)
(transform N7datalog13mk_coi_filterE...no-op 0s)
(transform N7datalog25mk_interp_tail_simplifierE...11 rules 0s)
(transform N7datalog22mk_subsumption_checkerE...no-op 0s)
(transform N7datalog15mk_rule_inlinerE...no-op 0s)
(transform N7datalog13mk_coi_filterE...no-op 0s)
(transform N7datalog25mk_interp_tail_simplifierE...11 rules 0s)
(transform N7datalog22mk_subsumption_checkerE...no-op 0s)
(transform N7datalog15mk_rule_inlinerE...no-op 0s)
(transform N7datalog22mk_subsumption_checkerE...no-op 0s)
(transform N7datalog15mk_rule_inlinerE...no-op 0s)
(transform N7datalog22mk_subsumption_checkerE...no-op 0s)
(transform N7datalog15mk_rule_inlinerE...no-op 0s)
(transform N7datalog22mk_subsumption_checkerE...no-op 0s)
expand: query!0 (0, 0) FAR  w(0) 1. F 0.00
(spacer::context::check_reachability :time 0.00 :before-memory 11.32 :after-memory 11.73)
Entering level 1
BRUNCH_STAT max_query_lvl 0
BRUNCH_STAT num_queries 0
BRUNCH_STAT num_reach_queries 0
BRUNCH_STAT num_reach_reuse 0
BRUNCH_STAT inductive_lvl 0
BRUNCH_STAT max_depth 1
BRUNCH_STAT cex_depth 0
expand: query!0 (1, 0) FAR  w(0) 1.
	create_child: ERR (0, 1) FAR 1 U 0.00
expand: ERR (0, 0) FAR  w(0) 1. F 0.00
expand: query!0 (1, 0) FAR  w(0) 1. F 0.00
(spacer::context::check_reachability :time 0.00 :before-memory 11.73 :after-memory 12.17)
Propagating: 0 1  ! 2 
(spacer::context::propagate :time 0.00 :before-memory 12.17 :after-memory 12.17)
Entering level 2
BRUNCH_STAT max_query_lvl 1
BRUNCH_STAT num_queries 1
BRUNCH_STAT num_reach_queries 0
BRUNCH_STAT num_reach_reuse 0
BRUNCH_STAT inductive_lvl 0
BRUNCH_STAT max_depth 2
BRUNCH_STAT cex_depth 0
expand: query!0 (2, 0) FAR  w(0) 1.
	create_child: ERR (1, 2) FAR 1 U 0.00
expand: ERR (1, 0) FAR  w(0) 1.
	create_child: MAIN (0, 2) FAR 1157 U 0.00
expand: MAIN (0, 0) FAR  w(0) 1157. F 0.00
expand: ERR (1, 0) FAR  w(0) 1. F 0.00
expand: query!0 (2, 0) FAR  w(0) 1. F 0.00
(spacer::context::check_reachability :time 0.00 :before-memory 12.17 :after-memory 12.62)
Propagating: 0 1 2  ! 3 
(spacer::context::propagate :time 0.00 :before-memory 12.62 :after-memory 12.74)
Entering level 3
BRUNCH_STAT max_query_lvl 2
BRUNCH_STAT num_queries 3
BRUNCH_STAT num_reach_queries 0
BRUNCH_STAT num_reach_reuse 0
BRUNCH_STAT inductive_lvl 0
BRUNCH_STAT max_depth 3
BRUNCH_STAT cex_depth 0
expand: query!0 (3, 0) FAR  w(0) 1.
	create_child: ERR (2, 3) FAR 1 U 0.00
expand: ERR (2, 0) FAR  w(0) 1.
	create_child: MAIN (1, 3) FAR 1157 U 0.00
expand: MAIN (1, 0) FAR  w(0) 1157.
	create_child: top_step (0, 3) FAR 1567 U 0.00
expand: top_step (0, 0) FAR  w(0) 1567. F 0.00
expand: MAIN (1, 0) FAR  w(0) 1157. F 0.00
expand: ERR (2, 0) FAR  w(0) 1. F 0.00
expand: query!0 (3, 0) FAR  w(0) 1. F 0.00
(spacer::context::check_reachability :time 0.01 :before-memory 12.74 :after-memory 13.38)
Propagating: 0 1 2 3  ! 4 
(spacer::context::propagate :time 0.00 :before-memory 13.38 :after-memory 13.38)
Entering level 4
BRUNCH_STAT max_query_lvl 3
BRUNCH_STAT num_queries 6
BRUNCH_STAT num_reach_queries 0
BRUNCH_STAT num_reach_reuse 0
BRUNCH_STAT inductive_lvl 0
BRUNCH_STAT max_depth 4
BRUNCH_STAT cex_depth 0
expand: query!0 (4, 0) FAR  w(0) 1.
	create_child: ERR (3, 4) FAR 1 U 0.00
expand: ERR (3, 0) FAR  w(0) 1.
	create_child: MAIN (2, 4) FAR 1157 U 0.00
expand: MAIN (2, 0) FAR  w(0) 1157.
	create_child: top_step (1, 4) FAR 1567 U 0.00
expand: top_step (1, 0) FAR  w(0) 1567.
	create_child: top_reset (1, 4) FAR 3454 X 0.00
expand: top_reset (1, 0) FAR  w(0) 3454.
	create_child: Sofar_reset (0, 4) FAR 3856 U 0.00
expand: Sofar_reset (0, 0) FAR  w(0) 3856. F 0.00
expand: top_reset (1, 0) FAR  w(0) 3454. F 0.00
expand: MAIN (2, 0) FAR  w(0) 1157.
	create_child: top_reset (1, 4) FAR 4412 U 0.00
expand: top_reset (1, 0) FAR  w(0) 4412.
	create_child: voiture_reset (0, 4) FAR 4406 U 0.00
expand: voiture_reset (0, 0) FAR  w(0) 4406. F 0.00
expand: top_reset (1, 0) FAR  w(0) 4412. F 0.00
expand: MAIN (2, 0) FAR  w(0) 1157.
	create_child: top_step (1, 4) FAR 4577 U 0.00
expand: top_step (1, 0) FAR  w(0) 4577.
	create_child: voiture_step (0, 4) FAR 4619 U 0.00
expand: voiture_step (0, 0) FAR  w(0) 4619. F 0.00
expand: top_step (1, 0) FAR  w(0) 4577. F 0.00
expand: MAIN (2, 0) FAR  w(0) 1157. F 0.00
expand: ERR (3, 0) FAR  w(0) 1. F 0.00
expand: query!0 (4, 0) FAR  w(0) 1. F 0.00
(spacer::context::check_reachability :time 0.03 :before-memory 13.38 :after-memory 16.29)
Propagating: 0 1 2 3 4  ! 5 
(spacer::context::propagate :time 0.00 :before-memory 16.29 :after-memory 16.29)
Entering level 5
BRUNCH_STAT max_query_lvl 4
BRUNCH_STAT num_queries 14
BRUNCH_STAT num_reach_queries 1
BRUNCH_STAT num_reach_reuse 7
BRUNCH_STAT inductive_lvl 0
BRUNCH_STAT max_depth 5
BRUNCH_STAT cex_depth 0
expand: query!0 (5, 0) FAR  w(0) 1.
	create_child: ERR (4, 5) FAR 1 U 0.00
expand: ERR (4, 0) FAR  w(0) 1.
	create_child: MAIN (3, 5) FAR 1157 U 0.00
expand: MAIN (3, 0) FAR  w(0) 1157.
	create_child: MAIN (2, 5) FAR 5570 U 0.00
expand: MAIN (2, 0) FAR  w(0) 5570.
	create_child: top_step (1, 5) FAR 5609 U 0.00
expand: top_step (1, 0) FAR  w(0) 5609.
	create_child: voiture_step (0, 5) FAR 5726 U 0.00
expand: voiture_step (0, 0) FAR  w(0) 5726. F 0.00
expand: top_step (1, 0) FAR  w(0) 5609. F 0.00
expand: MAIN (2, 0) FAR  w(0) 5570. F 0.00
expand: MAIN (3, 0) FAR  w(0) 1157.
	create_child: top_step (2, 5) FAR 5858 U 0.00
expand: top_step (2, 0) FAR  w(0) 5858.
	create_child: voiture_step (1, 5) FAR 6018 U 0.00
expand: voiture_step (1, 0) FAR  w(0) 6018. F 0.00
expand: top_step (2, 0) FAR  w(0) 5858. F 0.00
expand: MAIN (3, 0) FAR  w(0) 1157. F 0.00
expand: ERR (4, 0) FAR  w(0) 1. F 0.00
expand: query!0 (5, 0) FAR  w(0) 1. F 0.00
(spacer::context::check_reachability :time 0.02 :before-memory 16.29 :after-memory 16.68)
Propagating: 0 1 2 3 4 5  ! 6 
(spacer::context::propagate :time 0.00 :before-memory 16.68 :after-memory 16.68)
Entering level 6
BRUNCH_STAT max_query_lvl 5
BRUNCH_STAT num_queries 21
BRUNCH_STAT num_reach_queries 1
BRUNCH_STAT num_reach_reuse 11
BRUNCH_STAT inductive_lvl 0
BRUNCH_STAT max_depth 6
BRUNCH_STAT cex_depth 0
expand: query!0 (6, 0) FAR  w(0) 1.
	create_child: ERR (5, 6) FAR 1 U 0.00
expand: ERR (5, 0) FAR  w(0) 1.
	create_child: MAIN (4, 6) FAR 1157 U 0.00
expand: MAIN (4, 0) FAR  w(0) 1157.
	create_child: MAIN (3, 6) FAR 5570 U 0.00
expand: MAIN (3, 0) FAR  w(0) 5570.
	create_child: top_step (2, 6) FAR 6329 U 0.00
expand: top_step (2, 0) FAR  w(0) 6329. F 0.00
expand: MAIN (3, 0) FAR  w(0) 5570. F 0.00
expand: MAIN (4, 0) FAR  w(0) 1157. F 0.00
expand: ERR (5, 0) FAR  w(0) 1. F 0.00
expand: query!0 (6, 0) FAR  w(0) 1. F 0.00
(spacer::context::check_reachability :time 0.01 :before-memory 16.68 :after-memory 16.78)
Propagating: 2 
(spacer::context::propagate :time 0.00 :before-memory 16.78 :after-memory 16.78)
(define-fun ERR () Bool
  false)
(define-fun top_reset ((x!0 Bool)
 (x!1 Bool)
 (x!2 Int)
 (x!3 Int)
 (x!4 Int)
 (x!5 Bool)
 (x!6 Bool)
 (x!7 Bool)
 (x!8 Bool)
 (x!9 Int)
 (x!10 Int)
 (x!11 Int)
 (x!12 Bool)
 (x!13 Bool)) Bool
  (and x!13 x!8))
(define-fun Sofar_step ((x!0 Bool)
 (x!1 Bool)
 (x!2 Bool)
 (x!3 Bool)
 (x!4 Bool)
 (x!5 Bool)) Bool
  true)
(define-fun excludes2_fun ((x!0 Bool) (x!1 Bool) (x!2 Bool)) Bool
  true)
(define-fun Sofar_reset ((x!0 Bool) (x!1 Bool) (x!2 Bool) (x!3 Bool)) Bool
  x!3)
(define-fun top_step ((x!0 Bool)
 (x!1 Bool)
 (x!2 Bool)
 (x!3 Bool)
 (x!4 Bool)
 (x!5 Int)
 (x!6 Int)
 (x!7 Int)
 (x!8 Bool)
 (x!9 Bool)
 (x!10 Bool)
 (x!11 Bool)
 (x!12 Int)
 (x!13 Int)
 (x!14 Int)
 (x!15 Bool)
 (x!16 Bool)) Bool
  (and (or (not (>= x!7 0)) (>= x!14 0))
       (or (not x!9) x!2)
       (or (>= x!14 0) (not x!9))
       (or (not (>= x!7 0)) x!2)))
(define-fun voiture_step ((x!0 Bool)
 (x!1 Bool)
 (x!2 Bool)
 (x!3 Bool)
 (x!4 Bool)
 (x!5 Int)
 (x!6 Int)
 (x!7 Int)
 (x!8 Bool)
 (x!9 Bool)
 (x!10 Bool)
 (x!11 Int)
 (x!12 Int)
 (x!13 Int)
 (x!14 Bool)
 (x!15 Bool)
 (x!16 Int)
 (x!17 Int)
 (x!18 Int)
 (x!19 Bool)
 (x!20 Bool)) Bool
  (and (or (not (>= x!13 0)) (>= x!5 0))
       (or (>= x!5 0) (not x!15))
       (>= (+ x!18 (* (- 1) x!5)) 0)))
(define-fun voiture_reset ((x!0 Int)
 (x!1 Int)
 (x!2 Int)
 (x!3 Bool)
 (x!4 Bool)
 (x!5 Int)
 (x!6 Int)
 (x!7 Int)
 (x!8 Bool)
 (x!9 Bool)) Bool
  x!9)
(define-fun MAIN ((x!0 Bool)
 (x!1 Bool)
 (x!2 Int)
 (x!3 Int)
 (x!4 Int)
 (x!5 Bool)
 (x!6 Bool)
 (x!7 Bool)) Bool
  (and (>= x!4 0) x!7))
BRUNCH_STAT max_query_lvl 6
BRUNCH_STAT num_queries 25
BRUNCH_STAT num_reach_queries 1
BRUNCH_STAT num_reach_reuse 12
BRUNCH_STAT inductive_lvl 2
BRUNCH_STAT max_depth 6
BRUNCH_STAT cex_depth 0
(:SPACER-inductive-level               2
 :SPACER-max-depth                     6
 :SPACER-max-query-lvl                 6
 :SPACER-num-invariants                15
 :SPACER-num-lemmas                    32
 :SPACER-num-properties                17
 :SPACER-num-queries                   25
 :SPACER-num-reach-queries             1
 :SPACER-num-reuse-reach-facts         12
 :added-eqs                            674
 :arith-add-rows                       183
 :arith-assert-diseq                   120
 :arith-assert-lower                   323
 :arith-assert-upper                   456
 :arith-bound-prop                     38
 :arith-conflicts                      12
 :arith-eq-adapter                     192
 :arith-fixed-eqs                      121
 :arith-offset-eqs                     36
 :arith-pivots                         134
 :bool-inductive-gen                   16
 :bool-inductive-gen-failures          22
 :conflicts                            125
 :decisions                            1007
 :del-clause                           132
 :final-checks                         59
 :minimized-lits                       2
 :mk-bool-var                          1627
 :mk-clause                            1375
 :num-checks                           167
 :propagations                         6798
 :time.itp_solver.itp_core             0.01
 :time.spacer.init_rules               0.01
 :time.spacer.init_rules.pt.init       0.00
 :time.spacer.solve                    0.07
 :time.spacer.solve.propagate          0.01
 :time.spacer.solve.pt.must_reachable  0.00
 :time.spacer.solve.reach              0.07
 :time.spacer.solve.reach.children     0.01
 :time.spacer.solve.reach.gen.bool_ind 0.01
 :time.virtual_solver.proof            0.00
 :time.virtual_solver.smt.total        0.04
 :time.virtual_solver.smt.total.sat    0.02
 :virtual_solver.checks                167
 :virtual_solver.checks.sat            59)
BRUNCH_STAT max_query_lvl 6
BRUNCH_STAT num_queries 25
BRUNCH_STAT num_reach_queries 1
BRUNCH_STAT num_reach_reuse 12
BRUNCH_STAT inductive_lvl 2
BRUNCH_STAT max_depth 6
BRUNCH_STAT cex_depth 0

real	0m0.166s
user	0m0.104s
sys	0m0.028s
