(transform N7datalog13mk_coi_filterE...no-op 0s)
(transform N7datalog25mk_interp_tail_simplifierE...12 rules 0s)
(transform N7datalog27mk_quantifier_instantiationE...no-op 0s)
(transform N7datalog8mk_scaleE...no-op 0s)
(transform N7datalog18mk_karr_invariantsE...no-op 0s)
(transform N7datalog14mk_array_blastE...no-op 0s)
(transform N7datalog22mk_subsumption_checkerE...11 rules 0s)
(transform N7datalog12mk_bit_blastE...no-op 0s)
(transform N7datalog15mk_rule_inlinerE...no-op 0s)
(transform N7datalog13mk_coi_filterE...no-op 0s)
(transform N7datalog25mk_interp_tail_simplifierE...11 rules 0s)
(transform N7datalog22mk_subsumption_checkerE...no-op 0s)
(transform N7datalog15mk_rule_inlinerE...no-op 0s)
(transform N7datalog13mk_coi_filterE...no-op 0s)
(transform N7datalog25mk_interp_tail_simplifierE...11 rules 0s)
(transform N7datalog22mk_subsumption_checkerE...no-op 0s)
(transform N7datalog15mk_rule_inlinerE...no-op 0s)
(transform N7datalog22mk_subsumption_checkerE...no-op 0s)
(transform N7datalog15mk_rule_inlinerE...no-op 0s)
(transform N7datalog22mk_subsumption_checkerE...no-op 0s)
(transform N7datalog15mk_rule_inlinerE...no-op 0s)
(transform N7datalog22mk_subsumption_checkerE...no-op 0s)
expand: query!0 (0, 0) FAR  w(0) 1. F 0.00
(spacer::context::check_reachability :time 0.00 :before-memory 11.33 :after-memory 11.76)
Entering level 1
BRUNCH_STAT max_query_lvl 0
BRUNCH_STAT num_queries 0
BRUNCH_STAT num_reach_queries 0
BRUNCH_STAT num_reach_reuse 0
BRUNCH_STAT inductive_lvl 0
BRUNCH_STAT max_depth 1
BRUNCH_STAT cex_depth 0
expand: query!0 (1, 0) FAR  w(0) 1.
	create_child: ERR (0, 1) FAR 1 U 0.00
expand: ERR (0, 0) FAR  w(0) 1. F 0.00
expand: query!0 (1, 0) FAR  w(0) 1. F 0.00
(spacer::context::check_reachability :time 0.00 :before-memory 11.76 :after-memory 12.20)
Propagating: 0 1  ! 2 
(spacer::context::propagate :time 0.00 :before-memory 12.20 :after-memory 12.20)
Entering level 2
BRUNCH_STAT max_query_lvl 1
BRUNCH_STAT num_queries 1
BRUNCH_STAT num_reach_queries 0
BRUNCH_STAT num_reach_reuse 0
BRUNCH_STAT inductive_lvl 0
BRUNCH_STAT max_depth 2
BRUNCH_STAT cex_depth 0
expand: query!0 (2, 0) FAR  w(0) 1.
	create_child: ERR (1, 2) FAR 1 U 0.00
expand: ERR (1, 0) FAR  w(0) 1.
	create_child: MAIN (0, 2) FAR 1142 U 0.00
expand: MAIN (0, 0) FAR  w(0) 1142. F 0.00
expand: ERR (1, 0) FAR  w(0) 1. F 0.00
expand: query!0 (2, 0) FAR  w(0) 1. F 0.00
(spacer::context::check_reachability :time 0.00 :before-memory 12.20 :after-memory 12.66)
Propagating: 0 1 2  ! 3 
(spacer::context::propagate :time 0.00 :before-memory 12.66 :after-memory 12.66)
Entering level 3
BRUNCH_STAT max_query_lvl 2
BRUNCH_STAT num_queries 3
BRUNCH_STAT num_reach_queries 0
BRUNCH_STAT num_reach_reuse 0
BRUNCH_STAT inductive_lvl 0
BRUNCH_STAT max_depth 3
BRUNCH_STAT cex_depth 0
expand: query!0 (3, 0) FAR  w(0) 1.
	create_child: ERR (2, 3) FAR 1 U 0.00
expand: ERR (2, 0) FAR  w(0) 1.
	create_child: MAIN (1, 3) FAR 1142 U 0.00
expand: MAIN (1, 0) FAR  w(0) 1142.
	create_child: top_step (0, 3) FAR 1552 U 0.00
expand: top_step (0, 0) FAR  w(0) 1552. F 0.00
expand: MAIN (1, 0) FAR  w(0) 1142. F 0.00
expand: ERR (2, 0) FAR  w(0) 1. F 0.00
expand: query!0 (3, 0) FAR  w(0) 1. F 0.00
(spacer::context::check_reachability :time 0.00 :before-memory 12.66 :after-memory 13.38)
Propagating: 0 1 2 3  ! 4 
(spacer::context::propagate :time 0.00 :before-memory 13.38 :after-memory 13.38)
Entering level 4
BRUNCH_STAT max_query_lvl 3
BRUNCH_STAT num_queries 6
BRUNCH_STAT num_reach_queries 0
BRUNCH_STAT num_reach_reuse 0
BRUNCH_STAT inductive_lvl 0
BRUNCH_STAT max_depth 4
BRUNCH_STAT cex_depth 0
expand: query!0 (4, 0) FAR  w(0) 1.
	create_child: ERR (3, 4) FAR 1 U 0.00
expand: ERR (3, 0) FAR  w(0) 1.
	create_child: MAIN (2, 4) FAR 1142 U 0.00
expand: MAIN (2, 0) FAR  w(0) 1142.
	create_child: top_step (1, 4) FAR 1552 U 0.00
expand: top_step (1, 0) FAR  w(0) 1552.
	create_child: top_reset (1, 4) FAR 3296 X 0.00
expand: top_reset (1, 0) FAR  w(0) 3296.
	create_child: voiture_reset (0, 4) FAR 3742 U 0.00
expand: voiture_reset (0, 0) FAR  w(0) 3742. F 0.00
expand: top_reset (1, 0) FAR  w(0) 3296. F 0.00
expand: MAIN (2, 0) FAR  w(0) 1142.
	create_child: top_step (1, 4) FAR 4316 U 0.00
expand: top_step (1, 0) FAR  w(0) 4316.
	create_child: voiture_step (0, 4) FAR 4358 U 0.00
expand: voiture_step (0, 0) FAR  w(0) 4358. F 0.00
expand: top_step (1, 0) FAR  w(0) 4316. F 0.00
expand: MAIN (2, 0) FAR  w(0) 1142. F 0.00
expand: ERR (3, 0) FAR  w(0) 1. F 0.00
expand: query!0 (4, 0) FAR  w(0) 1. F 0.00
(spacer::context::check_reachability :time 0.01 :before-memory 13.38 :after-memory 15.75)
Propagating: 0 1 2 3 4  ! 5 
(spacer::context::propagate :time 0.00 :before-memory 15.75 :after-memory 15.75)
Entering level 5
BRUNCH_STAT max_query_lvl 4
BRUNCH_STAT num_queries 12
BRUNCH_STAT num_reach_queries 1
BRUNCH_STAT num_reach_reuse 5
BRUNCH_STAT inductive_lvl 0
BRUNCH_STAT max_depth 5
BRUNCH_STAT cex_depth 0
expand: query!0 (5, 0) FAR  w(0) 1.
	create_child: ERR (4, 5) FAR 1 U 0.00
expand: ERR (4, 0) FAR  w(0) 1.
	create_child: MAIN (3, 5) FAR 1142 U 0.00
expand: MAIN (3, 0) FAR  w(0) 1142.
	create_child: MAIN (2, 5) FAR 5261 U 0.00
expand: MAIN (2, 0) FAR  w(0) 5261.
	create_child: top_step (1, 5) FAR 5348 U 0.00
expand: top_step (1, 0) FAR  w(0) 5348.
	create_child: voiture_step (0, 5) FAR 5417 U 0.00
expand: voiture_step (0, 0) FAR  w(0) 5417. F 0.00
expand: top_step (1, 0) FAR  w(0) 5348. F 0.00
expand: MAIN (2, 0) FAR  w(0) 5261. F 0.00
expand: MAIN (3, 0) FAR  w(0) 1142.
	create_child: top_step (2, 5) FAR 5655 U 0.00
expand: top_step (2, 0) FAR  w(0) 5655.
	create_child: MAIN (2, 5) FAR 6023 X 0.00
expand: MAIN (2, 0) FAR  w(0) 6023.
	create_child: top_reset (1, 5) FAR 6204 U 0.00
expand: top_reset (1, 0) FAR  w(0) 6204. T 0.00
is-reachable: MAIN (2, 0) FAR 6023 T 0.00
is-reachable: MAIN (3, 0) FAR 1142 T 0.00
is-reachable: ERR (4, 0) FAR 1 T 0.00
is-reachable: query!0 (5, 0) FAR 1 T 0.00
(spacer::context::check_reachability :time 0.02 :before-memory 15.75 :after-memory 16.56)
BRUNCH_STAT max_query_lvl 5
BRUNCH_STAT num_queries 19
BRUNCH_STAT num_reach_queries 7
BRUNCH_STAT num_reach_reuse 14
BRUNCH_STAT inductive_lvl 0
BRUNCH_STAT max_depth 5
BRUNCH_STAT cex_depth 5
(:SPACER-cex-depth                     5
 :SPACER-max-depth                     5
 :SPACER-max-query-lvl                 5
 :SPACER-num-invariants                6
 :SPACER-num-lemmas                    20
 :SPACER-num-properties                12
 :SPACER-num-queries                   19
 :SPACER-num-reach-queries             7
 :SPACER-num-reuse-reach-facts         14
 :added-eqs                            590
 :arith-add-rows                       65
 :arith-assert-diseq                   102
 :arith-assert-lower                   229
 :arith-assert-upper                   444
 :arith-bound-prop                     47
 :arith-conflicts                      9
 :arith-eq-adapter                     164
 :arith-fixed-eqs                      76
 :arith-offset-eqs                     80
 :arith-pivots                         85
 :bool-inductive-gen                   8
 :bool-inductive-gen-failures          12
 :conflicts                            81
 :decisions                            723
 :del-clause                           138
 :final-checks                         50
 :mk-bool-var                          1394
 :mk-clause                            1606
 :num-checks                           113
 :propagations                         4495
 :time.itp_solver.itp_core             0.00
 :time.spacer.init_rules               0.01
 :time.spacer.init_rules.pt.init       0.00
 :time.spacer.solve                    0.04
 :time.spacer.solve.propagate          0.00
 :time.spacer.solve.pt.must_reachable  0.00
 :time.spacer.solve.reach              0.04
 :time.spacer.solve.reach.children     0.00
 :time.spacer.solve.reach.gen.bool_ind 0.00
 :time.spacer.solve.reach.is-reach     0.00
 :time.virtual_solver.proof            0.00
 :time.virtual_solver.smt.total        0.02
 :time.virtual_solver.smt.total.sat    0.01
 :virtual_solver.checks                113
 :virtual_solver.checks.sat            50)
BRUNCH_STAT max_query_lvl 5
BRUNCH_STAT num_queries 19
BRUNCH_STAT num_reach_queries 7
BRUNCH_STAT num_reach_reuse 14
BRUNCH_STAT inductive_lvl 0
BRUNCH_STAT max_depth 5
BRUNCH_STAT cex_depth 5

real	0m0.072s
user	0m0.068s
sys	0m0.000s
