(transform N7datalog13mk_coi_filterE...no-op 0s)
(transform N7datalog25mk_interp_tail_simplifierE...12 rules 0s)
(transform N7datalog27mk_quantifier_instantiationE...no-op 0s)
(transform N7datalog8mk_scaleE...no-op 0s)
(transform N7datalog18mk_karr_invariantsE...no-op 0s)
(transform N7datalog14mk_array_blastE...no-op 0s)
(transform N7datalog22mk_subsumption_checkerE...11 rules 0s)
(transform N7datalog12mk_bit_blastE...no-op 0s)
(transform N7datalog15mk_rule_inlinerE...no-op 0s)
(transform N7datalog13mk_coi_filterE...no-op 0s)
(transform N7datalog25mk_interp_tail_simplifierE...11 rules 0s)
(transform N7datalog22mk_subsumption_checkerE...no-op 0s)
(transform N7datalog15mk_rule_inlinerE...no-op 0s)
(transform N7datalog13mk_coi_filterE...no-op 0s)
(transform N7datalog25mk_interp_tail_simplifierE...11 rules 0s)
(transform N7datalog22mk_subsumption_checkerE...no-op 0s)
(transform N7datalog15mk_rule_inlinerE...no-op 0s)
(transform N7datalog22mk_subsumption_checkerE...no-op 0s)
(transform N7datalog15mk_rule_inlinerE...no-op 0s)
(transform N7datalog22mk_subsumption_checkerE...no-op 0s)
(transform N7datalog15mk_rule_inlinerE...no-op 0s)
(transform N7datalog22mk_subsumption_checkerE...no-op 0s)
expand: query!0 (0, 0) FAR  w(0) 1. F 0.00
(spacer::context::check_reachability :time 0.00 :before-memory 11.33 :after-memory 11.76)
Entering level 1
BRUNCH_STAT max_query_lvl 0
BRUNCH_STAT num_queries 0
BRUNCH_STAT num_reach_queries 0
BRUNCH_STAT num_reach_reuse 0
BRUNCH_STAT inductive_lvl 0
BRUNCH_STAT max_depth 1
BRUNCH_STAT cex_depth 0
expand: query!0 (1, 0) FAR  w(0) 1.
	create_child: ERR (0, 1) FAR 1 U 0.00
expand: ERR (0, 0) FAR  w(0) 1. F 0.00
expand: query!0 (1, 0) FAR  w(0) 1. F 0.00
(spacer::context::check_reachability :time 0.00 :before-memory 11.76 :after-memory 12.20)
Propagating: 0 1  ! 2 
(spacer::context::propagate :time 0.00 :before-memory 12.20 :after-memory 12.20)
Entering level 2
BRUNCH_STAT max_query_lvl 1
BRUNCH_STAT num_queries 1
BRUNCH_STAT num_reach_queries 0
BRUNCH_STAT num_reach_reuse 0
BRUNCH_STAT inductive_lvl 0
BRUNCH_STAT max_depth 2
BRUNCH_STAT cex_depth 0
expand: query!0 (2, 0) FAR  w(0) 1.
	create_child: ERR (1, 2) FAR 1 U 0.00
expand: ERR (1, 0) FAR  w(0) 1.
	create_child: MAIN (0, 2) FAR 1157 U 0.00
expand: MAIN (0, 0) FAR  w(0) 1157. F 0.00
expand: ERR (1, 0) FAR  w(0) 1. F 0.00
expand: query!0 (2, 0) FAR  w(0) 1. F 0.00
(spacer::context::check_reachability :time 0.00 :before-memory 12.20 :after-memory 12.66)
Propagating: 0 1 2  ! 3 
(spacer::context::propagate :time 0.00 :before-memory 12.66 :after-memory 12.66)
Entering level 3
BRUNCH_STAT max_query_lvl 2
BRUNCH_STAT num_queries 3
BRUNCH_STAT num_reach_queries 0
BRUNCH_STAT num_reach_reuse 0
BRUNCH_STAT inductive_lvl 0
BRUNCH_STAT max_depth 3
BRUNCH_STAT cex_depth 0
expand: query!0 (3, 0) FAR  w(0) 1.
	create_child: ERR (2, 3) FAR 1 U 0.00
expand: ERR (2, 0) FAR  w(0) 1.
	create_child: MAIN (1, 3) FAR 1157 U 0.00
expand: MAIN (1, 0) FAR  w(0) 1157.
	create_child: top_step (0, 3) FAR 1567 U 0.00
expand: top_step (0, 0) FAR  w(0) 1567. F 0.00
expand: MAIN (1, 0) FAR  w(0) 1157. F 0.00
expand: ERR (2, 0) FAR  w(0) 1. F 0.00
expand: query!0 (3, 0) FAR  w(0) 1. F 0.00
(spacer::context::check_reachability :time 0.00 :before-memory 12.66 :after-memory 13.38)
Propagating: 0 1 2 3  ! 4 
(spacer::context::propagate :time 0.00 :before-memory 13.38 :after-memory 13.38)
Entering level 4
BRUNCH_STAT max_query_lvl 3
BRUNCH_STAT num_queries 6
BRUNCH_STAT num_reach_queries 0
BRUNCH_STAT num_reach_reuse 0
BRUNCH_STAT inductive_lvl 0
BRUNCH_STAT max_depth 4
BRUNCH_STAT cex_depth 0
expand: query!0 (4, 0) FAR  w(0) 1.
	create_child: ERR (3, 4) FAR 1 U 0.00
expand: ERR (3, 0) FAR  w(0) 1.
	create_child: MAIN (2, 4) FAR 1157 U 0.00
expand: MAIN (2, 0) FAR  w(0) 1157.
	create_child: top_step (1, 4) FAR 1567 U 0.00
expand: top_step (1, 0) FAR  w(0) 1567.
	create_child: top_reset (1, 4) FAR 3381 X 0.00
expand: top_reset (1, 0) FAR  w(0) 3381.
	create_child: voiture_reset (0, 4) FAR 3823 U 0.00
expand: voiture_reset (0, 0) FAR  w(0) 3823. F 0.00
expand: top_reset (1, 0) FAR  w(0) 3381. F 0.00
expand: MAIN (2, 0) FAR  w(0) 1157.
	create_child: top_step (1, 4) FAR 4361 U 0.00
expand: top_step (1, 0) FAR  w(0) 4361.
	create_child: voiture_step (0, 4) FAR 4430 U 0.00
expand: voiture_step (0, 0) FAR  w(0) 4430. F 0.00
expand: top_step (1, 0) FAR  w(0) 4361. F 0.00
expand: MAIN (2, 0) FAR  w(0) 1157. F 0.00
expand: ERR (3, 0) FAR  w(0) 1. F 0.00
expand: query!0 (4, 0) FAR  w(0) 1. F 0.00
(spacer::context::check_reachability :time 0.01 :before-memory 13.38 :after-memory 15.79)
Propagating: 0 1 2 3 4  ! 5 
(spacer::context::propagate :time 0.00 :before-memory 15.79 :after-memory 15.79)
Entering level 5
BRUNCH_STAT max_query_lvl 4
BRUNCH_STAT num_queries 12
BRUNCH_STAT num_reach_queries 1
BRUNCH_STAT num_reach_reuse 5
BRUNCH_STAT inductive_lvl 0
BRUNCH_STAT max_depth 5
BRUNCH_STAT cex_depth 0
expand: query!0 (5, 0) FAR  w(0) 1.
	create_child: ERR (4, 5) FAR 1 U 0.00
expand: ERR (4, 0) FAR  w(0) 1.
	create_child: MAIN (3, 5) FAR 1157 U 0.00
expand: MAIN (3, 0) FAR  w(0) 1157.
	create_child: MAIN (2, 5) FAR 5254 U 0.00
expand: MAIN (2, 0) FAR  w(0) 5254.
	create_child: top_step (1, 5) FAR 5304 U 0.00
expand: top_step (1, 0) FAR  w(0) 5304.
	create_child: Sofar_step (0, 5) FAR 5397 U 0.00
expand: Sofar_step (0, 0) FAR  w(0) 5397. F 0.00
expand: top_step (1, 0) FAR  w(0) 5304. F 0.00
expand: MAIN (2, 0) FAR  w(0) 5254. F 0.00
expand: MAIN (3, 0) FAR  w(0) 1157.
	create_child: MAIN (2, 5) FAR 5697 U 0.00
expand: MAIN (2, 0) FAR  w(0) 5697.
	create_child: top_step (1, 5) FAR 5679 U 0.00
expand: top_step (1, 0) FAR  w(0) 5679.
	create_child: voiture_step (0, 5) FAR 5776 U 0.00
expand: voiture_step (0, 0) FAR  w(0) 5776. F 0.00
expand: top_step (1, 0) FAR  w(0) 5679. F 0.00
expand: MAIN (2, 0) FAR  w(0) 5697. F 0.00
expand: MAIN (3, 0) FAR  w(0) 1157.
	create_child: MAIN (2, 5) FAR 5619 U 0.00
expand: MAIN (2, 0) FAR  w(0) 5619.
	create_child: top_step (1, 5) FAR 6005 U 0.00
expand: top_step (1, 0) FAR  w(0) 6005.
	create_child: voiture_step (0, 5) FAR 6097 U 0.00
expand: voiture_step (0, 0) FAR  w(0) 6097. F 0.00
expand: top_step (1, 0) FAR  w(0) 6005. F 0.00
expand: MAIN (2, 0) FAR  w(0) 5619. F 0.00
expand: MAIN (3, 0) FAR  w(0) 1157.
	create_child: top_step (2, 5) FAR 6277 U 0.00
expand: top_step (2, 0) FAR  w(0) 6277.
	create_child: voiture_step (1, 5) FAR 6323 U 0.00
expand: voiture_step (1, 0) FAR  w(0) 6323. F 0.00
expand: top_step (2, 0) FAR  w(0) 6277. F 0.00
expand: MAIN (3, 0) FAR  w(0) 1157. F 0.00
expand: ERR (4, 0) FAR  w(0) 1. F 0.00
expand: query!0 (5, 0) FAR  w(0) 1. F 0.00
(spacer::context::check_reachability :time 0.03 :before-memory 15.79 :after-memory 16.79)
Propagating: 0 1 2 3 4 5  ! 6 
(spacer::context::propagate :time 0.00 :before-memory 16.79 :after-memory 16.79)
Entering level 6
BRUNCH_STAT max_query_lvl 5
BRUNCH_STAT num_queries 25
BRUNCH_STAT num_reach_queries 1
BRUNCH_STAT num_reach_reuse 15
BRUNCH_STAT inductive_lvl 0
BRUNCH_STAT max_depth 6
BRUNCH_STAT cex_depth 0
expand: query!0 (6, 0) FAR  w(0) 1.
	create_child: ERR (5, 6) FAR 1 U 0.00
expand: ERR (5, 0) FAR  w(0) 1.
	create_child: MAIN (4, 6) FAR 1157 U 0.00
expand: MAIN (4, 0) FAR  w(0) 1157.
	create_child: MAIN (3, 6) FAR 5619 U 0.00
expand: MAIN (3, 0) FAR  w(0) 5619.
	create_child: top_step (2, 6) FAR 6825 U 0.00
expand: top_step (2, 0) FAR  w(0) 6825.
	create_child: MAIN (2, 6) FAR 6901 X 0.00
expand: MAIN (2, 0) FAR  w(0) 6901.
	create_child: top_step (1, 6) FAR 6895 U 0.00
expand: top_step (1, 0) FAR  w(0) 6895.
	create_child: voiture_step (0, 6) FAR 6856 U 0.00
expand: voiture_step (0, 0) FAR  w(0) 6856. F 0.00
expand: top_step (1, 0) FAR  w(0) 6895. F 0.00
expand: MAIN (2, 0) FAR  w(0) 6901. F 0.00
expand: MAIN (3, 0) FAR  w(0) 5619.
	create_child: top_step (2, 6) FAR 7156 U 0.00
expand: top_step (2, 0) FAR  w(0) 7156.
	create_child: voiture_step (1, 6) FAR 7200 U 0.00
expand: voiture_step (1, 0) FAR  w(0) 7200. F 0.00
expand: top_step (2, 0) FAR  w(0) 7156. F 0.00
expand: MAIN (3, 0) FAR  w(0) 5619. F 0.00
expand: MAIN (4, 0) FAR  w(0) 1157. F 0.00
expand: ERR (5, 0) FAR  w(0) 1. F 0.00
expand: query!0 (6, 0) FAR  w(0) 1. F 0.00
(spacer::context::check_reachability :time 0.02 :before-memory 16.79 :after-memory 17.00)
Propagating: 0 1 2 3 4 5 6  ! 7 
(spacer::context::propagate :time 0.00 :before-memory 17.00 :after-memory 17.00)
Entering level 7
BRUNCH_STAT max_query_lvl 6
BRUNCH_STAT num_queries 33
BRUNCH_STAT num_reach_queries 1
BRUNCH_STAT num_reach_reuse 20
BRUNCH_STAT inductive_lvl 0
BRUNCH_STAT max_depth 7
BRUNCH_STAT cex_depth 0
expand: query!0 (7, 0) FAR  w(0) 1.
	create_child: ERR (6, 7) FAR 1 U 0.00
expand: ERR (6, 0) FAR  w(0) 1.
	create_child: MAIN (5, 7) FAR 1157 U 0.00
expand: MAIN (5, 0) FAR  w(0) 1157.
	create_child: MAIN (4, 7) FAR 5697 U 0.00
expand: MAIN (4, 0) FAR  w(0) 5697.
	create_child: top_step (3, 7) FAR 7656 U 0.00
expand: top_step (3, 0) FAR  w(0) 7656.
	create_child: voiture_step (2, 7) FAR 7700 U 0.00
expand: voiture_step (2, 0) FAR  w(0) 7700. F 0.00
expand: top_step (3, 0) FAR  w(0) 7656.
	create_child: voiture_step (2, 7) FAR 7775 U 0.00
expand: voiture_step (2, 0) FAR  w(0) 7775. F 0.00
expand: top_step (3, 0) FAR  w(0) 7656. F 0.00
expand: MAIN (4, 0) FAR  w(0) 5697. F 0.00
expand: MAIN (5, 0) FAR  w(0) 1157.
	create_child: MAIN (4, 7) FAR 5619 U 0.00
expand: MAIN (4, 0) FAR  w(0) 5619.
	create_child: MAIN (3, 7) FAR 6901 U 0.00
expand: MAIN (3, 0) FAR  w(0) 6901.
	create_child: MAIN (2, 7) FAR 7918 U 0.00
expand: MAIN (2, 0) FAR  w(0) 7918.
	create_child: top_step (1, 7) FAR 7878 U 0.00
expand: top_step (1, 0) FAR  w(0) 7878.
	create_child: voiture_step (0, 7) FAR 7964 U 0.00
expand: voiture_step (0, 0) FAR  w(0) 7964. F 0.00
expand: top_step (1, 0) FAR  w(0) 7878. F 0.00
expand: MAIN (2, 0) FAR  w(0) 7918. F 0.00
expand: MAIN (3, 0) FAR  w(0) 6901.
	create_child: top_step (2, 7) FAR 8133 U 0.00
expand: top_step (2, 0) FAR  w(0) 8133.
	create_child: voiture_step (1, 7) FAR 7980 U 0.00
expand: voiture_step (1, 0) FAR  w(0) 7980. F 0.00
expand: top_step (2, 0) FAR  w(0) 8133. F 0.00
expand: MAIN (3, 0) FAR  w(0) 6901. F 0.00
expand: MAIN (4, 0) FAR  w(0) 5619. F 0.00
expand: MAIN (5, 0) FAR  w(0) 1157. F 0.00
expand: ERR (6, 0) FAR  w(0) 1. F 0.00
expand: query!0 (7, 0) FAR  w(0) 1. F 0.00
(spacer::context::check_reachability :time 0.03 :before-memory 17.00 :after-memory 17.29)
Propagating: 0 1 2 3 4 5 6 7  ! 8 
(spacer::context::propagate :time 0.00 :before-memory 17.29 :after-memory 17.29)
Entering level 8
BRUNCH_STAT max_query_lvl 7
BRUNCH_STAT num_queries 46
BRUNCH_STAT num_reach_queries 1
BRUNCH_STAT num_reach_reuse 32
BRUNCH_STAT inductive_lvl 0
BRUNCH_STAT max_depth 8
BRUNCH_STAT cex_depth 0
expand: query!0 (8, 0) FAR  w(0) 1.
	create_child: ERR (7, 8) FAR 1 U 0.00
expand: ERR (7, 0) FAR  w(0) 1.
	create_child: MAIN (6, 8) FAR 1157 U 0.00
expand: MAIN (6, 0) FAR  w(0) 1157.
	create_child: MAIN (5, 8) FAR 5619 U 0.00
expand: MAIN (5, 0) FAR  w(0) 5619.
	create_child: MAIN (4, 8) FAR 6901 U 0.00
expand: MAIN (4, 0) FAR  w(0) 6901.
	create_child: MAIN (3, 8) FAR 7918 U 0.00
expand: MAIN (3, 0) FAR  w(0) 7918.
	create_child: MAIN (2, 8) FAR 8677 U 0.00
expand: MAIN (2, 0) FAR  w(0) 8677.
	create_child: top_step (1, 8) FAR 8253 U 0.00
expand: top_step (1, 0) FAR  w(0) 8253.
	create_child: voiture_step (0, 8) FAR 8720 U 0.00
expand: voiture_step (0, 0) FAR  w(0) 8720. F 0.00
expand: top_step (1, 0) FAR  w(0) 8253. F 0.00
expand: MAIN (2, 0) FAR  w(0) 8677. F 0.00
expand: MAIN (3, 0) FAR  w(0) 7918.
	create_child: top_step (2, 8) FAR 8892 U 0.00
expand: top_step (2, 0) FAR  w(0) 8892.
	create_child: voiture_step (1, 8) FAR 8702 U 0.00
expand: voiture_step (1, 0) FAR  w(0) 8702. F 0.00
expand: top_step (2, 0) FAR  w(0) 8892. F 0.00
expand: MAIN (3, 0) FAR  w(0) 7918. F 0.00
expand: MAIN (4, 0) FAR  w(0) 6901. F 0.00
expand: MAIN (5, 0) FAR  w(0) 5619. F 0.00
expand: MAIN (6, 0) FAR  w(0) 1157. F 0.00
expand: ERR (7, 0) FAR  w(0) 1. F 0.00
expand: query!0 (8, 0) FAR  w(0) 1. F 0.00
(spacer::context::check_reachability :time 0.02 :before-memory 17.29 :after-memory 17.38)
Propagating: 0 1 2 3 4 5 6 7 8  ! 9 
(spacer::context::propagate :time 0.00 :before-memory 17.38 :after-memory 17.38)
Entering level 9
BRUNCH_STAT max_query_lvl 8
BRUNCH_STAT num_queries 56
BRUNCH_STAT num_reach_queries 1
BRUNCH_STAT num_reach_reuse 40
BRUNCH_STAT inductive_lvl 0
BRUNCH_STAT max_depth 9
BRUNCH_STAT cex_depth 0
expand: query!0 (9, 0) FAR  w(0) 1.
	create_child: ERR (8, 9) FAR 1 U 0.00
expand: ERR (8, 0) FAR  w(0) 1.
	create_child: MAIN (7, 9) FAR 1157 U 0.00
expand: MAIN (7, 0) FAR  w(0) 1157.
	create_child: MAIN (6, 9) FAR 5619 U 0.00
expand: MAIN (6, 0) FAR  w(0) 5619.
	create_child: MAIN (5, 9) FAR 6901 U 0.00
expand: MAIN (5, 0) FAR  w(0) 6901.
	create_child: MAIN (4, 9) FAR 7918 U 0.00
expand: MAIN (4, 0) FAR  w(0) 7918.
	create_child: MAIN (3, 9) FAR 8677 U 0.00
expand: MAIN (3, 0) FAR  w(0) 8677.
	create_child: MAIN (2, 9) FAR 9493 U 0.00
expand: MAIN (2, 0) FAR  w(0) 9493.
	create_child: top_step (1, 9) FAR 9370 U 0.00
expand: top_step (1, 0) FAR  w(0) 9370.
	create_child: voiture_step (0, 9) FAR 9029 U 0.00
expand: voiture_step (0, 0) FAR  w(0) 9029. F 0.00
expand: top_step (1, 0) FAR  w(0) 9370. F 0.00
expand: MAIN (2, 0) FAR  w(0) 9493. F 0.00
expand: MAIN (3, 0) FAR  w(0) 8677.
	create_child: top_step (2, 9) FAR 9712 U 0.00
expand: top_step (2, 0) FAR  w(0) 9712.
	create_child: voiture_step (1, 9) FAR 9763 U 0.00
expand: voiture_step (1, 0) FAR  w(0) 9763. F 0.00
expand: top_step (2, 0) FAR  w(0) 9712. F 0.00
expand: MAIN (3, 0) FAR  w(0) 8677. F 0.00
expand: MAIN (4, 0) FAR  w(0) 7918. F 0.00
expand: MAIN (5, 0) FAR  w(0) 6901. F 0.00
expand: MAIN (6, 0) FAR  w(0) 5619. F 0.00
expand: MAIN (7, 0) FAR  w(0) 1157. F 0.00
expand: ERR (8, 0) FAR  w(0) 1. F 0.00
expand: query!0 (9, 0) FAR  w(0) 1. F 0.00
(spacer::context::check_reachability :time 0.02 :before-memory 17.38 :after-memory 17.48)
Propagating: 0 1 2 3 4 5 6 7 8 9  ! 10 
(spacer::context::propagate :time 0.00 :before-memory 17.48 :after-memory 17.48)
Entering level 10
BRUNCH_STAT max_query_lvl 9
BRUNCH_STAT num_queries 67
BRUNCH_STAT num_reach_queries 1
BRUNCH_STAT num_reach_reuse 49
BRUNCH_STAT inductive_lvl 0
BRUNCH_STAT max_depth 10
BRUNCH_STAT cex_depth 0
expand: query!0 (10, 0) FAR  w(0) 1.
	create_child: ERR (9, 10) FAR 1 U 0.00
expand: ERR (9, 0) FAR  w(0) 1.
	create_child: MAIN (8, 10) FAR 1157 U 0.00
expand: MAIN (8, 0) FAR  w(0) 1157.
	create_child: MAIN (7, 10) FAR 5619 U 0.00
expand: MAIN (7, 0) FAR  w(0) 5619.
	create_child: MAIN (6, 10) FAR 6901 U 0.00
expand: MAIN (6, 0) FAR  w(0) 6901.
	create_child: MAIN (5, 10) FAR 7918 U 0.00
expand: MAIN (5, 0) FAR  w(0) 7918.
	create_child: MAIN (4, 10) FAR 8677 U 0.00
expand: MAIN (4, 0) FAR  w(0) 8677.
	create_child: MAIN (3, 10) FAR 9493 U 0.00
expand: MAIN (3, 0) FAR  w(0) 9493.
	create_child: MAIN (2, 10) FAR 10320 U 0.00
expand: MAIN (2, 0) FAR  w(0) 10320.
	create_child: top_step (1, 10) FAR 10309 U 0.00
expand: top_step (1, 0) FAR  w(0) 10309.
	create_child: voiture_step (0, 10) FAR 10377 U 0.00
expand: voiture_step (0, 0) FAR  w(0) 10377. F 0.00
expand: top_step (1, 0) FAR  w(0) 10309. F 0.00
expand: MAIN (2, 0) FAR  w(0) 10320. F 0.00
expand: MAIN (3, 0) FAR  w(0) 9493.
	create_child: top_step (2, 10) FAR 10554 U 0.00
expand: top_step (2, 0) FAR  w(0) 10554.
	create_child: voiture_step (1, 10) FAR 10606 U 0.00
expand: voiture_step (1, 0) FAR  w(0) 10606. F 0.00
expand: top_step (2, 0) FAR  w(0) 10554. F 0.00
expand: MAIN (3, 0) FAR  w(0) 9493. F 0.00
expand: MAIN (4, 0) FAR  w(0) 8677. F 0.00
expand: MAIN (5, 0) FAR  w(0) 7918. F 0.00
expand: MAIN (6, 0) FAR  w(0) 6901. F 0.00
expand: MAIN (7, 0) FAR  w(0) 5619. F 0.00
expand: MAIN (8, 0) FAR  w(0) 1157. F 0.00
expand: ERR (9, 0) FAR  w(0) 1. F 0.00
expand: query!0 (10, 0) FAR  w(0) 1. F 0.00
(spacer::context::check_reachability :time 0.03 :before-memory 17.48 :after-memory 17.57)
Propagating: 0 1 2 3 4 5 6 7 8 9 10  ! 11 
(spacer::context::propagate :time 0.00 :before-memory 17.57 :after-memory 17.57)
Entering level 11
BRUNCH_STAT max_query_lvl 10
BRUNCH_STAT num_queries 79
BRUNCH_STAT num_reach_queries 1
BRUNCH_STAT num_reach_reuse 59
BRUNCH_STAT inductive_lvl 0
BRUNCH_STAT max_depth 11
BRUNCH_STAT cex_depth 0
expand: query!0 (11, 0) FAR  w(0) 1.
	create_child: ERR (10, 11) FAR 1 U 0.00
expand: ERR (10, 0) FAR  w(0) 1.
	create_child: MAIN (9, 11) FAR 1157 U 0.00
expand: MAIN (9, 0) FAR  w(0) 1157.
	create_child: MAIN (8, 11) FAR 5619 U 0.00
expand: MAIN (8, 0) FAR  w(0) 5619.
	create_child: MAIN (7, 11) FAR 6901 U 0.00
expand: MAIN (7, 0) FAR  w(0) 6901.
	create_child: MAIN (6, 11) FAR 7918 U 0.00
expand: MAIN (6, 0) FAR  w(0) 7918.
	create_child: MAIN (5, 11) FAR 8677 U 0.00
expand: MAIN (5, 0) FAR  w(0) 8677.
	create_child: MAIN (4, 11) FAR 9493 U 0.00
expand: MAIN (4, 0) FAR  w(0) 9493.
	create_child: MAIN (3, 11) FAR 10320 U 0.00
expand: MAIN (3, 0) FAR  w(0) 10320.
	create_child: MAIN (2, 11) FAR 11063 U 0.00
expand: MAIN (2, 0) FAR  w(0) 11063.
	create_child: top_step (1, 11) FAR 11194 U 0.00
expand: top_step (1, 0) FAR  w(0) 11194.
	create_child: voiture_step (0, 11) FAR 10619 U 0.00
expand: voiture_step (0, 0) FAR  w(0) 10619. F 0.00
expand: top_step (1, 0) FAR  w(0) 11194. F 0.00
expand: MAIN (2, 0) FAR  w(0) 11063. F 0.00
expand: MAIN (3, 0) FAR  w(0) 10320.
	create_child: top_step (2, 11) FAR 11445 U 0.00
expand: top_step (2, 0) FAR  w(0) 11445.
	create_child: voiture_step (1, 11) FAR 11505 U 0.00
expand: voiture_step (1, 0) FAR  w(0) 11505. F 0.00
expand: top_step (2, 0) FAR  w(0) 11445. F 0.00
expand: MAIN (3, 0) FAR  w(0) 10320. F 0.00
expand: MAIN (4, 0) FAR  w(0) 9493. F 0.00
expand: MAIN (5, 0) FAR  w(0) 8677. F 0.00
expand: MAIN (6, 0) FAR  w(0) 7918. F 0.00
expand: MAIN (7, 0) FAR  w(0) 6901. F 0.00
expand: MAIN (8, 0) FAR  w(0) 5619. F 0.00
expand: MAIN (9, 0) FAR  w(0) 1157. F 0.00
expand: ERR (10, 0) FAR  w(0) 1. F 0.00
expand: query!0 (11, 0) FAR  w(0) 1. F 0.00
(spacer::context::check_reachability :time 0.03 :before-memory 17.57 :after-memory 17.96)
Propagating: 0 1 2 3 4 5 6 7 8 9 10 11  ! 12 
(spacer::context::propagate :time 0.00 :before-memory 17.96 :after-memory 17.96)
Entering level 12
BRUNCH_STAT max_query_lvl 11
BRUNCH_STAT num_queries 92
BRUNCH_STAT num_reach_queries 1
BRUNCH_STAT num_reach_reuse 70
BRUNCH_STAT inductive_lvl 0
BRUNCH_STAT max_depth 12
BRUNCH_STAT cex_depth 0
expand: query!0 (12, 0) FAR  w(0) 1.
	create_child: ERR (11, 12) FAR 1 U 0.00
expand: ERR (11, 0) FAR  w(0) 1.
	create_child: MAIN (10, 12) FAR 1157 U 0.00
expand: MAIN (10, 0) FAR  w(0) 1157.
	create_child: MAIN (9, 12) FAR 5619 U 0.00
expand: MAIN (9, 0) FAR  w(0) 5619.
	create_child: MAIN (8, 12) FAR 6901 U 0.00
expand: MAIN (8, 0) FAR  w(0) 6901.
	create_child: MAIN (7, 12) FAR 7918 U 0.00
expand: MAIN (7, 0) FAR  w(0) 7918.
	create_child: MAIN (6, 12) FAR 8677 U 0.00
expand: MAIN (6, 0) FAR  w(0) 8677.
	create_child: MAIN (5, 12) FAR 9493 U 0.00
expand: MAIN (5, 0) FAR  w(0) 9493.
	create_child: MAIN (4, 12) FAR 10320 U 0.00
expand: MAIN (4, 0) FAR  w(0) 10320.
	create_child: MAIN (3, 12) FAR 11063 U 0.00
expand: MAIN (3, 0) FAR  w(0) 11063.
	create_child: MAIN (2, 12) FAR 12159 U 0.00
expand: MAIN (2, 0) FAR  w(0) 12159.
	create_child: top_step (1, 12) FAR 12038 U 0.00
expand: top_step (1, 0) FAR  w(0) 12038.
	create_child: voiture_step (0, 12) FAR 11587 U 0.00
expand: voiture_step (0, 0) FAR  w(0) 11587. F 0.00
expand: top_step (1, 0) FAR  w(0) 12038. F 0.00
expand: MAIN (2, 0) FAR  w(0) 12159. F 0.00
expand: MAIN (3, 0) FAR  w(0) 11063.
	create_child: top_step (2, 12) FAR 12382 U 0.00
expand: top_step (2, 0) FAR  w(0) 12382.
	create_child: voiture_step (1, 12) FAR 12434 U 0.00
expand: voiture_step (1, 0) FAR  w(0) 12434. F 0.00
expand: top_step (2, 0) FAR  w(0) 12382. F 0.00
expand: MAIN (3, 0) FAR  w(0) 11063. F 0.00
expand: MAIN (4, 0) FAR  w(0) 10320. F 0.00
expand: MAIN (5, 0) FAR  w(0) 9493. F 0.00
expand: MAIN (6, 0) FAR  w(0) 8677. F 0.00
expand: MAIN (7, 0) FAR  w(0) 7918. F 0.00
expand: MAIN (8, 0) FAR  w(0) 6901. F 0.00
expand: MAIN (9, 0) FAR  w(0) 5619. F 0.00
expand: MAIN (10, 0) FAR  w(0) 1157. F 0.00
expand: ERR (11, 0) FAR  w(0) 1. F 0.00
expand: query!0 (12, 0) FAR  w(0) 1. F 0.00
(spacer::context::check_reachability :time 0.03 :before-memory 17.96 :after-memory 18.35)
Propagating: 0 1 2 3 4 5 6 7 8 9 10 11 12  ! 13 
(spacer::context::propagate :time 0.00 :before-memory 18.35 :after-memory 18.35)
Entering level 13
BRUNCH_STAT max_query_lvl 12
BRUNCH_STAT num_queries 106
BRUNCH_STAT num_reach_queries 1
BRUNCH_STAT num_reach_reuse 82
BRUNCH_STAT inductive_lvl 0
BRUNCH_STAT max_depth 13
BRUNCH_STAT cex_depth 0
expand: query!0 (13, 0) FAR  w(0) 1.
	create_child: ERR (12, 13) FAR 1 U 0.00
expand: ERR (12, 0) FAR  w(0) 1.
	create_child: MAIN (11, 13) FAR 1157 U 0.00
expand: MAIN (11, 0) FAR  w(0) 1157.
	create_child: MAIN (10, 13) FAR 5619 U 0.00
expand: MAIN (10, 0) FAR  w(0) 5619.
	create_child: MAIN (9, 13) FAR 6901 U 0.00
expand: MAIN (9, 0) FAR  w(0) 6901.
	create_child: MAIN (8, 13) FAR 7918 U 0.00
expand: MAIN (8, 0) FAR  w(0) 7918.
	create_child: MAIN (7, 13) FAR 8677 U 0.00
expand: MAIN (7, 0) FAR  w(0) 8677.
	create_child: MAIN (6, 13) FAR 9493 U 0.00
expand: MAIN (6, 0) FAR  w(0) 9493.
	create_child: MAIN (5, 13) FAR 10320 U 0.00
expand: MAIN (5, 0) FAR  w(0) 10320.
	create_child: MAIN (4, 13) FAR 11063 U 0.00
expand: MAIN (4, 0) FAR  w(0) 11063.
	create_child: MAIN (3, 13) FAR 12159 U 0.00
expand: MAIN (3, 0) FAR  w(0) 12159.
	create_child: MAIN (2, 13) FAR 13141 U 0.00
expand: MAIN (2, 0) FAR  w(0) 13141.
	create_child: top_step (1, 13) FAR 13142 U 0.00
expand: top_step (1, 0) FAR  w(0) 13142.
	create_child: voiture_step (0, 13) FAR 13209 U 0.00
expand: voiture_step (0, 0) FAR  w(0) 13209. F 0.00
expand: top_step (1, 0) FAR  w(0) 13142. F 0.00
expand: MAIN (2, 0) FAR  w(0) 13141. F 0.00
expand: MAIN (3, 0) FAR  w(0) 12159.
	create_child: top_step (2, 13) FAR 13377 U 0.00
expand: top_step (2, 0) FAR  w(0) 13377.
	create_child: voiture_step (1, 13) FAR 13490 U 0.00
expand: voiture_step (1, 0) FAR  w(0) 13490. F 0.00
expand: top_step (2, 0) FAR  w(0) 13377. F 0.00
expand: MAIN (3, 0) FAR  w(0) 12159. F 0.00
expand: MAIN (4, 0) FAR  w(0) 11063. F 0.00
expand: MAIN (5, 0) FAR  w(0) 10320. F 0.00
expand: MAIN (6, 0) FAR  w(0) 9493. F 0.00
expand: MAIN (7, 0) FAR  w(0) 8677. F 0.00
expand: MAIN (8, 0) FAR  w(0) 7918. F 0.00
expand: MAIN (9, 0) FAR  w(0) 6901. F 0.00
expand: MAIN (10, 0) FAR  w(0) 5619. F 0.00
expand: MAIN (11, 0) FAR  w(0) 1157. F 0.00
expand: ERR (12, 0) FAR  w(0) 1. F 0.00
expand: query!0 (13, 0) FAR  w(0) 1. F 0.00
(spacer::context::check_reachability :time 0.03 :before-memory 18.35 :after-memory 18.54)
Propagating: 0 1 2 3 4 5 6 7 8 9 10 11 12 13  ! 14 
(spacer::context::propagate :time 0.00 :before-memory 18.54 :after-memory 18.54)
Entering level 14
BRUNCH_STAT max_query_lvl 13
BRUNCH_STAT num_queries 121
BRUNCH_STAT num_reach_queries 1
BRUNCH_STAT num_reach_reuse 95
BRUNCH_STAT inductive_lvl 0
BRUNCH_STAT max_depth 14
BRUNCH_STAT cex_depth 0
expand: query!0 (14, 0) FAR  w(0) 1.
	create_child: ERR (13, 14) FAR 1 U 0.00
expand: ERR (13, 0) FAR  w(0) 1.
	create_child: MAIN (12, 14) FAR 1157 U 0.00
expand: MAIN (12, 0) FAR  w(0) 1157.
	create_child: MAIN (11, 14) FAR 5619 U 0.00
expand: MAIN (11, 0) FAR  w(0) 5619.
	create_child: MAIN (10, 14) FAR 6901 U 0.00
expand: MAIN (10, 0) FAR  w(0) 6901.
	create_child: MAIN (9, 14) FAR 7918 U 0.00
expand: MAIN (9, 0) FAR  w(0) 7918.
	create_child: MAIN (8, 14) FAR 8677 U 0.00
expand: MAIN (8, 0) FAR  w(0) 8677.
	create_child: MAIN (7, 14) FAR 9493 U 0.00
expand: MAIN (7, 0) FAR  w(0) 9493.
	create_child: MAIN (6, 14) FAR 10320 U 0.00
expand: MAIN (6, 0) FAR  w(0) 10320.
	create_child: MAIN (5, 14) FAR 11063 U 0.00
expand: MAIN (5, 0) FAR  w(0) 11063.
	create_child: MAIN (4, 14) FAR 12159 U 0.00
expand: MAIN (4, 0) FAR  w(0) 12159.
	create_child: MAIN (3, 14) FAR 13141 U 0.00
expand: MAIN (3, 0) FAR  w(0) 13141.
	create_child: MAIN (2, 14) FAR 14069 U 0.00
expand: MAIN (2, 0) FAR  w(0) 14069.
	create_child: top_step (1, 14) FAR 14070 U 0.00
expand: top_step (1, 0) FAR  w(0) 14070.
	create_child: top_reset (1, 14) FAR 14483 X 0.00
expand: top_reset (1, 0) FAR  w(0) 14483. T 0.00
is-reachable: MAIN (2, 0) FAR 14069 T 0.00
is-reachable: MAIN (3, 0) FAR 13141 T 0.00
is-reachable: MAIN (4, 0) FAR 12159 T 0.00
is-reachable: MAIN (5, 0) FAR 11063 T 0.00
is-reachable: MAIN (6, 0) FAR 10320 T 0.00
is-reachable: MAIN (7, 0) FAR 9493 T 0.00
is-reachable: MAIN (8, 0) FAR 8677 T 0.00
is-reachable: MAIN (9, 0) FAR 7918 T 0.00
is-reachable: MAIN (10, 0) FAR 6901 T 0.00
is-reachable: MAIN (11, 0) FAR 5619 T 0.00
is-reachable: MAIN (12, 0) FAR 1157 T 0.00
is-reachable: ERR (13, 0) FAR 1 T 0.00
is-reachable: query!0 (14, 0) FAR 1 T 0.00
(spacer::context::check_reachability :time 0.03 :before-memory 18.54 :after-memory 19.27)
BRUNCH_STAT max_query_lvl 14
BRUNCH_STAT num_queries 134
BRUNCH_STAT num_reach_queries 16
BRUNCH_STAT num_reach_reuse 110
BRUNCH_STAT inductive_lvl 0
BRUNCH_STAT max_depth 14
BRUNCH_STAT cex_depth 14
(:SPACER-cex-depth                     14
 :SPACER-max-depth                     14
 :SPACER-max-query-lvl                 14
 :SPACER-num-invariants                48
 :SPACER-num-lemmas                    135
 :SPACER-num-properties                63
 :SPACER-num-queries                   134
 :SPACER-num-reach-queries             16
 :SPACER-num-reuse-reach-facts         110
 :added-eqs                            8653
 :arith-add-rows                       733
 :arith-assert-diseq                   4035
 :arith-assert-lower                   7760
 :arith-assert-upper                   12470
 :arith-bound-prop                     302
 :arith-conflicts                      89
 :arith-eq-adapter                     2224
 :arith-fixed-eqs                      1666
 :arith-offset-eqs                     720
 :arith-pivots                         574
 :bool-inductive-gen                   105
 :bool-inductive-gen-failures          152
 :conflicts                            733
 :decisions                            8769
 :del-clause                           733
 :final-checks                         375
 :minimized-lits                       10
 :mk-bool-var                          9398
 :mk-clause                            3801
 :num-checks                           1049
 :propagations                         83439
 :time.itp_solver.itp_core             0.02
 :time.spacer.init_rules               0.01
 :time.spacer.init_rules.pt.init       0.00
 :time.spacer.solve                    0.32
 :time.spacer.solve.propagate          0.03
 :time.spacer.solve.pt.must_reachable  0.00
 :time.spacer.solve.reach              0.29
 :time.spacer.solve.reach.children     0.06
 :time.spacer.solve.reach.gen.bool_ind 0.04
 :time.spacer.solve.reach.is-reach     0.02
 :time.virtual_solver.proof            0.01
 :time.virtual_solver.smt.total        0.20
 :time.virtual_solver.smt.total.sat    0.11
 :virtual_solver.checks                1049
 :virtual_solver.checks.sat            375)
BRUNCH_STAT max_query_lvl 14
BRUNCH_STAT num_queries 134
BRUNCH_STAT num_reach_queries 16
BRUNCH_STAT num_reach_reuse 110
BRUNCH_STAT inductive_lvl 0
BRUNCH_STAT max_depth 14
BRUNCH_STAT cex_depth 14

real	0m0.390s
user	0m0.356s
sys	0m0.032s
