(transform N7datalog13mk_coi_filterE...no-op 0s)
(transform N7datalog25mk_interp_tail_simplifierE...12 rules 0s)
(transform N7datalog27mk_quantifier_instantiationE...no-op 0s)
(transform N7datalog8mk_scaleE...no-op 0s)
(transform N7datalog18mk_karr_invariantsE...no-op 0s)
(transform N7datalog14mk_array_blastE...no-op 0s)
(transform N7datalog22mk_subsumption_checkerE...11 rules 0s)
(transform N7datalog12mk_bit_blastE...no-op 0s)
(transform N7datalog15mk_rule_inlinerE...no-op 0s)
(transform N7datalog13mk_coi_filterE...no-op 0s)
(transform N7datalog25mk_interp_tail_simplifierE...11 rules 0s)
(transform N7datalog22mk_subsumption_checkerE...no-op 0s)
(transform N7datalog15mk_rule_inlinerE...no-op 0s)
(transform N7datalog13mk_coi_filterE...no-op 0s)
(transform N7datalog25mk_interp_tail_simplifierE...11 rules 0s)
(transform N7datalog22mk_subsumption_checkerE...no-op 0s)
(transform N7datalog15mk_rule_inlinerE...no-op 0s)
(transform N7datalog22mk_subsumption_checkerE...no-op 0s)
(transform N7datalog15mk_rule_inlinerE...no-op 0s)
(transform N7datalog22mk_subsumption_checkerE...no-op 0s)
(transform N7datalog15mk_rule_inlinerE...no-op 0s)
(transform N7datalog22mk_subsumption_checkerE...no-op 0s)
expand: query!0 (0, 0) FAR  w(0) 1. F 0.00
(spacer::context::check_reachability :time 0.00 :before-memory 11.33 :after-memory 11.76)
Entering level 1
BRUNCH_STAT max_query_lvl 0
BRUNCH_STAT num_queries 0
BRUNCH_STAT num_reach_queries 0
BRUNCH_STAT num_reach_reuse 0
BRUNCH_STAT inductive_lvl 0
BRUNCH_STAT max_depth 1
BRUNCH_STAT cex_depth 0
expand: query!0 (1, 0) FAR  w(0) 1.
	create_child: ERR (0, 1) FAR 1 U 0.00
expand: ERR (0, 0) FAR  w(0) 1. F 0.00
expand: query!0 (1, 0) FAR  w(0) 1. F 0.00
(spacer::context::check_reachability :time 0.00 :before-memory 11.76 :after-memory 12.20)
Propagating: 0 1  ! 2 
(spacer::context::propagate :time 0.00 :before-memory 12.20 :after-memory 12.20)
Entering level 2
BRUNCH_STAT max_query_lvl 1
BRUNCH_STAT num_queries 1
BRUNCH_STAT num_reach_queries 0
BRUNCH_STAT num_reach_reuse 0
BRUNCH_STAT inductive_lvl 0
BRUNCH_STAT max_depth 2
BRUNCH_STAT cex_depth 0
expand: query!0 (2, 0) FAR  w(0) 1.
	create_child: ERR (1, 2) FAR 1 U 0.00
expand: ERR (1, 0) FAR  w(0) 1.
	create_child: MAIN (0, 2) FAR 1147 U 0.00
expand: MAIN (0, 0) FAR  w(0) 1147. F 0.00
expand: ERR (1, 0) FAR  w(0) 1. F 0.00
expand: query!0 (2, 0) FAR  w(0) 1. F 0.00
(spacer::context::check_reachability :time 0.00 :before-memory 12.20 :after-memory 12.66)
Propagating: 0 1 2  ! 3 
(spacer::context::propagate :time 0.00 :before-memory 12.66 :after-memory 12.66)
Entering level 3
BRUNCH_STAT max_query_lvl 2
BRUNCH_STAT num_queries 3
BRUNCH_STAT num_reach_queries 0
BRUNCH_STAT num_reach_reuse 0
BRUNCH_STAT inductive_lvl 0
BRUNCH_STAT max_depth 3
BRUNCH_STAT cex_depth 0
expand: query!0 (3, 0) FAR  w(0) 1.
	create_child: ERR (2, 3) FAR 1 U 0.00
expand: ERR (2, 0) FAR  w(0) 1.
	create_child: MAIN (1, 3) FAR 1147 U 0.00
expand: MAIN (1, 0) FAR  w(0) 1147.
	create_child: top_step (0, 3) FAR 1557 U 0.00
expand: top_step (0, 0) FAR  w(0) 1557. F 0.00
expand: MAIN (1, 0) FAR  w(0) 1147. F 0.00
expand: ERR (2, 0) FAR  w(0) 1. F 0.00
expand: query!0 (3, 0) FAR  w(0) 1. F 0.00
(spacer::context::check_reachability :time 0.00 :before-memory 12.66 :after-memory 13.38)
Propagating: 0 1 2 3  ! 4 
(spacer::context::propagate :time 0.00 :before-memory 13.38 :after-memory 13.38)
Entering level 4
BRUNCH_STAT max_query_lvl 3
BRUNCH_STAT num_queries 6
BRUNCH_STAT num_reach_queries 0
BRUNCH_STAT num_reach_reuse 0
BRUNCH_STAT inductive_lvl 0
BRUNCH_STAT max_depth 4
BRUNCH_STAT cex_depth 0
expand: query!0 (4, 0) FAR  w(0) 1.
	create_child: ERR (3, 4) FAR 1 U 0.00
expand: ERR (3, 0) FAR  w(0) 1.
	create_child: MAIN (2, 4) FAR 1147 U 0.00
expand: MAIN (2, 0) FAR  w(0) 1147.
	create_child: top_step (1, 4) FAR 1557 U 0.00
expand: top_step (1, 0) FAR  w(0) 1557.
	create_child: top_reset (1, 4) FAR 3313 X 0.00
expand: top_reset (1, 0) FAR  w(0) 3313.
	create_child: voiture_reset (0, 4) FAR 3787 U 0.00
expand: voiture_reset (0, 0) FAR  w(0) 3787. F 0.00
expand: top_reset (1, 0) FAR  w(0) 3313. F 0.00
expand: MAIN (2, 0) FAR  w(0) 1147.
	create_child: top_step (1, 4) FAR 4349 U 0.00
expand: top_step (1, 0) FAR  w(0) 4349.
	create_child: voiture_step (0, 4) FAR 4382 U 0.00
expand: voiture_step (0, 0) FAR  w(0) 4382. F 0.00
expand: top_step (1, 0) FAR  w(0) 4349. F 0.00
expand: MAIN (2, 0) FAR  w(0) 1147. F 0.00
expand: ERR (3, 0) FAR  w(0) 1. F 0.00
expand: query!0 (4, 0) FAR  w(0) 1. F 0.00
(spacer::context::check_reachability :time 0.01 :before-memory 13.38 :after-memory 15.77)
Propagating: 0 1 2 3 4  ! 5 
(spacer::context::propagate :time 0.00 :before-memory 15.77 :after-memory 15.77)
Entering level 5
BRUNCH_STAT max_query_lvl 4
BRUNCH_STAT num_queries 12
BRUNCH_STAT num_reach_queries 1
BRUNCH_STAT num_reach_reuse 5
BRUNCH_STAT inductive_lvl 0
BRUNCH_STAT max_depth 5
BRUNCH_STAT cex_depth 0
expand: query!0 (5, 0) FAR  w(0) 1.
	create_child: ERR (4, 5) FAR 1 U 0.00
expand: ERR (4, 0) FAR  w(0) 1.
	create_child: MAIN (3, 5) FAR 1147 U 0.00
expand: MAIN (3, 0) FAR  w(0) 1147.
	create_child: MAIN (2, 5) FAR 5275 U 0.00
expand: MAIN (2, 0) FAR  w(0) 5275.
	create_child: top_step (1, 5) FAR 5378 U 0.00
expand: top_step (1, 0) FAR  w(0) 5378.
	create_child: Sofar_step (0, 5) FAR 5475 U 0.00
expand: Sofar_step (0, 0) FAR  w(0) 5475. F 0.00
expand: top_step (1, 0) FAR  w(0) 5378.
	create_child: voiture_step (0, 5) FAR 5692 U 0.00
expand: voiture_step (0, 0) FAR  w(0) 5692. F 0.00
expand: top_step (1, 0) FAR  w(0) 5378. F 0.00
expand: MAIN (2, 0) FAR  w(0) 5275. F 0.00
expand: MAIN (3, 0) FAR  w(0) 1147.
	create_child: MAIN (2, 5) FAR 5941 U 0.00
expand: MAIN (2, 0) FAR  w(0) 5941.
	create_child: top_step (1, 5) FAR 5962 U 0.00
expand: top_step (1, 0) FAR  w(0) 5962.
	create_child: Sofar_step (0, 5) FAR 5844 U 0.00
expand: Sofar_step (0, 0) FAR  w(0) 5844.
	create_child: voiture_step (0, 5) FAR 6017 X 0.00
expand: voiture_step (0, 0) FAR  w(0) 6017. F 0.00
expand: top_step (1, 0) FAR  w(0) 5962. F 0.00
expand: MAIN (2, 0) FAR  w(0) 5941. F 0.00
expand: MAIN (3, 0) FAR  w(0) 1147.
	create_child: MAIN (2, 5) FAR 6450 U 0.00
expand: MAIN (2, 0) FAR  w(0) 6450.
	create_child: top_step (1, 5) FAR 6477 U 0.00
expand: top_step (1, 0) FAR  w(0) 6477.
	create_child: Sofar_step (0, 5) FAR 5844 U 0.00
expand: Sofar_step (0, 0) FAR  w(0) 5844.
	create_child: voiture_step (0, 5) FAR 6553 X 0.00
expand: voiture_step (0, 0) FAR  w(0) 6553. F 0.00
expand: top_step (1, 0) FAR  w(0) 6477. F 0.00
expand: MAIN (2, 0) FAR  w(0) 6450. F 0.00
expand: MAIN (3, 0) FAR  w(0) 1147.
	create_child: top_step (2, 5) FAR 6690 U 0.00
expand: top_step (2, 0) FAR  w(0) 6690.
	create_child: voiture_step (1, 5) FAR 6722 U 0.00
expand: voiture_step (1, 0) FAR  w(0) 6722. F 0.00
expand: top_step (2, 0) FAR  w(0) 6690. F 0.00
expand: MAIN (3, 0) FAR  w(0) 1147.
	create_child: top_step (2, 5) FAR 6840 U 0.00
expand: top_step (2, 0) FAR  w(0) 6840.
	create_child: MAIN (2, 5) FAR 6948 X 0.00
expand: MAIN (2, 0) FAR  w(0) 6948.
	create_child: top_reset (1, 5) FAR 7325 U 0.00
expand: top_reset (1, 0) FAR  w(0) 7325. T 0.00
is-reachable: MAIN (2, 0) FAR 6948 T 0.00
is-reachable: MAIN (3, 0) FAR 1147 T 0.00
is-reachable: ERR (4, 0) FAR 1 T 0.00
is-reachable: query!0 (5, 0) FAR 1 T 0.00
(spacer::context::check_reachability :time 0.04 :before-memory 15.77 :after-memory 17.74)
BRUNCH_STAT max_query_lvl 5
BRUNCH_STAT num_queries 28
BRUNCH_STAT num_reach_queries 7
BRUNCH_STAT num_reach_reuse 21
BRUNCH_STAT inductive_lvl 0
BRUNCH_STAT max_depth 5
BRUNCH_STAT cex_depth 5
(:SPACER-cex-depth                     5
 :SPACER-max-depth                     5
 :SPACER-max-query-lvl                 5
 :SPACER-num-invariants                13
 :SPACER-num-lemmas                    29
 :SPACER-num-properties                21
 :SPACER-num-queries                   28
 :SPACER-num-reach-queries             7
 :SPACER-num-reuse-reach-facts         21
 :added-eqs                            1222
 :arith-add-rows                       99
 :arith-assert-diseq                   199
 :arith-assert-lower                   463
 :arith-assert-upper                   876
 :arith-bound-prop                     77
 :arith-conflicts                      14
 :arith-eq-adapter                     335
 :arith-fixed-eqs                      187
 :arith-offset-eqs                     100
 :arith-pivots                         120
 :bool-inductive-gen                   17
 :bool-inductive-gen-failures          27
 :conflicts                            122
 :decisions                            1815
 :del-clause                           294
 :final-checks                         82
 :mk-bool-var                          2109
 :mk-clause                            1974
 :num-checks                           185
 :propagations                         10336
 :time.itp_solver.itp_core             0.00
 :time.spacer.init_rules               0.01
 :time.spacer.init_rules.pt.init       0.00
 :time.spacer.solve                    0.06
 :time.spacer.solve.propagate          0.00
 :time.spacer.solve.pt.must_reachable  0.00
 :time.spacer.solve.reach              0.06
 :time.spacer.solve.reach.children     0.01
 :time.spacer.solve.reach.gen.bool_ind 0.01
 :time.spacer.solve.reach.is-reach     0.00
 :time.virtual_solver.proof            0.00
 :time.virtual_solver.smt.total        0.04
 :time.virtual_solver.smt.total.sat    0.02
 :virtual_solver.checks                185
 :virtual_solver.checks.sat            82)
BRUNCH_STAT max_query_lvl 5
BRUNCH_STAT num_queries 28
BRUNCH_STAT num_reach_queries 7
BRUNCH_STAT num_reach_reuse 21
BRUNCH_STAT inductive_lvl 0
BRUNCH_STAT max_depth 5
BRUNCH_STAT cex_depth 5

real	0m0.094s
user	0m0.084s
sys	0m0.008s
