(transform N7datalog13mk_coi_filterE...no-op 0s)
(transform N7datalog25mk_interp_tail_simplifierE...7 rules 0.00183196s)
(transform N7datalog27mk_quantifier_instantiationE...no-op 0s)
(transform N7datalog8mk_scaleE...no-op 0s)
(transform N7datalog18mk_karr_invariantsE...no-op 0s)
(transform N7datalog14mk_array_blastE...no-op 0s)
(transform N7datalog22mk_subsumption_checkerE...6 rules 0s)
(transform N7datalog12mk_bit_blastE...no-op 0s)
(transform N7datalog15mk_rule_inlinerE...no-op 0s)
(transform N7datalog13mk_coi_filterE...no-op 0s)
(transform N7datalog25mk_interp_tail_simplifierE...6 rules 0s)
(transform N7datalog22mk_subsumption_checkerE...no-op 0s)
(transform N7datalog15mk_rule_inlinerE...no-op 0s)
(transform N7datalog13mk_coi_filterE...no-op 0s)
(transform N7datalog25mk_interp_tail_simplifierE...6 rules 0s)
(transform N7datalog22mk_subsumption_checkerE...no-op 0s)
(transform N7datalog15mk_rule_inlinerE...no-op 0s)
(transform N7datalog22mk_subsumption_checkerE...no-op 0s)
(transform N7datalog15mk_rule_inlinerE...no-op 0s)
(transform N7datalog22mk_subsumption_checkerE...no-op 0s)
(transform N7datalog15mk_rule_inlinerE...no-op 0s)
(transform N7datalog22mk_subsumption_checkerE...no-op 0s)
expand: query!0 (0, 0) FAR  w(0) 1. F 0.00
(spacer::context::check_reachability :time 0.00 :before-memory 7.85 :after-memory 8.25)
Entering level 1
BRUNCH_STAT max_query_lvl 0
BRUNCH_STAT num_queries 0
BRUNCH_STAT num_reach_queries 0
BRUNCH_STAT num_reach_reuse 0
BRUNCH_STAT inductive_lvl 0
BRUNCH_STAT max_depth 1
BRUNCH_STAT cex_depth 0
expand: query!0 (1, 0) FAR  w(0) 1.
	create_child: ERR (0, 1) FAR 1 U 0.00
expand: ERR (0, 0) FAR  w(0) 1. F 0.00
expand: query!0 (1, 0) FAR  w(0) 1. F 0.00
(spacer::context::check_reachability :time 0.00 :before-memory 8.25 :after-memory 8.71)
Propagating: 0 1  ! 2 
(spacer::context::propagate :time 0.00 :before-memory 8.71 :after-memory 8.71)
Entering level 2
BRUNCH_STAT max_query_lvl 1
BRUNCH_STAT num_queries 1
BRUNCH_STAT num_reach_queries 0
BRUNCH_STAT num_reach_reuse 0
BRUNCH_STAT inductive_lvl 0
BRUNCH_STAT max_depth 2
BRUNCH_STAT cex_depth 0
expand: query!0 (2, 0) FAR  w(0) 1.
	create_child: ERR (1, 2) FAR 1 U 0.00
expand: ERR (1, 0) FAR  w(0) 1.
	create_child: MAIN (0, 2) FAR 6281 U 0.00
expand: MAIN (0, 0) FAR  w(0) 6281. F 0.01
expand: ERR (1, 0) FAR  w(0) 1. F 0.00
expand: query!0 (2, 0) FAR  w(0) 1. F 0.00
(spacer::context::check_reachability :time 0.01 :before-memory 8.71 :after-memory 11.17)
Propagating: 0 1 2  ! 3 
(spacer::context::propagate :time 0.01 :before-memory 11.17 :after-memory 11.76)
Entering level 3
BRUNCH_STAT max_query_lvl 2
BRUNCH_STAT num_queries 3
BRUNCH_STAT num_reach_queries 0
BRUNCH_STAT num_reach_reuse 0
BRUNCH_STAT inductive_lvl 0
BRUNCH_STAT max_depth 3
BRUNCH_STAT cex_depth 0
expand: query!0 (3, 0) FAR  w(0) 1.
	create_child: ERR (2, 3) FAR 1 U 0.00
expand: ERR (2, 0) FAR  w(0) 1.
	create_child: MAIN (1, 3) FAR 6281 U 0.00
expand: MAIN (1, 0) FAR  w(0) 6281.
	create_child: top_step (0, 3) FAR 17750 U 0.00
expand: top_step (0, 0) FAR  w(0) 17750. F 0.02
expand: MAIN (1, 0) FAR  w(0) 6281.
	create_child: top_reset (0, 3) FAR 26513 U 0.02
expand: top_reset (0, 0) FAR  w(0) 26513. F 0.00
expand: MAIN (1, 0) FAR  w(0) 6281. F 0.00
expand: ERR (2, 0) FAR  w(0) 1. F 0.00
expand: query!0 (3, 0) FAR  w(0) 1. F 0.00
(spacer::context::check_reachability :time 0.04 :before-memory 11.76 :after-memory 15.72)
Propagating: 0 1 2 3  ! 4 
(spacer::context::propagate :time 0.00 :before-memory 15.72 :after-memory 15.72)
Entering level 4
BRUNCH_STAT max_query_lvl 3
BRUNCH_STAT num_queries 7
BRUNCH_STAT num_reach_queries 0
BRUNCH_STAT num_reach_reuse 2
BRUNCH_STAT inductive_lvl 0
BRUNCH_STAT max_depth 4
BRUNCH_STAT cex_depth 0
expand: query!0 (4, 0) FAR  w(0) 1.
	create_child: ERR (3, 4) FAR 1 U 0.00
expand: ERR (3, 0) FAR  w(0) 1.
	create_child: MAIN (2, 4) FAR 6281 U 0.00
expand: MAIN (2, 0) FAR  w(0) 6281.
	create_child: MAIN (1, 4) FAR 27350 U 0.01
expand: MAIN (1, 0) FAR  w(0) 27350.
	create_child: top_step (0, 4) FAR 27081 U 0.00
expand: top_step (0, 0) FAR  w(0) 27081. F 0.00
expand: MAIN (1, 0) FAR  w(0) 27350. F 0.00
expand: MAIN (2, 0) FAR  w(0) 6281.
	create_child: MAIN (1, 4) FAR 27870 U 0.01
expand: MAIN (1, 0) FAR  w(0) 27870.
	create_child: top_step (0, 4) FAR 27495 U 0.00
expand: top_step (0, 0) FAR  w(0) 27495. F 0.01
expand: MAIN (1, 0) FAR  w(0) 27870. F 0.00
expand: MAIN (2, 0) FAR  w(0) 6281.
	create_child: MAIN (1, 4) FAR 28476 U 0.01
expand: MAIN (1, 0) FAR  w(0) 28476.
	create_child: top_step (0, 4) FAR 28220 U 0.01
expand: top_step (0, 0) FAR  w(0) 28220. F 0.01
expand: MAIN (1, 0) FAR  w(0) 28476. F 0.01
expand: MAIN (2, 0) FAR  w(0) 6281.
	create_child: top_step (1, 4) FAR 28762 UNDEF 0.01
expand: top_step (1, 0) FAR  w(0) 28762. UNDEF 0.01
expand: top_step (1, 0) FAR  w(1) 28762.
	create_child: MAIN (1, 4) FAR 29771 X 0.02
expand: MAIN (1, 0) FAR  w(0) 29771.
	create_child: top_step (0, 4) FAR 29754 UNDEF 0.00
expand: top_step (0, 0) FAR  w(0) 29754. F 0.01
expand: MAIN (1, 0) FAR  w(0) 29771. F 0.00
expand: MAIN (2, 0) FAR  w(0) 6281.
	create_child: top_step (1, 4) FAR 30193 UNDEF 0.01
expand: top_step (1, 0) FAR  w(0) 30193. UNDEF 0.01
expand: top_step (1, 0) FAR  w(1) 30193.
	create_child: MAIN (1, 4) FAR 31216 X 0.01
expand: MAIN (1, 0) FAR  w(0) 31216.
	create_child: top_step (0, 4) FAR 30186 UNDEF 0.00
expand: top_step (0, 0) FAR  w(0) 30186. F 0.01
expand: MAIN (1, 0) FAR  w(0) 31216. F 0.00
expand: MAIN (2, 0) FAR  w(0) 6281.
	create_child: MAIN (1, 4) FAR 33000 U 0.02
expand: MAIN (1, 0) FAR  w(0) 33000.
	create_child: top_step (0, 4) FAR 33128 UNDEF 0.01
expand: top_step (0, 0) FAR  w(0) 33128. F 0.01
expand: MAIN (1, 0) FAR  w(0) 33000. F 0.01
expand: MAIN (2, 0) FAR  w(0) 6281.
	create_child: top_step (1, 4) FAR 34321 UNDEF 0.01
expand: top_step (1, 0) FAR  w(0) 34321. F 0.01
expand: MAIN (2, 0) FAR  w(0) 6281.
	create_child: top_step (1, 4) FAR 34042 UNDEF 0.00
expand: top_step (1, 0) FAR  w(0) 34042. F 0.01
expand: MAIN (2, 0) FAR  w(0) 6281. F 0.00
expand: ERR (3, 0) FAR  w(0) 1. F 0.00
expand: query!0 (4, 0) FAR  w(0) 1. F 0.00
(spacer::context::check_reachability :time 0.24 :before-memory 15.72 :after-memory 19.61)
Propagating: 0 1 2 3 4  ! 5 
(spacer::context::propagate :time 0.01 :before-memory 19.61 :after-memory 19.61)
Entering level 5
BRUNCH_STAT max_query_lvl 4
BRUNCH_STAT num_queries 23
BRUNCH_STAT num_reach_queries 0
BRUNCH_STAT num_reach_reuse 9
BRUNCH_STAT inductive_lvl 0
BRUNCH_STAT max_depth 5
BRUNCH_STAT cex_depth 0
expand: query!0 (5, 0) FAR  w(0) 1.
	create_child: ERR (4, 5) FAR 1 U 0.00
expand: ERR (4, 0) FAR  w(0) 1.
	create_child: MAIN (3, 5) FAR 6281 U 0.00
expand: MAIN (3, 0) FAR  w(0) 6281.
	create_child: top_step (2, 5) FAR 35719 UNDEF 0.01
expand: top_step (2, 0) FAR  w(0) 35719. UNDEF 0.00
expand: top_step (2, 0) FAR  w(1) 35719.
	create_child: MAIN (2, 5) FAR 31216 X 0.01
expand: MAIN (2, 0) FAR  w(0) 31216.
	create_child: top_step (1, 5) FAR 35697 UNDEF 0.01
expand: top_step (1, 0) FAR  w(0) 35697. F 0.01
expand: MAIN (2, 0) FAR  w(0) 31216. F 0.01
expand: MAIN (3, 0) FAR  w(0) 6281.
	create_child: top_step (2, 5) FAR 35938 UNDEF 0.00
expand: top_step (2, 0) FAR  w(0) 35938.
	create_child: MAIN (2, 5) FAR 36253 X 0.01
expand: MAIN (2, 0) FAR  w(0) 36253.
	create_child: top_step (1, 5) FAR 35885 UNDEF 0.01
expand: top_step (1, 0) FAR  w(0) 35885. F 0.02
expand: MAIN (2, 0) FAR  w(0) 36253.
	create_child: top_step (1, 5) FAR 37043 UNDEF 0.01
expand: top_step (1, 0) FAR  w(0) 37043. F 0.01
expand: MAIN (2, 0) FAR  w(0) 36253. F 0.01
expand: MAIN (3, 0) FAR  w(0) 6281.
	create_child: top_step (2, 5) FAR 36303 UNDEF 0.00
expand: top_step (2, 0) FAR  w(0) 36303.
	create_child: MAIN (2, 5) FAR 37429 X 0.01
expand: MAIN (2, 0) FAR  w(0) 37429.
	create_child: top_step (1, 5) FAR 36368 UNDEF 0.01
expand: top_step (1, 0) FAR  w(0) 36368. F 0.01
expand: MAIN (2, 0) FAR  w(0) 37429. F 0.00
expand: MAIN (3, 0) FAR  w(0) 6281.
	create_child: top_step (2, 5) FAR 36362 UNDEF 0.01
expand: top_step (2, 0) FAR  w(0) 36362. UNDEF 0.00
expand: top_step (2, 0) FAR  w(1) 36362.
	create_child: MAIN (2, 5) FAR 37698 X 0.02
expand: MAIN (2, 0) FAR  w(0) 37698.
	create_child: top_step (1, 5) FAR 38080 UNDEF 0.01
expand: top_step (1, 0) FAR  w(0) 38080. F 0.01
expand: MAIN (2, 0) FAR  w(0) 37698. F 0.00
expand: MAIN (3, 0) FAR  w(0) 6281.
	create_child: top_step (2, 5) FAR 38445 UNDEF 0.01
expand: top_step (2, 0) FAR  w(0) 38445. UNDEF 0.00
expand: top_step (2, 0) FAR  w(1) 38445.
	create_child: MAIN (2, 5) FAR 38458 X 0.01
expand: MAIN (2, 0) FAR  w(0) 38458.
	create_child: top_step (1, 5) FAR 38623 UNDEF 0.01
expand: top_step (1, 0) FAR  w(0) 38623. F 0.01
expand: MAIN (2, 0) FAR  w(0) 38458. F 0.01
expand: MAIN (3, 0) FAR  w(0) 6281.
	create_child: top_step (2, 5) FAR 38998 UNDEF 0.01
expand: top_step (2, 0) FAR  w(0) 38998. UNDEF 0.00
expand: top_step (2, 0) FAR  w(1) 38998.
	create_child: MAIN (2, 5) FAR 37715 X 0.01
expand: MAIN (2, 0) FAR  w(0) 37715.
	create_child: top_step (1, 5) FAR 38437 UNDEF 0.01
expand: top_step (1, 0) FAR  w(0) 38437. F 0.01
expand: MAIN (2, 0) FAR  w(0) 37715. F 0.01
expand: MAIN (3, 0) FAR  w(0) 6281.
	create_child: top_step (2, 5) FAR 40145 UNDEF 0.01
expand: top_step (2, 0) FAR  w(0) 40145. UNDEF 0.00
expand: top_step (2, 0) FAR  w(1) 40145.
	create_child: MAIN (2, 5) FAR 40756 X 0.02
expand: MAIN (2, 0) FAR  w(0) 40756. F 0.01
expand: MAIN (3, 0) FAR  w(0) 6281.
	create_child: top_step (2, 5) FAR 40431 UNDEF 0.01
expand: top_step (2, 0) FAR  w(0) 40431.
	create_child: MAIN (2, 5) FAR 40913 X 0.01
expand: MAIN (2, 0) FAR  w(0) 40913.
	create_child: top_step (1, 5) FAR 40051 UNDEF 0.01
expand: top_step (1, 0) FAR  w(0) 40051. F 0.01
expand: MAIN (2, 0) FAR  w(0) 40913. F 0.01
expand: MAIN (3, 0) FAR  w(0) 6281.
	create_child: top_step (2, 5) FAR 40859 UNDEF 0.00
expand: top_step (2, 0) FAR  w(0) 40859. UNDEF 0.00
expand: top_step (2, 0) FAR  w(1) 40859.
	create_child: MAIN (2, 5) FAR 41209 X 0.01
expand: MAIN (2, 0) FAR  w(0) 41209.
	create_child: top_step (1, 5) FAR 40742 UNDEF 0.01
expand: top_step (1, 0) FAR  w(0) 40742. F 0.01
expand: MAIN (2, 0) FAR  w(0) 41209. F 0.01
expand: MAIN (3, 0) FAR  w(0) 6281.
	create_child: top_step (2, 5) FAR 41467 UNDEF 0.01
expand: top_step (2, 0) FAR  w(0) 41467. UNDEF 0.00
expand: top_step (2, 0) FAR  w(1) 41467.
	create_child: MAIN (2, 5) FAR 41840 X 0.01
expand: MAIN (2, 0) FAR  w(0) 41840.
	create_child: top_step (1, 5) FAR 41588 UNDEF 0.01
expand: top_step (1, 0) FAR  w(0) 41588. F 0.01
expand: MAIN (2, 0) FAR  w(0) 41840. F 0.01
expand: MAIN (3, 0) FAR  w(0) 6281.
	create_child: top_step (2, 5) FAR 41969 UNDEF 0.01
expand: top_step (2, 0) FAR  w(0) 41969. F 0.03
expand: MAIN (3, 0) FAR  w(0) 6281.
	create_child: top_step (2, 5) FAR 42665 UNDEF 0.01
expand: top_step (2, 0) FAR  w(0) 42665. F 0.02
expand: MAIN (3, 0) FAR  w(0) 6281.
	create_child: top_step (2, 5) FAR 42721 UNDEF 0.01
expand: top_step (2, 0) FAR  w(0) 42721. F 0.01
expand: MAIN (3, 0) FAR  w(0) 6281.
	create_child: top_step (2, 5) FAR 42635 UNDEF 0.01
expand: top_step (2, 0) FAR  w(0) 42635. F 0.02
expand: MAIN (3, 0) FAR  w(0) 6281.
	create_child: top_step (2, 5) FAR 43695 UNDEF 0.01
expand: top_step (2, 0) FAR  w(0) 43695. F 0.02
expand: MAIN (3, 0) FAR  w(0) 6281. F 0.00
expand: ERR (4, 0) FAR  w(0) 1. F 0.00
expand: query!0 (5, 0) FAR  w(0) 1. F 0.00
(spacer::context::check_reachability :time 0.58 :before-memory 19.61 :after-memory 22.04)
Propagating: 1 2 3 4 5  ! 6 
(spacer::context::propagate :time 0.02 :before-memory 22.04 :after-memory 22.04)
Entering level 6
BRUNCH_STAT max_query_lvl 5
BRUNCH_STAT num_queries 50
BRUNCH_STAT num_reach_queries 0
BRUNCH_STAT num_reach_reuse 9
BRUNCH_STAT inductive_lvl 0
BRUNCH_STAT max_depth 6
BRUNCH_STAT cex_depth 0
expand: query!0 (6, 0) FAR  w(0) 1.
	create_child: ERR (5, 6) FAR 1 U 0.00
expand: ERR (5, 0) FAR  w(0) 1.
	create_child: MAIN (4, 6) FAR 6281 U 0.00
expand: MAIN (4, 0) FAR  w(0) 6281.
	create_child: top_step (3, 6) FAR 44246 UNDEF 0.01
expand: top_step (3, 0) FAR  w(0) 44246. UNDEF 0.00
expand: top_step (3, 0) FAR  w(1) 44246.
	create_child: MAIN (3, 6) FAR 44330 X 0.04
expand: MAIN (3, 0) FAR  w(0) 44330.
	create_child: top_step (2, 6) FAR 44207 UNDEF 0.01
expand: top_step (2, 0) FAR  w(0) 44207. F 0.01
expand: MAIN (3, 0) FAR  w(0) 44330. F 0.01
expand: MAIN (4, 0) FAR  w(0) 6281.
	create_child: top_step (3, 6) FAR 45032 UNDEF 0.01
expand: top_step (3, 0) FAR  w(0) 45032. UNDEF 0.00
expand: top_step (3, 0) FAR  w(1) 45032.
	create_child: MAIN (3, 6) FAR 45195 X 0.01
expand: MAIN (3, 0) FAR  w(0) 45195. F 0.01
expand: MAIN (4, 0) FAR  w(0) 6281.
	create_child: top_step (3, 6) FAR 45114 UNDEF 0.01
expand: top_step (3, 0) FAR  w(0) 45114. UNDEF 0.00
expand: top_step (3, 0) FAR  w(1) 45114.
	create_child: MAIN (3, 6) FAR 45696 X 0.01
expand: MAIN (3, 0) FAR  w(0) 45696.
	create_child: top_step (2, 6) FAR 45012 UNDEF 0.01
expand: top_step (2, 0) FAR  w(0) 45012. F 0.02
expand: MAIN (3, 0) FAR  w(0) 45696. F 0.01
expand: MAIN (4, 0) FAR  w(0) 6281.
	create_child: top_step (3, 6) FAR 45903 UNDEF 0.01
expand: top_step (3, 0) FAR  w(0) 45903. F 0.03
expand: MAIN (4, 0) FAR  w(0) 6281. F 0.00
expand: ERR (5, 0) FAR  w(0) 1. F 0.00
expand: query!0 (6, 0) FAR  w(0) 1. F 0.00
(spacer::context::check_reachability :time 0.20 :before-memory 22.04 :after-memory 22.43)
Propagating: 2 3 4 5 6  ! 7 
(spacer::context::propagate :time 0.04 :before-memory 22.43 :after-memory 22.43)
Entering level 7
BRUNCH_STAT max_query_lvl 6
BRUNCH_STAT num_queries 58
BRUNCH_STAT num_reach_queries 0
BRUNCH_STAT num_reach_reuse 9
BRUNCH_STAT inductive_lvl 0
BRUNCH_STAT max_depth 7
BRUNCH_STAT cex_depth 0
expand: query!0 (7, 0) FAR  w(0) 1.
	create_child: ERR (6, 7) FAR 1 U 0.00
expand: ERR (6, 0) FAR  w(0) 1.
	create_child: MAIN (5, 7) FAR 6281 U 0.00
expand: MAIN (5, 0) FAR  w(0) 6281.
	create_child: top_step (4, 7) FAR 45114 UNDEF 0.01
expand: top_step (4, 0) FAR  w(0) 45114. UNDEF 0.00
expand: top_step (4, 0) FAR  w(1) 45114.
	create_child: MAIN (4, 7) FAR 45696 X 0.01
expand: MAIN (4, 0) FAR  w(0) 45696.
	create_child: top_step (3, 7) FAR 45919 UNDEF 0.01
expand: top_step (3, 0) FAR  w(0) 45919. F 0.02
expand: MAIN (4, 0) FAR  w(0) 45696. F 0.01
expand: MAIN (5, 0) FAR  w(0) 6281. F 0.00
expand: ERR (6, 0) FAR  w(0) 1. F 0.00
expand: query!0 (7, 0) FAR  w(0) 1. F 0.00
(spacer::context::check_reachability :time 0.07 :before-memory 22.43 :after-memory 22.56)
Propagating: 3 
(spacer::context::propagate :time 0.00 :before-memory 22.56 :after-memory 22.56)
(define-fun ERR () Bool
  false)
(define-fun MAIN ((x!0 Int)
 (x!1 Int)
 (x!2 Bool)
 (x!3 Bool)
 (x!4 Int)
 (x!5 Int)
 (x!6 Int)
 (x!7 Real)
 (x!8 Real)
 (x!9 Bool)
 (x!10 Real)
 (x!11 Real)
 (x!12 Bool)
 (x!13 Bool)
 (x!14 Real)
 (x!15 Bool)
 (x!16 Bool)
 (x!17 Real)
 (x!18 Bool)
 (x!19 Bool)
 (x!20 Bool)
 (x!21 Bool)) Bool
  (let ((a!1 (or (>= (+ x!7 (* (- 1.0) x!11)) (- (/ 1.0 20.0))) x!9))
        (a!2 (or (>= (+ x!7 (* (- 1.0) x!10)) (- (/ 1.0 20.0)))
                 (not x!9)
                 (>= x!7 100.0))))
    (and (or (not (= x!6 5)) (not x!9))
         x!2
         x!21
         (>= x!7 0.0)
         (or (not (= x!6 5)) x!15)
         (or (<= x!0 0) x!9)
         a!1
         (or (not (<= x!6 4)) (not x!15))
         (or (not (<= x!6 4)) (not x!12))
         a!2
         (or (>= x!0 0) x!9)
         (or (<= x!10 100.0) (not x!9) (>= x!7 100.0)))))
(define-fun top_reset ((x!0 Int)
 (x!1 Int)
 (x!2 Bool)
 (x!3 Bool)
 (x!4 Int)
 (x!5 Int)
 (x!6 Int)
 (x!7 Real)
 (x!8 Real)
 (x!9 Bool)
 (x!10 Real)
 (x!11 Real)
 (x!12 Bool)
 (x!13 Bool)
 (x!14 Real)
 (x!15 Bool)
 (x!16 Bool)
 (x!17 Real)
 (x!18 Bool)
 (x!19 Bool)
 (x!20 Bool)
 (x!21 Int)
 (x!22 Int)
 (x!23 Bool)
 (x!24 Bool)
 (x!25 Int)
 (x!26 Int)
 (x!27 Int)
 (x!28 Real)
 (x!29 Real)
 (x!30 Bool)
 (x!31 Real)
 (x!32 Real)
 (x!33 Bool)
 (x!34 Bool)
 (x!35 Real)
 (x!36 Bool)
 (x!37 Bool)
 (x!38 Real)
 (x!39 Bool)
 (x!40 Bool)
 (x!41 Bool)) Bool
  x!41)
(define-fun top_step ((x!0 Bool)
 (x!1 Bool)
 (x!2 Bool)
 (x!3 Bool)
 (x!4 Bool)
 (x!5 Int)
 (x!6 Real)
 (x!7 Bool)
 (x!8 Bool)
 (x!9 Int)
 (x!10 Int)
 (x!11 Bool)
 (x!12 Bool)
 (x!13 Int)
 (x!14 Int)
 (x!15 Int)
 (x!16 Real)
 (x!17 Real)
 (x!18 Bool)
 (x!19 Real)
 (x!20 Real)
 (x!21 Bool)
 (x!22 Bool)
 (x!23 Real)
 (x!24 Bool)
 (x!25 Bool)
 (x!26 Real)
 (x!27 Bool)
 (x!28 Bool)
 (x!29 Bool)
 (x!30 Int)
 (x!31 Int)
 (x!32 Bool)
 (x!33 Bool)
 (x!34 Int)
 (x!35 Int)
 (x!36 Int)
 (x!37 Real)
 (x!38 Real)
 (x!39 Bool)
 (x!40 Real)
 (x!41 Real)
 (x!42 Bool)
 (x!43 Bool)
 (x!44 Real)
 (x!45 Bool)
 (x!46 Bool)
 (x!47 Real)
 (x!48 Bool)
 (x!49 Bool)
 (x!50 Bool)) Bool
  (let ((a!1 (or (>= (+ x!37 (* (- 1.0) x!41)) (- (/ 1.0 20.0))) x!39))
        (a!2 (or (>= (+ x!37 (* (- 1.0) x!40)) (- (/ 1.0 20.0)))
                 (not x!39)
                 (not (<= x!40 100.0))))
        (a!3 (not (>= (+ x!16 (* (- 1.0) x!20)) (- (/ 1.0 20.0)))))
        (a!4 (not (>= (+ x!16 (* (- 1.0) x!19)) (- (/ 1.0 20.0))))))
    (and (or (not (= x!9 0)) (not x!39) (not (>= x!36 5)))
         x!32
         (or (not x!29) x!8)
         (>= x!37 0.0)
         (or (not x!29) x!43)
         (or (not (= x!36 5)) x!45)
         (or (not x!42) (not x!29))
         (or (not x!45) (not x!29))
         (or (not (>= x!31 4)) (not x!29))
         (or (not (<= x!10 3)) x!8 (not (<= x!15 4)))
         (or (not (>= x!15 6)) x!8 (not (<= x!10 3)))
         (or (<= x!30 0) x!39)
         (or (not (<= x!10 3)) (not (>= x!36 5)) (not (<= x!15 4)))
         (or (= x!15 5) (not (= x!36 5)) (not (<= x!10 3)))
         (or x!43 (not x!22) x!21)
         a!1
         a!2
         (or (not (<= x!36 4)) (not x!42))
         (or (not (<= x!36 4)) (not x!45))
         (or (>= x!37 100.0) (not x!39) (<= x!40 100.0))
         (or a!3 x!18 x!8 (not (<= x!15 4)) (not (>= x!16 0.0)))
         (or a!3 x!18 x!8 (not (>= x!15 6)) (not (>= x!16 0.0)))
         (or (not (>= x!16 100.0)) x!8)
         (or (<= x!16 (/ 1999.0 20.0)) x!8 (= x!15 5))
         (or (>= x!30 0) x!39)
         (or a!4 (not x!18) x!8 (= x!15 5) (not (>= x!16 0.0)))
         (or (not (= x!9 0)) x!18 x!8 (not (>= x!16 0.0)) a!3)
         (or (= x!15 5) (not x!39) (not (= x!36 5))))))
BRUNCH_STAT max_query_lvl 7
BRUNCH_STAT num_queries 62
BRUNCH_STAT num_reach_queries 0
BRUNCH_STAT num_reach_reuse 9
BRUNCH_STAT inductive_lvl 3
BRUNCH_STAT max_depth 7
BRUNCH_STAT cex_depth 0
(:SPACER-expand-node-undef             53
 :SPACER-inductive-level               3
 :SPACER-max-depth                     7
 :SPACER-max-query-lvl                 7
 :SPACER-num-invariants                45
 :SPACER-num-lemmas                    70
 :SPACER-num-properties                49
 :SPACER-num-queries                   62
 :SPACER-num-reuse-reach-facts         9
 :added-eqs                            95125
 :arith-add-rows                       19585
 :arith-assert-diseq                   24020
 :arith-assert-lower                   43939
 :arith-assert-upper                   41680
 :arith-bound-prop                     2580
 :arith-conflicts                      157
 :arith-eq-adapter                     15119
 :arith-fixed-eqs                      8848
 :arith-gcd-tests                      2304
 :arith-gomory-cuts                    22
 :arith-ineq-splits                    115
 :arith-offset-eqs                     9927
 :arith-pivots                         4483
 :bool-inductive-gen                   54
 :bool-inductive-gen-failures          117
 :conflicts                            967
 :decisions                            69649
 :del-clause                           12737
 :final-checks                         512
 :interface-eqs                        26
 :minimized-lits                       323
 :mk-bool-var                          28253
 :mk-clause                            23955
 :num-checks                           558
 :propagations                         478272
 :time.itp_solver.itp_core             0.05
 :time.spacer.init_rules               0.01
 :time.spacer.init_rules.pt.init       0.00
 :time.spacer.solve                    1.23
 :time.spacer.solve.propagate          0.08
 :time.spacer.solve.pt.must_reachable  0.10
 :time.spacer.solve.reach              1.15
 :time.spacer.solve.reach.children     0.06
 :time.spacer.solve.reach.gen.bool_ind 0.38
 :time.virtual_solver.proof            0.03
 :time.virtual_solver.smt.total        1.04
 :time.virtual_solver.smt.total.sat    0.33
 :time.virtual_solver.smt.total.undef  0.48
 :virtual_solver.checks                558
 :virtual_solver.checks.sat            105
 :virtual_solver.checks.undef          162)
BRUNCH_STAT max_query_lvl 7
BRUNCH_STAT num_queries 62
BRUNCH_STAT num_reach_queries 0
BRUNCH_STAT num_reach_reuse 9
BRUNCH_STAT inductive_lvl 3
BRUNCH_STAT max_depth 7
BRUNCH_STAT cex_depth 0

real	0m1.351s
user	0m1.332s
sys	0m0.016s
