(transform N7datalog13mk_coi_filterE...no-op 0s)
(transform N7datalog25mk_interp_tail_simplifierE...7 rules 0.00181896s)
(transform N7datalog27mk_quantifier_instantiationE...no-op 0s)
(transform N7datalog8mk_scaleE...no-op 0s)
(transform N7datalog18mk_karr_invariantsE...no-op 0s)
(transform N7datalog14mk_array_blastE...no-op 0s)
(transform N7datalog22mk_subsumption_checkerE...6 rules 0s)
(transform N7datalog12mk_bit_blastE...no-op 0s)
(transform N7datalog15mk_rule_inlinerE...no-op 0s)
(transform N7datalog13mk_coi_filterE...no-op 0s)
(transform N7datalog25mk_interp_tail_simplifierE...6 rules 0s)
(transform N7datalog22mk_subsumption_checkerE...no-op 0s)
(transform N7datalog15mk_rule_inlinerE...no-op 0s)
(transform N7datalog13mk_coi_filterE...no-op 0s)
(transform N7datalog25mk_interp_tail_simplifierE...6 rules 0s)
(transform N7datalog22mk_subsumption_checkerE...no-op 0s)
(transform N7datalog15mk_rule_inlinerE...no-op 0s)
(transform N7datalog22mk_subsumption_checkerE...no-op 0s)
(transform N7datalog15mk_rule_inlinerE...no-op 0s)
(transform N7datalog22mk_subsumption_checkerE...no-op 0s)
(transform N7datalog15mk_rule_inlinerE...no-op 0s)
(transform N7datalog22mk_subsumption_checkerE...no-op 0s)
expand: query!0 (0, 0) FAR  w(0) 1. F 0.00
(spacer::context::check_reachability :time 0.00 :before-memory 7.87 :after-memory 8.27)
Entering level 1
BRUNCH_STAT max_query_lvl 0
BRUNCH_STAT num_queries 0
BRUNCH_STAT num_reach_queries 0
BRUNCH_STAT num_reach_reuse 0
BRUNCH_STAT inductive_lvl 0
BRUNCH_STAT max_depth 1
BRUNCH_STAT cex_depth 0
expand: query!0 (1, 0) FAR  w(0) 1.
	create_child: ERR (0, 1) FAR 1 U 0.00
expand: ERR (0, 0) FAR  w(0) 1. F 0.00
expand: query!0 (1, 0) FAR  w(0) 1. F 0.00
(spacer::context::check_reachability :time 0.00 :before-memory 8.27 :after-memory 8.73)
Propagating: 0 1  ! 2 
(spacer::context::propagate :time 0.00 :before-memory 8.73 :after-memory 8.73)
Entering level 2
BRUNCH_STAT max_query_lvl 1
BRUNCH_STAT num_queries 1
BRUNCH_STAT num_reach_queries 0
BRUNCH_STAT num_reach_reuse 0
BRUNCH_STAT inductive_lvl 0
BRUNCH_STAT max_depth 2
BRUNCH_STAT cex_depth 0
expand: query!0 (2, 0) FAR  w(0) 1.
	create_child: ERR (1, 2) FAR 1 U 0.00
expand: ERR (1, 0) FAR  w(0) 1.
	create_child: MAIN (0, 2) FAR 6327 U 0.00
expand: MAIN (0, 0) FAR  w(0) 6327. F 0.01
expand: ERR (1, 0) FAR  w(0) 1. F 0.00
expand: query!0 (2, 0) FAR  w(0) 1. F 0.00
(spacer::context::check_reachability :time 0.01 :before-memory 8.73 :after-memory 11.14)
Propagating: 0 1 2  ! 3 
(spacer::context::propagate :time 0.01 :before-memory 11.14 :after-memory 11.73)
Entering level 3
BRUNCH_STAT max_query_lvl 2
BRUNCH_STAT num_queries 3
BRUNCH_STAT num_reach_queries 0
BRUNCH_STAT num_reach_reuse 0
BRUNCH_STAT inductive_lvl 0
BRUNCH_STAT max_depth 3
BRUNCH_STAT cex_depth 0
expand: query!0 (3, 0) FAR  w(0) 1.
	create_child: ERR (2, 3) FAR 1 U 0.00
expand: ERR (2, 0) FAR  w(0) 1.
	create_child: MAIN (1, 3) FAR 6327 U 0.00
expand: MAIN (1, 0) FAR  w(0) 6327.
	create_child: top_step (0, 3) FAR 17602 U 0.00
expand: top_step (0, 0) FAR  w(0) 17602. F 0.02
expand: MAIN (1, 0) FAR  w(0) 6327.
	create_child: top_reset (0, 3) FAR 25881 U 0.01
expand: top_reset (0, 0) FAR  w(0) 25881. F 0.00
expand: MAIN (1, 0) FAR  w(0) 6327. F 0.00
expand: ERR (2, 0) FAR  w(0) 1. F 0.00
expand: query!0 (3, 0) FAR  w(0) 1. F 0.00
(spacer::context::check_reachability :time 0.03 :before-memory 11.73 :after-memory 15.58)
Propagating: 0 1 2 3  ! 4 
(spacer::context::propagate :time 0.00 :before-memory 15.58 :after-memory 15.58)
Entering level 4
BRUNCH_STAT max_query_lvl 3
BRUNCH_STAT num_queries 7
BRUNCH_STAT num_reach_queries 0
BRUNCH_STAT num_reach_reuse 2
BRUNCH_STAT inductive_lvl 0
BRUNCH_STAT max_depth 4
BRUNCH_STAT cex_depth 0
expand: query!0 (4, 0) FAR  w(0) 1.
	create_child: ERR (3, 4) FAR 1 U 0.00
expand: ERR (3, 0) FAR  w(0) 1.
	create_child: MAIN (2, 4) FAR 6327 U 0.00
expand: MAIN (2, 0) FAR  w(0) 6327.
	create_child: MAIN (1, 4) FAR 26508 U 0.01
expand: MAIN (1, 0) FAR  w(0) 26508.
	create_child: top_step (0, 4) FAR 26563 U 0.00
expand: top_step (0, 0) FAR  w(0) 26563. F 0.00
expand: MAIN (1, 0) FAR  w(0) 26508. F 0.00
expand: MAIN (2, 0) FAR  w(0) 6327.
	create_child: MAIN (1, 4) FAR 27413 U 0.01
expand: MAIN (1, 0) FAR  w(0) 27413.
	create_child: top_step (0, 4) FAR 27009 U 0.00
expand: top_step (0, 0) FAR  w(0) 27009. F 0.01
expand: MAIN (1, 0) FAR  w(0) 27413. F 0.00
expand: MAIN (2, 0) FAR  w(0) 6327.
	create_child: MAIN (1, 4) FAR 27993 U 0.01
expand: MAIN (1, 0) FAR  w(0) 27993.
	create_child: top_step (0, 4) FAR 27353 U 0.01
expand: top_step (0, 0) FAR  w(0) 27353. F 0.01
expand: MAIN (1, 0) FAR  w(0) 27993. F 0.00
expand: MAIN (2, 0) FAR  w(0) 6327.
	create_child: top_step (1, 4) FAR 27888 UNDEF 0.00
expand: top_step (1, 0) FAR  w(0) 27888. F 0.00
expand: MAIN (2, 0) FAR  w(0) 6327. F 0.00
expand: ERR (3, 0) FAR  w(0) 1. F 0.00
expand: query!0 (4, 0) FAR  w(0) 1. F 0.00
(spacer::context::check_reachability :time 0.06 :before-memory 15.58 :after-memory 16.47)
Propagating: 0 1 2 3 4  ! 5 
(spacer::context::propagate :time 0.01 :before-memory 16.47 :after-memory 16.47)
Entering level 5
BRUNCH_STAT max_query_lvl 4
BRUNCH_STAT num_queries 16
BRUNCH_STAT num_reach_queries 0
BRUNCH_STAT num_reach_reuse 8
BRUNCH_STAT inductive_lvl 0
BRUNCH_STAT max_depth 5
BRUNCH_STAT cex_depth 0
expand: query!0 (5, 0) FAR  w(0) 1.
	create_child: ERR (4, 5) FAR 1 U 0.00
expand: ERR (4, 0) FAR  w(0) 1.
	create_child: MAIN (3, 5) FAR 6327 U 0.00
expand: MAIN (3, 0) FAR  w(0) 6327.
	create_child: top_step (2, 5) FAR 28667 UNDEF 0.01
expand: top_step (2, 0) FAR  w(0) 28667. UNDEF 0.00
expand: top_step (2, 0) FAR  w(1) 28667.
	create_child: MAIN (2, 5) FAR 29144 X 0.02
expand: MAIN (2, 0) FAR  w(0) 29144.
	create_child: top_step (1, 5) FAR 28588 UNDEF 0.00
expand: top_step (1, 0) FAR  w(0) 28588. F 0.01
expand: MAIN (2, 0) FAR  w(0) 29144. F 0.01
expand: MAIN (3, 0) FAR  w(0) 6327.
	create_child: top_step (2, 5) FAR 29372 UNDEF 0.01
expand: top_step (2, 0) FAR  w(0) 29372. UNDEF 0.00
expand: top_step (2, 0) FAR  w(1) 29372.
	create_child: MAIN (2, 5) FAR 29696 X 0.01
expand: MAIN (2, 0) FAR  w(0) 29696.
	create_child: top_step (1, 5) FAR 29895 UNDEF 0.01
expand: top_step (1, 0) FAR  w(0) 29895. F 0.01
expand: MAIN (2, 0) FAR  w(0) 29696.
	create_child: top_step (1, 5) FAR 29655 UNDEF 0.00
expand: top_step (1, 0) FAR  w(0) 29655. F 0.01
expand: MAIN (2, 0) FAR  w(0) 29696. F 0.01
expand: MAIN (3, 0) FAR  w(0) 6327.
	create_child: top_step (2, 5) FAR 30594 UNDEF 0.01
expand: top_step (2, 0) FAR  w(0) 30594. UNDEF 0.01
expand: top_step (2, 0) FAR  w(1) 30594.
	create_child: MAIN (2, 5) FAR 31015 X 0.01
expand: MAIN (2, 0) FAR  w(0) 31015.
	create_child: top_step (1, 5) FAR 31047 UNDEF 0.01
expand: top_step (1, 0) FAR  w(0) 31047. F 0.01
expand: MAIN (2, 0) FAR  w(0) 31015.
	create_child: top_step (1, 5) FAR 31237 UNDEF 0.01
expand: top_step (1, 0) FAR  w(0) 31237. F 0.01
expand: MAIN (2, 0) FAR  w(0) 31015. F 0.01
expand: MAIN (3, 0) FAR  w(0) 6327.
	create_child: top_step (2, 5) FAR 31461 UNDEF 0.01
expand: top_step (2, 0) FAR  w(0) 31461. UNDEF 0.00
expand: top_step (2, 0) FAR  w(1) 31461.
	create_child: MAIN (2, 5) FAR 32015 X 0.01
expand: MAIN (2, 0) FAR  w(0) 32015.
	create_child: top_step (1, 5) FAR 31908 UNDEF 0.01
expand: top_step (1, 0) FAR  w(0) 31908. F 0.01
expand: MAIN (2, 0) FAR  w(0) 32015. F 0.01
expand: MAIN (3, 0) FAR  w(0) 6327.
	create_child: top_step (2, 5) FAR 32649 UNDEF 0.01
expand: top_step (2, 0) FAR  w(0) 32649. UNDEF 0.01
expand: top_step (2, 0) FAR  w(1) 32649.
	create_child: MAIN (2, 5) FAR 32968 X 0.01
expand: MAIN (2, 0) FAR  w(0) 32968.
	create_child: top_step (1, 5) FAR 33562 UNDEF 0.01
expand: top_step (1, 0) FAR  w(0) 33562.
	create_child: MAIN (1, 5) FAR 34537 X 0.02
expand: MAIN (1, 0) FAR  w(0) 34537.
	create_child: top_step (0, 5) FAR 34505 UNDEF 0.00
expand: top_step (0, 0) FAR  w(0) 34505. F 0.01
expand: MAIN (1, 0) FAR  w(0) 34537. F 0.00
expand: MAIN (2, 0) FAR  w(0) 32968.
	create_child: top_step (1, 5) FAR 34571 UNDEF 0.01
expand: top_step (1, 0) FAR  w(0) 34571.
	create_child: MAIN (1, 5) FAR 36350 X 0.02
expand: MAIN (1, 0) FAR  w(0) 36350.
	create_child: top_step (0, 5) FAR 36128 UNDEF 0.01
expand: top_step (0, 0) FAR  w(0) 36128. F 0.01
expand: MAIN (1, 0) FAR  w(0) 36350. F 0.00
expand: MAIN (2, 0) FAR  w(0) 32968. F 0.00
expand: MAIN (3, 0) FAR  w(0) 6327.
	create_child: top_step (2, 5) FAR 36546 UNDEF 0.01
expand: top_step (2, 0) FAR  w(0) 36546. UNDEF 0.01
expand: top_step (2, 0) FAR  w(1) 36546.
	create_child: MAIN (2, 5) FAR 37384 X 0.01
expand: MAIN (2, 0) FAR  w(0) 37384.
	create_child: top_step (1, 5) FAR 37137 UNDEF 0.00
expand: top_step (1, 0) FAR  w(0) 37137. F 0.01
expand: MAIN (2, 0) FAR  w(0) 37384. F 0.00
expand: MAIN (3, 0) FAR  w(0) 6327.
	create_child: top_step (2, 5) FAR 38180 UNDEF 0.01
expand: top_step (2, 0) FAR  w(0) 38180.
	create_child: MAIN (2, 5) FAR 38421 X 0.01
expand: MAIN (2, 0) FAR  w(0) 38421.
	create_child: top_step (1, 5) FAR 38374 UNDEF 0.00
expand: top_step (1, 0) FAR  w(0) 38374. F 0.01
expand: MAIN (2, 0) FAR  w(0) 38421. F 0.00
expand: MAIN (3, 0) FAR  w(0) 6327.
	create_child: top_step (2, 5) FAR 38645 UNDEF 0.01
expand: top_step (2, 0) FAR  w(0) 38645.
	create_child: MAIN (2, 5) FAR 38848 X 0.01
expand: MAIN (2, 0) FAR  w(0) 38848.
	create_child: top_step (1, 5) FAR 38575 UNDEF 0.00
expand: top_step (1, 0) FAR  w(0) 38575. F 0.01
expand: MAIN (2, 0) FAR  w(0) 38848. F 0.01
expand: MAIN (3, 0) FAR  w(0) 6327.
	create_child: top_step (2, 5) FAR 38741 UNDEF 0.01
expand: top_step (2, 0) FAR  w(0) 38741.
	create_child: MAIN (2, 5) FAR 39119 X 0.01
expand: MAIN (2, 0) FAR  w(0) 39119.
	create_child: top_step (1, 5) FAR 39692 UNDEF 0.01
expand: top_step (1, 0) FAR  w(0) 39692. F 0.04
expand: MAIN (2, 0) FAR  w(0) 39119.
	create_child: top_step (1, 5) FAR 39631 UNDEF 0.01
expand: top_step (1, 0) FAR  w(0) 39631. F 0.03
expand: MAIN (2, 0) FAR  w(0) 39119. F 0.01
expand: MAIN (3, 0) FAR  w(0) 6327.
	create_child: top_step (2, 5) FAR 43369 UNDEF 0.01
expand: top_step (2, 0) FAR  w(0) 43369. UNDEF 0.00
expand: top_step (2, 0) FAR  w(1) 43369.
	create_child: MAIN (2, 5) FAR 42825 X 0.01
expand: MAIN (2, 0) FAR  w(0) 42825.
	create_child: top_step (1, 5) FAR 43650 UNDEF 0.01
expand: top_step (1, 0) FAR  w(0) 43650.
	create_child: MAIN (1, 5) FAR 44021 X 0.01
expand: MAIN (1, 0) FAR  w(0) 44021.
	create_child: top_step (0, 5) FAR 43996 UNDEF 0.00
expand: top_step (0, 0) FAR  w(0) 43996. F 0.01
expand: MAIN (1, 0) FAR  w(0) 44021. F 0.01
expand: MAIN (2, 0) FAR  w(0) 42825.
	create_child: top_step (1, 5) FAR 44653 UNDEF 0.01
expand: top_step (1, 0) FAR  w(0) 44653. F 0.03
expand: MAIN (2, 0) FAR  w(0) 42825.
	create_child: top_step (1, 5) FAR 45282 UNDEF 0.01
expand: top_step (1, 0) FAR  w(0) 45282. F 0.03
expand: MAIN (2, 0) FAR  w(0) 42825.
	create_child: top_step (1, 5) FAR 46539 UNDEF 0.01
expand: top_step (1, 0) FAR  w(0) 46539. F 0.02
expand: MAIN (2, 0) FAR  w(0) 42825. F 0.01
expand: MAIN (3, 0) FAR  w(0) 6327.
	create_child: top_step (2, 5) FAR 47076 UNDEF 0.01
expand: top_step (2, 0) FAR  w(0) 47076.
	create_child: MAIN (2, 5) FAR 47365 X 0.01
expand: MAIN (2, 0) FAR  w(0) 47365.
	create_child: top_step (1, 5) FAR 47165 UNDEF 0.01
expand: top_step (1, 0) FAR  w(0) 47165. F 0.01
expand: MAIN (2, 0) FAR  w(0) 47365. F 0.01
expand: MAIN (3, 0) FAR  w(0) 6327.
	create_child: top_step (2, 5) FAR 47593 UNDEF 0.01
expand: top_step (2, 0) FAR  w(0) 47593. UNDEF 0.00
expand: top_step (2, 0) FAR  w(1) 47593.
	create_child: MAIN (2, 5) FAR 47991 X 0.01
expand: MAIN (2, 0) FAR  w(0) 47991.
	create_child: top_step (1, 5) FAR 48031 UNDEF 0.01
expand: top_step (1, 0) FAR  w(0) 48031. F 0.01
expand: MAIN (2, 0) FAR  w(0) 47991. F 0.01
expand: MAIN (3, 0) FAR  w(0) 6327.
	create_child: top_step (2, 5) FAR 48272 UNDEF 0.01
expand: top_step (2, 0) FAR  w(0) 48272.
	create_child: MAIN (2, 5) FAR 48400 X 0.01
expand: MAIN (2, 0) FAR  w(0) 48400.
	create_child: top_step (1, 5) FAR 48533 UNDEF 0.01
expand: top_step (1, 0) FAR  w(0) 48533. F 0.01
expand: MAIN (2, 0) FAR  w(0) 48400. F 0.00
expand: MAIN (3, 0) FAR  w(0) 6327.
	create_child: top_step (2, 5) FAR 48670 UNDEF 0.00
expand: top_step (2, 0) FAR  w(0) 48670.
	create_child: MAIN (2, 5) FAR 48824 X 0.01
expand: MAIN (2, 0) FAR  w(0) 48824.
	create_child: top_step (1, 5) FAR 48716 UNDEF 0.01
expand: top_step (1, 0) FAR  w(0) 48716. F 0.01
expand: MAIN (2, 0) FAR  w(0) 48824. F 0.00
expand: MAIN (3, 0) FAR  w(0) 6327.
	create_child: top_step (2, 5) FAR 48773 UNDEF 0.01
expand: top_step (2, 0) FAR  w(0) 48773. UNDEF 0.01
expand: top_step (2, 0) FAR  w(1) 48773.
	create_child: MAIN (2, 5) FAR 49316 X 0.02
expand: MAIN (2, 0) FAR  w(0) 49316.
	create_child: top_step (1, 5) FAR 49201 UNDEF 0.01
expand: top_step (1, 0) FAR  w(0) 49201. F 0.01
expand: MAIN (2, 0) FAR  w(0) 49316. F 0.01
expand: MAIN (3, 0) FAR  w(0) 6327.
	create_child: top_step (2, 5) FAR 49435 UNDEF 0.00
expand: top_step (2, 0) FAR  w(0) 49435.
	create_child: MAIN (2, 5) FAR 49927 X 0.01
expand: MAIN (2, 0) FAR  w(0) 49927.
	create_child: top_step (1, 5) FAR 49907 UNDEF 0.01
expand: top_step (1, 0) FAR  w(0) 49907.
	create_child: MAIN (1, 5) FAR 50147 X 0.01
expand: MAIN (1, 0) FAR  w(0) 50147.
	create_child: top_step (0, 5) FAR 49897 UNDEF 0.01
expand: top_step (0, 0) FAR  w(0) 49897. F 0.01
expand: MAIN (1, 0) FAR  w(0) 50147. F 0.00
expand: MAIN (2, 0) FAR  w(0) 49927.
	create_child: top_step (1, 5) FAR 50155 UNDEF 0.01
expand: top_step (1, 0) FAR  w(0) 50155.
	create_child: MAIN (1, 5) FAR 50646 X 0.01
expand: MAIN (1, 0) FAR  w(0) 50646.
	create_child: top_step (0, 5) FAR 50818 UNDEF 0.01
expand: top_step (0, 0) FAR  w(0) 50818. F 0.01
expand: MAIN (1, 0) FAR  w(0) 50646. F 0.00
expand: MAIN (2, 0) FAR  w(0) 49927.
	create_child: top_step (1, 5) FAR 50628 UNDEF 0.01
expand: top_step (1, 0) FAR  w(0) 50628. UNDEF 0.00
expand: top_step (1, 0) FAR  w(1) 50628.
	create_child: MAIN (1, 5) FAR 51046 X 0.01
expand: MAIN (1, 0) FAR  w(0) 51046.
	create_child: top_step (0, 5) FAR 50652 UNDEF 0.01
expand: top_step (0, 0) FAR  w(0) 50652. F 0.01
expand: MAIN (1, 0) FAR  w(0) 51046. F 0.00
expand: MAIN (2, 0) FAR  w(0) 49927.
	create_child: top_step (1, 5) FAR 51034 UNDEF 0.01
expand: top_step (1, 0) FAR  w(0) 51034.
	create_child: MAIN (1, 5) FAR 50928 X 0.01
expand: MAIN (1, 0) FAR  w(0) 50928.
	create_child: top_step (0, 5) FAR 51351 UNDEF 0.01
expand: top_step (0, 0) FAR  w(0) 51351. F 0.01
expand: MAIN (1, 0) FAR  w(0) 50928. F 0.00
expand: MAIN (2, 0) FAR  w(0) 49927.
	create_child: top_step (1, 5) FAR 51301 UNDEF 0.01
expand: top_step (1, 0) FAR  w(0) 51301.
	create_child: MAIN (1, 5) FAR 51182 X 0.01
expand: MAIN (1, 0) FAR  w(0) 51182.
	create_child: top_step (0, 5) FAR 51406 UNDEF 0.00
expand: top_step (0, 0) FAR  w(0) 51406. F 0.01
expand: MAIN (1, 0) FAR  w(0) 51182. F 0.00
expand: MAIN (2, 0) FAR  w(0) 49927.
	create_child: top_step (1, 5) FAR 51532 UNDEF 0.01
expand: top_step (1, 0) FAR  w(0) 51532. F 0.02
expand: MAIN (2, 0) FAR  w(0) 49927. F 0.01
expand: MAIN (3, 0) FAR  w(0) 6327.
	create_child: top_step (2, 5) FAR 52255 UNDEF 0.01
expand: top_step (2, 0) FAR  w(0) 52255. UNDEF 0.00
expand: top_step (2, 0) FAR  w(1) 52255.
	create_child: MAIN (2, 5) FAR 52662 X 0.01
expand: MAIN (2, 0) FAR  w(0) 52662. F 0.00
expand: MAIN (3, 0) FAR  w(0) 6327.
	create_child: top_step (2, 5) FAR 52701 UNDEF 0.01
expand: top_step (2, 0) FAR  w(0) 52701.
	create_child: MAIN (2, 5) FAR 52818 X 0.01
expand: MAIN (2, 0) FAR  w(0) 52818. F 0.00
expand: MAIN (3, 0) FAR  w(0) 6327.
	create_child: top_step (2, 5) FAR 52558 UNDEF 0.01
expand: top_step (2, 0) FAR  w(0) 52558.
	create_child: MAIN (2, 5) FAR 53003 X 0.01
expand: MAIN (2, 0) FAR  w(0) 53003.
	create_child: top_step (1, 5) FAR 53078 UNDEF 0.01
expand: top_step (1, 0) FAR  w(0) 53078. F 0.02
expand: MAIN (2, 0) FAR  w(0) 53003. F 0.00
expand: MAIN (3, 0) FAR  w(0) 6327.
	create_child: top_step (2, 5) FAR 51612 UNDEF 0.01
expand: top_step (2, 0) FAR  w(0) 51612. UNDEF 0.00
expand: top_step (2, 0) FAR  w(1) 51612.
	create_child: MAIN (2, 5) FAR 53575 X 0.01
expand: MAIN (2, 0) FAR  w(0) 53575.
	create_child: top_step (1, 5) FAR 51793 UNDEF 0.01
expand: top_step (1, 0) FAR  w(0) 51793. F 0.03
expand: MAIN (2, 0) FAR  w(0) 53575. F 0.01
expand: MAIN (3, 0) FAR  w(0) 6327.
	create_child: top_step (2, 5) FAR 54044 UNDEF 0.01
expand: top_step (2, 0) FAR  w(0) 54044.
	create_child: MAIN (2, 5) FAR 53243 X 0.02
expand: MAIN (2, 0) FAR  w(0) 53243.
	create_child: top_step (1, 5) FAR 53294 UNDEF 0.01
expand: top_step (1, 0) FAR  w(0) 53294. F 0.02
expand: MAIN (2, 0) FAR  w(0) 53243. F 0.00
expand: MAIN (3, 0) FAR  w(0) 6327. F 0.00
expand: ERR (4, 0) FAR  w(0) 1. F 0.00
expand: query!0 (5, 0) FAR  w(0) 1. F 0.00
(spacer::context::check_reachability :time 1.34 :before-memory 16.47 :after-memory 24.70)
Propagating: 0 1 2 3 4 5  ! 6 
(spacer::context::propagate :time 0.04 :before-memory 24.70 :after-memory 24.70)
Entering level 6
BRUNCH_STAT max_query_lvl 5
BRUNCH_STAT num_queries 78
BRUNCH_STAT num_reach_queries 0
BRUNCH_STAT num_reach_reuse 8
BRUNCH_STAT inductive_lvl 0
BRUNCH_STAT max_depth 6
BRUNCH_STAT cex_depth 0
expand: query!0 (6, 0) FAR  w(0) 1.
	create_child: ERR (5, 6) FAR 1 U 0.00
expand: ERR (5, 0) FAR  w(0) 1.
	create_child: MAIN (4, 6) FAR 6327 U 0.00
expand: MAIN (4, 0) FAR  w(0) 6327.
	create_child: top_step (3, 6) FAR 55263 UNDEF 0.01
expand: top_step (3, 0) FAR  w(0) 55263.
	create_child: MAIN (3, 6) FAR 55618 X 0.01
expand: MAIN (3, 0) FAR  w(0) 55618.
	create_child: top_step (2, 6) FAR 55162 UNDEF 0.01
expand: top_step (2, 0) FAR  w(0) 55162. F 0.01
expand: MAIN (3, 0) FAR  w(0) 55618.
	create_child: top_step (2, 6) FAR 53747 UNDEF 0.01
expand: top_step (2, 0) FAR  w(0) 53747. F 0.02
expand: MAIN (3, 0) FAR  w(0) 55618. F 0.01
expand: MAIN (4, 0) FAR  w(0) 6327.
	create_child: top_step (3, 6) FAR 55923 UNDEF 0.01
expand: top_step (3, 0) FAR  w(0) 55923. UNDEF 0.01
expand: top_step (3, 0) FAR  w(1) 55923.
	create_child: MAIN (3, 6) FAR 56535 X 0.02
expand: MAIN (3, 0) FAR  w(0) 56535.
	create_child: top_step (2, 6) FAR 55822 UNDEF 0.01
expand: top_step (2, 0) FAR  w(0) 55822. F 0.02
expand: MAIN (3, 0) FAR  w(0) 56535. F 0.01
expand: MAIN (4, 0) FAR  w(0) 6327.
	create_child: top_step (3, 6) FAR 56422 UNDEF 0.01
expand: top_step (3, 0) FAR  w(0) 56422. UNDEF 0.01
expand: top_step (3, 0) FAR  w(1) 56422.
	create_child: MAIN (3, 6) FAR 57027 X 0.01
expand: MAIN (3, 0) FAR  w(0) 57027. F 0.01
expand: MAIN (4, 0) FAR  w(0) 6327.
	create_child: top_step (3, 6) FAR 57127 UNDEF 0.01
expand: top_step (3, 0) FAR  w(0) 57127.
	create_child: MAIN (3, 6) FAR 57136 X 0.02
expand: MAIN (3, 0) FAR  w(0) 57136.
	create_child: top_step (2, 6) FAR 57252 UNDEF 0.01
expand: top_step (2, 0) FAR  w(0) 57252. F 0.02
expand: MAIN (3, 0) FAR  w(0) 57136. F 0.01
expand: MAIN (4, 0) FAR  w(0) 6327.
	create_child: top_step (3, 6) FAR 57767 UNDEF 0.01
expand: top_step (3, 0) FAR  w(0) 57767. UNDEF 0.00
expand: top_step (3, 0) FAR  w(1) 57767.
	create_child: MAIN (3, 6) FAR 57990 X 0.01
expand: MAIN (3, 0) FAR  w(0) 57990.
	create_child: top_step (2, 6) FAR 58109 UNDEF 0.01
expand: top_step (2, 0) FAR  w(0) 58109. F 0.01
expand: MAIN (3, 0) FAR  w(0) 57990.
	create_child: top_step (2, 6) FAR 58028 UNDEF 0.01
expand: top_step (2, 0) FAR  w(0) 58028. F 0.00
expand: MAIN (3, 0) FAR  w(0) 57990. F 0.00
expand: MAIN (4, 0) FAR  w(0) 6327.
	create_child: top_step (3, 6) FAR 58844 UNDEF 0.01
expand: top_step (3, 0) FAR  w(0) 58844. UNDEF 0.01
expand: top_step (3, 0) FAR  w(1) 58844.
	create_child: MAIN (3, 6) FAR 59268 X 0.01
expand: MAIN (3, 0) FAR  w(0) 59268.
	create_child: top_step (2, 6) FAR 59111 UNDEF 0.01
expand: top_step (2, 0) FAR  w(0) 59111. UNDEF 0.00
expand: top_step (2, 0) FAR  w(1) 59111. T 0.00
is-reachable: MAIN (3, 0) FAR 59268 F 0.02
expand: MAIN (3, 0) FAR  w(1) 59268.
	create_child: MAIN (2, 6) FAR 59903 U 0.01
expand: MAIN (2, 0) FAR  w(0) 59903. F 0.01
expand: MAIN (3, 0) FAR  w(1) 59268.
	create_child: MAIN (2, 6) FAR 60006 U 0.03
expand: MAIN (2, 0) FAR  w(0) 60006.
	create_child: top_step (1, 6) FAR 59908 UNDEF 0.01
expand: top_step (1, 0) FAR  w(0) 59908. UNDEF 0.00
expand: top_step (1, 0) FAR  w(1) 59908. F 0.02
expand: MAIN (2, 0) FAR  w(0) 60006. F 0.01
expand: MAIN (3, 0) FAR  w(1) 59268.
	create_child: MAIN (2, 6) FAR 60486 U 0.02
expand: MAIN (2, 0) FAR  w(0) 60486.
	create_child: MAIN (1, 6) FAR 60628 U 0.01
expand: MAIN (1, 0) FAR  w(0) 60628.
	create_child: top_step (0, 6) FAR 60156 U 0.01
expand: top_step (0, 0) FAR  w(0) 60156. F 0.01
expand: MAIN (1, 0) FAR  w(0) 60628. F 0.00
expand: MAIN (2, 0) FAR  w(0) 60486.
	create_child: MAIN (1, 6) FAR 61247 U 0.01
expand: MAIN (1, 0) FAR  w(0) 61247.
	create_child: top_step (0, 6) FAR 60552 U 0.01
expand: top_step (0, 0) FAR  w(0) 60552. F 0.01
expand: MAIN (1, 0) FAR  w(0) 61247. F 0.00
expand: MAIN (2, 0) FAR  w(0) 60486.
	create_child: top_step (1, 6) FAR 60604 UNDEF 0.01
expand: top_step (1, 0) FAR  w(0) 60604. F 0.02
expand: MAIN (2, 0) FAR  w(0) 60486. F 0.01
expand: MAIN (3, 0) FAR  w(1) 59268.
	create_child: MAIN (2, 6) FAR 61682 U 0.01
expand: MAIN (2, 0) FAR  w(0) 61682. F 0.01
expand: MAIN (3, 0) FAR  w(1) 59268. F 0.03
expand: MAIN (4, 0) FAR  w(0) 6327.
	create_child: top_step (3, 6) FAR 62273 UNDEF 0.01
expand: top_step (3, 0) FAR  w(0) 62273. UNDEF 0.00
expand: top_step (3, 0) FAR  w(1) 62273.
	create_child: MAIN (3, 6) FAR 62566 X 0.01
expand: MAIN (3, 0) FAR  w(0) 62566.
	create_child: top_step (2, 6) FAR 62524 UNDEF 0.01
expand: top_step (2, 0) FAR  w(0) 62524. UNDEF 0.00
expand: top_step (2, 0) FAR  w(1) 62524.
	create_child: MAIN (2, 6) FAR 62872 X 0.02
expand: MAIN (2, 0) FAR  w(0) 62872.
	create_child: top_step (1, 6) FAR 62169 UNDEF 0.01
expand: top_step (1, 0) FAR  w(0) 62169. F 0.01
expand: MAIN (2, 0) FAR  w(0) 62872. F 0.01
expand: MAIN (3, 0) FAR  w(0) 62566.
	create_child: top_step (2, 6) FAR 63045 UNDEF 0.01
expand: top_step (2, 0) FAR  w(0) 63045. F 0.02
expand: MAIN (3, 0) FAR  w(0) 62566.
	create_child: top_step (2, 6) FAR 63506 UNDEF 0.01
expand: top_step (2, 0) FAR  w(0) 63506. F 0.03
expand: MAIN (3, 0) FAR  w(0) 62566. F 0.01
expand: MAIN (4, 0) FAR  w(0) 6327.
	create_child: top_step (3, 6) FAR 63217 UNDEF 0.01
expand: top_step (3, 0) FAR  w(0) 63217. UNDEF 0.00
expand: top_step (3, 0) FAR  w(1) 63217.
	create_child: MAIN (3, 6) FAR 63812 X 0.02
expand: MAIN (3, 0) FAR  w(0) 63812.
	create_child: top_step (2, 6) FAR 63545 UNDEF 0.01
expand: top_step (2, 0) FAR  w(0) 63545. F 0.02
expand: MAIN (3, 0) FAR  w(0) 63812. F 0.01
expand: MAIN (4, 0) FAR  w(0) 6327.
	create_child: top_step (3, 6) FAR 63727 UNDEF 0.01
expand: top_step (3, 0) FAR  w(0) 63727. UNDEF 0.00
expand: top_step (3, 0) FAR  w(1) 63727.
	create_child: MAIN (3, 6) FAR 64246 X 0.01
expand: MAIN (3, 0) FAR  w(0) 64246.
	create_child: top_step (2, 6) FAR 64351 UNDEF 0.01
expand: top_step (2, 0) FAR  w(0) 64351. F 0.01
expand: MAIN (3, 0) FAR  w(0) 64246. F 0.01
expand: MAIN (4, 0) FAR  w(0) 6327.
	create_child: top_step (3, 6) FAR 64524 UNDEF 0.01
expand: top_step (3, 0) FAR  w(0) 64524. UNDEF 0.00
expand: top_step (3, 0) FAR  w(1) 64524.
	create_child: MAIN (3, 6) FAR 64665 X 0.01
expand: MAIN (3, 0) FAR  w(0) 64665. F 0.01
expand: MAIN (4, 0) FAR  w(0) 6327.
	create_child: top_step (3, 6) FAR 65172 UNDEF 0.01
expand: top_step (3, 0) FAR  w(0) 65172. UNDEF 0.01
expand: top_step (3, 0) FAR  w(1) 65172.
	create_child: MAIN (3, 6) FAR 65843 X 0.01
expand: MAIN (3, 0) FAR  w(0) 65843.
	create_child: top_step (2, 6) FAR 65911 UNDEF 0.01
expand: top_step (2, 0) FAR  w(0) 65911. UNDEF 0.00
expand: top_step (2, 0) FAR  w(1) 65911.
	create_child: MAIN (2, 6) FAR 65742 X 0.02
expand: MAIN (2, 0) FAR  w(0) 65742. F 0.01
expand: MAIN (3, 0) FAR  w(0) 65843.
	create_child: top_step (2, 6) FAR 65499 UNDEF 0.01
expand: top_step (2, 0) FAR  w(0) 65499.
	create_child: MAIN (2, 6) FAR 66158 X 0.01
expand: MAIN (2, 0) FAR  w(0) 66158. F 0.01
expand: MAIN (3, 0) FAR  w(0) 65843. F 0.01
expand: MAIN (4, 0) FAR  w(0) 6327.
	create_child: top_step (3, 6) FAR 66038 UNDEF 0.01
expand: top_step (3, 0) FAR  w(0) 66038.
	create_child: MAIN (3, 6) FAR 66508 X 0.01
expand: MAIN (3, 0) FAR  w(0) 66508.
	create_child: top_step (2, 6) FAR 65633 UNDEF 0.01
expand: top_step (2, 0) FAR  w(0) 65633. F 0.01
expand: MAIN (3, 0) FAR  w(0) 66508. F 0.01
expand: MAIN (4, 0) FAR  w(0) 6327.
	create_child: top_step (3, 6) FAR 66867 UNDEF 0.02
expand: top_step (3, 0) FAR  w(0) 66867.
	create_child: MAIN (3, 6) FAR 67183 X 0.02
expand: MAIN (3, 0) FAR  w(0) 67183.
	create_child: top_step (2, 6) FAR 67029 UNDEF 0.01
expand: top_step (2, 0) FAR  w(0) 67029. F 0.03
expand: MAIN (3, 0) FAR  w(0) 67183. F 0.01
expand: MAIN (4, 0) FAR  w(0) 6327.
	create_child: top_step (3, 6) FAR 67902 UNDEF 0.02
expand: top_step (3, 0) FAR  w(0) 67902. UNDEF 0.00
expand: top_step (3, 0) FAR  w(1) 67902.
	create_child: MAIN (3, 6) FAR 68293 X 0.02
expand: MAIN (3, 0) FAR  w(0) 68293.
	create_child: top_step (2, 6) FAR 67865 UNDEF 0.01
expand: top_step (2, 0) FAR  w(0) 67865. F 0.02
expand: MAIN (3, 0) FAR  w(0) 68293. F 0.02
expand: MAIN (4, 0) FAR  w(0) 6327.
	create_child: top_step (3, 6) FAR 68210 UNDEF 0.01
expand: top_step (3, 0) FAR  w(0) 68210. UNDEF 0.01
expand: top_step (3, 0) FAR  w(1) 68210.
	create_child: MAIN (3, 6) FAR 68662 X 0.01
expand: MAIN (3, 0) FAR  w(0) 68662.
	create_child: top_step (2, 6) FAR 68529 UNDEF 0.01
expand: top_step (2, 0) FAR  w(0) 68529. F 0.01
expand: MAIN (3, 0) FAR  w(0) 68662.
	create_child: top_step (2, 6) FAR 68922 UNDEF 0.01
expand: top_step (2, 0) FAR  w(0) 68922. F 0.02
expand: MAIN (3, 0) FAR  w(0) 68662. F 0.01
expand: MAIN (4, 0) FAR  w(0) 6327.
	create_child: top_step (3, 6) FAR 68772 UNDEF 0.01
expand: top_step (3, 0) FAR  w(0) 68772. UNDEF 0.00
expand: top_step (3, 0) FAR  w(1) 68772.
	create_child: MAIN (3, 6) FAR 49927 X 0.01
expand: MAIN (3, 0) FAR  w(0) 49927.
	create_child: top_step (2, 6) FAR 68143 UNDEF 0.01
expand: top_step (2, 0) FAR  w(0) 68143.
	create_child: MAIN (2, 6) FAR 69337 X 0.02
expand: MAIN (2, 0) FAR  w(0) 69337.
	create_child: top_step (1, 6) FAR 68671 UNDEF 0.01
expand: top_step (1, 0) FAR  w(0) 68671. F 0.01
expand: MAIN (2, 0) FAR  w(0) 69337. F 0.01
expand: MAIN (3, 0) FAR  w(0) 49927.
	create_child: top_step (2, 6) FAR 69435 UNDEF 0.01
expand: top_step (2, 0) FAR  w(0) 69435. F 0.01
expand: MAIN (3, 0) FAR  w(0) 49927. F 0.01
expand: MAIN (4, 0) FAR  w(0) 6327.
	create_child: top_step (3, 6) FAR 69546 UNDEF 0.01
expand: top_step (3, 0) FAR  w(0) 69546.
	create_child: MAIN (3, 6) FAR 69792 X 0.02
expand: MAIN (3, 0) FAR  w(0) 69792.
	create_child: top_step (2, 6) FAR 69595 UNDEF 0.01
expand: top_step (2, 0) FAR  w(0) 69595. F 0.02
expand: MAIN (3, 0) FAR  w(0) 69792.
	create_child: top_step (2, 6) FAR 69883 UNDEF 0.01
expand: top_step (2, 0) FAR  w(0) 69883. F 0.04
expand: MAIN (3, 0) FAR  w(0) 69792. F 0.01
expand: MAIN (4, 0) FAR  w(0) 6327.
	create_child: top_step (3, 6) FAR 70536 UNDEF 0.01
expand: top_step (3, 0) FAR  w(0) 70536. UNDEF 0.00
expand: top_step (3, 0) FAR  w(1) 70536.
	create_child: MAIN (3, 6) FAR 70712 X 0.01
expand: MAIN (3, 0) FAR  w(0) 70712.
	create_child: top_step (2, 6) FAR 70610 UNDEF 0.01
expand: top_step (2, 0) FAR  w(0) 70610. UNDEF 0.00
expand: top_step (2, 0) FAR  w(1) 70610.
	create_child: MAIN (2, 6) FAR 70718 X 0.01
expand: MAIN (2, 0) FAR  w(0) 70718.
	create_child: top_step (1, 6) FAR 70155 UNDEF 0.01
expand: top_step (1, 0) FAR  w(0) 70155. F 0.03
expand: MAIN (2, 0) FAR  w(0) 70718.
	create_child: top_step (1, 6) FAR 70768 UNDEF 0.01
expand: top_step (1, 0) FAR  w(0) 70768. F 0.02
expand: MAIN (2, 0) FAR  w(0) 70718. F 0.01
expand: MAIN (3, 0) FAR  w(0) 70712.
	create_child: top_step (2, 6) FAR 71445 UNDEF 0.01
expand: top_step (2, 0) FAR  w(0) 71445. UNDEF 0.00
expand: top_step (2, 0) FAR  w(1) 71445.
	create_child: MAIN (2, 6) FAR 72411 X 0.01
expand: MAIN (2, 0) FAR  w(0) 72411.
	create_child: top_step (1, 6) FAR 72270 UNDEF 0.01
expand: top_step (1, 0) FAR  w(0) 72270.
	create_child: MAIN (1, 6) FAR 72398 X 0.01
expand: MAIN (1, 0) FAR  w(0) 72398.
	create_child: top_step (0, 6) FAR 71682 UNDEF 0.01
expand: top_step (0, 0) FAR  w(0) 71682. F 0.01
expand: MAIN (1, 0) FAR  w(0) 72398. F 0.00
expand: MAIN (2, 0) FAR  w(0) 72411.
	create_child: top_step (1, 6) FAR 72423 UNDEF 0.01
expand: top_step (1, 0) FAR  w(0) 72423. F 0.02
expand: MAIN (2, 0) FAR  w(0) 72411. F 0.00
expand: MAIN (3, 0) FAR  w(0) 70712.
	create_child: top_step (2, 6) FAR 72582 UNDEF 0.01
expand: top_step (2, 0) FAR  w(0) 72582. F 0.02
expand: MAIN (3, 0) FAR  w(0) 70712.
	create_child: top_step (2, 6) FAR 72369 UNDEF 0.01
expand: top_step (2, 0) FAR  w(0) 72369. F 0.03
expand: MAIN (3, 0) FAR  w(0) 70712. F 0.01
expand: MAIN (4, 0) FAR  w(0) 6327.
	create_child: top_step (3, 6) FAR 72549 UNDEF 0.01
expand: top_step (3, 0) FAR  w(0) 72549. UNDEF 0.00
expand: top_step (3, 0) FAR  w(1) 72549.
	create_child: MAIN (3, 6) FAR 72792 X 0.02
expand: MAIN (3, 0) FAR  w(0) 72792.
	create_child: top_step (2, 6) FAR 67804 UNDEF 0.01
expand: top_step (2, 0) FAR  w(0) 67804. F 0.02
expand: MAIN (3, 0) FAR  w(0) 72792. F 0.01
expand: MAIN (4, 0) FAR  w(0) 6327.
	create_child: top_step (3, 6) FAR 73141 UNDEF 0.01
expand: top_step (3, 0) FAR  w(0) 73141. UNDEF 0.00
expand: top_step (3, 0) FAR  w(1) 73141.
	create_child: MAIN (3, 6) FAR 72533 X 0.01
expand: MAIN (3, 0) FAR  w(0) 72533.
	create_child: top_step (2, 6) FAR 73212 UNDEF 0.01
expand: top_step (2, 0) FAR  w(0) 73212.
	create_child: MAIN (2, 6) FAR 73285 X 0.01
expand: MAIN (2, 0) FAR  w(0) 73285.
	create_child: top_step (1, 6) FAR 72729 UNDEF 0.01
expand: top_step (1, 0) FAR  w(0) 72729.
	create_child: MAIN (1, 6) FAR 73280 X 0.01
expand: MAIN (1, 0) FAR  w(0) 73280.
	create_child: top_step (0, 6) FAR 73371 UNDEF 0.01
expand: top_step (0, 0) FAR  w(0) 73371.
	create_child: top_reset (0, 6) FAR 73063 X 0.01
expand: top_reset (0, 0) FAR  w(0) 73063. T 0.00
is-reachable: MAIN (1, 0) FAR 73280 T 0.06
is-reachable: MAIN (2, 0) FAR 73285 T 0.07
is-reachable: MAIN (3, 0) FAR 72533 T 0.06
is-reachable: MAIN (4, 0) FAR 6327 T 0.08
is-reachable: ERR (5, 0) FAR 1 T 0.01
is-reachable: query!0 (6, 0) FAR 1 T 0.00
(spacer::context::check_reachability :time 2.34 :before-memory 24.70 :after-memory 30.79)
BRUNCH_STAT max_query_lvl 6
BRUNCH_STAT num_queries 148
BRUNCH_STAT num_reach_queries 6
BRUNCH_STAT num_reach_reuse 16
BRUNCH_STAT inductive_lvl 0
BRUNCH_STAT max_depth 6
BRUNCH_STAT cex_depth 6
(:SPACER-cex-depth                     6
 :SPACER-expand-node-undef             154
 :SPACER-max-depth                     6
 :SPACER-max-query-lvl                 6
 :SPACER-num-invariants                91
 :SPACER-num-lemmas                    147
 :SPACER-num-properties                133
 :SPACER-num-queries                   148
 :SPACER-num-reach-queries             6
 :SPACER-num-reuse-reach-facts         16
 :added-eqs                            306202
 :arith-add-rows                       46626
 :arith-assert-diseq                   83993
 :arith-assert-lower                   145563
 :arith-assert-upper                   141990
 :arith-bound-prop                     7071
 :arith-conflicts                      394
 :arith-eq-adapter                     41627
 :arith-fixed-eqs                      30285
 :arith-gcd-tests                      2614
 :arith-gomory-cuts                    26
 :arith-ineq-splits                    210
 :arith-offset-eqs                     33095
 :arith-pivots                         11463
 :bool-inductive-gen                   135
 :bool-inductive-gen-failures          285
 :conflicts                            2700
 :decisions                            193414
 :del-clause                           35372
 :final-checks                         1185
 :interface-eqs                        153
 :minimized-lits                       1668
 :mk-bool-var                          67235
 :mk-clause                            51797
 :num-checks                           1438
 :propagations                         1501897
 :time.itp_solver.itp_core             0.12
 :time.spacer.init_rules               0.01
 :time.spacer.init_rules.pt.init       0.00
 :time.spacer.solve                    3.85
 :time.spacer.solve.propagate          0.06
 :time.spacer.solve.pt.must_reachable  0.36
 :time.spacer.solve.reach              3.79
 :time.spacer.solve.reach.children     0.23
 :time.spacer.solve.reach.gen.bool_ind 1.10
 :time.spacer.solve.reach.is-reach     0.30
 :time.virtual_solver.proof            0.08
 :time.virtual_solver.smt.total        3.05
 :time.virtual_solver.smt.total.sat    1.03
 :time.virtual_solver.smt.total.undef  1.30
 :virtual_solver.checks                1438
 :virtual_solver.checks.sat            268
 :virtual_solver.checks.undef          392)
BRUNCH_STAT max_query_lvl 6
BRUNCH_STAT num_queries 148
BRUNCH_STAT num_reach_queries 6
BRUNCH_STAT num_reach_reuse 16
BRUNCH_STAT inductive_lvl 0
BRUNCH_STAT max_depth 6
BRUNCH_STAT cex_depth 6

real	0m4.009s
user	0m3.984s
sys	0m0.024s
