(transform N7datalog13mk_coi_filterE...no-op 0s)
(transform N7datalog25mk_interp_tail_simplifierE...14 rules 0s)
(transform N7datalog27mk_quantifier_instantiationE...no-op 0s)
(transform N7datalog8mk_scaleE...no-op 0s)
(transform N7datalog18mk_karr_invariantsE...no-op 0s)
(transform N7datalog14mk_array_blastE...no-op 0s)
(transform N7datalog22mk_subsumption_checkerE...13 rules 0s)
(transform N7datalog12mk_bit_blastE...no-op 0s)
(transform N7datalog15mk_rule_inlinerE...no-op 0s)
(transform N7datalog13mk_coi_filterE...no-op 0s)
(transform N7datalog25mk_interp_tail_simplifierE...13 rules 0s)
(transform N7datalog22mk_subsumption_checkerE...no-op 0s)
(transform N7datalog15mk_rule_inlinerE...no-op 0s)
(transform N7datalog13mk_coi_filterE...no-op 0s)
(transform N7datalog25mk_interp_tail_simplifierE...13 rules 0s)
(transform N7datalog22mk_subsumption_checkerE...no-op 0s)
(transform N7datalog15mk_rule_inlinerE...no-op 0s)
(transform N7datalog22mk_subsumption_checkerE...no-op 0s)
(transform N7datalog15mk_rule_inlinerE...no-op 0s)
(transform N7datalog22mk_subsumption_checkerE...no-op 0s)
(transform N7datalog15mk_rule_inlinerE...no-op 0s)
(transform N7datalog22mk_subsumption_checkerE...no-op 0s)
expand: query!0 (0, 0) FAR  w(0) 1. F 0.00
(spacer::context::check_reachability :time 0.00 :before-memory 13.43 :after-memory 13.86)
Entering level 1
BRUNCH_STAT max_query_lvl 0
BRUNCH_STAT num_queries 0
BRUNCH_STAT num_reach_queries 0
BRUNCH_STAT num_reach_reuse 0
BRUNCH_STAT inductive_lvl 0
BRUNCH_STAT max_depth 1
BRUNCH_STAT cex_depth 0
expand: query!0 (1, 0) FAR  w(0) 1.
	create_child: ERR (0, 1) FAR 1 U 0.00
expand: ERR (0, 0) FAR  w(0) 1. F 0.00
expand: query!0 (1, 0) FAR  w(0) 1. F 0.00
(spacer::context::check_reachability :time 0.00 :before-memory 13.86 :after-memory 14.31)
Propagating: 0 1  ! 2 
(spacer::context::propagate :time 0.00 :before-memory 14.31 :after-memory 14.31)
Entering level 2
BRUNCH_STAT max_query_lvl 1
BRUNCH_STAT num_queries 1
BRUNCH_STAT num_reach_queries 0
BRUNCH_STAT num_reach_reuse 0
BRUNCH_STAT inductive_lvl 0
BRUNCH_STAT max_depth 2
BRUNCH_STAT cex_depth 0
expand: query!0 (2, 0) FAR  w(0) 1.
	create_child: ERR (1, 2) FAR 1 U 0.00
expand: ERR (1, 0) FAR  w(0) 1.
	create_child: MAIN (0, 2) FAR 3217 U 0.00
expand: MAIN (0, 0) FAR  w(0) 3217. F 0.00
expand: ERR (1, 0) FAR  w(0) 1. F 0.00
expand: query!0 (2, 0) FAR  w(0) 1. F 0.00
(spacer::context::check_reachability :time 0.00 :before-memory 14.31 :after-memory 14.79)
Propagating: 0 1 2  ! 3 
(spacer::context::propagate :time 0.00 :before-memory 14.79 :after-memory 14.79)
Entering level 3
BRUNCH_STAT max_query_lvl 2
BRUNCH_STAT num_queries 3
BRUNCH_STAT num_reach_queries 0
BRUNCH_STAT num_reach_reuse 0
BRUNCH_STAT inductive_lvl 0
BRUNCH_STAT max_depth 3
BRUNCH_STAT cex_depth 0
expand: query!0 (3, 0) FAR  w(0) 1.
	create_child: ERR (2, 3) FAR 1 U 0.00
expand: ERR (2, 0) FAR  w(0) 1.
	create_child: MAIN (1, 3) FAR 3217 U 0.00
expand: MAIN (1, 0) FAR  w(0) 3217.
	create_child: top_step (0, 3) FAR 4188 U 0.00
expand: top_step (0, 0) FAR  w(0) 4188. F 0.00
expand: MAIN (1, 0) FAR  w(0) 3217. F 0.00
expand: ERR (2, 0) FAR  w(0) 1. F 0.00
expand: query!0 (3, 0) FAR  w(0) 1. F 0.00
(spacer::context::check_reachability :time 0.01 :before-memory 14.79 :after-memory 16.11)
Propagating: 0 1 2 3  ! 4 
(spacer::context::propagate :time 0.00 :before-memory 16.11 :after-memory 16.21)
Entering level 4
BRUNCH_STAT max_query_lvl 3
BRUNCH_STAT num_queries 6
BRUNCH_STAT num_reach_queries 0
BRUNCH_STAT num_reach_reuse 0
BRUNCH_STAT inductive_lvl 0
BRUNCH_STAT max_depth 4
BRUNCH_STAT cex_depth 0
expand: query!0 (4, 0) FAR  w(0) 1.
	create_child: ERR (3, 4) FAR 1 U 0.00
expand: ERR (3, 0) FAR  w(0) 1.
	create_child: MAIN (2, 4) FAR 3217 U 0.00
expand: MAIN (2, 0) FAR  w(0) 3217.
	create_child: top_step (1, 4) FAR 4188 U 0.00
expand: top_step (1, 0) FAR  w(0) 4188.
	create_child: top_reset (1, 4) FAR 13060 X 0.01
expand: top_reset (1, 0) FAR  w(0) 13060. F 0.00
expand: MAIN (2, 0) FAR  w(0) 3217.
	create_child: top_reset (1, 4) FAR 18341 U 0.01
expand: top_reset (1, 0) FAR  w(0) 18341.
	create_child: Sofar_reset (0, 4) FAR 18087 U 0.00
expand: Sofar_reset (0, 0) FAR  w(0) 18087. F 0.00
expand: top_reset (1, 0) FAR  w(0) 18341. F 0.00
expand: MAIN (2, 0) FAR  w(0) 3217.
	create_child: top_reset (1, 4) FAR 18548 U 0.00
expand: top_reset (1, 0) FAR  w(0) 18548.
	create_child: First_reset (0, 4) FAR 18439 U 0.00
expand: First_reset (0, 0) FAR  w(0) 18439. F 0.00
expand: top_reset (1, 0) FAR  w(0) 18548. F 0.00
expand: MAIN (2, 0) FAR  w(0) 3217.
	create_child: top_reset (1, 4) FAR 18861 U 0.00
expand: top_reset (1, 0) FAR  w(0) 18861.
	create_child: DRAGON_reset (0, 4) FAR 18763 U 0.00
expand: DRAGON_reset (0, 0) FAR  w(0) 18763. F 0.00
expand: top_reset (1, 0) FAR  w(0) 18861. F 0.00
expand: MAIN (2, 0) FAR  w(0) 3217.
	create_child: top_step (1, 4) FAR 18951 U 0.00
expand: top_step (1, 0) FAR  w(0) 18951.
	create_child: Sofar_step (0, 4) FAR 19724 U 0.01
expand: Sofar_step (0, 0) FAR  w(0) 19724. F 0.00
expand: top_step (1, 0) FAR  w(0) 18951.
	create_child: DRAGON_step (0, 4) FAR 19881 U 0.00
expand: DRAGON_step (0, 0) FAR  w(0) 19881. F 0.01
expand: top_step (1, 0) FAR  w(0) 18951.
	create_child: DRAGON_step (0, 4) FAR 23163 U 0.00
expand: DRAGON_step (0, 0) FAR  w(0) 23163. F 0.00
expand: top_step (1, 0) FAR  w(0) 18951.
	create_child: DRAGON_step (0, 4) FAR 23327 U 0.00
expand: DRAGON_step (0, 0) FAR  w(0) 23327. F 0.00
expand: top_step (1, 0) FAR  w(0) 18951.
	create_child: DRAGON_step (0, 4) FAR 23404 U 0.00
expand: DRAGON_step (0, 0) FAR  w(0) 23404. F 0.00
expand: top_step (1, 0) FAR  w(0) 18951.
	create_child: DRAGON_step (0, 4) FAR 23564 U 0.00
expand: DRAGON_step (0, 0) FAR  w(0) 23564. F 0.00
expand: top_step (1, 0) FAR  w(0) 18951.
	create_child: DRAGON_step (0, 4) FAR 23643 U 0.00
expand: DRAGON_step (0, 0) FAR  w(0) 23643. F 0.00
expand: top_step (1, 0) FAR  w(0) 18951.
	create_child: DRAGON_step (0, 4) FAR 23765 U 0.00
expand: DRAGON_step (0, 0) FAR  w(0) 23765. F 0.00
expand: top_step (1, 0) FAR  w(0) 18951.
	create_child: DRAGON_step (0, 4) FAR 23842 U 0.00
expand: DRAGON_step (0, 0) FAR  w(0) 23842. F 0.00
expand: top_step (1, 0) FAR  w(0) 18951.
	create_child: DRAGON_step (0, 4) FAR 23861 U 0.00
expand: DRAGON_step (0, 0) FAR  w(0) 23861. F 0.00
expand: top_step (1, 0) FAR  w(0) 18951.
	create_child: DRAGON_step (0, 4) FAR 24087 U 0.00
expand: DRAGON_step (0, 0) FAR  w(0) 24087. F 0.00
expand: top_step (1, 0) FAR  w(0) 18951.
	create_child: DRAGON_step (0, 4) FAR 22938 U 0.00
expand: DRAGON_step (0, 0) FAR  w(0) 22938. F 0.00
expand: top_step (1, 0) FAR  w(0) 18951.
	create_child: DRAGON_step (0, 4) FAR 24227 U 0.00
expand: DRAGON_step (0, 0) FAR  w(0) 24227.
	create_child: First_step (0, 4) FAR 24232 X 0.01
expand: First_step (0, 0) FAR  w(0) 24232. F 0.00
expand: top_step (1, 0) FAR  w(0) 18951.
	create_child: DRAGON_step (0, 4) FAR 24227 U 0.00
expand: DRAGON_step (0, 0) FAR  w(0) 24227.
	create_child: First_step (0, 4) FAR 23285 X 0.00
expand: First_step (0, 0) FAR  w(0) 23285. F 0.00
expand: top_step (1, 0) FAR  w(0) 18951. F 0.01
expand: MAIN (2, 0) FAR  w(0) 3217. F 0.00
expand: ERR (3, 0) FAR  w(0) 1. F 0.00
expand: query!0 (4, 0) FAR  w(0) 1. F 0.00
(spacer::context::check_reachability :time 0.12 :before-memory 16.21 :after-memory 26.39)
Propagating: 0 1 2 3 4  ! 5 
(spacer::context::propagate :time 0.00 :before-memory 26.39 :after-memory 26.39)
Entering level 5
BRUNCH_STAT max_query_lvl 4
BRUNCH_STAT num_queries 30
BRUNCH_STAT num_reach_queries 1
BRUNCH_STAT num_reach_reuse 52
BRUNCH_STAT inductive_lvl 0
BRUNCH_STAT max_depth 5
BRUNCH_STAT cex_depth 0
expand: query!0 (5, 0) FAR  w(0) 1.
	create_child: ERR (4, 5) FAR 1 U 0.00
expand: ERR (4, 0) FAR  w(0) 1.
	create_child: MAIN (3, 5) FAR 3217 U 0.00
expand: MAIN (3, 0) FAR  w(0) 3217.
	create_child: MAIN (2, 5) FAR 25373 U 0.00
expand: MAIN (2, 0) FAR  w(0) 25373.
	create_child: top_step (1, 5) FAR 25292 U 0.00
expand: top_step (1, 0) FAR  w(0) 25292.
	create_child: DRAGON_step (0, 5) FAR 25474 U 0.00
expand: DRAGON_step (0, 0) FAR  w(0) 25474. F 0.00
expand: top_step (1, 0) FAR  w(0) 25292. F 0.00
expand: MAIN (2, 0) FAR  w(0) 25373. F 0.00
expand: MAIN (3, 0) FAR  w(0) 3217.
	create_child: MAIN (2, 5) FAR 26073 U 0.00
expand: MAIN (2, 0) FAR  w(0) 26073.
	create_child: top_step (1, 5) FAR 26021 U 0.00
expand: top_step (1, 0) FAR  w(0) 26021.
	create_child: DRAGON_step (0, 5) FAR 26162 U 0.00
expand: DRAGON_step (0, 0) FAR  w(0) 26162. F 0.00
expand: top_step (1, 0) FAR  w(0) 26021. F 0.00
expand: MAIN (2, 0) FAR  w(0) 26073. F 0.00
expand: MAIN (3, 0) FAR  w(0) 3217.
	create_child: MAIN (2, 5) FAR 26608 U 0.00
expand: MAIN (2, 0) FAR  w(0) 26608.
	create_child: top_step (1, 5) FAR 26535 U 0.00
expand: top_step (1, 0) FAR  w(0) 26535.
	create_child: DRAGON_step (0, 5) FAR 26443 U 0.00
expand: DRAGON_step (0, 0) FAR  w(0) 26443. F 0.00
expand: top_step (1, 0) FAR  w(0) 26535. F 0.01
expand: MAIN (2, 0) FAR  w(0) 26608. F 0.00
expand: MAIN (3, 0) FAR  w(0) 3217.
	create_child: MAIN (2, 5) FAR 27166 U 0.00
expand: MAIN (2, 0) FAR  w(0) 27166.
	create_child: top_step (1, 5) FAR 27128 U 0.00
expand: top_step (1, 0) FAR  w(0) 27128.
	create_child: DRAGON_step (0, 5) FAR 27260 U 0.00
expand: DRAGON_step (0, 0) FAR  w(0) 27260. F 0.00
expand: top_step (1, 0) FAR  w(0) 27128. F 0.00
expand: MAIN (2, 0) FAR  w(0) 27166. F 0.00
expand: MAIN (3, 0) FAR  w(0) 3217.
	create_child: MAIN (2, 5) FAR 27686 U 0.00
expand: MAIN (2, 0) FAR  w(0) 27686.
	create_child: top_step (1, 5) FAR 27577 U 0.00
expand: top_step (1, 0) FAR  w(0) 27577.
	create_child: DRAGON_step (0, 5) FAR 27277 U 0.00
expand: DRAGON_step (0, 0) FAR  w(0) 27277. F 0.00
expand: top_step (1, 0) FAR  w(0) 27577. F 0.00
expand: MAIN (2, 0) FAR  w(0) 27686. F 0.00
expand: MAIN (3, 0) FAR  w(0) 3217.
	create_child: MAIN (2, 5) FAR 27798 U 0.00
expand: MAIN (2, 0) FAR  w(0) 27798.
	create_child: top_reset (1, 5) FAR 27939 U 0.00
expand: top_reset (1, 0) FAR  w(0) 27939. T 0.00
is-reachable: MAIN (2, 0) FAR 27798 T 0.00
is-reachable: MAIN (3, 0) FAR 3217 T 0.01
is-reachable: ERR (4, 0) FAR 1 T 0.00
is-reachable: query!0 (5, 0) FAR 1 T 0.00
(spacer::context::check_reachability :time 0.09 :before-memory 26.39 :after-memory 28.59)
BRUNCH_STAT max_query_lvl 5
BRUNCH_STAT num_queries 49
BRUNCH_STAT num_reach_queries 6
BRUNCH_STAT num_reach_reuse 77
BRUNCH_STAT inductive_lvl 0
BRUNCH_STAT max_depth 5
BRUNCH_STAT cex_depth 5
(:SPACER-cex-depth                     5
 :SPACER-max-depth                     5
 :SPACER-max-query-lvl                 5
 :SPACER-num-invariants                32
 :SPACER-num-lemmas                    50
 :SPACER-num-properties                42
 :SPACER-num-queries                   49
 :SPACER-num-reach-queries             6
 :SPACER-num-reuse-reach-facts         77
 :added-eqs                            8193
 :arith-add-rows                       3839
 :arith-assert-diseq                   2014
 :arith-assert-lower                   4161
 :arith-assert-upper                   5101
 :arith-bound-prop                     790
 :arith-conflicts                      42
 :arith-eq-adapter                     1575
 :arith-fixed-eqs                      1210
 :arith-offset-eqs                     1334
 :arith-pivots                         804
 :bool-inductive-gen                   38
 :bool-inductive-gen-failures          61
 :conflicts                            321
 :decisions                            7731
 :del-clause                           599
 :final-checks                         125
 :minimized-lits                       35
 :mk-bool-var                          5921
 :mk-clause                            9003
 :num-checks                           284
 :propagations                         72957
 :time.itp_solver.itp_core             0.02
 :time.spacer.init_rules               0.01
 :time.spacer.init_rules.pt.init       0.00
 :time.spacer.solve                    0.23
 :time.spacer.solve.propagate          0.00
 :time.spacer.solve.pt.must_reachable  0.01
 :time.spacer.solve.reach              0.23
 :time.spacer.solve.reach.children     0.04
 :time.spacer.solve.reach.gen.bool_ind 0.03
 :time.spacer.solve.reach.is-reach     0.01
 :time.virtual_solver.proof            0.01
 :time.virtual_solver.smt.total        0.14
 :time.virtual_solver.smt.total.sat    0.08
 :virtual_solver.checks                284
 :virtual_solver.checks.sat            125)
BRUNCH_STAT max_query_lvl 5
BRUNCH_STAT num_queries 49
BRUNCH_STAT num_reach_queries 6
BRUNCH_STAT num_reach_reuse 77
BRUNCH_STAT inductive_lvl 0
BRUNCH_STAT max_depth 5
BRUNCH_STAT cex_depth 5

real	0m0.297s
user	0m0.280s
sys	0m0.016s
