(transform N7datalog13mk_coi_filterE...no-op 0s)
(transform N7datalog25mk_interp_tail_simplifierE...12 rules 0s)
(transform N7datalog27mk_quantifier_instantiationE...no-op 0s)
(transform N7datalog8mk_scaleE...no-op 0s)
(transform N7datalog18mk_karr_invariantsE...no-op 0s)
(transform N7datalog14mk_array_blastE...no-op 0s)
(transform N7datalog22mk_subsumption_checkerE...11 rules 0s)
(transform N7datalog12mk_bit_blastE...no-op 0s)
(transform N7datalog15mk_rule_inlinerE...no-op 0s)
(transform N7datalog13mk_coi_filterE...no-op 0s)
(transform N7datalog25mk_interp_tail_simplifierE...11 rules 0s)
(transform N7datalog22mk_subsumption_checkerE...no-op 0s)
(transform N7datalog15mk_rule_inlinerE...no-op 0s)
(transform N7datalog13mk_coi_filterE...no-op 0s)
(transform N7datalog25mk_interp_tail_simplifierE...11 rules 0s)
(transform N7datalog22mk_subsumption_checkerE...no-op 0s)
(transform N7datalog15mk_rule_inlinerE...no-op 0s)
(transform N7datalog22mk_subsumption_checkerE...no-op 0s)
(transform N7datalog15mk_rule_inlinerE...no-op 0s)
(transform N7datalog22mk_subsumption_checkerE...no-op 0s)
(transform N7datalog15mk_rule_inlinerE...no-op 0s)
(transform N7datalog22mk_subsumption_checkerE...no-op 0s)
expand: query!0 (0, 0) FAR  w(0) 1. F 0.00
(spacer::context::check_reachability :time 0.00 :before-memory 11.60 :after-memory 12.05)
Entering level 1
BRUNCH_STAT max_query_lvl 0
BRUNCH_STAT num_queries 0
BRUNCH_STAT num_reach_queries 0
BRUNCH_STAT num_reach_reuse 0
BRUNCH_STAT inductive_lvl 0
BRUNCH_STAT max_depth 1
BRUNCH_STAT cex_depth 0
expand: query!0 (1, 0) FAR  w(0) 1.
	create_child: ERR (0, 1) FAR 1 U 0.00
expand: ERR (0, 0) FAR  w(0) 1. F 0.00
expand: query!0 (1, 0) FAR  w(0) 1. F 0.00
(spacer::context::check_reachability :time 0.00 :before-memory 12.05 :after-memory 12.49)
Propagating: 0 1  ! 2 
(spacer::context::propagate :time 0.00 :before-memory 12.49 :after-memory 12.49)
Entering level 2
BRUNCH_STAT max_query_lvl 1
BRUNCH_STAT num_queries 1
BRUNCH_STAT num_reach_queries 0
BRUNCH_STAT num_reach_reuse 0
BRUNCH_STAT inductive_lvl 0
BRUNCH_STAT max_depth 2
BRUNCH_STAT cex_depth 0
expand: query!0 (2, 0) FAR  w(0) 1.
	create_child: ERR (1, 2) FAR 1 U 0.00
expand: ERR (1, 0) FAR  w(0) 1.
	create_child: MAIN (0, 2) FAR 2806 U 0.00
expand: MAIN (0, 0) FAR  w(0) 2806. F 0.00
expand: ERR (1, 0) FAR  w(0) 1. F 0.00
expand: query!0 (2, 0) FAR  w(0) 1. F 0.00
(spacer::context::check_reachability :time 0.00 :before-memory 12.49 :after-memory 12.95)
Propagating: 0 1 2  ! 3 
(spacer::context::propagate :time 0.00 :before-memory 12.95 :after-memory 12.95)
Entering level 3
BRUNCH_STAT max_query_lvl 2
BRUNCH_STAT num_queries 3
BRUNCH_STAT num_reach_queries 0
BRUNCH_STAT num_reach_reuse 0
BRUNCH_STAT inductive_lvl 0
BRUNCH_STAT max_depth 3
BRUNCH_STAT cex_depth 0
expand: query!0 (3, 0) FAR  w(0) 1.
	create_child: ERR (2, 3) FAR 1 U 0.00
expand: ERR (2, 0) FAR  w(0) 1.
	create_child: MAIN (1, 3) FAR 2806 U 0.00
expand: MAIN (1, 0) FAR  w(0) 2806.
	create_child: top_step (0, 3) FAR 3667 U 0.00
expand: top_step (0, 0) FAR  w(0) 3667. F 0.00
expand: MAIN (1, 0) FAR  w(0) 2806. F 0.00
expand: ERR (2, 0) FAR  w(0) 1. F 0.00
expand: query!0 (3, 0) FAR  w(0) 1. F 0.00
(spacer::context::check_reachability :time 0.01 :before-memory 12.95 :after-memory 14.15)
Propagating: 0 1 2 3  ! 4 
(spacer::context::propagate :time 0.00 :before-memory 14.15 :after-memory 14.24)
Entering level 4
BRUNCH_STAT max_query_lvl 3
BRUNCH_STAT num_queries 6
BRUNCH_STAT num_reach_queries 0
BRUNCH_STAT num_reach_reuse 0
BRUNCH_STAT inductive_lvl 0
BRUNCH_STAT max_depth 4
BRUNCH_STAT cex_depth 0
expand: query!0 (4, 0) FAR  w(0) 1.
	create_child: ERR (3, 4) FAR 1 U 0.00
expand: ERR (3, 0) FAR  w(0) 1.
	create_child: MAIN (2, 4) FAR 2806 U 0.00
expand: MAIN (2, 0) FAR  w(0) 2806.
	create_child: top_step (1, 4) FAR 3667 U 0.00
expand: top_step (1, 0) FAR  w(0) 3667.
	create_child: top_reset (1, 4) FAR 11766 X 0.01
expand: top_reset (1, 0) FAR  w(0) 11766.
	create_child: DRAGON_reset (0, 4) FAR 12243 U 0.00
expand: DRAGON_reset (0, 0) FAR  w(0) 12243. F 0.00
expand: top_reset (1, 0) FAR  w(0) 11766. F 0.00
expand: MAIN (2, 0) FAR  w(0) 2806.
	create_child: top_step (1, 4) FAR 16589 U 0.00
expand: top_step (1, 0) FAR  w(0) 16589.
	create_child: DRAGON_step (0, 4) FAR 16734 U 0.01
expand: DRAGON_step (0, 0) FAR  w(0) 16734. F 0.01
expand: top_step (1, 0) FAR  w(0) 16589. F 0.00
expand: MAIN (2, 0) FAR  w(0) 2806. F 0.00
expand: ERR (3, 0) FAR  w(0) 1. F 0.00
expand: query!0 (4, 0) FAR  w(0) 1. F 0.00
(spacer::context::check_reachability :time 0.03 :before-memory 14.24 :after-memory 19.33)
Propagating: 0 1 2 3 4  ! 5 
(spacer::context::propagate :time 0.00 :before-memory 19.33 :after-memory 19.33)
Entering level 5
BRUNCH_STAT max_query_lvl 4
BRUNCH_STAT num_queries 12
BRUNCH_STAT num_reach_queries 1
BRUNCH_STAT num_reach_reuse 5
BRUNCH_STAT inductive_lvl 0
BRUNCH_STAT max_depth 5
BRUNCH_STAT cex_depth 0
expand: query!0 (5, 0) FAR  w(0) 1.
	create_child: ERR (4, 5) FAR 1 U 0.00
expand: ERR (4, 0) FAR  w(0) 1.
	create_child: MAIN (3, 5) FAR 2806 U 0.00
expand: MAIN (3, 0) FAR  w(0) 2806.
	create_child: MAIN (2, 5) FAR 20399 U 0.00
expand: MAIN (2, 0) FAR  w(0) 20399.
	create_child: top_step (1, 5) FAR 20215 U 0.00
expand: top_step (1, 0) FAR  w(0) 20215.
	create_child: DRAGON_step (0, 5) FAR 20455 U 0.00
expand: DRAGON_step (0, 0) FAR  w(0) 20455. F 0.00
expand: top_step (1, 0) FAR  w(0) 20215. F 0.00
expand: MAIN (2, 0) FAR  w(0) 20399. F 0.00
expand: MAIN (3, 0) FAR  w(0) 2806.
	create_child: MAIN (2, 5) FAR 20918 U 0.00
expand: MAIN (2, 0) FAR  w(0) 20918.
	create_child: top_step (1, 5) FAR 20695 U 0.00
expand: top_step (1, 0) FAR  w(0) 20695.
	create_child: DRAGON_step (0, 5) FAR 20580 U 0.00
expand: DRAGON_step (0, 0) FAR  w(0) 20580. F 0.00
expand: top_step (1, 0) FAR  w(0) 20695. F 0.00
expand: MAIN (2, 0) FAR  w(0) 20918. F 0.00
expand: MAIN (3, 0) FAR  w(0) 2806.
	create_child: MAIN (2, 5) FAR 21567 U 0.00
expand: MAIN (2, 0) FAR  w(0) 21567.
	create_child: top_step (1, 5) FAR 21445 U 0.00
expand: top_step (1, 0) FAR  w(0) 21445.
	create_child: DRAGON_step (0, 5) FAR 21715 U 0.00
expand: DRAGON_step (0, 0) FAR  w(0) 21715. F 0.00
expand: top_step (1, 0) FAR  w(0) 21445. F 0.00
expand: MAIN (2, 0) FAR  w(0) 21567. F 0.00
expand: MAIN (3, 0) FAR  w(0) 2806.
	create_child: MAIN (2, 5) FAR 22285 U 0.00
expand: MAIN (2, 0) FAR  w(0) 22285.
	create_child: top_step (1, 5) FAR 22236 U 0.00
expand: top_step (1, 0) FAR  w(0) 22236.
	create_child: DRAGON_step (0, 5) FAR 22247 U 0.00
expand: DRAGON_step (0, 0) FAR  w(0) 22247. F 0.00
expand: top_step (1, 0) FAR  w(0) 22236. F 0.00
expand: MAIN (2, 0) FAR  w(0) 22285. F 0.00
expand: MAIN (3, 0) FAR  w(0) 2806.
	create_child: MAIN (2, 5) FAR 22880 U 0.00
expand: MAIN (2, 0) FAR  w(0) 22880.
	create_child: top_step (1, 5) FAR 22662 U 0.00
expand: top_step (1, 0) FAR  w(0) 22662.
	create_child: DRAGON_step (0, 5) FAR 22783 U 0.00
expand: DRAGON_step (0, 0) FAR  w(0) 22783. F 0.00
expand: top_step (1, 0) FAR  w(0) 22662. F 0.00
expand: MAIN (2, 0) FAR  w(0) 22880. F 0.00
expand: MAIN (3, 0) FAR  w(0) 2806.
	create_child: MAIN (2, 5) FAR 23164 U 0.00
expand: MAIN (2, 0) FAR  w(0) 23164.
	create_child: top_step (1, 5) FAR 23105 U 0.00
expand: top_step (1, 0) FAR  w(0) 23105.
	create_child: DRAGON_step (0, 5) FAR 22721 U 0.00
expand: DRAGON_step (0, 0) FAR  w(0) 22721. F 0.00
expand: top_step (1, 0) FAR  w(0) 23105. F 0.00
expand: MAIN (2, 0) FAR  w(0) 23164. F 0.00
expand: MAIN (3, 0) FAR  w(0) 2806.
	create_child: top_step (2, 5) FAR 23614 U 0.00
expand: top_step (2, 0) FAR  w(0) 23614.
	create_child: DRAGON_step (1, 5) FAR 24248 U 0.01
expand: DRAGON_step (1, 0) FAR  w(0) 24248. F 0.01
expand: top_step (2, 0) FAR  w(0) 23614.
	create_child: DRAGON_step (1, 5) FAR 24472 U 0.00
expand: DRAGON_step (1, 0) FAR  w(0) 24472. F 0.00
expand: top_step (2, 0) FAR  w(0) 23614.
	create_child: DRAGON_step (1, 5) FAR 24640 U 0.00
expand: DRAGON_step (1, 0) FAR  w(0) 24640. F 0.01
expand: top_step (2, 0) FAR  w(0) 23614.
	create_child: DRAGON_step (1, 5) FAR 24835 U 0.00
expand: DRAGON_step (1, 0) FAR  w(0) 24835. F 0.00
expand: top_step (2, 0) FAR  w(0) 23614. F 0.01
expand: MAIN (3, 0) FAR  w(0) 2806. F 0.00
expand: ERR (4, 0) FAR  w(0) 1. F 0.00
expand: query!0 (5, 0) FAR  w(0) 1. F 0.00
(spacer::context::check_reachability :time 0.13 :before-memory 19.33 :after-memory 21.34)
Propagating: 0 1 2 3 4 5  ! 6 
(spacer::context::propagate :time 0.01 :before-memory 21.34 :after-memory 21.34)
Entering level 6
BRUNCH_STAT max_query_lvl 5
BRUNCH_STAT num_queries 37
BRUNCH_STAT num_reach_queries 1
BRUNCH_STAT num_reach_reuse 31
BRUNCH_STAT inductive_lvl 0
BRUNCH_STAT max_depth 6
BRUNCH_STAT cex_depth 0
expand: query!0 (6, 0) FAR  w(0) 1.
	create_child: ERR (5, 6) FAR 1 U 0.00
expand: ERR (5, 0) FAR  w(0) 1.
	create_child: MAIN (4, 6) FAR 2806 U 0.00
expand: MAIN (4, 0) FAR  w(0) 2806.
	create_child: MAIN (3, 6) FAR 25602 U 0.00
expand: MAIN (3, 0) FAR  w(0) 25602.
	create_child: top_step (2, 6) FAR 25425 U 0.00
expand: top_step (2, 0) FAR  w(0) 25425.
	create_child: DRAGON_step (1, 6) FAR 25804 U 0.00
expand: DRAGON_step (1, 0) FAR  w(0) 25804. F 0.01
expand: top_step (2, 0) FAR  w(0) 25425. F 0.01
expand: MAIN (3, 0) FAR  w(0) 25602. F 0.01
expand: MAIN (4, 0) FAR  w(0) 2806.
	create_child: MAIN (3, 6) FAR 26586 U 0.00
expand: MAIN (3, 0) FAR  w(0) 26586.
	create_child: top_step (2, 6) FAR 26313 U 0.00
expand: top_step (2, 0) FAR  w(0) 26313. F 0.01
expand: MAIN (3, 0) FAR  w(0) 26586. F 0.00
expand: MAIN (4, 0) FAR  w(0) 2806.
	create_child: MAIN (3, 6) FAR 20918 U 0.00
expand: MAIN (3, 0) FAR  w(0) 20918.
	create_child: top_step (2, 6) FAR 26391 U 0.00
expand: top_step (2, 0) FAR  w(0) 26391. F 0.01
expand: MAIN (3, 0) FAR  w(0) 20918. F 0.00
expand: MAIN (4, 0) FAR  w(0) 2806.
	create_child: MAIN (3, 6) FAR 27200 U 0.00
expand: MAIN (3, 0) FAR  w(0) 27200.
	create_child: top_step (2, 6) FAR 27155 U 0.00
expand: top_step (2, 0) FAR  w(0) 27155. F 0.01
expand: MAIN (3, 0) FAR  w(0) 27200. F 0.00
expand: MAIN (4, 0) FAR  w(0) 2806.
	create_child: MAIN (3, 6) FAR 27463 U 0.00
expand: MAIN (3, 0) FAR  w(0) 27463.
	create_child: top_step (2, 6) FAR 27360 U 0.00
expand: top_step (2, 0) FAR  w(0) 27360.
	create_child: DRAGON_step (1, 6) FAR 27506 U 0.00
expand: DRAGON_step (1, 0) FAR  w(0) 27506. F 0.00
expand: top_step (2, 0) FAR  w(0) 27360.
	create_child: DRAGON_step (1, 6) FAR 27666 U 0.00
expand: DRAGON_step (1, 0) FAR  w(0) 27666. F 0.01
expand: top_step (2, 0) FAR  w(0) 27360. F 0.01
expand: MAIN (3, 0) FAR  w(0) 27463. F 0.00
expand: MAIN (4, 0) FAR  w(0) 2806.
	create_child: MAIN (3, 6) FAR 28013 U 0.00
expand: MAIN (3, 0) FAR  w(0) 28013.
	create_child: MAIN (2, 6) FAR 28148 U 0.00
expand: MAIN (2, 0) FAR  w(0) 28148.
	create_child: top_reset (1, 6) FAR 28053 U 0.00
expand: top_reset (1, 0) FAR  w(0) 28053.
	create_child: Sofar_reset (0, 6) FAR 27389 U 0.00
expand: Sofar_reset (0, 0) FAR  w(0) 27389. F 0.00
expand: top_reset (1, 0) FAR  w(0) 28053. F 0.00
expand: MAIN (2, 0) FAR  w(0) 28148.
	create_child: top_reset (1, 6) FAR 28239 U 0.00
expand: top_reset (1, 0) FAR  w(0) 28239. T 0.00
is-reachable: MAIN (2, 0) FAR 28148 T 0.00
is-reachable: MAIN (3, 0) FAR 28013 T 0.00
is-reachable: MAIN (4, 0) FAR 2806 T 0.00
is-reachable: ERR (5, 0) FAR 1 T 0.00
is-reachable: query!0 (6, 0) FAR 1 T 0.00
(spacer::context::check_reachability :time 0.13 :before-memory 21.34 :after-memory 23.60)
BRUNCH_STAT max_query_lvl 6
BRUNCH_STAT num_queries 57
BRUNCH_STAT num_reach_queries 7
BRUNCH_STAT num_reach_reuse 49
BRUNCH_STAT inductive_lvl 0
BRUNCH_STAT max_depth 6
BRUNCH_STAT cex_depth 6
(:SPACER-cex-depth                     6
 :SPACER-max-depth                     6
 :SPACER-max-query-lvl                 6
 :SPACER-num-invariants                31
 :SPACER-num-lemmas                    58
 :SPACER-num-properties                44
 :SPACER-num-queries                   57
 :SPACER-num-reach-queries             7
 :SPACER-num-reuse-reach-facts         49
 :added-eqs                            13314
 :arith-add-rows                       6777
 :arith-assert-diseq                   3884
 :arith-assert-lower                   8291
 :arith-assert-upper                   8289
 :arith-bound-prop                     954
 :arith-conflicts                      55
 :arith-eq-adapter                     2655
 :arith-fixed-eqs                      2073
 :arith-offset-eqs                     1815
 :arith-pivots                         1227
 :bool-inductive-gen                   44
 :bool-inductive-gen-failures          99
 :conflicts                            492
 :decisions                            14305
 :del-clause                           1031
 :final-checks                         205
 :minimized-lits                       99
 :mk-bool-var                          8006
 :mk-clause                            8237
 :num-checks                           454
 :propagations                         125968
 :time.itp_solver.itp_core             0.03
 :time.spacer.init_rules               0.01
 :time.spacer.init_rules.pt.init       0.00
 :time.spacer.solve                    0.31
 :time.spacer.solve.propagate          0.01
 :time.spacer.solve.pt.must_reachable  0.01
 :time.spacer.solve.reach              0.30
 :time.spacer.solve.reach.children     0.04
 :time.spacer.solve.reach.gen.bool_ind 0.09
 :time.spacer.solve.reach.is-reach     0.01
 :time.virtual_solver.proof            0.02
 :time.virtual_solver.smt.total        0.22
 :time.virtual_solver.smt.total.sat    0.14
 :virtual_solver.checks                454
 :virtual_solver.checks.sat            205)
BRUNCH_STAT max_query_lvl 6
BRUNCH_STAT num_queries 57
BRUNCH_STAT num_reach_queries 7
BRUNCH_STAT num_reach_reuse 49
BRUNCH_STAT inductive_lvl 0
BRUNCH_STAT max_depth 6
BRUNCH_STAT cex_depth 6

real	0m0.388s
user	0m0.364s
sys	0m0.024s
