(transform N7datalog13mk_coi_filterE...no-op 0s)
(transform N7datalog25mk_interp_tail_simplifierE...12 rules 0s)
(transform N7datalog27mk_quantifier_instantiationE...no-op 0s)
(transform N7datalog8mk_scaleE...no-op 0s)
(transform N7datalog18mk_karr_invariantsE...no-op 0s)
(transform N7datalog14mk_array_blastE...no-op 0s)
(transform N7datalog22mk_subsumption_checkerE...11 rules 0s)
(transform N7datalog12mk_bit_blastE...no-op 0s)
(transform N7datalog15mk_rule_inlinerE...no-op 0s)
(transform N7datalog13mk_coi_filterE...no-op 0s)
(transform N7datalog25mk_interp_tail_simplifierE...11 rules 0s)
(transform N7datalog22mk_subsumption_checkerE...no-op 0s)
(transform N7datalog15mk_rule_inlinerE...no-op 0s)
(transform N7datalog13mk_coi_filterE...no-op 0s)
(transform N7datalog25mk_interp_tail_simplifierE...11 rules 0s)
(transform N7datalog22mk_subsumption_checkerE...no-op 0s)
(transform N7datalog15mk_rule_inlinerE...no-op 0s)
(transform N7datalog22mk_subsumption_checkerE...no-op 0s)
(transform N7datalog15mk_rule_inlinerE...no-op 0s)
(transform N7datalog22mk_subsumption_checkerE...no-op 0s)
(transform N7datalog15mk_rule_inlinerE...no-op 0s)
(transform N7datalog22mk_subsumption_checkerE...no-op 0s)
expand: query!0 (0, 0) FAR  w(0) 1. F 0.00
(spacer::context::check_reachability :time 0.00 :before-memory 11.60 :after-memory 12.05)
Entering level 1
BRUNCH_STAT max_query_lvl 0
BRUNCH_STAT num_queries 0
BRUNCH_STAT num_reach_queries 0
BRUNCH_STAT num_reach_reuse 0
BRUNCH_STAT inductive_lvl 0
BRUNCH_STAT max_depth 1
BRUNCH_STAT cex_depth 0
expand: query!0 (1, 0) FAR  w(0) 1.
	create_child: ERR (0, 1) FAR 1 U 0.00
expand: ERR (0, 0) FAR  w(0) 1. F 0.00
expand: query!0 (1, 0) FAR  w(0) 1. F 0.00
(spacer::context::check_reachability :time 0.00 :before-memory 12.05 :after-memory 12.49)
Propagating: 0 1  ! 2 
(spacer::context::propagate :time 0.00 :before-memory 12.49 :after-memory 12.49)
Entering level 2
BRUNCH_STAT max_query_lvl 1
BRUNCH_STAT num_queries 1
BRUNCH_STAT num_reach_queries 0
BRUNCH_STAT num_reach_reuse 0
BRUNCH_STAT inductive_lvl 0
BRUNCH_STAT max_depth 2
BRUNCH_STAT cex_depth 0
expand: query!0 (2, 0) FAR  w(0) 1.
	create_child: ERR (1, 2) FAR 1 U 0.00
expand: ERR (1, 0) FAR  w(0) 1.
	create_child: MAIN (0, 2) FAR 2813 U 0.00
expand: MAIN (0, 0) FAR  w(0) 2813. F 0.00
expand: ERR (1, 0) FAR  w(0) 1. F 0.00
expand: query!0 (2, 0) FAR  w(0) 1. F 0.00
(spacer::context::check_reachability :time 0.00 :before-memory 12.49 :after-memory 12.95)
Propagating: 0 1 2  ! 3 
(spacer::context::propagate :time 0.00 :before-memory 12.95 :after-memory 12.95)
Entering level 3
BRUNCH_STAT max_query_lvl 2
BRUNCH_STAT num_queries 3
BRUNCH_STAT num_reach_queries 0
BRUNCH_STAT num_reach_reuse 0
BRUNCH_STAT inductive_lvl 0
BRUNCH_STAT max_depth 3
BRUNCH_STAT cex_depth 0
expand: query!0 (3, 0) FAR  w(0) 1.
	create_child: ERR (2, 3) FAR 1 U 0.00
expand: ERR (2, 0) FAR  w(0) 1.
	create_child: MAIN (1, 3) FAR 2813 U 0.00
expand: MAIN (1, 0) FAR  w(0) 2813.
	create_child: top_step (0, 3) FAR 3673 U 0.00
expand: top_step (0, 0) FAR  w(0) 3673. F 0.00
expand: MAIN (1, 0) FAR  w(0) 2813. F 0.00
expand: ERR (2, 0) FAR  w(0) 1. F 0.00
expand: query!0 (3, 0) FAR  w(0) 1. F 0.00
(spacer::context::check_reachability :time 0.01 :before-memory 12.95 :after-memory 14.15)
Propagating: 0 1 2 3  ! 4 
(spacer::context::propagate :time 0.00 :before-memory 14.15 :after-memory 14.24)
Entering level 4
BRUNCH_STAT max_query_lvl 3
BRUNCH_STAT num_queries 6
BRUNCH_STAT num_reach_queries 0
BRUNCH_STAT num_reach_reuse 0
BRUNCH_STAT inductive_lvl 0
BRUNCH_STAT max_depth 4
BRUNCH_STAT cex_depth 0
expand: query!0 (4, 0) FAR  w(0) 1.
	create_child: ERR (3, 4) FAR 1 U 0.00
expand: ERR (3, 0) FAR  w(0) 1.
	create_child: MAIN (2, 4) FAR 2813 U 0.00
expand: MAIN (2, 0) FAR  w(0) 2813.
	create_child: top_step (1, 4) FAR 3673 U 0.00
expand: top_step (1, 0) FAR  w(0) 3673.
	create_child: top_reset (1, 4) FAR 11816 X 0.01
expand: top_reset (1, 0) FAR  w(0) 11816.
	create_child: DRAGON_reset (0, 4) FAR 12306 U 0.00
expand: DRAGON_reset (0, 0) FAR  w(0) 12306. F 0.00
expand: top_reset (1, 0) FAR  w(0) 11816. F 0.00
expand: MAIN (2, 0) FAR  w(0) 2813.
	create_child: top_step (1, 4) FAR 16645 U 0.00
expand: top_step (1, 0) FAR  w(0) 16645.
	create_child: DRAGON_step (0, 4) FAR 16810 U 0.01
expand: DRAGON_step (0, 0) FAR  w(0) 16810. F 0.01
expand: top_step (1, 0) FAR  w(0) 16645. F 0.00
expand: MAIN (2, 0) FAR  w(0) 2813. F 0.00
expand: ERR (3, 0) FAR  w(0) 1. F 0.00
expand: query!0 (4, 0) FAR  w(0) 1. F 0.00
(spacer::context::check_reachability :time 0.03 :before-memory 14.24 :after-memory 19.42)
Propagating: 0 1 2 3 4  ! 5 
(spacer::context::propagate :time 0.00 :before-memory 19.42 :after-memory 19.42)
Entering level 5
BRUNCH_STAT max_query_lvl 4
BRUNCH_STAT num_queries 12
BRUNCH_STAT num_reach_queries 1
BRUNCH_STAT num_reach_reuse 5
BRUNCH_STAT inductive_lvl 0
BRUNCH_STAT max_depth 5
BRUNCH_STAT cex_depth 0
expand: query!0 (5, 0) FAR  w(0) 1.
	create_child: ERR (4, 5) FAR 1 U 0.00
expand: ERR (4, 0) FAR  w(0) 1.
	create_child: MAIN (3, 5) FAR 2813 U 0.00
expand: MAIN (3, 0) FAR  w(0) 2813.
	create_child: MAIN (2, 5) FAR 20762 U 0.00
expand: MAIN (2, 0) FAR  w(0) 20762.
	create_child: top_step (1, 5) FAR 20527 U 0.00
expand: top_step (1, 0) FAR  w(0) 20527.
	create_child: Sofar_step (0, 5) FAR 20719 U 0.00
expand: Sofar_step (0, 0) FAR  w(0) 20719. F 0.00
expand: top_step (1, 0) FAR  w(0) 20527. F 0.00
expand: MAIN (2, 0) FAR  w(0) 20762. F 0.00
expand: MAIN (3, 0) FAR  w(0) 2813.
	create_child: MAIN (2, 5) FAR 21172 U 0.00
expand: MAIN (2, 0) FAR  w(0) 21172.
	create_child: top_step (1, 5) FAR 21013 U 0.00
expand: top_step (1, 0) FAR  w(0) 21013.
	create_child: DRAGON_step (0, 5) FAR 21049 U 0.00
expand: DRAGON_step (0, 0) FAR  w(0) 21049. F 0.00
expand: top_step (1, 0) FAR  w(0) 21013. F 0.00
expand: MAIN (2, 0) FAR  w(0) 21172. F 0.00
expand: MAIN (3, 0) FAR  w(0) 2813.
	create_child: MAIN (2, 5) FAR 21689 U 0.00
expand: MAIN (2, 0) FAR  w(0) 21689.
	create_child: top_step (1, 5) FAR 21599 U 0.00
expand: top_step (1, 0) FAR  w(0) 21599.
	create_child: DRAGON_step (0, 5) FAR 21636 U 0.00
expand: DRAGON_step (0, 0) FAR  w(0) 21636. F 0.00
expand: top_step (1, 0) FAR  w(0) 21599. F 0.00
expand: MAIN (2, 0) FAR  w(0) 21689. F 0.00
expand: MAIN (3, 0) FAR  w(0) 2813.
	create_child: top_step (2, 5) FAR 22120 U 0.00
expand: top_step (2, 0) FAR  w(0) 22120.
	create_child: excludes12_fun (1, 5) FAR 23285 U 0.01
expand: excludes12_fun (1, 0) FAR  w(0) 23285. F 0.00
expand: top_step (2, 0) FAR  w(0) 22120.
	create_child: excludes12_fun (1, 5) FAR 23833 U 0.00
expand: excludes12_fun (1, 0) FAR  w(0) 23833. F 0.00
expand: top_step (2, 0) FAR  w(0) 22120.
	create_child: excludes12_fun (1, 5) FAR 23948 U 0.00
expand: excludes12_fun (1, 0) FAR  w(0) 23948. F 0.00
expand: top_step (2, 0) FAR  w(0) 22120.
	create_child: excludes12_fun (1, 5) FAR 2097 U 0.00
expand: excludes12_fun (1, 0) FAR  w(0) 2097.
	create_child: DRAGON_step (1, 5) FAR 23591 X 0.00
expand: DRAGON_step (1, 0) FAR  w(0) 23591. F 0.01
expand: top_step (2, 0) FAR  w(0) 22120.
	create_child: excludes12_fun (1, 5) FAR 24126 U 0.00
expand: excludes12_fun (1, 0) FAR  w(0) 24126.
	create_child: DRAGON_step (1, 5) FAR 24141 X 0.00
expand: DRAGON_step (1, 0) FAR  w(0) 24141. F 0.01
expand: top_step (2, 0) FAR  w(0) 22120.
	create_child: excludes12_fun (1, 5) FAR 24068 U 0.00
expand: excludes12_fun (1, 0) FAR  w(0) 24068. F 0.00
expand: top_step (2, 0) FAR  w(0) 22120.
	create_child: excludes12_fun (1, 5) FAR 24148 U 0.00
expand: excludes12_fun (1, 0) FAR  w(0) 24148.
	create_child: DRAGON_step (1, 5) FAR 24163 X 0.00
expand: DRAGON_step (1, 0) FAR  w(0) 24163. F 0.00
expand: top_step (2, 0) FAR  w(0) 22120.
	create_child: Sofar_step (1, 5) FAR 24760 U 0.00
expand: Sofar_step (1, 0) FAR  w(0) 24760. F 0.00
expand: top_step (2, 0) FAR  w(0) 22120.
	create_child: excludes12_fun (1, 5) FAR 24524 U 0.00
expand: excludes12_fun (1, 0) FAR  w(0) 24524. F 0.00
expand: top_step (2, 0) FAR  w(0) 22120.
	create_child: DRAGON_step (1, 5) FAR 24505 U 0.00
expand: DRAGON_step (1, 0) FAR  w(0) 24505. F 0.00
expand: top_step (2, 0) FAR  w(0) 22120. F 0.00
expand: MAIN (3, 0) FAR  w(0) 2813. F 0.00
expand: ERR (4, 0) FAR  w(0) 1. F 0.00
expand: query!0 (5, 0) FAR  w(0) 1. F 0.00
(spacer::context::check_reachability :time 0.11 :before-memory 19.42 :after-memory 22.89)
Propagating: 0 1 2 3 4 5  ! 6 
(spacer::context::propagate :time 0.00 :before-memory 22.89 :after-memory 22.89)
Entering level 6
BRUNCH_STAT max_query_lvl 5
BRUNCH_STAT num_queries 34
BRUNCH_STAT num_reach_queries 1
BRUNCH_STAT num_reach_reuse 28
BRUNCH_STAT inductive_lvl 0
BRUNCH_STAT max_depth 6
BRUNCH_STAT cex_depth 0
expand: query!0 (6, 0) FAR  w(0) 1.
	create_child: ERR (5, 6) FAR 1 U 0.00
expand: ERR (5, 0) FAR  w(0) 1.
	create_child: MAIN (4, 6) FAR 2813 U 0.00
expand: MAIN (4, 0) FAR  w(0) 2813.
	create_child: MAIN (3, 6) FAR 25409 U 0.00
expand: MAIN (3, 0) FAR  w(0) 25409.
	create_child: top_step (2, 6) FAR 25306 U 0.00
expand: top_step (2, 0) FAR  w(0) 25306.
	create_child: Sofar_step (1, 6) FAR 25612 U 0.00
expand: Sofar_step (1, 0) FAR  w(0) 25612. F 0.00
expand: top_step (2, 0) FAR  w(0) 25306.
	create_child: Sofar_step (1, 6) FAR 25357 U 0.00
expand: Sofar_step (1, 0) FAR  w(0) 25357.
	create_child: DRAGON_step (1, 6) FAR 25504 X 0.00
expand: DRAGON_step (1, 0) FAR  w(0) 25504. F 0.00
expand: top_step (2, 0) FAR  w(0) 25306. F 0.00
expand: MAIN (3, 0) FAR  w(0) 25409. F 0.00
expand: MAIN (4, 0) FAR  w(0) 2813.
	create_child: MAIN (3, 6) FAR 21172 U 0.00
expand: MAIN (3, 0) FAR  w(0) 21172.
	create_child: top_step (2, 6) FAR 26025 U 0.00
expand: top_step (2, 0) FAR  w(0) 26025.
	create_child: excludes12_fun (1, 6) FAR 26433 U 0.00
expand: excludes12_fun (1, 0) FAR  w(0) 26433. F 0.00
expand: top_step (2, 0) FAR  w(0) 26025.
	create_child: excludes12_fun (1, 6) FAR 26454 U 0.00
expand: excludes12_fun (1, 0) FAR  w(0) 26454. F 0.00
expand: top_step (2, 0) FAR  w(0) 26025.
	create_child: Sofar_step (1, 6) FAR 26370 U 0.00
expand: Sofar_step (1, 0) FAR  w(0) 26370. F 0.00
expand: top_step (2, 0) FAR  w(0) 26025. F 0.00
expand: MAIN (3, 0) FAR  w(0) 21172.
	create_child: top_step (2, 6) FAR 25420 U 0.00
expand: top_step (2, 0) FAR  w(0) 25420.
	create_child: DRAGON_step (1, 6) FAR 26727 U 0.00
expand: DRAGON_step (1, 0) FAR  w(0) 26727. F 0.00
expand: top_step (2, 0) FAR  w(0) 25420.
	create_child: excludes12_fun (1, 6) FAR 26968 U 0.00
expand: excludes12_fun (1, 0) FAR  w(0) 26968. F 0.00
expand: top_step (2, 0) FAR  w(0) 25420. F 0.01
expand: MAIN (3, 0) FAR  w(0) 21172. F 0.00
expand: MAIN (4, 0) FAR  w(0) 2813.
	create_child: MAIN (3, 6) FAR 21689 U 0.00
expand: MAIN (3, 0) FAR  w(0) 21689.
	create_child: top_step (2, 6) FAR 27416 U 0.00
expand: top_step (2, 0) FAR  w(0) 27416.
	create_child: excludes12_fun (1, 6) FAR 28028 U 0.01
expand: excludes12_fun (1, 0) FAR  w(0) 28028.
	create_child: DRAGON_step (1, 6) FAR 28054 X 0.00
expand: DRAGON_step (1, 0) FAR  w(0) 28054. F 0.01
expand: top_step (2, 0) FAR  w(0) 27416.
	create_child: excludes12_fun (1, 6) FAR 28667 U 0.00
expand: excludes12_fun (1, 0) FAR  w(0) 28667.
	create_child: Sofar_step (1, 6) FAR 25357 X 0.00
expand: Sofar_step (1, 0) FAR  w(0) 25357.
	create_child: DRAGON_step (1, 6) FAR 28587 X 0.00
expand: DRAGON_step (1, 0) FAR  w(0) 28587. F 0.01
expand: top_step (2, 0) FAR  w(0) 27416. F 0.01
expand: MAIN (3, 0) FAR  w(0) 21689. F 0.00
expand: MAIN (4, 0) FAR  w(0) 2813.
	create_child: top_step (3, 6) FAR 29267 U 0.00
expand: top_step (3, 0) FAR  w(0) 29267.
	create_child: Sofar_step (2, 6) FAR 29524 U 0.00
expand: Sofar_step (2, 0) FAR  w(0) 29524. F 0.00
expand: top_step (3, 0) FAR  w(0) 29267. F 0.00
expand: MAIN (4, 0) FAR  w(0) 2813.
	create_child: top_step (3, 6) FAR 29448 U 0.00
expand: top_step (3, 0) FAR  w(0) 29448.
	create_child: excludes12_fun (2, 6) FAR 28028 U 0.01
expand: excludes12_fun (2, 0) FAR  w(0) 28028.
	create_child: DRAGON_step (2, 6) FAR 30051 X 0.00
expand: DRAGON_step (2, 0) FAR  w(0) 30051. F 0.00
expand: top_step (3, 0) FAR  w(0) 29448.
	create_child: excludes12_fun (2, 6) FAR 30196 U 0.00
expand: excludes12_fun (2, 0) FAR  w(0) 30196.
	create_child: DRAGON_step (2, 6) FAR 30231 X 0.00
expand: DRAGON_step (2, 0) FAR  w(0) 30231. F 0.01
expand: top_step (3, 0) FAR  w(0) 29448.
	create_child: excludes12_fun (2, 6) FAR 30465 U 0.00
expand: excludes12_fun (2, 0) FAR  w(0) 30465.
	create_child: DRAGON_step (2, 6) FAR 30387 X 0.00
expand: DRAGON_step (2, 0) FAR  w(0) 30387. F 0.00
expand: top_step (3, 0) FAR  w(0) 29448.
	create_child: excludes12_fun (2, 6) FAR 30415 U 0.00
expand: excludes12_fun (2, 0) FAR  w(0) 30415.
	create_child: DRAGON_step (2, 6) FAR 30241 X 0.00
expand: DRAGON_step (2, 0) FAR  w(0) 30241. F 0.01
expand: top_step (3, 0) FAR  w(0) 29448.
	create_child: excludes12_fun (2, 6) FAR 30543 U 0.00
expand: excludes12_fun (2, 0) FAR  w(0) 30543.
	create_child: DRAGON_step (2, 6) FAR 30639 X 0.00
expand: DRAGON_step (2, 0) FAR  w(0) 30639. F 0.00
expand: top_step (3, 0) FAR  w(0) 29448. F 0.00
expand: MAIN (4, 0) FAR  w(0) 2813.
	create_child: top_step (3, 6) FAR 29452 U 0.00
expand: top_step (3, 0) FAR  w(0) 29452.
	create_child: excludes12_fun (2, 6) FAR 31118 U 0.00
expand: excludes12_fun (2, 0) FAR  w(0) 31118. F 0.00
expand: top_step (3, 0) FAR  w(0) 29452. F 0.00
expand: MAIN (4, 0) FAR  w(0) 2813. F 0.00
expand: ERR (5, 0) FAR  w(0) 1. F 0.00
expand: query!0 (6, 0) FAR  w(0) 1. F 0.00
(spacer::context::check_reachability :time 0.19 :before-memory 22.89 :after-memory 24.90)
Propagating: 1 2 3 4 5 6  ! 7 
(spacer::context::propagate :time 0.00 :before-memory 24.90 :after-memory 24.90)
Entering level 7
BRUNCH_STAT max_query_lvl 6
BRUNCH_STAT num_queries 62
BRUNCH_STAT num_reach_queries 1
BRUNCH_STAT num_reach_reuse 50
BRUNCH_STAT inductive_lvl 0
BRUNCH_STAT max_depth 7
BRUNCH_STAT cex_depth 0
expand: query!0 (7, 0) FAR  w(0) 1.
	create_child: ERR (6, 7) FAR 1 U 0.00
expand: ERR (6, 0) FAR  w(0) 1.
	create_child: MAIN (5, 7) FAR 2813 U 0.00
expand: MAIN (5, 0) FAR  w(0) 2813.
	create_child: MAIN (4, 7) FAR 31325 U 0.00
expand: MAIN (4, 0) FAR  w(0) 31325.
	create_child: top_step (3, 7) FAR 31182 U 0.00
expand: top_step (3, 0) FAR  w(0) 31182. F 0.01
expand: MAIN (4, 0) FAR  w(0) 31325.
	create_child: top_step (3, 7) FAR 31426 U 0.00
expand: top_step (3, 0) FAR  w(0) 31426. F 0.00
expand: MAIN (4, 0) FAR  w(0) 31325. F 0.00
expand: MAIN (5, 0) FAR  w(0) 2813.
	create_child: MAIN (4, 7) FAR 21689 U 0.00
expand: MAIN (4, 0) FAR  w(0) 21689.
	create_child: MAIN (3, 7) FAR 31717 U 0.00
expand: MAIN (3, 0) FAR  w(0) 31717.
	create_child: top_step (2, 7) FAR 31806 U 0.00
expand: top_step (2, 0) FAR  w(0) 31806.
	create_child: excludes12_fun (1, 7) FAR 32330 U 0.01
expand: excludes12_fun (1, 0) FAR  w(0) 32330.
	create_child: DRAGON_step (1, 7) FAR 32361 X 0.00
expand: DRAGON_step (1, 0) FAR  w(0) 32361. F 0.01
expand: top_step (2, 0) FAR  w(0) 31806.
	create_child: excludes12_fun (1, 7) FAR 32658 U 0.00
expand: excludes12_fun (1, 0) FAR  w(0) 32658.
	create_child: DRAGON_step (1, 7) FAR 32627 X 0.00
expand: DRAGON_step (1, 0) FAR  w(0) 32627. F 0.00
expand: top_step (2, 0) FAR  w(0) 31806. F 0.01
expand: MAIN (3, 0) FAR  w(0) 31717. F 0.00
expand: MAIN (4, 0) FAR  w(0) 21689.
	create_child: top_step (3, 7) FAR 33359 U 0.00
expand: top_step (3, 0) FAR  w(0) 33359.
	create_child: excludes12_fun (2, 7) FAR 33589 U 0.01
expand: excludes12_fun (2, 0) FAR  w(0) 33589.
	create_child: DRAGON_step (2, 7) FAR 33606 X 0.00
expand: DRAGON_step (2, 0) FAR  w(0) 33606. F 0.00
expand: top_step (3, 0) FAR  w(0) 33359. F 0.01
expand: MAIN (4, 0) FAR  w(0) 21689. F 0.00
expand: MAIN (5, 0) FAR  w(0) 2813.
	create_child: MAIN (4, 7) FAR 21172 U 0.00
expand: MAIN (4, 0) FAR  w(0) 21172.
	create_child: top_step (3, 7) FAR 34213 U 0.00
expand: top_step (3, 0) FAR  w(0) 34213.
	create_child: Sofar_step (2, 7) FAR 25357 U 0.01
expand: Sofar_step (2, 0) FAR  w(0) 25357.
	create_child: DRAGON_step (2, 7) FAR 34702 X 0.00
expand: DRAGON_step (2, 0) FAR  w(0) 34702. F 0.00
expand: top_step (3, 0) FAR  w(0) 34213. F 0.01
expand: MAIN (4, 0) FAR  w(0) 21172. F 0.00
expand: MAIN (5, 0) FAR  w(0) 2813. F 0.00
expand: ERR (6, 0) FAR  w(0) 1. F 0.00
expand: query!0 (7, 0) FAR  w(0) 1. F 0.00
(spacer::context::check_reachability :time 0.12 :before-memory 24.90 :after-memory 25.51)
Propagating: 1 2 3 4 5 6 7  ! 8 
(spacer::context::propagate :time 0.00 :before-memory 25.51 :after-memory 25.51)
Entering level 8
BRUNCH_STAT max_query_lvl 7
BRUNCH_STAT num_queries 77
BRUNCH_STAT num_reach_queries 1
BRUNCH_STAT num_reach_reuse 58
BRUNCH_STAT inductive_lvl 0
BRUNCH_STAT max_depth 8
BRUNCH_STAT cex_depth 0
expand: query!0 (8, 0) FAR  w(0) 1.
	create_child: ERR (7, 8) FAR 1 U 0.00
expand: ERR (7, 0) FAR  w(0) 1.
	create_child: MAIN (6, 8) FAR 2813 U 0.00
expand: MAIN (6, 0) FAR  w(0) 2813.
	create_child: MAIN (5, 8) FAR 21689 U 0.00
expand: MAIN (5, 0) FAR  w(0) 21689.
	create_child: MAIN (4, 8) FAR 31717 U 0.00
expand: MAIN (4, 0) FAR  w(0) 31717.
	create_child: top_step (3, 8) FAR 35625 U 0.00
expand: top_step (3, 0) FAR  w(0) 35625.
	create_child: Sofar_step (2, 8) FAR 25357 U 0.00
expand: Sofar_step (2, 0) FAR  w(0) 25357.
	create_child: DRAGON_step (2, 8) FAR 35314 X 0.00
expand: DRAGON_step (2, 0) FAR  w(0) 35314. F 0.00
expand: top_step (3, 0) FAR  w(0) 35625. F 0.01
expand: MAIN (4, 0) FAR  w(0) 31717.
	create_child: top_step (3, 8) FAR 35967 U 0.00
expand: top_step (3, 0) FAR  w(0) 35967.
	create_child: excludes12_fun (2, 8) FAR 33589 U 0.01
expand: excludes12_fun (2, 0) FAR  w(0) 33589.
	create_child: DRAGON_step (2, 8) FAR 36422 X 0.00
expand: DRAGON_step (2, 0) FAR  w(0) 36422. F 0.00
expand: top_step (3, 0) FAR  w(0) 35967. F 0.01
expand: MAIN (4, 0) FAR  w(0) 31717. F 0.00
expand: MAIN (5, 0) FAR  w(0) 21689. F 0.00
expand: MAIN (6, 0) FAR  w(0) 2813.
	create_child: MAIN (5, 8) FAR 21172 U 0.00
expand: MAIN (5, 0) FAR  w(0) 21172. F 0.00
expand: MAIN (6, 0) FAR  w(0) 2813. F 0.00
expand: ERR (7, 0) FAR  w(0) 1. F 0.00
expand: query!0 (8, 0) FAR  w(0) 1. F 0.00
(spacer::context::check_reachability :time 0.06 :before-memory 25.51 :after-memory 25.75)
Propagating: 2 3 
(spacer::context::propagate :time 0.00 :before-memory 25.75 :after-memory 25.75)
(define-fun ERR () Bool
  false)
(define-fun DRAGON_step ((x!0 Bool)
 (x!1 Bool)
 (x!2 Bool)
 (x!3 Bool)
 (x!4 Bool)
 (x!5 Bool)
 (x!6 Bool)
 (x!7 Bool)
 (x!8 Bool)
 (x!9 Bool)
 (x!10 Bool)
 (x!11 Bool)
 (x!12 Int)
 (x!13 Int)
 (x!14 Int)
 (x!15 Int)
 (x!16 Int)
 (x!17 Int)
 (x!18 Bool)
 (x!19 Int)
 (x!20 Int)
 (x!21 Int)
 (x!22 Int)
 (x!23 Int)
 (x!24 Int)
 (x!25 Bool)
 (x!26 Int)
 (x!27 Int)
 (x!28 Int)
 (x!29 Int)
 (x!30 Int)
 (x!31 Int)
 (x!32 Bool)) Bool
  (let ((a!1 (or (not (<= x!22 0)) (not (>= (+ x!28 x!30) 2)) (<= x!29 0)))
        (a!2 (not (<= (+ x!14 (* (- 1) x!28) (* (- 1) x!30)) (- 2))))
        (a!3 (or (>= (+ x!23 (* (- 1) x!14)) 0) x!7 x!5 x!1 (= x!14 0)))
        (a!4 (or (not (<= (+ x!21 x!23) 1))
                 (not x!5)
                 x!1
                 (= x!14 0)
                 (= (+ x!14 (* (- 1) x!23)) 0)))
        (a!5 (or (<= x!16 0)
                 (not x!7)
                 x!5
                 x!4
                 x!6
                 x!2
                 x!3
                 (= (+ x!14 (* (- 1) x!23)) 0)))
        (a!6 (or (not x!1) (= (+ x!14 (* (- 1) x!23)) 0) (= x!16 0)))
        (a!7 (or (<= x!27 0)
                 x!7
                 (not (>= (+ x!28 x!30) 2))
                 (not (<= (+ x!21 x!23) 1))))
        (a!8 (or (<= x!27 0)
                 x!4
                 x!6
                 x!2
                 x!3
                 (not (>= (+ x!28 x!30) 2))
                 (not (<= (+ x!21 x!23) 1))))
        (a!9 (or (<= x!14 0) x!7 x!1 x!8 x!2 (= (+ x!16 (* (- 1) x!20)) 0)))
        (a!10 (or (<= x!14 0)
                  x!7
                  x!1
                  x!2
                  (not (<= x!20 0))
                  (= (+ x!16 (* (- 1) x!20)) 0)))
        (a!11 (or (not (<= x!22 0))
                  (not x!2)
                  (= x!16 0)
                  (= (+ x!16 (* (- 1) x!20)) 0)))
        (a!12 (or (not x!1) (= (+ x!16 (* (- 1) x!20)) 0) (= x!16 0)))
        (a!13 (or (= (+ x!16 (* (- 1) x!20)) 0)
                  (not x!7)
                  x!4
                  x!6
                  x!2
                  x!3
                  (= x!16 0)))
        (a!14 (or (<= x!29 0)
                  x!0
                  x!2
                  (not (>= (+ x!28 x!30) 2))
                  (not (<= (+ x!21 x!23) 1))))
        (a!15 (or (<= x!27 0)
                  x!2
                  (not (<= x!14 0))
                  (not (>= (+ x!28 x!30) 2))
                  (not (<= x!20 0))))
        (a!16 (or (not (<= x!30 0))
                  x!1
                  (not (>= (+ x!28 x!30) 2))
                  (not (<= (+ x!21 x!23) 1)))))
    (and a!1
         (or (not x!25) (= x!14 0))
         (>= (+ x!14 (* (- 1) x!30)) 0)
         (or a!2 (not x!25))
         (>= (+ x!16 (* (- 1) x!27)) 0)
         a!3
         a!4
         a!5
         a!6
         (or (<= x!30 0) x!5 x!0 x!2 (not (<= x!23 0)) (<= x!29 0))
         a!7
         a!8
         a!9
         a!10
         a!11
         a!12
         a!13
         a!14
         a!15
         (or (not (<= x!22 0)) (<= x!29 0) (<= x!30 0))
         a!16)))
(define-fun top_reset ((x!0 Int)
 (x!1 Int)
 (x!2 Int)
 (x!3 Int)
 (x!4 Int)
 (x!5 Int)
 (x!6 Bool)
 (x!7 Bool)
 (x!8 Bool)
 (x!9 Int)
 (x!10 Int)
 (x!11 Int)
 (x!12 Int)
 (x!13 Int)
 (x!14 Int)
 (x!15 Bool)
 (x!16 Bool)
 (x!17 Bool)) Bool
  x!15)
(define-fun Sofar_reset ((x!0 Bool) (x!1 Bool) (x!2 Bool) (x!3 Bool)) Bool
  true)
(define-fun excludes12_fun ((x!0 Bool)
 (x!1 Bool)
 (x!2 Bool)
 (x!3 Bool)
 (x!4 Bool)
 (x!5 Bool)
 (x!6 Bool)
 (x!7 Bool)
 (x!8 Bool)
 (x!9 Bool)
 (x!10 Bool)
 (x!11 Bool)
 (x!12 Bool)) Bool
  (and (or (not x!12) (not x!2) (not x!5))
       (or (not x!12) (not x!6) (not x!7))
       (or (not x!12) (not x!3) (not x!7))
       (or (not x!12) (not x!2) (not x!7))
       (or (not x!7) (not x!12) (not x!4))
       (or (not x!5) (not x!12) (not x!1))
       (or (not x!12) (not x!0) (not x!7))
       (or (not x!1) (not x!12) (not x!0))
       (or (not x!12) (not x!1) (not x!2))))
(define-fun MAIN ((x!0 Int)
 (x!1 Int)
 (x!2 Int)
 (x!3 Int)
 (x!4 Int)
 (x!5 Int)
 (x!6 Bool)
 (x!7 Bool)
 (x!8 Bool)
 (x!9 Bool)) Bool
  (let ((a!1 (or (<= x!3 0) (not x!7) (not (>= (+ x!2 x!4) 2))))
        (a!2 (or (<= x!1 0) (not x!7) (not (>= (+ x!2 x!4) 2)))))
    (and a!1
         x!9
         (not x!8)
         (or (<= x!4 0) (not x!7) (<= x!1 0))
         (or (<= x!4 0) (not x!7) (<= x!3 0))
         a!2)))
(define-fun Sofar_step ((x!0 Bool)
 (x!1 Bool)
 (x!2 Bool)
 (x!3 Bool)
 (x!4 Bool)
 (x!5 Bool)) Bool
  (and (or x!3 (not x!1) x!2) (not x!5) (or (not x!1) x!0) (or (not x!4) x!1)))
(define-fun top_step ((x!0 Bool)
 (x!1 Bool)
 (x!2 Bool)
 (x!3 Bool)
 (x!4 Bool)
 (x!5 Bool)
 (x!6 Bool)
 (x!7 Bool)
 (x!8 Bool)
 (x!9 Bool)
 (x!10 Bool)
 (x!11 Bool)
 (x!12 Int)
 (x!13 Bool)
 (x!14 Int)
 (x!15 Int)
 (x!16 Int)
 (x!17 Int)
 (x!18 Int)
 (x!19 Int)
 (x!20 Bool)
 (x!21 Bool)
 (x!22 Bool)
 (x!23 Int)
 (x!24 Int)
 (x!25 Int)
 (x!26 Int)
 (x!27 Int)
 (x!28 Int)
 (x!29 Bool)
 (x!30 Bool)
 (x!31 Bool)) Bool
  (let ((a!1 (or (not (<= x!17 0)) (not (>= (+ x!25 x!27) 2)) (<= x!26 0)))
        (a!2 (not (<= (+ (* (- 1) x!25) (* (- 1) x!27)) (- 2))))
        (a!3 (or (not (<= (+ x!16 x!18) 1)) x!13 (not (<= x!18 0))))
        (a!4 (or (<= x!27 0)
                 (not x!30)
                 (<= x!24 0)
                 (not (<= (+ x!16 x!18) 1))
                 (not (<= x!18 0))))
        (a!5 (or (<= x!26 0)
                 (not x!30)
                 (<= x!27 0)
                 (not (<= x!18 0))
                 (not (<= (+ x!16 x!18) 1))))
        (a!6 (or (not (<= (+ x!16 x!18) 1))
                 (not x!30)
                 (not (>= (+ x!25 x!27) 2))
                 (<= x!24 0)))
        (a!7 (or (not (<= x!17 0))
                 (not x!30)
                 (not (>= (+ x!25 x!27) 2))
                 (<= x!24 0)
                 (not (<= x!15 0))))
        (a!8 (or (not (<= x!27 0))
                 (not x!30)
                 (not (>= (+ x!25 x!27) 2))
                 (not (<= (+ x!16 x!18) 1))
                 (<= x!26 0))))
    (and a!1
         (not x!31)
         (or x!13 (not x!20))
         (or (<= x!27 0) (not x!20))
         (or a!2 (not x!20))
         a!3
         a!4
         (or (not x!30) x!21 x!22)
         a!5
         a!6
         (or x!22 x!13 x!21)
         (or (not (<= x!17 0)) x!13 (not (<= x!15 0)))
         (or (not (<= x!15 0)) x!13 (not (<= x!18 0)))
         (or (<= x!27 0)
             (not x!30)
             (<= x!24 0)
             (not (<= x!15 0))
             (not (<= x!17 0)))
         (or (<= x!27 0)
             (not x!30)
             (<= x!24 0)
             (not (<= x!18 0))
             (not (<= x!15 0)))
         a!7
         (or (not (<= x!17 0)) (<= x!27 0) (<= x!26 0))
         a!8)))
(define-fun DRAGON_reset ((x!0 Int)
 (x!1 Int)
 (x!2 Int)
 (x!3 Int)
 (x!4 Int)
 (x!5 Int)
 (x!6 Bool)
 (x!7 Int)
 (x!8 Int)
 (x!9 Int)
 (x!10 Int)
 (x!11 Int)
 (x!12 Int)
 (x!13 Bool)) Bool
  x!13)
BRUNCH_STAT max_query_lvl 8
BRUNCH_STAT num_queries 86
BRUNCH_STAT num_reach_queries 1
BRUNCH_STAT num_reach_reuse 63
BRUNCH_STAT inductive_lvl 3
BRUNCH_STAT max_depth 8
BRUNCH_STAT cex_depth 0
(:SPACER-inductive-level               3
 :SPACER-max-depth                     8
 :SPACER-max-query-lvl                 8
 :SPACER-num-invariants                67
 :SPACER-num-lemmas                    95
 :SPACER-num-properties                66
 :SPACER-num-queries                   86
 :SPACER-num-reach-queries             1
 :SPACER-num-reuse-reach-facts         63
 :added-eqs                            19030
 :arith-add-rows                       6997
 :arith-assert-diseq                   6629
 :arith-assert-lower                   14203
 :arith-assert-upper                   12099
 :arith-bound-prop                     835
 :arith-conflicts                      39
 :arith-eq-adapter                     5052
 :arith-fixed-eqs                      2960
 :arith-offset-eqs                     1633
 :arith-pivots                         1674
 :bool-inductive-gen                   75
 :bool-inductive-gen-failures          251
 :conflicts                            1002
 :decisions                            19021
 :del-clause                           2185
 :final-checks                         404
 :minimized-lits                       555
 :mk-bool-var                          13087
 :mk-clause                            9708
 :num-checks                           848
 :propagations                         247807
 :time.itp_solver.itp_core             0.04
 :time.spacer.init_rules               0.01
 :time.spacer.init_rules.pt.init       0.00
 :time.spacer.solve                    0.53
 :time.spacer.solve.propagate          0.01
 :time.spacer.solve.pt.must_reachable  0.02
 :time.spacer.solve.reach              0.51
 :time.spacer.solve.reach.children     0.09
 :time.spacer.solve.reach.gen.bool_ind 0.14
 :time.virtual_solver.proof            0.03
 :time.virtual_solver.smt.total        0.35
 :time.virtual_solver.smt.total.sat    0.20
 :virtual_solver.checks                848
 :virtual_solver.checks.sat            404)
BRUNCH_STAT max_query_lvl 8
BRUNCH_STAT num_queries 86
BRUNCH_STAT num_reach_queries 1
BRUNCH_STAT num_reach_reuse 63
BRUNCH_STAT inductive_lvl 3
BRUNCH_STAT max_depth 8
BRUNCH_STAT cex_depth 0

real	0m0.615s
user	0m0.592s
sys	0m0.020s
