(transform N7datalog13mk_coi_filterE...no-op 0s)
(transform N7datalog25mk_interp_tail_simplifierE...12 rules 0s)
(transform N7datalog27mk_quantifier_instantiationE...no-op 0s)
(transform N7datalog8mk_scaleE...no-op 0s)
(transform N7datalog18mk_karr_invariantsE...no-op 0s)
(transform N7datalog14mk_array_blastE...no-op 0s)
(transform N7datalog22mk_subsumption_checkerE...11 rules 0s)
(transform N7datalog12mk_bit_blastE...no-op 0s)
(transform N7datalog15mk_rule_inlinerE...no-op 0s)
(transform N7datalog13mk_coi_filterE...no-op 0s)
(transform N7datalog25mk_interp_tail_simplifierE...11 rules 0s)
(transform N7datalog22mk_subsumption_checkerE...no-op 0s)
(transform N7datalog15mk_rule_inlinerE...no-op 0s)
(transform N7datalog13mk_coi_filterE...no-op 0s)
(transform N7datalog25mk_interp_tail_simplifierE...11 rules 0s)
(transform N7datalog22mk_subsumption_checkerE...no-op 0s)
(transform N7datalog15mk_rule_inlinerE...no-op 0s)
(transform N7datalog22mk_subsumption_checkerE...no-op 0s)
(transform N7datalog15mk_rule_inlinerE...no-op 0s)
(transform N7datalog22mk_subsumption_checkerE...no-op 0s)
(transform N7datalog15mk_rule_inlinerE...no-op 0s)
(transform N7datalog22mk_subsumption_checkerE...no-op 0s)
expand: query!0 (0, 0) FAR  w(0) 1. F 0.00
(spacer::context::check_reachability :time 0.00 :before-memory 11.60 :after-memory 12.05)
Entering level 1
BRUNCH_STAT max_query_lvl 0
BRUNCH_STAT num_queries 0
BRUNCH_STAT num_reach_queries 0
BRUNCH_STAT num_reach_reuse 0
BRUNCH_STAT inductive_lvl 0
BRUNCH_STAT max_depth 1
BRUNCH_STAT cex_depth 0
expand: query!0 (1, 0) FAR  w(0) 1.
	create_child: ERR (0, 1) FAR 1 U 0.00
expand: ERR (0, 0) FAR  w(0) 1. F 0.00
expand: query!0 (1, 0) FAR  w(0) 1. F 0.00
(spacer::context::check_reachability :time 0.00 :before-memory 12.05 :after-memory 12.49)
Propagating: 0 1  ! 2 
(spacer::context::propagate :time 0.00 :before-memory 12.49 :after-memory 12.49)
Entering level 2
BRUNCH_STAT max_query_lvl 1
BRUNCH_STAT num_queries 1
BRUNCH_STAT num_reach_queries 0
BRUNCH_STAT num_reach_reuse 0
BRUNCH_STAT inductive_lvl 0
BRUNCH_STAT max_depth 2
BRUNCH_STAT cex_depth 0
expand: query!0 (2, 0) FAR  w(0) 1.
	create_child: ERR (1, 2) FAR 1 U 0.00
expand: ERR (1, 0) FAR  w(0) 1.
	create_child: MAIN (0, 2) FAR 2796 U 0.00
expand: MAIN (0, 0) FAR  w(0) 2796. F 0.00
expand: ERR (1, 0) FAR  w(0) 1. F 0.00
expand: query!0 (2, 0) FAR  w(0) 1. F 0.00
(spacer::context::check_reachability :time 0.00 :before-memory 12.49 :after-memory 12.95)
Propagating: 0 1 2  ! 3 
(spacer::context::propagate :time 0.00 :before-memory 12.95 :after-memory 12.95)
Entering level 3
BRUNCH_STAT max_query_lvl 2
BRUNCH_STAT num_queries 3
BRUNCH_STAT num_reach_queries 0
BRUNCH_STAT num_reach_reuse 0
BRUNCH_STAT inductive_lvl 0
BRUNCH_STAT max_depth 3
BRUNCH_STAT cex_depth 0
expand: query!0 (3, 0) FAR  w(0) 1.
	create_child: ERR (2, 3) FAR 1 U 0.00
expand: ERR (2, 0) FAR  w(0) 1.
	create_child: MAIN (1, 3) FAR 2796 U 0.00
expand: MAIN (1, 0) FAR  w(0) 2796.
	create_child: top_step (0, 3) FAR 3657 U 0.00
expand: top_step (0, 0) FAR  w(0) 3657. F 0.00
expand: MAIN (1, 0) FAR  w(0) 2796. F 0.00
expand: ERR (2, 0) FAR  w(0) 1. F 0.00
expand: query!0 (3, 0) FAR  w(0) 1. F 0.00
(spacer::context::check_reachability :time 0.01 :before-memory 12.95 :after-memory 14.17)
Propagating: 0 1 2 3  ! 4 
(spacer::context::propagate :time 0.00 :before-memory 14.17 :after-memory 14.27)
Entering level 4
BRUNCH_STAT max_query_lvl 3
BRUNCH_STAT num_queries 6
BRUNCH_STAT num_reach_queries 0
BRUNCH_STAT num_reach_reuse 0
BRUNCH_STAT inductive_lvl 0
BRUNCH_STAT max_depth 4
BRUNCH_STAT cex_depth 0
expand: query!0 (4, 0) FAR  w(0) 1.
	create_child: ERR (3, 4) FAR 1 U 0.00
expand: ERR (3, 0) FAR  w(0) 1.
	create_child: MAIN (2, 4) FAR 2796 U 0.00
expand: MAIN (2, 0) FAR  w(0) 2796.
	create_child: top_step (1, 4) FAR 3657 U 0.00
expand: top_step (1, 0) FAR  w(0) 3657.
	create_child: top_reset (1, 4) FAR 11710 X 0.01
expand: top_reset (1, 0) FAR  w(0) 11710.
	create_child: DRAGON_reset (0, 4) FAR 12219 U 0.00
expand: DRAGON_reset (0, 0) FAR  w(0) 12219. F 0.00
expand: top_reset (1, 0) FAR  w(0) 11710. F 0.00
expand: MAIN (2, 0) FAR  w(0) 2796.
	create_child: top_step (1, 4) FAR 16560 U 0.00
expand: top_step (1, 0) FAR  w(0) 16560.
	create_child: Sofar_step (0, 4) FAR 16997 U 0.01
expand: Sofar_step (0, 0) FAR  w(0) 16997. F 0.00
expand: top_step (1, 0) FAR  w(0) 16560.
	create_child: DRAGON_step (0, 4) FAR 16923 U 0.00
expand: DRAGON_step (0, 0) FAR  w(0) 16923. F 0.01
expand: top_step (1, 0) FAR  w(0) 16560. F 0.00
expand: MAIN (2, 0) FAR  w(0) 2796. F 0.00
expand: ERR (3, 0) FAR  w(0) 1. F 0.00
expand: query!0 (4, 0) FAR  w(0) 1. F 0.00
(spacer::context::check_reachability :time 0.03 :before-memory 14.27 :after-memory 19.96)
Propagating: 0 1 2 3 4  ! 5 
(spacer::context::propagate :time 0.00 :before-memory 19.96 :after-memory 19.96)
Entering level 5
BRUNCH_STAT max_query_lvl 4
BRUNCH_STAT num_queries 13
BRUNCH_STAT num_reach_queries 1
BRUNCH_STAT num_reach_reuse 7
BRUNCH_STAT inductive_lvl 0
BRUNCH_STAT max_depth 5
BRUNCH_STAT cex_depth 0
expand: query!0 (5, 0) FAR  w(0) 1.
	create_child: ERR (4, 5) FAR 1 U 0.00
expand: ERR (4, 0) FAR  w(0) 1.
	create_child: MAIN (3, 5) FAR 2796 U 0.00
expand: MAIN (3, 0) FAR  w(0) 2796.
	create_child: MAIN (2, 5) FAR 20529 U 0.00
expand: MAIN (2, 0) FAR  w(0) 20529.
	create_child: top_step (1, 5) FAR 20324 U 0.00
expand: top_step (1, 0) FAR  w(0) 20324.
	create_child: Sofar_step (0, 5) FAR 21059 U 0.00
expand: Sofar_step (0, 0) FAR  w(0) 21059. F 0.00
expand: top_step (1, 0) FAR  w(0) 20324.
	create_child: Sofar_step (0, 5) FAR 20876 U 0.00
expand: Sofar_step (0, 0) FAR  w(0) 20876.
	create_child: DRAGON_step (0, 5) FAR 20905 X 0.00
expand: DRAGON_step (0, 0) FAR  w(0) 20905. F 0.00
expand: top_step (1, 0) FAR  w(0) 20324. F 0.00
expand: MAIN (2, 0) FAR  w(0) 20529. F 0.00
expand: MAIN (3, 0) FAR  w(0) 2796.
	create_child: MAIN (2, 5) FAR 21495 U 0.00
expand: MAIN (2, 0) FAR  w(0) 21495.
	create_child: top_step (1, 5) FAR 21448 U 0.00
expand: top_step (1, 0) FAR  w(0) 21448.
	create_child: Sofar_step (0, 5) FAR 21435 U 0.00
expand: Sofar_step (0, 0) FAR  w(0) 21435. F 0.00
expand: top_step (1, 0) FAR  w(0) 21448. F 0.00
expand: MAIN (2, 0) FAR  w(0) 21495. F 0.00
expand: MAIN (3, 0) FAR  w(0) 2796.
	create_child: top_step (2, 5) FAR 21328 U 0.00
expand: top_step (2, 0) FAR  w(0) 21328.
	create_child: Sofar_step (1, 5) FAR 22010 U 0.00
expand: Sofar_step (1, 0) FAR  w(0) 22010. F 0.00
expand: top_step (2, 0) FAR  w(0) 21328. F 0.00
expand: MAIN (3, 0) FAR  w(0) 2796.
	create_child: top_step (2, 5) FAR 22002 U 0.00
expand: top_step (2, 0) FAR  w(0) 22002.
	create_child: DRAGON_step (1, 5) FAR 22355 U 0.00
expand: DRAGON_step (1, 0) FAR  w(0) 22355. F 0.01
expand: top_step (2, 0) FAR  w(0) 22002.
	create_child: DRAGON_step (1, 5) FAR 22726 U 0.00
expand: DRAGON_step (1, 0) FAR  w(0) 22726. F 0.00
expand: top_step (2, 0) FAR  w(0) 22002.
	create_child: DRAGON_step (1, 5) FAR 23144 U 0.00
expand: DRAGON_step (1, 0) FAR  w(0) 23144. F 0.00
expand: top_step (2, 0) FAR  w(0) 22002. F 0.00
expand: MAIN (3, 0) FAR  w(0) 2796. F 0.00
expand: ERR (4, 0) FAR  w(0) 1. F 0.00
expand: query!0 (5, 0) FAR  w(0) 1. F 0.00
(spacer::context::check_reachability :time 0.06 :before-memory 19.96 :after-memory 21.39)
Propagating: 0 1 2 3 4 5  ! 6 
(spacer::context::propagate :time 0.00 :before-memory 21.39 :after-memory 21.39)
Entering level 6
BRUNCH_STAT max_query_lvl 5
BRUNCH_STAT num_queries 28
BRUNCH_STAT num_reach_queries 1
BRUNCH_STAT num_reach_reuse 21
BRUNCH_STAT inductive_lvl 0
BRUNCH_STAT max_depth 6
BRUNCH_STAT cex_depth 0
expand: query!0 (6, 0) FAR  w(0) 1.
	create_child: ERR (5, 6) FAR 1 U 0.00
expand: ERR (5, 0) FAR  w(0) 1.
	create_child: MAIN (4, 6) FAR 2796 U 0.00
expand: MAIN (4, 0) FAR  w(0) 2796.
	create_child: MAIN (3, 6) FAR 23719 U 0.00
expand: MAIN (3, 0) FAR  w(0) 23719.
	create_child: top_step (2, 6) FAR 23403 U 0.00
expand: top_step (2, 0) FAR  w(0) 23403. F 0.00
expand: MAIN (3, 0) FAR  w(0) 23719.
	create_child: top_step (2, 6) FAR 23648 U 0.00
expand: top_step (2, 0) FAR  w(0) 23648.
	create_child: Sofar_step (1, 6) FAR 23595 U 0.00
expand: Sofar_step (1, 0) FAR  w(0) 23595.
	create_child: DRAGON_step (1, 6) FAR 23545 X 0.00
expand: DRAGON_step (1, 0) FAR  w(0) 23545. F 0.00
expand: top_step (2, 0) FAR  w(0) 23648. F 0.00
expand: MAIN (3, 0) FAR  w(0) 23719. F 0.00
expand: MAIN (4, 0) FAR  w(0) 2796. F 0.00
expand: ERR (5, 0) FAR  w(0) 1. F 0.00
expand: query!0 (6, 0) FAR  w(0) 1. F 0.00
(spacer::context::check_reachability :time 0.02 :before-memory 21.39 :after-memory 21.50)
Propagating: 1 2 
(spacer::context::propagate :time 0.00 :before-memory 21.50 :after-memory 21.50)
(define-fun ERR () Bool
  false)
(define-fun DRAGON_step ((x!0 Bool)
 (x!1 Bool)
 (x!2 Bool)
 (x!3 Bool)
 (x!4 Bool)
 (x!5 Bool)
 (x!6 Bool)
 (x!7 Bool)
 (x!8 Bool)
 (x!9 Bool)
 (x!10 Bool)
 (x!11 Bool)
 (x!12 Int)
 (x!13 Int)
 (x!14 Int)
 (x!15 Int)
 (x!16 Int)
 (x!17 Int)
 (x!18 Bool)
 (x!19 Int)
 (x!20 Int)
 (x!21 Int)
 (x!22 Int)
 (x!23 Int)
 (x!24 Int)
 (x!25 Bool)
 (x!26 Int)
 (x!27 Int)
 (x!28 Int)
 (x!29 Int)
 (x!30 Int)
 (x!31 Int)
 (x!32 Bool)) Bool
  (let ((a!1 (not (>= (+ x!12 (* (- 1) x!17)) 2)))
        (a!3 (not (<= (+ x!17 (* (- 1) x!12)) (- 2)))))
  (let ((a!2 (or (>= x!17 0)
                 (= (+ x!17 (* (- 1) x!19)) 1)
                 a!1
                 (= (+ x!17 (* (- 1) x!19)) 0)))
        (a!4 (or a!1 x!7 x!1 x!6 x!0 (>= (+ x!17 (* (- 1) x!19)) 0)))
        (a!5 (or a!1 (not x!0) (= (+ x!17 (* (- 1) x!19)) 0) (>= x!17 0))))
    (and a!2 (or a!3 (not x!25)) (<= (+ x!17 (* (- 1) x!26)) 0) a!4 a!5))))
(define-fun top_reset ((x!0 Int)
 (x!1 Int)
 (x!2 Int)
 (x!3 Int)
 (x!4 Int)
 (x!5 Int)
 (x!6 Bool)
 (x!7 Bool)
 (x!8 Bool)
 (x!9 Int)
 (x!10 Int)
 (x!11 Int)
 (x!12 Int)
 (x!13 Int)
 (x!14 Int)
 (x!15 Bool)
 (x!16 Bool)
 (x!17 Bool)) Bool
  x!15)
(define-fun Sofar_reset ((x!0 Bool) (x!1 Bool) (x!2 Bool) (x!3 Bool)) Bool
  true)
(define-fun excludes12_fun ((x!0 Bool)
 (x!1 Bool)
 (x!2 Bool)
 (x!3 Bool)
 (x!4 Bool)
 (x!5 Bool)
 (x!6 Bool)
 (x!7 Bool)
 (x!8 Bool)
 (x!9 Bool)
 (x!10 Bool)
 (x!11 Bool)
 (x!12 Bool)) Bool
  true)
(define-fun MAIN ((x!0 Int)
 (x!1 Int)
 (x!2 Int)
 (x!3 Int)
 (x!4 Int)
 (x!5 Int)
 (x!6 Bool)
 (x!7 Bool)
 (x!8 Bool)
 (x!9 Bool)) Bool
  (and (or (>= x!0 0) (not x!7)) x!9 (not x!8)))
(define-fun Sofar_step ((x!0 Bool)
 (x!1 Bool)
 (x!2 Bool)
 (x!3 Bool)
 (x!4 Bool)
 (x!5 Bool)) Bool
  (and (or x!2 x!3 (not x!1)) (not x!5) (or (not x!4) x!1) (or (not x!1) x!0)))
(define-fun top_step ((x!0 Bool)
 (x!1 Bool)
 (x!2 Bool)
 (x!3 Bool)
 (x!4 Bool)
 (x!5 Bool)
 (x!6 Bool)
 (x!7 Bool)
 (x!8 Bool)
 (x!9 Bool)
 (x!10 Bool)
 (x!11 Bool)
 (x!12 Int)
 (x!13 Bool)
 (x!14 Int)
 (x!15 Int)
 (x!16 Int)
 (x!17 Int)
 (x!18 Int)
 (x!19 Int)
 (x!20 Bool)
 (x!21 Bool)
 (x!22 Bool)
 (x!23 Int)
 (x!24 Int)
 (x!25 Int)
 (x!26 Int)
 (x!27 Int)
 (x!28 Int)
 (x!29 Bool)
 (x!30 Bool)
 (x!31 Bool)) Bool
  (and (or (not (>= x!14 0)) (not x!30) (>= x!23 0))
       (not x!31)
       (or x!13 (not x!20))
       (or (>= x!23 0) (not x!20) (not x!30))
       (or x!22 x!21 x!13)
       (or (not (>= x!14 0)) x!13)
       (or (not x!30) x!21 x!22)))
(define-fun DRAGON_reset ((x!0 Int)
 (x!1 Int)
 (x!2 Int)
 (x!3 Int)
 (x!4 Int)
 (x!5 Int)
 (x!6 Bool)
 (x!7 Int)
 (x!8 Int)
 (x!9 Int)
 (x!10 Int)
 (x!11 Int)
 (x!12 Int)
 (x!13 Bool)) Bool
  x!13)
BRUNCH_STAT max_query_lvl 6
BRUNCH_STAT num_queries 34
BRUNCH_STAT num_reach_queries 1
BRUNCH_STAT num_reach_reuse 23
BRUNCH_STAT inductive_lvl 2
BRUNCH_STAT max_depth 6
BRUNCH_STAT cex_depth 0
(:SPACER-inductive-level               2
 :SPACER-max-depth                     6
 :SPACER-max-query-lvl                 6
 :SPACER-num-invariants                24
 :SPACER-num-lemmas                    41
 :SPACER-num-properties                25
 :SPACER-num-queries                   34
 :SPACER-num-reach-queries             1
 :SPACER-num-reuse-reach-facts         23
 :added-eqs                            4040
 :arith-add-rows                       1094
 :arith-assert-diseq                   926
 :arith-assert-lower                   2215
 :arith-assert-upper                   2041
 :arith-bound-prop                     400
 :arith-conflicts                      17
 :arith-eq-adapter                     951
 :arith-fixed-eqs                      546
 :arith-offset-eqs                     491
 :arith-pivots                         352
 :bool-inductive-gen                   25
 :bool-inductive-gen-failures          54
 :conflicts                            313
 :decisions                            6246
 :del-clause                           699
 :final-checks                         106
 :minimized-lits                       20
 :mk-bool-var                          4471
 :mk-clause                            6718
 :num-checks                           250
 :propagations                         51688
 :time.itp_solver.itp_core             0.01
 :time.spacer.init_rules               0.01
 :time.spacer.init_rules.pt.init       0.00
 :time.spacer.solve                    0.13
 :time.spacer.solve.propagate          0.01
 :time.spacer.solve.pt.must_reachable  0.01
 :time.spacer.solve.reach              0.12
 :time.spacer.solve.reach.children     0.02
 :time.spacer.solve.reach.gen.bool_ind 0.02
 :time.virtual_solver.proof            0.01
 :time.virtual_solver.smt.total        0.08
 :time.virtual_solver.smt.total.sat    0.04
 :virtual_solver.checks                250
 :virtual_solver.checks.sat            106)
BRUNCH_STAT max_query_lvl 6
BRUNCH_STAT num_queries 34
BRUNCH_STAT num_reach_queries 1
BRUNCH_STAT num_reach_reuse 23
BRUNCH_STAT inductive_lvl 2
BRUNCH_STAT max_depth 6
BRUNCH_STAT cex_depth 0

real	0m0.176s
user	0m0.156s
sys	0m0.020s
