(transform N7datalog13mk_coi_filterE...no-op 0s)
(transform N7datalog25mk_interp_tail_simplifierE...14 rules 0s)
(transform N7datalog27mk_quantifier_instantiationE...no-op 0s)
(transform N7datalog8mk_scaleE...no-op 0s)
(transform N7datalog18mk_karr_invariantsE...no-op 0s)
(transform N7datalog14mk_array_blastE...no-op 0s)
(transform N7datalog22mk_subsumption_checkerE...13 rules 0s)
(transform N7datalog12mk_bit_blastE...no-op 0s)
(transform N7datalog15mk_rule_inlinerE...no-op 0s)
(transform N7datalog13mk_coi_filterE...no-op 0s)
(transform N7datalog25mk_interp_tail_simplifierE...13 rules 0s)
(transform N7datalog22mk_subsumption_checkerE...no-op 0s)
(transform N7datalog15mk_rule_inlinerE...no-op 0s)
(transform N7datalog13mk_coi_filterE...no-op 0s)
(transform N7datalog25mk_interp_tail_simplifierE...13 rules 0s)
(transform N7datalog22mk_subsumption_checkerE...no-op 0s)
(transform N7datalog15mk_rule_inlinerE...no-op 0s)
(transform N7datalog22mk_subsumption_checkerE...no-op 0s)
(transform N7datalog15mk_rule_inlinerE...no-op 0s)
(transform N7datalog22mk_subsumption_checkerE...no-op 0s)
(transform N7datalog15mk_rule_inlinerE...no-op 0s)
(transform N7datalog22mk_subsumption_checkerE...no-op 0s)
expand: query!0 (0, 0) FAR  w(0) 1. F 0.00
(spacer::context::check_reachability :time 0.00 :before-memory 13.43 :after-memory 13.86)
Entering level 1
BRUNCH_STAT max_query_lvl 0
BRUNCH_STAT num_queries 0
BRUNCH_STAT num_reach_queries 0
BRUNCH_STAT num_reach_reuse 0
BRUNCH_STAT inductive_lvl 0
BRUNCH_STAT max_depth 1
BRUNCH_STAT cex_depth 0
expand: query!0 (1, 0) FAR  w(0) 1.
	create_child: ERR (0, 1) FAR 1 U 0.00
expand: ERR (0, 0) FAR  w(0) 1. F 0.00
expand: query!0 (1, 0) FAR  w(0) 1. F 0.00
(spacer::context::check_reachability :time 0.00 :before-memory 13.86 :after-memory 14.31)
Propagating: 0 1  ! 2 
(spacer::context::propagate :time 0.00 :before-memory 14.31 :after-memory 14.31)
Entering level 2
BRUNCH_STAT max_query_lvl 1
BRUNCH_STAT num_queries 1
BRUNCH_STAT num_reach_queries 0
BRUNCH_STAT num_reach_reuse 0
BRUNCH_STAT inductive_lvl 0
BRUNCH_STAT max_depth 2
BRUNCH_STAT cex_depth 0
expand: query!0 (2, 0) FAR  w(0) 1.
	create_child: ERR (1, 2) FAR 1 U 0.00
expand: ERR (1, 0) FAR  w(0) 1.
	create_child: MAIN (0, 2) FAR 3235 U 0.00
expand: MAIN (0, 0) FAR  w(0) 3235. F 0.00
expand: ERR (1, 0) FAR  w(0) 1. F 0.00
expand: query!0 (2, 0) FAR  w(0) 1. F 0.00
(spacer::context::check_reachability :time 0.00 :before-memory 14.31 :after-memory 14.79)
Propagating: 0 1 2  ! 3 
(spacer::context::propagate :time 0.00 :before-memory 14.79 :after-memory 14.79)
Entering level 3
BRUNCH_STAT max_query_lvl 2
BRUNCH_STAT num_queries 3
BRUNCH_STAT num_reach_queries 0
BRUNCH_STAT num_reach_reuse 0
BRUNCH_STAT inductive_lvl 0
BRUNCH_STAT max_depth 3
BRUNCH_STAT cex_depth 0
expand: query!0 (3, 0) FAR  w(0) 1.
	create_child: ERR (2, 3) FAR 1 U 0.00
expand: ERR (2, 0) FAR  w(0) 1.
	create_child: MAIN (1, 3) FAR 3235 U 0.00
expand: MAIN (1, 0) FAR  w(0) 3235.
	create_child: top_step (0, 3) FAR 4211 U 0.00
expand: top_step (0, 0) FAR  w(0) 4211. F 0.01
expand: MAIN (1, 0) FAR  w(0) 3235. F 0.00
expand: ERR (2, 0) FAR  w(0) 1. F 0.00
expand: query!0 (3, 0) FAR  w(0) 1. F 0.00
(spacer::context::check_reachability :time 0.01 :before-memory 14.79 :after-memory 16.11)
Propagating: 0 1 2 3  ! 4 
(spacer::context::propagate :time 0.00 :before-memory 16.11 :after-memory 16.20)
Entering level 4
BRUNCH_STAT max_query_lvl 3
BRUNCH_STAT num_queries 6
BRUNCH_STAT num_reach_queries 0
BRUNCH_STAT num_reach_reuse 0
BRUNCH_STAT inductive_lvl 0
BRUNCH_STAT max_depth 4
BRUNCH_STAT cex_depth 0
expand: query!0 (4, 0) FAR  w(0) 1.
	create_child: ERR (3, 4) FAR 1 U 0.00
expand: ERR (3, 0) FAR  w(0) 1.
	create_child: MAIN (2, 4) FAR 3235 U 0.00
expand: MAIN (2, 0) FAR  w(0) 3235.
	create_child: top_step (1, 4) FAR 4211 U 0.00
expand: top_step (1, 0) FAR  w(0) 4211.
	create_child: top_reset (1, 4) FAR 13297 X 0.01
expand: top_reset (1, 0) FAR  w(0) 13297. F 0.00
expand: MAIN (2, 0) FAR  w(0) 3235.
	create_child: top_reset (1, 4) FAR 18793 U 0.01
expand: top_reset (1, 0) FAR  w(0) 18793.
	create_child: Sofar_reset (0, 4) FAR 18710 U 0.00
expand: Sofar_reset (0, 0) FAR  w(0) 18710. F 0.00
expand: top_reset (1, 0) FAR  w(0) 18793. F 0.00
expand: MAIN (2, 0) FAR  w(0) 3235.
	create_child: top_reset (1, 4) FAR 19324 U 0.00
expand: top_reset (1, 0) FAR  w(0) 19324.
	create_child: First_reset (0, 4) FAR 19222 U 0.00
expand: First_reset (0, 0) FAR  w(0) 19222. F 0.00
expand: top_reset (1, 0) FAR  w(0) 19324. F 0.00
expand: MAIN (2, 0) FAR  w(0) 3235.
	create_child: top_reset (1, 4) FAR 19627 U 0.00
expand: top_reset (1, 0) FAR  w(0) 19627.
	create_child: DRAGON_reset (0, 4) FAR 19535 U 0.00
expand: DRAGON_reset (0, 0) FAR  w(0) 19535. F 0.00
expand: top_reset (1, 0) FAR  w(0) 19627. F 0.00
expand: MAIN (2, 0) FAR  w(0) 3235.
	create_child: top_step (1, 4) FAR 19604 U 0.00
expand: top_step (1, 0) FAR  w(0) 19604.
	create_child: Sofar_step (0, 4) FAR 20232 U 0.01
expand: Sofar_step (0, 0) FAR  w(0) 20232. F 0.00
expand: top_step (1, 0) FAR  w(0) 19604.
	create_child: DRAGON_step (0, 4) FAR 20234 U 0.00
expand: DRAGON_step (0, 0) FAR  w(0) 20234. F 0.01
expand: top_step (1, 0) FAR  w(0) 19604.
	create_child: DRAGON_step (0, 4) FAR 23451 U 0.00
expand: DRAGON_step (0, 0) FAR  w(0) 23451. F 0.00
expand: top_step (1, 0) FAR  w(0) 19604.
	create_child: DRAGON_step (0, 4) FAR 23236 U 0.00
expand: DRAGON_step (0, 0) FAR  w(0) 23236. F 0.00
expand: top_step (1, 0) FAR  w(0) 19604.
	create_child: DRAGON_step (0, 4) FAR 23724 U 0.00
expand: DRAGON_step (0, 0) FAR  w(0) 23724. F 0.00
expand: top_step (1, 0) FAR  w(0) 19604.
	create_child: DRAGON_step (0, 4) FAR 24087 U 0.00
expand: DRAGON_step (0, 0) FAR  w(0) 24087. F 0.00
expand: top_step (1, 0) FAR  w(0) 19604.
	create_child: DRAGON_step (0, 4) FAR 24190 U 0.00
expand: DRAGON_step (0, 0) FAR  w(0) 24190. F 0.00
expand: top_step (1, 0) FAR  w(0) 19604.
	create_child: DRAGON_step (0, 4) FAR 24262 U 0.00
expand: DRAGON_step (0, 0) FAR  w(0) 24262. F 0.00
expand: top_step (1, 0) FAR  w(0) 19604.
	create_child: DRAGON_step (0, 4) FAR 24400 U 0.00
expand: DRAGON_step (0, 0) FAR  w(0) 24400. F 0.00
expand: top_step (1, 0) FAR  w(0) 19604.
	create_child: DRAGON_step (0, 4) FAR 23931 U 0.00
expand: DRAGON_step (0, 0) FAR  w(0) 23931. F 0.00
expand: top_step (1, 0) FAR  w(0) 19604.
	create_child: DRAGON_step (0, 4) FAR 24493 U 0.00
expand: DRAGON_step (0, 0) FAR  w(0) 24493. F 0.00
expand: top_step (1, 0) FAR  w(0) 19604.
	create_child: DRAGON_step (0, 4) FAR 24704 U 0.00
expand: DRAGON_step (0, 0) FAR  w(0) 24704. F 0.00
expand: top_step (1, 0) FAR  w(0) 19604.
	create_child: DRAGON_step (0, 4) FAR 24820 U 0.00
expand: DRAGON_step (0, 0) FAR  w(0) 24820.
	create_child: First_step (0, 4) FAR 24862 X 0.01
expand: First_step (0, 0) FAR  w(0) 24862. F 0.00
expand: top_step (1, 0) FAR  w(0) 19604.
	create_child: DRAGON_step (0, 4) FAR 24820 U 0.00
expand: DRAGON_step (0, 0) FAR  w(0) 24820.
	create_child: First_step (0, 4) FAR 24779 X 0.00
expand: First_step (0, 0) FAR  w(0) 24779. F 0.00
expand: top_step (1, 0) FAR  w(0) 19604. F 0.01
expand: MAIN (2, 0) FAR  w(0) 3235. F 0.00
expand: ERR (3, 0) FAR  w(0) 1. F 0.00
expand: query!0 (4, 0) FAR  w(0) 1. F 0.00
(spacer::context::check_reachability :time 0.13 :before-memory 16.20 :after-memory 26.32)
Propagating: 0 1 2 3 4  ! 5 
(spacer::context::propagate :time 0.00 :before-memory 26.32 :after-memory 26.32)
Entering level 5
BRUNCH_STAT max_query_lvl 4
BRUNCH_STAT num_queries 30
BRUNCH_STAT num_reach_queries 1
BRUNCH_STAT num_reach_reuse 52
BRUNCH_STAT inductive_lvl 0
BRUNCH_STAT max_depth 5
BRUNCH_STAT cex_depth 0
expand: query!0 (5, 0) FAR  w(0) 1.
	create_child: ERR (4, 5) FAR 1 U 0.00
expand: ERR (4, 0) FAR  w(0) 1.
	create_child: MAIN (3, 5) FAR 3235 U 0.00
expand: MAIN (3, 0) FAR  w(0) 3235.
	create_child: MAIN (2, 5) FAR 25580 U 0.00
expand: MAIN (2, 0) FAR  w(0) 25580.
	create_child: top_step (1, 5) FAR 25252 U 0.00
expand: top_step (1, 0) FAR  w(0) 25252.
	create_child: DRAGON_step (0, 5) FAR 25826 U 0.00
expand: DRAGON_step (0, 0) FAR  w(0) 25826. F 0.00
expand: top_step (1, 0) FAR  w(0) 25252. F 0.00
expand: MAIN (2, 0) FAR  w(0) 25580. F 0.00
expand: MAIN (3, 0) FAR  w(0) 3235.
	create_child: MAIN (2, 5) FAR 26569 U 0.00
expand: MAIN (2, 0) FAR  w(0) 26569.
	create_child: top_step (1, 5) FAR 26468 U 0.00
expand: top_step (1, 0) FAR  w(0) 26468.
	create_child: DRAGON_step (0, 5) FAR 26426 U 0.00
expand: DRAGON_step (0, 0) FAR  w(0) 26426. F 0.00
expand: top_step (1, 0) FAR  w(0) 26468. F 0.00
expand: MAIN (2, 0) FAR  w(0) 26569. F 0.00
expand: MAIN (3, 0) FAR  w(0) 3235.
	create_child: MAIN (2, 5) FAR 26726 U 0.00
expand: MAIN (2, 0) FAR  w(0) 26726.
	create_child: top_step (1, 5) FAR 26596 U 0.00
expand: top_step (1, 0) FAR  w(0) 26596.
	create_child: Sofar_step (0, 5) FAR 26323 U 0.00
expand: Sofar_step (0, 0) FAR  w(0) 26323. F 0.00
expand: top_step (1, 0) FAR  w(0) 26596.
	create_child: DRAGON_step (0, 5) FAR 26685 U 0.00
expand: DRAGON_step (0, 0) FAR  w(0) 26685. F 0.00
expand: top_step (1, 0) FAR  w(0) 26596. F 0.00
expand: MAIN (2, 0) FAR  w(0) 26726. F 0.00
expand: MAIN (3, 0) FAR  w(0) 3235.
	create_child: MAIN (2, 5) FAR 27219 U 0.00
expand: MAIN (2, 0) FAR  w(0) 27219.
	create_child: top_step (1, 5) FAR 27122 U 0.00
expand: top_step (1, 0) FAR  w(0) 27122.
	create_child: DRAGON_step (0, 5) FAR 27282 U 0.00
expand: DRAGON_step (0, 0) FAR  w(0) 27282. F 0.00
expand: top_step (1, 0) FAR  w(0) 27122. F 0.00
expand: MAIN (2, 0) FAR  w(0) 27219. F 0.00
expand: MAIN (3, 0) FAR  w(0) 3235.
	create_child: MAIN (2, 5) FAR 27612 U 0.00
expand: MAIN (2, 0) FAR  w(0) 27612.
	create_child: top_step (1, 5) FAR 27477 U 0.00
expand: top_step (1, 0) FAR  w(0) 27477.
	create_child: DRAGON_step (0, 5) FAR 27602 U 0.00
expand: DRAGON_step (0, 0) FAR  w(0) 27602. F 0.00
expand: top_step (1, 0) FAR  w(0) 27477. F 0.01
expand: MAIN (2, 0) FAR  w(0) 27612. F 0.00
expand: MAIN (3, 0) FAR  w(0) 3235.
	create_child: MAIN (2, 5) FAR 27984 U 0.00
expand: MAIN (2, 0) FAR  w(0) 27984.
	create_child: top_step (1, 5) FAR 27891 U 0.00
expand: top_step (1, 0) FAR  w(0) 27891.
	create_child: DRAGON_step (0, 5) FAR 28018 U 0.00
expand: DRAGON_step (0, 0) FAR  w(0) 28018. F 0.00
expand: top_step (1, 0) FAR  w(0) 27891. F 0.00
expand: MAIN (2, 0) FAR  w(0) 27984. F 0.00
expand: MAIN (3, 0) FAR  w(0) 3235.
	create_child: MAIN (2, 5) FAR 28354 U 0.00
expand: MAIN (2, 0) FAR  w(0) 28354.
	create_child: top_step (1, 5) FAR 28295 U 0.00
expand: top_step (1, 0) FAR  w(0) 28295.
	create_child: DRAGON_step (0, 5) FAR 27939 U 0.00
expand: DRAGON_step (0, 0) FAR  w(0) 27939. F 0.00
expand: top_step (1, 0) FAR  w(0) 28295.
	create_child: DRAGON_step (0, 5) FAR 28515 U 0.00
expand: DRAGON_step (0, 0) FAR  w(0) 28515.
	create_child: First_step (0, 5) FAR 28633 X 0.00
expand: First_step (0, 0) FAR  w(0) 28633. F 0.00
expand: top_step (1, 0) FAR  w(0) 28295. F 0.01
expand: MAIN (2, 0) FAR  w(0) 28354. F 0.00
expand: MAIN (3, 0) FAR  w(0) 3235.
	create_child: MAIN (2, 5) FAR 29062 U 0.00
expand: MAIN (2, 0) FAR  w(0) 29062.
	create_child: top_step (1, 5) FAR 29004 U 0.00
expand: top_step (1, 0) FAR  w(0) 29004. F 0.00
expand: MAIN (2, 0) FAR  w(0) 29062. F 0.00
expand: MAIN (3, 0) FAR  w(0) 3235.
	create_child: MAIN (2, 5) FAR 29162 U 0.00
expand: MAIN (2, 0) FAR  w(0) 29162.
	create_child: top_step (1, 5) FAR 28871 U 0.00
expand: top_step (1, 0) FAR  w(0) 28871.
	create_child: DRAGON_step (0, 5) FAR 28911 U 0.00
expand: DRAGON_step (0, 0) FAR  w(0) 28911. F 0.00
expand: top_step (1, 0) FAR  w(0) 28871. F 0.00
expand: MAIN (2, 0) FAR  w(0) 29162. F 0.00
expand: MAIN (3, 0) FAR  w(0) 3235.
	create_child: MAIN (2, 5) FAR 29369 U 0.00
expand: MAIN (2, 0) FAR  w(0) 29369.
	create_child: top_step (1, 5) FAR 29240 U 0.00
expand: top_step (1, 0) FAR  w(0) 29240.
	create_child: DRAGON_step (0, 5) FAR 29150 U 0.00
expand: DRAGON_step (0, 0) FAR  w(0) 29150. F 0.00
expand: top_step (1, 0) FAR  w(0) 29240. F 0.00
expand: MAIN (2, 0) FAR  w(0) 29369. F 0.00
expand: MAIN (3, 0) FAR  w(0) 3235.
	create_child: MAIN (2, 5) FAR 29612 U 0.00
expand: MAIN (2, 0) FAR  w(0) 29612.
	create_child: top_step (1, 5) FAR 29450 U 0.00
expand: top_step (1, 0) FAR  w(0) 29450.
	create_child: DRAGON_step (0, 5) FAR 29596 U 0.00
expand: DRAGON_step (0, 0) FAR  w(0) 29596. F 0.00
expand: top_step (1, 0) FAR  w(0) 29450. F 0.01
expand: MAIN (2, 0) FAR  w(0) 29612. F 0.00
expand: MAIN (3, 0) FAR  w(0) 3235.
	create_child: MAIN (2, 5) FAR 29904 U 0.00
expand: MAIN (2, 0) FAR  w(0) 29904.
	create_child: top_step (1, 5) FAR 29576 U 0.00
expand: top_step (1, 0) FAR  w(0) 29576.
	create_child: DRAGON_step (0, 5) FAR 29774 U 0.00
expand: DRAGON_step (0, 0) FAR  w(0) 29774. F 0.00
expand: top_step (1, 0) FAR  w(0) 29576. F 0.00
expand: MAIN (2, 0) FAR  w(0) 29904. F 0.00
expand: MAIN (3, 0) FAR  w(0) 3235.
	create_child: MAIN (2, 5) FAR 30266 U 0.00
expand: MAIN (2, 0) FAR  w(0) 30266.
	create_child: top_step (1, 5) FAR 30152 U 0.00
expand: top_step (1, 0) FAR  w(0) 30152.
	create_child: DRAGON_step (0, 5) FAR 30026 U 0.00
expand: DRAGON_step (0, 0) FAR  w(0) 30026. F 0.00
expand: top_step (1, 0) FAR  w(0) 30152. F 0.00
expand: MAIN (2, 0) FAR  w(0) 30266. F 0.00
expand: MAIN (3, 0) FAR  w(0) 3235.
	create_child: MAIN (2, 5) FAR 30556 U 0.00
expand: MAIN (2, 0) FAR  w(0) 30556.
	create_child: top_reset (1, 5) FAR 30616 U 0.00
expand: top_reset (1, 0) FAR  w(0) 30616. T 0.00
is-reachable: MAIN (2, 0) FAR 30556 T 0.00
is-reachable: MAIN (3, 0) FAR 3235 T 0.01
is-reachable: ERR (4, 0) FAR 1 T 0.00
is-reachable: query!0 (5, 0) FAR 1 T 0.00
(spacer::context::check_reachability :time 0.24 :before-memory 26.32 :after-memory 29.39)
BRUNCH_STAT max_query_lvl 5
BRUNCH_STAT num_queries 74
BRUNCH_STAT num_reach_queries 6
BRUNCH_STAT num_reach_reuse 110
BRUNCH_STAT inductive_lvl 0
BRUNCH_STAT max_depth 5
BRUNCH_STAT cex_depth 5
(:SPACER-cex-depth                     5
 :SPACER-max-depth                     5
 :SPACER-max-query-lvl                 5
 :SPACER-num-invariants                49
 :SPACER-num-lemmas                    75
 :SPACER-num-properties                67
 :SPACER-num-queries                   74
 :SPACER-num-reach-queries             6
 :SPACER-num-reuse-reach-facts         110
 :added-eqs                            14635
 :arith-add-rows                       8600
 :arith-assert-diseq                   2796
 :arith-assert-lower                   7913
 :arith-assert-upper                   8589
 :arith-bound-prop                     930
 :arith-conflicts                      98
 :arith-eq-adapter                     2647
 :arith-fixed-eqs                      2473
 :arith-offset-eqs                     2884
 :arith-pivots                         1269
 :bool-inductive-gen                   63
 :bool-inductive-gen-failures          103
 :conflicts                            417
 :decisions                            12188
 :del-clause                           764
 :final-checks                         174
 :minimized-lits                       38
 :mk-bool-var                          8080
 :mk-clause                            9503
 :num-checks                           438
 :propagations                         114837
 :time.itp_solver.itp_core             0.03
 :time.spacer.init_rules               0.01
 :time.spacer.init_rules.pt.init       0.00
 :time.spacer.solve                    0.39
 :time.spacer.solve.propagate          0.00
 :time.spacer.solve.pt.must_reachable  0.01
 :time.spacer.solve.reach              0.38
 :time.spacer.solve.reach.children     0.08
 :time.spacer.solve.reach.gen.bool_ind 0.05
 :time.spacer.solve.reach.is-reach     0.02
 :time.virtual_solver.proof            0.02
 :time.virtual_solver.smt.total        0.24
 :time.virtual_solver.smt.total.sat    0.13
 :virtual_solver.checks                438
 :virtual_solver.checks.sat            174)
BRUNCH_STAT max_query_lvl 5
BRUNCH_STAT num_queries 74
BRUNCH_STAT num_reach_queries 6
BRUNCH_STAT num_reach_reuse 110
BRUNCH_STAT inductive_lvl 0
BRUNCH_STAT max_depth 5
BRUNCH_STAT cex_depth 5

real	0m0.462s
user	0m0.436s
sys	0m0.024s
