(transform N7datalog13mk_coi_filterE...no-op 0s)
(transform N7datalog25mk_interp_tail_simplifierE...12 rules 0s)
(transform N7datalog27mk_quantifier_instantiationE...no-op 0s)
(transform N7datalog8mk_scaleE...no-op 0s)
(transform N7datalog18mk_karr_invariantsE...no-op 0s)
(transform N7datalog14mk_array_blastE...no-op 0s)
(transform N7datalog22mk_subsumption_checkerE...11 rules 0s)
(transform N7datalog12mk_bit_blastE...no-op 0s)
(transform N7datalog15mk_rule_inlinerE...no-op 0s)
(transform N7datalog13mk_coi_filterE...no-op 0s)
(transform N7datalog25mk_interp_tail_simplifierE...11 rules 0s)
(transform N7datalog22mk_subsumption_checkerE...no-op 0s)
(transform N7datalog15mk_rule_inlinerE...no-op 0s)
(transform N7datalog13mk_coi_filterE...no-op 0s)
(transform N7datalog25mk_interp_tail_simplifierE...11 rules 0s)
(transform N7datalog22mk_subsumption_checkerE...no-op 0s)
(transform N7datalog15mk_rule_inlinerE...no-op 0s)
(transform N7datalog22mk_subsumption_checkerE...no-op 0s)
(transform N7datalog15mk_rule_inlinerE...no-op 0s)
(transform N7datalog22mk_subsumption_checkerE...no-op 0s)
(transform N7datalog15mk_rule_inlinerE...no-op 0s)
(transform N7datalog22mk_subsumption_checkerE...no-op 0s)
expand: query!0 (0, 0) FAR  w(0) 1. F 0.00
(spacer::context::check_reachability :time 0.00 :before-memory 11.60 :after-memory 12.05)
Entering level 1
BRUNCH_STAT max_query_lvl 0
BRUNCH_STAT num_queries 0
BRUNCH_STAT num_reach_queries 0
BRUNCH_STAT num_reach_reuse 0
BRUNCH_STAT inductive_lvl 0
BRUNCH_STAT max_depth 1
BRUNCH_STAT cex_depth 0
expand: query!0 (1, 0) FAR  w(0) 1.
	create_child: ERR (0, 1) FAR 1 U 0.00
expand: ERR (0, 0) FAR  w(0) 1. F 0.00
expand: query!0 (1, 0) FAR  w(0) 1. F 0.00
(spacer::context::check_reachability :time 0.00 :before-memory 12.05 :after-memory 12.49)
Propagating: 0 1  ! 2 
(spacer::context::propagate :time 0.00 :before-memory 12.49 :after-memory 12.49)
Entering level 2
BRUNCH_STAT max_query_lvl 1
BRUNCH_STAT num_queries 1
BRUNCH_STAT num_reach_queries 0
BRUNCH_STAT num_reach_reuse 0
BRUNCH_STAT inductive_lvl 0
BRUNCH_STAT max_depth 2
BRUNCH_STAT cex_depth 0
expand: query!0 (2, 0) FAR  w(0) 1.
	create_child: ERR (1, 2) FAR 1 U 0.00
expand: ERR (1, 0) FAR  w(0) 1.
	create_child: MAIN (0, 2) FAR 2802 U 0.00
expand: MAIN (0, 0) FAR  w(0) 2802. F 0.00
expand: ERR (1, 0) FAR  w(0) 1. F 0.00
expand: query!0 (2, 0) FAR  w(0) 1. F 0.00
(spacer::context::check_reachability :time 0.00 :before-memory 12.49 :after-memory 12.95)
Propagating: 0 1 2  ! 3 
(spacer::context::propagate :time 0.00 :before-memory 12.95 :after-memory 12.95)
Entering level 3
BRUNCH_STAT max_query_lvl 2
BRUNCH_STAT num_queries 3
BRUNCH_STAT num_reach_queries 0
BRUNCH_STAT num_reach_reuse 0
BRUNCH_STAT inductive_lvl 0
BRUNCH_STAT max_depth 3
BRUNCH_STAT cex_depth 0
expand: query!0 (3, 0) FAR  w(0) 1.
	create_child: ERR (2, 3) FAR 1 U 0.00
expand: ERR (2, 0) FAR  w(0) 1.
	create_child: MAIN (1, 3) FAR 2802 U 0.00
expand: MAIN (1, 0) FAR  w(0) 2802.
	create_child: top_step (0, 3) FAR 3663 U 0.00
expand: top_step (0, 0) FAR  w(0) 3663. F 0.00
expand: MAIN (1, 0) FAR  w(0) 2802. F 0.00
expand: ERR (2, 0) FAR  w(0) 1. F 0.00
expand: query!0 (3, 0) FAR  w(0) 1. F 0.00
(spacer::context::check_reachability :time 0.01 :before-memory 12.95 :after-memory 14.16)
Propagating: 0 1 2 3  ! 4 
(spacer::context::propagate :time 0.00 :before-memory 14.16 :after-memory 14.26)
Entering level 4
BRUNCH_STAT max_query_lvl 3
BRUNCH_STAT num_queries 6
BRUNCH_STAT num_reach_queries 0
BRUNCH_STAT num_reach_reuse 0
BRUNCH_STAT inductive_lvl 0
BRUNCH_STAT max_depth 4
BRUNCH_STAT cex_depth 0
expand: query!0 (4, 0) FAR  w(0) 1.
	create_child: ERR (3, 4) FAR 1 U 0.00
expand: ERR (3, 0) FAR  w(0) 1.
	create_child: MAIN (2, 4) FAR 2802 U 0.00
expand: MAIN (2, 0) FAR  w(0) 2802.
	create_child: top_step (1, 4) FAR 3663 U 0.00
expand: top_step (1, 0) FAR  w(0) 3663.
	create_child: top_reset (1, 4) FAR 11740 X 0.01
expand: top_reset (1, 0) FAR  w(0) 11740.
	create_child: Sofar_reset (0, 4) FAR 12249 U 0.00
expand: Sofar_reset (0, 0) FAR  w(0) 12249. F 0.00
expand: top_reset (1, 0) FAR  w(0) 11740. F 0.00
expand: MAIN (2, 0) FAR  w(0) 2802.
	create_child: top_reset (1, 4) FAR 16777 U 0.01
expand: top_reset (1, 0) FAR  w(0) 16777.
	create_child: DRAGON_reset (0, 4) FAR 16642 U 0.00
expand: DRAGON_reset (0, 0) FAR  w(0) 16642. F 0.00
expand: top_reset (1, 0) FAR  w(0) 16777. F 0.00
expand: MAIN (2, 0) FAR  w(0) 2802.
	create_child: top_step (1, 4) FAR 16788 U 0.00
expand: top_step (1, 0) FAR  w(0) 16788.
	create_child: DRAGON_step (0, 4) FAR 16950 U 0.01
expand: DRAGON_step (0, 0) FAR  w(0) 16950. F 0.01
expand: top_step (1, 0) FAR  w(0) 16788. F 0.00
expand: MAIN (2, 0) FAR  w(0) 2802. F 0.00
expand: ERR (3, 0) FAR  w(0) 1. F 0.00
expand: query!0 (4, 0) FAR  w(0) 1. F 0.00
(spacer::context::check_reachability :time 0.04 :before-memory 14.26 :after-memory 19.97)
Propagating: 0 1 2 3 4  ! 5 
(spacer::context::propagate :time 0.00 :before-memory 19.97 :after-memory 19.97)
Entering level 5
BRUNCH_STAT max_query_lvl 4
BRUNCH_STAT num_queries 14
BRUNCH_STAT num_reach_queries 1
BRUNCH_STAT num_reach_reuse 7
BRUNCH_STAT inductive_lvl 0
BRUNCH_STAT max_depth 5
BRUNCH_STAT cex_depth 0
expand: query!0 (5, 0) FAR  w(0) 1.
	create_child: ERR (4, 5) FAR 1 U 0.00
expand: ERR (4, 0) FAR  w(0) 1.
	create_child: MAIN (3, 5) FAR 2802 U 0.00
expand: MAIN (3, 0) FAR  w(0) 2802.
	create_child: MAIN (2, 5) FAR 20718 U 0.00
expand: MAIN (2, 0) FAR  w(0) 20718.
	create_child: top_step (1, 5) FAR 20595 U 0.00
expand: top_step (1, 0) FAR  w(0) 20595.
	create_child: DRAGON_step (0, 5) FAR 20601 U 0.00
expand: DRAGON_step (0, 0) FAR  w(0) 20601. F 0.00
expand: top_step (1, 0) FAR  w(0) 20595. F 0.00
expand: MAIN (2, 0) FAR  w(0) 20718. F 0.00
expand: MAIN (3, 0) FAR  w(0) 2802.
	create_child: top_step (2, 5) FAR 20929 U 0.00
expand: top_step (2, 0) FAR  w(0) 20929.
	create_child: DRAGON_step (1, 5) FAR 21359 U 0.00
expand: DRAGON_step (1, 0) FAR  w(0) 21359. F 0.00
expand: top_step (2, 0) FAR  w(0) 20929. F 0.00
expand: MAIN (3, 0) FAR  w(0) 2802. F 0.00
expand: ERR (4, 0) FAR  w(0) 1. F 0.00
expand: query!0 (5, 0) FAR  w(0) 1. F 0.00
(spacer::context::check_reachability :time 0.02 :before-memory 19.97 :after-memory 20.47)
Propagating: 0 1 2 3 4 5  ! 6 
(spacer::context::propagate :time 0.00 :before-memory 20.47 :after-memory 20.47)
Entering level 6
BRUNCH_STAT max_query_lvl 5
BRUNCH_STAT num_queries 21
BRUNCH_STAT num_reach_queries 1
BRUNCH_STAT num_reach_reuse 12
BRUNCH_STAT inductive_lvl 0
BRUNCH_STAT max_depth 6
BRUNCH_STAT cex_depth 0
expand: query!0 (6, 0) FAR  w(0) 1.
	create_child: ERR (5, 6) FAR 1 U 0.00
expand: ERR (5, 0) FAR  w(0) 1.
	create_child: MAIN (4, 6) FAR 2802 U 0.00
expand: MAIN (4, 0) FAR  w(0) 2802.
	create_child: MAIN (3, 6) FAR 21873 U 0.00
expand: MAIN (3, 0) FAR  w(0) 21873.
	create_child: top_step (2, 6) FAR 21665 U 0.00
expand: top_step (2, 0) FAR  w(0) 21665. F 0.00
expand: MAIN (3, 0) FAR  w(0) 21873. F 0.00
expand: MAIN (4, 0) FAR  w(0) 2802. F 0.00
expand: ERR (5, 0) FAR  w(0) 1. F 0.00
expand: query!0 (6, 0) FAR  w(0) 1. F 0.00
(spacer::context::check_reachability :time 0.01 :before-memory 20.47 :after-memory 20.51)
Propagating: 2 
(spacer::context::propagate :time 0.00 :before-memory 20.51 :after-memory 20.51)
(define-fun ERR () Bool
  false)
(define-fun DRAGON_reset ((x!0 Int)
 (x!1 Int)
 (x!2 Int)
 (x!3 Int)
 (x!4 Int)
 (x!5 Int)
 (x!6 Bool)
 (x!7 Int)
 (x!8 Int)
 (x!9 Int)
 (x!10 Int)
 (x!11 Int)
 (x!12 Int)
 (x!13 Bool)) Bool
  x!13)
(define-fun top_step ((x!0 Bool)
 (x!1 Bool)
 (x!2 Bool)
 (x!3 Bool)
 (x!4 Bool)
 (x!5 Bool)
 (x!6 Bool)
 (x!7 Bool)
 (x!8 Bool)
 (x!9 Bool)
 (x!10 Bool)
 (x!11 Bool)
 (x!12 Int)
 (x!13 Bool)
 (x!14 Bool)
 (x!15 Bool)
 (x!16 Int)
 (x!17 Int)
 (x!18 Int)
 (x!19 Int)
 (x!20 Int)
 (x!21 Int)
 (x!22 Bool)
 (x!23 Bool)
 (x!24 Bool)
 (x!25 Int)
 (x!26 Int)
 (x!27 Int)
 (x!28 Int)
 (x!29 Int)
 (x!30 Int)
 (x!31 Bool)) Bool
  (and (or (not (<= x!19 1)) (not (>= x!28 2)))
       (or x!13 (not x!22))
       (or (not (>= x!28 2)) (not x!22))
       (or (not (<= x!19 1)) x!13)))
(define-fun DRAGON_step ((x!0 Bool)
 (x!1 Bool)
 (x!2 Bool)
 (x!3 Bool)
 (x!4 Bool)
 (x!5 Bool)
 (x!6 Bool)
 (x!7 Bool)
 (x!8 Bool)
 (x!9 Bool)
 (x!10 Bool)
 (x!11 Bool)
 (x!12 Int)
 (x!13 Int)
 (x!14 Int)
 (x!15 Int)
 (x!16 Int)
 (x!17 Int)
 (x!18 Bool)
 (x!19 Int)
 (x!20 Int)
 (x!21 Int)
 (x!22 Int)
 (x!23 Int)
 (x!24 Int)
 (x!25 Bool)
 (x!26 Int)
 (x!27 Int)
 (x!28 Int)
 (x!29 Int)
 (x!30 Int)
 (x!31 Int)
 (x!32 Bool)) Bool
  (and (or (not (<= x!22 1)) (not x!18))
       (or (not x!18) (not x!25))
       (or (not (>= x!29 2)) x!18)))
(define-fun Sofar_reset ((x!0 Bool) (x!1 Bool) (x!2 Bool) (x!3 Bool)) Bool
  x!3)
(define-fun excludes12_fun ((x!0 Bool)
 (x!1 Bool)
 (x!2 Bool)
 (x!3 Bool)
 (x!4 Bool)
 (x!5 Bool)
 (x!6 Bool)
 (x!7 Bool)
 (x!8 Bool)
 (x!9 Bool)
 (x!10 Bool)
 (x!11 Bool)
 (x!12 Bool)) Bool
  true)
(define-fun Sofar_step ((x!0 Bool)
 (x!1 Bool)
 (x!2 Bool)
 (x!3 Bool)
 (x!4 Bool)
 (x!5 Bool)) Bool
  true)
(define-fun MAIN ((x!0 Bool)
 (x!1 Bool)
 (x!2 Int)
 (x!3 Int)
 (x!4 Int)
 (x!5 Int)
 (x!6 Int)
 (x!7 Int)
 (x!8 Bool)
 (x!9 Bool)) Bool
  (and (not (>= x!5 2)) x!9))
(define-fun top_reset ((x!0 Bool)
 (x!1 Bool)
 (x!2 Int)
 (x!3 Int)
 (x!4 Int)
 (x!5 Int)
 (x!6 Int)
 (x!7 Int)
 (x!8 Bool)
 (x!9 Bool)
 (x!10 Bool)
 (x!11 Int)
 (x!12 Int)
 (x!13 Int)
 (x!14 Int)
 (x!15 Int)
 (x!16 Int)
 (x!17 Bool)) Bool
  (and x!17 x!10))
BRUNCH_STAT max_query_lvl 6
BRUNCH_STAT num_queries 25
BRUNCH_STAT num_reach_queries 1
BRUNCH_STAT num_reach_reuse 13
BRUNCH_STAT inductive_lvl 2
BRUNCH_STAT max_depth 6
BRUNCH_STAT cex_depth 0
(:SPACER-inductive-level               2
 :SPACER-max-depth                     6
 :SPACER-max-query-lvl                 6
 :SPACER-num-invariants                15
 :SPACER-num-lemmas                    32
 :SPACER-num-properties                17
 :SPACER-num-queries                   25
 :SPACER-num-reach-queries             1
 :SPACER-num-reuse-reach-facts         13
 :added-eqs                            2029
 :arith-add-rows                       584
 :arith-assert-diseq                   548
 :arith-assert-lower                   1154
 :arith-assert-upper                   1043
 :arith-bound-prop                     239
 :arith-conflicts                      14
 :arith-eq-adapter                     443
 :arith-fixed-eqs                      230
 :arith-offset-eqs                     242
 :arith-pivots                         240
 :bool-inductive-gen                   16
 :bool-inductive-gen-failures          23
 :conflicts                            197
 :decisions                            3366
 :del-clause                           361
 :final-checks                         61
 :minimized-lits                       10
 :mk-bool-var                          3260
 :mk-clause                            6029
 :num-checks                           163
 :propagations                         26026
 :time.itp_solver.itp_core             0.01
 :time.spacer.init_rules               0.01
 :time.spacer.init_rules.pt.init       0.00
 :time.spacer.solve                    0.08
 :time.spacer.solve.propagate          0.01
 :time.spacer.solve.pt.must_reachable  0.00
 :time.spacer.solve.reach              0.08
 :time.spacer.solve.reach.children     0.01
 :time.spacer.solve.reach.gen.bool_ind 0.01
 :time.virtual_solver.proof            0.00
 :time.virtual_solver.smt.total        0.05
 :time.virtual_solver.smt.total.sat    0.02
 :virtual_solver.checks                163
 :virtual_solver.checks.sat            61)
BRUNCH_STAT max_query_lvl 6
BRUNCH_STAT num_queries 25
BRUNCH_STAT num_reach_queries 1
BRUNCH_STAT num_reach_reuse 13
BRUNCH_STAT inductive_lvl 2
BRUNCH_STAT max_depth 6
BRUNCH_STAT cex_depth 0

real	0m0.126s
user	0m0.108s
sys	0m0.016s
