(transform N7datalog13mk_coi_filterE...no-op 0s)
(transform N7datalog25mk_interp_tail_simplifierE...14 rules 0s)
(transform N7datalog27mk_quantifier_instantiationE...no-op 0s)
(transform N7datalog8mk_scaleE...no-op 0s)
(transform N7datalog18mk_karr_invariantsE...no-op 0s)
(transform N7datalog14mk_array_blastE...no-op 0s)
(transform N7datalog22mk_subsumption_checkerE...13 rules 0s)
(transform N7datalog12mk_bit_blastE...no-op 0s)
(transform N7datalog15mk_rule_inlinerE...no-op 0s)
(transform N7datalog13mk_coi_filterE...no-op 0s)
(transform N7datalog25mk_interp_tail_simplifierE...13 rules 0s)
(transform N7datalog22mk_subsumption_checkerE...no-op 0s)
(transform N7datalog15mk_rule_inlinerE...no-op 0s)
(transform N7datalog13mk_coi_filterE...no-op 0s)
(transform N7datalog25mk_interp_tail_simplifierE...13 rules 0s)
(transform N7datalog22mk_subsumption_checkerE...no-op 0s)
(transform N7datalog15mk_rule_inlinerE...no-op 0s)
(transform N7datalog22mk_subsumption_checkerE...no-op 0s)
(transform N7datalog15mk_rule_inlinerE...no-op 0s)
(transform N7datalog22mk_subsumption_checkerE...no-op 0s)
(transform N7datalog15mk_rule_inlinerE...no-op 0s)
(transform N7datalog22mk_subsumption_checkerE...no-op 0s)
expand: query!0 (0, 0) FAR  w(0) 1. F 0.00
(spacer::context::check_reachability :time 0.00 :before-memory 13.43 :after-memory 13.86)
Entering level 1
BRUNCH_STAT max_query_lvl 0
BRUNCH_STAT num_queries 0
BRUNCH_STAT num_reach_queries 0
BRUNCH_STAT num_reach_reuse 0
BRUNCH_STAT inductive_lvl 0
BRUNCH_STAT max_depth 1
BRUNCH_STAT cex_depth 0
expand: query!0 (1, 0) FAR  w(0) 1.
	create_child: ERR (0, 1) FAR 1 U 0.00
expand: ERR (0, 0) FAR  w(0) 1. F 0.00
expand: query!0 (1, 0) FAR  w(0) 1. F 0.00
(spacer::context::check_reachability :time 0.00 :before-memory 13.86 :after-memory 14.31)
Propagating: 0 1  ! 2 
(spacer::context::propagate :time 0.00 :before-memory 14.31 :after-memory 14.31)
Entering level 2
BRUNCH_STAT max_query_lvl 1
BRUNCH_STAT num_queries 1
BRUNCH_STAT num_reach_queries 0
BRUNCH_STAT num_reach_reuse 0
BRUNCH_STAT inductive_lvl 0
BRUNCH_STAT max_depth 2
BRUNCH_STAT cex_depth 0
expand: query!0 (2, 0) FAR  w(0) 1.
	create_child: ERR (1, 2) FAR 1 U 0.00
expand: ERR (1, 0) FAR  w(0) 1.
	create_child: MAIN (0, 2) FAR 3128 U 0.00
expand: MAIN (0, 0) FAR  w(0) 3128. F 0.00
expand: ERR (1, 0) FAR  w(0) 1. F 0.00
expand: query!0 (2, 0) FAR  w(0) 1. F 0.00
(spacer::context::check_reachability :time 0.00 :before-memory 14.31 :after-memory 14.78)
Propagating: 0 1 2  ! 3 
(spacer::context::propagate :time 0.00 :before-memory 14.78 :after-memory 14.78)
Entering level 3
BRUNCH_STAT max_query_lvl 2
BRUNCH_STAT num_queries 3
BRUNCH_STAT num_reach_queries 0
BRUNCH_STAT num_reach_reuse 0
BRUNCH_STAT inductive_lvl 0
BRUNCH_STAT max_depth 3
BRUNCH_STAT cex_depth 0
expand: query!0 (3, 0) FAR  w(0) 1.
	create_child: ERR (2, 3) FAR 1 U 0.00
expand: ERR (2, 0) FAR  w(0) 1.
	create_child: MAIN (1, 3) FAR 3128 U 0.00
expand: MAIN (1, 0) FAR  w(0) 3128.
	create_child: top_step (0, 3) FAR 4100 U 0.00
expand: top_step (0, 0) FAR  w(0) 4100. F 0.00
expand: MAIN (1, 0) FAR  w(0) 3128. F 0.00
expand: ERR (2, 0) FAR  w(0) 1. F 0.00
expand: query!0 (3, 0) FAR  w(0) 1. F 0.00
(spacer::context::check_reachability :time 0.01 :before-memory 14.78 :after-memory 16.01)
Propagating: 0 1 2 3  ! 4 
(spacer::context::propagate :time 0.00 :before-memory 16.01 :after-memory 16.21)
Entering level 4
BRUNCH_STAT max_query_lvl 3
BRUNCH_STAT num_queries 6
BRUNCH_STAT num_reach_queries 0
BRUNCH_STAT num_reach_reuse 0
BRUNCH_STAT inductive_lvl 0
BRUNCH_STAT max_depth 4
BRUNCH_STAT cex_depth 0
expand: query!0 (4, 0) FAR  w(0) 1.
	create_child: ERR (3, 4) FAR 1 U 0.00
expand: ERR (3, 0) FAR  w(0) 1.
	create_child: MAIN (2, 4) FAR 3128 U 0.00
expand: MAIN (2, 0) FAR  w(0) 3128.
	create_child: top_step (1, 4) FAR 4100 U 0.00
expand: top_step (1, 0) FAR  w(0) 4100.
	create_child: top_reset (1, 4) FAR 12915 X 0.01
expand: top_reset (1, 0) FAR  w(0) 12915. F 0.00
expand: MAIN (2, 0) FAR  w(0) 3128.
	create_child: top_reset (1, 4) FAR 18163 U 0.01
expand: top_reset (1, 0) FAR  w(0) 18163.
	create_child: First_reset (0, 4) FAR 2018 UNDEF 0.00
expand: First_reset (0, 0) FAR  w(0) 2018. T 0.00
is-reachable: top_reset (1, 0) FAR 18163 F 0.00
expand: top_reset (1, 0) FAR  w(1) 18163.
	create_child: Sofar_reset (0, 4) FAR 17971 U 0.00
expand: Sofar_reset (0, 0) FAR  w(0) 17971. F 0.00
expand: top_reset (1, 0) FAR  w(1) 18163. F 0.00
expand: MAIN (2, 0) FAR  w(0) 3128.
	create_child: top_reset (1, 4) FAR 18441 U 0.00
expand: top_reset (1, 0) FAR  w(0) 18441.
	create_child: First_reset (0, 4) FAR 2018 UNDEF 0.00
expand: First_reset (0, 0) FAR  w(0) 2018. T 0.00
is-reachable: top_reset (1, 0) FAR 18441 F 0.00
expand: top_reset (1, 0) FAR  w(1) 18441.
	create_child: DRAGON_reset (0, 4) FAR 18373 U 0.00
expand: DRAGON_reset (0, 0) FAR  w(0) 18373. F 0.00
expand: top_reset (1, 0) FAR  w(1) 18441. F 0.00
expand: MAIN (2, 0) FAR  w(0) 3128.
	create_child: top_reset (1, 4) FAR 18662 U 0.00
expand: top_reset (1, 0) FAR  w(0) 18662.
	create_child: First_reset (0, 4) FAR 18137 UNDEF 0.00
expand: First_reset (0, 0) FAR  w(0) 18137. F 0.00
expand: top_reset (1, 0) FAR  w(0) 18662. F 0.00
expand: MAIN (2, 0) FAR  w(0) 3128.
	create_child: top_step (1, 4) FAR 18281 U 0.00
expand: top_step (1, 0) FAR  w(0) 18281.
	create_child: DRAGON_step (0, 4) FAR 18948 U 0.01
expand: DRAGON_step (0, 0) FAR  w(0) 18948. F 0.01
expand: top_step (1, 0) FAR  w(0) 18281.
	create_child: DRAGON_step (0, 4) FAR 22016 U 0.00
expand: DRAGON_step (0, 0) FAR  w(0) 22016. F 0.00
expand: top_step (1, 0) FAR  w(0) 18281.
	create_child: DRAGON_step (0, 4) FAR 22215 U 0.00
expand: DRAGON_step (0, 0) FAR  w(0) 22215. F 0.00
expand: top_step (1, 0) FAR  w(0) 18281.
	create_child: DRAGON_step (0, 4) FAR 22378 U 0.00
expand: DRAGON_step (0, 0) FAR  w(0) 22378. F 0.00
expand: top_step (1, 0) FAR  w(0) 18281.
	create_child: DRAGON_step (0, 4) FAR 21907 U 0.00
expand: DRAGON_step (0, 0) FAR  w(0) 21907.
	create_child: First_step (0, 4) FAR 22433 X 0.01
expand: First_step (0, 0) FAR  w(0) 22433. F 0.00
expand: top_step (1, 0) FAR  w(0) 18281.
	create_child: DRAGON_step (0, 4) FAR 21907 U 0.00
expand: DRAGON_step (0, 0) FAR  w(0) 21907.
	create_child: First_step (0, 4) FAR 22740 X 0.00
expand: First_step (0, 0) FAR  w(0) 22740. F 0.00
expand: top_step (1, 0) FAR  w(0) 18281. F 0.00
expand: MAIN (2, 0) FAR  w(0) 3128. F 0.00
expand: ERR (3, 0) FAR  w(0) 1. F 0.00
expand: query!0 (4, 0) FAR  w(0) 1. F 0.00
(spacer::context::check_reachability :time 0.08 :before-memory 16.21 :after-memory 24.83)
Propagating: 0 1 2 3 4  ! 5 
(spacer::context::propagate :time 0.00 :before-memory 24.83 :after-memory 24.83)
Entering level 5
BRUNCH_STAT max_query_lvl 4
BRUNCH_STAT num_queries 24
BRUNCH_STAT num_reach_queries 1
BRUNCH_STAT num_reach_reuse 26
BRUNCH_STAT inductive_lvl 0
BRUNCH_STAT max_depth 5
BRUNCH_STAT cex_depth 0
expand: query!0 (5, 0) FAR  w(0) 1.
	create_child: ERR (4, 5) FAR 1 U 0.00
expand: ERR (4, 0) FAR  w(0) 1.
	create_child: MAIN (3, 5) FAR 3128 U 0.00
expand: MAIN (3, 0) FAR  w(0) 3128.
	create_child: MAIN (2, 5) FAR 23869 U 0.00
expand: MAIN (2, 0) FAR  w(0) 23869.
	create_child: top_step (1, 5) FAR 23670 U 0.00
expand: top_step (1, 0) FAR  w(0) 23670.
	create_child: DRAGON_step (0, 5) FAR 23767 U 0.00
expand: DRAGON_step (0, 0) FAR  w(0) 23767. F 0.00
expand: top_step (1, 0) FAR  w(0) 23670. F 0.01
expand: MAIN (2, 0) FAR  w(0) 23869. F 0.00
expand: MAIN (3, 0) FAR  w(0) 3128.
	create_child: MAIN (2, 5) FAR 24541 U 0.00
expand: MAIN (2, 0) FAR  w(0) 24541.
	create_child: top_step (1, 5) FAR 24443 U 0.00
expand: top_step (1, 0) FAR  w(0) 24443.
	create_child: Sofar_step (0, 5) FAR 24427 U 0.00
expand: Sofar_step (0, 0) FAR  w(0) 24427. F 0.00
expand: top_step (1, 0) FAR  w(0) 24443. F 0.00
expand: MAIN (2, 0) FAR  w(0) 24541. F 0.00
expand: MAIN (3, 0) FAR  w(0) 3128.
	create_child: MAIN (2, 5) FAR 24906 U 0.00
expand: MAIN (2, 0) FAR  w(0) 24906.
	create_child: top_step (1, 5) FAR 24800 U 0.00
expand: top_step (1, 0) FAR  w(0) 24800.
	create_child: Sofar_step (0, 5) FAR 24738 U 0.00
expand: Sofar_step (0, 0) FAR  w(0) 24738. F 0.00
expand: top_step (1, 0) FAR  w(0) 24800.
	create_child: Sofar_step (0, 5) FAR 24948 U 0.00
expand: Sofar_step (0, 0) FAR  w(0) 24948.
	create_child: DRAGON_step (0, 5) FAR 24920 X 0.00
expand: DRAGON_step (0, 0) FAR  w(0) 24920. F 0.00
expand: top_step (1, 0) FAR  w(0) 24800. F 0.00
expand: MAIN (2, 0) FAR  w(0) 24906. F 0.00
expand: MAIN (3, 0) FAR  w(0) 3128.
	create_child: MAIN (2, 5) FAR 25299 U 0.00
expand: MAIN (2, 0) FAR  w(0) 25299.
	create_child: top_step (1, 5) FAR 25239 U 0.00
expand: top_step (1, 0) FAR  w(0) 25239.
	create_child: Sofar_step (0, 5) FAR 24948 U 0.00
expand: Sofar_step (0, 0) FAR  w(0) 24948.
	create_child: DRAGON_step (0, 5) FAR 25359 X 0.00
expand: DRAGON_step (0, 0) FAR  w(0) 25359. F 0.00
expand: top_step (1, 0) FAR  w(0) 25239. F 0.01
expand: MAIN (2, 0) FAR  w(0) 25299. F 0.00
expand: MAIN (3, 0) FAR  w(0) 3128.
	create_child: MAIN (2, 5) FAR 26067 U 0.00
expand: MAIN (2, 0) FAR  w(0) 26067.
	create_child: top_step (1, 5) FAR 26040 U 0.00
expand: top_step (1, 0) FAR  w(0) 26040.
	create_child: DRAGON_step (0, 5) FAR 25855 U 0.00
expand: DRAGON_step (0, 0) FAR  w(0) 25855. F 0.00
expand: top_step (1, 0) FAR  w(0) 26040. F 0.00
expand: MAIN (2, 0) FAR  w(0) 26067. F 0.00
expand: MAIN (3, 0) FAR  w(0) 3128.
	create_child: MAIN (2, 5) FAR 26542 U 0.00
expand: MAIN (2, 0) FAR  w(0) 26542.
	create_child: top_step (1, 5) FAR 26487 U 0.00
expand: top_step (1, 0) FAR  w(0) 26487.
	create_child: DRAGON_step (0, 5) FAR 26382 U 0.00
expand: DRAGON_step (0, 0) FAR  w(0) 26382. F 0.00
expand: top_step (1, 0) FAR  w(0) 26487. F 0.00
expand: MAIN (2, 0) FAR  w(0) 26542. F 0.00
expand: MAIN (3, 0) FAR  w(0) 3128.
	create_child: MAIN (2, 5) FAR 26801 U 0.00
expand: MAIN (2, 0) FAR  w(0) 26801.
	create_child: top_step (1, 5) FAR 26746 U 0.00
expand: top_step (1, 0) FAR  w(0) 26746.
	create_child: Sofar_step (0, 5) FAR 24948 U 0.00
expand: Sofar_step (0, 0) FAR  w(0) 24948.
	create_child: DRAGON_step (0, 5) FAR 26635 X 0.00
expand: DRAGON_step (0, 0) FAR  w(0) 26635. F 0.00
expand: top_step (1, 0) FAR  w(0) 26746. F 0.01
expand: MAIN (2, 0) FAR  w(0) 26801. F 0.00
expand: MAIN (3, 0) FAR  w(0) 3128.
	create_child: MAIN (2, 5) FAR 27146 U 0.00
expand: MAIN (2, 0) FAR  w(0) 27146.
	create_child: top_step (1, 5) FAR 26990 U 0.00
expand: top_step (1, 0) FAR  w(0) 26990.
	create_child: Sofar_step (0, 5) FAR 24948 U 0.00
expand: Sofar_step (0, 0) FAR  w(0) 24948.
	create_child: DRAGON_step (0, 5) FAR 26987 X 0.00
expand: DRAGON_step (0, 0) FAR  w(0) 26987. F 0.00
expand: top_step (1, 0) FAR  w(0) 26990. F 0.00
expand: MAIN (2, 0) FAR  w(0) 27146. F 0.00
expand: MAIN (3, 0) FAR  w(0) 3128.
	create_child: MAIN (2, 5) FAR 27592 U 0.00
expand: MAIN (2, 0) FAR  w(0) 27592.
	create_child: top_step (1, 5) FAR 27526 U 0.00
expand: top_step (1, 0) FAR  w(0) 27526.
	create_child: Sofar_step (0, 5) FAR 24948 U 0.00
expand: Sofar_step (0, 0) FAR  w(0) 24948.
	create_child: First_step (0, 5) FAR 27369 X 0.00
expand: First_step (0, 0) FAR  w(0) 27369. F 0.00
expand: top_step (1, 0) FAR  w(0) 27526. F 0.00
expand: MAIN (2, 0) FAR  w(0) 27592. F 0.00
expand: MAIN (3, 0) FAR  w(0) 3128.
	create_child: MAIN (2, 5) FAR 27918 U 0.00
expand: MAIN (2, 0) FAR  w(0) 27918.
	create_child: top_step (1, 5) FAR 27817 U 0.00
expand: top_step (1, 0) FAR  w(0) 27817.
	create_child: DRAGON_step (0, 5) FAR 27915 U 0.00
expand: DRAGON_step (0, 0) FAR  w(0) 27915. F 0.00
expand: top_step (1, 0) FAR  w(0) 27817. F 0.00
expand: MAIN (2, 0) FAR  w(0) 27918. F 0.00
expand: MAIN (3, 0) FAR  w(0) 3128.
	create_child: MAIN (2, 5) FAR 28253 U 0.00
expand: MAIN (2, 0) FAR  w(0) 28253.
	create_child: top_step (1, 5) FAR 28221 U 0.00
expand: top_step (1, 0) FAR  w(0) 28221.
	create_child: Sofar_step (0, 5) FAR 24948 U 0.01
expand: Sofar_step (0, 0) FAR  w(0) 24948.
	create_child: First_step (0, 5) FAR 28520 X 0.00
expand: First_step (0, 0) FAR  w(0) 28520. F 0.00
expand: top_step (1, 0) FAR  w(0) 28221. F 0.01
expand: MAIN (2, 0) FAR  w(0) 28253. F 0.00
expand: MAIN (3, 0) FAR  w(0) 3128.
	create_child: MAIN (2, 5) FAR 28747 U 0.00
expand: MAIN (2, 0) FAR  w(0) 28747.
	create_child: top_step (1, 5) FAR 28564 U 0.00
expand: top_step (1, 0) FAR  w(0) 28564.
	create_child: DRAGON_step (0, 5) FAR 28610 U 0.00
expand: DRAGON_step (0, 0) FAR  w(0) 28610. F 0.00
expand: top_step (1, 0) FAR  w(0) 28564. F 0.00
expand: MAIN (2, 0) FAR  w(0) 28747. F 0.00
expand: MAIN (3, 0) FAR  w(0) 3128.
	create_child: MAIN (2, 5) FAR 28921 U 0.00
expand: MAIN (2, 0) FAR  w(0) 28921.
	create_child: top_step (1, 5) FAR 28840 U 0.00
expand: top_step (1, 0) FAR  w(0) 28840.
	create_child: First_step (0, 5) FAR 29086 U 0.00
expand: First_step (0, 0) FAR  w(0) 29086. F 0.00
expand: top_step (1, 0) FAR  w(0) 28840. F 0.00
expand: MAIN (2, 0) FAR  w(0) 28921. F 0.00
expand: MAIN (3, 0) FAR  w(0) 3128.
	create_child: top_step (2, 5) FAR 30770 U 0.01
expand: top_step (2, 0) FAR  w(0) 30770.
	create_child: excludes12_fun (1, 5) FAR 39627 U 0.05
expand: excludes12_fun (1, 0) FAR  w(0) 39627. F 0.00
expand: top_step (2, 0) FAR  w(0) 30770.
	create_child: excludes12_fun (1, 5) FAR 40211 U 0.00
expand: excludes12_fun (1, 0) FAR  w(0) 40211. F 0.00
expand: top_step (2, 0) FAR  w(0) 30770.
	create_child: excludes12_fun (1, 5) FAR 40672 U 0.01
expand: excludes12_fun (1, 0) FAR  w(0) 40672. F 0.00
expand: top_step (2, 0) FAR  w(0) 30770.
	create_child: excludes12_fun (1, 5) FAR 40689 U 0.01
expand: excludes12_fun (1, 0) FAR  w(0) 40689. F 0.00
expand: top_step (2, 0) FAR  w(0) 30770.
	create_child: excludes12_fun (1, 5) FAR 40727 U 0.01
expand: excludes12_fun (1, 0) FAR  w(0) 40727. F 0.00
expand: top_step (2, 0) FAR  w(0) 30770.
	create_child: excludes12_fun (1, 5) FAR 41178 U 0.01
expand: excludes12_fun (1, 0) FAR  w(0) 41178. F 0.00
expand: top_step (2, 0) FAR  w(0) 30770.
	create_child: excludes12_fun (1, 5) FAR 41330 U 0.01
expand: excludes12_fun (1, 0) FAR  w(0) 41330. F 0.00
expand: top_step (2, 0) FAR  w(0) 30770.
	create_child: excludes12_fun (1, 5) FAR 41376 U 0.01
expand: excludes12_fun (1, 0) FAR  w(0) 41376. F 0.00
expand: top_step (2, 0) FAR  w(0) 30770.
	create_child: excludes12_fun (1, 5) FAR 41154 U 0.01
expand: excludes12_fun (1, 0) FAR  w(0) 41154. F 0.00
expand: top_step (2, 0) FAR  w(0) 30770.
	create_child: excludes12_fun (1, 5) FAR 41295 U 0.00
expand: excludes12_fun (1, 0) FAR  w(0) 41295. F 0.00
expand: top_step (2, 0) FAR  w(0) 30770.
	create_child: excludes12_fun (1, 5) FAR 41296 U 0.01
expand: excludes12_fun (1, 0) FAR  w(0) 41296. F 0.00
expand: top_step (2, 0) FAR  w(0) 30770.
	create_child: excludes12_fun (1, 5) FAR 41811 U 0.01
expand: excludes12_fun (1, 0) FAR  w(0) 41811. F 0.00
expand: top_step (2, 0) FAR  w(0) 30770.
	create_child: excludes12_fun (1, 5) FAR 42078 U 0.01
expand: excludes12_fun (1, 0) FAR  w(0) 42078. F 0.00
expand: top_step (2, 0) FAR  w(0) 30770.
	create_child: excludes12_fun (1, 5) FAR 42144 U 0.01
expand: excludes12_fun (1, 0) FAR  w(0) 42144. F 0.00
expand: top_step (2, 0) FAR  w(0) 30770.
	create_child: excludes12_fun (1, 5) FAR 42172 U 0.01
expand: excludes12_fun (1, 0) FAR  w(0) 42172. F 0.00
expand: top_step (2, 0) FAR  w(0) 30770.
	create_child: excludes12_fun (1, 5) FAR 42257 U 0.01
expand: excludes12_fun (1, 0) FAR  w(0) 42257. F 0.00
expand: top_step (2, 0) FAR  w(0) 30770.
	create_child: excludes12_fun (1, 5) FAR 42036 U 0.00
expand: excludes12_fun (1, 0) FAR  w(0) 42036. F 0.00
expand: top_step (2, 0) FAR  w(0) 30770.
	create_child: excludes12_fun (1, 5) FAR 42556 U 0.00
expand: excludes12_fun (1, 0) FAR  w(0) 42556. F 0.00
expand: top_step (2, 0) FAR  w(0) 30770.
	create_child: excludes12_fun (1, 5) FAR 42618 U 0.01
expand: excludes12_fun (1, 0) FAR  w(0) 42618. F 0.00
expand: top_step (2, 0) FAR  w(0) 30770.
	create_child: excludes12_fun (1, 5) FAR 42935 U 0.01
expand: excludes12_fun (1, 0) FAR  w(0) 42935. F 0.00
expand: top_step (2, 0) FAR  w(0) 30770.
	create_child: excludes12_fun (1, 5) FAR 42748 U 0.01
expand: excludes12_fun (1, 0) FAR  w(0) 42748. F 0.00
expand: top_step (2, 0) FAR  w(0) 30770.
	create_child: excludes12_fun (1, 5) FAR 42630 U 0.00
expand: excludes12_fun (1, 0) FAR  w(0) 42630. F 0.00
expand: top_step (2, 0) FAR  w(0) 30770.
	create_child: excludes12_fun (1, 5) FAR 43314 U 0.01
expand: excludes12_fun (1, 0) FAR  w(0) 43314. F 0.00
expand: top_step (2, 0) FAR  w(0) 30770.
	create_child: excludes12_fun (1, 5) FAR 43524 U 0.01
expand: excludes12_fun (1, 0) FAR  w(0) 43524. F 0.00
expand: top_step (2, 0) FAR  w(0) 30770.
	create_child: excludes12_fun (1, 5) FAR 43916 U 0.01
expand: excludes12_fun (1, 0) FAR  w(0) 43916. F 0.00
expand: top_step (2, 0) FAR  w(0) 30770.
	create_child: excludes12_fun (1, 5) FAR 44191 U 0.01
expand: excludes12_fun (1, 0) FAR  w(0) 44191.
	create_child: First_step (1, 5) FAR 43542 X 0.00
expand: First_step (1, 0) FAR  w(0) 43542. F 0.00
expand: top_step (2, 0) FAR  w(0) 30770.
	create_child: excludes12_fun (1, 5) FAR 44191 U 0.01
expand: excludes12_fun (1, 0) FAR  w(0) 44191.
	create_child: First_step (1, 5) FAR 43567 X 0.00
expand: First_step (1, 0) FAR  w(0) 43567. F 0.00
expand: top_step (2, 0) FAR  w(0) 30770.
	create_child: excludes12_fun (1, 5) FAR 45998 U 0.02
expand: excludes12_fun (1, 0) FAR  w(0) 45998. F 0.00
expand: top_step (2, 0) FAR  w(0) 30770.
	create_child: excludes12_fun (1, 5) FAR 46203 U 0.01
expand: excludes12_fun (1, 0) FAR  w(0) 46203. F 0.00
expand: top_step (2, 0) FAR  w(0) 30770.
	create_child: excludes12_fun (1, 5) FAR 46188 U 0.01
expand: excludes12_fun (1, 0) FAR  w(0) 46188.
	create_child: DRAGON_step (1, 5) FAR 46115 X 0.00
expand: DRAGON_step (1, 0) FAR  w(0) 46115. F 0.02
expand: top_step (2, 0) FAR  w(0) 30770.
	create_child: excludes12_fun (1, 5) FAR 46273 U 0.01
expand: excludes12_fun (1, 0) FAR  w(0) 46273. F 0.00
expand: top_step (2, 0) FAR  w(0) 30770.
	create_child: excludes12_fun (1, 5) FAR 46428 U 0.01
expand: excludes12_fun (1, 0) FAR  w(0) 46428. F 0.00
expand: top_step (2, 0) FAR  w(0) 30770.
	create_child: excludes12_fun (1, 5) FAR 46540 U 0.01
expand: excludes12_fun (1, 0) FAR  w(0) 46540. F 0.00
expand: top_step (2, 0) FAR  w(0) 30770.
	create_child: excludes12_fun (1, 5) FAR 46188 U 0.01
expand: excludes12_fun (1, 0) FAR  w(0) 46188.
	create_child: DRAGON_step (1, 5) FAR 47712 X 0.00
expand: DRAGON_step (1, 0) FAR  w(0) 47712. F 0.02
expand: top_step (2, 0) FAR  w(0) 30770.
	create_child: excludes12_fun (1, 5) FAR 46188 U 0.01
expand: excludes12_fun (1, 0) FAR  w(0) 46188.
	create_child: DRAGON_step (1, 5) FAR 49305 X 0.00
expand: DRAGON_step (1, 0) FAR  w(0) 49305. F 0.02
expand: top_step (2, 0) FAR  w(0) 30770.
	create_child: excludes12_fun (1, 5) FAR 50246 U 0.01
expand: excludes12_fun (1, 0) FAR  w(0) 50246.
	create_child: DRAGON_step (1, 5) FAR 49107 X 0.00
expand: DRAGON_step (1, 0) FAR  w(0) 49107. F 0.01
expand: top_step (2, 0) FAR  w(0) 30770.
	create_child: excludes12_fun (1, 5) FAR 50539 U 0.01
expand: excludes12_fun (1, 0) FAR  w(0) 50539. F 0.00
expand: top_step (2, 0) FAR  w(0) 30770.
	create_child: excludes12_fun (1, 5) FAR 50688 U 0.01
expand: excludes12_fun (1, 0) FAR  w(0) 50688. F 0.00
expand: top_step (2, 0) FAR  w(0) 30770.
	create_child: excludes12_fun (1, 5) FAR 50529 U 0.01
expand: excludes12_fun (1, 0) FAR  w(0) 50529.
	create_child: DRAGON_step (1, 5) FAR 50673 X 0.00
expand: DRAGON_step (1, 0) FAR  w(0) 50673. F 0.00
expand: top_step (2, 0) FAR  w(0) 30770.
	create_child: excludes12_fun (1, 5) FAR 50771 U 0.01
expand: excludes12_fun (1, 0) FAR  w(0) 50771. F 0.00
expand: top_step (2, 0) FAR  w(0) 30770.
	create_child: excludes12_fun (1, 5) FAR 51127 U 0.01
expand: excludes12_fun (1, 0) FAR  w(0) 51127.
	create_child: DRAGON_step (1, 5) FAR 51323 X 0.00
expand: DRAGON_step (1, 0) FAR  w(0) 51323. F 0.01
expand: top_step (2, 0) FAR  w(0) 30770.
	create_child: excludes12_fun (1, 5) FAR 51428 U 0.01
expand: excludes12_fun (1, 0) FAR  w(0) 51428.
	create_child: DRAGON_step (1, 5) FAR 51434 X 0.00
expand: DRAGON_step (1, 0) FAR  w(0) 51434. F 0.00
expand: top_step (2, 0) FAR  w(0) 30770.
	create_child: excludes12_fun (1, 5) FAR 50965 U 0.01
expand: excludes12_fun (1, 0) FAR  w(0) 50965.
	create_child: DRAGON_step (1, 5) FAR 51596 X 0.00
expand: DRAGON_step (1, 0) FAR  w(0) 51596. F 0.01
expand: top_step (2, 0) FAR  w(0) 30770.
	create_child: excludes12_fun (1, 5) FAR 50965 U 0.01
expand: excludes12_fun (1, 0) FAR  w(0) 50965.
	create_child: DRAGON_step (1, 5) FAR 52284 X 0.00
expand: DRAGON_step (1, 0) FAR  w(0) 52284. F 0.01
expand: top_step (2, 0) FAR  w(0) 30770.
	create_child: excludes12_fun (1, 5) FAR 52637 U 0.01
expand: excludes12_fun (1, 0) FAR  w(0) 52637.
	create_child: DRAGON_step (1, 5) FAR 52962 X 0.00
expand: DRAGON_step (1, 0) FAR  w(0) 52962. F 0.01
expand: top_step (2, 0) FAR  w(0) 30770.
	create_child: excludes12_fun (1, 5) FAR 52781 U 0.01
expand: excludes12_fun (1, 0) FAR  w(0) 52781. F 0.00
expand: top_step (2, 0) FAR  w(0) 30770.
	create_child: excludes12_fun (1, 5) FAR 53188 U 0.01
expand: excludes12_fun (1, 0) FAR  w(0) 53188. F 0.00
expand: top_step (2, 0) FAR  w(0) 30770.
	create_child: excludes12_fun (1, 5) FAR 53479 U 0.01
expand: excludes12_fun (1, 0) FAR  w(0) 53479. F 0.00
expand: top_step (2, 0) FAR  w(0) 30770.
	create_child: excludes12_fun (1, 5) FAR 53593 U 0.01
expand: excludes12_fun (1, 0) FAR  w(0) 53593. F 0.00
expand: top_step (2, 0) FAR  w(0) 30770.
	create_child: excludes12_fun (1, 5) FAR 53130 U 0.01
expand: excludes12_fun (1, 0) FAR  w(0) 53130. F 0.00
expand: top_step (2, 0) FAR  w(0) 30770.
	create_child: excludes12_fun (1, 5) FAR 44191 U 0.01
expand: excludes12_fun (1, 0) FAR  w(0) 44191.
	create_child: DRAGON_step (1, 5) FAR 53354 X 0.00
expand: DRAGON_step (1, 0) FAR  w(0) 53354. F 0.01
expand: top_step (2, 0) FAR  w(0) 30770.
	create_child: excludes12_fun (1, 5) FAR 44191 U 0.01
expand: excludes12_fun (1, 0) FAR  w(0) 44191.
	create_child: DRAGON_step (1, 5) FAR 54444 X 0.00
expand: DRAGON_step (1, 0) FAR  w(0) 54444. F 0.01
expand: top_step (2, 0) FAR  w(0) 30770.
	create_child: excludes12_fun (1, 5) FAR 54546 U 0.01
expand: excludes12_fun (1, 0) FAR  w(0) 54546. F 0.00
expand: top_step (2, 0) FAR  w(0) 30770.
	create_child: excludes12_fun (1, 5) FAR 54676 U 0.01
expand: excludes12_fun (1, 0) FAR  w(0) 54676. F 0.00
expand: top_step (2, 0) FAR  w(0) 30770.
	create_child: excludes12_fun (1, 5) FAR 54725 U 0.01
expand: excludes12_fun (1, 0) FAR  w(0) 54725. F 0.00
expand: top_step (2, 0) FAR  w(0) 30770.
	create_child: excludes12_fun (1, 5) FAR 54056 U 0.01
expand: excludes12_fun (1, 0) FAR  w(0) 54056. F 0.00
expand: top_step (2, 0) FAR  w(0) 30770.
	create_child: excludes12_fun (1, 5) FAR 55062 U 0.01
expand: excludes12_fun (1, 0) FAR  w(0) 55062. F 0.00
expand: top_step (2, 0) FAR  w(0) 30770.
	create_child: excludes12_fun (1, 5) FAR 54642 U 0.01
expand: excludes12_fun (1, 0) FAR  w(0) 54642. F 0.00
expand: top_step (2, 0) FAR  w(0) 30770.
	create_child: excludes12_fun (1, 5) FAR 54981 U 0.01
expand: excludes12_fun (1, 0) FAR  w(0) 54981.
	create_child: DRAGON_step (1, 5) FAR 54589 X 0.00
expand: DRAGON_step (1, 0) FAR  w(0) 54589. F 0.01
expand: top_step (2, 0) FAR  w(0) 30770.
	create_child: excludes12_fun (1, 5) FAR 55458 U 0.01
expand: excludes12_fun (1, 0) FAR  w(0) 55458. F 0.00
expand: top_step (2, 0) FAR  w(0) 30770.
	create_child: excludes12_fun (1, 5) FAR 55454 U 0.01
expand: excludes12_fun (1, 0) FAR  w(0) 55454. F 0.00
expand: top_step (2, 0) FAR  w(0) 30770.
	create_child: excludes12_fun (1, 5) FAR 55513 U 0.01
expand: excludes12_fun (1, 0) FAR  w(0) 55513. F 0.00
expand: top_step (2, 0) FAR  w(0) 30770.
	create_child: excludes12_fun (1, 5) FAR 55299 U 0.01
expand: excludes12_fun (1, 0) FAR  w(0) 55299.
	create_child: Sofar_step (1, 5) FAR 55124 X 0.00
expand: Sofar_step (1, 0) FAR  w(0) 55124. F 0.00
expand: top_step (2, 0) FAR  w(0) 30770. F 0.03
expand: MAIN (3, 0) FAR  w(0) 3128. F 0.00
expand: ERR (4, 0) FAR  w(0) 1. F 0.00
expand: query!0 (5, 0) FAR  w(0) 1. F 0.00
(spacer::context::check_reachability :time 0.92 :before-memory 24.83 :after-memory 36.89)
Propagating: 0 1 2 3 4 5  ! 6 
(spacer::context::propagate :time 0.01 :before-memory 36.89 :after-memory 36.89)
Entering level 6
BRUNCH_STAT max_query_lvl 5
BRUNCH_STAT num_queries 130
BRUNCH_STAT num_reach_queries 1
BRUNCH_STAT num_reach_reuse 180
BRUNCH_STAT inductive_lvl 0
BRUNCH_STAT max_depth 6
BRUNCH_STAT cex_depth 0
expand: query!0 (6, 0) FAR  w(0) 1.
	create_child: ERR (5, 6) FAR 1 U 0.00
expand: ERR (5, 0) FAR  w(0) 1.
	create_child: MAIN (4, 6) FAR 3128 U 0.00
expand: MAIN (4, 0) FAR  w(0) 3128.
	create_child: MAIN (3, 6) FAR 57281 U 0.00
expand: MAIN (3, 0) FAR  w(0) 57281.
	create_child: top_step (2, 6) FAR 57174 U 0.00
expand: top_step (2, 0) FAR  w(0) 57174.
	create_child: DRAGON_step (1, 6) FAR 57412 U 0.00
expand: DRAGON_step (1, 0) FAR  w(0) 57412. F 0.00
expand: top_step (2, 0) FAR  w(0) 57174. F 0.01
expand: MAIN (3, 0) FAR  w(0) 57281. F 0.00
expand: MAIN (4, 0) FAR  w(0) 3128.
	create_child: MAIN (3, 6) FAR 57283 U 0.00
expand: MAIN (3, 0) FAR  w(0) 57283.
	create_child: top_step (2, 6) FAR 54972 U 0.00
expand: top_step (2, 0) FAR  w(0) 54972. F 0.00
expand: MAIN (3, 0) FAR  w(0) 57283. F 0.00
expand: MAIN (4, 0) FAR  w(0) 3128.
	create_child: MAIN (3, 6) FAR 57535 U 0.00
expand: MAIN (3, 0) FAR  w(0) 57535.
	create_child: top_step (2, 6) FAR 57490 U 0.00
expand: top_step (2, 0) FAR  w(0) 57490.
	create_child: Sofar_step (1, 6) FAR 57795 U 0.01
expand: Sofar_step (1, 0) FAR  w(0) 57795.
	create_child: First_step (1, 6) FAR 57452 X 0.00
expand: First_step (1, 0) FAR  w(0) 57452. F 0.00
expand: top_step (2, 0) FAR  w(0) 57490. F 0.04
expand: MAIN (3, 0) FAR  w(0) 57535. F 0.00
expand: MAIN (4, 0) FAR  w(0) 3128.
	create_child: MAIN (3, 6) FAR 62622 U 0.00
expand: MAIN (3, 0) FAR  w(0) 62622.
	create_child: top_step (2, 6) FAR 62516 U 0.00
expand: top_step (2, 0) FAR  w(0) 62516. F 0.00
expand: MAIN (3, 0) FAR  w(0) 62622. F 0.00
expand: MAIN (4, 0) FAR  w(0) 3128.
	create_child: MAIN (3, 6) FAR 27146 U 0.01
expand: MAIN (3, 0) FAR  w(0) 27146.
	create_child: top_step (2, 6) FAR 64127 U 0.00
expand: top_step (2, 0) FAR  w(0) 64127. F 0.04
expand: MAIN (3, 0) FAR  w(0) 27146. F 0.00
expand: MAIN (4, 0) FAR  w(0) 3128.
	create_child: top_step (3, 6) FAR 68962 U 0.01
expand: top_step (3, 0) FAR  w(0) 68962.
	create_child: Sofar_step (2, 6) FAR 69651 U 0.01
expand: Sofar_step (2, 0) FAR  w(0) 69651. F 0.00
expand: top_step (3, 0) FAR  w(0) 68962. F 0.00
expand: MAIN (4, 0) FAR  w(0) 3128.
	create_child: top_step (3, 6) FAR 69512 U 0.00
expand: top_step (3, 0) FAR  w(0) 69512.
	create_child: excludes12_fun (2, 6) FAR 75031 U 0.03
expand: excludes12_fun (2, 0) FAR  w(0) 75031. F 0.00
expand: top_step (3, 0) FAR  w(0) 69512.
	create_child: excludes12_fun (2, 6) FAR 74941 U 0.01
expand: excludes12_fun (2, 0) FAR  w(0) 74941. F 0.00
expand: top_step (3, 0) FAR  w(0) 69512.
	create_child: excludes12_fun (2, 6) FAR 75483 U 0.01
expand: excludes12_fun (2, 0) FAR  w(0) 75483. F 0.00
expand: top_step (3, 0) FAR  w(0) 69512.
	create_child: excludes12_fun (2, 6) FAR 76172 U 0.01
expand: excludes12_fun (2, 0) FAR  w(0) 76172. F 0.00
expand: top_step (3, 0) FAR  w(0) 69512.
	create_child: excludes12_fun (2, 6) FAR 76088 U 0.01
expand: excludes12_fun (2, 0) FAR  w(0) 76088. F 0.00
expand: top_step (3, 0) FAR  w(0) 69512.
	create_child: excludes12_fun (2, 6) FAR 76144 U 0.01
expand: excludes12_fun (2, 0) FAR  w(0) 76144. F 0.00
expand: top_step (3, 0) FAR  w(0) 69512.
	create_child: excludes12_fun (2, 6) FAR 76191 U 0.01
expand: excludes12_fun (2, 0) FAR  w(0) 76191. F 0.00
expand: top_step (3, 0) FAR  w(0) 69512.
	create_child: excludes12_fun (2, 6) FAR 76419 U 0.01
expand: excludes12_fun (2, 0) FAR  w(0) 76419. F 0.00
expand: top_step (3, 0) FAR  w(0) 69512.
	create_child: excludes12_fun (2, 6) FAR 51127 U 0.01
expand: excludes12_fun (2, 0) FAR  w(0) 51127.
	create_child: DRAGON_step (2, 6) FAR 77272 X 0.00
expand: DRAGON_step (2, 0) FAR  w(0) 77272. F 0.01
expand: top_step (3, 0) FAR  w(0) 69512.
	create_child: excludes12_fun (2, 6) FAR 77710 U 0.01
expand: excludes12_fun (2, 0) FAR  w(0) 77710.
	create_child: DRAGON_step (2, 6) FAR 77916 X 0.00
expand: DRAGON_step (2, 0) FAR  w(0) 77916. F 0.01
expand: top_step (3, 0) FAR  w(0) 69512.
	create_child: excludes12_fun (2, 6) FAR 78016 U 0.01
expand: excludes12_fun (2, 0) FAR  w(0) 78016.
	create_child: DRAGON_step (2, 6) FAR 77635 X 0.00
expand: DRAGON_step (2, 0) FAR  w(0) 77635. F 0.01
expand: top_step (3, 0) FAR  w(0) 69512.
	create_child: excludes12_fun (2, 6) FAR 78290 U 0.01
expand: excludes12_fun (2, 0) FAR  w(0) 78290.
	create_child: DRAGON_step (2, 6) FAR 78404 X 0.00
expand: DRAGON_step (2, 0) FAR  w(0) 78404. F 0.01
expand: top_step (3, 0) FAR  w(0) 69512.
	create_child: excludes12_fun (2, 6) FAR 46188 U 0.01
expand: excludes12_fun (2, 0) FAR  w(0) 46188.
	create_child: DRAGON_step (2, 6) FAR 78605 X 0.00
expand: DRAGON_step (2, 0) FAR  w(0) 78605. F 0.01
expand: top_step (3, 0) FAR  w(0) 69512.
	create_child: excludes12_fun (2, 6) FAR 79077 U 0.01
expand: excludes12_fun (2, 0) FAR  w(0) 79077.
	create_child: DRAGON_step (2, 6) FAR 79130 X 0.00
expand: DRAGON_step (2, 0) FAR  w(0) 79130. F 0.01
expand: top_step (3, 0) FAR  w(0) 69512.
	create_child: excludes12_fun (2, 6) FAR 79077 U 0.01
expand: excludes12_fun (2, 0) FAR  w(0) 79077.
	create_child: DRAGON_step (2, 6) FAR 79550 X 0.00
expand: DRAGON_step (2, 0) FAR  w(0) 79550. F 0.01
expand: top_step (3, 0) FAR  w(0) 69512.
	create_child: excludes12_fun (2, 6) FAR 50965 U 0.01
expand: excludes12_fun (2, 0) FAR  w(0) 50965.
	create_child: DRAGON_step (2, 6) FAR 80206 X 0.00
expand: DRAGON_step (2, 0) FAR  w(0) 80206. F 0.01
expand: top_step (3, 0) FAR  w(0) 69512.
	create_child: excludes12_fun (2, 6) FAR 44191 U 0.01
expand: excludes12_fun (2, 0) FAR  w(0) 44191.
	create_child: DRAGON_step (2, 6) FAR 80459 X 0.00
expand: DRAGON_step (2, 0) FAR  w(0) 80459. F 0.01
expand: top_step (3, 0) FAR  w(0) 69512.
	create_child: excludes12_fun (2, 6) FAR 44191 U 0.01
expand: excludes12_fun (2, 0) FAR  w(0) 44191.
	create_child: DRAGON_step (2, 6) FAR 81105 X 0.00
expand: DRAGON_step (2, 0) FAR  w(0) 81105. F 0.01
expand: top_step (3, 0) FAR  w(0) 69512.
	create_child: excludes12_fun (2, 6) FAR 80998 U 0.01
expand: excludes12_fun (2, 0) FAR  w(0) 80998.
	create_child: DRAGON_step (2, 6) FAR 81498 X 0.00
expand: DRAGON_step (2, 0) FAR  w(0) 81498. F 0.01
expand: top_step (3, 0) FAR  w(0) 69512.
	create_child: excludes12_fun (2, 6) FAR 80932 U 0.01
expand: excludes12_fun (2, 0) FAR  w(0) 80932. F 0.00
expand: top_step (3, 0) FAR  w(0) 69512. F 0.03
expand: MAIN (4, 0) FAR  w(0) 3128. F 0.00
expand: ERR (5, 0) FAR  w(0) 1. F 0.00
expand: query!0 (6, 0) FAR  w(0) 1. F 0.00
(spacer::context::check_reachability :time 0.52 :before-memory 36.89 :after-memory 41.42)
Propagating: 1 2 3 4 5 6  ! 7 
(spacer::context::propagate :time 0.01 :before-memory 41.42 :after-memory 41.42)
Entering level 7
BRUNCH_STAT max_query_lvl 6
BRUNCH_STAT num_queries 167
BRUNCH_STAT num_reach_queries 1
BRUNCH_STAT num_reach_reuse 229
BRUNCH_STAT inductive_lvl 0
BRUNCH_STAT max_depth 7
BRUNCH_STAT cex_depth 0
expand: query!0 (7, 0) FAR  w(0) 1.
	create_child: ERR (6, 7) FAR 1 U 0.00
expand: ERR (6, 0) FAR  w(0) 1.
	create_child: MAIN (5, 7) FAR 3128 U 0.00
expand: MAIN (5, 0) FAR  w(0) 3128.
	create_child: MAIN (4, 7) FAR 27146 U 0.00
expand: MAIN (4, 0) FAR  w(0) 27146.
	create_child: top_step (3, 7) FAR 84231 U 0.00
expand: top_step (3, 0) FAR  w(0) 84231.
	create_child: Sofar_step (2, 7) FAR 84503 U 0.01
expand: Sofar_step (2, 0) FAR  w(0) 84503. F 0.00
expand: top_step (3, 0) FAR  w(0) 84231. F 0.00
expand: MAIN (4, 0) FAR  w(0) 27146.
	create_child: top_step (3, 7) FAR 84426 U 0.00
expand: top_step (3, 0) FAR  w(0) 84426. F 0.02
expand: MAIN (4, 0) FAR  w(0) 27146. F 0.00
expand: MAIN (5, 0) FAR  w(0) 3128.
	create_child: MAIN (4, 7) FAR 87667 U 0.00
expand: MAIN (4, 0) FAR  w(0) 87667.
	create_child: top_step (3, 7) FAR 87598 U 0.00
expand: top_step (3, 0) FAR  w(0) 87598. F 0.03
expand: MAIN (4, 0) FAR  w(0) 87667. F 0.00
expand: MAIN (5, 0) FAR  w(0) 3128. F 0.00
expand: ERR (6, 0) FAR  w(0) 1. F 0.00
expand: query!0 (7, 0) FAR  w(0) 1. F 0.00
(spacer::context::check_reachability :time 0.08 :before-memory 41.42 :after-memory 42.58)
Propagating: 2 3 
(spacer::context::propagate :time 0.01 :before-memory 42.58 :after-memory 42.58)
(define-fun ERR () Bool
  false)
(define-fun First_reset ((x!0 Int) (x!1 Bool) (x!2 Int) (x!3 Bool)) Bool
  x!3)
(define-fun First_step ((x!0 Int)
 (x!1 Int)
 (x!2 Int)
 (x!3 Bool)
 (x!4 Int)
 (x!5 Bool)) Bool
  (let ((a!1 (or (>= (+ x!1 (* (- 1) x!2)) 0) x!3))
        (a!2 (or (not x!3) (= (+ x!1 (* (- 1) x!0)) 0)))
        (a!3 (or (<= (+ x!1 (* (- 1) x!2)) 0) x!3)))
    (and a!1
         (not x!5)
         a!2
         (>= (+ x!4 (* (- 1) x!1)) 0)
         (>= (+ x!1 (* (- 1) x!4)) 0)
         a!3)))
(define-fun top_step ((x!0 Bool)
 (x!1 Bool)
 (x!2 Bool)
 (x!3 Bool)
 (x!4 Bool)
 (x!5 Bool)
 (x!6 Bool)
 (x!7 Bool)
 (x!8 Bool)
 (x!9 Bool)
 (x!10 Bool)
 (x!11 Bool)
 (x!12 Int)
 (x!13 Bool)
 (x!14 Int)
 (x!15 Int)
 (x!16 Bool)
 (x!17 Bool)
 (x!18 Int)
 (x!19 Int)
 (x!20 Int)
 (x!21 Int)
 (x!22 Int)
 (x!23 Int)
 (x!24 Bool)
 (x!25 Bool)
 (x!26 Bool)
 (x!27 Int)
 (x!28 Int)
 (x!29 Bool)
 (x!30 Bool)
 (x!31 Int)
 (x!32 Int)
 (x!33 Int)
 (x!34 Int)
 (x!35 Int)
 (x!36 Int)
 (x!37 Bool)
 (x!38 Bool)
 (x!39 Bool)) Bool
  (let ((a!1 (not (>= (+ x!14 (* (- 1) x!15)) 0)))
        (a!2 (+ x!14
                (* (- 1) x!18)
                (* (- 1) x!19)
                (* (- 1) x!20)
                (* (- 1) x!21)
                (* (- 1) x!22)))
        (a!4 (not (<= (+ x!35 (* (- 1) x!32) (* (- 1) x!33) (* (- 1) x!34))
                      (- 2))))
        (a!5 (or (>= (+ (* (- 1) x!32)
                        (* (- 1) x!33)
                        (* (- 1) x!34)
                        (* (- 1) x!35))
                     0)
                 (not x!24)))
        (a!6 (or (not (>= (+ x!33 x!35) 2)) (not x!24)))
        (a!7 (or (<= (+ x!27 (* (- 1) x!28)) 0) (not x!16) (not x!24)))
        (a!8 (or (>= (+ x!27 (* (- 1) x!28)) 0) (not x!16) (not x!24)))
        (a!9 (not (= (+ x!14 (* (- 1) x!15)) 0)))
        (a!10 (not (<= (+ x!14 (* (- 1) x!15)) 0))))
  (let ((a!3 (or a!1
                 (not x!38)
                 x!24
                 x!16
                 (>= (+ x!27 (* (- 1) x!28)) 0)
                 (not (<= a!2 0))))
        (a!11 (or a!10
                  (not x!38)
                  x!24
                  x!16
                  (<= (+ x!27 (* (- 1) x!28)) 0)
                  (not (>= a!2 0)))))
    (and a!3
         (not x!30)
         (not x!39)
         (not x!37)
         (not x!29)
         (or (not x!24) (not x!16) (not x!17) x!13)
         (>= (+ x!27
                (* (- 1) x!31)
                (* (- 1) x!32)
                (* (- 1) x!33)
                (* (- 1) x!34)
                (* (- 1) x!35))
             0)
         (or a!4 (not x!24))
         a!5
         (or (>= x!34 0) (not x!24))
         (>= (+ x!31 x!32 x!33 x!34 x!35 (* (- 1) x!27)) 0)
         a!6
         (or (<= x!33 0) (not x!24))
         a!7
         (or (not (>= x!34 2)) (not x!24))
         a!8
         (or (not (>= x!21 0)) (>= x!34 0))
         (or (not (<= x!21 1)) (not (>= x!34 2)))
         (or x!26 x!25 x!13)
         (or (not (<= x!21 1))
             x!13
             x!24
             x!16
             (not (>= x!21 0))
             a!9
             (not (= a!2 0)))
         a!11
         (or (not x!38) x!25 x!26)))))
(define-fun DRAGON_step ((x!0 Bool)
 (x!1 Bool)
 (x!2 Bool)
 (x!3 Bool)
 (x!4 Bool)
 (x!5 Bool)
 (x!6 Bool)
 (x!7 Bool)
 (x!8 Bool)
 (x!9 Bool)
 (x!10 Bool)
 (x!11 Bool)
 (x!12 Int)
 (x!13 Int)
 (x!14 Int)
 (x!15 Int)
 (x!16 Int)
 (x!17 Int)
 (x!18 Bool)
 (x!19 Int)
 (x!20 Int)
 (x!21 Int)
 (x!22 Int)
 (x!23 Int)
 (x!24 Int)
 (x!25 Bool)
 (x!26 Int)
 (x!27 Int)
 (x!28 Int)
 (x!29 Int)
 (x!30 Int)
 (x!31 Int)
 (x!32 Bool)) Bool
  (let ((a!1 (+ x!13
                x!14
                x!15
                x!16
                x!17
                (* (- 1) x!19)
                (* (- 1) x!20)
                (* (- 1) x!21)
                (* (- 1) x!22)
                (* (- 1) x!23)))
        (a!2 (or (>= (+ x!12
                        (* (- 1) x!13)
                        (* (- 1) x!14)
                        (* (- 1) x!15)
                        (* (- 1) x!16)
                        (* (- 1) x!17))
                     0)
                 (not x!25)))
        (a!3 (or (>= (+ x!13 x!14 x!15 x!16 x!17 (* (- 1) x!12)) 0) (not x!25)))
        (a!4 (+ x!13
                x!14
                x!15
                x!16
                x!17
                (* (- 1) x!26)
                (* (- 1) x!27)
                (* (- 1) x!28)
                (* (- 1) x!29)
                (* (- 1) x!30)))
        (a!5 (not (<= (+ x!30 (* (- 1) x!27) (* (- 1) x!28) (* (- 1) x!29))
                      (- 2))))
        (a!6 (or (>= (+ (* (- 1) x!27)
                        (* (- 1) x!28)
                        (* (- 1) x!29)
                        (* (- 1) x!30))
                     0)
                 (not x!25)))
        (a!7 (not (<= (+ (* (- 1) x!28) (* (- 1) x!30)) (- 2))))
        (a!8 (or (>= (+ (* (- 1) x!13) (* (- 1) x!28)) 0) (not x!25)))
        (a!9 (or (>= (+ x!19
                        x!20
                        x!21
                        x!22
                        x!23
                        (* (- 1) x!13)
                        (* (- 1) x!14)
                        (* (- 1) x!15)
                        (* (- 1) x!16)
                        (* (- 1) x!17))
                     0)
                 x!7
                 x!5
                 x!4
                 x!1
                 x!6
                 x!2
                 x!3
                 x!25))
        (a!11 (not (<= (+ x!20 x!21 x!22 (* (- 1) x!23)) 1)))
        (a!13 (or (>= x!13 0) (= (+ x!13 (* (- 1) x!22)) 0)))
        (a!14 (or (= (+ x!13 (* (- 1) x!22)) 0)
                  x!11
                  x!2
                  (= x!13 0)
                  (= (+ x!13 (* (- 1) x!22)) 1))))
  (let ((a!10 (or (>= a!1 0)
                  x!11
                  x!10
                  x!8
                  x!6
                  x!0
                  x!2
                  x!3
                  x!25
                  (not (<= (+ x!20 x!21 x!22 x!23) 0))
                  (not (<= (+ x!21 x!23) 1))))
        (a!12 (or a!11
                  x!9
                  x!10
                  x!8
                  x!6
                  x!2
                  x!3
                  x!25
                  (not (<= (+ x!20 x!21 x!22 x!23) 0))
                  (not (<= (+ x!21 x!23) 1))
                  (>= a!1 0)))
        (a!15 (or (>= a!1 0)
                  x!11
                  x!8
                  x!6
                  x!0
                  x!2
                  x!3
                  x!25
                  (not (<= x!21 0))
                  (not (<= (+ x!20 x!21 x!22 x!23) 0))))
        (a!16 (or (<= a!1 0)
                  x!9
                  x!8
                  x!0
                  x!2
                  x!25
                  (not (<= x!21 0))
                  (not (<= (+ x!20 x!21 x!22 x!23) 0))
                  (not (<= (+ x!21 x!23) 1))))
        (a!17 (or (>= a!1 0)
                  x!7
                  x!4
                  x!11
                  x!8
                  x!6
                  x!0
                  x!25
                  (not (<= x!21 0))
                  (not (<= (+ x!21 x!23) 1))))
        (a!18 (or (>= a!1 0)
                  x!9
                  x!11
                  x!10
                  x!6
                  x!0
                  x!2
                  x!3
                  x!25
                  (not (<= (+ x!20 x!21 x!22 x!23) 0))
                  (not (<= (+ x!21 x!23) 1))))
        (a!19 (or (<= a!1 0)
                  x!9
                  x!11
                  x!10
                  x!8
                  x!0
                  x!25
                  (not (<= (+ x!20 x!21 x!22 x!23) 0))
                  (not (<= (+ x!21 x!23) 1)))))
    (and (or (<= a!1 0) x!5 x!4 x!6 x!0 x!2 x!3 x!25)
         (not x!32)
         (or (= x!13 0) (not x!25))
         a!2
         a!3
         (or (not x!25) (not x!18))
         (<= a!4 0)
         (or a!5 (not x!25))
         a!6
         (>= a!4 0)
         (>= (+ x!29 (* (- 1) x!13)) 0)
         (or a!7 (not x!25))
         a!8
         a!9
         a!10
         a!12
         a!13
         a!14
         a!15
         (or (not (<= x!22 1)) (not x!18))
         a!16
         a!17
         a!18
         a!19
         (or (>= a!1 0) x!9 x!7 x!4 x!11 x!10 x!0 x!2 x!3 x!25)
         (or (not (>= x!29 2)) x!18)
         (or (>= a!1 0) x!9 x!5 x!4 x!11 x!8 x!6 x!0 x!2 x!3 x!25)
         (or (>= a!1 0) x!5 x!4 x!11 x!10 x!8 x!6 x!0 x!2 x!3 x!25)
         (or (>= a!1 0) x!9 x!5 x!4 x!10 x!8 x!6 x!0 x!2 x!3 x!25)
         (or (<= a!1 0) x!9 x!7 x!4 x!10 x!0 x!2 x!3 x!25)
         (or (>= a!1 0) x!9 x!7 x!5 x!4 x!1 x!10 x!8 x!6 x!2 x!25)
         (or (<= a!1 0) x!9 x!7 x!5 x!8 x!0 x!2 x!3 x!25)
         (or (>= a!1 0) x!9 x!7 x!5 x!10 x!8 x!6 x!0 x!2 x!3 x!25)
         (or (<= a!1 0) x!7 x!5 x!4 x!10 x!8 x!0 x!2 x!25)
         (or (>= a!1 0) x!7 x!4 x!11 x!10 x!8 x!6 x!0 x!3 x!25)
         (or (<= a!1 0) x!9 x!7 x!5 x!11 x!10 x!8 x!0 x!25)))))
(define-fun Sofar_reset ((x!0 Bool) (x!1 Bool) (x!2 Bool) (x!3 Bool)) Bool
  x!3)
(define-fun excludes12_fun ((x!0 Bool)
 (x!1 Bool)
 (x!2 Bool)
 (x!3 Bool)
 (x!4 Bool)
 (x!5 Bool)
 (x!6 Bool)
 (x!7 Bool)
 (x!8 Bool)
 (x!9 Bool)
 (x!10 Bool)
 (x!11 Bool)
 (x!12 Bool)) Bool
  (and (or (not x!12) (not x!1) (not x!3))
       (or (not x!12) (not x!4) (not x!9))
       (or (not x!12) (not x!4) (not x!10))
       (or (not x!12) (not x!4) (not x!8))
       (or (not x!12) (not x!0) (not x!6))
       (or (not x!12) (not x!2) (not x!8))
       (or (not x!12) (not x!8) (not x!11))
       (or (not x!12) (not x!4) (not x!6))
       (or (not x!12) (not x!9) (not x!11))
       (or (not x!12) (not x!0) (not x!2))
       (or (not x!12) (not x!2) (not x!4))
       (or (not x!12) (not x!2) (not x!11))
       (or (not x!12) (not x!2) (not x!6))
       (or (not x!12) (not x!2) (not x!5))
       (or (not x!12) (not x!10) (not x!11))
       (or (not x!12) (not x!3) (not x!4))
       (or (not x!12) (not x!0) (not x!8))
       (or (not x!12) (not x!3) (not x!8))
       (or (not x!12) (not x!0) (not x!9))
       (or (not x!12) (not x!8) (not x!9))
       (or (not x!12) (not x!5) (not x!9))
       (or (not x!12) (not x!3) (not x!6))
       (or (not x!12) (not x!6) (not x!9))
       (or (not x!12) (not x!6) (not x!11))
       (or (not x!12) (not x!4) (not x!11))
       (or (not x!12) (not x!2) (not x!9))
       (or (not x!12) (not x!0) (not x!11))
       (or (not x!12) (not x!0) (not x!10))
       (or (not x!12) (not x!0) (not x!5))
       (or (not x!12) (not x!0) (not x!3))
       (or (not x!12) (not x!0) (not x!4))
       (or (not x!12) (not x!5) (not x!11))
       (or (not x!12) (not x!3) (not x!11))
       (or (not x!12) (not x!5) (not x!8))
       (or (not x!12) (not x!3) (not x!9))
       (or (not x!12) (not x!1) (not x!8))
       (or (not x!12) (not x!1) (not x!9))
       (or (not x!12) (not x!2) (not x!10))
       (or (not x!12) (not x!8) (not x!10))
       (or (not x!12) (not x!0) (not x!1))
       (or (not x!12) (not x!7) (not x!8))
       (or (not x!12) (not x!3) (not x!7))
       (or (not x!12) (not x!7) (not x!9))
       (or (not x!12) (not x!2) (not x!7))
       (or (not x!12) (not x!0) (not x!7))
       (or (not x!12) (not x!6) (not x!10))
       (or (not x!12) (not x!6) (not x!8))
       (or (not x!12) (not x!6) (not x!7))
       (or (not x!12) (not x!4) (not x!5))
       (or (not x!12) (not x!9) (not x!10))
       (or (not x!12) (not x!5) (not x!10))
       (or (not x!12) (not x!3) (not x!10))
       (or (not x!12) (not x!5) (not x!7))
       (or (not x!12) (not x!4) (not x!7))
       (or (not x!12) (not x!3) (not x!5))
       (or (not x!12) (not x!2) (not x!3))))
(define-fun MAIN ((x!0 Int)
 (x!1 Int)
 (x!2 Bool)
 (x!3 Bool)
 (x!4 Int)
 (x!5 Int)
 (x!6 Int)
 (x!7 Int)
 (x!8 Int)
 (x!9 Int)
 (x!10 Bool)
 (x!11 Bool)
 (x!12 Bool)
 (x!13 Bool)) Bool
  (let ((a!1 (or (<= (+ x!0 (* (- 1) x!1)) 0) (not x!11)))
        (a!2 (+ x!0
                (* (- 1) x!4)
                (* (- 1) x!5)
                (* (- 1) x!6)
                (* (- 1) x!7)
                (* (- 1) x!8)))
        (a!3 (or (>= (+ x!0 (* (- 1) x!1)) 0) (not x!11))))
    (and a!1
         x!13
         (not x!2)
         (not x!3)
         (not x!10)
         (not x!12)
         (<= a!2 0)
         (>= a!2 0)
         (>= x!7 0)
         (not (>= x!7 2))
         a!3)))
(define-fun Sofar_step ((x!0 Bool)
 (x!1 Bool)
 (x!2 Bool)
 (x!3 Bool)
 (x!4 Bool)
 (x!5 Bool)) Bool
  (and (or x!1 (not x!4)) (not x!5) (or x!2 x!3 (not x!1)) (or x!0 (not x!1))))
(define-fun DRAGON_reset ((x!0 Int)
 (x!1 Int)
 (x!2 Int)
 (x!3 Int)
 (x!4 Int)
 (x!5 Int)
 (x!6 Bool)
 (x!7 Int)
 (x!8 Int)
 (x!9 Int)
 (x!10 Int)
 (x!11 Int)
 (x!12 Int)
 (x!13 Bool)) Bool
  x!13)
(define-fun top_reset ((x!0 Int)
 (x!1 Int)
 (x!2 Bool)
 (x!3 Bool)
 (x!4 Int)
 (x!5 Int)
 (x!6 Int)
 (x!7 Int)
 (x!8 Int)
 (x!9 Int)
 (x!10 Bool)
 (x!11 Bool)
 (x!12 Bool)
 (x!13 Int)
 (x!14 Int)
 (x!15 Bool)
 (x!16 Bool)
 (x!17 Int)
 (x!18 Int)
 (x!19 Int)
 (x!20 Int)
 (x!21 Int)
 (x!22 Int)
 (x!23 Bool)
 (x!24 Bool)
 (x!25 Bool)) Bool
  (and x!25 x!15 x!16 x!23))
BRUNCH_STAT max_query_lvl 7
BRUNCH_STAT num_queries 175
BRUNCH_STAT num_reach_queries 1
BRUNCH_STAT num_reach_reuse 234
BRUNCH_STAT inductive_lvl 3
BRUNCH_STAT max_depth 7
BRUNCH_STAT cex_depth 0
(:SPACER-expand-node-undef             3
 :SPACER-inductive-level               3
 :SPACER-max-depth                     7
 :SPACER-max-query-lvl                 7
 :SPACER-num-invariants                152
 :SPACER-num-lemmas                    181
 :SPACER-num-properties                152
 :SPACER-num-queries                   175
 :SPACER-num-reach-queries             1
 :SPACER-num-reuse-reach-facts         234
 :added-eqs                            61854
 :arith-add-rows                       42139
 :arith-assert-diseq                   17020
 :arith-assert-lower                   38877
 :arith-assert-upper                   42421
 :arith-bound-prop                     1922
 :arith-conflicts                      238
 :arith-eq-adapter                     13125
 :arith-fixed-eqs                      11159
 :arith-gcd-tests                      18
 :arith-offset-eqs                     8546
 :arith-pivots                         4441
 :bool-inductive-gen                   163
 :bool-inductive-gen-failures          588
 :conflicts                            2990
 :decisions                            41143
 :del-clause                           3815
 :final-checks                         866
 :minimized-lits                       11000
 :mk-bool-var                          27707
 :mk-clause                            15447
 :num-checks                           1760
 :propagations                         680510
 :restarts                             2
 :time.itp_solver.itp_core             0.08
 :time.spacer.init_rules               0.01
 :time.spacer.init_rules.pt.init       0.00
 :time.spacer.solve                    1.65
 :time.spacer.solve.propagate          0.03
 :time.spacer.solve.pt.must_reachable  0.06
 :time.spacer.solve.reach              1.63
 :time.spacer.solve.reach.children     0.37
 :time.spacer.solve.reach.gen.bool_ind 0.44
 :time.spacer.solve.reach.is-reach     0.00
 :time.virtual_solver.proof            0.05
 :time.virtual_solver.smt.total        1.07
 :time.virtual_solver.smt.total.sat    0.61
 :time.virtual_solver.smt.total.undef  0.00
 :virtual_solver.checks                1760
 :virtual_solver.checks.sat            862
 :virtual_solver.checks.undef          4)
BRUNCH_STAT max_query_lvl 7
BRUNCH_STAT num_queries 175
BRUNCH_STAT num_reach_queries 1
BRUNCH_STAT num_reach_reuse 234
BRUNCH_STAT inductive_lvl 3
BRUNCH_STAT max_depth 7
BRUNCH_STAT cex_depth 0

real	0m1.846s
user	0m1.792s
sys	0m0.052s
