(transform N7datalog13mk_coi_filterE...no-op 0s)
(transform N7datalog25mk_interp_tail_simplifierE...12 rules 0s)
(transform N7datalog27mk_quantifier_instantiationE...no-op 0s)
(transform N7datalog8mk_scaleE...no-op 0s)
(transform N7datalog18mk_karr_invariantsE...no-op 0s)
(transform N7datalog14mk_array_blastE...no-op 0s)
(transform N7datalog22mk_subsumption_checkerE...11 rules 0s)
(transform N7datalog12mk_bit_blastE...no-op 0s)
(transform N7datalog15mk_rule_inlinerE...no-op 0s)
(transform N7datalog13mk_coi_filterE...no-op 0s)
(transform N7datalog25mk_interp_tail_simplifierE...11 rules 0s)
(transform N7datalog22mk_subsumption_checkerE...no-op 0s)
(transform N7datalog15mk_rule_inlinerE...no-op 0s)
(transform N7datalog13mk_coi_filterE...no-op 0s)
(transform N7datalog25mk_interp_tail_simplifierE...11 rules 0s)
(transform N7datalog22mk_subsumption_checkerE...no-op 0s)
(transform N7datalog15mk_rule_inlinerE...no-op 0s)
(transform N7datalog22mk_subsumption_checkerE...no-op 0s)
(transform N7datalog15mk_rule_inlinerE...no-op 0s)
(transform N7datalog22mk_subsumption_checkerE...no-op 0s)
(transform N7datalog15mk_rule_inlinerE...no-op 0s)
(transform N7datalog22mk_subsumption_checkerE...no-op 0s)
expand: query!0 (0, 0) FAR  w(0) 1. F 0.00
(spacer::context::check_reachability :time 0.00 :before-memory 11.61 :after-memory 12.06)
Entering level 1
BRUNCH_STAT max_query_lvl 0
BRUNCH_STAT num_queries 0
BRUNCH_STAT num_reach_queries 0
BRUNCH_STAT num_reach_reuse 0
BRUNCH_STAT inductive_lvl 0
BRUNCH_STAT max_depth 1
BRUNCH_STAT cex_depth 0
expand: query!0 (1, 0) FAR  w(0) 1.
	create_child: ERR (0, 1) FAR 1 U 0.00
expand: ERR (0, 0) FAR  w(0) 1. F 0.00
expand: query!0 (1, 0) FAR  w(0) 1. F 0.00
(spacer::context::check_reachability :time 0.00 :before-memory 12.06 :after-memory 12.51)
Propagating: 0 1  ! 2 
(spacer::context::propagate :time 0.00 :before-memory 12.51 :after-memory 12.51)
Entering level 2
BRUNCH_STAT max_query_lvl 1
BRUNCH_STAT num_queries 1
BRUNCH_STAT num_reach_queries 0
BRUNCH_STAT num_reach_reuse 0
BRUNCH_STAT inductive_lvl 0
BRUNCH_STAT max_depth 2
BRUNCH_STAT cex_depth 0
expand: query!0 (2, 0) FAR  w(0) 1.
	create_child: ERR (1, 2) FAR 1 U 0.00
expand: ERR (1, 0) FAR  w(0) 1.
	create_child: MAIN (0, 2) FAR 2884 U 0.00
expand: MAIN (0, 0) FAR  w(0) 2884. F 0.00
expand: ERR (1, 0) FAR  w(0) 1. F 0.00
expand: query!0 (2, 0) FAR  w(0) 1. F 0.00
(spacer::context::check_reachability :time 0.00 :before-memory 12.51 :after-memory 12.97)
Propagating: 0 1 2  ! 3 
(spacer::context::propagate :time 0.00 :before-memory 12.97 :after-memory 12.97)
Entering level 3
BRUNCH_STAT max_query_lvl 2
BRUNCH_STAT num_queries 3
BRUNCH_STAT num_reach_queries 0
BRUNCH_STAT num_reach_reuse 0
BRUNCH_STAT inductive_lvl 0
BRUNCH_STAT max_depth 3
BRUNCH_STAT cex_depth 0
expand: query!0 (3, 0) FAR  w(0) 1.
	create_child: ERR (2, 3) FAR 1 U 0.00
expand: ERR (2, 0) FAR  w(0) 1.
	create_child: MAIN (1, 3) FAR 2884 U 0.00
expand: MAIN (1, 0) FAR  w(0) 2884.
	create_child: top_step (0, 3) FAR 3799 U 0.00
expand: top_step (0, 0) FAR  w(0) 3799. F 0.00
expand: MAIN (1, 0) FAR  w(0) 2884. F 0.00
expand: ERR (2, 0) FAR  w(0) 1. F 0.00
expand: query!0 (3, 0) FAR  w(0) 1. F 0.00
(spacer::context::check_reachability :time 0.01 :before-memory 12.97 :after-memory 14.24)
Propagating: 0 1 2 3  ! 4 
(spacer::context::propagate :time 0.00 :before-memory 14.24 :after-memory 14.33)
Entering level 4
BRUNCH_STAT max_query_lvl 3
BRUNCH_STAT num_queries 6
BRUNCH_STAT num_reach_queries 0
BRUNCH_STAT num_reach_reuse 0
BRUNCH_STAT inductive_lvl 0
BRUNCH_STAT max_depth 4
BRUNCH_STAT cex_depth 0
expand: query!0 (4, 0) FAR  w(0) 1.
	create_child: ERR (3, 4) FAR 1 U 0.00
expand: ERR (3, 0) FAR  w(0) 1.
	create_child: MAIN (2, 4) FAR 2884 U 0.00
expand: MAIN (2, 0) FAR  w(0) 2884.
	create_child: top_step (1, 4) FAR 3799 U 0.00
expand: top_step (1, 0) FAR  w(0) 3799.
	create_child: top_reset (1, 4) FAR 11936 X 0.01
expand: top_reset (1, 0) FAR  w(0) 11936. F 0.00
expand: MAIN (2, 0) FAR  w(0) 2884.
	create_child: top_step (1, 4) FAR 16501 U 0.00
expand: top_step (1, 0) FAR  w(0) 16501. F 0.01
expand: MAIN (2, 0) FAR  w(0) 2884. F 0.00
expand: ERR (3, 0) FAR  w(0) 1. F 0.00
expand: query!0 (4, 0) FAR  w(0) 1. F 0.00
(spacer::context::check_reachability :time 0.02 :before-memory 14.33 :after-memory 17.54)
Propagating: 1 2 3 4  ! 5 
(spacer::context::propagate :time 0.00 :before-memory 17.54 :after-memory 17.54)
Entering level 5
BRUNCH_STAT max_query_lvl 4
BRUNCH_STAT num_queries 10
BRUNCH_STAT num_reach_queries 1
BRUNCH_STAT num_reach_reuse 3
BRUNCH_STAT inductive_lvl 0
BRUNCH_STAT max_depth 5
BRUNCH_STAT cex_depth 0
expand: query!0 (5, 0) FAR  w(0) 1.
	create_child: ERR (4, 5) FAR 1 U 0.00
expand: ERR (4, 0) FAR  w(0) 1.
	create_child: MAIN (3, 5) FAR 2884 U 0.00
expand: MAIN (3, 0) FAR  w(0) 2884.
	create_child: MAIN (2, 5) FAR 17076 U 0.00
expand: MAIN (2, 0) FAR  w(0) 17076.
	create_child: top_reset (1, 5) FAR 17660 U 0.00
expand: top_reset (1, 0) FAR  w(0) 17660.
	create_child: Sofar_reset (0, 5) FAR 17518 U 0.00
expand: Sofar_reset (0, 0) FAR  w(0) 17518. F 0.00
expand: top_reset (1, 0) FAR  w(0) 17660. F 0.00
expand: MAIN (2, 0) FAR  w(0) 17076.
	create_child: top_reset (1, 5) FAR 17949 U 0.00
expand: top_reset (1, 0) FAR  w(0) 17949.
	create_child: DRAGON_reset (0, 5) FAR 17826 U 0.00
expand: DRAGON_reset (0, 0) FAR  w(0) 17826. F 0.00
expand: top_reset (1, 0) FAR  w(0) 17949. F 0.00
expand: MAIN (2, 0) FAR  w(0) 17076.
	create_child: top_step (1, 5) FAR 18002 U 0.00
expand: top_step (1, 0) FAR  w(0) 18002.
	create_child: DRAGON_step (0, 5) FAR 18116 U 0.00
expand: DRAGON_step (0, 0) FAR  w(0) 18116. F 0.01
expand: top_step (1, 0) FAR  w(0) 18002. F 0.00
expand: MAIN (2, 0) FAR  w(0) 17076. F 0.00
expand: MAIN (3, 0) FAR  w(0) 2884.
	create_child: MAIN (2, 5) FAR 21832 U 0.00
expand: MAIN (2, 0) FAR  w(0) 21832.
	create_child: top_step (1, 5) FAR 21729 U 0.00
expand: top_step (1, 0) FAR  w(0) 21729.
	create_child: DRAGON_step (0, 5) FAR 21848 U 0.00
expand: DRAGON_step (0, 0) FAR  w(0) 21848. F 0.00
expand: top_step (1, 0) FAR  w(0) 21729. F 0.00
expand: MAIN (2, 0) FAR  w(0) 21832. F 0.00
expand: MAIN (3, 0) FAR  w(0) 2884.
	create_child: MAIN (2, 5) FAR 22301 U 0.00
expand: MAIN (2, 0) FAR  w(0) 22301.
	create_child: top_step (1, 5) FAR 22228 U 0.00
expand: top_step (1, 0) FAR  w(0) 22228.
	create_child: DRAGON_step (0, 5) FAR 22235 U 0.00
expand: DRAGON_step (0, 0) FAR  w(0) 22235. F 0.00
expand: top_step (1, 0) FAR  w(0) 22228. F 0.00
expand: MAIN (2, 0) FAR  w(0) 22301. F 0.00
expand: MAIN (3, 0) FAR  w(0) 2884.
	create_child: MAIN (2, 5) FAR 22654 U 0.00
expand: MAIN (2, 0) FAR  w(0) 22654.
	create_child: top_step (1, 5) FAR 22521 U 0.00
expand: top_step (1, 0) FAR  w(0) 22521.
	create_child: DRAGON_step (0, 5) FAR 22626 U 0.00
expand: DRAGON_step (0, 0) FAR  w(0) 22626. F 0.00
expand: top_step (1, 0) FAR  w(0) 22521. F 0.00
expand: MAIN (2, 0) FAR  w(0) 22654. F 0.00
expand: MAIN (3, 0) FAR  w(0) 2884.
	create_child: MAIN (2, 5) FAR 23254 U 0.00
expand: MAIN (2, 0) FAR  w(0) 23254.
	create_child: top_step (1, 5) FAR 23089 U 0.00
expand: top_step (1, 0) FAR  w(0) 23089.
	create_child: DRAGON_step (0, 5) FAR 23281 U 0.00
expand: DRAGON_step (0, 0) FAR  w(0) 23281. F 0.00
expand: top_step (1, 0) FAR  w(0) 23089. F 0.00
expand: MAIN (2, 0) FAR  w(0) 23254. F 0.00
expand: MAIN (3, 0) FAR  w(0) 2884.
	create_child: MAIN (2, 5) FAR 23854 U 0.00
expand: MAIN (2, 0) FAR  w(0) 23854.
	create_child: top_step (1, 5) FAR 23693 U 0.00
expand: top_step (1, 0) FAR  w(0) 23693.
	create_child: DRAGON_step (0, 5) FAR 23720 U 0.00
expand: DRAGON_step (0, 0) FAR  w(0) 23720. F 0.00
expand: top_step (1, 0) FAR  w(0) 23693. F 0.00
expand: MAIN (2, 0) FAR  w(0) 23854. F 0.00
expand: MAIN (3, 0) FAR  w(0) 2884.
	create_child: MAIN (2, 5) FAR 24331 U 0.01
expand: MAIN (2, 0) FAR  w(0) 24331.
	create_child: top_step (1, 5) FAR 24184 U 0.00
expand: top_step (1, 0) FAR  w(0) 24184.
	create_child: DRAGON_step (0, 5) FAR 24352 U 0.00
expand: DRAGON_step (0, 0) FAR  w(0) 24352. F 0.00
expand: top_step (1, 0) FAR  w(0) 24184. F 0.00
expand: MAIN (2, 0) FAR  w(0) 24331. F 0.00
expand: MAIN (3, 0) FAR  w(0) 2884.
	create_child: MAIN (2, 5) FAR 24869 U 0.00
expand: MAIN (2, 0) FAR  w(0) 24869.
	create_child: top_step (1, 5) FAR 24854 U 0.00
expand: top_step (1, 0) FAR  w(0) 24854.
	create_child: DRAGON_step (0, 5) FAR 24917 U 0.00
expand: DRAGON_step (0, 0) FAR  w(0) 24917. F 0.00
expand: top_step (1, 0) FAR  w(0) 24854. F 0.00
expand: MAIN (2, 0) FAR  w(0) 24869. F 0.00
expand: MAIN (3, 0) FAR  w(0) 2884.
	create_child: MAIN (2, 5) FAR 25395 U 0.00
expand: MAIN (2, 0) FAR  w(0) 25395.
	create_child: top_step (1, 5) FAR 25287 U 0.00
expand: top_step (1, 0) FAR  w(0) 25287.
	create_child: DRAGON_step (0, 5) FAR 25375 U 0.00
expand: DRAGON_step (0, 0) FAR  w(0) 25375. F 0.00
expand: top_step (1, 0) FAR  w(0) 25287. F 0.00
expand: MAIN (2, 0) FAR  w(0) 25395. F 0.00
expand: MAIN (3, 0) FAR  w(0) 2884.
	create_child: MAIN (2, 5) FAR 25694 U 0.00
expand: MAIN (2, 0) FAR  w(0) 25694.
	create_child: top_reset (1, 5) FAR 25815 U 0.00
expand: top_reset (1, 0) FAR  w(0) 25815. T 0.00
is-reachable: MAIN (2, 0) FAR 25694 T 0.00
is-reachable: MAIN (3, 0) FAR 2884 T 0.00
is-reachable: ERR (4, 0) FAR 1 T 0.00
is-reachable: query!0 (5, 0) FAR 1 T 0.00
(spacer::context::check_reachability :time 0.16 :before-memory 17.54 :after-memory 22.56)
BRUNCH_STAT max_query_lvl 5
BRUNCH_STAT num_queries 45
BRUNCH_STAT num_reach_queries 6
BRUNCH_STAT num_reach_reuse 37
BRUNCH_STAT inductive_lvl 0
BRUNCH_STAT max_depth 5
BRUNCH_STAT cex_depth 5
(:SPACER-cex-depth                     5
 :SPACER-max-depth                     5
 :SPACER-max-query-lvl                 5
 :SPACER-num-invariants                24
 :SPACER-num-lemmas                    46
 :SPACER-num-properties                38
 :SPACER-num-queries                   45
 :SPACER-num-reach-queries             6
 :SPACER-num-reuse-reach-facts         37
 :added-eqs                            7449
 :arith-add-rows                       4783
 :arith-assert-diseq                   1779
 :arith-assert-lower                   4159
 :arith-assert-upper                   4442
 :arith-bound-prop                     563
 :arith-conflicts                      55
 :arith-eq-adapter                     1581
 :arith-fixed-eqs                      1229
 :arith-offset-eqs                     1096
 :arith-pivots                         825
 :bool-inductive-gen                   34
 :bool-inductive-gen-failures          47
 :conflicts                            297
 :decisions                            5618
 :del-clause                           545
 :final-checks                         97
 :minimized-lits                       16
 :mk-bool-var                          5451
 :mk-clause                            7126
 :num-checks                           278
 :propagations                         52172
 :time.itp_solver.itp_core             0.02
 :time.spacer.init_rules               0.01
 :time.spacer.init_rules.pt.init       0.00
 :time.spacer.solve                    0.19
 :time.spacer.solve.propagate          0.00
 :time.spacer.solve.pt.must_reachable  0.01
 :time.spacer.solve.reach              0.19
 :time.spacer.solve.reach.children     0.04
 :time.spacer.solve.reach.gen.bool_ind 0.03
 :time.spacer.solve.reach.is-reach     0.01
 :time.virtual_solver.proof            0.01
 :time.virtual_solver.smt.total        0.12
 :time.virtual_solver.smt.total.sat    0.06
 :virtual_solver.checks                278
 :virtual_solver.checks.sat            97)
BRUNCH_STAT max_query_lvl 5
BRUNCH_STAT num_queries 45
BRUNCH_STAT num_reach_queries 6
BRUNCH_STAT num_reach_reuse 37
BRUNCH_STAT inductive_lvl 0
BRUNCH_STAT max_depth 5
BRUNCH_STAT cex_depth 5

real	0m0.250s
user	0m0.232s
sys	0m0.016s
