(transform N7datalog13mk_coi_filterE...no-op 0s)
(transform N7datalog25mk_interp_tail_simplifierE...14 rules 0s)
(transform N7datalog27mk_quantifier_instantiationE...no-op 0s)
(transform N7datalog8mk_scaleE...no-op 0s)
(transform N7datalog18mk_karr_invariantsE...no-op 0s)
(transform N7datalog14mk_array_blastE...no-op 0s)
(transform N7datalog22mk_subsumption_checkerE...13 rules 0s)
(transform N7datalog12mk_bit_blastE...no-op 0s)
(transform N7datalog15mk_rule_inlinerE...no-op 0s)
(transform N7datalog13mk_coi_filterE...no-op 0s)
(transform N7datalog25mk_interp_tail_simplifierE...13 rules 0s)
(transform N7datalog22mk_subsumption_checkerE...no-op 0s)
(transform N7datalog15mk_rule_inlinerE...no-op 0s)
(transform N7datalog13mk_coi_filterE...no-op 0s)
(transform N7datalog25mk_interp_tail_simplifierE...13 rules 0s)
(transform N7datalog22mk_subsumption_checkerE...no-op 0s)
(transform N7datalog15mk_rule_inlinerE...no-op 0s)
(transform N7datalog22mk_subsumption_checkerE...no-op 0s)
(transform N7datalog15mk_rule_inlinerE...no-op 0s)
(transform N7datalog22mk_subsumption_checkerE...no-op 0s)
(transform N7datalog15mk_rule_inlinerE...no-op 0s)
(transform N7datalog22mk_subsumption_checkerE...no-op 0s)
expand: query!0 (0, 0) FAR  w(0) 1. F 0.00
(spacer::context::check_reachability :time 0.00 :before-memory 13.34 :after-memory 13.83)
Entering level 1
BRUNCH_STAT max_query_lvl 0
BRUNCH_STAT num_queries 0
BRUNCH_STAT num_reach_queries 0
BRUNCH_STAT num_reach_reuse 0
BRUNCH_STAT inductive_lvl 0
BRUNCH_STAT max_depth 1
BRUNCH_STAT cex_depth 0
expand: query!0 (1, 0) FAR  w(0) 1.
	create_child: ERR (0, 1) FAR 1 U 0.00
expand: ERR (0, 0) FAR  w(0) 1. F 0.00
expand: query!0 (1, 0) FAR  w(0) 1. F 0.00
(spacer::context::check_reachability :time 0.00 :before-memory 13.83 :after-memory 14.27)
Propagating: 0 1  ! 2 
(spacer::context::propagate :time 0.00 :before-memory 14.27 :after-memory 14.27)
Entering level 2
BRUNCH_STAT max_query_lvl 1
BRUNCH_STAT num_queries 1
BRUNCH_STAT num_reach_queries 0
BRUNCH_STAT num_reach_reuse 0
BRUNCH_STAT inductive_lvl 0
BRUNCH_STAT max_depth 2
BRUNCH_STAT cex_depth 0
expand: query!0 (2, 0) FAR  w(0) 1.
	create_child: ERR (1, 2) FAR 1 U 0.00
expand: ERR (1, 0) FAR  w(0) 1.
	create_child: MAIN (0, 2) FAR 3000 U 0.00
expand: MAIN (0, 0) FAR  w(0) 3000. F 0.00
expand: ERR (1, 0) FAR  w(0) 1. F 0.00
expand: query!0 (2, 0) FAR  w(0) 1. F 0.00
(spacer::context::check_reachability :time 0.00 :before-memory 14.27 :after-memory 14.74)
Propagating: 0 1 2  ! 3 
(spacer::context::propagate :time 0.00 :before-memory 14.74 :after-memory 14.74)
Entering level 3
BRUNCH_STAT max_query_lvl 2
BRUNCH_STAT num_queries 3
BRUNCH_STAT num_reach_queries 0
BRUNCH_STAT num_reach_reuse 0
BRUNCH_STAT inductive_lvl 0
BRUNCH_STAT max_depth 3
BRUNCH_STAT cex_depth 0
expand: query!0 (3, 0) FAR  w(0) 1.
	create_child: ERR (2, 3) FAR 1 U 0.00
expand: ERR (2, 0) FAR  w(0) 1.
	create_child: MAIN (1, 3) FAR 3000 U 0.00
expand: MAIN (1, 0) FAR  w(0) 3000.
	create_child: top_step (0, 3) FAR 3915 U 0.00
expand: top_step (0, 0) FAR  w(0) 3915. F 0.00
expand: MAIN (1, 0) FAR  w(0) 3000. F 0.00
expand: ERR (2, 0) FAR  w(0) 1. F 0.00
expand: query!0 (3, 0) FAR  w(0) 1. F 0.00
(spacer::context::check_reachability :time 0.01 :before-memory 14.74 :after-memory 16.00)
Propagating: 0 1 2 3  ! 4 
(spacer::context::propagate :time 0.00 :before-memory 16.00 :after-memory 16.09)
Entering level 4
BRUNCH_STAT max_query_lvl 3
BRUNCH_STAT num_queries 6
BRUNCH_STAT num_reach_queries 0
BRUNCH_STAT num_reach_reuse 0
BRUNCH_STAT inductive_lvl 0
BRUNCH_STAT max_depth 4
BRUNCH_STAT cex_depth 0
expand: query!0 (4, 0) FAR  w(0) 1.
	create_child: ERR (3, 4) FAR 1 U 0.00
expand: ERR (3, 0) FAR  w(0) 1.
	create_child: MAIN (2, 4) FAR 3000 U 0.00
expand: MAIN (2, 0) FAR  w(0) 3000.
	create_child: top_step (1, 4) FAR 3915 U 0.00
expand: top_step (1, 0) FAR  w(0) 3915.
	create_child: top_reset (1, 4) FAR 12031 X 0.01
expand: top_reset (1, 0) FAR  w(0) 12031.
	create_child: First_reset (0, 4) FAR 12534 U 0.00
expand: First_reset (0, 0) FAR  w(0) 12534. F 0.00
expand: top_reset (1, 0) FAR  w(0) 12031. F 0.00
expand: MAIN (2, 0) FAR  w(0) 3000.
	create_child: top_reset (1, 4) FAR 17121 U 0.01
expand: top_reset (1, 0) FAR  w(0) 17121.
	create_child: Sofar_reset (0, 4) FAR 16898 U 0.00
expand: Sofar_reset (0, 0) FAR  w(0) 16898. F 0.00
expand: top_reset (1, 0) FAR  w(0) 17121. F 0.00
expand: MAIN (2, 0) FAR  w(0) 3000.
	create_child: top_reset (1, 4) FAR 17303 U 0.00
expand: top_reset (1, 0) FAR  w(0) 17303.
	create_child: DRAGON_reset (0, 4) FAR 17147 U 0.00
expand: DRAGON_reset (0, 0) FAR  w(0) 17147. F 0.00
expand: top_reset (1, 0) FAR  w(0) 17303. F 0.00
expand: MAIN (2, 0) FAR  w(0) 3000.
	create_child: top_step (1, 4) FAR 17346 U 0.00
expand: top_step (1, 0) FAR  w(0) 17346.
	create_child: DRAGON_step (0, 4) FAR 17577 U 0.01
expand: DRAGON_step (0, 0) FAR  w(0) 17577. F 0.01
expand: top_step (1, 0) FAR  w(0) 17346.
	create_child: DRAGON_step (0, 4) FAR 20712 U 0.00
expand: DRAGON_step (0, 0) FAR  w(0) 20712. F 0.00
expand: top_step (1, 0) FAR  w(0) 17346.
	create_child: DRAGON_step (0, 4) FAR 21018 U 0.00
expand: DRAGON_step (0, 0) FAR  w(0) 21018.
	create_child: First_step (0, 4) FAR 21126 X 0.01
expand: First_step (0, 0) FAR  w(0) 21126. F 0.00
expand: top_step (1, 0) FAR  w(0) 17346.
	create_child: First_step (0, 4) FAR 21555 U 0.00
expand: First_step (0, 0) FAR  w(0) 21555. F 0.00
expand: top_step (1, 0) FAR  w(0) 17346. F 0.00
expand: MAIN (2, 0) FAR  w(0) 3000. F 0.00
expand: ERR (3, 0) FAR  w(0) 1. F 0.00
expand: query!0 (4, 0) FAR  w(0) 1. F 0.00
(spacer::context::check_reachability :time 0.06 :before-memory 16.09 :after-memory 24.42)
Propagating: 0 1 2 3 4  ! 5 
(spacer::context::propagate :time 0.00 :before-memory 24.42 :after-memory 24.42)
Entering level 5
BRUNCH_STAT max_query_lvl 4
BRUNCH_STAT num_queries 19
BRUNCH_STAT num_reach_queries 1
BRUNCH_STAT num_reach_reuse 21
BRUNCH_STAT inductive_lvl 0
BRUNCH_STAT max_depth 5
BRUNCH_STAT cex_depth 0
expand: query!0 (5, 0) FAR  w(0) 1.
	create_child: ERR (4, 5) FAR 1 U 0.00
expand: ERR (4, 0) FAR  w(0) 1.
	create_child: MAIN (3, 5) FAR 3000 U 0.00
expand: MAIN (3, 0) FAR  w(0) 3000.
	create_child: MAIN (2, 5) FAR 21812 U 0.00
expand: MAIN (2, 0) FAR  w(0) 21812.
	create_child: top_step (1, 5) FAR 21669 U 0.00
expand: top_step (1, 0) FAR  w(0) 21669.
	create_child: DRAGON_step (0, 5) FAR 21835 U 0.00
expand: DRAGON_step (0, 0) FAR  w(0) 21835. F 0.00
expand: top_step (1, 0) FAR  w(0) 21669. F 0.00
expand: MAIN (2, 0) FAR  w(0) 21812. F 0.00
expand: MAIN (3, 0) FAR  w(0) 3000.
	create_child: MAIN (2, 5) FAR 22728 U 0.00
expand: MAIN (2, 0) FAR  w(0) 22728.
	create_child: top_step (1, 5) FAR 22695 U 0.00
expand: top_step (1, 0) FAR  w(0) 22695.
	create_child: DRAGON_step (0, 5) FAR 22850 U 0.00
expand: DRAGON_step (0, 0) FAR  w(0) 22850. F 0.00
expand: top_step (1, 0) FAR  w(0) 22695.
	create_child: DRAGON_step (0, 5) FAR 23202 U 0.00
expand: DRAGON_step (0, 0) FAR  w(0) 23202.
	create_child: First_step (0, 5) FAR 23241 X 0.00
expand: First_step (0, 0) FAR  w(0) 23241. F 0.00
expand: top_step (1, 0) FAR  w(0) 22695. F 0.00
expand: MAIN (2, 0) FAR  w(0) 22728. F 0.00
expand: MAIN (3, 0) FAR  w(0) 3000.
	create_child: MAIN (2, 5) FAR 23646 U 0.00
expand: MAIN (2, 0) FAR  w(0) 23646.
	create_child: top_step (1, 5) FAR 23500 U 0.00
expand: top_step (1, 0) FAR  w(0) 23500.
	create_child: Sofar_step (0, 5) FAR 23546 U 0.00
expand: Sofar_step (0, 0) FAR  w(0) 23546. F 0.00
expand: top_step (1, 0) FAR  w(0) 23500. F 0.00
expand: MAIN (2, 0) FAR  w(0) 23646. F 0.00
expand: MAIN (3, 0) FAR  w(0) 3000.
	create_child: MAIN (2, 5) FAR 24089 U 0.00
expand: MAIN (2, 0) FAR  w(0) 24089.
	create_child: top_step (1, 5) FAR 23922 U 0.00
expand: top_step (1, 0) FAR  w(0) 23922.
	create_child: DRAGON_step (0, 5) FAR 23981 U 0.00
expand: DRAGON_step (0, 0) FAR  w(0) 23981. F 0.00
expand: top_step (1, 0) FAR  w(0) 23922. F 0.00
expand: MAIN (2, 0) FAR  w(0) 24089. F 0.00
expand: MAIN (3, 0) FAR  w(0) 3000.
	create_child: MAIN (2, 5) FAR 24361 U 0.00
expand: MAIN (2, 0) FAR  w(0) 24361.
	create_child: top_step (1, 5) FAR 24214 U 0.00
expand: top_step (1, 0) FAR  w(0) 24214.
	create_child: First_step (0, 5) FAR 24534 U 0.00
expand: First_step (0, 0) FAR  w(0) 24534. F 0.00
expand: top_step (1, 0) FAR  w(0) 24214. F 0.00
expand: MAIN (2, 0) FAR  w(0) 24361. F 0.00
expand: MAIN (3, 0) FAR  w(0) 3000.
	create_child: MAIN (2, 5) FAR 24669 U 0.00
expand: MAIN (2, 0) FAR  w(0) 24669.
	create_child: top_step (1, 5) FAR 24303 U 0.00
expand: top_step (1, 0) FAR  w(0) 24303.
	create_child: DRAGON_step (0, 5) FAR 24648 U 0.00
expand: DRAGON_step (0, 0) FAR  w(0) 24648. F 0.00
expand: top_step (1, 0) FAR  w(0) 24303.
	create_child: Sofar_step (0, 5) FAR 24897 U 0.00
expand: Sofar_step (0, 0) FAR  w(0) 24897.
	create_child: DRAGON_step (0, 5) FAR 24909 X 0.00
expand: DRAGON_step (0, 0) FAR  w(0) 24909.
	create_child: First_step (0, 5) FAR 24916 X 0.00
expand: First_step (0, 0) FAR  w(0) 24916. F 0.00
expand: top_step (1, 0) FAR  w(0) 24303. F 0.01
expand: MAIN (2, 0) FAR  w(0) 24669. F 0.00
expand: MAIN (3, 0) FAR  w(0) 3000.
	create_child: MAIN (2, 5) FAR 25460 U 0.00
expand: MAIN (2, 0) FAR  w(0) 25460.
	create_child: top_step (1, 5) FAR 25291 U 0.00
expand: top_step (1, 0) FAR  w(0) 25291.
	create_child: DRAGON_step (0, 5) FAR 24635 U 0.00
expand: DRAGON_step (0, 0) FAR  w(0) 24635. F 0.00
expand: top_step (1, 0) FAR  w(0) 25291. F 0.00
expand: MAIN (2, 0) FAR  w(0) 25460. F 0.00
expand: MAIN (3, 0) FAR  w(0) 3000.
	create_child: MAIN (2, 5) FAR 25763 U 0.00
expand: MAIN (2, 0) FAR  w(0) 25763.
	create_child: top_step (1, 5) FAR 25597 U 0.00
expand: top_step (1, 0) FAR  w(0) 25597.
	create_child: DRAGON_step (0, 5) FAR 25599 U 0.00
expand: DRAGON_step (0, 0) FAR  w(0) 25599. F 0.00
expand: top_step (1, 0) FAR  w(0) 25597. F 0.01
expand: MAIN (2, 0) FAR  w(0) 25763. F 0.00
expand: MAIN (3, 0) FAR  w(0) 3000.
	create_child: MAIN (2, 5) FAR 26153 U 0.00
expand: MAIN (2, 0) FAR  w(0) 26153.
	create_child: top_step (1, 5) FAR 25858 U 0.00
expand: top_step (1, 0) FAR  w(0) 25858.
	create_child: DRAGON_step (0, 5) FAR 25832 U 0.00
expand: DRAGON_step (0, 0) FAR  w(0) 25832. F 0.00
expand: top_step (1, 0) FAR  w(0) 25858. F 0.00
expand: MAIN (2, 0) FAR  w(0) 26153. F 0.00
expand: MAIN (3, 0) FAR  w(0) 3000.
	create_child: MAIN (2, 5) FAR 26191 U 0.00
expand: MAIN (2, 0) FAR  w(0) 26191.
	create_child: top_step (1, 5) FAR 25957 U 0.00
expand: top_step (1, 0) FAR  w(0) 25957.
	create_child: DRAGON_step (0, 5) FAR 26147 U 0.00
expand: DRAGON_step (0, 0) FAR  w(0) 26147. F 0.00
expand: top_step (1, 0) FAR  w(0) 25957. F 0.00
expand: MAIN (2, 0) FAR  w(0) 26191. F 0.00
expand: MAIN (3, 0) FAR  w(0) 3000.
	create_child: MAIN (2, 5) FAR 26991 U 0.00
expand: MAIN (2, 0) FAR  w(0) 26991.
	create_child: top_step (1, 5) FAR 26773 U 0.00
expand: top_step (1, 0) FAR  w(0) 26773.
	create_child: DRAGON_step (0, 5) FAR 26903 U 0.00
expand: DRAGON_step (0, 0) FAR  w(0) 26903. F 0.00
expand: top_step (1, 0) FAR  w(0) 26773. F 0.01
expand: MAIN (2, 0) FAR  w(0) 26991. F 0.00
expand: MAIN (3, 0) FAR  w(0) 3000.
	create_child: top_step (2, 5) FAR 28455 U 0.01
expand: top_step (2, 0) FAR  w(0) 28455.
	create_child: excludes12_fun (1, 5) FAR 31844 U 0.02
expand: excludes12_fun (1, 0) FAR  w(0) 31844. F 0.00
expand: top_step (2, 0) FAR  w(0) 28455.
	create_child: excludes12_fun (1, 5) FAR 32527 U 0.01
expand: excludes12_fun (1, 0) FAR  w(0) 32527. F 0.00
expand: top_step (2, 0) FAR  w(0) 28455.
	create_child: excludes12_fun (1, 5) FAR 32674 U 0.00
expand: excludes12_fun (1, 0) FAR  w(0) 32674. F 0.00
expand: top_step (2, 0) FAR  w(0) 28455.
	create_child: excludes12_fun (1, 5) FAR 32412 U 0.00
expand: excludes12_fun (1, 0) FAR  w(0) 32412. F 0.00
expand: top_step (2, 0) FAR  w(0) 28455.
	create_child: excludes12_fun (1, 5) FAR 33329 U 0.01
expand: excludes12_fun (1, 0) FAR  w(0) 33329. F 0.00
expand: top_step (2, 0) FAR  w(0) 28455.
	create_child: excludes12_fun (1, 5) FAR 33185 U 0.00
expand: excludes12_fun (1, 0) FAR  w(0) 33185. F 0.00
expand: top_step (2, 0) FAR  w(0) 28455.
	create_child: excludes12_fun (1, 5) FAR 33160 U 0.00
expand: excludes12_fun (1, 0) FAR  w(0) 33160.
	create_child: First_step (1, 5) FAR 33086 X 0.00
expand: First_step (1, 0) FAR  w(0) 33086. F 0.00
expand: top_step (2, 0) FAR  w(0) 28455.
	create_child: excludes12_fun (1, 5) FAR 33160 U 0.01
expand: excludes12_fun (1, 0) FAR  w(0) 33160.
	create_child: First_step (1, 5) FAR 32910 X 0.00
expand: First_step (1, 0) FAR  w(0) 32910. F 0.00
expand: top_step (2, 0) FAR  w(0) 28455.
	create_child: excludes12_fun (1, 5) FAR 2320 U 0.01
expand: excludes12_fun (1, 0) FAR  w(0) 2320.
	create_child: DRAGON_step (1, 5) FAR 33457 X 0.00
expand: DRAGON_step (1, 0) FAR  w(0) 33457. F 0.02
expand: top_step (2, 0) FAR  w(0) 28455.
	create_child: Sofar_step (1, 5) FAR 35864 U 0.00
expand: Sofar_step (1, 0) FAR  w(0) 35864. F 0.00
expand: top_step (2, 0) FAR  w(0) 28455.
	create_child: DRAGON_step (1, 5) FAR 35406 U 0.00
expand: DRAGON_step (1, 0) FAR  w(0) 35406. F 0.02
expand: top_step (2, 0) FAR  w(0) 28455.
	create_child: DRAGON_step (1, 5) FAR 36980 U 0.00
expand: DRAGON_step (1, 0) FAR  w(0) 36980. F 0.02
expand: top_step (2, 0) FAR  w(0) 28455.
	create_child: DRAGON_step (1, 5) FAR 36728 U 0.00
expand: DRAGON_step (1, 0) FAR  w(0) 36728. F 0.02
expand: top_step (2, 0) FAR  w(0) 28455.
	create_child: DRAGON_step (1, 5) FAR 39995 U 0.00
expand: DRAGON_step (1, 0) FAR  w(0) 39995. F 0.01
expand: top_step (2, 0) FAR  w(0) 28455. F 0.02
expand: MAIN (3, 0) FAR  w(0) 3000. F 0.00
expand: ERR (4, 0) FAR  w(0) 1. F 0.00
expand: query!0 (5, 0) FAR  w(0) 1. F 0.00
(spacer::context::check_reachability :time 0.41 :before-memory 24.42 :after-memory 32.30)
Propagating: 0 1 2 3 4 5  ! 6 
(spacer::context::propagate :time 0.01 :before-memory 32.30 :after-memory 32.30)
Entering level 6
BRUNCH_STAT max_query_lvl 5
BRUNCH_STAT num_queries 71
BRUNCH_STAT num_reach_queries 1
BRUNCH_STAT num_reach_reuse 102
BRUNCH_STAT inductive_lvl 0
BRUNCH_STAT max_depth 6
BRUNCH_STAT cex_depth 0
expand: query!0 (6, 0) FAR  w(0) 1.
	create_child: ERR (5, 6) FAR 1 U 0.00
expand: ERR (5, 0) FAR  w(0) 1.
	create_child: MAIN (4, 6) FAR 3000 U 0.00
expand: MAIN (4, 0) FAR  w(0) 3000.
	create_child: MAIN (3, 6) FAR 42999 U 0.00
expand: MAIN (3, 0) FAR  w(0) 42999.
	create_child: top_step (2, 6) FAR 42970 U 0.00
expand: top_step (2, 0) FAR  w(0) 42970.
	create_child: Sofar_step (1, 6) FAR 43337 U 0.01
expand: Sofar_step (1, 0) FAR  w(0) 43337. F 0.00
expand: top_step (2, 0) FAR  w(0) 42970.
	create_child: Sofar_step (1, 6) FAR 43511 U 0.01
expand: Sofar_step (1, 0) FAR  w(0) 43511.
	create_child: First_step (1, 6) FAR 43537 X 0.00
expand: First_step (1, 0) FAR  w(0) 43537. F 0.00
expand: top_step (2, 0) FAR  w(0) 42970. F 0.02
expand: MAIN (3, 0) FAR  w(0) 42999. F 0.00
expand: MAIN (4, 0) FAR  w(0) 3000.
	create_child: MAIN (3, 6) FAR 45360 U 0.01
expand: MAIN (3, 0) FAR  w(0) 45360.
	create_child: top_step (2, 6) FAR 45251 U 0.00
expand: top_step (2, 0) FAR  w(0) 45251. F 0.02
expand: MAIN (3, 0) FAR  w(0) 45360. F 0.00
expand: MAIN (4, 0) FAR  w(0) 3000.
	create_child: top_step (3, 6) FAR 48535 U 0.01
expand: top_step (3, 0) FAR  w(0) 48535.
	create_child: Sofar_step (2, 6) FAR 48968 U 0.01
expand: Sofar_step (2, 0) FAR  w(0) 48968. F 0.00
expand: top_step (3, 0) FAR  w(0) 48535. F 0.00
expand: MAIN (4, 0) FAR  w(0) 3000.
	create_child: top_step (3, 6) FAR 48985 U 0.00
expand: top_step (3, 0) FAR  w(0) 48985.
	create_child: excludes12_fun (2, 6) FAR 64502 U 0.08
expand: excludes12_fun (2, 0) FAR  w(0) 64502. F 0.00
expand: top_step (3, 0) FAR  w(0) 48985.
	create_child: excludes12_fun (2, 6) FAR 64634 U 0.01
expand: excludes12_fun (2, 0) FAR  w(0) 64634. F 0.00
expand: top_step (3, 0) FAR  w(0) 48985.
	create_child: excludes12_fun (2, 6) FAR 64653 U 0.00
expand: excludes12_fun (2, 0) FAR  w(0) 64653. F 0.00
expand: top_step (3, 0) FAR  w(0) 48985.
	create_child: excludes12_fun (2, 6) FAR 64927 U 0.01
expand: excludes12_fun (2, 0) FAR  w(0) 64927. F 0.00
expand: top_step (3, 0) FAR  w(0) 48985.
	create_child: excludes12_fun (2, 6) FAR 65241 U 0.01
expand: excludes12_fun (2, 0) FAR  w(0) 65241. F 0.00
expand: top_step (3, 0) FAR  w(0) 48985.
	create_child: excludes12_fun (2, 6) FAR 65303 U 0.00
expand: excludes12_fun (2, 0) FAR  w(0) 65303. F 0.00
expand: top_step (3, 0) FAR  w(0) 48985.
	create_child: excludes12_fun (2, 6) FAR 65334 U 0.00
expand: excludes12_fun (2, 0) FAR  w(0) 65334. F 0.00
expand: top_step (3, 0) FAR  w(0) 48985.
	create_child: excludes12_fun (2, 6) FAR 65680 U 0.01
expand: excludes12_fun (2, 0) FAR  w(0) 65680. F 0.00
expand: top_step (3, 0) FAR  w(0) 48985.
	create_child: excludes12_fun (2, 6) FAR 66300 U 0.01
expand: excludes12_fun (2, 0) FAR  w(0) 66300. F 0.00
expand: top_step (3, 0) FAR  w(0) 48985.
	create_child: excludes12_fun (2, 6) FAR 66371 U 0.00
expand: excludes12_fun (2, 0) FAR  w(0) 66371. F 0.00
expand: top_step (3, 0) FAR  w(0) 48985.
	create_child: excludes12_fun (2, 6) FAR 66541 U 0.01
expand: excludes12_fun (2, 0) FAR  w(0) 66541. F 0.00
expand: top_step (3, 0) FAR  w(0) 48985.
	create_child: excludes12_fun (2, 6) FAR 66565 U 0.01
expand: excludes12_fun (2, 0) FAR  w(0) 66565. F 0.00
expand: top_step (3, 0) FAR  w(0) 48985.
	create_child: excludes12_fun (2, 6) FAR 66667 U 0.00
expand: excludes12_fun (2, 0) FAR  w(0) 66667. F 0.00
expand: top_step (3, 0) FAR  w(0) 48985.
	create_child: excludes12_fun (2, 6) FAR 66982 U 0.01
expand: excludes12_fun (2, 0) FAR  w(0) 66982. F 0.00
expand: top_step (3, 0) FAR  w(0) 48985.
	create_child: excludes12_fun (2, 6) FAR 67240 U 0.00
expand: excludes12_fun (2, 0) FAR  w(0) 67240. F 0.00
expand: top_step (3, 0) FAR  w(0) 48985.
	create_child: excludes12_fun (2, 6) FAR 67297 U 0.00
expand: excludes12_fun (2, 0) FAR  w(0) 67297. F 0.00
expand: top_step (3, 0) FAR  w(0) 48985.
	create_child: excludes12_fun (2, 6) FAR 67152 U 0.00
expand: excludes12_fun (2, 0) FAR  w(0) 67152. F 0.00
expand: top_step (3, 0) FAR  w(0) 48985.
	create_child: excludes12_fun (2, 6) FAR 67730 U 0.01
expand: excludes12_fun (2, 0) FAR  w(0) 67730. F 0.00
expand: top_step (3, 0) FAR  w(0) 48985.
	create_child: excludes12_fun (2, 6) FAR 67885 U 0.00
expand: excludes12_fun (2, 0) FAR  w(0) 67885. F 0.00
expand: top_step (3, 0) FAR  w(0) 48985.
	create_child: excludes12_fun (2, 6) FAR 67843 U 0.00
expand: excludes12_fun (2, 0) FAR  w(0) 67843. F 0.00
expand: top_step (3, 0) FAR  w(0) 48985.
	create_child: excludes12_fun (2, 6) FAR 68033 U 0.00
expand: excludes12_fun (2, 0) FAR  w(0) 68033. F 0.00
expand: top_step (3, 0) FAR  w(0) 48985.
	create_child: excludes12_fun (2, 6) FAR 68079 U 0.00
expand: excludes12_fun (2, 0) FAR  w(0) 68079. F 0.00
expand: top_step (3, 0) FAR  w(0) 48985.
	create_child: excludes12_fun (2, 6) FAR 68234 U 0.00
expand: excludes12_fun (2, 0) FAR  w(0) 68234. F 0.00
expand: top_step (3, 0) FAR  w(0) 48985.
	create_child: excludes12_fun (2, 6) FAR 68351 U 0.00
expand: excludes12_fun (2, 0) FAR  w(0) 68351. F 0.00
expand: top_step (3, 0) FAR  w(0) 48985.
	create_child: excludes12_fun (2, 6) FAR 68733 U 0.01
expand: excludes12_fun (2, 0) FAR  w(0) 68733. F 0.00
expand: top_step (3, 0) FAR  w(0) 48985.
	create_child: excludes12_fun (2, 6) FAR 68849 U 0.00
expand: excludes12_fun (2, 0) FAR  w(0) 68849. F 0.00
expand: top_step (3, 0) FAR  w(0) 48985.
	create_child: excludes12_fun (2, 6) FAR 68820 U 0.00
expand: excludes12_fun (2, 0) FAR  w(0) 68820. F 0.00
expand: top_step (3, 0) FAR  w(0) 48985.
	create_child: excludes12_fun (2, 6) FAR 69031 U 0.00
expand: excludes12_fun (2, 0) FAR  w(0) 69031. F 0.00
expand: top_step (3, 0) FAR  w(0) 48985.
	create_child: excludes12_fun (2, 6) FAR 69155 U 0.00
expand: excludes12_fun (2, 0) FAR  w(0) 69155. F 0.00
expand: top_step (3, 0) FAR  w(0) 48985.
	create_child: excludes12_fun (2, 6) FAR 69827 U 0.01
expand: excludes12_fun (2, 0) FAR  w(0) 69827. F 0.00
expand: top_step (3, 0) FAR  w(0) 48985.
	create_child: excludes12_fun (2, 6) FAR 70061 U 0.01
expand: excludes12_fun (2, 0) FAR  w(0) 70061. F 0.00
expand: top_step (3, 0) FAR  w(0) 48985.
	create_child: excludes12_fun (2, 6) FAR 70288 U 0.01
expand: excludes12_fun (2, 0) FAR  w(0) 70288. F 0.00
expand: top_step (3, 0) FAR  w(0) 48985.
	create_child: excludes12_fun (2, 6) FAR 70546 U 0.01
expand: excludes12_fun (2, 0) FAR  w(0) 70546. F 0.00
expand: top_step (3, 0) FAR  w(0) 48985.
	create_child: excludes12_fun (2, 6) FAR 70460 U 0.00
expand: excludes12_fun (2, 0) FAR  w(0) 70460. F 0.00
expand: top_step (3, 0) FAR  w(0) 48985.
	create_child: excludes12_fun (2, 6) FAR 72612 U 0.01
expand: excludes12_fun (2, 0) FAR  w(0) 72612.
	create_child: Sofar_step (2, 6) FAR 72657 X 0.00
expand: Sofar_step (2, 0) FAR  w(0) 72657.
	create_child: DRAGON_step (2, 6) FAR 72589 X 0.00
expand: DRAGON_step (2, 0) FAR  w(0) 72589. F 0.02
expand: top_step (3, 0) FAR  w(0) 48985.
	create_child: DRAGON_step (2, 6) FAR 73720 U 0.00
expand: DRAGON_step (2, 0) FAR  w(0) 73720. F 0.01
expand: top_step (3, 0) FAR  w(0) 48985.
	create_child: DRAGON_step (2, 6) FAR 74145 U 0.00
expand: DRAGON_step (2, 0) FAR  w(0) 74145. F 0.01
expand: top_step (3, 0) FAR  w(0) 48985.
	create_child: DRAGON_step (2, 6) FAR 74422 U 0.00
expand: DRAGON_step (2, 0) FAR  w(0) 74422. F 0.01
expand: top_step (3, 0) FAR  w(0) 48985.
	create_child: DRAGON_step (2, 6) FAR 74779 U 0.00
expand: DRAGON_step (2, 0) FAR  w(0) 74779. F 0.01
expand: top_step (3, 0) FAR  w(0) 48985.
	create_child: DRAGON_step (2, 6) FAR 75179 U 0.00
expand: DRAGON_step (2, 0) FAR  w(0) 75179. F 0.01
expand: top_step (3, 0) FAR  w(0) 48985.
	create_child: DRAGON_step (2, 6) FAR 75840 U 0.01
expand: DRAGON_step (2, 0) FAR  w(0) 75840. F 0.01
expand: top_step (3, 0) FAR  w(0) 48985.
	create_child: DRAGON_step (2, 6) FAR 75967 U 0.00
expand: DRAGON_step (2, 0) FAR  w(0) 75967. F 0.01
expand: top_step (3, 0) FAR  w(0) 48985.
	create_child: DRAGON_step (2, 6) FAR 77345 U 0.01
expand: DRAGON_step (2, 0) FAR  w(0) 77345. F 0.01
expand: top_step (3, 0) FAR  w(0) 48985.
	create_child: DRAGON_step (2, 6) FAR 77663 U 0.00
expand: DRAGON_step (2, 0) FAR  w(0) 77663. F 0.01
expand: top_step (3, 0) FAR  w(0) 48985.
	create_child: DRAGON_step (2, 6) FAR 78092 U 0.00
expand: DRAGON_step (2, 0) FAR  w(0) 78092. F 0.01
expand: top_step (3, 0) FAR  w(0) 48985.
	create_child: DRAGON_step (2, 6) FAR 79293 U 0.01
expand: DRAGON_step (2, 0) FAR  w(0) 79293. F 0.01
expand: top_step (3, 0) FAR  w(0) 48985.
	create_child: excludes12_fun (2, 6) FAR 79692 U 0.00
expand: excludes12_fun (2, 0) FAR  w(0) 79692. F 0.00
expand: top_step (3, 0) FAR  w(0) 48985.
	create_child: excludes12_fun (2, 6) FAR 79798 U 0.00
expand: excludes12_fun (2, 0) FAR  w(0) 79798. F 0.00
expand: top_step (3, 0) FAR  w(0) 48985.
	create_child: excludes12_fun (2, 6) FAR 79882 U 0.00
expand: excludes12_fun (2, 0) FAR  w(0) 79882. F 0.00
expand: top_step (3, 0) FAR  w(0) 48985.
	create_child: excludes12_fun (2, 6) FAR 79916 U 0.00
expand: excludes12_fun (2, 0) FAR  w(0) 79916. F 0.00
expand: top_step (3, 0) FAR  w(0) 48985.
	create_child: excludes12_fun (2, 6) FAR 80099 U 0.00
expand: excludes12_fun (2, 0) FAR  w(0) 80099. F 0.00
expand: top_step (3, 0) FAR  w(0) 48985.
	create_child: excludes12_fun (2, 6) FAR 80395 U 0.00
expand: excludes12_fun (2, 0) FAR  w(0) 80395. F 0.00
expand: top_step (3, 0) FAR  w(0) 48985.
	create_child: excludes12_fun (2, 6) FAR 80438 U 0.00
expand: excludes12_fun (2, 0) FAR  w(0) 80438. F 0.00
expand: top_step (3, 0) FAR  w(0) 48985.
	create_child: excludes12_fun (2, 6) FAR 80667 U 0.00
expand: excludes12_fun (2, 0) FAR  w(0) 80667. F 0.00
expand: top_step (3, 0) FAR  w(0) 48985.
	create_child: excludes12_fun (2, 6) FAR 80738 U 0.00
expand: excludes12_fun (2, 0) FAR  w(0) 80738. F 0.00
expand: top_step (3, 0) FAR  w(0) 48985.
	create_child: excludes12_fun (2, 6) FAR 80801 U 0.00
expand: excludes12_fun (2, 0) FAR  w(0) 80801. F 0.00
expand: top_step (3, 0) FAR  w(0) 48985.
	create_child: excludes12_fun (2, 6) FAR 80860 U 0.00
expand: excludes12_fun (2, 0) FAR  w(0) 80860. F 0.00
expand: top_step (3, 0) FAR  w(0) 48985.
	create_child: excludes12_fun (2, 6) FAR 80912 U 0.00
expand: excludes12_fun (2, 0) FAR  w(0) 80912. F 0.00
expand: top_step (3, 0) FAR  w(0) 48985.
	create_child: excludes12_fun (2, 6) FAR 80705 U 0.00
expand: excludes12_fun (2, 0) FAR  w(0) 80705. F 0.00
expand: top_step (3, 0) FAR  w(0) 48985. F 0.03
expand: MAIN (4, 0) FAR  w(0) 3000. F 0.00
expand: ERR (5, 0) FAR  w(0) 1. F 0.00
expand: query!0 (6, 0) FAR  w(0) 1. F 0.00
(spacer::context::check_reachability :time 0.68 :before-memory 32.30 :after-memory 41.18)
Propagating: 1 2 3 4 5 6  ! 7 
(spacer::context::propagate :time 0.01 :before-memory 41.18 :after-memory 41.18)
Entering level 7
BRUNCH_STAT max_query_lvl 6
BRUNCH_STAT num_queries 141
BRUNCH_STAT num_reach_queries 1
BRUNCH_STAT num_reach_reuse 274
BRUNCH_STAT inductive_lvl 0
BRUNCH_STAT max_depth 7
BRUNCH_STAT cex_depth 0
expand: query!0 (7, 0) FAR  w(0) 1.
	create_child: ERR (6, 7) FAR 1 U 0.00
expand: ERR (6, 0) FAR  w(0) 1.
	create_child: MAIN (5, 7) FAR 3000 U 0.00
expand: MAIN (5, 0) FAR  w(0) 3000.
	create_child: MAIN (4, 7) FAR 83446 U 0.00
expand: MAIN (4, 0) FAR  w(0) 83446.
	create_child: top_step (3, 7) FAR 83534 U 0.00
expand: top_step (3, 0) FAR  w(0) 83534. F 0.00
expand: MAIN (4, 0) FAR  w(0) 83446.
	create_child: top_step (3, 7) FAR 83364 U 0.00
expand: top_step (3, 0) FAR  w(0) 83364. F 0.02
expand: MAIN (4, 0) FAR  w(0) 83446. F 0.00
expand: MAIN (5, 0) FAR  w(0) 3000.
	create_child: MAIN (4, 7) FAR 86834 U 0.00
expand: MAIN (4, 0) FAR  w(0) 86834.
	create_child: top_step (3, 7) FAR 84658 U 0.00
expand: top_step (3, 0) FAR  w(0) 84658. F 0.02
expand: MAIN (4, 0) FAR  w(0) 86834. F 0.00
expand: MAIN (5, 0) FAR  w(0) 3000. F 0.00
expand: ERR (6, 0) FAR  w(0) 1. F 0.00
expand: query!0 (7, 0) FAR  w(0) 1. F 0.00
(spacer::context::check_reachability :time 0.06 :before-memory 41.18 :after-memory 41.75)
Propagating: 3 
(spacer::context::propagate :time 0.00 :before-memory 41.75 :after-memory 41.75)
(define-fun ERR () Bool
  false)
(define-fun First_reset ((x!0 Int) (x!1 Bool) (x!2 Int) (x!3 Bool)) Bool
  x!3)
(define-fun MAIN ((x!0 Int)
 (x!1 Bool)
 (x!2 Int)
 (x!3 Int)
 (x!4 Int)
 (x!5 Int)
 (x!6 Int)
 (x!7 Int)
 (x!8 Bool)
 (x!9 Bool)
 (x!10 Bool)
 (x!11 Bool)) Bool
  (let ((a!1 (+ x!0
                (* (- 1) x!2)
                (* (- 1) x!3)
                (* (- 1) x!4)
                (* (- 1) x!5)
                (* (- 1) x!6))))
    (and (or (>= a!1 0) (not x!9))
         x!11
         (not x!1)
         (not x!8)
         (not x!10)
         (or (<= a!1 0) (not x!9)))))
(define-fun First_step ((x!0 Int)
 (x!1 Int)
 (x!2 Int)
 (x!3 Bool)
 (x!4 Int)
 (x!5 Bool)) Bool
  (let ((a!1 (or (<= (+ x!1 (* (- 1) x!2)) 0) x!3))
        (a!2 (or (not x!3) (= (+ x!1 (* (- 1) x!0)) 0)))
        (a!3 (or (>= (+ x!1 (* (- 1) x!2)) 0) x!3)))
    (and a!1
         (not x!5)
         a!2
         (>= (+ x!4 (* (- 1) x!1)) 0)
         (>= (+ x!1 (* (- 1) x!4)) 0)
         a!3)))
(define-fun top_step ((x!0 Bool)
 (x!1 Bool)
 (x!2 Bool)
 (x!3 Bool)
 (x!4 Bool)
 (x!5 Bool)
 (x!6 Bool)
 (x!7 Bool)
 (x!8 Bool)
 (x!9 Bool)
 (x!10 Bool)
 (x!11 Bool)
 (x!12 Int)
 (x!13 Bool)
 (x!14 Int)
 (x!15 Bool)
 (x!16 Int)
 (x!17 Int)
 (x!18 Int)
 (x!19 Int)
 (x!20 Int)
 (x!21 Int)
 (x!22 Bool)
 (x!23 Bool)
 (x!24 Bool)
 (x!25 Int)
 (x!26 Bool)
 (x!27 Int)
 (x!28 Int)
 (x!29 Int)
 (x!30 Int)
 (x!31 Int)
 (x!32 Int)
 (x!33 Bool)
 (x!34 Bool)
 (x!35 Bool)) Bool
  (let ((a!1 (+ x!14
                (* (- 1) x!16)
                (* (- 1) x!17)
                (* (- 1) x!18)
                (* (- 1) x!19)
                (* (- 1) x!20)))
        (a!2 (+ x!25
                (* (- 1) x!27)
                (* (- 1) x!28)
                (* (- 1) x!29)
                (* (- 1) x!30)
                (* (- 1) x!31)))
        (a!3 (or (>= (+ x!25 (* (- 1) x!27)) 0) (not x!15) (not x!22)))
        (a!4 (or (>= (+ x!27 x!28 x!29 x!30 x!31 (* (- 1) x!25)) 0)
                 (not x!15)
                 (not x!22)))
        (a!5 (not (<= (+ x!14
                         (* (- 1) x!16)
                         (* (- 1) x!17)
                         (* (- 1) x!18)
                         (* (- 1) x!20))
                      0)))
        (a!6 (not (>= (+ x!14 (* (- 1) x!16)) 0))))
    (and (or (not (>= a!1 0)) (not x!34) x!22 x!15 (>= a!2 0))
         (not x!35)
         (not x!33)
         (not x!26)
         (or (not x!22) (not x!15) x!13)
         (or (<= x!28 0) (not x!22))
         a!3
         (or (<= x!31 0) (not x!22))
         (or (not x!22) (= x!30 0))
         (or (<= x!29 0) (not x!22))
         a!4
         (or a!5
             x!13
             x!22
             x!15
             (not (= x!19 0))
             (not (<= x!18 0))
             a!6
             (not (<= x!20 0))
             (not (<= x!17 0)))
         (or x!24 x!23 x!13)
         (or (not x!34) x!23 x!24)
         (or (not (= a!1 0)) x!13 x!22 x!15)
         (or (not (<= a!1 0)) (not x!34) x!22 x!15 (<= a!2 0)))))
(define-fun DRAGON_step ((x!0 Bool)
 (x!1 Bool)
 (x!2 Bool)
 (x!3 Bool)
 (x!4 Bool)
 (x!5 Bool)
 (x!6 Bool)
 (x!7 Bool)
 (x!8 Bool)
 (x!9 Bool)
 (x!10 Bool)
 (x!11 Bool)
 (x!12 Int)
 (x!13 Int)
 (x!14 Int)
 (x!15 Int)
 (x!16 Int)
 (x!17 Int)
 (x!18 Bool)
 (x!19 Int)
 (x!20 Int)
 (x!21 Int)
 (x!22 Int)
 (x!23 Int)
 (x!24 Int)
 (x!25 Bool)
 (x!26 Int)
 (x!27 Int)
 (x!28 Int)
 (x!29 Int)
 (x!30 Int)
 (x!31 Int)
 (x!32 Bool)) Bool
  (let ((a!1 (+ x!13
                x!14
                x!15
                x!16
                x!17
                (* (- 1) x!19)
                (* (- 1) x!20)
                (* (- 1) x!21)
                (* (- 1) x!22)
                (* (- 1) x!23)))
        (a!2 (or (>= (+ x!13 x!14 x!15 x!16 x!17 (* (- 1) x!12)) 0) (not x!25)))
        (a!3 (or (>= (+ x!12
                        (* (- 1) x!13)
                        (* (- 1) x!14)
                        (* (- 1) x!15)
                        (* (- 1) x!16)
                        (* (- 1) x!17))
                     0)
                 (not x!25)))
        (a!4 (or (>= (+ x!13 x!14 x!15 x!16 x!17 (* (- 1) x!26)) 0) (not x!25)))
        (a!5 (>= (+ x!13
                    x!14
                    x!15
                    x!16
                    x!17
                    (* (- 1) x!19)
                    (* (- 1) x!20)
                    (* (- 1) x!21)
                    (* (- 1) x!23))
                 0))
        (a!6 (<= (+ x!13 x!14 x!15 x!16 x!17 (* (- 1) x!19)) 0))
        (a!7 (or (>= (+ x!13
                        x!14
                        x!15
                        x!16
                        x!17
                        (* (- 1) x!19)
                        (* (- 1) x!20)
                        (* (- 1) x!21))
                     0)
                 x!6
                 x!25
                 (not (<= x!20 0))
                 (not (<= x!21 0))
                 (not (= x!22 0))
                 (not (= x!23 0)))))
  (let ((a!8 (or (not (<= (+ x!21 x!23) 0))
                 x!4
                 x!2
                 x!3
                 x!25
                 (not (<= x!20 0))
                 (not (= (+ x!20 x!21 x!22 x!23) 0))
                 (not (= x!21 0))
                 a!5)))
    (and (or (<= a!1 0) x!9 x!7 x!5 x!1 x!8 x!6 x!2 x!3 x!25)
         (not x!32)
         a!2
         a!3
         (>= (+ x!13
                x!14
                x!15
                x!16
                x!17
                (* (- 1) x!26)
                (* (- 1) x!27)
                (* (- 1) x!28)
                (* (- 1) x!29)
                (* (- 1) x!30))
             0)
         (or (<= x!27 0) (not x!25))
         a!4
         (or (<= x!30 0) (not x!25))
         (or (not x!25) (= x!29 0))
         (or (<= x!28 0) (not x!25))
         (>= (+ x!26
                x!27
                x!28
                x!29
                x!30
                (* (- 1) x!13)
                (* (- 1) x!14)
                (* (- 1) x!15)
                (* (- 1) x!16)
                (* (- 1) x!17))
             0)
         (or (not (>= x!22 0))
             x!5
             x!4
             x!10
             x!6
             x!0
             x!2
             x!25
             (not (<= x!23 0))
             a!5)
         (or a!6
             x!6
             x!25
             (not (<= x!20 0))
             (not (<= x!21 0))
             (not (<= x!23 0))
             (not (<= x!22 0)))
         a!7
         a!8
         (or a!6
             x!0
             x!25
             (not (<= x!20 0))
             (not (<= x!21 0))
             (not (<= x!23 0))
             (not (<= x!22 0)))
         (or (>= a!1 0) x!9 x!7 x!4 x!1 x!10 x!8 x!6 x!3 x!25)
         (or (>= a!1 0) x!5 x!4 x!11 x!10 x!8 x!6 x!0 x!2 x!3 x!25)
         (or (>= a!1 0) x!9 x!5 x!4 x!11 x!10 x!6 x!0 x!2 x!3 x!25)
         (or (>= a!1 0) x!9 x!5 x!4 x!11 x!8 x!6 x!0 x!2 x!3 x!25)
         (or (>= a!1 0) x!9 x!7 x!5 x!4 x!11 x!8 x!6 x!0 x!2 x!25)
         (or (>= a!1 0) x!9 x!7 x!4 x!11 x!10 x!0 x!2 x!3 x!25)
         (or (>= a!1 0) x!7 x!5 x!11 x!10 x!8 x!6 x!0 x!2 x!3 x!25)
         (or (<= a!1 0) x!5 x!4 x!6 x!0 x!2 x!3 x!25)
         (or (<= a!1 0) x!7 x!5 x!4 x!11 x!8 x!0 x!3 x!25)
         (or (<= a!1 0) x!7 x!5 x!4 x!10 x!8 x!0 x!2 x!25)
         (or (<= a!1 0) x!9 x!7 x!4 x!1 x!10 x!6 x!2 x!3 x!25)))))
(define-fun Sofar_reset ((x!0 Bool) (x!1 Bool) (x!2 Bool) (x!3 Bool)) Bool
  x!3)
(define-fun excludes12_fun ((x!0 Bool)
 (x!1 Bool)
 (x!2 Bool)
 (x!3 Bool)
 (x!4 Bool)
 (x!5 Bool)
 (x!6 Bool)
 (x!7 Bool)
 (x!8 Bool)
 (x!9 Bool)
 (x!10 Bool)
 (x!11 Bool)
 (x!12 Bool)) Bool
  (and (or (not x!4) (not x!12) (not x!0))
       (or (not x!12) (not x!0) (not x!6))
       (or (not x!12) (not x!4) (not x!6))
       (or (not x!12) (not x!2) (not x!6))
       (or (not x!12) (not x!3) (not x!6))
       (or (not x!12) (not x!0) (not x!10))
       (or (not x!12) (not x!0) (not x!9))
       (or (not x!12) (not x!8) (not x!10))
       (or (not x!12) (not x!8) (not x!11))
       (or (not x!12) (not x!10) (not x!11))
       (or (not x!12) (not x!9) (not x!11))
       (or (not x!12) (not x!9) (not x!10))
       (or (not x!12) (not x!8) (not x!9))
       (or (not x!12) (not x!2) (not x!9))
       (or (not x!12) (not x!0) (not x!8))
       (or (not x!12) (not x!2) (not x!11))
       (or (not x!12) (not x!2) (not x!8))
       (or (not x!12) (not x!2) (not x!5))
       (or (not x!12) (not x!2) (not x!3))
       (or (not x!12) (not x!3) (not x!5))
       (or (not x!12) (not x!6) (not x!7))
       (or (not x!12) (not x!3) (not x!7))
       (or (not x!12) (not x!4) (not x!5))
       (or (not x!12) (not x!2) (not x!7))
       (or (not x!12) (not x!3) (not x!8))
       (or (not x!12) (not x!4) (not x!8))
       (or (not x!12) (not x!4) (not x!9))
       (or (not x!12) (not x!0) (not x!2))
       (or (not x!12) (not x!3) (not x!10))
       (or (not x!12) (not x!5) (not x!9))
       (or (not x!12) (not x!5) (not x!10))
       (or (not x!12) (not x!4) (not x!7))
       (or (not x!1) (not x!12) (not x!0))
       (or (not x!12) (not x!0) (not x!7))
       (or (not x!12) (not x!5) (not x!6))
       (or (not x!12) (not x!5) (not x!7))
       (or (not x!12) (not x!2) (not x!4))
       (or (not x!12) (not x!3) (not x!4))
       (or (not x!12) (not x!6) (not x!11))
       (or (not x!12) (not x!6) (not x!10))
       (or (not x!12) (not x!6) (not x!9))
       (or (not x!10) (not x!12) (not x!2))
       (or (not x!8) (not x!12) (not x!6))
       (or (not x!11) (not x!12) (not x!3))
       (or (not x!9) (not x!12) (not x!3))
       (or (not x!11) (not x!12) (not x!7))
       (or (not x!11) (not x!12) (not x!4))
       (or (not x!10) (not x!12) (not x!4))
       (or (not x!11) (not x!12) (not x!1))
       (or (not x!5) (not x!12) (not x!1))
       (or (not x!4) (not x!12) (not x!1))
       (or (not x!2) (not x!12) (not x!1))
       (or (not x!3) (not x!12) (not x!0))))
(define-fun DRAGON_reset ((x!0 Int)
 (x!1 Int)
 (x!2 Int)
 (x!3 Int)
 (x!4 Int)
 (x!5 Int)
 (x!6 Bool)
 (x!7 Int)
 (x!8 Int)
 (x!9 Int)
 (x!10 Int)
 (x!11 Int)
 (x!12 Int)
 (x!13 Bool)) Bool
  x!13)
(define-fun Sofar_step ((x!0 Bool)
 (x!1 Bool)
 (x!2 Bool)
 (x!3 Bool)
 (x!4 Bool)
 (x!5 Bool)) Bool
  (and (or x!2 x!3 (not x!1)) (not x!5) (or (not x!1) x!0) (or (not x!4) x!1)))
(define-fun top_reset ((x!0 Int)
 (x!1 Bool)
 (x!2 Int)
 (x!3 Int)
 (x!4 Int)
 (x!5 Int)
 (x!6 Int)
 (x!7 Int)
 (x!8 Bool)
 (x!9 Bool)
 (x!10 Bool)
 (x!11 Int)
 (x!12 Bool)
 (x!13 Int)
 (x!14 Int)
 (x!15 Int)
 (x!16 Int)
 (x!17 Int)
 (x!18 Int)
 (x!19 Bool)
 (x!20 Bool)
 (x!21 Bool)) Bool
  (and x!21 x!12 x!19))
BRUNCH_STAT max_query_lvl 7
BRUNCH_STAT num_queries 148
BRUNCH_STAT num_reach_queries 1
BRUNCH_STAT num_reach_reuse 276
BRUNCH_STAT inductive_lvl 3
BRUNCH_STAT max_depth 7
BRUNCH_STAT cex_depth 0
(:SPACER-inductive-level               3
 :SPACER-max-depth                     7
 :SPACER-max-query-lvl                 7
 :SPACER-num-invariants                127
 :SPACER-num-lemmas                    156
 :SPACER-num-properties                128
 :SPACER-num-queries                   148
 :SPACER-num-reach-queries             1
 :SPACER-num-reuse-reach-facts         276
 :added-eqs                            60640
 :arith-add-rows                       30852
 :arith-assert-diseq                   18087
 :arith-assert-lower                   38671
 :arith-assert-upper                   38311
 :arith-bound-prop                     2331
 :arith-conflicts                      328
 :arith-eq-adapter                     8736
 :arith-fixed-eqs                      10237
 :arith-offset-eqs                     8831
 :arith-pivots                         3191
 :bool-inductive-gen                   138
 :bool-inductive-gen-failures          486
 :conflicts                            2562
 :decisions                            34579
 :del-clause                           890
 :final-checks                         701
 :minimized-lits                       7937
 :mk-bool-var                          19471
 :mk-clause                            12374
 :num-checks                           1362
 :propagations                         551827
 :restarts                             3
 :time.itp_solver.itp_core             0.09
 :time.spacer.init_rules               0.01
 :time.spacer.init_rules.pt.init       0.00
 :time.spacer.solve                    1.25
 :time.spacer.solve.propagate          0.02
 :time.spacer.solve.pt.must_reachable  0.02
 :time.spacer.solve.reach              1.23
 :time.spacer.solve.reach.children     0.23
 :time.spacer.solve.reach.gen.bool_ind 0.37
 :time.virtual_solver.proof            0.05
 :time.virtual_solver.smt.total        0.88
 :time.virtual_solver.smt.total.sat    0.53
 :virtual_solver.checks                1362
 :virtual_solver.checks.sat            701)
BRUNCH_STAT max_query_lvl 7
BRUNCH_STAT num_queries 148
BRUNCH_STAT num_reach_queries 1
BRUNCH_STAT num_reach_reuse 276
BRUNCH_STAT inductive_lvl 3
BRUNCH_STAT max_depth 7
BRUNCH_STAT cex_depth 0

real	0m1.415s
user	0m1.352s
sys	0m0.060s
