(transform N7datalog13mk_coi_filterE...no-op 0s)
(transform N7datalog25mk_interp_tail_simplifierE...11 rules 0s)
(transform N7datalog27mk_quantifier_instantiationE...no-op 0s)
(transform N7datalog8mk_scaleE...no-op 0s)
(transform N7datalog18mk_karr_invariantsE...no-op 0s)
(transform N7datalog14mk_array_blastE...no-op 0s)
(transform N7datalog22mk_subsumption_checkerE...10 rules 0s)
(transform N7datalog12mk_bit_blastE...no-op 0s)
(transform N7datalog15mk_rule_inlinerE...no-op 0s)
(transform N7datalog13mk_coi_filterE...no-op 0s)
(transform N7datalog25mk_interp_tail_simplifierE...10 rules 0s)
(transform N7datalog22mk_subsumption_checkerE...no-op 0s)
(transform N7datalog15mk_rule_inlinerE...no-op 0s)
(transform N7datalog13mk_coi_filterE...no-op 0s)
(transform N7datalog25mk_interp_tail_simplifierE...10 rules 0s)
(transform N7datalog22mk_subsumption_checkerE...no-op 0s)
(transform N7datalog15mk_rule_inlinerE...no-op 0s)
(transform N7datalog22mk_subsumption_checkerE...no-op 0s)
(transform N7datalog15mk_rule_inlinerE...no-op 0s)
(transform N7datalog22mk_subsumption_checkerE...no-op 0s)
(transform N7datalog15mk_rule_inlinerE...no-op 0s)
(transform N7datalog22mk_subsumption_checkerE...no-op 0s)
expand: query!0 (0, 0) FAR  w(0) 1. F 0.00
(spacer::context::check_reachability :time 0.00 :before-memory 10.44 :after-memory 10.84)
Entering level 1
BRUNCH_STAT max_query_lvl 0
BRUNCH_STAT num_queries 0
BRUNCH_STAT num_reach_queries 0
BRUNCH_STAT num_reach_reuse 0
BRUNCH_STAT inductive_lvl 0
BRUNCH_STAT max_depth 1
BRUNCH_STAT cex_depth 0
expand: query!0 (1, 0) FAR  w(0) 1.
	create_child: ERR (0, 1) FAR 1 U 0.00
expand: ERR (0, 0) FAR  w(0) 1. F 0.00
expand: query!0 (1, 0) FAR  w(0) 1. F 0.00
(spacer::context::check_reachability :time 0.00 :before-memory 10.84 :after-memory 11.27)
Propagating: 0 1  ! 2 
(spacer::context::propagate :time 0.00 :before-memory 11.27 :after-memory 11.27)
Entering level 2
BRUNCH_STAT max_query_lvl 1
BRUNCH_STAT num_queries 1
BRUNCH_STAT num_reach_queries 0
BRUNCH_STAT num_reach_reuse 0
BRUNCH_STAT inductive_lvl 0
BRUNCH_STAT max_depth 2
BRUNCH_STAT cex_depth 0
expand: query!0 (2, 0) FAR  w(0) 1.
	create_child: ERR (1, 2) FAR 1 U 0.00
expand: ERR (1, 0) FAR  w(0) 1.
	create_child: MAIN (0, 2) FAR 994 U 0.00
expand: MAIN (0, 0) FAR  w(0) 994. F 0.00
expand: ERR (1, 0) FAR  w(0) 1. F 0.00
expand: query!0 (2, 0) FAR  w(0) 1. F 0.00
(spacer::context::check_reachability :time 0.00 :before-memory 11.27 :after-memory 11.76)
Propagating: 0 1 2  ! 3 
(spacer::context::propagate :time 0.00 :before-memory 11.76 :after-memory 11.76)
Entering level 3
BRUNCH_STAT max_query_lvl 2
BRUNCH_STAT num_queries 3
BRUNCH_STAT num_reach_queries 0
BRUNCH_STAT num_reach_reuse 0
BRUNCH_STAT inductive_lvl 0
BRUNCH_STAT max_depth 3
BRUNCH_STAT cex_depth 0
expand: query!0 (3, 0) FAR  w(0) 1.
	create_child: ERR (2, 3) FAR 1 U 0.00
expand: ERR (2, 0) FAR  w(0) 1.
	create_child: MAIN (1, 3) FAR 994 U 0.00
expand: MAIN (1, 0) FAR  w(0) 994.
	create_child: top_step (0, 3) FAR 1678 U 0.00
expand: top_step (0, 0) FAR  w(0) 1678. F 0.00
expand: MAIN (1, 0) FAR  w(0) 994. F 0.00
expand: ERR (2, 0) FAR  w(0) 1. F 0.00
expand: query!0 (3, 0) FAR  w(0) 1. F 0.00
(spacer::context::check_reachability :time 0.00 :before-memory 11.76 :after-memory 12.50)
Propagating: 0 1 2 3  ! 4 
(spacer::context::propagate :time 0.00 :before-memory 12.50 :after-memory 12.50)
Entering level 4
BRUNCH_STAT max_query_lvl 3
BRUNCH_STAT num_queries 6
BRUNCH_STAT num_reach_queries 0
BRUNCH_STAT num_reach_reuse 0
BRUNCH_STAT inductive_lvl 0
BRUNCH_STAT max_depth 4
BRUNCH_STAT cex_depth 0
expand: query!0 (4, 0) FAR  w(0) 1.
	create_child: ERR (3, 4) FAR 1 U 0.00
expand: ERR (3, 0) FAR  w(0) 1.
	create_child: MAIN (2, 4) FAR 994 U 0.00
expand: MAIN (2, 0) FAR  w(0) 994.
	create_child: top_step (1, 4) FAR 1678 U 0.00
expand: top_step (1, 0) FAR  w(0) 1678.
	create_child: top_reset (1, 4) FAR 3399 X 0.00
expand: top_reset (1, 0) FAR  w(0) 3399.
	create_child: Sofar_reset (0, 4) FAR 3878 U 0.00
expand: Sofar_reset (0, 0) FAR  w(0) 3878. F 0.00
expand: top_reset (1, 0) FAR  w(0) 3399. F 0.00
expand: MAIN (2, 0) FAR  w(0) 994.
	create_child: top_reset (1, 4) FAR 4592 U 0.00
expand: top_reset (1, 0) FAR  w(0) 4592. F 0.00
expand: MAIN (2, 0) FAR  w(0) 994.
	create_child: top_reset (1, 4) FAR 4730 U 0.00
expand: top_reset (1, 0) FAR  w(0) 4730.
	create_child: Age_reset (0, 4) FAR 4716 U 0.00
expand: Age_reset (0, 0) FAR  w(0) 4716. F 0.00
expand: top_reset (1, 0) FAR  w(0) 4730. F 0.00
expand: MAIN (2, 0) FAR  w(0) 994.
	create_child: top_reset (1, 4) FAR 4928 U 0.00
expand: top_reset (1, 0) FAR  w(0) 4928. F 0.00
expand: MAIN (2, 0) FAR  w(0) 994.
	create_child: top_step (1, 4) FAR 4933 U 0.00
expand: top_step (1, 0) FAR  w(0) 4933.
	create_child: Age_step (0, 4) FAR 5083 U 0.00
expand: Age_step (0, 0) FAR  w(0) 5083. F 0.00
expand: top_step (1, 0) FAR  w(0) 4933.
	create_child: Sofar_step (0, 4) FAR 5297 U 0.00
expand: Sofar_step (0, 0) FAR  w(0) 5297. F 0.00
expand: top_step (1, 0) FAR  w(0) 4933. F 0.00
expand: MAIN (2, 0) FAR  w(0) 994. F 0.00
expand: ERR (3, 0) FAR  w(0) 1. F 0.00
expand: query!0 (4, 0) FAR  w(0) 1. F 0.00
(spacer::context::check_reachability :time 0.02 :before-memory 12.50 :after-memory 16.04)
Propagating: 0 1 2 3 4  ! 5 
(spacer::context::propagate :time 0.00 :before-memory 16.04 :after-memory 16.04)
Entering level 5
BRUNCH_STAT max_query_lvl 4
BRUNCH_STAT num_queries 17
BRUNCH_STAT num_reach_queries 1
BRUNCH_STAT num_reach_reuse 11
BRUNCH_STAT inductive_lvl 0
BRUNCH_STAT max_depth 5
BRUNCH_STAT cex_depth 0
expand: query!0 (5, 0) FAR  w(0) 1.
	create_child: ERR (4, 5) FAR 1 U 0.00
expand: ERR (4, 0) FAR  w(0) 1.
	create_child: MAIN (3, 5) FAR 994 U 0.00
expand: MAIN (3, 0) FAR  w(0) 994.
	create_child: top_step (2, 5) FAR 1678 U 0.00
expand: top_step (2, 0) FAR  w(0) 1678.
	create_child: MAIN (2, 5) FAR 5527 X 0.00
expand: MAIN (2, 0) FAR  w(0) 5527.
	create_child: top_step (1, 5) FAR 5889 U 0.00
expand: top_step (1, 0) FAR  w(0) 5889.
	create_child: Sofar_step (0, 5) FAR 6054 U 0.00
expand: Sofar_step (0, 0) FAR  w(0) 6054. F 0.00
expand: top_step (1, 0) FAR  w(0) 5889. F 0.00
expand: MAIN (2, 0) FAR  w(0) 5527. F 0.00
expand: MAIN (3, 0) FAR  w(0) 994.
	create_child: top_step (2, 5) FAR 6158 U 0.00
expand: top_step (2, 0) FAR  w(0) 6158.
	create_child: MAIN (2, 5) FAR 6193 X 0.00
expand: MAIN (2, 0) FAR  w(0) 6193.
	create_child: top_step (1, 5) FAR 6345 U 0.00
expand: top_step (1, 0) FAR  w(0) 6345.
	create_child: Age_step (0, 5) FAR 6505 U 0.00
expand: Age_step (0, 0) FAR  w(0) 6505. F 0.00
expand: top_step (1, 0) FAR  w(0) 6345. F 0.00
expand: MAIN (2, 0) FAR  w(0) 6193. F 0.00
expand: MAIN (3, 0) FAR  w(0) 994.
	create_child: MAIN (2, 5) FAR 6839 U 0.00
expand: MAIN (2, 0) FAR  w(0) 6839.
	create_child: top_step (1, 5) FAR 6767 U 0.00
expand: top_step (1, 0) FAR  w(0) 6767. F 0.00
expand: MAIN (2, 0) FAR  w(0) 6839. F 0.00
expand: MAIN (3, 0) FAR  w(0) 994.
	create_child: MAIN (2, 5) FAR 6938 U 0.00
expand: MAIN (2, 0) FAR  w(0) 6938.
	create_child: top_step (1, 5) FAR 6963 U 0.00
expand: top_step (1, 0) FAR  w(0) 6963. F 0.00
expand: MAIN (2, 0) FAR  w(0) 6938. F 0.00
expand: MAIN (3, 0) FAR  w(0) 994.
	create_child: top_step (2, 5) FAR 7205 U 0.00
expand: top_step (2, 0) FAR  w(0) 7205.
	create_child: Age_step (1, 5) FAR 7392 U 0.00
expand: Age_step (1, 0) FAR  w(0) 7392. F 0.00
expand: top_step (2, 0) FAR  w(0) 7205.
	create_child: Age_step (1, 5) FAR 7434 U 0.00
expand: Age_step (1, 0) FAR  w(0) 7434.
	create_child: Sofar_step (1, 5) FAR 7713 X 0.00
expand: Sofar_step (1, 0) FAR  w(0) 7713. F 0.00
expand: top_step (2, 0) FAR  w(0) 7205. F 0.00
expand: MAIN (3, 0) FAR  w(0) 994.
	create_child: top_step (2, 5) FAR 7798 U 0.00
expand: top_step (2, 0) FAR  w(0) 7798. F 0.00
expand: MAIN (3, 0) FAR  w(0) 994. F 0.00
expand: ERR (4, 0) FAR  w(0) 1. F 0.00
expand: query!0 (5, 0) FAR  w(0) 1. F 0.00
(spacer::context::check_reachability :time 0.05 :before-memory 16.04 :after-memory 17.13)
Propagating: 0 1 2 3 4 5  ! 6 
(spacer::context::propagate :time 0.00 :before-memory 17.13 :after-memory 17.22)
Entering level 6
BRUNCH_STAT max_query_lvl 5
BRUNCH_STAT num_queries 33
BRUNCH_STAT num_reach_queries 1
BRUNCH_STAT num_reach_reuse 20
BRUNCH_STAT inductive_lvl 0
BRUNCH_STAT max_depth 6
BRUNCH_STAT cex_depth 0
expand: query!0 (6, 0) FAR  w(0) 1.
	create_child: ERR (5, 6) FAR 1 U 0.00
expand: ERR (5, 0) FAR  w(0) 1.
	create_child: MAIN (4, 6) FAR 994 U 0.00
expand: MAIN (4, 0) FAR  w(0) 994.
	create_child: MAIN (3, 6) FAR 8381 U 0.00
expand: MAIN (3, 0) FAR  w(0) 8381.
	create_child: top_step (2, 6) FAR 8420 U 0.00
expand: top_step (2, 0) FAR  w(0) 8420. F 0.00
expand: MAIN (3, 0) FAR  w(0) 8381. F 0.00
expand: MAIN (4, 0) FAR  w(0) 994.
	create_child: MAIN (3, 6) FAR 8884 U 0.00
expand: MAIN (3, 0) FAR  w(0) 8884.
	create_child: top_step (2, 6) FAR 8843 U 0.00
expand: top_step (2, 0) FAR  w(0) 8843.
	create_child: Age_step (1, 6) FAR 8930 U 0.00
expand: Age_step (1, 0) FAR  w(0) 8930. F 0.00
expand: top_step (2, 0) FAR  w(0) 8843. F 0.00
expand: MAIN (3, 0) FAR  w(0) 8884. F 0.00
expand: MAIN (4, 0) FAR  w(0) 994.
	create_child: MAIN (3, 6) FAR 6938 U 0.00
expand: MAIN (3, 0) FAR  w(0) 6938.
	create_child: MAIN (2, 6) FAR 9158 U 0.00
expand: MAIN (2, 0) FAR  w(0) 9158.
	create_child: top_step (1, 6) FAR 9253 U 0.00
expand: top_step (1, 0) FAR  w(0) 9253. F 0.00
expand: MAIN (2, 0) FAR  w(0) 9158. F 0.00
expand: MAIN (3, 0) FAR  w(0) 6938.
	create_child: MAIN (2, 6) FAR 9507 U 0.00
expand: MAIN (2, 0) FAR  w(0) 9507.
	create_child: top_step (1, 6) FAR 9342 U 0.00
expand: top_step (1, 0) FAR  w(0) 9342. F 0.00
expand: MAIN (2, 0) FAR  w(0) 9507. F 0.00
expand: MAIN (3, 0) FAR  w(0) 6938.
	create_child: MAIN (2, 6) FAR 9723 U 0.00
expand: MAIN (2, 0) FAR  w(0) 9723.
	create_child: top_step (1, 6) FAR 9694 U 0.00
expand: top_step (1, 0) FAR  w(0) 9694. F 0.00
expand: MAIN (2, 0) FAR  w(0) 9723. F 0.00
expand: MAIN (3, 0) FAR  w(0) 6938.
	create_child: top_step (2, 6) FAR 9821 U 0.00
expand: top_step (2, 0) FAR  w(0) 9821. F 0.00
expand: MAIN (3, 0) FAR  w(0) 6938.
	create_child: top_step (2, 6) FAR 9922 U 0.00
expand: top_step (2, 0) FAR  w(0) 9922. F 0.00
expand: MAIN (3, 0) FAR  w(0) 6938. F 0.00
expand: MAIN (4, 0) FAR  w(0) 994.
	create_child: MAIN (3, 6) FAR 10194 U 0.00
expand: MAIN (3, 0) FAR  w(0) 10194.
	create_child: top_step (2, 6) FAR 10229 U 0.00
expand: top_step (2, 0) FAR  w(0) 10229. F 0.00
expand: MAIN (3, 0) FAR  w(0) 10194.
	create_child: top_step (2, 6) FAR 10235 U 0.00
expand: top_step (2, 0) FAR  w(0) 10235. F 0.00
expand: MAIN (3, 0) FAR  w(0) 10194. F 0.00
expand: MAIN (4, 0) FAR  w(0) 994.
	create_child: top_step (3, 6) FAR 10379 U 0.00
expand: top_step (3, 0) FAR  w(0) 10379. F 0.00
expand: MAIN (4, 0) FAR  w(0) 994. F 0.00
expand: ERR (5, 0) FAR  w(0) 1. F 0.00
expand: query!0 (6, 0) FAR  w(0) 1. F 0.00
(spacer::context::check_reachability :time 0.06 :before-memory 17.22 :after-memory 17.62)
Propagating: 1 2 3 4 5 6  ! 7 
(spacer::context::propagate :time 0.00 :before-memory 17.62 :after-memory 17.62)
Entering level 7
BRUNCH_STAT max_query_lvl 6
BRUNCH_STAT num_queries 53
BRUNCH_STAT num_reach_queries 1
BRUNCH_STAT num_reach_reuse 29
BRUNCH_STAT inductive_lvl 0
BRUNCH_STAT max_depth 7
BRUNCH_STAT cex_depth 0
expand: query!0 (7, 0) FAR  w(0) 1.
	create_child: ERR (6, 7) FAR 1 U 0.00
expand: ERR (6, 0) FAR  w(0) 1.
	create_child: MAIN (5, 7) FAR 994 U 0.00
expand: MAIN (5, 0) FAR  w(0) 994.
	create_child: MAIN (4, 7) FAR 10897 U 0.00
expand: MAIN (4, 0) FAR  w(0) 10897.
	create_child: MAIN (3, 7) FAR 10882 U 0.00
expand: MAIN (3, 0) FAR  w(0) 10882.
	create_child: MAIN (2, 7) FAR 10930 U 0.00
expand: MAIN (2, 0) FAR  w(0) 10930.
	create_child: top_reset (1, 7) FAR 11028 U 0.00
expand: top_reset (1, 0) FAR  w(0) 11028. T 0.00
is-reachable: MAIN (2, 0) FAR 10930 T 0.00
is-reachable: MAIN (3, 0) FAR 10882 T 0.00
is-reachable: MAIN (4, 0) FAR 10897 T 0.00
is-reachable: MAIN (5, 0) FAR 994 T 0.00
is-reachable: ERR (6, 0) FAR 1 T 0.00
is-reachable: query!0 (7, 0) FAR 1 T 0.00
(spacer::context::check_reachability :time 0.02 :before-memory 17.62 :after-memory 18.43)
BRUNCH_STAT max_query_lvl 7
BRUNCH_STAT num_queries 59
BRUNCH_STAT num_reach_queries 8
BRUNCH_STAT num_reach_reuse 36
BRUNCH_STAT inductive_lvl 0
BRUNCH_STAT max_depth 7
BRUNCH_STAT cex_depth 7
(:SPACER-cex-depth                     7
 :SPACER-max-depth                     7
 :SPACER-max-query-lvl                 7
 :SPACER-num-invariants                33
 :SPACER-num-lemmas                    60
 :SPACER-num-properties                44
 :SPACER-num-queries                   59
 :SPACER-num-reach-queries             8
 :SPACER-num-reuse-reach-facts         36
 :added-eqs                            4205
 :arith-add-rows                       2891
 :arith-assert-diseq                   234
 :arith-assert-lower                   2903
 :arith-assert-upper                   2154
 :arith-bound-prop                     224
 :arith-conflicts                      63
 :arith-eq-adapter                     976
 :arith-fixed-eqs                      741
 :arith-offset-eqs                     732
 :arith-pivots                         566
 :bool-inductive-gen                   44
 :bool-inductive-gen-failures          90
 :conflicts                            353
 :decisions                            6239
 :del-clause                           306
 :final-checks                         180
 :minimized-lits                       69
 :mk-bool-var                          4050
 :mk-clause                            2320
 :num-checks                           448
 :propagations                         33184
 :time.itp_solver.itp_core             0.01
 :time.spacer.init_rules               0.01
 :time.spacer.init_rules.pt.init       0.00
 :time.spacer.solve                    0.16
 :time.spacer.solve.propagate          0.01
 :time.spacer.solve.pt.must_reachable  0.00
 :time.spacer.solve.reach              0.15
 :time.spacer.solve.reach.children     0.03
 :time.spacer.solve.reach.gen.bool_ind 0.02
 :time.spacer.solve.reach.is-reach     0.01
 :time.virtual_solver.proof            0.01
 :time.virtual_solver.smt.total        0.10
 :time.virtual_solver.smt.total.sat    0.05
 :virtual_solver.checks                448
 :virtual_solver.checks.sat            180)
BRUNCH_STAT max_query_lvl 7
BRUNCH_STAT num_queries 59
BRUNCH_STAT num_reach_queries 8
BRUNCH_STAT num_reach_reuse 36
BRUNCH_STAT inductive_lvl 0
BRUNCH_STAT max_depth 7
BRUNCH_STAT cex_depth 7

real	0m0.204s
user	0m0.196s
sys	0m0.004s
