(transform N7datalog13mk_coi_filterE...no-op 0s)
(transform N7datalog25mk_interp_tail_simplifierE...11 rules 0s)
(transform N7datalog27mk_quantifier_instantiationE...no-op 0s)
(transform N7datalog8mk_scaleE...no-op 0s)
(transform N7datalog18mk_karr_invariantsE...no-op 0s)
(transform N7datalog14mk_array_blastE...no-op 0s)
(transform N7datalog22mk_subsumption_checkerE...10 rules 0s)
(transform N7datalog12mk_bit_blastE...no-op 0s)
(transform N7datalog15mk_rule_inlinerE...no-op 0s)
(transform N7datalog13mk_coi_filterE...no-op 0s)
(transform N7datalog25mk_interp_tail_simplifierE...10 rules 0s)
(transform N7datalog22mk_subsumption_checkerE...no-op 0s)
(transform N7datalog15mk_rule_inlinerE...no-op 0s)
(transform N7datalog13mk_coi_filterE...no-op 0s)
(transform N7datalog25mk_interp_tail_simplifierE...10 rules 0s)
(transform N7datalog22mk_subsumption_checkerE...no-op 0s)
(transform N7datalog15mk_rule_inlinerE...no-op 0s)
(transform N7datalog22mk_subsumption_checkerE...no-op 0s)
(transform N7datalog15mk_rule_inlinerE...no-op 0s)
(transform N7datalog22mk_subsumption_checkerE...no-op 0s)
(transform N7datalog15mk_rule_inlinerE...no-op 0s)
(transform N7datalog22mk_subsumption_checkerE...no-op 0s)
expand: query!0 (0, 0) FAR  w(0) 1. F 0.00
(spacer::context::check_reachability :time 0.00 :before-memory 10.34 :after-memory 10.82)
Entering level 1
BRUNCH_STAT max_query_lvl 0
BRUNCH_STAT num_queries 0
BRUNCH_STAT num_reach_queries 0
BRUNCH_STAT num_reach_reuse 0
BRUNCH_STAT inductive_lvl 0
BRUNCH_STAT max_depth 1
BRUNCH_STAT cex_depth 0
expand: query!0 (1, 0) FAR  w(0) 1.
	create_child: ERR (0, 1) FAR 1 U 0.00
expand: ERR (0, 0) FAR  w(0) 1. F 0.00
expand: query!0 (1, 0) FAR  w(0) 1. F 0.00
(spacer::context::check_reachability :time 0.00 :before-memory 10.82 :after-memory 11.29)
Propagating: 0 1  ! 2 
(spacer::context::propagate :time 0.00 :before-memory 11.29 :after-memory 11.29)
Entering level 2
BRUNCH_STAT max_query_lvl 1
BRUNCH_STAT num_queries 1
BRUNCH_STAT num_reach_queries 0
BRUNCH_STAT num_reach_reuse 0
BRUNCH_STAT inductive_lvl 0
BRUNCH_STAT max_depth 2
BRUNCH_STAT cex_depth 0
expand: query!0 (2, 0) FAR  w(0) 1.
	create_child: ERR (1, 2) FAR 1 U 0.00
expand: ERR (1, 0) FAR  w(0) 1.
	create_child: MAIN (0, 2) FAR 1035 U 0.00
expand: MAIN (0, 0) FAR  w(0) 1035. F 0.00
expand: ERR (1, 0) FAR  w(0) 1. F 0.00
expand: query!0 (2, 0) FAR  w(0) 1. F 0.00
(spacer::context::check_reachability :time 0.00 :before-memory 11.29 :after-memory 11.75)
Propagating: 0 1 2  ! 3 
(spacer::context::propagate :time 0.00 :before-memory 11.75 :after-memory 11.75)
Entering level 3
BRUNCH_STAT max_query_lvl 2
BRUNCH_STAT num_queries 3
BRUNCH_STAT num_reach_queries 0
BRUNCH_STAT num_reach_reuse 0
BRUNCH_STAT inductive_lvl 0
BRUNCH_STAT max_depth 3
BRUNCH_STAT cex_depth 0
expand: query!0 (3, 0) FAR  w(0) 1.
	create_child: ERR (2, 3) FAR 1 U 0.00
expand: ERR (2, 0) FAR  w(0) 1.
	create_child: MAIN (1, 3) FAR 1035 U 0.00
expand: MAIN (1, 0) FAR  w(0) 1035.
	create_child: top_step (0, 3) FAR 1719 U 0.00
expand: top_step (0, 0) FAR  w(0) 1719. F 0.00
expand: MAIN (1, 0) FAR  w(0) 1035. F 0.00
expand: ERR (2, 0) FAR  w(0) 1. F 0.00
expand: query!0 (3, 0) FAR  w(0) 1. F 0.00
(spacer::context::check_reachability :time 0.00 :before-memory 11.75 :after-memory 12.46)
Propagating: 0 1 2 3  ! 4 
(spacer::context::propagate :time 0.00 :before-memory 12.46 :after-memory 12.46)
Entering level 4
BRUNCH_STAT max_query_lvl 3
BRUNCH_STAT num_queries 6
BRUNCH_STAT num_reach_queries 0
BRUNCH_STAT num_reach_reuse 0
BRUNCH_STAT inductive_lvl 0
BRUNCH_STAT max_depth 4
BRUNCH_STAT cex_depth 0
expand: query!0 (4, 0) FAR  w(0) 1.
	create_child: ERR (3, 4) FAR 1 U 0.00
expand: ERR (3, 0) FAR  w(0) 1.
	create_child: MAIN (2, 4) FAR 1035 U 0.00
expand: MAIN (2, 0) FAR  w(0) 1035.
	create_child: top_step (1, 4) FAR 1719 U 0.00
expand: top_step (1, 0) FAR  w(0) 1719.
	create_child: top_reset (1, 4) FAR 3558 X 0.00
expand: top_reset (1, 0) FAR  w(0) 3558. F 0.00
expand: MAIN (2, 0) FAR  w(0) 1035.
	create_child: top_step (1, 4) FAR 4721 U 0.00
expand: top_step (1, 0) FAR  w(0) 4721. F 0.00
expand: MAIN (2, 0) FAR  w(0) 1035. F 0.00
expand: ERR (3, 0) FAR  w(0) 1. F 0.00
expand: query!0 (4, 0) FAR  w(0) 1. F 0.00
(spacer::context::check_reachability :time 0.01 :before-memory 12.46 :after-memory 13.89)
Propagating: 1 2 3 4  ! 5 
(spacer::context::propagate :time 0.00 :before-memory 13.89 :after-memory 13.89)
Entering level 5
BRUNCH_STAT max_query_lvl 4
BRUNCH_STAT num_queries 10
BRUNCH_STAT num_reach_queries 1
BRUNCH_STAT num_reach_reuse 3
BRUNCH_STAT inductive_lvl 0
BRUNCH_STAT max_depth 5
BRUNCH_STAT cex_depth 0
expand: query!0 (5, 0) FAR  w(0) 1.
	create_child: ERR (4, 5) FAR 1 U 0.00
expand: ERR (4, 0) FAR  w(0) 1.
	create_child: MAIN (3, 5) FAR 1035 U 0.00
expand: MAIN (3, 0) FAR  w(0) 1035.
	create_child: MAIN (2, 5) FAR 5068 U 0.00
expand: MAIN (2, 0) FAR  w(0) 5068.
	create_child: top_reset (1, 5) FAR 5137 U 0.00
expand: top_reset (1, 0) FAR  w(0) 5137.
	create_child: Sofar_reset (0, 5) FAR 5117 U 0.00
expand: Sofar_reset (0, 0) FAR  w(0) 5117. F 0.00
expand: top_reset (1, 0) FAR  w(0) 5137. F 0.00
expand: MAIN (2, 0) FAR  w(0) 5068.
	create_child: top_reset (1, 5) FAR 5302 U 0.00
expand: top_reset (1, 0) FAR  w(0) 5302.
	create_child: Age_reset (0, 5) FAR 5276 U 0.00
expand: Age_reset (0, 0) FAR  w(0) 5276. F 0.00
expand: top_reset (1, 0) FAR  w(0) 5302. F 0.00
expand: MAIN (2, 0) FAR  w(0) 5068.
	create_child: top_reset (1, 5) FAR 5531 U 0.00
expand: top_reset (1, 0) FAR  w(0) 5531. F 0.00
expand: MAIN (2, 0) FAR  w(0) 5068.
	create_child: top_reset (1, 5) FAR 5550 U 0.00
expand: top_reset (1, 0) FAR  w(0) 5550. T 0.00
is-reachable: MAIN (2, 0) FAR 5068 T 0.00
is-reachable: MAIN (3, 0) FAR 1035 T 0.00
is-reachable: ERR (4, 0) FAR 1 T 0.00
is-reachable: query!0 (5, 0) FAR 1 T 0.00
(spacer::context::check_reachability :time 0.02 :before-memory 13.89 :after-memory 15.38)
BRUNCH_STAT max_query_lvl 5
BRUNCH_STAT num_queries 19
BRUNCH_STAT num_reach_queries 6
BRUNCH_STAT num_reach_reuse 12
BRUNCH_STAT inductive_lvl 0
BRUNCH_STAT max_depth 5
BRUNCH_STAT cex_depth 5
(:SPACER-cex-depth                     5
 :SPACER-max-depth                     5
 :SPACER-max-query-lvl                 5
 :SPACER-num-invariants                7
 :SPACER-num-lemmas                    20
 :SPACER-num-properties                12
 :SPACER-num-queries                   19
 :SPACER-num-reach-queries             6
 :SPACER-num-reuse-reach-facts         12
 :added-eqs                            400
 :arith-add-rows                       136
 :arith-assert-diseq                   21
 :arith-assert-lower                   132
 :arith-assert-upper                   168
 :arith-bound-prop                     20
 :arith-conflicts                      2
 :arith-eq-adapter                     76
 :arith-fixed-eqs                      36
 :arith-offset-eqs                     63
 :arith-pivots                         73
 :bool-inductive-gen                   8
 :bool-inductive-gen-failures          9
 :conflicts                            70
 :decisions                            462
 :del-clause                           43
 :final-checks                         41
 :mk-bool-var                          1117
 :mk-clause                            1267
 :num-checks                           99
 :propagations                         3193
 :time.itp_solver.itp_core             0.00
 :time.spacer.init_rules               0.01
 :time.spacer.init_rules.pt.init       0.00
 :time.spacer.solve                    0.04
 :time.spacer.solve.propagate          0.00
 :time.spacer.solve.pt.must_reachable  0.00
 :time.spacer.solve.reach              0.03
 :time.spacer.solve.reach.children     0.01
 :time.spacer.solve.reach.gen.bool_ind 0.00
 :time.spacer.solve.reach.is-reach     0.00
 :time.virtual_solver.proof            0.00
 :time.virtual_solver.smt.total        0.02
 :time.virtual_solver.smt.total.sat    0.01
 :virtual_solver.checks                99
 :virtual_solver.checks.sat            41)
BRUNCH_STAT max_query_lvl 5
BRUNCH_STAT num_queries 19
BRUNCH_STAT num_reach_queries 6
BRUNCH_STAT num_reach_reuse 12
BRUNCH_STAT inductive_lvl 0
BRUNCH_STAT max_depth 5
BRUNCH_STAT cex_depth 5

real	0m0.067s
user	0m0.056s
sys	0m0.008s
