(transform N7datalog13mk_coi_filterE...no-op 0s)
(transform N7datalog25mk_interp_tail_simplifierE...11 rules 0s)
(transform N7datalog27mk_quantifier_instantiationE...no-op 0s)
(transform N7datalog8mk_scaleE...no-op 0s)
(transform N7datalog18mk_karr_invariantsE...no-op 0s)
(transform N7datalog14mk_array_blastE...no-op 0s)
(transform N7datalog22mk_subsumption_checkerE...10 rules 0s)
(transform N7datalog12mk_bit_blastE...no-op 0s)
(transform N7datalog15mk_rule_inlinerE...no-op 0s)
(transform N7datalog13mk_coi_filterE...no-op 0s)
(transform N7datalog25mk_interp_tail_simplifierE...10 rules 0s)
(transform N7datalog22mk_subsumption_checkerE...no-op 0s)
(transform N7datalog15mk_rule_inlinerE...no-op 0s)
(transform N7datalog13mk_coi_filterE...no-op 0s)
(transform N7datalog25mk_interp_tail_simplifierE...10 rules 0s)
(transform N7datalog22mk_subsumption_checkerE...no-op 0s)
(transform N7datalog15mk_rule_inlinerE...no-op 0s)
(transform N7datalog22mk_subsumption_checkerE...no-op 0s)
(transform N7datalog15mk_rule_inlinerE...no-op 0s)
(transform N7datalog22mk_subsumption_checkerE...no-op 0s)
(transform N7datalog15mk_rule_inlinerE...no-op 0s)
(transform N7datalog22mk_subsumption_checkerE...no-op 0s)
expand: query!0 (0, 0) FAR  w(0) 1. F 0.00
(spacer::context::check_reachability :time 0.00 :before-memory 10.44 :after-memory 10.84)
Entering level 1
BRUNCH_STAT max_query_lvl 0
BRUNCH_STAT num_queries 0
BRUNCH_STAT num_reach_queries 0
BRUNCH_STAT num_reach_reuse 0
BRUNCH_STAT inductive_lvl 0
BRUNCH_STAT max_depth 1
BRUNCH_STAT cex_depth 0
expand: query!0 (1, 0) FAR  w(0) 1.
	create_child: ERR (0, 1) FAR 1 U 0.00
expand: ERR (0, 0) FAR  w(0) 1. F 0.00
expand: query!0 (1, 0) FAR  w(0) 1. F 0.00
(spacer::context::check_reachability :time 0.00 :before-memory 10.84 :after-memory 11.27)
Propagating: 0 1  ! 2 
(spacer::context::propagate :time 0.00 :before-memory 11.27 :after-memory 11.27)
Entering level 2
BRUNCH_STAT max_query_lvl 1
BRUNCH_STAT num_queries 1
BRUNCH_STAT num_reach_queries 0
BRUNCH_STAT num_reach_reuse 0
BRUNCH_STAT inductive_lvl 0
BRUNCH_STAT max_depth 2
BRUNCH_STAT cex_depth 0
expand: query!0 (2, 0) FAR  w(0) 1.
	create_child: ERR (1, 2) FAR 1 U 0.00
expand: ERR (1, 0) FAR  w(0) 1.
	create_child: MAIN (0, 2) FAR 1001 U 0.00
expand: MAIN (0, 0) FAR  w(0) 1001. F 0.00
expand: ERR (1, 0) FAR  w(0) 1. F 0.00
expand: query!0 (2, 0) FAR  w(0) 1. F 0.00
(spacer::context::check_reachability :time 0.00 :before-memory 11.27 :after-memory 11.76)
Propagating: 0 1 2  ! 3 
(spacer::context::propagate :time 0.00 :before-memory 11.76 :after-memory 11.76)
Entering level 3
BRUNCH_STAT max_query_lvl 2
BRUNCH_STAT num_queries 3
BRUNCH_STAT num_reach_queries 0
BRUNCH_STAT num_reach_reuse 0
BRUNCH_STAT inductive_lvl 0
BRUNCH_STAT max_depth 3
BRUNCH_STAT cex_depth 0
expand: query!0 (3, 0) FAR  w(0) 1.
	create_child: ERR (2, 3) FAR 1 U 0.00
expand: ERR (2, 0) FAR  w(0) 1.
	create_child: MAIN (1, 3) FAR 1001 U 0.00
expand: MAIN (1, 0) FAR  w(0) 1001.
	create_child: top_step (0, 3) FAR 1685 U 0.00
expand: top_step (0, 0) FAR  w(0) 1685. F 0.00
expand: MAIN (1, 0) FAR  w(0) 1001. F 0.00
expand: ERR (2, 0) FAR  w(0) 1. F 0.00
expand: query!0 (3, 0) FAR  w(0) 1. F 0.00
(spacer::context::check_reachability :time 0.00 :before-memory 11.76 :after-memory 12.50)
Propagating: 0 1 2 3  ! 4 
(spacer::context::propagate :time 0.00 :before-memory 12.50 :after-memory 12.50)
Entering level 4
BRUNCH_STAT max_query_lvl 3
BRUNCH_STAT num_queries 6
BRUNCH_STAT num_reach_queries 0
BRUNCH_STAT num_reach_reuse 0
BRUNCH_STAT inductive_lvl 0
BRUNCH_STAT max_depth 4
BRUNCH_STAT cex_depth 0
expand: query!0 (4, 0) FAR  w(0) 1.
	create_child: ERR (3, 4) FAR 1 U 0.00
expand: ERR (3, 0) FAR  w(0) 1.
	create_child: MAIN (2, 4) FAR 1001 U 0.00
expand: MAIN (2, 0) FAR  w(0) 1001.
	create_child: top_step (1, 4) FAR 1685 U 0.00
expand: top_step (1, 0) FAR  w(0) 1685.
	create_child: top_reset (1, 4) FAR 3386 X 0.00
expand: top_reset (1, 0) FAR  w(0) 3386. F 0.00
expand: MAIN (2, 0) FAR  w(0) 1001.
	create_child: top_reset (1, 4) FAR 4646 U 0.00
expand: top_reset (1, 0) FAR  w(0) 4646.
	create_child: Sofar_reset (0, 4) FAR 4633 U 0.00
expand: Sofar_reset (0, 0) FAR  w(0) 4633. F 0.00
expand: top_reset (1, 0) FAR  w(0) 4646. F 0.00
expand: MAIN (2, 0) FAR  w(0) 1001.
	create_child: top_reset (1, 4) FAR 4851 U 0.00
expand: top_reset (1, 0) FAR  w(0) 4851.
	create_child: Age_reset (0, 4) FAR 4802 U 0.00
expand: Age_reset (0, 0) FAR  w(0) 4802. F 0.00
expand: top_reset (1, 0) FAR  w(0) 4851. F 0.00
expand: MAIN (2, 0) FAR  w(0) 1001.
	create_child: top_reset (1, 4) FAR 5018 U 0.00
expand: top_reset (1, 0) FAR  w(0) 5018. F 0.00
expand: MAIN (2, 0) FAR  w(0) 1001.
	create_child: top_step (1, 4) FAR 5006 U 0.00
expand: top_step (1, 0) FAR  w(0) 5006.
	create_child: Age_step (0, 4) FAR 5133 U 0.00
expand: Age_step (0, 0) FAR  w(0) 5133. F 0.00
expand: top_step (1, 0) FAR  w(0) 5006.
	create_child: Sofar_step (0, 4) FAR 5410 U 0.00
expand: Sofar_step (0, 0) FAR  w(0) 5410. F 0.00
expand: top_step (1, 0) FAR  w(0) 5006. F 0.00
expand: MAIN (2, 0) FAR  w(0) 1001. F 0.00
expand: ERR (3, 0) FAR  w(0) 1. F 0.00
expand: query!0 (4, 0) FAR  w(0) 1. F 0.00
(spacer::context::check_reachability :time 0.02 :before-memory 12.50 :after-memory 16.02)
Propagating: 0 1 2 3 4  ! 5 
(spacer::context::propagate :time 0.00 :before-memory 16.02 :after-memory 16.02)
Entering level 5
BRUNCH_STAT max_query_lvl 4
BRUNCH_STAT num_queries 17
BRUNCH_STAT num_reach_queries 1
BRUNCH_STAT num_reach_reuse 11
BRUNCH_STAT inductive_lvl 0
BRUNCH_STAT max_depth 5
BRUNCH_STAT cex_depth 0
expand: query!0 (5, 0) FAR  w(0) 1.
	create_child: ERR (4, 5) FAR 1 U 0.00
expand: ERR (4, 0) FAR  w(0) 1.
	create_child: MAIN (3, 5) FAR 1001 U 0.00
expand: MAIN (3, 0) FAR  w(0) 1001.
	create_child: MAIN (2, 5) FAR 5901 U 0.00
expand: MAIN (2, 0) FAR  w(0) 5901.
	create_child: top_step (1, 5) FAR 6016 U 0.00
expand: top_step (1, 0) FAR  w(0) 6016.
	create_child: Age_step (0, 5) FAR 6219 U 0.00
expand: Age_step (0, 0) FAR  w(0) 6219. F 0.00
expand: top_step (1, 0) FAR  w(0) 6016. F 0.00
expand: MAIN (2, 0) FAR  w(0) 5901. F 0.00
expand: MAIN (3, 0) FAR  w(0) 1001.
	create_child: MAIN (2, 5) FAR 6294 U 0.00
expand: MAIN (2, 0) FAR  w(0) 6294.
	create_child: top_step (1, 5) FAR 6345 U 0.00
expand: top_step (1, 0) FAR  w(0) 6345.
	create_child: Age_step (0, 5) FAR 6534 U 0.00
expand: Age_step (0, 0) FAR  w(0) 6534. F 0.00
expand: top_step (1, 0) FAR  w(0) 6345. F 0.00
expand: MAIN (2, 0) FAR  w(0) 6294. F 0.00
expand: MAIN (3, 0) FAR  w(0) 1001.
	create_child: top_step (2, 5) FAR 6625 U 0.00
expand: top_step (2, 0) FAR  w(0) 6625.
	create_child: Age_step (1, 5) FAR 6987 U 0.00
expand: Age_step (1, 0) FAR  w(0) 6987. F 0.00
expand: top_step (2, 0) FAR  w(0) 6625. F 0.00
expand: MAIN (3, 0) FAR  w(0) 1001. F 0.00
expand: ERR (4, 0) FAR  w(0) 1. F 0.00
expand: query!0 (5, 0) FAR  w(0) 1. F 0.00
(spacer::context::check_reachability :time 0.02 :before-memory 16.02 :after-memory 16.41)
Propagating: 0 1 2 3 4 5  ! 6 
(spacer::context::propagate :time 0.00 :before-memory 16.41 :after-memory 16.41)
Entering level 6
BRUNCH_STAT max_query_lvl 5
BRUNCH_STAT num_queries 27
BRUNCH_STAT num_reach_queries 1
BRUNCH_STAT num_reach_reuse 17
BRUNCH_STAT inductive_lvl 0
BRUNCH_STAT max_depth 6
BRUNCH_STAT cex_depth 0
expand: query!0 (6, 0) FAR  w(0) 1.
	create_child: ERR (5, 6) FAR 1 U 0.00
expand: ERR (5, 0) FAR  w(0) 1.
	create_child: MAIN (4, 6) FAR 1001 U 0.00
expand: MAIN (4, 0) FAR  w(0) 1001.
	create_child: MAIN (3, 6) FAR 7381 U 0.00
expand: MAIN (3, 0) FAR  w(0) 7381.
	create_child: top_step (2, 6) FAR 7429 U 0.00
expand: top_step (2, 0) FAR  w(0) 7429. F 0.00
expand: MAIN (3, 0) FAR  w(0) 7381. F 0.00
expand: MAIN (4, 0) FAR  w(0) 1001.
	create_child: MAIN (3, 6) FAR 7552 U 0.00
expand: MAIN (3, 0) FAR  w(0) 7552.
	create_child: top_step (2, 6) FAR 7562 U 0.00
expand: top_step (2, 0) FAR  w(0) 7562. F 0.00
expand: MAIN (3, 0) FAR  w(0) 7552. F 0.00
expand: MAIN (4, 0) FAR  w(0) 1001. F 0.00
expand: ERR (5, 0) FAR  w(0) 1. F 0.00
expand: query!0 (6, 0) FAR  w(0) 1. F 0.00
(spacer::context::check_reachability :time 0.01 :before-memory 16.41 :after-memory 16.50)
Propagating: 2 
(spacer::context::propagate :time 0.00 :before-memory 16.50 :after-memory 16.50)
(define-fun ERR () Bool
  false)
(define-fun MAIN ((x!0 Int)
 (x!1 Int)
 (x!2 Bool)
 (x!3 Bool)
 (x!4 Bool)
 (x!5 Int)
 (x!6 Bool)
 (x!7 Bool)
 (x!8 Int)
 (x!9 Bool)
 (x!10 Bool)
 (x!11 Bool)) Bool
  (and (not (>= x!5 4)) x!11 (not x!9) (not x!10)))
(define-fun Sofar_reset ((x!0 Bool) (x!1 Bool) (x!2 Bool) (x!3 Bool)) Bool
  x!3)
(define-fun top_reset ((x!0 Int)
 (x!1 Int)
 (x!2 Bool)
 (x!3 Bool)
 (x!4 Bool)
 (x!5 Int)
 (x!6 Bool)
 (x!7 Bool)
 (x!8 Int)
 (x!9 Bool)
 (x!10 Bool)
 (x!11 Int)
 (x!12 Int)
 (x!13 Bool)
 (x!14 Bool)
 (x!15 Bool)
 (x!16 Int)
 (x!17 Bool)
 (x!18 Bool)
 (x!19 Int)
 (x!20 Bool)
 (x!21 Bool)) Bool
  (and x!21 x!14 x!17 x!20))
(define-fun Age_reset ((x!0 Bool)
 (x!1 Int)
 (x!2 Bool)
 (x!3 Bool)
 (x!4 Int)
 (x!5 Bool)) Bool
  x!5)
(define-fun Age_step ((x!0 Bool)
 (x!1 Int)
 (x!2 Bool)
 (x!3 Int)
 (x!4 Bool)
 (x!5 Bool)
 (x!6 Int)
 (x!7 Bool)) Bool
  (let ((a!1 (not (<= (+ x!3 (* (- 1) x!1)) 1))))
    (and (or a!1 (= x!1 0))
         (not x!7)
         (or (<= x!1 0) (not x!4))
         (>= (+ x!1 (* (- 1) x!6)) 0))))
(define-fun Sofar_step ((x!0 Bool)
 (x!1 Bool)
 (x!2 Bool)
 (x!3 Bool)
 (x!4 Bool)
 (x!5 Bool)) Bool
  (or (not x!1) x!0))
(define-fun top_step ((x!0 Int)
 (x!1 Int)
 (x!2 Bool)
 (x!3 Bool)
 (x!4 Bool)
 (x!5 Int)
 (x!6 Int)
 (x!7 Bool)
 (x!8 Bool)
 (x!9 Bool)
 (x!10 Int)
 (x!11 Bool)
 (x!12 Bool)
 (x!13 Int)
 (x!14 Bool)
 (x!15 Bool)
 (x!16 Int)
 (x!17 Int)
 (x!18 Bool)
 (x!19 Bool)
 (x!20 Bool)
 (x!21 Int)
 (x!22 Bool)
 (x!23 Bool)
 (x!24 Int)
 (x!25 Bool)
 (x!26 Bool)) Bool
  (let ((a!1 (not (<= (+ x!10 (* (- 1) x!21)) 1))))
    (and (or a!1 (<= x!21 0))
         (not x!26)
         (not x!25)
         (or x!4 (not x!11))
         (or (<= x!21 0) (not x!11))
         (or (not (<= x!10 3)) x!4))))
BRUNCH_STAT max_query_lvl 6
BRUNCH_STAT num_queries 33
BRUNCH_STAT num_reach_queries 1
BRUNCH_STAT num_reach_reuse 19
BRUNCH_STAT inductive_lvl 2
BRUNCH_STAT max_depth 6
BRUNCH_STAT cex_depth 0
(:SPACER-inductive-level               2
 :SPACER-max-depth                     6
 :SPACER-max-query-lvl                 6
 :SPACER-num-invariants                23
 :SPACER-num-lemmas                    40
 :SPACER-num-properties                25
 :SPACER-num-queries                   33
 :SPACER-num-reach-queries             1
 :SPACER-num-reuse-reach-facts         19
 :added-eqs                            1037
 :arith-add-rows                       482
 :arith-assert-diseq                   65
 :arith-assert-lower                   605
 :arith-assert-upper                   402
 :arith-bound-prop                     56
 :arith-conflicts                      11
 :arith-eq-adapter                     278
 :arith-fixed-eqs                      164
 :arith-offset-eqs                     88
 :arith-pivots                         206
 :bool-inductive-gen                   24
 :bool-inductive-gen-failures          31
 :conflicts                            169
 :decisions                            1393
 :del-clause                           185
 :final-checks                         70
 :minimized-lits                       1
 :mk-bool-var                          1982
 :mk-clause                            1440
 :num-checks                           207
 :propagations                         10045
 :time.itp_solver.itp_core             0.01
 :time.spacer.init_rules               0.01
 :time.spacer.init_rules.pt.init       0.00
 :time.spacer.solve                    0.07
 :time.spacer.solve.propagate          0.00
 :time.spacer.solve.pt.must_reachable  0.00
 :time.spacer.solve.reach              0.06
 :time.spacer.solve.reach.children     0.02
 :time.spacer.solve.reach.gen.bool_ind 0.00
 :time.virtual_solver.proof            0.00
 :time.virtual_solver.smt.total        0.04
 :time.virtual_solver.smt.total.sat    0.01
 :virtual_solver.checks                207
 :virtual_solver.checks.sat            70)
BRUNCH_STAT max_query_lvl 6
BRUNCH_STAT num_queries 33
BRUNCH_STAT num_reach_queries 1
BRUNCH_STAT num_reach_reuse 19
BRUNCH_STAT inductive_lvl 2
BRUNCH_STAT max_depth 6
BRUNCH_STAT cex_depth 0

real	0m0.100s
user	0m0.084s
sys	0m0.012s
