(transform N7datalog13mk_coi_filterE...no-op 0s)
(transform N7datalog25mk_interp_tail_simplifierE...11 rules 0s)
(transform N7datalog27mk_quantifier_instantiationE...no-op 0s)
(transform N7datalog8mk_scaleE...no-op 0s)
(transform N7datalog18mk_karr_invariantsE...no-op 0s)
(transform N7datalog14mk_array_blastE...no-op 0s)
(transform N7datalog22mk_subsumption_checkerE...10 rules 0s)
(transform N7datalog12mk_bit_blastE...no-op 0s)
(transform N7datalog15mk_rule_inlinerE...no-op 0s)
(transform N7datalog13mk_coi_filterE...no-op 0s)
(transform N7datalog25mk_interp_tail_simplifierE...10 rules 0s)
(transform N7datalog22mk_subsumption_checkerE...no-op 0s)
(transform N7datalog15mk_rule_inlinerE...no-op 0s)
(transform N7datalog13mk_coi_filterE...no-op 0s)
(transform N7datalog25mk_interp_tail_simplifierE...10 rules 0s)
(transform N7datalog22mk_subsumption_checkerE...no-op 0s)
(transform N7datalog15mk_rule_inlinerE...no-op 0s)
(transform N7datalog22mk_subsumption_checkerE...no-op 0s)
(transform N7datalog15mk_rule_inlinerE...no-op 0s)
(transform N7datalog22mk_subsumption_checkerE...no-op 0s)
(transform N7datalog15mk_rule_inlinerE...no-op 0s)
(transform N7datalog22mk_subsumption_checkerE...no-op 0s)
expand: query!0 (0, 0) FAR  w(0) 1. F 0.00
(spacer::context::check_reachability :time 0.00 :before-memory 10.44 :after-memory 10.84)
Entering level 1
BRUNCH_STAT max_query_lvl 0
BRUNCH_STAT num_queries 0
BRUNCH_STAT num_reach_queries 0
BRUNCH_STAT num_reach_reuse 0
BRUNCH_STAT inductive_lvl 0
BRUNCH_STAT max_depth 1
BRUNCH_STAT cex_depth 0
expand: query!0 (1, 0) FAR  w(0) 1.
	create_child: ERR (0, 1) FAR 1 U 0.00
expand: ERR (0, 0) FAR  w(0) 1. F 0.00
expand: query!0 (1, 0) FAR  w(0) 1. F 0.00
(spacer::context::check_reachability :time 0.00 :before-memory 10.84 :after-memory 11.27)
Propagating: 0 1  ! 2 
(spacer::context::propagate :time 0.00 :before-memory 11.27 :after-memory 11.27)
Entering level 2
BRUNCH_STAT max_query_lvl 1
BRUNCH_STAT num_queries 1
BRUNCH_STAT num_reach_queries 0
BRUNCH_STAT num_reach_reuse 0
BRUNCH_STAT inductive_lvl 0
BRUNCH_STAT max_depth 2
BRUNCH_STAT cex_depth 0
expand: query!0 (2, 0) FAR  w(0) 1.
	create_child: ERR (1, 2) FAR 1 U 0.00
expand: ERR (1, 0) FAR  w(0) 1.
	create_child: MAIN (0, 2) FAR 996 U 0.00
expand: MAIN (0, 0) FAR  w(0) 996. F 0.00
expand: ERR (1, 0) FAR  w(0) 1. F 0.00
expand: query!0 (2, 0) FAR  w(0) 1. F 0.00
(spacer::context::check_reachability :time 0.00 :before-memory 11.27 :after-memory 11.76)
Propagating: 0 1 2  ! 3 
(spacer::context::propagate :time 0.00 :before-memory 11.76 :after-memory 11.76)
Entering level 3
BRUNCH_STAT max_query_lvl 2
BRUNCH_STAT num_queries 3
BRUNCH_STAT num_reach_queries 0
BRUNCH_STAT num_reach_reuse 0
BRUNCH_STAT inductive_lvl 0
BRUNCH_STAT max_depth 3
BRUNCH_STAT cex_depth 0
expand: query!0 (3, 0) FAR  w(0) 1.
	create_child: ERR (2, 3) FAR 1 U 0.00
expand: ERR (2, 0) FAR  w(0) 1.
	create_child: MAIN (1, 3) FAR 996 U 0.00
expand: MAIN (1, 0) FAR  w(0) 996.
	create_child: top_step (0, 3) FAR 1680 U 0.00
expand: top_step (0, 0) FAR  w(0) 1680. F 0.00
expand: MAIN (1, 0) FAR  w(0) 996. F 0.00
expand: ERR (2, 0) FAR  w(0) 1. F 0.00
expand: query!0 (3, 0) FAR  w(0) 1. F 0.00
(spacer::context::check_reachability :time 0.00 :before-memory 11.76 :after-memory 12.50)
Propagating: 0 1 2 3  ! 4 
(spacer::context::propagate :time 0.00 :before-memory 12.50 :after-memory 12.50)
Entering level 4
BRUNCH_STAT max_query_lvl 3
BRUNCH_STAT num_queries 6
BRUNCH_STAT num_reach_queries 0
BRUNCH_STAT num_reach_reuse 0
BRUNCH_STAT inductive_lvl 0
BRUNCH_STAT max_depth 4
BRUNCH_STAT cex_depth 0
expand: query!0 (4, 0) FAR  w(0) 1.
	create_child: ERR (3, 4) FAR 1 U 0.00
expand: ERR (3, 0) FAR  w(0) 1.
	create_child: MAIN (2, 4) FAR 996 U 0.00
expand: MAIN (2, 0) FAR  w(0) 996.
	create_child: top_step (1, 4) FAR 1680 U 0.00
expand: top_step (1, 0) FAR  w(0) 1680.
	create_child: top_reset (1, 4) FAR 3401 X 0.00
expand: top_reset (1, 0) FAR  w(0) 3401.
	create_child: Sofar_reset (0, 4) FAR 3879 U 0.00
expand: Sofar_reset (0, 0) FAR  w(0) 3879. F 0.00
expand: top_reset (1, 0) FAR  w(0) 3401. F 0.00
expand: MAIN (2, 0) FAR  w(0) 996.
	create_child: top_reset (1, 4) FAR 4596 U 0.00
expand: top_reset (1, 0) FAR  w(0) 4596. F 0.00
expand: MAIN (2, 0) FAR  w(0) 996.
	create_child: top_reset (1, 4) FAR 4753 U 0.00
expand: top_reset (1, 0) FAR  w(0) 4753.
	create_child: Age_reset (0, 4) FAR 4718 U 0.00
expand: Age_reset (0, 0) FAR  w(0) 4718. F 0.00
expand: top_reset (1, 0) FAR  w(0) 4753. F 0.00
expand: MAIN (2, 0) FAR  w(0) 996.
	create_child: top_reset (1, 4) FAR 4937 U 0.00
expand: top_reset (1, 0) FAR  w(0) 4937. F 0.00
expand: MAIN (2, 0) FAR  w(0) 996.
	create_child: top_step (1, 4) FAR 4940 U 0.00
expand: top_step (1, 0) FAR  w(0) 4940.
	create_child: Age_step (0, 4) FAR 5090 U 0.00
expand: Age_step (0, 0) FAR  w(0) 5090. F 0.00
expand: top_step (1, 0) FAR  w(0) 4940.
	create_child: Sofar_step (0, 4) FAR 5325 U 0.00
expand: Sofar_step (0, 0) FAR  w(0) 5325. F 0.00
expand: top_step (1, 0) FAR  w(0) 4940. F 0.00
expand: MAIN (2, 0) FAR  w(0) 996. F 0.00
expand: ERR (3, 0) FAR  w(0) 1. F 0.00
expand: query!0 (4, 0) FAR  w(0) 1. F 0.00
(spacer::context::check_reachability :time 0.02 :before-memory 12.50 :after-memory 16.04)
Propagating: 0 1 2 3 4  ! 5 
(spacer::context::propagate :time 0.00 :before-memory 16.04 :after-memory 16.04)
Entering level 5
BRUNCH_STAT max_query_lvl 4
BRUNCH_STAT num_queries 17
BRUNCH_STAT num_reach_queries 1
BRUNCH_STAT num_reach_reuse 11
BRUNCH_STAT inductive_lvl 0
BRUNCH_STAT max_depth 5
BRUNCH_STAT cex_depth 0
expand: query!0 (5, 0) FAR  w(0) 1.
	create_child: ERR (4, 5) FAR 1 U 0.00
expand: ERR (4, 0) FAR  w(0) 1.
	create_child: MAIN (3, 5) FAR 996 U 0.00
expand: MAIN (3, 0) FAR  w(0) 996.
	create_child: top_step (2, 5) FAR 1680 U 0.00
expand: top_step (2, 0) FAR  w(0) 1680.
	create_child: MAIN (2, 5) FAR 5788 X 0.00
expand: MAIN (2, 0) FAR  w(0) 5788.
	create_child: top_step (1, 5) FAR 5909 U 0.00
expand: top_step (1, 0) FAR  w(0) 5909.
	create_child: Sofar_step (0, 5) FAR 6096 U 0.00
expand: Sofar_step (0, 0) FAR  w(0) 6096. F 0.00
expand: top_step (1, 0) FAR  w(0) 5909. F 0.00
expand: MAIN (2, 0) FAR  w(0) 5788. F 0.00
expand: MAIN (3, 0) FAR  w(0) 996.
	create_child: top_step (2, 5) FAR 6196 U 0.00
expand: top_step (2, 0) FAR  w(0) 6196.
	create_child: MAIN (2, 5) FAR 6216 X 0.00
expand: MAIN (2, 0) FAR  w(0) 6216.
	create_child: top_step (1, 5) FAR 6384 U 0.00
expand: top_step (1, 0) FAR  w(0) 6384.
	create_child: Age_step (0, 5) FAR 6509 U 0.00
expand: Age_step (0, 0) FAR  w(0) 6509. F 0.00
expand: top_step (1, 0) FAR  w(0) 6384. F 0.00
expand: MAIN (2, 0) FAR  w(0) 6216. F 0.00
expand: MAIN (3, 0) FAR  w(0) 996.
	create_child: MAIN (2, 5) FAR 6848 U 0.00
expand: MAIN (2, 0) FAR  w(0) 6848.
	create_child: top_step (1, 5) FAR 6783 U 0.00
expand: top_step (1, 0) FAR  w(0) 6783. F 0.00
expand: MAIN (2, 0) FAR  w(0) 6848. F 0.00
expand: MAIN (3, 0) FAR  w(0) 996.
	create_child: MAIN (2, 5) FAR 7014 U 0.00
expand: MAIN (2, 0) FAR  w(0) 7014. F 0.00
expand: MAIN (3, 0) FAR  w(0) 996.
	create_child: top_step (2, 5) FAR 7113 U 0.00
expand: top_step (2, 0) FAR  w(0) 7113.
	create_child: Age_step (1, 5) FAR 7273 U 0.00
expand: Age_step (1, 0) FAR  w(0) 7273. F 0.00
expand: top_step (2, 0) FAR  w(0) 7113.
	create_child: Sofar_step (1, 5) FAR 7531 U 0.00
expand: Sofar_step (1, 0) FAR  w(0) 7531. F 0.00
expand: top_step (2, 0) FAR  w(0) 7113. F 0.00
expand: MAIN (3, 0) FAR  w(0) 996.
	create_child: top_step (2, 5) FAR 7121 U 0.00
expand: top_step (2, 0) FAR  w(0) 7121. F 0.00
expand: MAIN (3, 0) FAR  w(0) 996. F 0.00
expand: ERR (4, 0) FAR  w(0) 1. F 0.00
expand: query!0 (5, 0) FAR  w(0) 1. F 0.00
(spacer::context::check_reachability :time 0.04 :before-memory 16.04 :after-memory 16.61)
Propagating: 0 1 2 3 4 5  ! 6 
(spacer::context::propagate :time 0.00 :before-memory 16.61 :after-memory 16.61)
Entering level 6
BRUNCH_STAT max_query_lvl 5
BRUNCH_STAT num_queries 32
BRUNCH_STAT num_reach_queries 1
BRUNCH_STAT num_reach_reuse 21
BRUNCH_STAT inductive_lvl 0
BRUNCH_STAT max_depth 6
BRUNCH_STAT cex_depth 0
expand: query!0 (6, 0) FAR  w(0) 1.
	create_child: ERR (5, 6) FAR 1 U 0.00
expand: ERR (5, 0) FAR  w(0) 1.
	create_child: MAIN (4, 6) FAR 996 U 0.00
expand: MAIN (4, 0) FAR  w(0) 996.
	create_child: MAIN (3, 6) FAR 8088 U 0.00
expand: MAIN (3, 0) FAR  w(0) 8088.
	create_child: top_step (2, 6) FAR 8073 U 0.00
expand: top_step (2, 0) FAR  w(0) 8073. F 0.00
expand: MAIN (3, 0) FAR  w(0) 8088.
	create_child: top_step (2, 6) FAR 8168 U 0.00
expand: top_step (2, 0) FAR  w(0) 8168. F 0.00
expand: MAIN (3, 0) FAR  w(0) 8088. F 0.00
expand: MAIN (4, 0) FAR  w(0) 996.
	create_child: MAIN (3, 6) FAR 8393 U 0.00
expand: MAIN (3, 0) FAR  w(0) 8393.
	create_child: top_step (2, 6) FAR 8264 U 0.00
expand: top_step (2, 0) FAR  w(0) 8264. F 0.00
expand: MAIN (3, 0) FAR  w(0) 8393.
	create_child: top_step (2, 6) FAR 8402 U 0.00
expand: top_step (2, 0) FAR  w(0) 8402. F 0.00
expand: MAIN (3, 0) FAR  w(0) 8393. F 0.00
expand: MAIN (4, 0) FAR  w(0) 996.
	create_child: MAIN (3, 6) FAR 8580 U 0.00
expand: MAIN (3, 0) FAR  w(0) 8580.
	create_child: top_step (2, 6) FAR 8407 U 0.00
expand: top_step (2, 0) FAR  w(0) 8407. F 0.00
expand: MAIN (3, 0) FAR  w(0) 8580. F 0.00
expand: MAIN (4, 0) FAR  w(0) 996.
	create_child: top_step (3, 6) FAR 8752 U 0.00
expand: top_step (3, 0) FAR  w(0) 8752. F 0.00
expand: MAIN (4, 0) FAR  w(0) 996. F 0.00
expand: ERR (5, 0) FAR  w(0) 1. F 0.00
expand: query!0 (6, 0) FAR  w(0) 1. F 0.00
(spacer::context::check_reachability :time 0.03 :before-memory 16.61 :after-memory 16.91)
Propagating: 2 
(spacer::context::propagate :time 0.00 :before-memory 16.91 :after-memory 16.91)
(define-fun ERR () Bool
  false)
(define-fun MAIN ((x!0 Int)
 (x!1 Int)
 (x!2 Bool)
 (x!3 Bool)
 (x!4 Bool)
 (x!5 Int)
 (x!6 Bool)
 (x!7 Bool)
 (x!8 Int)
 (x!9 Bool)
 (x!10 Bool)
 (x!11 Bool)) Bool
  (let ((a!1 (not (<= (+ x!0 x!1 (* (- 1) x!5)) (- 2)))))
  (let ((a!2 (or (not (>= (+ x!0 x!1) 0)) a!1)))
    (and a!2 x!11 (not x!10) (or (>= (+ x!0 x!1) 0) (not x!2)) (not (>= x!5 3))))))
(define-fun Sofar_reset ((x!0 Bool) (x!1 Bool) (x!2 Bool) (x!3 Bool)) Bool
  x!3)
(define-fun top_reset ((x!0 Int)
 (x!1 Int)
 (x!2 Bool)
 (x!3 Bool)
 (x!4 Bool)
 (x!5 Int)
 (x!6 Bool)
 (x!7 Bool)
 (x!8 Int)
 (x!9 Bool)
 (x!10 Bool)
 (x!11 Int)
 (x!12 Int)
 (x!13 Bool)
 (x!14 Bool)
 (x!15 Bool)
 (x!16 Int)
 (x!17 Bool)
 (x!18 Bool)
 (x!19 Int)
 (x!20 Bool)
 (x!21 Bool)) Bool
  (and x!21 x!14 x!17 x!20))
(define-fun Age_reset ((x!0 Bool)
 (x!1 Int)
 (x!2 Bool)
 (x!3 Bool)
 (x!4 Int)
 (x!5 Bool)) Bool
  x!5)
(define-fun Age_step ((x!0 Bool)
 (x!1 Int)
 (x!2 Bool)
 (x!3 Int)
 (x!4 Bool)
 (x!5 Bool)
 (x!6 Int)
 (x!7 Bool)) Bool
  (let ((a!1 (not (<= (+ x!3 (* (- 1) x!1)) 0))))
    (and (or a!1 (= x!1 0))
         (or (<= x!1 0) (not x!4))
         (>= (+ x!1 (* (- 1) x!6)) 0))))
(define-fun Sofar_step ((x!0 Bool)
 (x!1 Bool)
 (x!2 Bool)
 (x!3 Bool)
 (x!4 Bool)
 (x!5 Bool)) Bool
  (and (or x!0 x!2 (not x!1)) (or x!1 (not x!4)) (or x!0 (not x!1) (not x!3))))
(define-fun top_step ((x!0 Int)
 (x!1 Int)
 (x!2 Bool)
 (x!3 Bool)
 (x!4 Bool)
 (x!5 Int)
 (x!6 Int)
 (x!7 Bool)
 (x!8 Bool)
 (x!9 Bool)
 (x!10 Int)
 (x!11 Bool)
 (x!12 Bool)
 (x!13 Int)
 (x!14 Bool)
 (x!15 Bool)
 (x!16 Int)
 (x!17 Int)
 (x!18 Bool)
 (x!19 Bool)
 (x!20 Bool)
 (x!21 Int)
 (x!22 Bool)
 (x!23 Bool)
 (x!24 Int)
 (x!25 Bool)
 (x!26 Bool)) Bool
  (let ((a!1 (not (>= (+ x!5 x!6 (* (- 1) x!10)) (- 1))))
        (a!3 (not (<= (+ x!16 x!17 (* (- 1) x!21)) (- 2))))
        (a!5 (or (not (>= (+ x!5 x!6) 0)) x!15 (>= (+ x!16 x!17) 0)))
        (a!6 (not (<= (+ x!10 (* (- 1) x!21)) 0))))
  (let ((a!2 (or a!1 x!15 x!4 (not (>= (+ x!5 x!6) 0))))
        (a!4 (or a!3 x!15 (not (>= (+ x!5 x!6) 0)) a!1)))
    (and (or (>= (+ x!5 x!6) 0) x!15 x!4 x!7)
         (not x!26)
         (or (not x!11) (not x!8) x!4)
         (or (>= (+ x!16 x!17) 0) (not x!8) (not x!18))
         (or (<= x!21 0) (not x!11))
         (or (not (<= x!10 2)) x!4 x!7)
         a!2
         a!4
         (or (>= (+ x!16 x!17) 0) (not x!18) x!7)
         a!5
         (or a!6 (<= x!21 0))))))
BRUNCH_STAT max_query_lvl 6
BRUNCH_STAT num_queries 43
BRUNCH_STAT num_reach_queries 1
BRUNCH_STAT num_reach_reuse 24
BRUNCH_STAT inductive_lvl 2
BRUNCH_STAT max_depth 6
BRUNCH_STAT cex_depth 0
(:SPACER-inductive-level               2
 :SPACER-max-depth                     6
 :SPACER-max-query-lvl                 6
 :SPACER-num-invariants                32
 :SPACER-num-lemmas                    50
 :SPACER-num-properties                32
 :SPACER-num-queries                   43
 :SPACER-num-reach-queries             1
 :SPACER-num-reuse-reach-facts         24
 :added-eqs                            2535
 :arith-add-rows                       1791
 :arith-assert-diseq                   145
 :arith-assert-lower                   1584
 :arith-assert-upper                   1255
 :arith-bound-prop                     118
 :arith-conflicts                      39
 :arith-eq-adapter                     717
 :arith-fixed-eqs                      436
 :arith-offset-eqs                     290
 :arith-pivots                         384
 :bool-inductive-gen                   34
 :bool-inductive-gen-failures          70
 :conflicts                            268
 :decisions                            4427
 :del-clause                           281
 :final-checks                         129
 :minimized-lits                       23
 :mk-bool-var                          3114
 :mk-clause                            1670
 :num-checks                           338
 :propagations                         21844
 :time.itp_solver.itp_core             0.01
 :time.spacer.init_rules               0.01
 :time.spacer.init_rules.pt.init       0.00
 :time.spacer.solve                    0.11
 :time.spacer.solve.propagate          0.00
 :time.spacer.solve.pt.must_reachable  0.00
 :time.spacer.solve.reach              0.10
 :time.spacer.solve.reach.children     0.02
 :time.spacer.solve.reach.gen.bool_ind 0.02
 :time.virtual_solver.proof            0.00
 :time.virtual_solver.smt.total        0.07
 :time.virtual_solver.smt.total.sat    0.03
 :virtual_solver.checks                338
 :virtual_solver.checks.sat            129)
BRUNCH_STAT max_query_lvl 6
BRUNCH_STAT num_queries 43
BRUNCH_STAT num_reach_queries 1
BRUNCH_STAT num_reach_reuse 24
BRUNCH_STAT inductive_lvl 2
BRUNCH_STAT max_depth 6
BRUNCH_STAT cex_depth 0

real	0m0.147s
user	0m0.136s
sys	0m0.008s
