(transform N7datalog13mk_coi_filterE...no-op 0s)
(transform N7datalog25mk_interp_tail_simplifierE...11 rules 0s)
(transform N7datalog27mk_quantifier_instantiationE...no-op 0s)
(transform N7datalog8mk_scaleE...no-op 0s)
(transform N7datalog18mk_karr_invariantsE...no-op 0s)
(transform N7datalog14mk_array_blastE...no-op 0s)
(transform N7datalog22mk_subsumption_checkerE...10 rules 0s)
(transform N7datalog12mk_bit_blastE...no-op 0s)
(transform N7datalog15mk_rule_inlinerE...no-op 0s)
(transform N7datalog13mk_coi_filterE...no-op 0s)
(transform N7datalog25mk_interp_tail_simplifierE...10 rules 0s)
(transform N7datalog22mk_subsumption_checkerE...no-op 0s)
(transform N7datalog15mk_rule_inlinerE...no-op 0s)
(transform N7datalog13mk_coi_filterE...no-op 0s)
(transform N7datalog25mk_interp_tail_simplifierE...10 rules 0s)
(transform N7datalog22mk_subsumption_checkerE...no-op 0s)
(transform N7datalog15mk_rule_inlinerE...no-op 0s)
(transform N7datalog22mk_subsumption_checkerE...no-op 0s)
(transform N7datalog15mk_rule_inlinerE...no-op 0s)
(transform N7datalog22mk_subsumption_checkerE...no-op 0s)
(transform N7datalog15mk_rule_inlinerE...no-op 0s)
(transform N7datalog22mk_subsumption_checkerE...no-op 0s)
expand: query!0 (0, 0) FAR  w(0) 1. F 0.00
(spacer::context::check_reachability :time 0.00 :before-memory 10.35 :after-memory 10.83)
Entering level 1
BRUNCH_STAT max_query_lvl 0
BRUNCH_STAT num_queries 0
BRUNCH_STAT num_reach_queries 0
BRUNCH_STAT num_reach_reuse 0
BRUNCH_STAT inductive_lvl 0
BRUNCH_STAT max_depth 1
BRUNCH_STAT cex_depth 0
expand: query!0 (1, 0) FAR  w(0) 1.
	create_child: ERR (0, 1) FAR 1 U 0.00
expand: ERR (0, 0) FAR  w(0) 1. F 0.00
expand: query!0 (1, 0) FAR  w(0) 1. F 0.00
(spacer::context::check_reachability :time 0.00 :before-memory 10.83 :after-memory 11.26)
Propagating: 0 1  ! 2 
(spacer::context::propagate :time 0.00 :before-memory 11.26 :after-memory 11.26)
Entering level 2
BRUNCH_STAT max_query_lvl 1
BRUNCH_STAT num_queries 1
BRUNCH_STAT num_reach_queries 0
BRUNCH_STAT num_reach_reuse 0
BRUNCH_STAT inductive_lvl 0
BRUNCH_STAT max_depth 2
BRUNCH_STAT cex_depth 0
expand: query!0 (2, 0) FAR  w(0) 1.
	create_child: ERR (1, 2) FAR 1 U 0.00
expand: ERR (1, 0) FAR  w(0) 1.
	create_child: MAIN (0, 2) FAR 994 U 0.00
expand: MAIN (0, 0) FAR  w(0) 994. F 0.00
expand: ERR (1, 0) FAR  w(0) 1. F 0.00
expand: query!0 (2, 0) FAR  w(0) 1. F 0.00
(spacer::context::check_reachability :time 0.00 :before-memory 11.26 :after-memory 11.71)
Propagating: 0 1 2  ! 3 
(spacer::context::propagate :time 0.00 :before-memory 11.71 :after-memory 11.71)
Entering level 3
BRUNCH_STAT max_query_lvl 2
BRUNCH_STAT num_queries 3
BRUNCH_STAT num_reach_queries 0
BRUNCH_STAT num_reach_reuse 0
BRUNCH_STAT inductive_lvl 0
BRUNCH_STAT max_depth 3
BRUNCH_STAT cex_depth 0
expand: query!0 (3, 0) FAR  w(0) 1.
	create_child: ERR (2, 3) FAR 1 U 0.00
expand: ERR (2, 0) FAR  w(0) 1.
	create_child: MAIN (1, 3) FAR 994 U 0.00
expand: MAIN (1, 0) FAR  w(0) 994.
	create_child: top_step (0, 3) FAR 1467 U 0.00
expand: top_step (0, 0) FAR  w(0) 1467. F 0.00
expand: MAIN (1, 0) FAR  w(0) 994. F 0.00
expand: ERR (2, 0) FAR  w(0) 1. F 0.00
expand: query!0 (3, 0) FAR  w(0) 1. F 0.00
(spacer::context::check_reachability :time 0.00 :before-memory 11.71 :after-memory 12.22)
Propagating: 0 1 2 3  ! 4 
(spacer::context::propagate :time 0.00 :before-memory 12.22 :after-memory 12.22)
Entering level 4
BRUNCH_STAT max_query_lvl 3
BRUNCH_STAT num_queries 6
BRUNCH_STAT num_reach_queries 0
BRUNCH_STAT num_reach_reuse 0
BRUNCH_STAT inductive_lvl 0
BRUNCH_STAT max_depth 4
BRUNCH_STAT cex_depth 0
expand: query!0 (4, 0) FAR  w(0) 1.
	create_child: ERR (3, 4) FAR 1 U 0.00
expand: ERR (3, 0) FAR  w(0) 1.
	create_child: MAIN (2, 4) FAR 994 U 0.00
expand: MAIN (2, 0) FAR  w(0) 994.
	create_child: top_step (1, 4) FAR 1467 U 0.00
expand: top_step (1, 0) FAR  w(0) 1467.
	create_child: speed_step (0, 4) FAR 612 U 0.00
expand: speed_step (0, 0) FAR  w(0) 612. F 0.00
expand: top_step (1, 0) FAR  w(0) 1467. F 0.00
expand: MAIN (2, 0) FAR  w(0) 994. F 0.00
expand: ERR (3, 0) FAR  w(0) 1. F 0.00
expand: query!0 (4, 0) FAR  w(0) 1. F 0.00
(spacer::context::check_reachability :time 0.00 :before-memory 12.22 :after-memory 12.93)
Propagating: 0 1 2 3 4  ! 5 
(spacer::context::propagate :time 0.00 :before-memory 12.93 :after-memory 12.93)
Entering level 5
BRUNCH_STAT max_query_lvl 4
BRUNCH_STAT num_queries 10
BRUNCH_STAT num_reach_queries 0
BRUNCH_STAT num_reach_reuse 0
BRUNCH_STAT inductive_lvl 0
BRUNCH_STAT max_depth 5
BRUNCH_STAT cex_depth 0
expand: query!0 (5, 0) FAR  w(0) 1.
	create_child: ERR (4, 5) FAR 1 U 0.00
expand: ERR (4, 0) FAR  w(0) 1.
	create_child: MAIN (3, 5) FAR 994 U 0.00
expand: MAIN (3, 0) FAR  w(0) 994.
	create_child: top_step (2, 5) FAR 1467 U 0.00
expand: top_step (2, 0) FAR  w(0) 1467.
	create_child: speed_step (1, 5) FAR 612 U 0.00
expand: speed_step (1, 0) FAR  w(0) 612. T 0.00
is-reachable: top_step (2, 0) FAR 1467
	create_child: top_reset (2, 5) FAR 3967 X 0.00
is-reachable: top_reset (2, 0) FAR 3967 F 0.00
expand: top_reset (2, 0) FAR  w(0) 3967. F 0.00
expand: MAIN (3, 0) FAR  w(0) 994.
	create_child: top_step (2, 5) FAR 4532 U 0.00
expand: top_step (2, 0) FAR  w(0) 4532. F 0.00
expand: MAIN (3, 0) FAR  w(0) 994. F 0.00
expand: ERR (4, 0) FAR  w(0) 1. F 0.00
expand: query!0 (5, 0) FAR  w(0) 1. F 0.00
(spacer::context::check_reachability :time 0.01 :before-memory 12.93 :after-memory 14.26)
Propagating: 2 3 4 5  ! 6 
(spacer::context::propagate :time 0.00 :before-memory 14.26 :after-memory 14.26)
Entering level 6
BRUNCH_STAT max_query_lvl 5
BRUNCH_STAT num_queries 15
BRUNCH_STAT num_reach_queries 2
BRUNCH_STAT num_reach_reuse 1
BRUNCH_STAT inductive_lvl 0
BRUNCH_STAT max_depth 6
BRUNCH_STAT cex_depth 0
expand: query!0 (6, 0) FAR  w(0) 1.
	create_child: ERR (5, 6) FAR 1 U 0.00
expand: ERR (5, 0) FAR  w(0) 1.
	create_child: MAIN (4, 6) FAR 994 U 0.00
expand: MAIN (4, 0) FAR  w(0) 994.
	create_child: MAIN (3, 6) FAR 4805 U 0.00
expand: MAIN (3, 0) FAR  w(0) 4805.
	create_child: top_step (2, 6) FAR 4856 U 0.00
expand: top_step (2, 0) FAR  w(0) 4856.
	create_child: speed_step (1, 6) FAR 4898 U 0.00
expand: speed_step (1, 0) FAR  w(0) 4898. F 0.00
expand: top_step (2, 0) FAR  w(0) 4856. F 0.00
expand: MAIN (3, 0) FAR  w(0) 4805. F 0.00
expand: MAIN (4, 0) FAR  w(0) 994.
	create_child: MAIN (3, 6) FAR 5614 U 0.00
expand: MAIN (3, 0) FAR  w(0) 5614.
	create_child: top_step (2, 6) FAR 5577 U 0.00
expand: top_step (2, 0) FAR  w(0) 5577.
	create_child: speed_step (1, 6) FAR 5684 U 0.00
expand: speed_step (1, 0) FAR  w(0) 5684.
	create_child: COUNTER_step (0, 6) FAR 5774 U 0.00
expand: COUNTER_step (0, 0) FAR  w(0) 5774. F 0.00
expand: speed_step (1, 0) FAR  w(0) 5684. F 0.00
expand: top_step (2, 0) FAR  w(0) 5577. F 0.00
expand: MAIN (3, 0) FAR  w(0) 5614. F 0.00
expand: MAIN (4, 0) FAR  w(0) 994.
	create_child: MAIN (3, 6) FAR 6314 U 0.00
expand: MAIN (3, 0) FAR  w(0) 6314.
	create_child: top_step (2, 6) FAR 6366 U 0.00
expand: top_step (2, 0) FAR  w(0) 6366.
	create_child: top_reset (2, 6) FAR 6570 X 0.00
expand: top_reset (2, 0) FAR  w(0) 6570.
	create_child: speed_reset (1, 6) FAR 6579 U 0.00
expand: speed_reset (1, 0) FAR  w(0) 6579.
	create_child: COUNTER_reset (0, 6) FAR 6759 U 0.00
expand: COUNTER_reset (0, 0) FAR  w(0) 6759. F 0.00
expand: speed_reset (1, 0) FAR  w(0) 6579. F 0.00
expand: top_reset (2, 0) FAR  w(0) 6570. F 0.00
expand: MAIN (3, 0) FAR  w(0) 6314.
	create_child: top_step (2, 6) FAR 7061 U 0.00
expand: top_step (2, 0) FAR  w(0) 7061.
	create_child: speed_step (1, 6) FAR 7055 U 0.00
expand: speed_step (1, 0) FAR  w(0) 7055.
	create_child: COUNTER_step (0, 6) FAR 6111 U 0.00
expand: COUNTER_step (0, 0) FAR  w(0) 6111. F 0.00
expand: speed_step (1, 0) FAR  w(0) 7055.
	create_child: COUNTER_step (0, 6) FAR 7275 U 0.00
expand: COUNTER_step (0, 0) FAR  w(0) 7275. F 0.00
expand: speed_step (1, 0) FAR  w(0) 7055. F 0.00
expand: top_step (2, 0) FAR  w(0) 7061. F 0.00
expand: MAIN (3, 0) FAR  w(0) 6314. F 0.00
expand: MAIN (4, 0) FAR  w(0) 994.
	create_child: MAIN (3, 6) FAR 7486 U 0.00
expand: MAIN (3, 0) FAR  w(0) 7486.
	create_child: top_step (2, 6) FAR 7495 U 0.00
expand: top_step (2, 0) FAR  w(0) 7495.
	create_child: speed_step (1, 6) FAR 7394 U 0.00
expand: speed_step (1, 0) FAR  w(0) 7394.
	create_child: COUNTER_step (0, 6) FAR 7524 U 0.00
expand: COUNTER_step (0, 0) FAR  w(0) 7524. F 0.00
expand: speed_step (1, 0) FAR  w(0) 7394. F 0.00
expand: top_step (2, 0) FAR  w(0) 7495. F 0.00
expand: MAIN (3, 0) FAR  w(0) 7486. F 0.00
expand: MAIN (4, 0) FAR  w(0) 994.
	create_child: MAIN (3, 6) FAR 7653 U 0.00
expand: MAIN (3, 0) FAR  w(0) 7653.
	create_child: top_step (2, 6) FAR 7652 U 0.00
expand: top_step (2, 0) FAR  w(0) 7652.
	create_child: speed_step (1, 6) FAR 7343 U 0.00
expand: speed_step (1, 0) FAR  w(0) 7343. F 0.00
expand: top_step (2, 0) FAR  w(0) 7652. F 0.00
expand: MAIN (3, 0) FAR  w(0) 7653. F 0.00
expand: MAIN (4, 0) FAR  w(0) 994.
	create_child: MAIN (3, 6) FAR 7776 U 0.00
expand: MAIN (3, 0) FAR  w(0) 7776.
	create_child: top_reset (2, 6) FAR 7782 U 0.00
expand: top_reset (2, 0) FAR  w(0) 7782.
	create_child: speed_reset (1, 6) FAR 7786 U 0.00
expand: speed_reset (1, 0) FAR  w(0) 7786. F 0.00
expand: top_reset (2, 0) FAR  w(0) 7782. F 0.00
expand: MAIN (3, 0) FAR  w(0) 7776.
	create_child: top_reset (2, 6) FAR 7821 U 0.00
expand: top_reset (2, 0) FAR  w(0) 7821.
	create_child: speed_reset (1, 6) FAR 7848 U 0.00
expand: speed_reset (1, 0) FAR  w(0) 7848. T 0.00
is-reachable: top_reset (2, 0) FAR 7821 T 0.00
is-reachable: MAIN (3, 0) FAR 7776 T 0.00
is-reachable: MAIN (4, 0) FAR 994 T 0.00
is-reachable: ERR (5, 0) FAR 1 T 0.00
is-reachable: query!0 (6, 0) FAR 1 T 0.00
(spacer::context::check_reachability :time 0.05 :before-memory 14.26 :after-memory 16.81)
BRUNCH_STAT max_query_lvl 6
BRUNCH_STAT num_queries 44
BRUNCH_STAT num_reach_queries 9
BRUNCH_STAT num_reach_reuse 11
BRUNCH_STAT inductive_lvl 0
BRUNCH_STAT max_depth 6
BRUNCH_STAT cex_depth 6
(:SPACER-cex-depth                     6
 :SPACER-max-depth                     6
 :SPACER-max-query-lvl                 6
 :SPACER-num-invariants                21
 :SPACER-num-lemmas                    44
 :SPACER-num-properties                32
 :SPACER-num-queries                   44
 :SPACER-num-reach-queries             9
 :SPACER-num-reuse-reach-facts         11
 :added-eqs                            764
 :arith-add-rows                       178
 :arith-assert-diseq                   98
 :arith-assert-lower                   560
 :arith-assert-upper                   341
 :arith-bound-prop                     58
 :arith-conflicts                      5
 :arith-eq-adapter                     219
 :arith-fixed-eqs                      115
 :arith-offset-eqs                     136
 :arith-pivots                         102
 :bool-inductive-gen                   27
 :bool-inductive-gen-failures          43
 :conflicts                            191
 :decisions                            1148
 :del-clause                           106
 :final-checks                         101
 :minimized-lits                       7
 :mk-bool-var                          2104
 :mk-clause                            1577
 :num-checks                           257
 :propagations                         9848
 :time.itp_solver.itp_core             0.01
 :time.spacer.init_rules               0.01
 :time.spacer.init_rules.pt.init       0.00
 :time.spacer.solve                    0.07
 :time.spacer.solve.propagate          0.00
 :time.spacer.solve.pt.must_reachable  0.00
 :time.spacer.solve.reach              0.07
 :time.spacer.solve.reach.children     0.01
 :time.spacer.solve.reach.gen.bool_ind 0.01
 :time.spacer.solve.reach.is-reach     0.01
 :time.virtual_solver.proof            0.00
 :time.virtual_solver.smt.total        0.04
 :time.virtual_solver.smt.total.sat    0.02
 :virtual_solver.checks                257
 :virtual_solver.checks.sat            101)
BRUNCH_STAT max_query_lvl 6
BRUNCH_STAT num_queries 44
BRUNCH_STAT num_reach_queries 9
BRUNCH_STAT num_reach_reuse 11
BRUNCH_STAT inductive_lvl 0
BRUNCH_STAT max_depth 6
BRUNCH_STAT cex_depth 6

real	0m0.100s
user	0m0.080s
sys	0m0.020s
