(transform N7datalog13mk_coi_filterE...no-op 0s)
(transform N7datalog25mk_interp_tail_simplifierE...26 rules 0s)
(transform N7datalog27mk_quantifier_instantiationE...no-op 0s)
(transform N7datalog8mk_scaleE...no-op 0s)
(transform N7datalog18mk_karr_invariantsE...no-op 0s)
(transform N7datalog14mk_array_blastE...no-op 0s)
(transform N7datalog22mk_subsumption_checkerE...25 rules 0s)
(transform N7datalog12mk_bit_blastE...no-op 0s)
(transform N7datalog15mk_rule_inlinerE...no-op 0s)
(transform N7datalog13mk_coi_filterE...no-op 0s)
(transform N7datalog25mk_interp_tail_simplifierE...25 rules 0s)
(transform N7datalog22mk_subsumption_checkerE...no-op 0s)
(transform N7datalog15mk_rule_inlinerE...no-op 0s)
(transform N7datalog13mk_coi_filterE...no-op 0s)
(transform N7datalog25mk_interp_tail_simplifierE...25 rules 0s)
(transform N7datalog22mk_subsumption_checkerE...no-op 0s)
(transform N7datalog15mk_rule_inlinerE...no-op 0s)
(transform N7datalog22mk_subsumption_checkerE...no-op 0s)
(transform N7datalog15mk_rule_inlinerE...no-op 0s)
(transform N7datalog22mk_subsumption_checkerE...no-op 0s)
(transform N7datalog15mk_rule_inlinerE...no-op 0s)
(transform N7datalog22mk_subsumption_checkerE...no-op 0s)
expand: query!0 (0, 0) FAR  w(0) 1. F 0.00
(spacer::context::check_reachability :time 0.00 :before-memory 24.33 :after-memory 24.73)
Entering level 1
BRUNCH_STAT max_query_lvl 0
BRUNCH_STAT num_queries 0
BRUNCH_STAT num_reach_queries 0
BRUNCH_STAT num_reach_reuse 0
BRUNCH_STAT inductive_lvl 0
BRUNCH_STAT max_depth 1
BRUNCH_STAT cex_depth 0
expand: query!0 (1, 0) FAR  w(0) 1.
	create_child: ERR (0, 1) FAR 1 U 0.00
expand: ERR (0, 0) FAR  w(0) 1. F 0.00
expand: query!0 (1, 0) FAR  w(0) 1. F 0.00
(spacer::context::check_reachability :time 0.00 :before-memory 24.73 :after-memory 25.18)
Propagating: 0 1  ! 2 
(spacer::context::propagate :time 0.00 :before-memory 25.18 :after-memory 25.18)
Entering level 2
BRUNCH_STAT max_query_lvl 1
BRUNCH_STAT num_queries 1
BRUNCH_STAT num_reach_queries 0
BRUNCH_STAT num_reach_reuse 0
BRUNCH_STAT inductive_lvl 0
BRUNCH_STAT max_depth 2
BRUNCH_STAT cex_depth 0
expand: query!0 (2, 0) FAR  w(0) 1.
	create_child: ERR (1, 2) FAR 1 U 0.00
expand: ERR (1, 0) FAR  w(0) 1.
	create_child: MAIN (0, 2) FAR 3243 U 0.00
expand: MAIN (0, 0) FAR  w(0) 3243. F 0.00
expand: ERR (1, 0) FAR  w(0) 1. F 0.00
expand: query!0 (2, 0) FAR  w(0) 1. F 0.00
(spacer::context::check_reachability :time 0.00 :before-memory 25.18 :after-memory 25.75)
Propagating: 0 1 2  ! 3 
(spacer::context::propagate :time 0.00 :before-memory 25.75 :after-memory 25.75)
Entering level 3
BRUNCH_STAT max_query_lvl 2
BRUNCH_STAT num_queries 3
BRUNCH_STAT num_reach_queries 0
BRUNCH_STAT num_reach_reuse 0
BRUNCH_STAT inductive_lvl 0
BRUNCH_STAT max_depth 3
BRUNCH_STAT cex_depth 0
expand: query!0 (3, 0) FAR  w(0) 1.
	create_child: ERR (2, 3) FAR 1 U 0.00
expand: ERR (2, 0) FAR  w(0) 1.
	create_child: MAIN (1, 3) FAR 3243 U 0.00
expand: MAIN (1, 0) FAR  w(0) 3243.
	create_child: top_step (0, 3) FAR 4651 U 0.00
expand: top_step (0, 0) FAR  w(0) 4651. F 0.00
expand: MAIN (1, 0) FAR  w(0) 3243. F 0.00
expand: ERR (2, 0) FAR  w(0) 1. F 0.00
expand: query!0 (3, 0) FAR  w(0) 1. F 0.00
(spacer::context::check_reachability :time 0.00 :before-memory 25.75 :after-memory 26.45)
Propagating: 0 1 2 3  ! 4 
(spacer::context::propagate :time 0.00 :before-memory 26.45 :after-memory 26.45)
Entering level 4
BRUNCH_STAT max_query_lvl 3
BRUNCH_STAT num_queries 6
BRUNCH_STAT num_reach_queries 0
BRUNCH_STAT num_reach_reuse 0
BRUNCH_STAT inductive_lvl 0
BRUNCH_STAT max_depth 4
BRUNCH_STAT cex_depth 0
expand: query!0 (4, 0) FAR  w(0) 1.
	create_child: ERR (3, 4) FAR 1 U 0.00
expand: ERR (3, 0) FAR  w(0) 1.
	create_child: MAIN (2, 4) FAR 3243 U 0.00
expand: MAIN (2, 0) FAR  w(0) 3243.
	create_child: top_step (1, 4) FAR 4651 U 0.00
expand: top_step (1, 0) FAR  w(0) 4651.
	create_child: main_step (0, 4) FAR 1 U 0.00
expand: main_step (0, 0) FAR  w(0) 1. F 0.00
expand: top_step (1, 0) FAR  w(0) 4651. F 0.00
expand: MAIN (2, 0) FAR  w(0) 3243. F 0.00
expand: ERR (3, 0) FAR  w(0) 1. F 0.00
expand: query!0 (4, 0) FAR  w(0) 1. F 0.00
(spacer::context::check_reachability :time 0.00 :before-memory 26.45 :after-memory 27.19)
Propagating: 0 1 2 3 4  ! 5 
(spacer::context::propagate :time 0.00 :before-memory 27.19 :after-memory 27.19)
Entering level 5
BRUNCH_STAT max_query_lvl 4
BRUNCH_STAT num_queries 10
BRUNCH_STAT num_reach_queries 0
BRUNCH_STAT num_reach_reuse 0
BRUNCH_STAT inductive_lvl 0
BRUNCH_STAT max_depth 5
BRUNCH_STAT cex_depth 0
expand: query!0 (5, 0) FAR  w(0) 1.
	create_child: ERR (4, 5) FAR 1 U 0.00
expand: ERR (4, 0) FAR  w(0) 1.
	create_child: MAIN (3, 5) FAR 3243 U 0.00
expand: MAIN (3, 0) FAR  w(0) 3243.
	create_child: top_step (2, 5) FAR 4651 U 0.00
expand: top_step (2, 0) FAR  w(0) 4651.
	create_child: main_step (1, 5) FAR 1 U 0.00
expand: main_step (1, 0) FAR  w(0) 1.
	create_child: cc_allowed_step (0, 5) FAR 8254 U 0.00
expand: cc_allowed_step (0, 0) FAR  w(0) 8254. F 0.00
expand: main_step (1, 0) FAR  w(0) 1. F 0.00
expand: top_step (2, 0) FAR  w(0) 4651. F 0.00
expand: MAIN (3, 0) FAR  w(0) 3243. F 0.00
expand: ERR (4, 0) FAR  w(0) 1. F 0.00
expand: query!0 (5, 0) FAR  w(0) 1. F 0.00
(spacer::context::check_reachability :time 0.01 :before-memory 27.19 :after-memory 27.85)
Propagating: 0 1 2 3 4 5  ! 6 
(spacer::context::propagate :time 0.00 :before-memory 27.85 :after-memory 27.85)
Entering level 6
BRUNCH_STAT max_query_lvl 5
BRUNCH_STAT num_queries 15
BRUNCH_STAT num_reach_queries 0
BRUNCH_STAT num_reach_reuse 2
BRUNCH_STAT inductive_lvl 0
BRUNCH_STAT max_depth 6
BRUNCH_STAT cex_depth 0
expand: query!0 (6, 0) FAR  w(0) 1.
	create_child: ERR (5, 6) FAR 1 U 0.00
expand: ERR (5, 0) FAR  w(0) 1.
	create_child: MAIN (4, 6) FAR 3243 U 0.00
expand: MAIN (4, 0) FAR  w(0) 3243.
	create_child: top_step (3, 6) FAR 4651 U 0.00
expand: top_step (3, 0) FAR  w(0) 4651.
	create_child: main_step (2, 6) FAR 1 U 0.00
expand: main_step (2, 0) FAR  w(0) 1.
	create_child: cc_allowed_step (1, 6) FAR 8254 U 0.00
expand: cc_allowed_step (1, 0) FAR  w(0) 8254.
	create_child: one_button_accept_step (1, 6) FAR 9392 X 0.00
expand: one_button_accept_step (1, 0) FAR  w(0) 9392. T 0.00
is-reachable: main_step (2, 0) FAR 1
	create_child: PosEdge_step (2, 6) FAR 11391 X 0.00
is-reachable: PosEdge_step (2, 0) FAR 11391
	create_child: PosEdge_step (2, 6) FAR 11391 X 0.00
is-reachable: PosEdge_step (2, 0) FAR 11391
	create_child: PosEdge_step (2, 6) FAR 11391 X 0.00
is-reachable: PosEdge_step (2, 0) FAR 11391
	create_child: PosEdge_step (2, 6) FAR 11564 X 0.00
is-reachable: PosEdge_step (2, 0) FAR 11564 F 0.00
expand: PosEdge_step (2, 0) FAR  w(0) 11564. F 0.00
expand: top_step (3, 0) FAR  w(0) 4651.
	create_child: main_step (2, 6) FAR 1461 U 0.00
expand: main_step (2, 0) FAR  w(0) 1461.
	create_child: cc_allowed_step (1, 6) FAR 9390 U 0.00
expand: cc_allowed_step (1, 0) FAR  w(0) 9390. F 0.00
expand: main_step (2, 0) FAR  w(0) 1461.
	create_child: cc_allowed_step (1, 6) FAR 12535 U 0.00
expand: cc_allowed_step (1, 0) FAR  w(0) 12535. T 0.00
is-reachable: main_step (2, 0) FAR 1461 T 0.00
is-reachable: top_step (3, 0) FAR 4651
	create_child: top_reset (3, 6) FAR 14578 X 0.00
is-reachable: top_reset (3, 0) FAR 14578 F 0.00
Deleting closed node: main_step(2, 6) 1461
Deleting closed node: top_step(3, 6) 4651
expand: top_reset (3, 0) FAR  w(0) 14578. F 0.00
expand: MAIN (4, 0) FAR  w(0) 3243.
	create_child: top_reset (3, 6) FAR 16524 U 0.00
expand: top_reset (3, 0) FAR  w(0) 16524.
	create_child: PosEdge_reset (2, 6) FAR 16454 U 0.00
expand: PosEdge_reset (2, 0) FAR  w(0) 16454. F 0.00
expand: top_reset (3, 0) FAR  w(0) 16524. F 0.00
expand: MAIN (4, 0) FAR  w(0) 3243.
	create_child: top_step (3, 6) FAR 16663 U 0.00
expand: top_step (3, 0) FAR  w(0) 16663.
	create_child: PosEdge_step (2, 6) FAR 16855 U 0.00
expand: PosEdge_step (2, 0) FAR  w(0) 16855. F 0.00
expand: top_step (3, 0) FAR  w(0) 16663. F 0.00
expand: MAIN (4, 0) FAR  w(0) 3243. F 0.00
expand: ERR (5, 0) FAR  w(0) 1. F 0.00
expand: query!0 (6, 0) FAR  w(0) 1. F 0.00
(spacer::context::check_reachability :time 0.04 :before-memory 27.85 :after-memory 33.46)
Propagating: 1 2 3 4 5 6  ! 7 
(spacer::context::propagate :time 0.00 :before-memory 33.46 :after-memory 33.60)
Entering level 7
BRUNCH_STAT max_query_lvl 6
BRUNCH_STAT num_queries 27
BRUNCH_STAT num_reach_queries 6
BRUNCH_STAT num_reach_reuse 27
BRUNCH_STAT inductive_lvl 0
BRUNCH_STAT max_depth 7
BRUNCH_STAT cex_depth 0
expand: query!0 (7, 0) FAR  w(0) 1.
	create_child: ERR (6, 7) FAR 1 U 0.00
expand: ERR (6, 0) FAR  w(0) 1.
	create_child: MAIN (5, 7) FAR 3243 U 0.00
expand: MAIN (5, 0) FAR  w(0) 3243.
	create_child: MAIN (4, 7) FAR 17253 U 0.00
expand: MAIN (4, 0) FAR  w(0) 17253.
	create_child: top_step (3, 7) FAR 17208 U 0.00
expand: top_step (3, 0) FAR  w(0) 17208.
	create_child: main_step (2, 7) FAR 17310 U 0.00
expand: main_step (2, 0) FAR  w(0) 17310. F 0.00
expand: top_step (3, 0) FAR  w(0) 17208.
	create_child: main_step (2, 7) FAR 17366 U 0.00
expand: main_step (2, 0) FAR  w(0) 17366.
	create_child: one_button_accept_step (1, 7) FAR 17394 U 0.00
expand: one_button_accept_step (1, 0) FAR  w(0) 17394.
	create_child: prev_no_button_step (0, 7) FAR 17664 U 0.00
expand: prev_no_button_step (0, 0) FAR  w(0) 17664. F 0.00
expand: one_button_accept_step (1, 0) FAR  w(0) 17394. F 0.00
expand: main_step (2, 0) FAR  w(0) 17366. F 0.00
expand: top_step (3, 0) FAR  w(0) 17208. F 0.00
expand: MAIN (4, 0) FAR  w(0) 17253. F 0.00
expand: MAIN (5, 0) FAR  w(0) 3243.
	create_child: MAIN (4, 7) FAR 17985 U 0.00
expand: MAIN (4, 0) FAR  w(0) 17985.
	create_child: top_step (3, 7) FAR 16963 U 0.00
expand: top_step (3, 0) FAR  w(0) 16963.
	create_child: main_step (2, 7) FAR 18040 U 0.00
expand: main_step (2, 0) FAR  w(0) 18040.
	create_child: Edge_step (1, 7) FAR 18001 U 0.00
expand: Edge_step (1, 0) FAR  w(0) 18001. F 0.00
expand: main_step (2, 0) FAR  w(0) 18040. F 0.00
expand: top_step (3, 0) FAR  w(0) 16963. F 0.00
expand: MAIN (4, 0) FAR  w(0) 17985. F 0.00
expand: MAIN (5, 0) FAR  w(0) 3243.
	create_child: MAIN (4, 7) FAR 18286 U 0.00
expand: MAIN (4, 0) FAR  w(0) 18286.
	create_child: top_step (3, 7) FAR 18248 U 0.00
expand: top_step (3, 0) FAR  w(0) 18248.
	create_child: main_step (2, 7) FAR 18345 U 0.00
expand: main_step (2, 0) FAR  w(0) 18345.
	create_child: PosEdge_step (1, 7) FAR 18219 U 0.00
expand: PosEdge_step (1, 0) FAR  w(0) 18219. F 0.00
expand: main_step (2, 0) FAR  w(0) 18345. F 0.00
expand: top_step (3, 0) FAR  w(0) 18248. F 0.00
expand: MAIN (4, 0) FAR  w(0) 18286. F 0.00
expand: MAIN (5, 0) FAR  w(0) 3243.
	create_child: MAIN (4, 7) FAR 18521 U 0.00
expand: MAIN (4, 0) FAR  w(0) 18521.
	create_child: top_step (3, 7) FAR 18479 U 0.00
expand: top_step (3, 0) FAR  w(0) 18479.
	create_child: main_step (2, 7) FAR 18585 U 0.00
expand: main_step (2, 0) FAR  w(0) 18585.
	create_child: one_button_accept_step (1, 7) FAR 18621 U 0.00
expand: one_button_accept_step (1, 0) FAR  w(0) 18621.
	create_child: prev_no_button_step (0, 7) FAR 18528 U 0.00
expand: prev_no_button_step (0, 0) FAR  w(0) 18528. F 0.00
expand: one_button_accept_step (1, 0) FAR  w(0) 18621. F 0.00
expand: main_step (2, 0) FAR  w(0) 18585. F 0.00
expand: top_step (3, 0) FAR  w(0) 18479.
	create_child: main_step (2, 7) FAR 18647 U 0.00
expand: main_step (2, 0) FAR  w(0) 18647.
	create_child: one_button_accept_step (1, 7) FAR 18626 U 0.00
expand: one_button_accept_step (1, 0) FAR  w(0) 18626.
	create_child: prev_no_button_step (0, 7) FAR 18672 U 0.00
expand: prev_no_button_step (0, 0) FAR  w(0) 18672. F 0.00
expand: one_button_accept_step (1, 0) FAR  w(0) 18626. F 0.00
expand: main_step (2, 0) FAR  w(0) 18647. F 0.00
expand: top_step (3, 0) FAR  w(0) 18479.
	create_child: main_step (2, 7) FAR 18854 U 0.00
expand: main_step (2, 0) FAR  w(0) 18854.
	create_child: PosEdge_step (2, 7) FAR 18938 X 0.00
expand: PosEdge_step (2, 0) FAR  w(0) 18938. F 0.00
expand: top_step (3, 0) FAR  w(0) 18479. F 0.00
expand: MAIN (4, 0) FAR  w(0) 18521. F 0.00
expand: MAIN (5, 0) FAR  w(0) 3243.
	create_child: MAIN (4, 7) FAR 19411 U 0.00
expand: MAIN (4, 0) FAR  w(0) 19411.
	create_child: top_step (3, 7) FAR 19364 U 0.00
expand: top_step (3, 0) FAR  w(0) 19364. F 0.00
expand: MAIN (4, 0) FAR  w(0) 19411. F 0.00
expand: MAIN (5, 0) FAR  w(0) 3243.
	create_child: MAIN (4, 7) FAR 19560 U 0.00
expand: MAIN (4, 0) FAR  w(0) 19560.
	create_child: top_step (3, 7) FAR 19537 U 0.00
expand: top_step (3, 0) FAR  w(0) 19537. F 0.00
expand: MAIN (4, 0) FAR  w(0) 19560. F 0.00
expand: MAIN (5, 0) FAR  w(0) 3243.
	create_child: MAIN (4, 7) FAR 19637 U 0.00
expand: MAIN (4, 0) FAR  w(0) 19637.
	create_child: top_step (3, 7) FAR 19489 U 0.00
expand: top_step (3, 0) FAR  w(0) 19489.
	create_child: main_step (2, 7) FAR 19683 U 0.00
expand: main_step (2, 0) FAR  w(0) 19683.
	create_child: one_button_accept_step (1, 7) FAR 19764 U 0.00
expand: one_button_accept_step (1, 0) FAR  w(0) 19764.
	create_child: prev_no_button_step (0, 7) FAR 19710 U 0.00
expand: prev_no_button_step (0, 0) FAR  w(0) 19710. F 0.00
expand: one_button_accept_step (1, 0) FAR  w(0) 19764. F 0.00
expand: main_step (2, 0) FAR  w(0) 19683. F 0.00
expand: top_step (3, 0) FAR  w(0) 19489. F 0.00
expand: MAIN (4, 0) FAR  w(0) 19637. F 0.00
expand: MAIN (5, 0) FAR  w(0) 3243.
	create_child: MAIN (4, 7) FAR 19942 U 0.00
expand: MAIN (4, 0) FAR  w(0) 19942.
	create_child: top_step (3, 7) FAR 19900 U 0.00
expand: top_step (3, 0) FAR  w(0) 19900. F 0.00
expand: MAIN (4, 0) FAR  w(0) 19942. F 0.00
expand: MAIN (5, 0) FAR  w(0) 3243.
	create_child: MAIN (4, 7) FAR 20021 U 0.00
expand: MAIN (4, 0) FAR  w(0) 20021.
	create_child: top_step (3, 7) FAR 19881 U 0.00
expand: top_step (3, 0) FAR  w(0) 19881. F 0.00
expand: MAIN (4, 0) FAR  w(0) 20021. F 0.00
expand: MAIN (5, 0) FAR  w(0) 3243.
	create_child: MAIN (4, 7) FAR 20113 U 0.00
expand: MAIN (4, 0) FAR  w(0) 20113.
	create_child: top_step (3, 7) FAR 20070 U 0.00
expand: top_step (3, 0) FAR  w(0) 20070. F 0.00
expand: MAIN (4, 0) FAR  w(0) 20113. F 0.00
expand: MAIN (5, 0) FAR  w(0) 3243.
	create_child: top_step (4, 7) FAR 20142 U 0.00
expand: top_step (4, 0) FAR  w(0) 20142.
	create_child: main_step (3, 7) FAR 20245 U 0.00
expand: main_step (3, 0) FAR  w(0) 20245.
	create_child: one_button_accept_step (2, 7) FAR 20294 U 0.00
expand: one_button_accept_step (2, 0) FAR  w(0) 20294. T 0.00
is-reachable: main_step (3, 0) FAR 20245 T 0.00
is-reachable: top_step (4, 0) FAR 20142
	create_child: MAIN (4, 7) FAR 20840 X 0.00
is-reachable: MAIN (4, 0) FAR 20840 F 0.00
Deleting closed node: main_step(3, 7) 20245
Deleting closed node: top_step(4, 7) 20142
expand: MAIN (4, 0) FAR  w(0) 20840.
	create_child: top_step (3, 7) FAR 21035 U 0.00
expand: top_step (3, 0) FAR  w(0) 21035.
	create_child: PosEdge_step (2, 7) FAR 21024 U 0.00
expand: PosEdge_step (2, 0) FAR  w(0) 21024. F 0.00
expand: top_step (3, 0) FAR  w(0) 21035. F 0.00
expand: MAIN (4, 0) FAR  w(0) 20840. F 0.00
expand: MAIN (5, 0) FAR  w(0) 3243.
	create_child: top_step (4, 7) FAR 21301 U 0.00
expand: top_step (4, 0) FAR  w(0) 21301.
	create_child: main_step (3, 7) FAR 21437 U 0.00
expand: main_step (3, 0) FAR  w(0) 21437.
	create_child: one_button_accept_step (2, 7) FAR 21531 U 0.00
expand: one_button_accept_step (2, 0) FAR  w(0) 21531.
	create_child: prev_no_button_step (1, 7) FAR 21574 U 0.00
expand: prev_no_button_step (1, 0) FAR  w(0) 21574. F 0.00
expand: one_button_accept_step (2, 0) FAR  w(0) 21531. F 0.00
expand: main_step (3, 0) FAR  w(0) 21437. F 0.00
expand: top_step (4, 0) FAR  w(0) 21301. F 0.00
expand: MAIN (5, 0) FAR  w(0) 3243.
	create_child: top_step (4, 7) FAR 21830 U 0.00
expand: top_step (4, 0) FAR  w(0) 21830.
	create_child: main_step (3, 7) FAR 22055 U 0.00
expand: main_step (3, 0) FAR  w(0) 22055.
	create_child: one_button_accept_step (2, 7) FAR 22090 U 0.00
expand: one_button_accept_step (2, 0) FAR  w(0) 22090.
	create_child: one_button_fun (1, 7) FAR 22114 U 0.00
expand: one_button_fun (1, 0) FAR  w(0) 22114. F 0.00
expand: one_button_accept_step (2, 0) FAR  w(0) 22090. F 0.00
expand: main_step (3, 0) FAR  w(0) 22055. F 0.00
expand: top_step (4, 0) FAR  w(0) 21830.
	create_child: main_step (3, 7) FAR 22378 U 0.00
expand: main_step (3, 0) FAR  w(0) 22378.
	create_child: PosEdge_step (3, 7) FAR 22517 X 0.00
expand: PosEdge_step (3, 0) FAR  w(0) 22517. F 0.00
expand: top_step (4, 0) FAR  w(0) 21830. F 0.00
expand: MAIN (5, 0) FAR  w(0) 3243.
	create_child: top_step (4, 7) FAR 21750 U 0.00
expand: top_step (4, 0) FAR  w(0) 21750.
	create_child: PosEdge_step (3, 7) FAR 22884 U 0.00
expand: PosEdge_step (3, 0) FAR  w(0) 22884. F 0.00
expand: top_step (4, 0) FAR  w(0) 21750. F 0.00
expand: MAIN (5, 0) FAR  w(0) 3243. F 0.00
expand: ERR (6, 0) FAR  w(0) 1. F 0.00
expand: query!0 (7, 0) FAR  w(0) 1. F 0.00
(spacer::context::check_reachability :time 0.13 :before-memory 33.60 :after-memory 36.92)
Propagating: 0 1 2 3 4 
(spacer::context::propagate :time 0.00 :before-memory 36.92 :after-memory 36.92)
(define-fun ERR () Bool
  false)
(define-fun AtLeastOnceSince_step ((x!0 Bool)
 (x!1 Bool)
 (x!2 Bool)
 (x!3 Bool)
 (x!4 Bool)
 (x!5 Bool)
 (x!6 Bool)) Bool
  true)
(define-fun main_step ((x!0 Bool)
 (x!1 Bool)
 (x!2 Bool)
 (x!3 Bool)
 (x!4 Bool)
 (x!5 Bool)
 (x!6 Bool)
 (x!7 Bool)
 (x!8 Bool)
 (x!9 Bool)
 (x!10 Bool)
 (x!11 Bool)
 (x!12 Bool)
 (x!13 Int)
 (x!14 Bool)
 (x!15 Bool)
 (x!16 Bool)
 (x!17 Bool)
 (x!18 Bool)
 (x!19 Bool)
 (x!20 Bool)
 (x!21 Bool)
 (x!22 Bool)
 (x!23 Bool)
 (x!24 Bool)
 (x!25 Bool)
 (x!26 Bool)
 (x!27 Bool)
 (x!28 Bool)
 (x!29 Bool)
 (x!30 Bool)
 (x!31 Bool)
 (x!32 Bool)
 (x!33 Bool)
 (x!34 Bool)
 (x!35 Bool)
 (x!36 Bool)
 (x!37 Bool)
 (x!38 Bool)
 (x!39 Bool)
 (x!40 Bool)
 (x!41 Bool)
 (x!42 Bool)
 (x!43 Bool)
 (x!44 Bool)
 (x!45 Bool)
 (x!46 Bool)
 (x!47 Bool)
 (x!48 Bool)
 (x!49 Bool)
 (x!50 Bool)
 (x!51 Bool)
 (x!52 Bool)
 (x!53 Bool)) Bool
  (and (or x!17 (not x!15) x!10 x!11 x!12)
       (not x!39)
       (not x!53)
       (not x!45)
       (or x!15 (not x!36))
       (or (not x!44) (not x!10))
       (or (not x!44) (not x!11))
       (or (not x!44) (not x!12))
       (or x!26 x!25 (not x!15) x!17)))
(define-fun MoreThanOneSec_reset ((x!0 Bool) (x!1 Bool) (x!2 Bool) (x!3 Bool)) Bool
  true)
(define-fun one_button_fun ((x!0 Bool) (x!1 Bool) (x!2 Bool) (x!3 Bool)) Bool
  (or x!1 (not x!3) x!0 x!2))
(define-fun PosEdge_step ((x!0 Bool)
 (x!1 Bool)
 (x!2 Bool)
 (x!3 Bool)
 (x!4 Bool)
 (x!5 Bool)) Bool
  (and (or x!2 x!3 x!1 (not x!0))
       (not x!5)
       (or (not x!1) x!0)
       (or (not x!3) (not x!1))
       (or x!0 (not x!4))
       (or x!4 (not x!0))
       (or (not x!1) (not x!2))))
(define-fun cc_allowed_step ((x!0 Bool)
 (x!1 Bool)
 (x!2 Bool)
 (x!3 Bool)
 (x!4 Bool)
 (x!5 Bool)
 (x!6 Bool)
 (x!7 Bool)
 (x!8 Bool)
 (x!9 Int)
 (x!10 Bool)
 (x!11 Bool)
 (x!12 Bool)
 (x!13 Bool)
 (x!14 Bool)
 (x!15 Bool)
 (x!16 Bool)
 (x!17 Bool)
 (x!18 Bool)
 (x!19 Bool)
 (x!20 Bool)) Bool
  (or (not x!10) x!0))
(define-fun top_step ((x!0 Bool)
 (x!1 Bool)
 (x!2 Bool)
 (x!3 Bool)
 (x!4 Bool)
 (x!5 Bool)
 (x!6 Bool)
 (x!7 Bool)
 (x!8 Bool)
 (x!9 Bool)
 (x!10 Bool)
 (x!11 Bool)
 (x!12 Bool)
 (x!13 Int)
 (x!14 Bool)
 (x!15 Bool)
 (x!16 Bool)
 (x!17 Bool)
 (x!18 Bool)
 (x!19 Bool)
 (x!20 Bool)
 (x!21 Bool)
 (x!22 Bool)
 (x!23 Bool)
 (x!24 Bool)
 (x!25 Bool)
 (x!26 Bool)
 (x!27 Bool)
 (x!28 Bool)
 (x!29 Bool)
 (x!30 Bool)
 (x!31 Bool)
 (x!32 Bool)
 (x!33 Bool)
 (x!34 Bool)
 (x!35 Bool)
 (x!36 Bool)
 (x!37 Bool)
 (x!38 Bool)
 (x!39 Bool)
 (x!40 Bool)
 (x!41 Bool)
 (x!42 Bool)
 (x!43 Bool)
 (x!44 Bool)
 (x!45 Bool)
 (x!46 Bool)
 (x!47 Bool)
 (x!48 Bool)
 (x!49 Bool)
 (x!50 Bool)
 (x!51 Bool)
 (x!52 Bool)
 (x!53 Bool)
 (x!54 Bool)
 (x!55 Bool)
 (x!56 Bool)
 (x!57 Bool)
 (x!58 Bool)
 (x!59 Bool)
 (x!60 Bool)
 (x!61 Bool)
 (x!62 Bool)
 (x!63 Bool)
 (x!64 Bool)
 (x!65 Bool)
 (x!66 Bool)
 (x!67 Bool)
 (x!68 Bool)
 (x!69 Bool)
 (x!70 Bool)) Bool
  (and (or (not x!15) x!14)
       (not x!70)
       (not x!55)
       (not x!61)
       (not x!69)
       (not x!50)
       (not x!48)
       (not x!46)
       (or (not x!16) x!14)
       (or (not x!60) (not x!47))
       (or (not x!60) (not x!49))
       (or (not x!60) (not x!45))
       (or x!33 x!24 x!14 x!32)
       (or x!43 (not x!52))
       (or x!18 x!14 x!24 x!21 x!22 x!19 x!20 x!17)))
(define-fun Edge_reset ((x!0 Bool) (x!1 Bool) (x!2 Bool) (x!3 Bool)) Bool
  true)
(define-fun AtLeastOnceSince_reset ((x!0 Bool) (x!1 Bool) (x!2 Bool) (x!3 Bool)) Bool
  true)
(define-fun PosEdge_reset ((x!0 Bool) (x!1 Bool) (x!2 Bool) (x!3 Bool)) Bool
  x!3)
(define-fun top_reset ((x!0 Bool)
 (x!1 Bool)
 (x!2 Bool)
 (x!3 Bool)
 (x!4 Bool)
 (x!5 Bool)
 (x!6 Bool)
 (x!7 Bool)
 (x!8 Bool)
 (x!9 Bool)
 (x!10 Bool)
 (x!11 Bool)
 (x!12 Bool)
 (x!13 Bool)
 (x!14 Bool)
 (x!15 Bool)
 (x!16 Bool)
 (x!17 Bool)
 (x!18 Bool)
 (x!19 Bool)
 (x!20 Bool)
 (x!21 Bool)
 (x!22 Bool)
 (x!23 Bool)
 (x!24 Bool)
 (x!25 Bool)
 (x!26 Bool)
 (x!27 Bool)
 (x!28 Bool)
 (x!29 Bool)
 (x!30 Bool)
 (x!31 Bool)
 (x!32 Bool)
 (x!33 Bool)
 (x!34 Bool)
 (x!35 Bool)
 (x!36 Bool)
 (x!37 Bool)
 (x!38 Bool)
 (x!39 Bool)
 (x!40 Bool)
 (x!41 Bool)
 (x!42 Bool)
 (x!43 Bool)
 (x!44 Bool)
 (x!45 Bool)
 (x!46 Bool)
 (x!47 Bool)
 (x!48 Bool)
 (x!49 Bool)
 (x!50 Bool)
 (x!51 Bool)
 (x!52 Bool)
 (x!53 Bool)
 (x!54 Bool)
 (x!55 Bool)) Bool
  (and x!55 x!29))
(define-fun prev_no_button_reset ((x!0 Bool) (x!1 Bool) (x!2 Bool) (x!3 Bool)) Bool
  true)
(define-fun one_button_accept_step ((x!0 Bool)
 (x!1 Bool)
 (x!2 Bool)
 (x!3 Bool)
 (x!4 Bool)
 (x!5 Bool)
 (x!6 Bool)
 (x!7 Bool)
 (x!8 Bool)
 (x!9 Bool)
 (x!10 Bool)
 (x!11 Bool)
 (x!12 Bool)
 (x!13 Bool)
 (x!14 Bool)
 (x!15 Bool)
 (x!16 Bool)
 (x!17 Bool)) Bool
  (and (or x!1 x!2 (not x!5) x!0)
       (not x!17)
       (or (not x!16) (not x!0))
       (or (not x!1) (not x!16))
       (or (not x!16) (not x!2))
       (or x!11 x!10 (not x!5))))
(define-fun Edge_step ((x!0 Bool)
 (x!1 Bool)
 (x!2 Bool)
 (x!3 Bool)
 (x!4 Bool)
 (x!5 Bool)) Bool
  (not x!5))
(define-fun prev_no_button_step ((x!0 Bool)
 (x!1 Bool)
 (x!2 Bool)
 (x!3 Bool)
 (x!4 Bool)
 (x!5 Bool)
 (x!6 Bool)
 (x!7 Bool)) Bool
  (and (or x!4 (not x!3) x!5)
       (not x!7)
       (or (not x!1) (not x!6))
       (or (not x!6) (not x!0))
       (or (not x!6) (not x!2))))
(define-fun MAIN ((x!0 Bool)
 (x!1 Bool)
 (x!2 Bool)
 (x!3 Bool)
 (x!4 Bool)
 (x!5 Bool)
 (x!6 Bool)
 (x!7 Bool)
 (x!8 Bool)
 (x!9 Bool)
 (x!10 Bool)
 (x!11 Bool)
 (x!12 Bool)
 (x!13 Bool)
 (x!14 Bool)
 (x!15 Bool)
 (x!16 Bool)
 (x!17 Bool)
 (x!18 Bool)
 (x!19 Bool)
 (x!20 Bool)
 (x!21 Bool)
 (x!22 Bool)
 (x!23 Bool)
 (x!24 Bool)
 (x!25 Bool)
 (x!26 Bool)
 (x!27 Bool)
 (x!28 Bool)) Bool
  (and (or x!0 (not x!9))
       x!28
       (not x!3)
       (not x!5)
       (not x!7)
       (not x!12)
       (not x!18)
       (not x!26)
       (not x!27)
       (or (not x!4) (not x!17))
       (or (not x!6) (not x!17))
       (or (not x!2) (not x!17))))
(define-fun MoreThanTwoSec_reset ((x!0 Bool)
 (x!1 Bool)
 (x!2 Bool)
 (x!3 Bool)
 (x!4 Bool)
 (x!5 Bool)) Bool
  true)
(define-fun one_button_accept_reset ((x!0 Bool)
 (x!1 Bool)
 (x!2 Bool)
 (x!3 Bool)
 (x!4 Bool)
 (x!5 Bool)
 (x!6 Bool)
 (x!7 Bool)
 (x!8 Bool)
 (x!9 Bool)
 (x!10 Bool)
 (x!11 Bool)) Bool
  true)
(define-fun MoreThanOneSec_step ((x!0 Bool)
 (x!1 Bool)
 (x!2 Bool)
 (x!3 Bool)
 (x!4 Bool)
 (x!5 Bool)) Bool
  true)
(define-fun main_reset ((x!0 Bool)
 (x!1 Bool)
 (x!2 Bool)
 (x!3 Bool)
 (x!4 Bool)
 (x!5 Bool)
 (x!6 Bool)
 (x!7 Bool)
 (x!8 Bool)
 (x!9 Bool)
 (x!10 Bool)
 (x!11 Bool)
 (x!12 Bool)
 (x!13 Bool)
 (x!14 Bool)
 (x!15 Bool)
 (x!16 Bool)
 (x!17 Bool)
 (x!18 Bool)
 (x!19 Bool)
 (x!20 Bool)
 (x!21 Bool)
 (x!22 Bool)
 (x!23 Bool)
 (x!24 Bool)
 (x!25 Bool)
 (x!26 Bool)
 (x!27 Bool)
 (x!28 Bool)
 (x!29 Bool)
 (x!30 Bool)
 (x!31 Bool)
 (x!32 Bool)
 (x!33 Bool)
 (x!34 Bool)
 (x!35 Bool)
 (x!36 Bool)
 (x!37 Bool)) Bool
  true)
(define-fun cc_allowed_reset ((x!0 Bool)
 (x!1 Bool)
 (x!2 Bool)
 (x!3 Bool)
 (x!4 Bool)
 (x!5 Bool)
 (x!6 Bool)
 (x!7 Bool)
 (x!8 Bool)
 (x!9 Bool)) Bool
  true)
(define-fun MoreThanTwoSec_step ((x!0 Bool)
 (x!1 Bool)
 (x!2 Bool)
 (x!3 Bool)
 (x!4 Bool)
 (x!5 Bool)
 (x!6 Bool)
 (x!7 Bool)) Bool
  true)
BRUNCH_STAT max_query_lvl 7
BRUNCH_STAT num_queries 83
BRUNCH_STAT num_reach_queries 11
BRUNCH_STAT num_reach_reuse 134
BRUNCH_STAT inductive_lvl 4
BRUNCH_STAT max_depth 7
BRUNCH_STAT cex_depth 0
(:SPACER-inductive-level               4
 :SPACER-max-depth                     7
 :SPACER-max-query-lvl                 7
 :SPACER-num-invariants                62
 :SPACER-num-lemmas                    86
 :SPACER-num-properties                66
 :SPACER-num-queries                   83
 :SPACER-num-reach-queries             11
 :SPACER-num-reuse-reach-facts         134
 :added-eqs                            176
 :arith-assert-lower                   143
 :arith-assert-upper                   143
 :arith-bound-prop                     6
 :arith-eq-adapter                     80
 :arith-pivots                         9
 :bool-inductive-gen                   61
 :bool-inductive-gen-failures          126
 :conflicts                            460
 :decisions                            9426
 :del-clause                           198
 :final-checks                         249
 :minimized-lits                       49
 :mk-bool-var                          5148
 :mk-clause                            5397
 :num-checks                           595
 :propagations                         72880
 :time.itp_solver.itp_core             0.01
 :time.spacer.init_rules               0.02
 :time.spacer.init_rules.pt.init       0.00
 :time.spacer.solve                    0.20
 :time.spacer.solve.propagate          0.01
 :time.spacer.solve.pt.must_reachable  0.01
 :time.spacer.solve.reach              0.19
 :time.spacer.solve.reach.children     0.05
 :time.spacer.solve.reach.gen.bool_ind 0.02
 :time.spacer.solve.reach.is-reach     0.02
 :time.virtual_solver.proof            0.01
 :time.virtual_solver.smt.total        0.10
 :time.virtual_solver.smt.total.sat    0.05
 :virtual_solver.checks                595
 :virtual_solver.checks.sat            249)
BRUNCH_STAT max_query_lvl 7
BRUNCH_STAT num_queries 83
BRUNCH_STAT num_reach_queries 11
BRUNCH_STAT num_reach_reuse 134
BRUNCH_STAT inductive_lvl 4
BRUNCH_STAT max_depth 7
BRUNCH_STAT cex_depth 0

real	0m0.273s
user	0m0.244s
sys	0m0.028s
