(transform N7datalog13mk_coi_filterE...no-op 0s)
(transform N7datalog25mk_interp_tail_simplifierE...14 rules 0s)
(transform N7datalog27mk_quantifier_instantiationE...no-op 0s)
(transform N7datalog8mk_scaleE...no-op 0s)
(transform N7datalog18mk_karr_invariantsE...no-op 0s)
(transform N7datalog14mk_array_blastE...no-op 0s)
(transform N7datalog22mk_subsumption_checkerE...13 rules 0s)
(transform N7datalog12mk_bit_blastE...no-op 0s)
(transform N7datalog15mk_rule_inlinerE...no-op 0s)
(transform N7datalog13mk_coi_filterE...no-op 0s)
(transform N7datalog25mk_interp_tail_simplifierE...13 rules 0s)
(transform N7datalog22mk_subsumption_checkerE...no-op 0s)
(transform N7datalog15mk_rule_inlinerE...no-op 0s)
(transform N7datalog13mk_coi_filterE...no-op 0s)
(transform N7datalog25mk_interp_tail_simplifierE...13 rules 0s)
(transform N7datalog22mk_subsumption_checkerE...no-op 0s)
(transform N7datalog15mk_rule_inlinerE...no-op 0s)
(transform N7datalog22mk_subsumption_checkerE...no-op 0s)
(transform N7datalog15mk_rule_inlinerE...no-op 0s)
(transform N7datalog22mk_subsumption_checkerE...no-op 0s)
(transform N7datalog15mk_rule_inlinerE...no-op 0s)
(transform N7datalog22mk_subsumption_checkerE...no-op 0s)
expand: query!0 (0, 0) FAR  w(0) 1. F 0.00
(spacer::context::check_reachability :time 0.00 :before-memory 13.34 :after-memory 13.74)
Entering level 1
BRUNCH_STAT max_query_lvl 0
BRUNCH_STAT num_queries 0
BRUNCH_STAT num_reach_queries 0
BRUNCH_STAT num_reach_reuse 0
BRUNCH_STAT inductive_lvl 0
BRUNCH_STAT max_depth 1
BRUNCH_STAT cex_depth 0
expand: query!0 (1, 0) FAR  w(0) 1.
	create_child: ERR (0, 1) FAR 1 U 0.00
expand: ERR (0, 0) FAR  w(0) 1. F 0.00
expand: query!0 (1, 0) FAR  w(0) 1. F 0.00
(spacer::context::check_reachability :time 0.00 :before-memory 13.74 :after-memory 14.19)
Propagating: 0 1  ! 2 
(spacer::context::propagate :time 0.00 :before-memory 14.19 :after-memory 14.19)
Entering level 2
BRUNCH_STAT max_query_lvl 1
BRUNCH_STAT num_queries 1
BRUNCH_STAT num_reach_queries 0
BRUNCH_STAT num_reach_reuse 0
BRUNCH_STAT inductive_lvl 0
BRUNCH_STAT max_depth 2
BRUNCH_STAT cex_depth 0
expand: query!0 (2, 0) FAR  w(0) 1.
	create_child: ERR (1, 2) FAR 1 U 0.00
expand: ERR (1, 0) FAR  w(0) 1.
	create_child: MAIN (0, 2) FAR 2317 U 0.00
expand: MAIN (0, 0) FAR  w(0) 2317. F 0.00
expand: ERR (1, 0) FAR  w(0) 1. F 0.00
expand: query!0 (2, 0) FAR  w(0) 1. F 0.00
(spacer::context::check_reachability :time 0.00 :before-memory 14.19 :after-memory 14.65)
Propagating: 0 1 2  ! 3 
(spacer::context::propagate :time 0.00 :before-memory 14.65 :after-memory 14.65)
Entering level 3
BRUNCH_STAT max_query_lvl 2
BRUNCH_STAT num_queries 3
BRUNCH_STAT num_reach_queries 0
BRUNCH_STAT num_reach_reuse 0
BRUNCH_STAT inductive_lvl 0
BRUNCH_STAT max_depth 3
BRUNCH_STAT cex_depth 0
expand: query!0 (3, 0) FAR  w(0) 1.
	create_child: ERR (2, 3) FAR 1 U 0.00
expand: ERR (2, 0) FAR  w(0) 1.
	create_child: MAIN (1, 3) FAR 2317 U 0.00
expand: MAIN (1, 0) FAR  w(0) 2317.
	create_child: top_step (0, 3) FAR 3091 U 0.00
expand: top_step (0, 0) FAR  w(0) 3091. F 0.00
expand: MAIN (1, 0) FAR  w(0) 2317. F 0.00
expand: ERR (2, 0) FAR  w(0) 1. F 0.00
expand: query!0 (3, 0) FAR  w(0) 1. F 0.00
(spacer::context::check_reachability :time 0.01 :before-memory 14.65 :after-memory 15.78)
Propagating: 0 1 2 3  ! 4 
(spacer::context::propagate :time 0.00 :before-memory 15.78 :after-memory 15.88)
Entering level 4
BRUNCH_STAT max_query_lvl 3
BRUNCH_STAT num_queries 6
BRUNCH_STAT num_reach_queries 0
BRUNCH_STAT num_reach_reuse 0
BRUNCH_STAT inductive_lvl 0
BRUNCH_STAT max_depth 4
BRUNCH_STAT cex_depth 0
expand: query!0 (4, 0) FAR  w(0) 1.
	create_child: ERR (3, 4) FAR 1 U 0.00
expand: ERR (3, 0) FAR  w(0) 1.
	create_child: MAIN (2, 4) FAR 2317 U 0.00
expand: MAIN (2, 0) FAR  w(0) 2317.
	create_child: top_step (1, 4) FAR 3091 U 0.00
expand: top_step (1, 0) FAR  w(0) 3091.
	create_child: top_reset (1, 4) FAR 8717 X 0.01
expand: top_reset (1, 0) FAR  w(0) 8717.
	create_child: First_reset (0, 4) FAR 9279 U 0.00
expand: First_reset (0, 0) FAR  w(0) 9279. F 0.00
expand: top_reset (1, 0) FAR  w(0) 8717. F 0.00
expand: MAIN (2, 0) FAR  w(0) 2317.
	create_child: top_reset (1, 4) FAR 12173 U 0.01
expand: top_reset (1, 0) FAR  w(0) 12173.
	create_child: Sofar_reset (0, 4) FAR 12016 U 0.00
expand: Sofar_reset (0, 0) FAR  w(0) 12016. F 0.00
expand: top_reset (1, 0) FAR  w(0) 12173. F 0.00
expand: MAIN (2, 0) FAR  w(0) 2317.
	create_child: top_reset (1, 4) FAR 12314 U 0.00
expand: top_reset (1, 0) FAR  w(0) 12314.
	create_child: firefly_reset (0, 4) FAR 12154 U 0.00
expand: firefly_reset (0, 0) FAR  w(0) 12154. F 0.00
expand: top_reset (1, 0) FAR  w(0) 12314. F 0.00
expand: MAIN (2, 0) FAR  w(0) 2317.
	create_child: top_step (1, 4) FAR 12356 U 0.00
expand: top_step (1, 0) FAR  w(0) 12356.
	create_child: excludes8_fun (0, 4) FAR 1658 U 0.01
expand: excludes8_fun (0, 0) FAR  w(0) 1658.
	create_child: First_step (0, 4) FAR 12892 X 0.00
expand: First_step (0, 0) FAR  w(0) 12892. F 0.00
expand: top_step (1, 0) FAR  w(0) 12356.
	create_child: firefly_step (0, 4) FAR 13535 U 0.00
expand: firefly_step (0, 0) FAR  w(0) 13535. F 0.00
expand: top_step (1, 0) FAR  w(0) 12356.
	create_child: firefly_step (0, 4) FAR 15611 U 0.00
expand: firefly_step (0, 0) FAR  w(0) 15611. F 0.00
expand: top_step (1, 0) FAR  w(0) 12356.
	create_child: firefly_step (0, 4) FAR 12934 U 0.00
expand: firefly_step (0, 0) FAR  w(0) 12934.
	create_child: First_step (0, 4) FAR 12966 X 0.00
expand: First_step (0, 0) FAR  w(0) 12966. F 0.00
expand: top_step (1, 0) FAR  w(0) 12356. F 0.00
expand: MAIN (2, 0) FAR  w(0) 2317. F 0.00
expand: ERR (3, 0) FAR  w(0) 1. F 0.00
expand: query!0 (4, 0) FAR  w(0) 1. F 0.00
(spacer::context::check_reachability :time 0.06 :before-memory 15.88 :after-memory 23.97)
Propagating: 0 1 2 3 4  ! 5 
(spacer::context::propagate :time 0.00 :before-memory 23.97 :after-memory 23.97)
Entering level 5
BRUNCH_STAT max_query_lvl 4
BRUNCH_STAT num_queries 19
BRUNCH_STAT num_reach_queries 1
BRUNCH_STAT num_reach_reuse 19
BRUNCH_STAT inductive_lvl 0
BRUNCH_STAT max_depth 5
BRUNCH_STAT cex_depth 0
expand: query!0 (5, 0) FAR  w(0) 1.
	create_child: ERR (4, 5) FAR 1 U 0.00
expand: ERR (4, 0) FAR  w(0) 1.
	create_child: MAIN (3, 5) FAR 2317 U 0.00
expand: MAIN (3, 0) FAR  w(0) 2317.
	create_child: MAIN (2, 5) FAR 16244 U 0.00
expand: MAIN (2, 0) FAR  w(0) 16244.
	create_child: top_step (1, 5) FAR 16151 U 0.00
expand: top_step (1, 0) FAR  w(0) 16151.
	create_child: firefly_step (0, 5) FAR 16371 U 0.00
expand: firefly_step (0, 0) FAR  w(0) 16371. F 0.00
expand: top_step (1, 0) FAR  w(0) 16151. F 0.00
expand: MAIN (2, 0) FAR  w(0) 16244. F 0.00
expand: MAIN (3, 0) FAR  w(0) 2317.
	create_child: MAIN (2, 5) FAR 16833 U 0.00
expand: MAIN (2, 0) FAR  w(0) 16833.
	create_child: top_step (1, 5) FAR 16770 U 0.00
expand: top_step (1, 0) FAR  w(0) 16770.
	create_child: firefly_step (0, 5) FAR 16697 U 0.00
expand: firefly_step (0, 0) FAR  w(0) 16697. F 0.00
expand: top_step (1, 0) FAR  w(0) 16770. F 0.00
expand: MAIN (2, 0) FAR  w(0) 16833. F 0.00
expand: MAIN (3, 0) FAR  w(0) 2317.
	create_child: MAIN (2, 5) FAR 17015 U 0.00
expand: MAIN (2, 0) FAR  w(0) 17015.
	create_child: top_step (1, 5) FAR 16873 U 0.00
expand: top_step (1, 0) FAR  w(0) 16873.
	create_child: firefly_step (0, 5) FAR 16992 U 0.00
expand: firefly_step (0, 0) FAR  w(0) 16992. F 0.00
expand: top_step (1, 0) FAR  w(0) 16873.
	create_child: Sofar_step (0, 5) FAR 17130 U 0.00
expand: Sofar_step (0, 0) FAR  w(0) 17130.
	create_child: firefly_step (0, 5) FAR 17359 X 0.00
expand: firefly_step (0, 0) FAR  w(0) 17359. F 0.00
expand: top_step (1, 0) FAR  w(0) 16873. F 0.00
expand: MAIN (2, 0) FAR  w(0) 17015. F 0.00
expand: MAIN (3, 0) FAR  w(0) 2317.
	create_child: MAIN (2, 5) FAR 17651 U 0.00
expand: MAIN (2, 0) FAR  w(0) 17651.
	create_child: top_step (1, 5) FAR 17660 U 0.00
expand: top_step (1, 0) FAR  w(0) 17660.
	create_child: Sofar_step (0, 5) FAR 17130 U 0.00
expand: Sofar_step (0, 0) FAR  w(0) 17130.
	create_child: firefly_step (0, 5) FAR 17940 X 0.00
expand: firefly_step (0, 0) FAR  w(0) 17940.
	create_child: First_step (0, 5) FAR 17813 X 0.00
expand: First_step (0, 0) FAR  w(0) 17813. F 0.00
expand: top_step (1, 0) FAR  w(0) 17660. F 0.00
expand: MAIN (2, 0) FAR  w(0) 17651. F 0.01
expand: MAIN (3, 0) FAR  w(0) 2317.
	create_child: MAIN (2, 5) FAR 18862 U 0.00
expand: MAIN (2, 0) FAR  w(0) 18862. F 0.00
expand: MAIN (3, 0) FAR  w(0) 2317.
	create_child: MAIN (2, 5) FAR 18911 U 0.00
expand: MAIN (2, 0) FAR  w(0) 18911.
	create_child: top_step (1, 5) FAR 18847 U 0.00
expand: top_step (1, 0) FAR  w(0) 18847.
	create_child: firefly_step (0, 5) FAR 19009 U 0.00
expand: firefly_step (0, 0) FAR  w(0) 19009. F 0.00
expand: top_step (1, 0) FAR  w(0) 18847.
	create_child: Sofar_step (0, 5) FAR 19088 U 0.00
expand: Sofar_step (0, 0) FAR  w(0) 19088. F 0.00
expand: top_step (1, 0) FAR  w(0) 18847.
	create_child: Sofar_step (0, 5) FAR 17130 U 0.00
expand: Sofar_step (0, 0) FAR  w(0) 17130.
	create_child: First_step (0, 5) FAR 19166 X 0.00
expand: First_step (0, 0) FAR  w(0) 19166. F 0.00
expand: top_step (1, 0) FAR  w(0) 18847. F 0.00
expand: MAIN (2, 0) FAR  w(0) 18911. F 0.00
expand: MAIN (3, 0) FAR  w(0) 2317.
	create_child: MAIN (2, 5) FAR 19546 U 0.00
expand: MAIN (2, 0) FAR  w(0) 19546.
	create_child: top_step (1, 5) FAR 19518 U 0.00
expand: top_step (1, 0) FAR  w(0) 19518.
	create_child: First_step (0, 5) FAR 19669 U 0.00
expand: First_step (0, 0) FAR  w(0) 19669. F 0.00
expand: top_step (1, 0) FAR  w(0) 19518. F 0.00
expand: MAIN (2, 0) FAR  w(0) 19546. F 0.00
expand: MAIN (3, 0) FAR  w(0) 2317.
	create_child: MAIN (2, 5) FAR 19929 U 0.00
expand: MAIN (2, 0) FAR  w(0) 19929.
	create_child: top_step (1, 5) FAR 19830 U 0.00
expand: top_step (1, 0) FAR  w(0) 19830.
	create_child: firefly_step (0, 5) FAR 19956 U 0.00
expand: firefly_step (0, 0) FAR  w(0) 19956. F 0.00
expand: top_step (1, 0) FAR  w(0) 19830. F 0.00
expand: MAIN (2, 0) FAR  w(0) 19929. F 0.00
expand: MAIN (3, 0) FAR  w(0) 2317.
	create_child: top_step (2, 5) FAR 20678 U 0.00
expand: top_step (2, 0) FAR  w(0) 20678.
	create_child: excludes8_fun (1, 5) FAR 22823 U 0.01
expand: excludes8_fun (1, 0) FAR  w(0) 22823. F 0.00
expand: top_step (2, 0) FAR  w(0) 20678.
	create_child: excludes8_fun (1, 5) FAR 23119 U 0.00
expand: excludes8_fun (1, 0) FAR  w(0) 23119. F 0.00
expand: top_step (2, 0) FAR  w(0) 20678.
	create_child: excludes8_fun (1, 5) FAR 23247 U 0.00
expand: excludes8_fun (1, 0) FAR  w(0) 23247. F 0.00
expand: top_step (2, 0) FAR  w(0) 20678.
	create_child: excludes8_fun (1, 5) FAR 23743 U 0.01
expand: excludes8_fun (1, 0) FAR  w(0) 23743.
	create_child: First_step (1, 5) FAR 23783 X 0.00
expand: First_step (1, 0) FAR  w(0) 23783. F 0.00
expand: top_step (2, 0) FAR  w(0) 20678.
	create_child: excludes8_fun (1, 5) FAR 23743 U 0.00
expand: excludes8_fun (1, 0) FAR  w(0) 23743.
	create_child: First_step (1, 5) FAR 24003 X 0.00
expand: First_step (1, 0) FAR  w(0) 24003. F 0.00
expand: top_step (2, 0) FAR  w(0) 20678.
	create_child: excludes8_fun (1, 5) FAR 24179 U 0.00
expand: excludes8_fun (1, 0) FAR  w(0) 24179.
	create_child: Sofar_step (1, 5) FAR 24071 X 0.00
expand: Sofar_step (1, 0) FAR  w(0) 24071. F 0.00
expand: top_step (2, 0) FAR  w(0) 20678.
	create_child: excludes8_fun (1, 5) FAR 1658 U 0.00
expand: excludes8_fun (1, 0) FAR  w(0) 1658.
	create_child: firefly_step (1, 5) FAR 24060 X 0.00
expand: firefly_step (1, 0) FAR  w(0) 24060. F 0.01
expand: top_step (2, 0) FAR  w(0) 20678.
	create_child: excludes8_fun (1, 5) FAR 23825 U 0.00
expand: excludes8_fun (1, 0) FAR  w(0) 23825.
	create_child: firefly_step (1, 5) FAR 23823 X 0.00
expand: firefly_step (1, 0) FAR  w(0) 23823. F 0.01
expand: top_step (2, 0) FAR  w(0) 20678.
	create_child: excludes8_fun (1, 5) FAR 23825 U 0.00
expand: excludes8_fun (1, 0) FAR  w(0) 23825.
	create_child: firefly_step (1, 5) FAR 25402 X 0.00
expand: firefly_step (1, 0) FAR  w(0) 25402. F 0.01
expand: top_step (2, 0) FAR  w(0) 20678.
	create_child: excludes8_fun (1, 5) FAR 26667 U 0.00
expand: excludes8_fun (1, 0) FAR  w(0) 26667. F 0.00
expand: top_step (2, 0) FAR  w(0) 20678.
	create_child: excludes8_fun (1, 5) FAR 26689 U 0.00
expand: excludes8_fun (1, 0) FAR  w(0) 26689.
	create_child: firefly_step (1, 5) FAR 26639 X 0.00
expand: firefly_step (1, 0) FAR  w(0) 26639. F 0.01
expand: top_step (2, 0) FAR  w(0) 20678.
	create_child: excludes8_fun (1, 5) FAR 25254 U 0.00
expand: excludes8_fun (1, 0) FAR  w(0) 25254.
	create_child: firefly_step (1, 5) FAR 25273 X 0.00
expand: firefly_step (1, 0) FAR  w(0) 25273. F 0.01
expand: top_step (2, 0) FAR  w(0) 20678.
	create_child: excludes8_fun (1, 5) FAR 28107 U 0.00
expand: excludes8_fun (1, 0) FAR  w(0) 28107. F 0.00
expand: top_step (2, 0) FAR  w(0) 20678. F 0.01
expand: MAIN (3, 0) FAR  w(0) 2317.
	create_child: top_step (2, 5) FAR 28946 U 0.00
expand: top_step (2, 0) FAR  w(0) 28946.
	create_child: excludes8_fun (1, 5) FAR 1658 U 0.01
expand: excludes8_fun (1, 0) FAR  w(0) 1658.
	create_child: firefly_step (1, 5) FAR 29871 X 0.00
expand: firefly_step (1, 0) FAR  w(0) 29871. F 0.01
expand: top_step (2, 0) FAR  w(0) 28946.
	create_child: excludes8_fun (1, 5) FAR 25254 U 0.01
expand: excludes8_fun (1, 0) FAR  w(0) 25254.
	create_child: firefly_step (1, 5) FAR 30307 X 0.00
expand: firefly_step (1, 0) FAR  w(0) 30307. F 0.01
expand: top_step (2, 0) FAR  w(0) 28946. F 0.01
expand: MAIN (3, 0) FAR  w(0) 2317.
	create_child: top_step (2, 5) FAR 29020 U 0.00
expand: top_step (2, 0) FAR  w(0) 29020.
	create_child: excludes8_fun (1, 5) FAR 25254 U 0.01
expand: excludes8_fun (1, 0) FAR  w(0) 25254.
	create_child: firefly_step (1, 5) FAR 30943 X 0.00
expand: firefly_step (1, 0) FAR  w(0) 30943. F 0.01
expand: top_step (2, 0) FAR  w(0) 29020.
	create_child: excludes8_fun (1, 5) FAR 30777 U 0.01
expand: excludes8_fun (1, 0) FAR  w(0) 30777. F 0.00
expand: top_step (2, 0) FAR  w(0) 29020.
	create_child: excludes8_fun (1, 5) FAR 30916 U 0.00
expand: excludes8_fun (1, 0) FAR  w(0) 30916. F 0.00
expand: top_step (2, 0) FAR  w(0) 29020.
	create_child: excludes8_fun (1, 5) FAR 29039 U 0.00
expand: excludes8_fun (1, 0) FAR  w(0) 29039. F 0.00
expand: top_step (2, 0) FAR  w(0) 29020.
	create_child: excludes8_fun (1, 5) FAR 31196 U 0.00
expand: excludes8_fun (1, 0) FAR  w(0) 31196. F 0.00
expand: top_step (2, 0) FAR  w(0) 29020.
	create_child: excludes8_fun (1, 5) FAR 30718 U 0.00
expand: excludes8_fun (1, 0) FAR  w(0) 30718.
	create_child: firefly_step (1, 5) FAR 28970 X 0.00
expand: firefly_step (1, 0) FAR  w(0) 28970. F 0.00
expand: top_step (2, 0) FAR  w(0) 29020. F 0.01
expand: MAIN (3, 0) FAR  w(0) 2317.
	create_child: top_step (2, 5) FAR 32060 U 0.00
expand: top_step (2, 0) FAR  w(0) 32060.
	create_child: excludes8_fun (1, 5) FAR 32328 U 0.01
expand: excludes8_fun (1, 0) FAR  w(0) 32328. F 0.00
expand: top_step (2, 0) FAR  w(0) 32060.
	create_child: excludes8_fun (1, 5) FAR 25254 U 0.00
expand: excludes8_fun (1, 0) FAR  w(0) 25254.
	create_child: firefly_step (1, 5) FAR 32346 X 0.00
expand: firefly_step (1, 0) FAR  w(0) 32346. F 0.01
expand: top_step (2, 0) FAR  w(0) 32060. F 0.01
expand: MAIN (3, 0) FAR  w(0) 2317. F 0.00
expand: ERR (4, 0) FAR  w(0) 1. F 0.00
expand: query!0 (5, 0) FAR  w(0) 1. F 0.00
(spacer::context::check_reachability :time 0.41 :before-memory 23.97 :after-memory 29.73)
Propagating: 0 1 2 3 4 5  ! 6 
(spacer::context::propagate :time 0.01 :before-memory 29.73 :after-memory 29.73)
Entering level 6
BRUNCH_STAT max_query_lvl 5
BRUNCH_STAT num_queries 73
BRUNCH_STAT num_reach_queries 1
BRUNCH_STAT num_reach_reuse 91
BRUNCH_STAT inductive_lvl 0
BRUNCH_STAT max_depth 6
BRUNCH_STAT cex_depth 0
expand: query!0 (6, 0) FAR  w(0) 1.
	create_child: ERR (5, 6) FAR 1 U 0.00
expand: ERR (5, 0) FAR  w(0) 1.
	create_child: MAIN (4, 6) FAR 2317 U 0.00
expand: MAIN (4, 0) FAR  w(0) 2317.
	create_child: MAIN (3, 6) FAR 33507 U 0.00
expand: MAIN (3, 0) FAR  w(0) 33507.
	create_child: top_step (2, 6) FAR 33408 U 0.00
expand: top_step (2, 0) FAR  w(0) 33408.
	create_child: Sofar_step (1, 6) FAR 33617 U 0.00
expand: Sofar_step (1, 0) FAR  w(0) 33617. F 0.00
expand: top_step (2, 0) FAR  w(0) 33408. F 0.00
expand: MAIN (3, 0) FAR  w(0) 33507. F 0.00
expand: MAIN (4, 0) FAR  w(0) 2317.
	create_child: MAIN (3, 6) FAR 33736 U 0.00
expand: MAIN (3, 0) FAR  w(0) 33736.
	create_child: top_step (2, 6) FAR 33663 U 0.00
expand: top_step (2, 0) FAR  w(0) 33663.
	create_child: excludes8_fun (1, 6) FAR 1658 U 0.01
expand: excludes8_fun (1, 0) FAR  w(0) 1658.
	create_child: Sofar_step (1, 6) FAR 33435 X 0.00
expand: Sofar_step (1, 0) FAR  w(0) 33435.
	create_child: firefly_step (1, 6) FAR 33749 X 0.00
expand: firefly_step (1, 0) FAR  w(0) 33749.
	create_child: First_step (1, 6) FAR 33905 X 0.00
expand: First_step (1, 0) FAR  w(0) 33905. F 0.00
expand: top_step (2, 0) FAR  w(0) 33663. F 0.01
expand: MAIN (3, 0) FAR  w(0) 33736.
	create_child: top_step (2, 6) FAR 34465 U 0.00
expand: top_step (2, 0) FAR  w(0) 34465. F 0.01
expand: MAIN (3, 0) FAR  w(0) 33736. F 0.00
expand: MAIN (4, 0) FAR  w(0) 2317.
	create_child: MAIN (3, 6) FAR 35120 U 0.00
expand: MAIN (3, 0) FAR  w(0) 35120.
	create_child: top_step (2, 6) FAR 34967 U 0.00
expand: top_step (2, 0) FAR  w(0) 34967.
	create_child: Sofar_step (1, 6) FAR 35335 U 0.00
expand: Sofar_step (1, 0) FAR  w(0) 35335. F 0.00
expand: top_step (2, 0) FAR  w(0) 34967. F 0.00
expand: MAIN (3, 0) FAR  w(0) 35120.
	create_child: top_step (2, 6) FAR 35164 U 0.00
expand: top_step (2, 0) FAR  w(0) 35164.
	create_child: Sofar_step (1, 6) FAR 33435 U 0.00
expand: Sofar_step (1, 0) FAR  w(0) 33435.
	create_child: First_step (1, 6) FAR 35415 X 0.00
expand: First_step (1, 0) FAR  w(0) 35415. F 0.00
expand: top_step (2, 0) FAR  w(0) 35164. F 0.01
expand: MAIN (3, 0) FAR  w(0) 35120.
	create_child: top_step (2, 6) FAR 35382 U 0.00
expand: top_step (2, 0) FAR  w(0) 35382. F 0.01
expand: MAIN (3, 0) FAR  w(0) 35120. F 0.00
expand: MAIN (4, 0) FAR  w(0) 2317.
	create_child: MAIN (3, 6) FAR 19929 U 0.00
expand: MAIN (3, 0) FAR  w(0) 19929.
	create_child: top_step (2, 6) FAR 36415 U 0.00
expand: top_step (2, 0) FAR  w(0) 36415.
	create_child: firefly_step (1, 6) FAR 35960 U 0.00
expand: firefly_step (1, 0) FAR  w(0) 35960. F 0.01
expand: top_step (2, 0) FAR  w(0) 36415. F 0.01
expand: MAIN (3, 0) FAR  w(0) 19929. F 0.00
expand: MAIN (4, 0) FAR  w(0) 2317.
	create_child: top_step (3, 6) FAR 37523 U 0.00
expand: top_step (3, 0) FAR  w(0) 37523.
	create_child: Sofar_step (2, 6) FAR 37996 U 0.00
expand: Sofar_step (2, 0) FAR  w(0) 37996. F 0.00
expand: top_step (3, 0) FAR  w(0) 37523. F 0.00
expand: MAIN (4, 0) FAR  w(0) 2317.
	create_child: top_step (3, 6) FAR 37797 U 0.00
expand: top_step (3, 0) FAR  w(0) 37797.
	create_child: excludes8_fun (2, 6) FAR 42081 U 0.02
expand: excludes8_fun (2, 0) FAR  w(0) 42081. F 0.00
expand: top_step (3, 0) FAR  w(0) 37797.
	create_child: excludes8_fun (2, 6) FAR 42126 U 0.00
expand: excludes8_fun (2, 0) FAR  w(0) 42126. F 0.00
expand: top_step (3, 0) FAR  w(0) 37797.
	create_child: excludes8_fun (2, 6) FAR 42226 U 0.00
expand: excludes8_fun (2, 0) FAR  w(0) 42226. F 0.00
expand: top_step (3, 0) FAR  w(0) 37797.
	create_child: excludes8_fun (2, 6) FAR 42206 U 0.00
expand: excludes8_fun (2, 0) FAR  w(0) 42206. F 0.00
expand: top_step (3, 0) FAR  w(0) 37797.
	create_child: excludes8_fun (2, 6) FAR 42480 U 0.00
expand: excludes8_fun (2, 0) FAR  w(0) 42480. F 0.00
expand: top_step (3, 0) FAR  w(0) 37797.
	create_child: excludes8_fun (2, 6) FAR 42518 U 0.00
expand: excludes8_fun (2, 0) FAR  w(0) 42518. F 0.00
expand: top_step (3, 0) FAR  w(0) 37797.
	create_child: excludes8_fun (2, 6) FAR 42900 U 0.00
expand: excludes8_fun (2, 0) FAR  w(0) 42900. F 0.00
expand: top_step (3, 0) FAR  w(0) 37797.
	create_child: excludes8_fun (2, 6) FAR 42899 U 0.00
expand: excludes8_fun (2, 0) FAR  w(0) 42899. F 0.00
expand: top_step (3, 0) FAR  w(0) 37797.
	create_child: excludes8_fun (2, 6) FAR 43106 U 0.00
expand: excludes8_fun (2, 0) FAR  w(0) 43106. F 0.00
expand: top_step (3, 0) FAR  w(0) 37797.
	create_child: excludes8_fun (2, 6) FAR 43822 U 0.01
expand: excludes8_fun (2, 0) FAR  w(0) 43822. F 0.00
expand: top_step (3, 0) FAR  w(0) 37797.
	create_child: excludes8_fun (2, 6) FAR 1658 U 0.00
expand: excludes8_fun (2, 0) FAR  w(0) 1658.
	create_child: Sofar_step (2, 6) FAR 44073 X 0.00
expand: Sofar_step (2, 0) FAR  w(0) 44073.
	create_child: firefly_step (2, 6) FAR 44059 X 0.00
expand: firefly_step (2, 0) FAR  w(0) 44059. F 0.01
expand: top_step (3, 0) FAR  w(0) 37797.
	create_child: excludes8_fun (2, 6) FAR 1658 U 0.00
expand: excludes8_fun (2, 0) FAR  w(0) 1658.
	create_child: Sofar_step (2, 6) FAR 44073 X 0.00
expand: Sofar_step (2, 0) FAR  w(0) 44073.
	create_child: firefly_step (2, 6) FAR 44597 X 0.00
expand: firefly_step (2, 0) FAR  w(0) 44597. F 0.01
expand: top_step (3, 0) FAR  w(0) 37797.
	create_child: excludes8_fun (2, 6) FAR 44502 U 0.00
expand: excludes8_fun (2, 0) FAR  w(0) 44502.
	create_child: Sofar_step (2, 6) FAR 44073 X 0.00
expand: Sofar_step (2, 0) FAR  w(0) 44073.
	create_child: firefly_step (2, 6) FAR 44521 X 0.00
expand: firefly_step (2, 0) FAR  w(0) 44521. F 0.01
expand: top_step (3, 0) FAR  w(0) 37797.
	create_child: excludes8_fun (2, 6) FAR 44502 U 0.00
expand: excludes8_fun (2, 0) FAR  w(0) 44502.
	create_child: Sofar_step (2, 6) FAR 44073 X 0.00
expand: Sofar_step (2, 0) FAR  w(0) 44073.
	create_child: firefly_step (2, 6) FAR 45186 X 0.00
expand: firefly_step (2, 0) FAR  w(0) 45186. F 0.01
expand: top_step (3, 0) FAR  w(0) 37797.
	create_child: excludes8_fun (2, 6) FAR 26689 U 0.00
expand: excludes8_fun (2, 0) FAR  w(0) 26689.
	create_child: Sofar_step (2, 6) FAR 44073 X 0.00
expand: Sofar_step (2, 0) FAR  w(0) 44073.
	create_child: firefly_step (2, 6) FAR 45167 X 0.00
expand: firefly_step (2, 0) FAR  w(0) 45167. F 0.01
expand: top_step (3, 0) FAR  w(0) 37797.
	create_child: excludes8_fun (2, 6) FAR 26689 U 0.00
expand: excludes8_fun (2, 0) FAR  w(0) 26689.
	create_child: Sofar_step (2, 6) FAR 44073 X 0.00
expand: Sofar_step (2, 0) FAR  w(0) 44073.
	create_child: firefly_step (2, 6) FAR 45688 X 0.00
expand: firefly_step (2, 0) FAR  w(0) 45688. F 0.01
expand: top_step (3, 0) FAR  w(0) 37797.
	create_child: excludes8_fun (2, 6) FAR 46099 U 0.00
expand: excludes8_fun (2, 0) FAR  w(0) 46099. F 0.00
expand: top_step (3, 0) FAR  w(0) 37797.
	create_child: excludes8_fun (2, 6) FAR 46171 U 0.00
expand: excludes8_fun (2, 0) FAR  w(0) 46171.
	create_child: Sofar_step (2, 6) FAR 44073 X 0.00
expand: Sofar_step (2, 0) FAR  w(0) 44073.
	create_child: firefly_step (2, 6) FAR 46122 X 0.00
expand: firefly_step (2, 0) FAR  w(0) 46122. F 0.01
expand: top_step (3, 0) FAR  w(0) 37797.
	create_child: excludes8_fun (2, 6) FAR 46171 U 0.00
expand: excludes8_fun (2, 0) FAR  w(0) 46171.
	create_child: Sofar_step (2, 6) FAR 44073 X 0.00
expand: Sofar_step (2, 0) FAR  w(0) 44073.
	create_child: firefly_step (2, 6) FAR 46365 X 0.00
expand: firefly_step (2, 0) FAR  w(0) 46365. F 0.01
expand: top_step (3, 0) FAR  w(0) 37797.
	create_child: excludes8_fun (2, 6) FAR 46628 U 0.00
expand: excludes8_fun (2, 0) FAR  w(0) 46628. F 0.00
expand: top_step (3, 0) FAR  w(0) 37797.
	create_child: excludes8_fun (2, 6) FAR 46656 U 0.00
expand: excludes8_fun (2, 0) FAR  w(0) 46656.
	create_child: firefly_step (2, 6) FAR 46698 X 0.00
expand: firefly_step (2, 0) FAR  w(0) 46698. F 0.01
expand: top_step (3, 0) FAR  w(0) 37797.
	create_child: excludes8_fun (2, 6) FAR 46976 U 0.00
expand: excludes8_fun (2, 0) FAR  w(0) 46976. F 0.00
expand: top_step (3, 0) FAR  w(0) 37797. F 0.01
expand: MAIN (4, 0) FAR  w(0) 2317. F 0.00
expand: ERR (5, 0) FAR  w(0) 1. F 0.00
expand: query!0 (6, 0) FAR  w(0) 1. F 0.00
(spacer::context::check_reachability :time 0.37 :before-memory 29.73 :after-memory 33.27)
Propagating: 1 2 3 4 5 6  ! 7 
(spacer::context::propagate :time 0.01 :before-memory 33.27 :after-memory 33.27)
Entering level 7
BRUNCH_STAT max_query_lvl 6
BRUNCH_STAT num_queries 116
BRUNCH_STAT num_reach_queries 1
BRUNCH_STAT num_reach_reuse 152
BRUNCH_STAT inductive_lvl 0
BRUNCH_STAT max_depth 7
BRUNCH_STAT cex_depth 0
expand: query!0 (7, 0) FAR  w(0) 1.
	create_child: ERR (6, 7) FAR 1 U 0.00
expand: ERR (6, 0) FAR  w(0) 1.
	create_child: MAIN (5, 7) FAR 2317 U 0.00
expand: MAIN (5, 0) FAR  w(0) 2317.
	create_child: MAIN (4, 7) FAR 19929 U 0.00
expand: MAIN (4, 0) FAR  w(0) 19929.
	create_child: top_step (3, 7) FAR 47571 U 0.00
expand: top_step (3, 0) FAR  w(0) 47571.
	create_child: excludes8_fun (2, 7) FAR 1658 U 0.01
expand: excludes8_fun (2, 0) FAR  w(0) 1658.
	create_child: Sofar_step (2, 7) FAR 33435 X 0.00
expand: Sofar_step (2, 0) FAR  w(0) 33435.
	create_child: firefly_step (2, 7) FAR 48028 X 0.00
expand: firefly_step (2, 0) FAR  w(0) 48028. F 0.01
expand: top_step (3, 0) FAR  w(0) 47571.
	create_child: excludes8_fun (2, 7) FAR 23825 U 0.00
expand: excludes8_fun (2, 0) FAR  w(0) 23825.
	create_child: Sofar_step (2, 7) FAR 33435 X 0.00
expand: Sofar_step (2, 0) FAR  w(0) 33435.
	create_child: firefly_step (2, 7) FAR 47499 X 0.00
expand: firefly_step (2, 0) FAR  w(0) 47499. F 0.00
expand: top_step (3, 0) FAR  w(0) 47571. F 0.02
expand: MAIN (4, 0) FAR  w(0) 19929. F 0.01
expand: MAIN (5, 0) FAR  w(0) 2317.
	create_child: MAIN (4, 7) FAR 49442 U 0.00
expand: MAIN (4, 0) FAR  w(0) 49442.
	create_child: top_step (3, 7) FAR 49367 U 0.00
expand: top_step (3, 0) FAR  w(0) 49367.
	create_child: firefly_step (2, 7) FAR 49682 U 0.00
expand: firefly_step (2, 0) FAR  w(0) 49682. F 0.01
expand: top_step (3, 0) FAR  w(0) 49367. F 0.01
expand: MAIN (4, 0) FAR  w(0) 49442.
	create_child: top_step (3, 7) FAR 50018 U 0.00
expand: top_step (3, 0) FAR  w(0) 50018.
	create_child: excludes8_fun (2, 7) FAR 23825 U 0.01
expand: excludes8_fun (2, 0) FAR  w(0) 23825.
	create_child: Sofar_step (2, 7) FAR 33435 X 0.00
expand: Sofar_step (2, 0) FAR  w(0) 33435.
	create_child: firefly_step (2, 7) FAR 50170 X 0.00
expand: firefly_step (2, 0) FAR  w(0) 50170. F 0.00
expand: top_step (3, 0) FAR  w(0) 50018. F 0.02
expand: MAIN (4, 0) FAR  w(0) 49442. F 0.00
expand: MAIN (5, 0) FAR  w(0) 2317.
	create_child: MAIN (4, 7) FAR 51852 U 0.00
expand: MAIN (4, 0) FAR  w(0) 51852.
	create_child: top_step (3, 7) FAR 51754 U 0.00
expand: top_step (3, 0) FAR  w(0) 51754. F 0.02
expand: MAIN (4, 0) FAR  w(0) 51852. F 0.00
expand: MAIN (5, 0) FAR  w(0) 2317.
	create_child: MAIN (4, 7) FAR 52989 U 0.00
expand: MAIN (4, 0) FAR  w(0) 52989.
	create_child: top_step (3, 7) FAR 53043 U 0.00
expand: top_step (3, 0) FAR  w(0) 53043. F 0.02
expand: MAIN (4, 0) FAR  w(0) 52989. F 0.00
expand: MAIN (5, 0) FAR  w(0) 2317.
	create_child: top_step (4, 7) FAR 54345 U 0.00
expand: top_step (4, 0) FAR  w(0) 54345.
	create_child: excludes8_fun (3, 7) FAR 55447 U 0.01
expand: excludes8_fun (3, 0) FAR  w(0) 55447. F 0.00
expand: top_step (4, 0) FAR  w(0) 54345.
	create_child: excludes8_fun (3, 7) FAR 44502 U 0.01
expand: excludes8_fun (3, 0) FAR  w(0) 44502.
	create_child: firefly_step (3, 7) FAR 56256 X 0.00
expand: firefly_step (3, 0) FAR  w(0) 56256. F 0.01
expand: top_step (4, 0) FAR  w(0) 54345.
	create_child: excludes8_fun (3, 7) FAR 44502 U 0.00
expand: excludes8_fun (3, 0) FAR  w(0) 44502.
	create_child: firefly_step (3, 7) FAR 56926 X 0.00
expand: firefly_step (3, 0) FAR  w(0) 56926. F 0.01
expand: top_step (4, 0) FAR  w(0) 54345.
	create_child: excludes8_fun (3, 7) FAR 46656 U 0.00
expand: excludes8_fun (3, 0) FAR  w(0) 46656.
	create_child: firefly_step (3, 7) FAR 56918 X 0.00
expand: firefly_step (3, 0) FAR  w(0) 56918. F 0.01
expand: top_step (4, 0) FAR  w(0) 54345.
	create_child: excludes8_fun (3, 7) FAR 57059 U 0.00
expand: excludes8_fun (3, 0) FAR  w(0) 57059. F 0.00
expand: top_step (4, 0) FAR  w(0) 54345. F 0.01
expand: MAIN (5, 0) FAR  w(0) 2317. F 0.00
expand: ERR (6, 0) FAR  w(0) 1. F 0.00
expand: query!0 (7, 0) FAR  w(0) 1. F 0.00
(spacer::context::check_reachability :time 0.24 :before-memory 33.27 :after-memory 36.18)
Propagating: 2 3 4 5 6 7  ! 8 
(spacer::context::propagate :time 0.01 :before-memory 36.18 :after-memory 36.18)
Entering level 8
BRUNCH_STAT max_query_lvl 7
BRUNCH_STAT num_queries 137
BRUNCH_STAT num_reach_queries 1
BRUNCH_STAT num_reach_reuse 173
BRUNCH_STAT inductive_lvl 0
BRUNCH_STAT max_depth 8
BRUNCH_STAT cex_depth 0
expand: query!0 (8, 0) FAR  w(0) 1.
	create_child: ERR (7, 8) FAR 1 U 0.00
expand: ERR (7, 0) FAR  w(0) 1.
	create_child: MAIN (6, 8) FAR 2317 U 0.00
expand: MAIN (6, 0) FAR  w(0) 2317.
	create_child: MAIN (5, 8) FAR 49442 U 0.00
expand: MAIN (5, 0) FAR  w(0) 49442.
	create_child: top_step (4, 8) FAR 58098 U 0.00
expand: top_step (4, 0) FAR  w(0) 58098. F 0.02
expand: MAIN (5, 0) FAR  w(0) 49442. F 0.00
expand: MAIN (6, 0) FAR  w(0) 2317.
	create_child: MAIN (5, 8) FAR 19929 U 0.00
expand: MAIN (5, 0) FAR  w(0) 19929.
	create_child: top_step (4, 8) FAR 58138 U 0.00
expand: top_step (4, 0) FAR  w(0) 58138. F 0.02
expand: MAIN (5, 0) FAR  w(0) 19929. F 0.01
expand: MAIN (6, 0) FAR  w(0) 2317.
	create_child: MAIN (5, 8) FAR 52989 U 0.00
expand: MAIN (5, 0) FAR  w(0) 52989.
	create_child: top_step (4, 8) FAR 58611 U 0.00
expand: top_step (4, 0) FAR  w(0) 58611. F 0.02
expand: MAIN (5, 0) FAR  w(0) 52989. F 0.00
expand: MAIN (6, 0) FAR  w(0) 2317.
	create_child: MAIN (5, 8) FAR 61335 U 0.00
expand: MAIN (5, 0) FAR  w(0) 61335.
	create_child: top_step (4, 8) FAR 60714 U 0.00
expand: top_step (4, 0) FAR  w(0) 60714. F 0.02
expand: MAIN (5, 0) FAR  w(0) 61335. F 0.00
expand: MAIN (6, 0) FAR  w(0) 2317. F 0.00
expand: ERR (7, 0) FAR  w(0) 1. F 0.00
expand: query!0 (8, 0) FAR  w(0) 1. F 0.00
(spacer::context::check_reachability :time 0.11 :before-memory 36.18 :after-memory 37.13)
Propagating: 4 
(spacer::context::propagate :time 0.00 :before-memory 37.13 :after-memory 37.13)
(define-fun ERR () Bool
  false)
(define-fun First_reset ((x!0 Int) (x!1 Bool) (x!2 Int) (x!3 Bool)) Bool
  x!3)
(define-fun MAIN ((x!0 Int)
 (x!1 Bool)
 (x!2 Int)
 (x!3 Int)
 (x!4 Int)
 (x!5 Int)
 (x!6 Int)
 (x!7 Int)
 (x!8 Bool)
 (x!9 Bool)
 (x!10 Bool)
 (x!11 Bool)) Bool
  (let ((a!1 (+ x!0 (* (- 1) x!3) (* (- 1) x!4) (* (- 1) x!5) (* (- 1) x!6)))
        (a!2 (+ x!0 (* (- 1) x!2) (* (- 1) x!3) (* (- 1) x!5) (* (- 1) x!6))))
    (and (or (<= x!2 0) (not x!9) (not (<= a!1 0)))
         x!11
         (not x!1)
         (not x!8)
         (not x!10)
         (or (<= a!2 0) (not x!9))
         (or (>= a!2 0) (not x!9))
         (or (not (= x!2 1)) (not x!9) (not (>= a!1 2))))))
(define-fun First_step ((x!0 Int)
 (x!1 Int)
 (x!2 Int)
 (x!3 Bool)
 (x!4 Int)
 (x!5 Bool)) Bool
  (let ((a!1 (or (<= (+ x!1 (* (- 1) x!2)) 0) x!3))
        (a!2 (or (not x!3) (= (+ x!1 (* (- 1) x!0)) 0)))
        (a!3 (or (>= (+ x!1 (* (- 1) x!2)) 0) x!3)))
    (and a!1
         (not x!5)
         a!2
         (<= (+ x!1 (* (- 1) x!4)) 0)
         (>= (+ x!1 (* (- 1) x!4)) 0)
         a!3)))
(define-fun firefly_reset ((x!0 Int)
 (x!1 Int)
 (x!2 Int)
 (x!3 Int)
 (x!4 Int)
 (x!5 Int)
 (x!6 Bool)
 (x!7 Int)
 (x!8 Int)
 (x!9 Int)
 (x!10 Int)
 (x!11 Int)
 (x!12 Int)
 (x!13 Bool)) Bool
  x!13)
(define-fun Sofar_reset ((x!0 Bool) (x!1 Bool) (x!2 Bool) (x!3 Bool)) Bool
  x!3)
(define-fun Sofar_step ((x!0 Bool)
 (x!1 Bool)
 (x!2 Bool)
 (x!3 Bool)
 (x!4 Bool)
 (x!5 Bool)) Bool
  (and (or x!3 (not x!1) x!2)
       (not x!5)
       (or x!0 (not x!4))
       (or x!0 (not x!1))
       (or x!2 x!3 (not x!4))))
(define-fun firefly_step ((x!0 Bool)
 (x!1 Bool)
 (x!2 Bool)
 (x!3 Bool)
 (x!4 Bool)
 (x!5 Bool)
 (x!6 Bool)
 (x!7 Bool)
 (x!8 Int)
 (x!9 Int)
 (x!10 Int)
 (x!11 Int)
 (x!12 Int)
 (x!13 Int)
 (x!14 Int)
 (x!15 Int)
 (x!16 Int)
 (x!17 Int)
 (x!18 Int)
 (x!19 Bool)
 (x!20 Int)
 (x!21 Int)
 (x!22 Int)
 (x!23 Int)
 (x!24 Int)
 (x!25 Int)
 (x!26 Bool)) Bool
  (let ((a!1 (not (<= (+ x!13 (* (- 1) x!15)) 1)))
        (a!2 (+ x!10
                x!11
                x!12
                x!9
                (* (- 1) x!13)
                (* (- 1) x!14)
                (* (- 1) x!16)
                (* (- 1) x!17)))
        (a!3 (or (>= (+ x!8
                        (* (- 1) x!10)
                        (* (- 1) x!11)
                        (* (- 1) x!12)
                        (* (- 1) x!9))
                     0)
                 (not x!19)))
        (a!4 (or (>= (+ x!10 x!11 x!12 x!9 (* (- 1) x!8)) 0) (not x!19)))
        (a!5 (or (>= (+ x!10
                        x!11
                        x!12
                        x!9
                        (* (- 1) x!13)
                        (* (- 1) x!14)
                        (* (- 1) x!17))
                     0)
                 x!3
                 x!7
                 x!2
                 x!19
                 (not (<= x!13 0))
                 (not (= x!16 0))))
        (a!6 (or (<= (+ x!10
                        x!11
                        x!12
                        x!9
                        (* (- 1) x!14)
                        (* (- 1) x!16)
                        (* (- 1) x!17))
                     0)
                 x!2
                 x!0
                 x!19
                 (not (<= x!13 0))
                 (not (<= x!16 0))
                 (not (<= x!14 0))))
        (a!7 (or (>= (+ x!13
                        x!14
                        x!16
                        x!17
                        (* (- 1) x!10)
                        (* (- 1) x!11)
                        (* (- 1) x!12)
                        (* (- 1) x!9))
                     0)
                 x!19
                 (not (<= x!16 0))
                 (not (<= x!14 0))
                 (>= x!13 0)))
        (a!9 (+ x!10
                x!11
                x!12
                x!9
                (* (- 1) x!21)
                (* (- 1) x!22)
                (* (- 1) x!23)
                (* (- 1) x!24))))
  (let ((a!8 (or (= x!14 0)
                 x!19
                 (not (<= x!16 0))
                 (not (<= x!14 0))
                 (= x!13 1)
                 (>= a!2 0)
                 (not (<= (+ x!13 x!14) 0))))
        (a!10 (or (<= (+ x!13 (* (- 1) x!15)) 0)
                  x!6
                  x!1
                  x!7
                  x!2
                  x!0
                  x!19
                  (<= a!2 0)))
        (a!11 (or (<= (+ x!13 (* (- 1) x!15)) 0)
                  x!6
                  x!5
                  x!3
                  x!1
                  x!7
                  x!2
                  x!19
                  (<= a!2 0))))
    (and (or a!1 x!6 x!3 x!1 x!7 x!0 x!19 (>= a!2 0))
         (not x!26)
         a!3
         a!4
         (or (<= x!21 0) (not x!19))
         (>= (+ x!10
                x!11
                x!12
                x!9
                (* (- 1) x!20)
                (* (- 1) x!21)
                (* (- 1) x!23)
                (* (- 1) x!24))
             0)
         (or (<= x!23 0) (not x!19))
         (>= (+ x!20
                x!21
                x!23
                x!24
                (* (- 1) x!10)
                (* (- 1) x!11)
                (* (- 1) x!12)
                (* (- 1) x!9))
             0)
         (or (<= x!20 0) (not x!19))
         a!5
         (or (>= a!2 0)
             x!5
             x!19
             (not (<= x!13 0))
             (not (<= x!16 0))
             (not (<= x!14 0)))
         a!6
         a!7
         (or (>= a!2 0) x!19 (not (<= x!16 0)) (not (<= x!14 0)) (>= x!13 0))
         (or (<= a!2 0)
             x!5
             x!19
             (not (<= x!13 0))
             (not (<= x!16 0))
             (not (<= x!14 0)))
         a!8
         (or (= x!13 1) (not (= x!20 1)) (not (<= x!16 0)))
         (or (>= a!2 0)
             x!3
             x!19
             (not (<= x!13 0))
             (not (<= x!16 0))
             (not (<= x!14 0)))
         (or (>= a!2 0) x!3 x!7 x!4 x!2 x!19)
         (or (<= a!2 0) x!5 x!3 x!7 x!4 x!2 x!0 x!19)
         (or (<= a!2 0) x!5 x!3 x!7 x!2 x!0 x!19 (= x!13 1))
         (or (>= a!2 0) x!6 x!3 x!7 x!2 x!19 (= x!13 1))
         (or (<= a!2 0) x!6 x!7 x!2 x!0 x!19 (= x!13 1))
         (or (>= a!2 0) x!6 x!3 x!1 x!4 x!0 x!19)
         (or (>= a!2 0) x!5 x!1 x!7 x!4 x!2 x!19)
         (or (<= a!2 0) x!6 x!5 x!3 x!1 x!4 x!0 x!19)
         (or (<= a!2 0) x!6 x!5 x!3 x!1 x!7 x!2 x!19 (= x!13 1))
         (or (= x!13 1) x!6 x!1 (not (= x!20 1)))
         (or (not (<= x!20 1)) (not (>= a!9 2)))
         (or (not (>= x!13 2)) (not (= x!20 1)))
         (or (not (<= a!9 0)) (<= x!20 0))
         a!10
         a!11))))
(define-fun top_step ((x!0 Bool)
 (x!1 Bool)
 (x!2 Bool)
 (x!3 Bool)
 (x!4 Bool)
 (x!5 Bool)
 (x!6 Bool)
 (x!7 Bool)
 (x!8 Int)
 (x!9 Bool)
 (x!10 Int)
 (x!11 Bool)
 (x!12 Int)
 (x!13 Int)
 (x!14 Int)
 (x!15 Int)
 (x!16 Int)
 (x!17 Int)
 (x!18 Bool)
 (x!19 Bool)
 (x!20 Bool)
 (x!21 Int)
 (x!22 Bool)
 (x!23 Int)
 (x!24 Int)
 (x!25 Int)
 (x!26 Int)
 (x!27 Int)
 (x!28 Int)
 (x!29 Bool)
 (x!30 Bool)
 (x!31 Bool)) Bool
  (let ((a!1 (+ x!10
                (* (- 1) x!13)
                (* (- 1) x!14)
                (* (- 1) x!15)
                (* (- 1) x!16)))
        (a!2 (+ x!21
                (* (- 1) x!23)
                (* (- 1) x!24)
                (* (- 1) x!26)
                (* (- 1) x!27)))
        (a!3 (+ x!10
                (* (- 1) x!12)
                (* (- 1) x!13)
                (* (- 1) x!15)
                (* (- 1) x!16)))
        (a!4 (+ x!21
                (* (- 1) x!24)
                (* (- 1) x!25)
                (* (- 1) x!26)
                (* (- 1) x!27))))
    (and (or (not (<= a!1 1)) (not x!30) x!18 x!11 (<= a!2 0) (not (= a!3 0)))
         (not x!31)
         (not x!29)
         (not x!22)
         (or (not x!18) (not x!11) x!9)
         (or (<= x!24 0) (not x!18))
         (or (<= x!26 0) (not x!18))
         (or (>= a!2 0) (not x!11) (not x!18))
         (or (<= a!2 0) (not x!11) (not x!18))
         (or (<= x!23 0) (not x!18))
         (or (not x!30) x!19 x!20)
         (or (>= x!12 0)
             x!18
             x!11
             (<= a!2 0)
             (not (<= x!15 0))
             (not (<= x!13 0))
             (not (<= a!3 0)))
         (or (not (<= x!12 0)) (not (= x!23 1)) (not (<= x!15 0)))
         (or x!20 x!9 x!19)
         (or (= x!12 1) x!9 x!18 x!11 (not (= a!3 0)))
         (or (not (>= a!4 2))
             (not x!30)
             x!11
             (not (= x!23 1))
             (not (<= a!3 0))
             (= x!12 1))
         (or (not (>= x!12 2)) (not (= x!23 1)))
         (or (not (<= a!4 0))
             (not x!30)
             x!11
             (<= x!23 0)
             (not (>= a!3 0))
             (= x!12 1))
         (or (= x!12 1) (not x!30) x!18 x!11 (<= a!2 0) (not (<= a!3 0)))
         (or (= x!12 1) (not x!30) x!18 x!11 (>= a!2 0) (not (>= a!3 0)))
         (or (not (= a!1 1)) x!9 x!18 x!11 (not (= a!3 0)))
         (or (<= a!1 0)
             (not x!30)
             x!11
             (<= x!23 0)
             (not (= a!3 0))
             (not (<= a!4 0)))
         (or (not (<= a!1 1))
             (not x!30)
             x!11
             (not (= x!23 1))
             (not (= a!3 0))
             (not (>= a!4 2)))
         (or (<= a!1 0) (not x!30) x!18 x!11 (>= a!2 0) (not (= a!3 0))))))
(define-fun top_reset ((x!0 Int)
 (x!1 Bool)
 (x!2 Int)
 (x!3 Int)
 (x!4 Int)
 (x!5 Int)
 (x!6 Int)
 (x!7 Int)
 (x!8 Bool)
 (x!9 Bool)
 (x!10 Bool)
 (x!11 Int)
 (x!12 Bool)
 (x!13 Int)
 (x!14 Int)
 (x!15 Int)
 (x!16 Int)
 (x!17 Int)
 (x!18 Int)
 (x!19 Bool)
 (x!20 Bool)
 (x!21 Bool)) Bool
  (and x!21 x!12 x!19))
(define-fun excludes8_fun ((x!0 Bool)
 (x!1 Bool)
 (x!2 Bool)
 (x!3 Bool)
 (x!4 Bool)
 (x!5 Bool)
 (x!6 Bool)
 (x!7 Bool)
 (x!8 Bool)) Bool
  (and (or (not x!5) (not x!8) (not x!1))
       (or (not x!8) (not x!2) (not x!5))
       (or (not x!8) (not x!0) (not x!5))
       (or (not x!8) (not x!3) (not x!5))
       (or (not x!7) (not x!8) (not x!5))
       (or (not x!6) (not x!8) (not x!3))
       (or (not x!3) (not x!8) (not x!0))
       (or (not x!5) (not x!8) (not x!6))
       (or (not x!6) (not x!8) (not x!0))
       (or (not x!7) (not x!8) (not x!0))
       (or (not x!1) (not x!8) (not x!0))
       (or (not x!8) (not x!4) (not x!6))
       (or (not x!8) (not x!4) (not x!7))
       (or (not x!8) (not x!6) (not x!7))
       (or (not x!8) (not x!3) (not x!7))
       (or (not x!8) (not x!1) (not x!3))
       (or (not x!8) (not x!1) (not x!7))
       (or (not x!8) (not x!2) (not x!6))
       (or (not x!8) (not x!2) (not x!3))
       (or (not x!8) (not x!1) (not x!2))
       (or (not x!8) (not x!0) (not x!2))
       (or (not x!4) (not x!8) (not x!3))
       (or (not x!4) (not x!8) (not x!0))
       (or (not x!4) (not x!8) (not x!2))
       (or (not x!8) (not x!1) (not x!4))))
BRUNCH_STAT max_query_lvl 8
BRUNCH_STAT num_queries 147
BRUNCH_STAT num_reach_queries 1
BRUNCH_STAT num_reach_reuse 177
BRUNCH_STAT inductive_lvl 4
BRUNCH_STAT max_depth 8
BRUNCH_STAT cex_depth 0
(:SPACER-inductive-level               4
 :SPACER-max-depth                     8
 :SPACER-max-query-lvl                 8
 :SPACER-num-invariants                122
 :SPACER-num-lemmas                    156
 :SPACER-num-properties                117
 :SPACER-num-queries                   147
 :SPACER-num-reach-queries             1
 :SPACER-num-reuse-reach-facts         177
 :added-eqs                            54297
 :arith-add-rows                       24345
 :arith-assert-diseq                   14808
 :arith-assert-lower                   33646
 :arith-assert-upper                   33115
 :arith-bound-prop                     1402
 :arith-conflicts                      169
 :arith-eq-adapter                     13208
 :arith-fixed-eqs                      9531
 :arith-offset-eqs                     5908
 :arith-pivots                         3443
 :bool-inductive-gen                   136
 :bool-inductive-gen-failures          477
 :conflicts                            2308
 :decisions                            45576
 :del-clause                           2055
 :final-checks                         825
 :minimized-lits                       4127
 :mk-bool-var                          25380
 :mk-clause                            10116
 :num-checks                           1651
 :propagations                         472027
 :time.itp_solver.itp_core             0.08
 :time.spacer.init_rules               0.01
 :time.spacer.init_rules.pt.init       0.00
 :time.spacer.solve                    1.22
 :time.spacer.solve.propagate          0.02
 :time.spacer.solve.pt.must_reachable  0.05
 :time.spacer.solve.reach              1.20
 :time.spacer.solve.reach.children     0.18
 :time.spacer.solve.reach.gen.bool_ind 0.40
 :time.virtual_solver.proof            0.05
 :time.virtual_solver.smt.total        0.84
 :time.virtual_solver.smt.total.sat    0.51
 :virtual_solver.checks                1651
 :virtual_solver.checks.sat            825)
BRUNCH_STAT max_query_lvl 8
BRUNCH_STAT num_queries 147
BRUNCH_STAT num_reach_queries 1
BRUNCH_STAT num_reach_reuse 177
BRUNCH_STAT inductive_lvl 4
BRUNCH_STAT max_depth 8
BRUNCH_STAT cex_depth 0

real	0m1.354s
user	0m1.312s
sys	0m0.040s
