(transform N7datalog13mk_coi_filterE...no-op 0s)
(transform N7datalog25mk_interp_tail_simplifierE...14 rules 0s)
(transform N7datalog27mk_quantifier_instantiationE...no-op 0s)
(transform N7datalog8mk_scaleE...no-op 0s)
(transform N7datalog18mk_karr_invariantsE...no-op 0s)
(transform N7datalog14mk_array_blastE...no-op 0s)
(transform N7datalog22mk_subsumption_checkerE...13 rules 0s)
(transform N7datalog12mk_bit_blastE...no-op 0s)
(transform N7datalog15mk_rule_inlinerE...no-op 0s)
(transform N7datalog13mk_coi_filterE...no-op 0s)
(transform N7datalog25mk_interp_tail_simplifierE...13 rules 0s)
(transform N7datalog22mk_subsumption_checkerE...no-op 0s)
(transform N7datalog15mk_rule_inlinerE...no-op 0s)
(transform N7datalog13mk_coi_filterE...no-op 0s)
(transform N7datalog25mk_interp_tail_simplifierE...13 rules 0s)
(transform N7datalog22mk_subsumption_checkerE...no-op 0s)
(transform N7datalog15mk_rule_inlinerE...no-op 0s)
(transform N7datalog22mk_subsumption_checkerE...no-op 0s)
(transform N7datalog15mk_rule_inlinerE...no-op 0s)
(transform N7datalog22mk_subsumption_checkerE...no-op 0s)
(transform N7datalog15mk_rule_inlinerE...no-op 0s)
(transform N7datalog22mk_subsumption_checkerE...no-op 0s)
expand: query!0 (0, 0) FAR  w(0) 1. F 0.00
(spacer::context::check_reachability :time 0.00 :before-memory 13.33 :after-memory 13.74)
Entering level 1
BRUNCH_STAT max_query_lvl 0
BRUNCH_STAT num_queries 0
BRUNCH_STAT num_reach_queries 0
BRUNCH_STAT num_reach_reuse 0
BRUNCH_STAT inductive_lvl 0
BRUNCH_STAT max_depth 1
BRUNCH_STAT cex_depth 0
expand: query!0 (1, 0) FAR  w(0) 1.
	create_child: ERR (0, 1) FAR 1 U 0.00
expand: ERR (0, 0) FAR  w(0) 1. F 0.00
expand: query!0 (1, 0) FAR  w(0) 1. F 0.00
(spacer::context::check_reachability :time 0.00 :before-memory 13.74 :after-memory 14.19)
Propagating: 0 1  ! 2 
(spacer::context::propagate :time 0.00 :before-memory 14.19 :after-memory 14.19)
Entering level 2
BRUNCH_STAT max_query_lvl 1
BRUNCH_STAT num_queries 1
BRUNCH_STAT num_reach_queries 0
BRUNCH_STAT num_reach_reuse 0
BRUNCH_STAT inductive_lvl 0
BRUNCH_STAT max_depth 2
BRUNCH_STAT cex_depth 0
expand: query!0 (2, 0) FAR  w(0) 1.
	create_child: ERR (1, 2) FAR 1 U 0.00
expand: ERR (1, 0) FAR  w(0) 1.
	create_child: MAIN (0, 2) FAR 2328 U 0.00
expand: MAIN (0, 0) FAR  w(0) 2328. F 0.00
expand: ERR (1, 0) FAR  w(0) 1. F 0.00
expand: query!0 (2, 0) FAR  w(0) 1. F 0.00
(spacer::context::check_reachability :time 0.00 :before-memory 14.19 :after-memory 14.65)
Propagating: 0 1 2  ! 3 
(spacer::context::propagate :time 0.00 :before-memory 14.65 :after-memory 14.65)
Entering level 3
BRUNCH_STAT max_query_lvl 2
BRUNCH_STAT num_queries 3
BRUNCH_STAT num_reach_queries 0
BRUNCH_STAT num_reach_reuse 0
BRUNCH_STAT inductive_lvl 0
BRUNCH_STAT max_depth 3
BRUNCH_STAT cex_depth 0
expand: query!0 (3, 0) FAR  w(0) 1.
	create_child: ERR (2, 3) FAR 1 U 0.00
expand: ERR (2, 0) FAR  w(0) 1.
	create_child: MAIN (1, 3) FAR 2328 U 0.00
expand: MAIN (1, 0) FAR  w(0) 2328.
	create_child: top_step (0, 3) FAR 3101 U 0.00
expand: top_step (0, 0) FAR  w(0) 3101. F 0.00
expand: MAIN (1, 0) FAR  w(0) 2328. F 0.00
expand: ERR (2, 0) FAR  w(0) 1. F 0.00
expand: query!0 (3, 0) FAR  w(0) 1. F 0.00
(spacer::context::check_reachability :time 0.01 :before-memory 14.65 :after-memory 15.78)
Propagating: 0 1 2 3  ! 4 
(spacer::context::propagate :time 0.00 :before-memory 15.78 :after-memory 15.88)
Entering level 4
BRUNCH_STAT max_query_lvl 3
BRUNCH_STAT num_queries 6
BRUNCH_STAT num_reach_queries 0
BRUNCH_STAT num_reach_reuse 0
BRUNCH_STAT inductive_lvl 0
BRUNCH_STAT max_depth 4
BRUNCH_STAT cex_depth 0
expand: query!0 (4, 0) FAR  w(0) 1.
	create_child: ERR (3, 4) FAR 1 U 0.00
expand: ERR (3, 0) FAR  w(0) 1.
	create_child: MAIN (2, 4) FAR 2328 U 0.00
expand: MAIN (2, 0) FAR  w(0) 2328.
	create_child: top_step (1, 4) FAR 3101 U 0.00
expand: top_step (1, 0) FAR  w(0) 3101.
	create_child: top_reset (1, 4) FAR 8661 X 0.00
expand: top_reset (1, 0) FAR  w(0) 8661.
	create_child: firefly_reset (0, 4) FAR 9174 U 0.00
expand: firefly_reset (0, 0) FAR  w(0) 9174. F 0.00
expand: top_reset (1, 0) FAR  w(0) 8661. F 0.00
expand: MAIN (2, 0) FAR  w(0) 2328.
	create_child: top_step (1, 4) FAR 11893 U 0.00
expand: top_step (1, 0) FAR  w(0) 11893.
	create_child: firefly_step (0, 4) FAR 12173 U 0.00
expand: firefly_step (0, 0) FAR  w(0) 12173. F 0.00
expand: top_step (1, 0) FAR  w(0) 11893. F 0.00
expand: MAIN (2, 0) FAR  w(0) 2328. F 0.00
expand: ERR (3, 0) FAR  w(0) 1. F 0.00
expand: query!0 (4, 0) FAR  w(0) 1. F 0.00
(spacer::context::check_reachability :time 0.02 :before-memory 15.88 :after-memory 19.91)
Propagating: 0 1 2 3 4  ! 5 
(spacer::context::propagate :time 0.00 :before-memory 19.91 :after-memory 19.91)
Entering level 5
BRUNCH_STAT max_query_lvl 4
BRUNCH_STAT num_queries 12
BRUNCH_STAT num_reach_queries 1
BRUNCH_STAT num_reach_reuse 7
BRUNCH_STAT inductive_lvl 0
BRUNCH_STAT max_depth 5
BRUNCH_STAT cex_depth 0
expand: query!0 (5, 0) FAR  w(0) 1.
	create_child: ERR (4, 5) FAR 1 U 0.00
expand: ERR (4, 0) FAR  w(0) 1.
	create_child: MAIN (3, 5) FAR 2328 U 0.00
expand: MAIN (3, 0) FAR  w(0) 2328.
	create_child: MAIN (2, 5) FAR 14537 U 0.00
expand: MAIN (2, 0) FAR  w(0) 14537.
	create_child: top_step (1, 5) FAR 14439 U 0.00
expand: top_step (1, 0) FAR  w(0) 14439.
	create_child: First_step (0, 5) FAR 14511 U 0.00
expand: First_step (0, 0) FAR  w(0) 14511. F 0.00
expand: top_step (1, 0) FAR  w(0) 14439. F 0.00
expand: MAIN (2, 0) FAR  w(0) 14537. F 0.00
expand: MAIN (3, 0) FAR  w(0) 2328.
	create_child: MAIN (2, 5) FAR 14846 U 0.00
expand: MAIN (2, 0) FAR  w(0) 14846.
	create_child: top_step (1, 5) FAR 14784 U 0.00
expand: top_step (1, 0) FAR  w(0) 14784.
	create_child: Sofar_step (0, 5) FAR 14773 U 0.00
expand: Sofar_step (0, 0) FAR  w(0) 14773. F 0.00
expand: top_step (1, 0) FAR  w(0) 14784. F 0.00
expand: MAIN (2, 0) FAR  w(0) 14846. F 0.00
expand: MAIN (3, 0) FAR  w(0) 2328.
	create_child: MAIN (2, 5) FAR 15179 U 0.00
expand: MAIN (2, 0) FAR  w(0) 15179.
	create_child: top_step (1, 5) FAR 15028 U 0.00
expand: top_step (1, 0) FAR  w(0) 15028.
	create_child: Sofar_step (0, 5) FAR 15071 U 0.00
expand: Sofar_step (0, 0) FAR  w(0) 15071.
	create_child: firefly_step (0, 5) FAR 15098 X 0.00
expand: firefly_step (0, 0) FAR  w(0) 15098. F 0.00
expand: top_step (1, 0) FAR  w(0) 15028. F 0.00
expand: MAIN (2, 0) FAR  w(0) 15179. F 0.00
expand: MAIN (3, 0) FAR  w(0) 2328.
	create_child: MAIN (2, 5) FAR 15479 U 0.00
expand: MAIN (2, 0) FAR  w(0) 15479.
	create_child: top_step (1, 5) FAR 15437 U 0.00
expand: top_step (1, 0) FAR  w(0) 15437.
	create_child: firefly_step (0, 5) FAR 15492 U 0.00
expand: firefly_step (0, 0) FAR  w(0) 15492. F 0.00
expand: top_step (1, 0) FAR  w(0) 15437. F 0.00
expand: MAIN (2, 0) FAR  w(0) 15479. F 0.00
expand: MAIN (3, 0) FAR  w(0) 2328.
	create_child: top_step (2, 5) FAR 15946 U 0.00
expand: top_step (2, 0) FAR  w(0) 15946.
	create_child: firefly_step (1, 5) FAR 16236 U 0.00
expand: firefly_step (1, 0) FAR  w(0) 16236. F 0.00
expand: top_step (2, 0) FAR  w(0) 15946.
	create_child: firefly_step (1, 5) FAR 16555 U 0.00
expand: firefly_step (1, 0) FAR  w(0) 16555. F 0.00
expand: top_step (2, 0) FAR  w(0) 15946.
	create_child: firefly_step (1, 5) FAR 16646 U 0.00
expand: firefly_step (1, 0) FAR  w(0) 16646. F 0.00
expand: top_step (2, 0) FAR  w(0) 15946.
	create_child: firefly_step (1, 5) FAR 16738 U 0.00
expand: firefly_step (1, 0) FAR  w(0) 16738. F 0.00
expand: top_step (2, 0) FAR  w(0) 15946.
	create_child: excludes8_fun (1, 5) FAR 16856 U 0.00
expand: excludes8_fun (1, 0) FAR  w(0) 16856. F 0.00
expand: top_step (2, 0) FAR  w(0) 15946.
	create_child: excludes8_fun (1, 5) FAR 17245 U 0.00
expand: excludes8_fun (1, 0) FAR  w(0) 17245. F 0.00
expand: top_step (2, 0) FAR  w(0) 15946.
	create_child: excludes8_fun (1, 5) FAR 17243 U 0.00
expand: excludes8_fun (1, 0) FAR  w(0) 17243. F 0.00
expand: top_step (2, 0) FAR  w(0) 15946.
	create_child: excludes8_fun (1, 5) FAR 17150 U 0.00
expand: excludes8_fun (1, 0) FAR  w(0) 17150.
	create_child: Sofar_step (1, 5) FAR 17321 X 0.00
expand: Sofar_step (1, 0) FAR  w(0) 17321. F 0.00
expand: top_step (2, 0) FAR  w(0) 15946. F 0.00
expand: MAIN (3, 0) FAR  w(0) 2328. F 0.00
expand: ERR (4, 0) FAR  w(0) 1. F 0.00
expand: query!0 (5, 0) FAR  w(0) 1. F 0.00
(spacer::context::check_reachability :time 0.07 :before-memory 19.91 :after-memory 23.18)
Propagating: 0 1 2 3 4 5  ! 6 
(spacer::context::propagate :time 0.00 :before-memory 23.18 :after-memory 23.18)
Entering level 6
BRUNCH_STAT max_query_lvl 5
BRUNCH_STAT num_queries 35
BRUNCH_STAT num_reach_queries 1
BRUNCH_STAT num_reach_reuse 38
BRUNCH_STAT inductive_lvl 0
BRUNCH_STAT max_depth 6
BRUNCH_STAT cex_depth 0
expand: query!0 (6, 0) FAR  w(0) 1.
	create_child: ERR (5, 6) FAR 1 U 0.00
expand: ERR (5, 0) FAR  w(0) 1.
	create_child: MAIN (4, 6) FAR 2328 U 0.00
expand: MAIN (4, 0) FAR  w(0) 2328.
	create_child: MAIN (3, 6) FAR 17919 U 0.00
expand: MAIN (3, 0) FAR  w(0) 17919.
	create_child: top_step (2, 6) FAR 17837 U 0.00
expand: top_step (2, 0) FAR  w(0) 17837.
	create_child: Sofar_step (1, 6) FAR 18055 U 0.00
expand: Sofar_step (1, 0) FAR  w(0) 18055. F 0.00
expand: top_step (2, 0) FAR  w(0) 17837. F 0.00
expand: MAIN (3, 0) FAR  w(0) 17919. F 0.00
expand: MAIN (4, 0) FAR  w(0) 2328.
	create_child: MAIN (3, 6) FAR 15479 U 0.00
expand: MAIN (3, 0) FAR  w(0) 15479.
	create_child: top_step (2, 6) FAR 18285 U 0.00
expand: top_step (2, 0) FAR  w(0) 18285.
	create_child: firefly_step (1, 6) FAR 18215 U 0.00
expand: firefly_step (1, 0) FAR  w(0) 18215. F 0.00
expand: top_step (2, 0) FAR  w(0) 18285. F 0.00
expand: MAIN (3, 0) FAR  w(0) 15479. F 0.00
expand: MAIN (4, 0) FAR  w(0) 2328.
	create_child: top_step (3, 6) FAR 18676 U 0.00
expand: top_step (3, 0) FAR  w(0) 18676.
	create_child: Sofar_step (2, 6) FAR 18953 U 0.00
expand: Sofar_step (2, 0) FAR  w(0) 18953. F 0.00
expand: top_step (3, 0) FAR  w(0) 18676. F 0.00
expand: MAIN (4, 0) FAR  w(0) 2328.
	create_child: top_step (3, 6) FAR 18927 U 0.00
expand: top_step (3, 0) FAR  w(0) 18927.
	create_child: firefly_step (2, 6) FAR 19013 U 0.00
expand: firefly_step (2, 0) FAR  w(0) 19013. F 0.00
expand: top_step (3, 0) FAR  w(0) 18927. F 0.00
expand: MAIN (4, 0) FAR  w(0) 2328. F 0.00
expand: ERR (5, 0) FAR  w(0) 1. F 0.00
expand: query!0 (6, 0) FAR  w(0) 1. F 0.00
(spacer::context::check_reachability :time 0.04 :before-memory 23.18 :after-memory 23.93)
Propagating: 1 2 3 4 5 6  ! 7 
(spacer::context::propagate :time 0.00 :before-memory 23.93 :after-memory 23.93)
Entering level 7
BRUNCH_STAT max_query_lvl 6
BRUNCH_STAT num_queries 47
BRUNCH_STAT num_reach_queries 1
BRUNCH_STAT num_reach_reuse 51
BRUNCH_STAT inductive_lvl 0
BRUNCH_STAT max_depth 7
BRUNCH_STAT cex_depth 0
expand: query!0 (7, 0) FAR  w(0) 1.
	create_child: ERR (6, 7) FAR 1 U 0.00
expand: ERR (6, 0) FAR  w(0) 1.
	create_child: MAIN (5, 7) FAR 2328 U 0.00
expand: MAIN (5, 0) FAR  w(0) 2328.
	create_child: MAIN (4, 7) FAR 17919 U 0.00
expand: MAIN (4, 0) FAR  w(0) 17919.
	create_child: top_step (3, 7) FAR 19340 U 0.00
expand: top_step (3, 0) FAR  w(0) 19340. F 0.00
expand: MAIN (4, 0) FAR  w(0) 17919.
	create_child: top_step (3, 7) FAR 19317 U 0.00
expand: top_step (3, 0) FAR  w(0) 19317. F 0.00
expand: MAIN (4, 0) FAR  w(0) 17919. F 0.00
expand: MAIN (5, 0) FAR  w(0) 2328.
	create_child: MAIN (4, 7) FAR 15479 U 0.00
expand: MAIN (4, 0) FAR  w(0) 15479. F 0.00
expand: MAIN (5, 0) FAR  w(0) 2328. F 0.00
expand: ERR (6, 0) FAR  w(0) 1. F 0.00
expand: query!0 (7, 0) FAR  w(0) 1. F 0.00
(spacer::context::check_reachability :time 0.01 :before-memory 23.93 :after-memory 24.02)
Propagating: 3 
(spacer::context::propagate :time 0.00 :before-memory 24.02 :after-memory 24.02)
(define-fun ERR () Bool
  false)
(define-fun First_reset ((x!0 Int) (x!1 Bool) (x!2 Int) (x!3 Bool)) Bool
  true)
(define-fun First_step ((x!0 Int)
 (x!1 Int)
 (x!2 Int)
 (x!3 Bool)
 (x!4 Int)
 (x!5 Bool)) Bool
  (not x!5))
(define-fun Sofar_step ((x!0 Bool)
 (x!1 Bool)
 (x!2 Bool)
 (x!3 Bool)
 (x!4 Bool)
 (x!5 Bool)) Bool
  (and (or x!2 x!3 (not x!1)) (not x!5) (or (not x!1) x!0) (or (not x!4) x!1)))
(define-fun firefly_reset ((x!0 Int)
 (x!1 Int)
 (x!2 Int)
 (x!3 Int)
 (x!4 Int)
 (x!5 Int)
 (x!6 Bool)
 (x!7 Int)
 (x!8 Int)
 (x!9 Int)
 (x!10 Int)
 (x!11 Int)
 (x!12 Int)
 (x!13 Bool)) Bool
  x!13)
(define-fun Sofar_reset ((x!0 Bool) (x!1 Bool) (x!2 Bool) (x!3 Bool)) Bool
  true)
(define-fun MAIN ((x!0 Int)
 (x!1 Int)
 (x!2 Int)
 (x!3 Int)
 (x!4 Int)
 (x!5 Int)
 (x!6 Bool)
 (x!7 Bool)
 (x!8 Bool)
 (x!9 Int)
 (x!10 Bool)
 (x!11 Bool)) Bool
  (and (not (= x!0 1)) x!11 (not x!8) (not x!10) (>= x!0 0)))
(define-fun firefly_step ((x!0 Bool)
 (x!1 Bool)
 (x!2 Bool)
 (x!3 Bool)
 (x!4 Bool)
 (x!5 Bool)
 (x!6 Bool)
 (x!7 Bool)
 (x!8 Int)
 (x!9 Int)
 (x!10 Int)
 (x!11 Int)
 (x!12 Int)
 (x!13 Int)
 (x!14 Int)
 (x!15 Int)
 (x!16 Int)
 (x!17 Int)
 (x!18 Int)
 (x!19 Bool)
 (x!20 Int)
 (x!21 Int)
 (x!22 Int)
 (x!23 Int)
 (x!24 Int)
 (x!25 Int)
 (x!26 Bool)) Bool
  (let ((a!1 (or (= (+ x!12 (* (- 1) x!13)) 0)
                 (= x!12 0)
                 (= (+ x!12 (* (- 1) x!13)) 2)
                 (not (<= x!12 0))
                 (= x!13 1)))
        (a!2 (or (>= (+ x!12 (* (- 1) x!13)) 0) (not x!1) (= x!12 0)))
        (a!3 (or (not (<= x!13 1))
                 x!4
                 (= x!12 0)
                 (>= (+ x!12 (* (- 1) x!13)) 0)))
        (a!4 (or (>= (+ x!12 (* (- 1) x!13)) 0) (not x!6) x!4 x!2 (= x!12 0))))
    (and a!1
         (or (not x!19) (= x!12 0))
         (>= (+ x!20 (* (- 1) x!12)) 0)
         (or (<= x!20 0) (not x!19))
         (or (not (= x!13 0)) x!6 x!1 x!7 x!2 (= x!12 0))
         a!2
         a!3
         a!4
         (or (= x!13 1) (not (= x!20 1)) (not (>= x!13 0))))))
(define-fun top_step ((x!0 Bool)
 (x!1 Bool)
 (x!2 Bool)
 (x!3 Bool)
 (x!4 Bool)
 (x!5 Bool)
 (x!6 Bool)
 (x!7 Bool)
 (x!8 Int)
 (x!9 Bool)
 (x!10 Int)
 (x!11 Int)
 (x!12 Int)
 (x!13 Int)
 (x!14 Int)
 (x!15 Int)
 (x!16 Bool)
 (x!17 Bool)
 (x!18 Bool)
 (x!19 Int)
 (x!20 Bool)
 (x!21 Int)
 (x!22 Int)
 (x!23 Int)
 (x!24 Int)
 (x!25 Int)
 (x!26 Int)
 (x!27 Bool)
 (x!28 Bool)
 (x!29 Bool)
 (x!30 Int)
 (x!31 Bool)) Bool
  (and (or x!18 (not x!28) x!17)
       (not x!31)
       (not x!29)
       (or x!9 (not x!16))
       (or (>= x!21 0) (not x!16))
       (or (<= x!21 0) (not x!16))
       (or (= x!10 1) (not (= x!21 1)) (not (>= x!10 0)))
       (or x!18 x!17 x!9)
       (or (not (>= x!10 0)) (= x!10 1) x!9)
       (or (= x!10 1) (>= x!21 0) (not (>= x!10 0)))))
(define-fun top_reset ((x!0 Int)
 (x!1 Int)
 (x!2 Int)
 (x!3 Int)
 (x!4 Int)
 (x!5 Int)
 (x!6 Bool)
 (x!7 Bool)
 (x!8 Bool)
 (x!9 Int)
 (x!10 Bool)
 (x!11 Int)
 (x!12 Int)
 (x!13 Int)
 (x!14 Int)
 (x!15 Int)
 (x!16 Int)
 (x!17 Bool)
 (x!18 Bool)
 (x!19 Bool)
 (x!20 Int)
 (x!21 Bool)) Bool
  x!17)
(define-fun excludes8_fun ((x!0 Bool)
 (x!1 Bool)
 (x!2 Bool)
 (x!3 Bool)
 (x!4 Bool)
 (x!5 Bool)
 (x!6 Bool)
 (x!7 Bool)
 (x!8 Bool)) Bool
  (and (or (not x!8) (not x!4) (not x!6))
       (or (not x!8) (not x!2) (not x!4))
       (or (not x!8) (not x!4) (not x!7))))
BRUNCH_STAT max_query_lvl 7
BRUNCH_STAT num_queries 53
BRUNCH_STAT num_reach_queries 1
BRUNCH_STAT num_reach_reuse 53
BRUNCH_STAT inductive_lvl 3
BRUNCH_STAT max_depth 7
BRUNCH_STAT cex_depth 0
(:SPACER-inductive-level               3
 :SPACER-max-depth                     7
 :SPACER-max-query-lvl                 7
 :SPACER-num-invariants                39
 :SPACER-num-lemmas                    61
 :SPACER-num-properties                39
 :SPACER-num-queries                   53
 :SPACER-num-reach-queries             1
 :SPACER-num-reuse-reach-facts         53
 :added-eqs                            7439
 :arith-add-rows                       1795
 :arith-assert-diseq                   1646
 :arith-assert-lower                   3330
 :arith-assert-upper                   3579
 :arith-bound-prop                     243
 :arith-conflicts                      9
 :arith-eq-adapter                     1741
 :arith-fixed-eqs                      884
 :arith-offset-eqs                     502
 :arith-pivots                         857
 :bool-inductive-gen                   43
 :bool-inductive-gen-failures          99
 :conflicts                            379
 :decisions                            8304
 :del-clause                           1245
 :final-checks                         188
 :minimized-lits                       22
 :mk-bool-var                          6655
 :mk-clause                            5682
 :num-checks                           439
 :propagations                         67118
 :time.itp_solver.itp_core             0.01
 :time.spacer.init_rules               0.01
 :time.spacer.init_rules.pt.init       0.00
 :time.spacer.solve                    0.17
 :time.spacer.solve.propagate          0.01
 :time.spacer.solve.pt.must_reachable  0.00
 :time.spacer.solve.reach              0.16
 :time.spacer.solve.reach.children     0.03
 :time.spacer.solve.reach.gen.bool_ind 0.04
 :time.virtual_solver.proof            0.01
 :time.virtual_solver.smt.total        0.11
 :time.virtual_solver.smt.total.sat    0.06
 :virtual_solver.checks                439
 :virtual_solver.checks.sat            188)
BRUNCH_STAT max_query_lvl 7
BRUNCH_STAT num_queries 53
BRUNCH_STAT num_reach_queries 1
BRUNCH_STAT num_reach_reuse 53
BRUNCH_STAT inductive_lvl 3
BRUNCH_STAT max_depth 7
BRUNCH_STAT cex_depth 0

real	0m0.213s
user	0m0.200s
sys	0m0.012s
