(transform N7datalog13mk_coi_filterE...no-op 0s)
(transform N7datalog25mk_interp_tail_simplifierE...12 rules 0s)
(transform N7datalog27mk_quantifier_instantiationE...no-op 0s)
(transform N7datalog8mk_scaleE...no-op 0s)
(transform N7datalog18mk_karr_invariantsE...no-op 0s)
(transform N7datalog14mk_array_blastE...no-op 0s)
(transform N7datalog22mk_subsumption_checkerE...11 rules 0s)
(transform N7datalog12mk_bit_blastE...no-op 0s)
(transform N7datalog15mk_rule_inlinerE...no-op 0s)
(transform N7datalog13mk_coi_filterE...no-op 0s)
(transform N7datalog25mk_interp_tail_simplifierE...11 rules 0s)
(transform N7datalog22mk_subsumption_checkerE...no-op 0s)
(transform N7datalog15mk_rule_inlinerE...no-op 0s)
(transform N7datalog13mk_coi_filterE...no-op 0s)
(transform N7datalog25mk_interp_tail_simplifierE...11 rules 0s)
(transform N7datalog22mk_subsumption_checkerE...no-op 0s)
(transform N7datalog15mk_rule_inlinerE...no-op 0s)
(transform N7datalog22mk_subsumption_checkerE...no-op 0s)
(transform N7datalog15mk_rule_inlinerE...no-op 0s)
(transform N7datalog22mk_subsumption_checkerE...no-op 0s)
(transform N7datalog15mk_rule_inlinerE...no-op 0s)
(transform N7datalog22mk_subsumption_checkerE...no-op 0s)
expand: query!0 (0, 0) FAR  w(0) 1. F 0.00
(spacer::context::check_reachability :time 0.00 :before-memory 11.60 :after-memory 11.98)
Entering level 1
BRUNCH_STAT max_query_lvl 0
BRUNCH_STAT num_queries 0
BRUNCH_STAT num_reach_queries 0
BRUNCH_STAT num_reach_reuse 0
BRUNCH_STAT inductive_lvl 0
BRUNCH_STAT max_depth 1
BRUNCH_STAT cex_depth 0
expand: query!0 (1, 0) FAR  w(0) 1.
	create_child: ERR (0, 1) FAR 1 U 0.00
expand: ERR (0, 0) FAR  w(0) 1. F 0.00
expand: query!0 (1, 0) FAR  w(0) 1. F 0.00
(spacer::context::check_reachability :time 0.00 :before-memory 11.98 :after-memory 12.42)
Propagating: 0 1  ! 2 
(spacer::context::propagate :time 0.00 :before-memory 12.42 :after-memory 12.42)
Entering level 2
BRUNCH_STAT max_query_lvl 1
BRUNCH_STAT num_queries 1
BRUNCH_STAT num_reach_queries 0
BRUNCH_STAT num_reach_reuse 0
BRUNCH_STAT inductive_lvl 0
BRUNCH_STAT max_depth 2
BRUNCH_STAT cex_depth 0
expand: query!0 (2, 0) FAR  w(0) 1.
	create_child: ERR (1, 2) FAR 1 U 0.00
expand: ERR (1, 0) FAR  w(0) 1.
	create_child: MAIN (0, 2) FAR 2150 U 0.00
expand: MAIN (0, 0) FAR  w(0) 2150. F 0.00
expand: ERR (1, 0) FAR  w(0) 1. F 0.00
expand: query!0 (2, 0) FAR  w(0) 1. F 0.00
(spacer::context::check_reachability :time 0.00 :before-memory 12.42 :after-memory 12.89)
Propagating: 0 1 2  ! 3 
(spacer::context::propagate :time 0.00 :before-memory 12.89 :after-memory 12.89)
Entering level 3
BRUNCH_STAT max_query_lvl 2
BRUNCH_STAT num_queries 3
BRUNCH_STAT num_reach_queries 0
BRUNCH_STAT num_reach_reuse 0
BRUNCH_STAT inductive_lvl 0
BRUNCH_STAT max_depth 3
BRUNCH_STAT cex_depth 0
expand: query!0 (3, 0) FAR  w(0) 1.
	create_child: ERR (2, 3) FAR 1 U 0.00
expand: ERR (2, 0) FAR  w(0) 1.
	create_child: MAIN (1, 3) FAR 2150 U 0.00
expand: MAIN (1, 0) FAR  w(0) 2150.
	create_child: top_step (0, 3) FAR 2856 U 0.00
expand: top_step (0, 0) FAR  w(0) 2856. F 0.00
expand: MAIN (1, 0) FAR  w(0) 2150. F 0.00
expand: ERR (2, 0) FAR  w(0) 1. F 0.00
expand: query!0 (3, 0) FAR  w(0) 1. F 0.00
(spacer::context::check_reachability :time 0.01 :before-memory 12.89 :after-memory 13.92)
Propagating: 0 1 2 3  ! 4 
(spacer::context::propagate :time 0.00 :before-memory 13.92 :after-memory 14.02)
Entering level 4
BRUNCH_STAT max_query_lvl 3
BRUNCH_STAT num_queries 6
BRUNCH_STAT num_reach_queries 0
BRUNCH_STAT num_reach_reuse 0
BRUNCH_STAT inductive_lvl 0
BRUNCH_STAT max_depth 4
BRUNCH_STAT cex_depth 0
expand: query!0 (4, 0) FAR  w(0) 1.
	create_child: ERR (3, 4) FAR 1 U 0.00
expand: ERR (3, 0) FAR  w(0) 1.
	create_child: MAIN (2, 4) FAR 2150 U 0.00
expand: MAIN (2, 0) FAR  w(0) 2150.
	create_child: top_step (1, 4) FAR 2856 U 0.00
expand: top_step (1, 0) FAR  w(0) 2856.
	create_child: top_reset (1, 4) FAR 8191 X 0.01
expand: top_reset (1, 0) FAR  w(0) 8191.
	create_child: firefly_reset (0, 4) FAR 8608 U 0.00
expand: firefly_reset (0, 0) FAR  w(0) 8608. F 0.00
expand: top_reset (1, 0) FAR  w(0) 8191. F 0.00
expand: MAIN (2, 0) FAR  w(0) 2150.
	create_child: top_step (1, 4) FAR 11356 U 0.00
expand: top_step (1, 0) FAR  w(0) 11356.
	create_child: firefly_step (0, 4) FAR 11448 U 0.00
expand: firefly_step (0, 0) FAR  w(0) 11448. F 0.00
expand: top_step (1, 0) FAR  w(0) 11356. F 0.00
expand: MAIN (2, 0) FAR  w(0) 2150. F 0.00
expand: ERR (3, 0) FAR  w(0) 1. F 0.00
expand: query!0 (4, 0) FAR  w(0) 1. F 0.00
(spacer::context::check_reachability :time 0.02 :before-memory 14.02 :after-memory 18.06)
Propagating: 0 1 2 3 4  ! 5 
(spacer::context::propagate :time 0.00 :before-memory 18.06 :after-memory 18.06)
Entering level 5
BRUNCH_STAT max_query_lvl 4
BRUNCH_STAT num_queries 12
BRUNCH_STAT num_reach_queries 1
BRUNCH_STAT num_reach_reuse 5
BRUNCH_STAT inductive_lvl 0
BRUNCH_STAT max_depth 5
BRUNCH_STAT cex_depth 0
expand: query!0 (5, 0) FAR  w(0) 1.
	create_child: ERR (4, 5) FAR 1 U 0.00
expand: ERR (4, 0) FAR  w(0) 1.
	create_child: MAIN (3, 5) FAR 2150 U 0.00
expand: MAIN (3, 0) FAR  w(0) 2150.
	create_child: MAIN (2, 5) FAR 14010 U 0.00
expand: MAIN (2, 0) FAR  w(0) 14010.
	create_child: top_step (1, 5) FAR 13916 U 0.00
expand: top_step (1, 0) FAR  w(0) 13916.
	create_child: Sofar_step (0, 5) FAR 14012 U 0.00
expand: Sofar_step (0, 0) FAR  w(0) 14012.
	create_child: firefly_step (0, 5) FAR 14200 X 0.00
expand: firefly_step (0, 0) FAR  w(0) 14200. F 0.00
expand: top_step (1, 0) FAR  w(0) 13916. F 0.00
expand: MAIN (2, 0) FAR  w(0) 14010. F 0.00
expand: MAIN (3, 0) FAR  w(0) 2150.
	create_child: MAIN (2, 5) FAR 14786 U 0.00
expand: MAIN (2, 0) FAR  w(0) 14786.
	create_child: top_step (1, 5) FAR 14662 U 0.00
expand: top_step (1, 0) FAR  w(0) 14662.
	create_child: Sofar_step (0, 5) FAR 14012 U 0.00
expand: Sofar_step (0, 0) FAR  w(0) 14012.
	create_child: firefly_step (0, 5) FAR 14856 X 0.00
expand: firefly_step (0, 0) FAR  w(0) 14856. F 0.00
expand: top_step (1, 0) FAR  w(0) 14662. F 0.00
expand: MAIN (2, 0) FAR  w(0) 14786. F 0.00
expand: MAIN (3, 0) FAR  w(0) 2150.
	create_child: MAIN (2, 5) FAR 15361 U 0.00
expand: MAIN (2, 0) FAR  w(0) 15361.
	create_child: top_step (1, 5) FAR 15222 U 0.00
expand: top_step (1, 0) FAR  w(0) 15222.
	create_child: firefly_step (0, 5) FAR 15254 U 0.00
expand: firefly_step (0, 0) FAR  w(0) 15254. F 0.00
expand: top_step (1, 0) FAR  w(0) 15222. F 0.00
expand: MAIN (2, 0) FAR  w(0) 15361. F 0.00
expand: MAIN (3, 0) FAR  w(0) 2150.
	create_child: top_step (2, 5) FAR 15485 U 0.00
expand: top_step (2, 0) FAR  w(0) 15485.
	create_child: firefly_step (1, 5) FAR 15791 U 0.00
expand: firefly_step (1, 0) FAR  w(0) 15791. F 0.00
expand: top_step (2, 0) FAR  w(0) 15485.
	create_child: firefly_step (1, 5) FAR 16048 U 0.00
expand: firefly_step (1, 0) FAR  w(0) 16048. F 0.00
expand: top_step (2, 0) FAR  w(0) 15485.
	create_child: firefly_step (1, 5) FAR 16162 U 0.00
expand: firefly_step (1, 0) FAR  w(0) 16162. F 0.00
expand: top_step (2, 0) FAR  w(0) 15485. F 0.00
expand: MAIN (3, 0) FAR  w(0) 2150. F 0.00
expand: ERR (4, 0) FAR  w(0) 1. F 0.00
expand: query!0 (5, 0) FAR  w(0) 1. F 0.00
(spacer::context::check_reachability :time 0.06 :before-memory 18.06 :after-memory 19.85)
Propagating: 0 1 2 3 4 5  ! 6 
(spacer::context::propagate :time 0.00 :before-memory 19.85 :after-memory 19.85)
Entering level 6
BRUNCH_STAT max_query_lvl 5
BRUNCH_STAT num_queries 27
BRUNCH_STAT num_reach_queries 1
BRUNCH_STAT num_reach_reuse 18
BRUNCH_STAT inductive_lvl 0
BRUNCH_STAT max_depth 6
BRUNCH_STAT cex_depth 0
expand: query!0 (6, 0) FAR  w(0) 1.
	create_child: ERR (5, 6) FAR 1 U 0.00
expand: ERR (5, 0) FAR  w(0) 1.
	create_child: MAIN (4, 6) FAR 2150 U 0.00
expand: MAIN (4, 0) FAR  w(0) 2150.
	create_child: MAIN (3, 6) FAR 16764 U 0.00
expand: MAIN (3, 0) FAR  w(0) 16764.
	create_child: top_step (2, 6) FAR 16700 U 0.00
expand: top_step (2, 0) FAR  w(0) 16700. F 0.00
expand: MAIN (3, 0) FAR  w(0) 16764. F 0.00
expand: MAIN (4, 0) FAR  w(0) 2150.
	create_child: MAIN (3, 6) FAR 16987 U 0.00
expand: MAIN (3, 0) FAR  w(0) 16987.
	create_child: top_step (2, 6) FAR 16844 U 0.00
expand: top_step (2, 0) FAR  w(0) 16844.
	create_child: Sofar_step (1, 6) FAR 14012 U 0.00
expand: Sofar_step (1, 0) FAR  w(0) 14012.
	create_child: firefly_step (1, 6) FAR 16915 X 0.00
expand: firefly_step (1, 0) FAR  w(0) 16915. F 0.00
expand: top_step (2, 0) FAR  w(0) 16844. F 0.00
expand: MAIN (3, 0) FAR  w(0) 16987. F 0.00
expand: MAIN (4, 0) FAR  w(0) 2150. F 0.00
expand: ERR (5, 0) FAR  w(0) 1. F 0.00
expand: query!0 (6, 0) FAR  w(0) 1. F 0.00
(spacer::context::check_reachability :time 0.02 :before-memory 19.85 :after-memory 19.91)
Propagating: 1 2 3 
(spacer::context::propagate :time 0.00 :before-memory 19.91 :after-memory 19.91)
(define-fun ERR () Bool
  false)
(define-fun top_reset ((x!0 Int)
 (x!1 Int)
 (x!2 Int)
 (x!3 Int)
 (x!4 Int)
 (x!5 Int)
 (x!6 Bool)
 (x!7 Bool)
 (x!8 Bool)
 (x!9 Int)
 (x!10 Int)
 (x!11 Int)
 (x!12 Int)
 (x!13 Int)
 (x!14 Int)
 (x!15 Bool)
 (x!16 Bool)
 (x!17 Bool)) Bool
  x!15)
(define-fun top_step ((x!0 Bool)
 (x!1 Bool)
 (x!2 Bool)
 (x!3 Bool)
 (x!4 Bool)
 (x!5 Bool)
 (x!6 Bool)
 (x!7 Bool)
 (x!8 Int)
 (x!9 Bool)
 (x!10 Int)
 (x!11 Int)
 (x!12 Int)
 (x!13 Int)
 (x!14 Int)
 (x!15 Int)
 (x!16 Bool)
 (x!17 Bool)
 (x!18 Bool)
 (x!19 Int)
 (x!20 Int)
 (x!21 Int)
 (x!22 Int)
 (x!23 Int)
 (x!24 Int)
 (x!25 Bool)
 (x!26 Bool)
 (x!27 Bool)) Bool
  (and (or (not (>= x!13 0)) (>= x!22 0))
       (or x!9 (not x!16))
       (or (<= x!19 0) (not x!16))
       (or (>= x!22 0) (not x!16))
       (or (not (>= x!13 0)) x!9)))
(define-fun firefly_reset ((x!0 Int)
 (x!1 Int)
 (x!2 Int)
 (x!3 Int)
 (x!4 Int)
 (x!5 Int)
 (x!6 Bool)
 (x!7 Int)
 (x!8 Int)
 (x!9 Int)
 (x!10 Int)
 (x!11 Int)
 (x!12 Int)
 (x!13 Bool)) Bool
  x!13)
(define-fun Sofar_reset ((x!0 Bool) (x!1 Bool) (x!2 Bool) (x!3 Bool)) Bool
  true)
(define-fun MAIN ((x!0 Int)
 (x!1 Int)
 (x!2 Int)
 (x!3 Int)
 (x!4 Int)
 (x!5 Int)
 (x!6 Bool)
 (x!7 Bool)
 (x!8 Bool)
 (x!9 Bool)) Bool
  (and (>= x!3 0) x!9))
(define-fun Sofar_step ((x!0 Bool)
 (x!1 Bool)
 (x!2 Bool)
 (x!3 Bool)
 (x!4 Bool)
 (x!5 Bool)) Bool
  true)
(define-fun firefly_step ((x!0 Bool)
 (x!1 Bool)
 (x!2 Bool)
 (x!3 Bool)
 (x!4 Bool)
 (x!5 Bool)
 (x!6 Bool)
 (x!7 Bool)
 (x!8 Int)
 (x!9 Int)
 (x!10 Int)
 (x!11 Int)
 (x!12 Int)
 (x!13 Int)
 (x!14 Int)
 (x!15 Int)
 (x!16 Int)
 (x!17 Int)
 (x!18 Int)
 (x!19 Bool)
 (x!20 Int)
 (x!21 Int)
 (x!22 Int)
 (x!23 Int)
 (x!24 Int)
 (x!25 Int)
 (x!26 Bool)) Bool
  (let ((a!1 (or (>= x!10 0) (not x!1) (= (+ x!10 (* (- 1) x!16)) 0)))
        (a!2 (or (>= x!10 0) x!3 (= (+ x!10 (* (- 1) x!16)) 0)))
        (a!3 (or (= (+ x!10 (* (- 1) x!16)) 0)
                 (= (+ x!10 (* (- 1) x!16)) 1)
                 (= x!10 0)
                 x!1
                 (not x!3))))
    (and a!1
         (or (not x!19) (= x!10 0))
         (<= (+ x!10 (* (- 1) x!23)) 0)
         (or (<= x!20 0) (not x!19))
         a!2
         a!3)))
(define-fun excludes8_fun ((x!0 Bool)
 (x!1 Bool)
 (x!2 Bool)
 (x!3 Bool)
 (x!4 Bool)
 (x!5 Bool)
 (x!6 Bool)
 (x!7 Bool)
 (x!8 Bool)) Bool
  true)
BRUNCH_STAT max_query_lvl 6
BRUNCH_STAT num_queries 34
BRUNCH_STAT num_reach_queries 1
BRUNCH_STAT num_reach_reuse 21
BRUNCH_STAT inductive_lvl 3
BRUNCH_STAT max_depth 6
BRUNCH_STAT cex_depth 0
(:SPACER-inductive-level               3
 :SPACER-max-depth                     6
 :SPACER-max-query-lvl                 6
 :SPACER-num-invariants                22
 :SPACER-num-lemmas                    41
 :SPACER-num-properties                20
 :SPACER-num-queries                   34
 :SPACER-num-reach-queries             1
 :SPACER-num-reuse-reach-facts         21
 :added-eqs                            3914
 :arith-add-rows                       716
 :arith-assert-diseq                   863
 :arith-assert-lower                   1595
 :arith-assert-upper                   2086
 :arith-bound-prop                     251
 :arith-conflicts                      24
 :arith-eq-adapter                     876
 :arith-fixed-eqs                      507
 :arith-offset-eqs                     256
 :arith-pivots                         398
 :bool-inductive-gen                   25
 :bool-inductive-gen-failures          41
 :conflicts                            289
 :decisions                            4558
 :del-clause                           635
 :final-checks                         99
 :minimized-lits                       17
 :mk-bool-var                          4100
 :mk-clause                            4704
 :num-checks                           264
 :propagations                         35831
 :time.itp_solver.itp_core             0.01
 :time.spacer.init_rules               0.01
 :time.spacer.init_rules.pt.init       0.00
 :time.spacer.solve                    0.12
 :time.spacer.solve.propagate          0.01
 :time.spacer.solve.pt.must_reachable  0.00
 :time.spacer.solve.reach              0.11
 :time.spacer.solve.reach.children     0.02
 :time.spacer.solve.reach.gen.bool_ind 0.02
 :time.virtual_solver.proof            0.01
 :time.virtual_solver.smt.total        0.08
 :time.virtual_solver.smt.total.sat    0.04
 :virtual_solver.checks                264
 :virtual_solver.checks.sat            99)
BRUNCH_STAT max_query_lvl 6
BRUNCH_STAT num_queries 34
BRUNCH_STAT num_reach_queries 1
BRUNCH_STAT num_reach_reuse 21
BRUNCH_STAT inductive_lvl 3
BRUNCH_STAT max_depth 6
BRUNCH_STAT cex_depth 0

real	0m0.158s
user	0m0.132s
sys	0m0.024s
