(transform N7datalog13mk_coi_filterE...no-op 0s)
(transform N7datalog25mk_interp_tail_simplifierE...14 rules 0s)
(transform N7datalog27mk_quantifier_instantiationE...no-op 0s)
(transform N7datalog8mk_scaleE...no-op 0s)
(transform N7datalog18mk_karr_invariantsE...no-op 0s)
(transform N7datalog14mk_array_blastE...no-op 0s)
(transform N7datalog22mk_subsumption_checkerE...13 rules 0s)
(transform N7datalog12mk_bit_blastE...no-op 0s)
(transform N7datalog15mk_rule_inlinerE...no-op 0s)
(transform N7datalog13mk_coi_filterE...no-op 0s)
(transform N7datalog25mk_interp_tail_simplifierE...13 rules 0s)
(transform N7datalog22mk_subsumption_checkerE...no-op 0s)
(transform N7datalog15mk_rule_inlinerE...no-op 0s)
(transform N7datalog13mk_coi_filterE...no-op 0s)
(transform N7datalog25mk_interp_tail_simplifierE...13 rules 0s)
(transform N7datalog22mk_subsumption_checkerE...no-op 0s)
(transform N7datalog15mk_rule_inlinerE...no-op 0s)
(transform N7datalog22mk_subsumption_checkerE...no-op 0s)
(transform N7datalog15mk_rule_inlinerE...no-op 0s)
(transform N7datalog22mk_subsumption_checkerE...no-op 0s)
(transform N7datalog15mk_rule_inlinerE...no-op 0s)
(transform N7datalog22mk_subsumption_checkerE...no-op 0s)
expand: query!0 (0, 0) FAR  w(0) 1. F 0.00
(spacer::context::check_reachability :time 0.00 :before-memory 13.34 :after-memory 13.74)
Entering level 1
BRUNCH_STAT max_query_lvl 0
BRUNCH_STAT num_queries 0
BRUNCH_STAT num_reach_queries 0
BRUNCH_STAT num_reach_reuse 0
BRUNCH_STAT inductive_lvl 0
BRUNCH_STAT max_depth 1
BRUNCH_STAT cex_depth 0
expand: query!0 (1, 0) FAR  w(0) 1.
	create_child: ERR (0, 1) FAR 1 U 0.00
expand: ERR (0, 0) FAR  w(0) 1. F 0.00
expand: query!0 (1, 0) FAR  w(0) 1. F 0.00
(spacer::context::check_reachability :time 0.00 :before-memory 13.74 :after-memory 14.19)
Propagating: 0 1  ! 2 
(spacer::context::propagate :time 0.00 :before-memory 14.19 :after-memory 14.19)
Entering level 2
BRUNCH_STAT max_query_lvl 1
BRUNCH_STAT num_queries 1
BRUNCH_STAT num_reach_queries 0
BRUNCH_STAT num_reach_reuse 0
BRUNCH_STAT inductive_lvl 0
BRUNCH_STAT max_depth 2
BRUNCH_STAT cex_depth 0
expand: query!0 (2, 0) FAR  w(0) 1.
	create_child: ERR (1, 2) FAR 1 U 0.00
expand: ERR (1, 0) FAR  w(0) 1.
	create_child: MAIN (0, 2) FAR 2328 U 0.00
expand: MAIN (0, 0) FAR  w(0) 2328. F 0.00
expand: ERR (1, 0) FAR  w(0) 1. F 0.00
expand: query!0 (2, 0) FAR  w(0) 1. F 0.00
(spacer::context::check_reachability :time 0.00 :before-memory 14.19 :after-memory 14.65)
Propagating: 0 1 2  ! 3 
(spacer::context::propagate :time 0.00 :before-memory 14.65 :after-memory 14.65)
Entering level 3
BRUNCH_STAT max_query_lvl 2
BRUNCH_STAT num_queries 3
BRUNCH_STAT num_reach_queries 0
BRUNCH_STAT num_reach_reuse 0
BRUNCH_STAT inductive_lvl 0
BRUNCH_STAT max_depth 3
BRUNCH_STAT cex_depth 0
expand: query!0 (3, 0) FAR  w(0) 1.
	create_child: ERR (2, 3) FAR 1 U 0.00
expand: ERR (2, 0) FAR  w(0) 1.
	create_child: MAIN (1, 3) FAR 2328 U 0.00
expand: MAIN (1, 0) FAR  w(0) 2328.
	create_child: top_step (0, 3) FAR 3102 U 0.00
expand: top_step (0, 0) FAR  w(0) 3102. F 0.00
expand: MAIN (1, 0) FAR  w(0) 2328. F 0.00
expand: ERR (2, 0) FAR  w(0) 1. F 0.00
expand: query!0 (3, 0) FAR  w(0) 1. F 0.00
(spacer::context::check_reachability :time 0.01 :before-memory 14.65 :after-memory 15.78)
Propagating: 0 1 2 3  ! 4 
(spacer::context::propagate :time 0.00 :before-memory 15.78 :after-memory 15.88)
Entering level 4
BRUNCH_STAT max_query_lvl 3
BRUNCH_STAT num_queries 6
BRUNCH_STAT num_reach_queries 0
BRUNCH_STAT num_reach_reuse 0
BRUNCH_STAT inductive_lvl 0
BRUNCH_STAT max_depth 4
BRUNCH_STAT cex_depth 0
expand: query!0 (4, 0) FAR  w(0) 1.
	create_child: ERR (3, 4) FAR 1 U 0.00
expand: ERR (3, 0) FAR  w(0) 1.
	create_child: MAIN (2, 4) FAR 2328 U 0.00
expand: MAIN (2, 0) FAR  w(0) 2328.
	create_child: top_step (1, 4) FAR 3102 U 0.00
expand: top_step (1, 0) FAR  w(0) 3102.
	create_child: top_reset (1, 4) FAR 8728 X 0.01
expand: top_reset (1, 0) FAR  w(0) 8728.
	create_child: First_reset (0, 4) FAR 9290 U 0.00
expand: First_reset (0, 0) FAR  w(0) 9290. F 0.00
expand: top_reset (1, 0) FAR  w(0) 8728. F 0.00
expand: MAIN (2, 0) FAR  w(0) 2328.
	create_child: top_reset (1, 4) FAR 12184 U 0.01
expand: top_reset (1, 0) FAR  w(0) 12184.
	create_child: Sofar_reset (0, 4) FAR 12027 U 0.00
expand: Sofar_reset (0, 0) FAR  w(0) 12027. F 0.00
expand: top_reset (1, 0) FAR  w(0) 12184. F 0.00
expand: MAIN (2, 0) FAR  w(0) 2328.
	create_child: top_reset (1, 4) FAR 12325 U 0.00
expand: top_reset (1, 0) FAR  w(0) 12325.
	create_child: firefly_reset (0, 4) FAR 12165 U 0.00
expand: firefly_reset (0, 0) FAR  w(0) 12165. F 0.00
expand: top_reset (1, 0) FAR  w(0) 12325. F 0.00
expand: MAIN (2, 0) FAR  w(0) 2328.
	create_child: top_step (1, 4) FAR 12367 U 0.00
expand: top_step (1, 0) FAR  w(0) 12367.
	create_child: excludes8_fun (0, 4) FAR 1669 U 0.01
expand: excludes8_fun (0, 0) FAR  w(0) 1669.
	create_child: First_step (0, 4) FAR 12903 X 0.00
expand: First_step (0, 0) FAR  w(0) 12903. F 0.00
expand: top_step (1, 0) FAR  w(0) 12367.
	create_child: firefly_step (0, 4) FAR 13546 U 0.00
expand: firefly_step (0, 0) FAR  w(0) 13546. F 0.00
expand: top_step (1, 0) FAR  w(0) 12367.
	create_child: firefly_step (0, 4) FAR 15622 U 0.00
expand: firefly_step (0, 0) FAR  w(0) 15622. F 0.00
expand: top_step (1, 0) FAR  w(0) 12367.
	create_child: firefly_step (0, 4) FAR 12945 U 0.00
expand: firefly_step (0, 0) FAR  w(0) 12945.
	create_child: First_step (0, 4) FAR 12977 X 0.00
expand: First_step (0, 0) FAR  w(0) 12977. F 0.00
expand: top_step (1, 0) FAR  w(0) 12367. F 0.00
expand: MAIN (2, 0) FAR  w(0) 2328. F 0.00
expand: ERR (3, 0) FAR  w(0) 1. F 0.00
expand: query!0 (4, 0) FAR  w(0) 1. F 0.00
(spacer::context::check_reachability :time 0.05 :before-memory 15.88 :after-memory 23.99)
Propagating: 0 1 2 3 4  ! 5 
(spacer::context::propagate :time 0.00 :before-memory 23.99 :after-memory 23.99)
Entering level 5
BRUNCH_STAT max_query_lvl 4
BRUNCH_STAT num_queries 19
BRUNCH_STAT num_reach_queries 1
BRUNCH_STAT num_reach_reuse 19
BRUNCH_STAT inductive_lvl 0
BRUNCH_STAT max_depth 5
BRUNCH_STAT cex_depth 0
expand: query!0 (5, 0) FAR  w(0) 1.
	create_child: ERR (4, 5) FAR 1 U 0.00
expand: ERR (4, 0) FAR  w(0) 1.
	create_child: MAIN (3, 5) FAR 2328 U 0.00
expand: MAIN (3, 0) FAR  w(0) 2328.
	create_child: MAIN (2, 5) FAR 16255 U 0.00
expand: MAIN (2, 0) FAR  w(0) 16255.
	create_child: top_step (1, 5) FAR 16162 U 0.00
expand: top_step (1, 0) FAR  w(0) 16162.
	create_child: firefly_step (0, 5) FAR 16382 U 0.00
expand: firefly_step (0, 0) FAR  w(0) 16382. F 0.00
expand: top_step (1, 0) FAR  w(0) 16162. F 0.00
expand: MAIN (2, 0) FAR  w(0) 16255. F 0.00
expand: MAIN (3, 0) FAR  w(0) 2328.
	create_child: MAIN (2, 5) FAR 16844 U 0.00
expand: MAIN (2, 0) FAR  w(0) 16844.
	create_child: top_step (1, 5) FAR 16781 U 0.00
expand: top_step (1, 0) FAR  w(0) 16781.
	create_child: firefly_step (0, 5) FAR 16708 U 0.00
expand: firefly_step (0, 0) FAR  w(0) 16708. F 0.00
expand: top_step (1, 0) FAR  w(0) 16781. F 0.00
expand: MAIN (2, 0) FAR  w(0) 16844. F 0.00
expand: MAIN (3, 0) FAR  w(0) 2328.
	create_child: MAIN (2, 5) FAR 17026 U 0.00
expand: MAIN (2, 0) FAR  w(0) 17026.
	create_child: top_step (1, 5) FAR 16884 U 0.00
expand: top_step (1, 0) FAR  w(0) 16884.
	create_child: firefly_step (0, 5) FAR 17003 U 0.00
expand: firefly_step (0, 0) FAR  w(0) 17003. F 0.00
expand: top_step (1, 0) FAR  w(0) 16884.
	create_child: Sofar_step (0, 5) FAR 17141 U 0.00
expand: Sofar_step (0, 0) FAR  w(0) 17141.
	create_child: firefly_step (0, 5) FAR 17370 X 0.00
expand: firefly_step (0, 0) FAR  w(0) 17370. F 0.00
expand: top_step (1, 0) FAR  w(0) 16884. F 0.00
expand: MAIN (2, 0) FAR  w(0) 17026. F 0.00
expand: MAIN (3, 0) FAR  w(0) 2328.
	create_child: MAIN (2, 5) FAR 17662 U 0.00
expand: MAIN (2, 0) FAR  w(0) 17662.
	create_child: top_step (1, 5) FAR 17671 U 0.00
expand: top_step (1, 0) FAR  w(0) 17671.
	create_child: Sofar_step (0, 5) FAR 17141 U 0.00
expand: Sofar_step (0, 0) FAR  w(0) 17141.
	create_child: firefly_step (0, 5) FAR 17951 X 0.00
expand: firefly_step (0, 0) FAR  w(0) 17951.
	create_child: First_step (0, 5) FAR 17824 X 0.00
expand: First_step (0, 0) FAR  w(0) 17824. F 0.00
expand: top_step (1, 0) FAR  w(0) 17671. F 0.00
expand: MAIN (2, 0) FAR  w(0) 17662. F 0.01
expand: MAIN (3, 0) FAR  w(0) 2328.
	create_child: MAIN (2, 5) FAR 18873 U 0.00
expand: MAIN (2, 0) FAR  w(0) 18873. F 0.00
expand: MAIN (3, 0) FAR  w(0) 2328.
	create_child: MAIN (2, 5) FAR 18922 U 0.00
expand: MAIN (2, 0) FAR  w(0) 18922.
	create_child: top_step (1, 5) FAR 18858 U 0.00
expand: top_step (1, 0) FAR  w(0) 18858.
	create_child: firefly_step (0, 5) FAR 19020 U 0.00
expand: firefly_step (0, 0) FAR  w(0) 19020. F 0.00
expand: top_step (1, 0) FAR  w(0) 18858.
	create_child: Sofar_step (0, 5) FAR 19099 U 0.00
expand: Sofar_step (0, 0) FAR  w(0) 19099. F 0.00
expand: top_step (1, 0) FAR  w(0) 18858.
	create_child: Sofar_step (0, 5) FAR 17141 U 0.00
expand: Sofar_step (0, 0) FAR  w(0) 17141.
	create_child: First_step (0, 5) FAR 19177 X 0.00
expand: First_step (0, 0) FAR  w(0) 19177. F 0.00
expand: top_step (1, 0) FAR  w(0) 18858. F 0.00
expand: MAIN (2, 0) FAR  w(0) 18922. F 0.00
expand: MAIN (3, 0) FAR  w(0) 2328.
	create_child: MAIN (2, 5) FAR 19557 U 0.00
expand: MAIN (2, 0) FAR  w(0) 19557.
	create_child: top_step (1, 5) FAR 19529 U 0.00
expand: top_step (1, 0) FAR  w(0) 19529.
	create_child: First_step (0, 5) FAR 19680 U 0.00
expand: First_step (0, 0) FAR  w(0) 19680. F 0.00
expand: top_step (1, 0) FAR  w(0) 19529. F 0.00
expand: MAIN (2, 0) FAR  w(0) 19557. F 0.00
expand: MAIN (3, 0) FAR  w(0) 2328.
	create_child: MAIN (2, 5) FAR 19940 U 0.00
expand: MAIN (2, 0) FAR  w(0) 19940.
	create_child: top_step (1, 5) FAR 19841 U 0.00
expand: top_step (1, 0) FAR  w(0) 19841.
	create_child: firefly_step (0, 5) FAR 19967 U 0.00
expand: firefly_step (0, 0) FAR  w(0) 19967. F 0.00
expand: top_step (1, 0) FAR  w(0) 19841. F 0.00
expand: MAIN (2, 0) FAR  w(0) 19940. F 0.00
expand: MAIN (3, 0) FAR  w(0) 2328.
	create_child: top_step (2, 5) FAR 20689 U 0.00
expand: top_step (2, 0) FAR  w(0) 20689.
	create_child: excludes8_fun (1, 5) FAR 22834 U 0.01
expand: excludes8_fun (1, 0) FAR  w(0) 22834. F 0.00
expand: top_step (2, 0) FAR  w(0) 20689.
	create_child: excludes8_fun (1, 5) FAR 23130 U 0.00
expand: excludes8_fun (1, 0) FAR  w(0) 23130. F 0.00
expand: top_step (2, 0) FAR  w(0) 20689.
	create_child: excludes8_fun (1, 5) FAR 23258 U 0.00
expand: excludes8_fun (1, 0) FAR  w(0) 23258. F 0.00
expand: top_step (2, 0) FAR  w(0) 20689.
	create_child: excludes8_fun (1, 5) FAR 23754 U 0.01
expand: excludes8_fun (1, 0) FAR  w(0) 23754.
	create_child: First_step (1, 5) FAR 23794 X 0.00
expand: First_step (1, 0) FAR  w(0) 23794. F 0.00
expand: top_step (2, 0) FAR  w(0) 20689.
	create_child: excludes8_fun (1, 5) FAR 23754 U 0.00
expand: excludes8_fun (1, 0) FAR  w(0) 23754.
	create_child: First_step (1, 5) FAR 24014 X 0.00
expand: First_step (1, 0) FAR  w(0) 24014. F 0.00
expand: top_step (2, 0) FAR  w(0) 20689.
	create_child: excludes8_fun (1, 5) FAR 24190 U 0.01
expand: excludes8_fun (1, 0) FAR  w(0) 24190.
	create_child: Sofar_step (1, 5) FAR 24082 X 0.00
expand: Sofar_step (1, 0) FAR  w(0) 24082. F 0.00
expand: top_step (2, 0) FAR  w(0) 20689.
	create_child: excludes8_fun (1, 5) FAR 1669 U 0.00
expand: excludes8_fun (1, 0) FAR  w(0) 1669.
	create_child: firefly_step (1, 5) FAR 24071 X 0.00
expand: firefly_step (1, 0) FAR  w(0) 24071. F 0.01
expand: top_step (2, 0) FAR  w(0) 20689.
	create_child: excludes8_fun (1, 5) FAR 23836 U 0.00
expand: excludes8_fun (1, 0) FAR  w(0) 23836.
	create_child: firefly_step (1, 5) FAR 23834 X 0.00
expand: firefly_step (1, 0) FAR  w(0) 23834. F 0.01
expand: top_step (2, 0) FAR  w(0) 20689.
	create_child: excludes8_fun (1, 5) FAR 23836 U 0.00
expand: excludes8_fun (1, 0) FAR  w(0) 23836.
	create_child: firefly_step (1, 5) FAR 25413 X 0.00
expand: firefly_step (1, 0) FAR  w(0) 25413. F 0.01
expand: top_step (2, 0) FAR  w(0) 20689.
	create_child: excludes8_fun (1, 5) FAR 26678 U 0.00
expand: excludes8_fun (1, 0) FAR  w(0) 26678. F 0.00
expand: top_step (2, 0) FAR  w(0) 20689.
	create_child: excludes8_fun (1, 5) FAR 26700 U 0.00
expand: excludes8_fun (1, 0) FAR  w(0) 26700.
	create_child: firefly_step (1, 5) FAR 26650 X 0.00
expand: firefly_step (1, 0) FAR  w(0) 26650. F 0.01
expand: top_step (2, 0) FAR  w(0) 20689.
	create_child: excludes8_fun (1, 5) FAR 25265 U 0.00
expand: excludes8_fun (1, 0) FAR  w(0) 25265.
	create_child: firefly_step (1, 5) FAR 25284 X 0.00
expand: firefly_step (1, 0) FAR  w(0) 25284. F 0.01
expand: top_step (2, 0) FAR  w(0) 20689.
	create_child: excludes8_fun (1, 5) FAR 28118 U 0.00
expand: excludes8_fun (1, 0) FAR  w(0) 28118. F 0.00
expand: top_step (2, 0) FAR  w(0) 20689. F 0.01
expand: MAIN (3, 0) FAR  w(0) 2328.
	create_child: top_step (2, 5) FAR 28957 U 0.00
expand: top_step (2, 0) FAR  w(0) 28957.
	create_child: excludes8_fun (1, 5) FAR 1669 U 0.01
expand: excludes8_fun (1, 0) FAR  w(0) 1669.
	create_child: firefly_step (1, 5) FAR 29882 X 0.00
expand: firefly_step (1, 0) FAR  w(0) 29882. F 0.01
expand: top_step (2, 0) FAR  w(0) 28957.
	create_child: excludes8_fun (1, 5) FAR 25265 U 0.01
expand: excludes8_fun (1, 0) FAR  w(0) 25265.
	create_child: firefly_step (1, 5) FAR 30318 X 0.00
expand: firefly_step (1, 0) FAR  w(0) 30318. F 0.01
expand: top_step (2, 0) FAR  w(0) 28957. F 0.01
expand: MAIN (3, 0) FAR  w(0) 2328.
	create_child: top_step (2, 5) FAR 29031 U 0.00
expand: top_step (2, 0) FAR  w(0) 29031.
	create_child: excludes8_fun (1, 5) FAR 25265 U 0.01
expand: excludes8_fun (1, 0) FAR  w(0) 25265.
	create_child: firefly_step (1, 5) FAR 30954 X 0.00
expand: firefly_step (1, 0) FAR  w(0) 30954. F 0.01
expand: top_step (2, 0) FAR  w(0) 29031.
	create_child: excludes8_fun (1, 5) FAR 30788 U 0.01
expand: excludes8_fun (1, 0) FAR  w(0) 30788. F 0.00
expand: top_step (2, 0) FAR  w(0) 29031.
	create_child: excludes8_fun (1, 5) FAR 30927 U 0.00
expand: excludes8_fun (1, 0) FAR  w(0) 30927. F 0.00
expand: top_step (2, 0) FAR  w(0) 29031.
	create_child: excludes8_fun (1, 5) FAR 29050 U 0.00
expand: excludes8_fun (1, 0) FAR  w(0) 29050. F 0.00
expand: top_step (2, 0) FAR  w(0) 29031.
	create_child: excludes8_fun (1, 5) FAR 31207 U 0.00
expand: excludes8_fun (1, 0) FAR  w(0) 31207. F 0.00
expand: top_step (2, 0) FAR  w(0) 29031.
	create_child: excludes8_fun (1, 5) FAR 30729 U 0.00
expand: excludes8_fun (1, 0) FAR  w(0) 30729.
	create_child: firefly_step (1, 5) FAR 28981 X 0.00
expand: firefly_step (1, 0) FAR  w(0) 28981. F 0.00
expand: top_step (2, 0) FAR  w(0) 29031. F 0.01
expand: MAIN (3, 0) FAR  w(0) 2328.
	create_child: top_step (2, 5) FAR 32071 U 0.00
expand: top_step (2, 0) FAR  w(0) 32071.
	create_child: excludes8_fun (1, 5) FAR 32339 U 0.00
expand: excludes8_fun (1, 0) FAR  w(0) 32339. F 0.00
expand: top_step (2, 0) FAR  w(0) 32071.
	create_child: excludes8_fun (1, 5) FAR 25265 U 0.00
expand: excludes8_fun (1, 0) FAR  w(0) 25265.
	create_child: firefly_step (1, 5) FAR 32357 X 0.00
expand: firefly_step (1, 0) FAR  w(0) 32357. F 0.01
expand: top_step (2, 0) FAR  w(0) 32071. F 0.01
expand: MAIN (3, 0) FAR  w(0) 2328. F 0.00
expand: ERR (4, 0) FAR  w(0) 1. F 0.00
expand: query!0 (5, 0) FAR  w(0) 1. F 0.00
(spacer::context::check_reachability :time 0.40 :before-memory 23.99 :after-memory 29.75)
Propagating: 0 1 2 3 4 5  ! 6 
(spacer::context::propagate :time 0.01 :before-memory 29.75 :after-memory 29.75)
Entering level 6
BRUNCH_STAT max_query_lvl 5
BRUNCH_STAT num_queries 73
BRUNCH_STAT num_reach_queries 1
BRUNCH_STAT num_reach_reuse 91
BRUNCH_STAT inductive_lvl 0
BRUNCH_STAT max_depth 6
BRUNCH_STAT cex_depth 0
expand: query!0 (6, 0) FAR  w(0) 1.
	create_child: ERR (5, 6) FAR 1 U 0.00
expand: ERR (5, 0) FAR  w(0) 1.
	create_child: MAIN (4, 6) FAR 2328 U 0.00
expand: MAIN (4, 0) FAR  w(0) 2328.
	create_child: MAIN (3, 6) FAR 33518 U 0.00
expand: MAIN (3, 0) FAR  w(0) 33518.
	create_child: top_step (2, 6) FAR 33419 U 0.00
expand: top_step (2, 0) FAR  w(0) 33419.
	create_child: Sofar_step (1, 6) FAR 33628 U 0.00
expand: Sofar_step (1, 0) FAR  w(0) 33628. F 0.00
expand: top_step (2, 0) FAR  w(0) 33419. F 0.00
expand: MAIN (3, 0) FAR  w(0) 33518. F 0.00
expand: MAIN (4, 0) FAR  w(0) 2328.
	create_child: MAIN (3, 6) FAR 33747 U 0.00
expand: MAIN (3, 0) FAR  w(0) 33747.
	create_child: top_step (2, 6) FAR 33674 U 0.00
expand: top_step (2, 0) FAR  w(0) 33674.
	create_child: excludes8_fun (1, 6) FAR 1669 U 0.01
expand: excludes8_fun (1, 0) FAR  w(0) 1669.
	create_child: Sofar_step (1, 6) FAR 33446 X 0.00
expand: Sofar_step (1, 0) FAR  w(0) 33446.
	create_child: firefly_step (1, 6) FAR 33760 X 0.00
expand: firefly_step (1, 0) FAR  w(0) 33760.
	create_child: First_step (1, 6) FAR 33916 X 0.00
expand: First_step (1, 0) FAR  w(0) 33916. F 0.00
expand: top_step (2, 0) FAR  w(0) 33674. F 0.01
expand: MAIN (3, 0) FAR  w(0) 33747.
	create_child: top_step (2, 6) FAR 34476 U 0.00
expand: top_step (2, 0) FAR  w(0) 34476. F 0.01
expand: MAIN (3, 0) FAR  w(0) 33747. F 0.00
expand: MAIN (4, 0) FAR  w(0) 2328.
	create_child: MAIN (3, 6) FAR 35131 U 0.00
expand: MAIN (3, 0) FAR  w(0) 35131.
	create_child: top_step (2, 6) FAR 34978 U 0.00
expand: top_step (2, 0) FAR  w(0) 34978.
	create_child: Sofar_step (1, 6) FAR 35346 U 0.00
expand: Sofar_step (1, 0) FAR  w(0) 35346. F 0.00
expand: top_step (2, 0) FAR  w(0) 34978. F 0.00
expand: MAIN (3, 0) FAR  w(0) 35131.
	create_child: top_step (2, 6) FAR 35175 U 0.00
expand: top_step (2, 0) FAR  w(0) 35175.
	create_child: Sofar_step (1, 6) FAR 33446 U 0.00
expand: Sofar_step (1, 0) FAR  w(0) 33446.
	create_child: First_step (1, 6) FAR 35426 X 0.00
expand: First_step (1, 0) FAR  w(0) 35426. F 0.00
expand: top_step (2, 0) FAR  w(0) 35175. F 0.01
expand: MAIN (3, 0) FAR  w(0) 35131.
	create_child: top_step (2, 6) FAR 35393 U 0.00
expand: top_step (2, 0) FAR  w(0) 35393. F 0.01
expand: MAIN (3, 0) FAR  w(0) 35131. F 0.00
expand: MAIN (4, 0) FAR  w(0) 2328.
	create_child: MAIN (3, 6) FAR 19940 U 0.00
expand: MAIN (3, 0) FAR  w(0) 19940.
	create_child: top_step (2, 6) FAR 36426 U 0.00
expand: top_step (2, 0) FAR  w(0) 36426.
	create_child: firefly_step (1, 6) FAR 35971 U 0.00
expand: firefly_step (1, 0) FAR  w(0) 35971. F 0.01
expand: top_step (2, 0) FAR  w(0) 36426. F 0.01
expand: MAIN (3, 0) FAR  w(0) 19940. F 0.00
expand: MAIN (4, 0) FAR  w(0) 2328.
	create_child: top_step (3, 6) FAR 37534 U 0.00
expand: top_step (3, 0) FAR  w(0) 37534.
	create_child: Sofar_step (2, 6) FAR 38007 U 0.00
expand: Sofar_step (2, 0) FAR  w(0) 38007. F 0.00
expand: top_step (3, 0) FAR  w(0) 37534. F 0.00
expand: MAIN (4, 0) FAR  w(0) 2328.
	create_child: top_step (3, 6) FAR 37808 U 0.00
expand: top_step (3, 0) FAR  w(0) 37808.
	create_child: excludes8_fun (2, 6) FAR 42092 U 0.02
expand: excludes8_fun (2, 0) FAR  w(0) 42092. F 0.00
expand: top_step (3, 0) FAR  w(0) 37808.
	create_child: excludes8_fun (2, 6) FAR 42137 U 0.00
expand: excludes8_fun (2, 0) FAR  w(0) 42137. F 0.00
expand: top_step (3, 0) FAR  w(0) 37808.
	create_child: excludes8_fun (2, 6) FAR 42237 U 0.00
expand: excludes8_fun (2, 0) FAR  w(0) 42237. F 0.00
expand: top_step (3, 0) FAR  w(0) 37808.
	create_child: excludes8_fun (2, 6) FAR 42217 U 0.00
expand: excludes8_fun (2, 0) FAR  w(0) 42217. F 0.00
expand: top_step (3, 0) FAR  w(0) 37808.
	create_child: excludes8_fun (2, 6) FAR 42491 U 0.00
expand: excludes8_fun (2, 0) FAR  w(0) 42491. F 0.00
expand: top_step (3, 0) FAR  w(0) 37808.
	create_child: excludes8_fun (2, 6) FAR 42529 U 0.00
expand: excludes8_fun (2, 0) FAR  w(0) 42529. F 0.00
expand: top_step (3, 0) FAR  w(0) 37808.
	create_child: excludes8_fun (2, 6) FAR 42911 U 0.00
expand: excludes8_fun (2, 0) FAR  w(0) 42911. F 0.00
expand: top_step (3, 0) FAR  w(0) 37808.
	create_child: excludes8_fun (2, 6) FAR 42910 U 0.00
expand: excludes8_fun (2, 0) FAR  w(0) 42910. F 0.00
expand: top_step (3, 0) FAR  w(0) 37808.
	create_child: excludes8_fun (2, 6) FAR 43117 U 0.00
expand: excludes8_fun (2, 0) FAR  w(0) 43117. F 0.00
expand: top_step (3, 0) FAR  w(0) 37808.
	create_child: excludes8_fun (2, 6) FAR 43833 U 0.01
expand: excludes8_fun (2, 0) FAR  w(0) 43833. F 0.00
expand: top_step (3, 0) FAR  w(0) 37808.
	create_child: excludes8_fun (2, 6) FAR 1669 U 0.00
expand: excludes8_fun (2, 0) FAR  w(0) 1669.
	create_child: Sofar_step (2, 6) FAR 44084 X 0.00
expand: Sofar_step (2, 0) FAR  w(0) 44084.
	create_child: firefly_step (2, 6) FAR 44070 X 0.00
expand: firefly_step (2, 0) FAR  w(0) 44070. F 0.01
expand: top_step (3, 0) FAR  w(0) 37808.
	create_child: excludes8_fun (2, 6) FAR 1669 U 0.00
expand: excludes8_fun (2, 0) FAR  w(0) 1669.
	create_child: Sofar_step (2, 6) FAR 44084 X 0.00
expand: Sofar_step (2, 0) FAR  w(0) 44084.
	create_child: firefly_step (2, 6) FAR 44608 X 0.00
expand: firefly_step (2, 0) FAR  w(0) 44608. F 0.01
expand: top_step (3, 0) FAR  w(0) 37808.
	create_child: excludes8_fun (2, 6) FAR 44513 U 0.00
expand: excludes8_fun (2, 0) FAR  w(0) 44513.
	create_child: Sofar_step (2, 6) FAR 44084 X 0.00
expand: Sofar_step (2, 0) FAR  w(0) 44084.
	create_child: firefly_step (2, 6) FAR 44532 X 0.00
expand: firefly_step (2, 0) FAR  w(0) 44532. F 0.01
expand: top_step (3, 0) FAR  w(0) 37808.
	create_child: excludes8_fun (2, 6) FAR 44513 U 0.00
expand: excludes8_fun (2, 0) FAR  w(0) 44513.
	create_child: Sofar_step (2, 6) FAR 44084 X 0.00
expand: Sofar_step (2, 0) FAR  w(0) 44084.
	create_child: firefly_step (2, 6) FAR 45197 X 0.00
expand: firefly_step (2, 0) FAR  w(0) 45197. F 0.01
expand: top_step (3, 0) FAR  w(0) 37808.
	create_child: excludes8_fun (2, 6) FAR 26700 U 0.00
expand: excludes8_fun (2, 0) FAR  w(0) 26700.
	create_child: Sofar_step (2, 6) FAR 44084 X 0.00
expand: Sofar_step (2, 0) FAR  w(0) 44084.
	create_child: firefly_step (2, 6) FAR 45178 X 0.00
expand: firefly_step (2, 0) FAR  w(0) 45178. F 0.01
expand: top_step (3, 0) FAR  w(0) 37808.
	create_child: excludes8_fun (2, 6) FAR 26700 U 0.00
expand: excludes8_fun (2, 0) FAR  w(0) 26700.
	create_child: Sofar_step (2, 6) FAR 44084 X 0.00
expand: Sofar_step (2, 0) FAR  w(0) 44084.
	create_child: firefly_step (2, 6) FAR 45699 X 0.00
expand: firefly_step (2, 0) FAR  w(0) 45699. F 0.01
expand: top_step (3, 0) FAR  w(0) 37808.
	create_child: excludes8_fun (2, 6) FAR 46110 U 0.00
expand: excludes8_fun (2, 0) FAR  w(0) 46110. F 0.00
expand: top_step (3, 0) FAR  w(0) 37808.
	create_child: excludes8_fun (2, 6) FAR 46182 U 0.00
expand: excludes8_fun (2, 0) FAR  w(0) 46182.
	create_child: Sofar_step (2, 6) FAR 44084 X 0.00
expand: Sofar_step (2, 0) FAR  w(0) 44084.
	create_child: firefly_step (2, 6) FAR 46133 X 0.00
expand: firefly_step (2, 0) FAR  w(0) 46133. F 0.01
expand: top_step (3, 0) FAR  w(0) 37808.
	create_child: excludes8_fun (2, 6) FAR 46182 U 0.00
expand: excludes8_fun (2, 0) FAR  w(0) 46182.
	create_child: Sofar_step (2, 6) FAR 44084 X 0.00
expand: Sofar_step (2, 0) FAR  w(0) 44084.
	create_child: firefly_step (2, 6) FAR 46376 X 0.00
expand: firefly_step (2, 0) FAR  w(0) 46376. F 0.01
expand: top_step (3, 0) FAR  w(0) 37808.
	create_child: excludes8_fun (2, 6) FAR 46639 U 0.00
expand: excludes8_fun (2, 0) FAR  w(0) 46639. F 0.00
expand: top_step (3, 0) FAR  w(0) 37808.
	create_child: excludes8_fun (2, 6) FAR 46667 U 0.00
expand: excludes8_fun (2, 0) FAR  w(0) 46667.
	create_child: firefly_step (2, 6) FAR 46709 X 0.00
expand: firefly_step (2, 0) FAR  w(0) 46709. F 0.01
expand: top_step (3, 0) FAR  w(0) 37808.
	create_child: excludes8_fun (2, 6) FAR 46987 U 0.00
expand: excludes8_fun (2, 0) FAR  w(0) 46987. F 0.00
expand: top_step (3, 0) FAR  w(0) 37808. F 0.01
expand: MAIN (4, 0) FAR  w(0) 2328. F 0.00
expand: ERR (5, 0) FAR  w(0) 1. F 0.00
expand: query!0 (6, 0) FAR  w(0) 1. F 0.00
(spacer::context::check_reachability :time 0.37 :before-memory 29.75 :after-memory 33.29)
Propagating: 1 2 3 4 5 6  ! 7 
(spacer::context::propagate :time 0.01 :before-memory 33.29 :after-memory 33.29)
Entering level 7
BRUNCH_STAT max_query_lvl 6
BRUNCH_STAT num_queries 116
BRUNCH_STAT num_reach_queries 1
BRUNCH_STAT num_reach_reuse 152
BRUNCH_STAT inductive_lvl 0
BRUNCH_STAT max_depth 7
BRUNCH_STAT cex_depth 0
expand: query!0 (7, 0) FAR  w(0) 1.
	create_child: ERR (6, 7) FAR 1 U 0.00
expand: ERR (6, 0) FAR  w(0) 1.
	create_child: MAIN (5, 7) FAR 2328 U 0.00
expand: MAIN (5, 0) FAR  w(0) 2328.
	create_child: MAIN (4, 7) FAR 19940 U 0.00
expand: MAIN (4, 0) FAR  w(0) 19940.
	create_child: top_step (3, 7) FAR 47582 U 0.00
expand: top_step (3, 0) FAR  w(0) 47582.
	create_child: excludes8_fun (2, 7) FAR 1669 U 0.01
expand: excludes8_fun (2, 0) FAR  w(0) 1669.
	create_child: Sofar_step (2, 7) FAR 33446 X 0.00
expand: Sofar_step (2, 0) FAR  w(0) 33446.
	create_child: firefly_step (2, 7) FAR 48039 X 0.00
expand: firefly_step (2, 0) FAR  w(0) 48039. F 0.01
expand: top_step (3, 0) FAR  w(0) 47582.
	create_child: excludes8_fun (2, 7) FAR 23836 U 0.00
expand: excludes8_fun (2, 0) FAR  w(0) 23836.
	create_child: Sofar_step (2, 7) FAR 33446 X 0.00
expand: Sofar_step (2, 0) FAR  w(0) 33446.
	create_child: firefly_step (2, 7) FAR 47510 X 0.00
expand: firefly_step (2, 0) FAR  w(0) 47510. F 0.00
expand: top_step (3, 0) FAR  w(0) 47582. F 0.01
expand: MAIN (4, 0) FAR  w(0) 19940. F 0.01
expand: MAIN (5, 0) FAR  w(0) 2328.
	create_child: MAIN (4, 7) FAR 49453 U 0.00
expand: MAIN (4, 0) FAR  w(0) 49453.
	create_child: top_step (3, 7) FAR 49378 U 0.00
expand: top_step (3, 0) FAR  w(0) 49378.
	create_child: firefly_step (2, 7) FAR 49693 U 0.00
expand: firefly_step (2, 0) FAR  w(0) 49693. F 0.01
expand: top_step (3, 0) FAR  w(0) 49378. F 0.01
expand: MAIN (4, 0) FAR  w(0) 49453.
	create_child: top_step (3, 7) FAR 50029 U 0.00
expand: top_step (3, 0) FAR  w(0) 50029.
	create_child: excludes8_fun (2, 7) FAR 23836 U 0.01
expand: excludes8_fun (2, 0) FAR  w(0) 23836.
	create_child: Sofar_step (2, 7) FAR 33446 X 0.00
expand: Sofar_step (2, 0) FAR  w(0) 33446.
	create_child: firefly_step (2, 7) FAR 50181 X 0.00
expand: firefly_step (2, 0) FAR  w(0) 50181. F 0.00
expand: top_step (3, 0) FAR  w(0) 50029. F 0.03
expand: MAIN (4, 0) FAR  w(0) 49453. F 0.00
expand: MAIN (5, 0) FAR  w(0) 2328.
	create_child: MAIN (4, 7) FAR 51863 U 0.01
expand: MAIN (4, 0) FAR  w(0) 51863.
	create_child: top_step (3, 7) FAR 51765 U 0.00
expand: top_step (3, 0) FAR  w(0) 51765. F 0.01
expand: MAIN (4, 0) FAR  w(0) 51863. F 0.00
expand: MAIN (5, 0) FAR  w(0) 2328.
	create_child: MAIN (4, 7) FAR 53000 U 0.00
expand: MAIN (4, 0) FAR  w(0) 53000.
	create_child: top_step (3, 7) FAR 53054 U 0.00
expand: top_step (3, 0) FAR  w(0) 53054. F 0.02
expand: MAIN (4, 0) FAR  w(0) 53000. F 0.00
expand: MAIN (5, 0) FAR  w(0) 2328.
	create_child: top_step (4, 7) FAR 54356 U 0.00
expand: top_step (4, 0) FAR  w(0) 54356.
	create_child: excludes8_fun (3, 7) FAR 55458 U 0.01
expand: excludes8_fun (3, 0) FAR  w(0) 55458. F 0.00
expand: top_step (4, 0) FAR  w(0) 54356.
	create_child: excludes8_fun (3, 7) FAR 44513 U 0.01
expand: excludes8_fun (3, 0) FAR  w(0) 44513.
	create_child: firefly_step (3, 7) FAR 56267 X 0.00
expand: firefly_step (3, 0) FAR  w(0) 56267. F 0.01
expand: top_step (4, 0) FAR  w(0) 54356.
	create_child: excludes8_fun (3, 7) FAR 44513 U 0.00
expand: excludes8_fun (3, 0) FAR  w(0) 44513.
	create_child: firefly_step (3, 7) FAR 56937 X 0.00
expand: firefly_step (3, 0) FAR  w(0) 56937. F 0.01
expand: top_step (4, 0) FAR  w(0) 54356.
	create_child: excludes8_fun (3, 7) FAR 46667 U 0.00
expand: excludes8_fun (3, 0) FAR  w(0) 46667.
	create_child: firefly_step (3, 7) FAR 56929 X 0.00
expand: firefly_step (3, 0) FAR  w(0) 56929. F 0.01
expand: top_step (4, 0) FAR  w(0) 54356.
	create_child: excludes8_fun (3, 7) FAR 57070 U 0.00
expand: excludes8_fun (3, 0) FAR  w(0) 57070. F 0.00
expand: top_step (4, 0) FAR  w(0) 54356. F 0.02
expand: MAIN (5, 0) FAR  w(0) 2328. F 0.00
expand: ERR (6, 0) FAR  w(0) 1. F 0.00
expand: query!0 (7, 0) FAR  w(0) 1. F 0.00
(spacer::context::check_reachability :time 0.26 :before-memory 33.29 :after-memory 36.21)
Propagating: 2 3 4 5 6 7  ! 8 
(spacer::context::propagate :time 0.01 :before-memory 36.21 :after-memory 36.21)
Entering level 8
BRUNCH_STAT max_query_lvl 7
BRUNCH_STAT num_queries 137
BRUNCH_STAT num_reach_queries 1
BRUNCH_STAT num_reach_reuse 173
BRUNCH_STAT inductive_lvl 0
BRUNCH_STAT max_depth 8
BRUNCH_STAT cex_depth 0
expand: query!0 (8, 0) FAR  w(0) 1.
	create_child: ERR (7, 8) FAR 1 U 0.00
expand: ERR (7, 0) FAR  w(0) 1.
	create_child: MAIN (6, 8) FAR 2328 U 0.00
expand: MAIN (6, 0) FAR  w(0) 2328.
	create_child: MAIN (5, 8) FAR 49453 U 0.00
expand: MAIN (5, 0) FAR  w(0) 49453.
	create_child: top_step (4, 8) FAR 58109 U 0.00
expand: top_step (4, 0) FAR  w(0) 58109. F 0.02
expand: MAIN (5, 0) FAR  w(0) 49453. F 0.00
expand: MAIN (6, 0) FAR  w(0) 2328.
	create_child: MAIN (5, 8) FAR 19940 U 0.00
expand: MAIN (5, 0) FAR  w(0) 19940.
	create_child: top_step (4, 8) FAR 58149 U 0.00
expand: top_step (4, 0) FAR  w(0) 58149. F 0.02
expand: MAIN (5, 0) FAR  w(0) 19940. F 0.01
expand: MAIN (6, 0) FAR  w(0) 2328.
	create_child: MAIN (5, 8) FAR 53000 U 0.00
expand: MAIN (5, 0) FAR  w(0) 53000.
	create_child: top_step (4, 8) FAR 58622 U 0.00
expand: top_step (4, 0) FAR  w(0) 58622. F 0.02
expand: MAIN (5, 0) FAR  w(0) 53000. F 0.00
expand: MAIN (6, 0) FAR  w(0) 2328.
	create_child: MAIN (5, 8) FAR 61346 U 0.00
expand: MAIN (5, 0) FAR  w(0) 61346.
	create_child: top_step (4, 8) FAR 60725 U 0.00
expand: top_step (4, 0) FAR  w(0) 60725. F 0.02
expand: MAIN (5, 0) FAR  w(0) 61346. F 0.00
expand: MAIN (6, 0) FAR  w(0) 2328. F 0.00
expand: ERR (7, 0) FAR  w(0) 1. F 0.00
expand: query!0 (8, 0) FAR  w(0) 1. F 0.00
(spacer::context::check_reachability :time 0.11 :before-memory 36.21 :after-memory 37.16)
Propagating: 4 
(spacer::context::propagate :time 0.00 :before-memory 37.16 :after-memory 37.16)
(define-fun ERR () Bool
  false)
(define-fun First_reset ((x!0 Int) (x!1 Bool) (x!2 Int) (x!3 Bool)) Bool
  x!3)
(define-fun MAIN ((x!0 Int)
 (x!1 Bool)
 (x!2 Int)
 (x!3 Int)
 (x!4 Int)
 (x!5 Int)
 (x!6 Int)
 (x!7 Int)
 (x!8 Bool)
 (x!9 Bool)
 (x!10 Bool)
 (x!11 Bool)) Bool
  (let ((a!1 (+ x!0 (* (- 1) x!3) (* (- 1) x!4) (* (- 1) x!5) (* (- 1) x!6)))
        (a!2 (+ x!0 (* (- 1) x!2) (* (- 1) x!3) (* (- 1) x!5) (* (- 1) x!6))))
    (and (or (<= x!2 0) (not x!9) (not (<= a!1 0)))
         x!11
         (not x!1)
         (not x!8)
         (not x!10)
         (or (<= a!2 0) (not x!9))
         (or (>= a!2 0) (not x!9))
         (or (not (= x!2 1)) (not x!9) (not (>= a!1 2))))))
(define-fun First_step ((x!0 Int)
 (x!1 Int)
 (x!2 Int)
 (x!3 Bool)
 (x!4 Int)
 (x!5 Bool)) Bool
  (let ((a!1 (or (<= (+ x!1 (* (- 1) x!2)) 0) x!3))
        (a!2 (or (not x!3) (= (+ x!1 (* (- 1) x!0)) 0)))
        (a!3 (or (>= (+ x!1 (* (- 1) x!2)) 0) x!3)))
    (and a!1
         (not x!5)
         a!2
         (<= (+ x!1 (* (- 1) x!4)) 0)
         (>= (+ x!1 (* (- 1) x!4)) 0)
         a!3)))
(define-fun firefly_reset ((x!0 Int)
 (x!1 Int)
 (x!2 Int)
 (x!3 Int)
 (x!4 Int)
 (x!5 Int)
 (x!6 Bool)
 (x!7 Int)
 (x!8 Int)
 (x!9 Int)
 (x!10 Int)
 (x!11 Int)
 (x!12 Int)
 (x!13 Bool)) Bool
  x!13)
(define-fun Sofar_reset ((x!0 Bool) (x!1 Bool) (x!2 Bool) (x!3 Bool)) Bool
  x!3)
(define-fun Sofar_step ((x!0 Bool)
 (x!1 Bool)
 (x!2 Bool)
 (x!3 Bool)
 (x!4 Bool)
 (x!5 Bool)) Bool
  (and (or x!3 (not x!1) x!2)
       (not x!5)
       (or x!0 (not x!4))
       (or x!0 (not x!1))
       (or x!2 x!3 (not x!4))))
(define-fun firefly_step ((x!0 Bool)
 (x!1 Bool)
 (x!2 Bool)
 (x!3 Bool)
 (x!4 Bool)
 (x!5 Bool)
 (x!6 Bool)
 (x!7 Bool)
 (x!8 Int)
 (x!9 Int)
 (x!10 Int)
 (x!11 Int)
 (x!12 Int)
 (x!13 Int)
 (x!14 Int)
 (x!15 Int)
 (x!16 Int)
 (x!17 Int)
 (x!18 Int)
 (x!19 Bool)
 (x!20 Int)
 (x!21 Int)
 (x!22 Int)
 (x!23 Int)
 (x!24 Int)
 (x!25 Int)
 (x!26 Bool)) Bool
  (let ((a!1 (not (<= (+ x!13 (* (- 1) x!15)) 1)))
        (a!2 (+ x!10
                x!11
                x!12
                x!9
                (* (- 1) x!13)
                (* (- 1) x!14)
                (* (- 1) x!16)
                (* (- 1) x!17)))
        (a!3 (or (>= (+ x!8
                        (* (- 1) x!10)
                        (* (- 1) x!11)
                        (* (- 1) x!12)
                        (* (- 1) x!9))
                     0)
                 (not x!19)))
        (a!4 (or (>= (+ x!10 x!11 x!12 x!9 (* (- 1) x!8)) 0) (not x!19)))
        (a!5 (or (>= (+ x!10
                        x!11
                        x!12
                        x!9
                        (* (- 1) x!13)
                        (* (- 1) x!14)
                        (* (- 1) x!17))
                     0)
                 x!3
                 x!7
                 x!2
                 x!19
                 (not (<= x!13 0))
                 (not (= x!16 0))))
        (a!6 (or (<= (+ x!10
                        x!11
                        x!12
                        x!9
                        (* (- 1) x!14)
                        (* (- 1) x!16)
                        (* (- 1) x!17))
                     0)
                 x!2
                 x!0
                 x!19
                 (not (<= x!13 0))
                 (not (<= x!16 0))
                 (not (<= x!14 0))))
        (a!7 (or (>= (+ x!13
                        x!14
                        x!16
                        x!17
                        (* (- 1) x!10)
                        (* (- 1) x!11)
                        (* (- 1) x!12)
                        (* (- 1) x!9))
                     0)
                 x!19
                 (not (<= x!16 0))
                 (not (<= x!14 0))
                 (>= x!13 0)))
        (a!9 (+ x!10
                x!11
                x!12
                x!9
                (* (- 1) x!21)
                (* (- 1) x!22)
                (* (- 1) x!23)
                (* (- 1) x!24))))
  (let ((a!8 (or (= x!14 0)
                 x!19
                 (not (<= x!16 0))
                 (not (<= x!14 0))
                 (= x!13 1)
                 (>= a!2 0)
                 (not (<= (+ x!13 x!14) 0))))
        (a!10 (or (<= (+ x!13 (* (- 1) x!15)) 0)
                  x!6
                  x!1
                  x!7
                  x!2
                  x!0
                  x!19
                  (<= a!2 0)))
        (a!11 (or (<= (+ x!13 (* (- 1) x!15)) 0)
                  x!6
                  x!5
                  x!3
                  x!1
                  x!7
                  x!2
                  x!19
                  (<= a!2 0))))
    (and (or a!1 x!6 x!3 x!1 x!7 x!0 x!19 (>= a!2 0))
         (not x!26)
         a!3
         a!4
         (or (<= x!21 0) (not x!19))
         (>= (+ x!10
                x!11
                x!12
                x!9
                (* (- 1) x!20)
                (* (- 1) x!21)
                (* (- 1) x!23)
                (* (- 1) x!24))
             0)
         (or (<= x!23 0) (not x!19))
         (>= (+ x!20
                x!21
                x!23
                x!24
                (* (- 1) x!10)
                (* (- 1) x!11)
                (* (- 1) x!12)
                (* (- 1) x!9))
             0)
         (or (<= x!20 0) (not x!19))
         a!5
         (or (>= a!2 0)
             x!5
             x!19
             (not (<= x!13 0))
             (not (<= x!16 0))
             (not (<= x!14 0)))
         a!6
         a!7
         (or (>= a!2 0) x!19 (not (<= x!16 0)) (not (<= x!14 0)) (>= x!13 0))
         (or (<= a!2 0)
             x!5
             x!19
             (not (<= x!13 0))
             (not (<= x!16 0))
             (not (<= x!14 0)))
         a!8
         (or (= x!13 1) (not (= x!20 1)) (not (<= x!16 0)))
         (or (>= a!2 0)
             x!3
             x!19
             (not (<= x!13 0))
             (not (<= x!16 0))
             (not (<= x!14 0)))
         (or (>= a!2 0) x!3 x!7 x!4 x!2 x!19)
         (or (<= a!2 0) x!5 x!3 x!7 x!4 x!2 x!0 x!19)
         (or (<= a!2 0) x!5 x!3 x!7 x!2 x!0 x!19 (= x!13 1))
         (or (>= a!2 0) x!6 x!3 x!7 x!2 x!19 (= x!13 1))
         (or (<= a!2 0) x!6 x!7 x!2 x!0 x!19 (= x!13 1))
         (or (>= a!2 0) x!6 x!3 x!1 x!4 x!0 x!19)
         (or (>= a!2 0) x!5 x!1 x!7 x!4 x!2 x!19)
         (or (<= a!2 0) x!6 x!5 x!3 x!1 x!4 x!0 x!19)
         (or (<= a!2 0) x!6 x!5 x!3 x!1 x!7 x!2 x!19 (= x!13 1))
         (or (= x!13 1) x!6 x!1 (not (= x!20 1)))
         (or (not (<= x!20 1)) (not (>= a!9 2)))
         (or (not (>= x!13 2)) (not (= x!20 1)))
         (or (not (<= a!9 0)) (<= x!20 0))
         a!10
         a!11))))
(define-fun top_step ((x!0 Bool)
 (x!1 Bool)
 (x!2 Bool)
 (x!3 Bool)
 (x!4 Bool)
 (x!5 Bool)
 (x!6 Bool)
 (x!7 Bool)
 (x!8 Int)
 (x!9 Bool)
 (x!10 Int)
 (x!11 Bool)
 (x!12 Int)
 (x!13 Int)
 (x!14 Int)
 (x!15 Int)
 (x!16 Int)
 (x!17 Int)
 (x!18 Bool)
 (x!19 Bool)
 (x!20 Bool)
 (x!21 Int)
 (x!22 Bool)
 (x!23 Int)
 (x!24 Int)
 (x!25 Int)
 (x!26 Int)
 (x!27 Int)
 (x!28 Int)
 (x!29 Bool)
 (x!30 Bool)
 (x!31 Bool)) Bool
  (let ((a!1 (+ x!10
                (* (- 1) x!13)
                (* (- 1) x!14)
                (* (- 1) x!15)
                (* (- 1) x!16)))
        (a!2 (+ x!21
                (* (- 1) x!23)
                (* (- 1) x!24)
                (* (- 1) x!26)
                (* (- 1) x!27)))
        (a!3 (+ x!10
                (* (- 1) x!12)
                (* (- 1) x!13)
                (* (- 1) x!15)
                (* (- 1) x!16)))
        (a!4 (+ x!21
                (* (- 1) x!24)
                (* (- 1) x!25)
                (* (- 1) x!26)
                (* (- 1) x!27))))
    (and (or (not (<= a!1 1)) (not x!30) x!18 x!11 (<= a!2 0) (not (= a!3 0)))
         (not x!31)
         (not x!29)
         (not x!22)
         (or (not x!18) (not x!11) x!9)
         (or (<= x!24 0) (not x!18))
         (or (<= x!26 0) (not x!18))
         (or (>= a!2 0) (not x!11) (not x!18))
         (or (<= a!2 0) (not x!11) (not x!18))
         (or (<= x!23 0) (not x!18))
         (or (not x!30) x!19 x!20)
         (or (>= x!12 0)
             x!18
             x!11
             (<= a!2 0)
             (not (<= x!15 0))
             (not (<= x!13 0))
             (not (<= a!3 0)))
         (or (not (<= x!12 0)) (not (= x!23 1)) (not (<= x!15 0)))
         (or x!20 x!9 x!19)
         (or (= x!12 1) x!9 x!18 x!11 (not (= a!3 0)))
         (or (not (>= a!4 2))
             (not x!30)
             x!11
             (not (= x!23 1))
             (not (<= a!3 0))
             (= x!12 1))
         (or (not (>= x!12 2)) (not (= x!23 1)))
         (or (not (<= a!4 0))
             (not x!30)
             x!11
             (<= x!23 0)
             (not (>= a!3 0))
             (= x!12 1))
         (or (= x!12 1) (not x!30) x!18 x!11 (<= a!2 0) (not (<= a!3 0)))
         (or (= x!12 1) (not x!30) x!18 x!11 (>= a!2 0) (not (>= a!3 0)))
         (or (not (= a!1 1)) x!9 x!18 x!11 (not (= a!3 0)))
         (or (<= a!1 0)
             (not x!30)
             x!11
             (<= x!23 0)
             (not (= a!3 0))
             (not (<= a!4 0)))
         (or (not (<= a!1 1))
             (not x!30)
             x!11
             (not (= x!23 1))
             (not (= a!3 0))
             (not (>= a!4 2)))
         (or (<= a!1 0) (not x!30) x!18 x!11 (>= a!2 0) (not (= a!3 0))))))
(define-fun top_reset ((x!0 Int)
 (x!1 Bool)
 (x!2 Int)
 (x!3 Int)
 (x!4 Int)
 (x!5 Int)
 (x!6 Int)
 (x!7 Int)
 (x!8 Bool)
 (x!9 Bool)
 (x!10 Bool)
 (x!11 Int)
 (x!12 Bool)
 (x!13 Int)
 (x!14 Int)
 (x!15 Int)
 (x!16 Int)
 (x!17 Int)
 (x!18 Int)
 (x!19 Bool)
 (x!20 Bool)
 (x!21 Bool)) Bool
  (and x!21 x!12 x!19))
(define-fun excludes8_fun ((x!0 Bool)
 (x!1 Bool)
 (x!2 Bool)
 (x!3 Bool)
 (x!4 Bool)
 (x!5 Bool)
 (x!6 Bool)
 (x!7 Bool)
 (x!8 Bool)) Bool
  (and (or (not x!5) (not x!8) (not x!1))
       (or (not x!8) (not x!2) (not x!5))
       (or (not x!8) (not x!0) (not x!5))
       (or (not x!8) (not x!3) (not x!5))
       (or (not x!7) (not x!8) (not x!5))
       (or (not x!6) (not x!8) (not x!3))
       (or (not x!3) (not x!8) (not x!0))
       (or (not x!5) (not x!8) (not x!6))
       (or (not x!6) (not x!8) (not x!0))
       (or (not x!7) (not x!8) (not x!0))
       (or (not x!1) (not x!8) (not x!0))
       (or (not x!8) (not x!4) (not x!6))
       (or (not x!8) (not x!4) (not x!7))
       (or (not x!8) (not x!6) (not x!7))
       (or (not x!8) (not x!3) (not x!7))
       (or (not x!8) (not x!1) (not x!3))
       (or (not x!8) (not x!1) (not x!7))
       (or (not x!8) (not x!2) (not x!6))
       (or (not x!8) (not x!2) (not x!3))
       (or (not x!8) (not x!1) (not x!2))
       (or (not x!8) (not x!0) (not x!2))
       (or (not x!4) (not x!8) (not x!3))
       (or (not x!4) (not x!8) (not x!0))
       (or (not x!4) (not x!8) (not x!2))
       (or (not x!8) (not x!1) (not x!4))))
BRUNCH_STAT max_query_lvl 8
BRUNCH_STAT num_queries 147
BRUNCH_STAT num_reach_queries 1
BRUNCH_STAT num_reach_reuse 177
BRUNCH_STAT inductive_lvl 4
BRUNCH_STAT max_depth 8
BRUNCH_STAT cex_depth 0
(:SPACER-inductive-level               4
 :SPACER-max-depth                     8
 :SPACER-max-query-lvl                 8
 :SPACER-num-invariants                122
 :SPACER-num-lemmas                    156
 :SPACER-num-properties                117
 :SPACER-num-queries                   147
 :SPACER-num-reach-queries             1
 :SPACER-num-reuse-reach-facts         177
 :added-eqs                            54297
 :arith-add-rows                       24345
 :arith-assert-diseq                   14808
 :arith-assert-lower                   33646
 :arith-assert-upper                   33115
 :arith-bound-prop                     1402
 :arith-conflicts                      169
 :arith-eq-adapter                     13208
 :arith-fixed-eqs                      9531
 :arith-offset-eqs                     5908
 :arith-pivots                         3443
 :bool-inductive-gen                   136
 :bool-inductive-gen-failures          477
 :conflicts                            2308
 :decisions                            45576
 :del-clause                           2055
 :final-checks                         825
 :minimized-lits                       4127
 :mk-bool-var                          25380
 :mk-clause                            10116
 :num-checks                           1651
 :propagations                         472027
 :time.itp_solver.itp_core             0.08
 :time.spacer.init_rules               0.01
 :time.spacer.init_rules.pt.init       0.00
 :time.spacer.solve                    1.24
 :time.spacer.solve.propagate          0.02
 :time.spacer.solve.pt.must_reachable  0.05
 :time.spacer.solve.reach              1.21
 :time.spacer.solve.reach.children     0.19
 :time.spacer.solve.reach.gen.bool_ind 0.41
 :time.virtual_solver.proof            0.05
 :time.virtual_solver.smt.total        0.85
 :time.virtual_solver.smt.total.sat    0.51
 :virtual_solver.checks                1651
 :virtual_solver.checks.sat            825)
BRUNCH_STAT max_query_lvl 8
BRUNCH_STAT num_queries 147
BRUNCH_STAT num_reach_queries 1
BRUNCH_STAT num_reach_reuse 177
BRUNCH_STAT inductive_lvl 4
BRUNCH_STAT max_depth 8
BRUNCH_STAT cex_depth 0

real	0m1.444s
user	0m1.340s
sys	0m0.044s
