(transform N7datalog13mk_coi_filterE...no-op 0s)
(transform N7datalog25mk_interp_tail_simplifierE...14 rules 0s)
(transform N7datalog27mk_quantifier_instantiationE...no-op 0s)
(transform N7datalog8mk_scaleE...no-op 0s)
(transform N7datalog18mk_karr_invariantsE...no-op 0s)
(transform N7datalog14mk_array_blastE...no-op 0s)
(transform N7datalog22mk_subsumption_checkerE...13 rules 0s)
(transform N7datalog12mk_bit_blastE...no-op 0s)
(transform N7datalog15mk_rule_inlinerE...no-op 0s)
(transform N7datalog13mk_coi_filterE...no-op 0s)
(transform N7datalog25mk_interp_tail_simplifierE...13 rules 0s)
(transform N7datalog22mk_subsumption_checkerE...no-op 0s)
(transform N7datalog15mk_rule_inlinerE...no-op 0s)
(transform N7datalog13mk_coi_filterE...no-op 0s)
(transform N7datalog25mk_interp_tail_simplifierE...13 rules 0s)
(transform N7datalog22mk_subsumption_checkerE...no-op 0s)
(transform N7datalog15mk_rule_inlinerE...no-op 0s)
(transform N7datalog22mk_subsumption_checkerE...no-op 0s)
(transform N7datalog15mk_rule_inlinerE...no-op 0s)
(transform N7datalog22mk_subsumption_checkerE...no-op 0s)
(transform N7datalog15mk_rule_inlinerE...no-op 0s)
(transform N7datalog22mk_subsumption_checkerE...no-op 0s)
expand: query!0 (0, 0) FAR  w(0) 1. F 0.00
(spacer::context::check_reachability :time 0.00 :before-memory 13.33 :after-memory 13.74)
Entering level 1
BRUNCH_STAT max_query_lvl 0
BRUNCH_STAT num_queries 0
BRUNCH_STAT num_reach_queries 0
BRUNCH_STAT num_reach_reuse 0
BRUNCH_STAT inductive_lvl 0
BRUNCH_STAT max_depth 1
BRUNCH_STAT cex_depth 0
expand: query!0 (1, 0) FAR  w(0) 1.
	create_child: ERR (0, 1) FAR 1 U 0.00
expand: ERR (0, 0) FAR  w(0) 1. F 0.00
expand: query!0 (1, 0) FAR  w(0) 1. F 0.00
(spacer::context::check_reachability :time 0.00 :before-memory 13.74 :after-memory 14.19)
Propagating: 0 1  ! 2 
(spacer::context::propagate :time 0.00 :before-memory 14.19 :after-memory 14.19)
Entering level 2
BRUNCH_STAT max_query_lvl 1
BRUNCH_STAT num_queries 1
BRUNCH_STAT num_reach_queries 0
BRUNCH_STAT num_reach_reuse 0
BRUNCH_STAT inductive_lvl 0
BRUNCH_STAT max_depth 2
BRUNCH_STAT cex_depth 0
expand: query!0 (2, 0) FAR  w(0) 1.
	create_child: ERR (1, 2) FAR 1 U 0.00
expand: ERR (1, 0) FAR  w(0) 1.
	create_child: MAIN (0, 2) FAR 2343 U 0.00
expand: MAIN (0, 0) FAR  w(0) 2343. F 0.00
expand: ERR (1, 0) FAR  w(0) 1. F 0.00
expand: query!0 (2, 0) FAR  w(0) 1. F 0.00
(spacer::context::check_reachability :time 0.00 :before-memory 14.19 :after-memory 14.65)
Propagating: 0 1 2  ! 3 
(spacer::context::propagate :time 0.00 :before-memory 14.65 :after-memory 14.65)
Entering level 3
BRUNCH_STAT max_query_lvl 2
BRUNCH_STAT num_queries 3
BRUNCH_STAT num_reach_queries 0
BRUNCH_STAT num_reach_reuse 0
BRUNCH_STAT inductive_lvl 0
BRUNCH_STAT max_depth 3
BRUNCH_STAT cex_depth 0
expand: query!0 (3, 0) FAR  w(0) 1.
	create_child: ERR (2, 3) FAR 1 U 0.00
expand: ERR (2, 0) FAR  w(0) 1.
	create_child: MAIN (1, 3) FAR 2343 U 0.00
expand: MAIN (1, 0) FAR  w(0) 2343.
	create_child: top_step (0, 3) FAR 3116 U 0.00
expand: top_step (0, 0) FAR  w(0) 3116. F 0.00
expand: MAIN (1, 0) FAR  w(0) 2343. F 0.00
expand: ERR (2, 0) FAR  w(0) 1. F 0.00
expand: query!0 (3, 0) FAR  w(0) 1. F 0.00
(spacer::context::check_reachability :time 0.01 :before-memory 14.65 :after-memory 15.78)
Propagating: 0 1 2 3  ! 4 
(spacer::context::propagate :time 0.00 :before-memory 15.78 :after-memory 15.88)
Entering level 4
BRUNCH_STAT max_query_lvl 3
BRUNCH_STAT num_queries 6
BRUNCH_STAT num_reach_queries 0
BRUNCH_STAT num_reach_reuse 0
BRUNCH_STAT inductive_lvl 0
BRUNCH_STAT max_depth 4
BRUNCH_STAT cex_depth 0
expand: query!0 (4, 0) FAR  w(0) 1.
	create_child: ERR (3, 4) FAR 1 U 0.00
expand: ERR (3, 0) FAR  w(0) 1.
	create_child: MAIN (2, 4) FAR 2343 U 0.00
expand: MAIN (2, 0) FAR  w(0) 2343.
	create_child: top_step (1, 4) FAR 3116 U 0.00
expand: top_step (1, 0) FAR  w(0) 3116.
	create_child: top_reset (1, 4) FAR 8745 X 0.01
expand: top_reset (1, 0) FAR  w(0) 8745.
	create_child: firefly_reset (0, 4) FAR 9319 U 0.00
expand: firefly_reset (0, 0) FAR  w(0) 9319. F 0.00
expand: top_reset (1, 0) FAR  w(0) 8745. F 0.00
expand: MAIN (2, 0) FAR  w(0) 2343.
	create_child: top_reset (1, 4) FAR 12285 U 0.00
expand: top_reset (1, 0) FAR  w(0) 12285.
	create_child: First_reset (0, 4) FAR 12118 U 0.00
expand: First_reset (0, 0) FAR  w(0) 12118. F 0.00
expand: top_reset (1, 0) FAR  w(0) 12285. F 0.00
expand: MAIN (2, 0) FAR  w(0) 2343.
	create_child: top_step (1, 4) FAR 12294 U 0.00
expand: top_step (1, 0) FAR  w(0) 12294.
	create_child: First_step (0, 4) FAR 12684 U 0.00
expand: First_step (0, 0) FAR  w(0) 12684. F 0.00
expand: top_step (1, 0) FAR  w(0) 12294.
	create_child: First_step (0, 4) FAR 12784 U 0.00
expand: First_step (0, 0) FAR  w(0) 12784.
	create_child: firefly_step (0, 4) FAR 12849 X 0.00
expand: firefly_step (0, 0) FAR  w(0) 12849. F 0.00
expand: top_step (1, 0) FAR  w(0) 12294. F 0.00
expand: MAIN (2, 0) FAR  w(0) 2343. F 0.00
expand: ERR (3, 0) FAR  w(0) 1. F 0.00
expand: query!0 (4, 0) FAR  w(0) 1. F 0.00
(spacer::context::check_reachability :time 0.04 :before-memory 15.88 :after-memory 22.09)
Propagating: 0 1 2 3 4  ! 5 
(spacer::context::propagate :time 0.00 :before-memory 22.09 :after-memory 22.09)
Entering level 5
BRUNCH_STAT max_query_lvl 4
BRUNCH_STAT num_queries 15
BRUNCH_STAT num_reach_queries 1
BRUNCH_STAT num_reach_reuse 11
BRUNCH_STAT inductive_lvl 0
BRUNCH_STAT max_depth 5
BRUNCH_STAT cex_depth 0
expand: query!0 (5, 0) FAR  w(0) 1.
	create_child: ERR (4, 5) FAR 1 U 0.00
expand: ERR (4, 0) FAR  w(0) 1.
	create_child: MAIN (3, 5) FAR 2343 U 0.00
expand: MAIN (3, 0) FAR  w(0) 2343.
	create_child: MAIN (2, 5) FAR 15515 U 0.00
expand: MAIN (2, 0) FAR  w(0) 15515.
	create_child: top_step (1, 5) FAR 15469 U 0.00
expand: top_step (1, 0) FAR  w(0) 15469.
	create_child: firefly_step (0, 5) FAR 15858 U 0.00
expand: firefly_step (0, 0) FAR  w(0) 15858. F 0.00
expand: top_step (1, 0) FAR  w(0) 15469. F 0.00
expand: MAIN (2, 0) FAR  w(0) 15515. F 0.00
expand: MAIN (3, 0) FAR  w(0) 2343.
	create_child: MAIN (2, 5) FAR 16536 U 0.00
expand: MAIN (2, 0) FAR  w(0) 16536.
	create_child: top_step (1, 5) FAR 16444 U 0.00
expand: top_step (1, 0) FAR  w(0) 16444.
	create_child: Sofar_step (0, 5) FAR 16398 U 0.00
expand: Sofar_step (0, 0) FAR  w(0) 16398. F 0.00
expand: top_step (1, 0) FAR  w(0) 16444. F 0.00
expand: MAIN (2, 0) FAR  w(0) 16536. F 0.00
expand: MAIN (3, 0) FAR  w(0) 2343.
	create_child: MAIN (2, 5) FAR 16877 U 0.00
expand: MAIN (2, 0) FAR  w(0) 16877.
	create_child: top_step (1, 5) FAR 16839 U 0.00
expand: top_step (1, 0) FAR  w(0) 16839.
	create_child: firefly_step (0, 5) FAR 16813 U 0.00
expand: firefly_step (0, 0) FAR  w(0) 16813. F 0.00
expand: top_step (1, 0) FAR  w(0) 16839. F 0.00
expand: MAIN (2, 0) FAR  w(0) 16877. F 0.00
expand: MAIN (3, 0) FAR  w(0) 2343.
	create_child: MAIN (2, 5) FAR 17063 U 0.00
expand: MAIN (2, 0) FAR  w(0) 17063.
	create_child: top_step (1, 5) FAR 16951 U 0.00
expand: top_step (1, 0) FAR  w(0) 16951.
	create_child: First_step (0, 5) FAR 17214 U 0.00
expand: First_step (0, 0) FAR  w(0) 17214. F 0.00
expand: top_step (1, 0) FAR  w(0) 16951. F 0.00
expand: MAIN (2, 0) FAR  w(0) 17063. F 0.00
expand: MAIN (3, 0) FAR  w(0) 2343.
	create_child: MAIN (2, 5) FAR 17337 U 0.00
expand: MAIN (2, 0) FAR  w(0) 17337.
	create_child: top_step (1, 5) FAR 17161 U 0.00
expand: top_step (1, 0) FAR  w(0) 17161.
	create_child: firefly_step (0, 5) FAR 17259 U 0.00
expand: firefly_step (0, 0) FAR  w(0) 17259. F 0.00
expand: top_step (1, 0) FAR  w(0) 17161.
	create_child: First_step (0, 5) FAR 17530 U 0.00
expand: First_step (0, 0) FAR  w(0) 17530. F 0.00
expand: top_step (1, 0) FAR  w(0) 17161. F 0.00
expand: MAIN (2, 0) FAR  w(0) 17337. F 0.00
expand: MAIN (3, 0) FAR  w(0) 2343.
	create_child: MAIN (2, 5) FAR 18190 U 0.00
expand: MAIN (2, 0) FAR  w(0) 18190.
	create_child: top_step (1, 5) FAR 18010 U 0.00
expand: top_step (1, 0) FAR  w(0) 18010.
	create_child: firefly_step (0, 5) FAR 17725 U 0.00
expand: firefly_step (0, 0) FAR  w(0) 17725. F 0.00
expand: top_step (1, 0) FAR  w(0) 18010. F 0.00
expand: MAIN (2, 0) FAR  w(0) 18190. F 0.00
expand: MAIN (3, 0) FAR  w(0) 2343.
	create_child: top_step (2, 5) FAR 19446 U 0.01
expand: top_step (2, 0) FAR  w(0) 19446.
	create_child: First_step (1, 5) FAR 22288 U 0.02
expand: First_step (1, 0) FAR  w(0) 22288. F 0.00
expand: top_step (2, 0) FAR  w(0) 19446.
	create_child: First_step (1, 5) FAR 23053 U 0.01
expand: First_step (1, 0) FAR  w(0) 23053.
	create_child: firefly_step (1, 5) FAR 23222 X 0.00
expand: firefly_step (1, 0) FAR  w(0) 23222. F 0.01
expand: top_step (2, 0) FAR  w(0) 19446.
	create_child: First_step (1, 5) FAR 23053 U 0.00
expand: First_step (1, 0) FAR  w(0) 23053.
	create_child: firefly_step (1, 5) FAR 24218 X 0.00
expand: firefly_step (1, 0) FAR  w(0) 24218. F 0.01
expand: top_step (2, 0) FAR  w(0) 19446.
	create_child: excludes8_fun (1, 5) FAR 24954 U 0.01
expand: excludes8_fun (1, 0) FAR  w(0) 24954. F 0.00
expand: top_step (2, 0) FAR  w(0) 19446.
	create_child: excludes8_fun (1, 5) FAR 25365 U 0.00
expand: excludes8_fun (1, 0) FAR  w(0) 25365. F 0.00
expand: top_step (2, 0) FAR  w(0) 19446.
	create_child: excludes8_fun (1, 5) FAR 25182 U 0.00
expand: excludes8_fun (1, 0) FAR  w(0) 25182. F 0.00
expand: top_step (2, 0) FAR  w(0) 19446.
	create_child: excludes8_fun (1, 5) FAR 25354 U 0.00
expand: excludes8_fun (1, 0) FAR  w(0) 25354. F 0.00
expand: top_step (2, 0) FAR  w(0) 19446.
	create_child: excludes8_fun (1, 5) FAR 25291 U 0.00
expand: excludes8_fun (1, 0) FAR  w(0) 25291. F 0.00
expand: top_step (2, 0) FAR  w(0) 19446.
	create_child: excludes8_fun (1, 5) FAR 25639 U 0.00
expand: excludes8_fun (1, 0) FAR  w(0) 25639. F 0.00
expand: top_step (2, 0) FAR  w(0) 19446.
	create_child: excludes8_fun (1, 5) FAR 25717 U 0.00
expand: excludes8_fun (1, 0) FAR  w(0) 25717. F 0.00
expand: top_step (2, 0) FAR  w(0) 19446.
	create_child: excludes8_fun (1, 5) FAR 25797 U 0.00
expand: excludes8_fun (1, 0) FAR  w(0) 25797. F 0.00
expand: top_step (2, 0) FAR  w(0) 19446.
	create_child: excludes8_fun (1, 5) FAR 25767 U 0.00
expand: excludes8_fun (1, 0) FAR  w(0) 25767. F 0.00
expand: top_step (2, 0) FAR  w(0) 19446.
	create_child: excludes8_fun (1, 5) FAR 25984 U 0.00
expand: excludes8_fun (1, 0) FAR  w(0) 25984. F 0.00
expand: top_step (2, 0) FAR  w(0) 19446.
	create_child: First_step (1, 5) FAR 23053 U 0.00
expand: First_step (1, 0) FAR  w(0) 23053.
	create_child: firefly_step (1, 5) FAR 25882 X 0.00
expand: firefly_step (1, 0) FAR  w(0) 25882. F 0.01
expand: top_step (2, 0) FAR  w(0) 19446.
	create_child: First_step (1, 5) FAR 12606 U 0.00
expand: First_step (1, 0) FAR  w(0) 12606.
	create_child: Sofar_step (1, 5) FAR 25540 X 0.00
expand: Sofar_step (1, 0) FAR  w(0) 25540. F 0.00
expand: top_step (2, 0) FAR  w(0) 19446.
	create_child: First_step (1, 5) FAR 23053 U 0.00
expand: First_step (1, 0) FAR  w(0) 23053.
	create_child: excludes8_fun (1, 5) FAR 26217 X 0.00
expand: excludes8_fun (1, 0) FAR  w(0) 26217. F 0.00
expand: top_step (2, 0) FAR  w(0) 19446. F 0.01
expand: MAIN (3, 0) FAR  w(0) 2343.
	create_child: top_step (2, 5) FAR 27077 U 0.00
expand: top_step (2, 0) FAR  w(0) 27077.
	create_child: First_step (1, 5) FAR 23053 U 0.01
expand: First_step (1, 0) FAR  w(0) 23053.
	create_child: firefly_step (1, 5) FAR 29109 X 0.00
expand: firefly_step (1, 0) FAR  w(0) 29109. F 0.01
expand: top_step (2, 0) FAR  w(0) 27077.
	create_child: First_step (1, 5) FAR 23053 U 0.00
expand: First_step (1, 0) FAR  w(0) 23053.
	create_child: firefly_step (1, 5) FAR 29462 X 0.00
expand: firefly_step (1, 0) FAR  w(0) 29462. F 0.00
expand: top_step (2, 0) FAR  w(0) 27077.
	create_child: First_step (1, 5) FAR 23053 U 0.00
expand: First_step (1, 0) FAR  w(0) 23053.
	create_child: firefly_step (1, 5) FAR 29720 X 0.00
expand: firefly_step (1, 0) FAR  w(0) 29720. F 0.00
expand: top_step (2, 0) FAR  w(0) 27077. F 0.01
expand: MAIN (3, 0) FAR  w(0) 2343. F 0.00
expand: ERR (4, 0) FAR  w(0) 1. F 0.00
expand: query!0 (5, 0) FAR  w(0) 1. F 0.00
(spacer::context::check_reachability :time 0.25 :before-memory 22.09 :after-memory 27.23)
Propagating: 0 1 2 3 4 5  ! 6 
(spacer::context::propagate :time 0.00 :before-memory 27.23 :after-memory 27.23)
Entering level 6
BRUNCH_STAT max_query_lvl 5
BRUNCH_STAT num_queries 57
BRUNCH_STAT num_reach_queries 1
BRUNCH_STAT num_reach_reuse 82
BRUNCH_STAT inductive_lvl 0
BRUNCH_STAT max_depth 6
BRUNCH_STAT cex_depth 0
expand: query!0 (6, 0) FAR  w(0) 1.
	create_child: ERR (5, 6) FAR 1 U 0.00
expand: ERR (5, 0) FAR  w(0) 1.
	create_child: MAIN (4, 6) FAR 2343 U 0.00
expand: MAIN (4, 0) FAR  w(0) 2343.
	create_child: top_step (3, 6) FAR 30896 UNDEF 0.00
expand: top_step (3, 0) FAR  w(0) 30896.
	create_child: MAIN (3, 6) FAR 29460 X 0.00
expand: MAIN (3, 0) FAR  w(0) 29460.
	create_child: top_step (2, 6) FAR 30753 U 0.00
expand: top_step (2, 0) FAR  w(0) 30753.
	create_child: First_step (1, 6) FAR 31219 U 0.00
expand: First_step (1, 0) FAR  w(0) 31219. F 0.00
expand: top_step (2, 0) FAR  w(0) 30753.
	create_child: Sofar_step (1, 6) FAR 31300 U 0.00
expand: Sofar_step (1, 0) FAR  w(0) 31300. F 0.00
expand: top_step (2, 0) FAR  w(0) 30753.
	create_child: Sofar_step (1, 6) FAR 31150 U 0.00
expand: Sofar_step (1, 0) FAR  w(0) 31150.
	create_child: firefly_step (1, 6) FAR 31179 X 0.00
expand: firefly_step (1, 0) FAR  w(0) 31179. F 0.00
expand: top_step (2, 0) FAR  w(0) 30753.
	create_child: Sofar_step (1, 6) FAR 31150 U 0.00
expand: Sofar_step (1, 0) FAR  w(0) 31150.
	create_child: firefly_step (1, 6) FAR 31403 X 0.00
expand: firefly_step (1, 0) FAR  w(0) 31403. F 0.00
expand: top_step (2, 0) FAR  w(0) 30753. F 0.01
expand: MAIN (3, 0) FAR  w(0) 29460. F 0.00
expand: MAIN (4, 0) FAR  w(0) 2343.
	create_child: top_step (3, 6) FAR 31762 UNDEF 0.00
expand: top_step (3, 0) FAR  w(0) 31762.
	create_child: MAIN (3, 6) FAR 15515 X 0.00
expand: MAIN (3, 0) FAR  w(0) 15515.
	create_child: top_step (2, 6) FAR 30280 U 0.00
expand: top_step (2, 0) FAR  w(0) 30280.
	create_child: firefly_step (1, 6) FAR 32202 U 0.00
expand: firefly_step (1, 0) FAR  w(0) 32202. F 0.00
expand: top_step (2, 0) FAR  w(0) 30280.
	create_child: firefly_step (1, 6) FAR 32388 U 0.00
expand: firefly_step (1, 0) FAR  w(0) 32388. F 0.00
expand: top_step (2, 0) FAR  w(0) 30280. F 0.01
expand: MAIN (3, 0) FAR  w(0) 15515. F 0.00
expand: MAIN (4, 0) FAR  w(0) 2343.
	create_child: MAIN (3, 6) FAR 33061 U 0.00
expand: MAIN (3, 0) FAR  w(0) 33061.
	create_child: MAIN (2, 6) FAR 33152 U 0.00
expand: MAIN (2, 0) FAR  w(0) 33152.
	create_child: top_step (1, 6) FAR 33050 U 0.00
expand: top_step (1, 0) FAR  w(0) 33050.
	create_child: firefly_step (0, 6) FAR 33292 U 0.00
expand: firefly_step (0, 0) FAR  w(0) 33292. F 0.00
expand: top_step (1, 0) FAR  w(0) 33050. F 0.00
expand: MAIN (2, 0) FAR  w(0) 33152. F 0.00
expand: MAIN (3, 0) FAR  w(0) 33061.
	create_child: top_step (2, 6) FAR 33923 U 0.00
expand: top_step (2, 0) FAR  w(0) 33923.
	create_child: excludes8_fun (1, 6) FAR 34576 U 0.01
expand: excludes8_fun (1, 0) FAR  w(0) 34576.
	create_child: firefly_step (1, 6) FAR 34482 X 0.00
expand: firefly_step (1, 0) FAR  w(0) 34482. F 0.01
expand: top_step (2, 0) FAR  w(0) 33923.
	create_child: excludes8_fun (1, 6) FAR 35083 U 0.01
expand: excludes8_fun (1, 0) FAR  w(0) 35083. F 0.00
expand: top_step (2, 0) FAR  w(0) 33923.
	create_child: excludes8_fun (1, 6) FAR 35189 U 0.00
expand: excludes8_fun (1, 0) FAR  w(0) 35189. F 0.00
expand: top_step (2, 0) FAR  w(0) 33923.
	create_child: excludes8_fun (1, 6) FAR 35070 U 0.00
expand: excludes8_fun (1, 0) FAR  w(0) 35070. F 0.00
expand: top_step (2, 0) FAR  w(0) 33923.
	create_child: excludes8_fun (1, 6) FAR 35318 U 0.00
expand: excludes8_fun (1, 0) FAR  w(0) 35318. F 0.00
expand: top_step (2, 0) FAR  w(0) 33923.
	create_child: excludes8_fun (1, 6) FAR 35368 U 0.00
expand: excludes8_fun (1, 0) FAR  w(0) 35368.
	create_child: firefly_step (1, 6) FAR 35158 X 0.00
expand: firefly_step (1, 0) FAR  w(0) 35158. F 0.00
expand: top_step (2, 0) FAR  w(0) 33923. F 0.01
expand: MAIN (3, 0) FAR  w(0) 33061.
	create_child: top_step (2, 6) FAR 33854 U 0.00
expand: top_step (2, 0) FAR  w(0) 33854. F 0.01
expand: MAIN (3, 0) FAR  w(0) 33061. F 0.00
expand: MAIN (4, 0) FAR  w(0) 2343.
	create_child: top_step (3, 6) FAR 36355 U 0.00
expand: top_step (3, 0) FAR  w(0) 36355.
	create_child: Sofar_step (2, 6) FAR 36677 U 0.00
expand: Sofar_step (2, 0) FAR  w(0) 36677. F 0.00
expand: top_step (3, 0) FAR  w(0) 36355. F 0.00
expand: MAIN (4, 0) FAR  w(0) 2343.
	create_child: top_step (3, 6) FAR 36600 U 0.00
expand: top_step (3, 0) FAR  w(0) 36600.
	create_child: First_step (2, 6) FAR 23053 U 0.01
expand: First_step (2, 0) FAR  w(0) 23053.
	create_child: firefly_step (2, 6) FAR 38058 X 0.00
expand: firefly_step (2, 0) FAR  w(0) 38058. F 0.01
expand: top_step (3, 0) FAR  w(0) 36600.
	create_child: First_step (2, 6) FAR 23053 U 0.00
expand: First_step (2, 0) FAR  w(0) 23053.
	create_child: firefly_step (2, 6) FAR 38482 X 0.00
expand: firefly_step (2, 0) FAR  w(0) 38482. F 0.01
expand: top_step (3, 0) FAR  w(0) 36600.
	create_child: First_step (2, 6) FAR 23053 U 0.00
expand: First_step (2, 0) FAR  w(0) 23053.
	create_child: firefly_step (2, 6) FAR 39166 X 0.00
expand: firefly_step (2, 0) FAR  w(0) 39166. F 0.01
expand: top_step (3, 0) FAR  w(0) 36600.
	create_child: First_step (2, 6) FAR 23053 U 0.00
expand: First_step (2, 0) FAR  w(0) 23053.
	create_child: firefly_step (2, 6) FAR 39393 X 0.00
expand: firefly_step (2, 0) FAR  w(0) 39393. F 0.01
expand: top_step (3, 0) FAR  w(0) 36600.
	create_child: First_step (2, 6) FAR 23053 U 0.00
expand: First_step (2, 0) FAR  w(0) 23053.
	create_child: firefly_step (2, 6) FAR 39696 X 0.00
expand: firefly_step (2, 0) FAR  w(0) 39696. F 0.01
expand: top_step (3, 0) FAR  w(0) 36600.
	create_child: First_step (2, 6) FAR 23053 U 0.00
expand: First_step (2, 0) FAR  w(0) 23053.
	create_child: excludes8_fun (2, 6) FAR 39902 X 0.00
expand: excludes8_fun (2, 0) FAR  w(0) 39902. F 0.00
expand: top_step (3, 0) FAR  w(0) 36600.
	create_child: excludes8_fun (2, 6) FAR 40507 U 0.01
expand: excludes8_fun (2, 0) FAR  w(0) 40507. F 0.00
expand: top_step (3, 0) FAR  w(0) 36600.
	create_child: First_step (2, 6) FAR 23053 U 0.01
expand: First_step (2, 0) FAR  w(0) 23053.
	create_child: excludes8_fun (2, 6) FAR 40743 X 0.00
expand: excludes8_fun (2, 0) FAR  w(0) 40743. F 0.00
expand: top_step (3, 0) FAR  w(0) 36600.
	create_child: excludes8_fun (2, 6) FAR 40832 U 0.00
expand: excludes8_fun (2, 0) FAR  w(0) 40832. F 0.00
expand: top_step (3, 0) FAR  w(0) 36600. F 0.01
expand: MAIN (4, 0) FAR  w(0) 2343. F 0.00
expand: ERR (5, 0) FAR  w(0) 1. F 0.00
expand: query!0 (6, 0) FAR  w(0) 1. F 0.00
(spacer::context::check_reachability :time 0.30 :before-memory 27.23 :after-memory 31.71)
Propagating: 0 1 2 3 4 5 6  ! 7 
(spacer::context::propagate :time 0.01 :before-memory 31.71 :after-memory 31.71)
Entering level 7
BRUNCH_STAT max_query_lvl 6
BRUNCH_STAT num_queries 93
BRUNCH_STAT num_reach_queries 1
BRUNCH_STAT num_reach_reuse 134
BRUNCH_STAT inductive_lvl 0
BRUNCH_STAT max_depth 7
BRUNCH_STAT cex_depth 0
expand: query!0 (7, 0) FAR  w(0) 1.
	create_child: ERR (6, 7) FAR 1 U 0.00
expand: ERR (6, 0) FAR  w(0) 1.
	create_child: MAIN (5, 7) FAR 2343 U 0.00
expand: MAIN (5, 0) FAR  w(0) 2343.
	create_child: MAIN (4, 7) FAR 41267 U 0.00
expand: MAIN (4, 0) FAR  w(0) 41267.
	create_child: top_step (3, 7) FAR 40934 U 0.00
expand: top_step (3, 0) FAR  w(0) 40934. F 0.00
expand: MAIN (4, 0) FAR  w(0) 41267.
	create_child: top_step (3, 7) FAR 41364 U 0.00
expand: top_step (3, 0) FAR  w(0) 41364. F 0.01
expand: MAIN (4, 0) FAR  w(0) 41267. F 0.00
expand: MAIN (5, 0) FAR  w(0) 2343.
	create_child: MAIN (4, 7) FAR 33061 U 0.00
expand: MAIN (4, 0) FAR  w(0) 33061.
	create_child: MAIN (3, 7) FAR 42082 U 0.00
expand: MAIN (3, 0) FAR  w(0) 42082.
	create_child: top_step (2, 7) FAR 41947 UNDEF 0.00
expand: top_step (2, 0) FAR  w(0) 41947.
	create_child: First_step (1, 7) FAR 42174 UNDEF 0.01
expand: First_step (1, 0) FAR  w(0) 42174.
	create_child: excludes8_fun (1, 7) FAR 35368 X 0.00
expand: excludes8_fun (1, 0) FAR  w(0) 35368.
	create_child: Sofar_step (1, 7) FAR 31150 X 0.00
expand: Sofar_step (1, 0) FAR  w(0) 31150.
	create_child: firefly_step (1, 7) FAR 42520 X 0.00
expand: firefly_step (1, 0) FAR  w(0) 42520. F 0.00
expand: top_step (2, 0) FAR  w(0) 41947. F 0.00
expand: MAIN (3, 0) FAR  w(0) 42082. F 0.00
expand: MAIN (4, 0) FAR  w(0) 33061. F 0.00
expand: MAIN (5, 0) FAR  w(0) 2343.
	create_child: MAIN (4, 7) FAR 15515 U 0.00
expand: MAIN (4, 0) FAR  w(0) 15515.
	create_child: top_step (3, 7) FAR 42877 U 0.00
expand: top_step (3, 0) FAR  w(0) 42877. F 0.02
expand: MAIN (4, 0) FAR  w(0) 15515. F 0.00
expand: MAIN (5, 0) FAR  w(0) 2343. F 0.00
expand: ERR (6, 0) FAR  w(0) 1. F 0.00
expand: query!0 (7, 0) FAR  w(0) 1. F 0.00
(spacer::context::check_reachability :time 0.08 :before-memory 31.71 :after-memory 33.22)
Propagating: 1 2 3 
(spacer::context::propagate :time 0.00 :before-memory 33.22 :after-memory 33.22)
(define-fun ERR () Bool
  false)
(define-fun First_reset ((x!0 Int) (x!1 Bool) (x!2 Int) (x!3 Bool)) Bool
  x!3)
(define-fun First_step ((x!0 Int)
 (x!1 Int)
 (x!2 Int)
 (x!3 Bool)
 (x!4 Int)
 (x!5 Bool)) Bool
  (let ((a!1 (or (>= (+ x!1 (* (- 1) x!2)) 0) x!3))
        (a!2 (or (<= (+ x!0 (* (- 1) x!1)) 0) (not x!3))))
    (and a!1 (not x!5) a!2 (<= (+ x!1 (* (- 1) x!4)) 0))))
(define-fun Sofar_step ((x!0 Bool)
 (x!1 Bool)
 (x!2 Bool)
 (x!3 Bool)
 (x!4 Bool)
 (x!5 Bool)) Bool
  (and (or (not x!4) x!1) (not x!5) (or (not x!1) x!0) (or x!2 x!3 (not x!1))))
(define-fun firefly_reset ((x!0 Int)
 (x!1 Int)
 (x!2 Int)
 (x!3 Int)
 (x!4 Int)
 (x!5 Int)
 (x!6 Bool)
 (x!7 Int)
 (x!8 Int)
 (x!9 Int)
 (x!10 Int)
 (x!11 Int)
 (x!12 Int)
 (x!13 Bool)) Bool
  x!13)
(define-fun Sofar_reset ((x!0 Bool) (x!1 Bool) (x!2 Bool) (x!3 Bool)) Bool
  true)
(define-fun MAIN ((x!0 Int)
 (x!1 Int)
 (x!2 Int)
 (x!3 Int)
 (x!4 Int)
 (x!5 Int)
 (x!6 Bool)
 (x!7 Bool)
 (x!8 Bool)
 (x!9 Int)
 (x!10 Bool)
 (x!11 Bool)) Bool
  (let ((a!1 (not (>= (+ x!1 x!2 x!3 x!4 (* (- 1) x!9)) 0)))
        (a!2 (or (<= (+ x!0 x!1 x!3 x!4 (* (- 1) x!9)) 0) (not x!7))))
    (and (or (<= x!0 0) (not x!7) a!1)
         x!11
         (not x!6)
         (not x!8)
         (not x!10)
         (>= x!1 0)
         a!2)))
(define-fun firefly_step ((x!0 Bool)
 (x!1 Bool)
 (x!2 Bool)
 (x!3 Bool)
 (x!4 Bool)
 (x!5 Bool)
 (x!6 Bool)
 (x!7 Bool)
 (x!8 Int)
 (x!9 Int)
 (x!10 Int)
 (x!11 Int)
 (x!12 Int)
 (x!13 Int)
 (x!14 Int)
 (x!15 Int)
 (x!16 Int)
 (x!17 Int)
 (x!18 Int)
 (x!19 Bool)
 (x!20 Int)
 (x!21 Int)
 (x!22 Int)
 (x!23 Int)
 (x!24 Int)
 (x!25 Int)
 (x!26 Bool)) Bool
  (let ((a!1 (or (>= (+ x!8
                        (* (- 1) x!10)
                        (* (- 1) x!11)
                        (* (- 1) x!12)
                        (* (- 1) x!9))
                     0)
                 (not x!19)))
        (a!2 (not (<= (+ x!8 (* (- 1) x!21) (* (- 1) x!23) (* (- 1) x!24))
                      (- 2))))
        (a!3 (or (>= (+ x!13
                        x!14
                        x!16
                        x!17
                        (* (- 1) x!10)
                        (* (- 1) x!11)
                        (* (- 1) x!12)
                        (* (- 1) x!9))
                     0)
                 x!5
                 x!3
                 x!0
                 x!19
                 (not (<= x!13 0))))
        (a!4 (<= (+ x!10
                    x!11
                    x!12
                    x!9
                    (* (- 1) x!13)
                    (* (- 1) x!14)
                    (* (- 1) x!16)
                    (* (- 1) x!17))
                 0))
        (a!5 (not (<= (+ x!10
                         x!11
                         x!12
                         x!9
                         (* (- 1) x!21)
                         (* (- 1) x!22)
                         (* (- 1) x!23)
                         (* (- 1) x!24))
                      0)))
        (a!6 (or (<= (+ x!20 x!21) 0)
                 x!6
                 x!1
                 (not (<= x!13 0))
                 (>= (+ x!10
                        x!11
                        x!12
                        x!21
                        x!9
                        (* (- 1) x!20)
                        (* (- 1) x!23)
                        (* (- 1) x!24))
                     0)))
        (a!7 (not (>= (+ x!10
                         x!11
                         x!12
                         x!9
                         (* (- 1) x!14)
                         (* (- 1) x!15)
                         (* (- 1) x!16)
                         (* (- 1) x!17))
                      2))))
  (let ((a!8 (or (<= (+ x!10
                        x!11
                        x!12
                        x!14
                        x!9
                        (* (- 1) x!13)
                        (* (- 1) x!16)
                        (* (- 1) x!17))
                     0)
                 (not x!2)
                 x!5
                 x!3
                 x!0
                 x!19
                 a!4)))
    (and (or (not (>= x!14 0)) (>= x!21 0))
         (not x!26)
         a!1
         (or (<= x!20 0) (not x!19))
         (or a!2 (not x!19))
         a!3
         (or a!4 x!6 x!7 x!2 x!0 x!19 (not (<= x!13 0)))
         (or a!4 x!6 x!5 x!3 x!1 x!7 x!19 (not (<= x!13 0)))
         (>= (+ x!10
                x!11
                x!12
                x!9
                (* (- 1) x!20)
                (* (- 1) x!21)
                (* (- 1) x!23)
                (* (- 1) x!24))
             0)
         (or (not (<= x!13 0)) x!6 x!1 (not (= x!20 1)))
         (or (<= x!20 0) a!5)
         (or (>= x!21 0) (not x!19))
         a!6
         (or a!4 x!6 x!5 x!3 x!1 x!4 x!2 x!0 x!19)
         (or a!7 x!6 x!1 x!7 x!2 x!0 x!19 a!4)
         a!8
         (or a!4 x!5 x!3 x!7 x!4 x!2 x!0 x!19)
         (or a!7 x!6 x!5 x!3 x!1 x!7 x!2 x!19 a!4)))))
(define-fun top_step ((x!0 Bool)
 (x!1 Bool)
 (x!2 Bool)
 (x!3 Bool)
 (x!4 Bool)
 (x!5 Bool)
 (x!6 Bool)
 (x!7 Bool)
 (x!8 Int)
 (x!9 Bool)
 (x!10 Int)
 (x!11 Int)
 (x!12 Int)
 (x!13 Int)
 (x!14 Int)
 (x!15 Int)
 (x!16 Bool)
 (x!17 Bool)
 (x!18 Bool)
 (x!19 Int)
 (x!20 Bool)
 (x!21 Int)
 (x!22 Int)
 (x!23 Int)
 (x!24 Int)
 (x!25 Int)
 (x!26 Int)
 (x!27 Bool)
 (x!28 Bool)
 (x!29 Bool)
 (x!30 Int)
 (x!31 Bool)) Bool
  (let ((a!1 (not (<= (+ x!10 x!13 x!14 (* (- 1) x!11) (* (- 1) x!19)) 0)))
        (a!2 (not (>= (+ x!22 x!23 x!24 x!25 (* (- 1) x!30)) 0)))
        (a!3 (not (<= (+ x!10 x!11 x!13 x!14 (* (- 1) x!19)) 0)))
        (a!4 (>= (+ x!11 x!12 x!13 x!14 (* (- 1) x!19)) 0))
        (a!5 (>= (+ x!30
                    (* (- 1) x!21)
                    (* (- 1) x!22)
                    (* (- 1) x!24)
                    (* (- 1) x!25))
                 0)))
  (let ((a!6 (or a!3
                 (not x!28)
                 x!20
                 x!16
                 (<= (+ x!21 x!22 x!24 x!25 (* (- 1) x!30)) 0)
                 (not (<= x!10 0)))))
    (and (or a!1 (not x!28) x!20 a!2 (<= x!21 0) a!3 a!4)
         (not x!31)
         (not x!29)
         (not x!27)
         (or (not x!20) (not x!16) x!9)
         (or (<= x!21 0) (not x!16))
         (or a!5 (not x!16) (not x!20))
         (or a!3 x!20 x!9 x!16 (not (<= x!10 0)))
         a!6
         (or a!3 (not x!28) x!20 a!2 (<= x!21 0) (not (<= x!10 0)))
         (or (>= x!22 0) (not x!16))
         (or x!18 x!17 x!9)
         (or a!1 x!9 x!20 x!16 a!3 a!4)
         (or a!1 x!20 x!16 (not x!28) a!5 a!3 a!4)
         (or (not x!28) x!17 x!18)
         (or (not (>= x!11 0)) (>= x!22 0))))))
(define-fun top_reset ((x!0 Int)
 (x!1 Int)
 (x!2 Int)
 (x!3 Int)
 (x!4 Int)
 (x!5 Int)
 (x!6 Bool)
 (x!7 Bool)
 (x!8 Bool)
 (x!9 Int)
 (x!10 Bool)
 (x!11 Int)
 (x!12 Int)
 (x!13 Int)
 (x!14 Int)
 (x!15 Int)
 (x!16 Int)
 (x!17 Bool)
 (x!18 Bool)
 (x!19 Bool)
 (x!20 Int)
 (x!21 Bool)) Bool
  (and x!21 x!17))
(define-fun excludes8_fun ((x!0 Bool)
 (x!1 Bool)
 (x!2 Bool)
 (x!3 Bool)
 (x!4 Bool)
 (x!5 Bool)
 (x!6 Bool)
 (x!7 Bool)
 (x!8 Bool)) Bool
  (and (or (not x!8) (not x!6) (not x!7))
       (or (not x!8) (not x!5) (not x!7))
       (or (not x!8) (not x!3) (not x!7))
       (or (not x!8) (not x!2) (not x!3))
       (or (not x!8) (not x!3) (not x!6))
       (or (not x!8) (not x!0) (not x!3))
       (or (not x!8) (not x!0) (not x!7))
       (or (not x!8) (not x!0) (not x!5))
       (or (not x!8) (not x!5) (not x!6))
       (or (not x!8) (not x!0) (not x!6))
       (or (not x!8) (not x!0) (not x!1))
       (or (not x!8) (not x!2) (not x!5))
       (or (not x!8) (not x!1) (not x!5))
       (or (not x!8) (not x!1) (not x!7))
       (or (not x!8) (not x!1) (not x!4))
       (or (not x!8) (not x!4) (not x!7))
       (or (not x!8) (not x!1) (not x!3))
       (or (not x!8) (not x!0) (not x!2))
       (or (not x!8) (not x!4) (not x!6))))
BRUNCH_STAT max_query_lvl 7
BRUNCH_STAT num_queries 104
BRUNCH_STAT num_reach_queries 1
BRUNCH_STAT num_reach_reuse 138
BRUNCH_STAT inductive_lvl 3
BRUNCH_STAT max_depth 7
BRUNCH_STAT cex_depth 0
(:SPACER-expand-node-undef             4
 :SPACER-inductive-level               3
 :SPACER-max-depth                     7
 :SPACER-max-query-lvl                 7
 :SPACER-num-invariants                87
 :SPACER-num-lemmas                    112
 :SPACER-num-properties                78
 :SPACER-num-queries                   104
 :SPACER-num-reach-queries             1
 :SPACER-num-reuse-reach-facts         138
 :added-eqs                            29452
 :arith-add-rows                       22226
 :arith-assert-diseq                   7388
 :arith-assert-lower                   18903
 :arith-assert-upper                   18204
 :arith-bound-prop                     1160
 :arith-conflicts                      231
 :arith-eq-adapter                     7289
 :arith-fixed-eqs                      4989
 :arith-gcd-tests                      11
 :arith-ineq-splits                    1
 :arith-offset-eqs                     2922
 :arith-pivots                         2513
 :bool-inductive-gen                   94
 :bool-inductive-gen-failures          325
 :conflicts                            1428
 :decisions                            26274
 :del-clause                           1538
 :final-checks                         510
 :minimized-lits                       1319
 :mk-bool-var                          15563
 :mk-clause                            8077
 :num-checks                           1028
 :propagations                         259297
 :time.itp_solver.itp_core             0.04
 :time.spacer.init_rules               0.01
 :time.spacer.init_rules.pt.init       0.00
 :time.spacer.solve                    0.69
 :time.spacer.solve.propagate          0.02
 :time.spacer.solve.pt.must_reachable  0.03
 :time.spacer.solve.reach              0.67
 :time.spacer.solve.reach.children     0.12
 :time.spacer.solve.reach.gen.bool_ind 0.18
 :time.virtual_solver.proof            0.02
 :time.virtual_solver.smt.total        0.46
 :time.virtual_solver.smt.total.sat    0.28
 :time.virtual_solver.smt.total.undef  0.00
 :virtual_solver.checks                1028
 :virtual_solver.checks.sat            504
 :virtual_solver.checks.undef          5)
BRUNCH_STAT max_query_lvl 7
BRUNCH_STAT num_queries 104
BRUNCH_STAT num_reach_queries 1
BRUNCH_STAT num_reach_reuse 138
BRUNCH_STAT inductive_lvl 3
BRUNCH_STAT max_depth 7
BRUNCH_STAT cex_depth 0

real	0m0.783s
user	0m0.764s
sys	0m0.016s
