(transform N7datalog13mk_coi_filterE...no-op 0s)
(transform N7datalog25mk_interp_tail_simplifierE...12 rules 0s)
(transform N7datalog27mk_quantifier_instantiationE...no-op 0s)
(transform N7datalog8mk_scaleE...no-op 0s)
(transform N7datalog18mk_karr_invariantsE...no-op 0s)
(transform N7datalog14mk_array_blastE...no-op 0s)
(transform N7datalog22mk_subsumption_checkerE...11 rules 0s)
(transform N7datalog12mk_bit_blastE...no-op 0s)
(transform N7datalog15mk_rule_inlinerE...no-op 0s)
(transform N7datalog13mk_coi_filterE...no-op 0s)
(transform N7datalog25mk_interp_tail_simplifierE...11 rules 0s)
(transform N7datalog22mk_subsumption_checkerE...no-op 0s)
(transform N7datalog15mk_rule_inlinerE...no-op 0s)
(transform N7datalog13mk_coi_filterE...no-op 0s)
(transform N7datalog25mk_interp_tail_simplifierE...11 rules 0s)
(transform N7datalog22mk_subsumption_checkerE...no-op 0s)
(transform N7datalog15mk_rule_inlinerE...no-op 0s)
(transform N7datalog22mk_subsumption_checkerE...no-op 0s)
(transform N7datalog15mk_rule_inlinerE...no-op 0s)
(transform N7datalog22mk_subsumption_checkerE...no-op 0s)
(transform N7datalog15mk_rule_inlinerE...no-op 0s)
(transform N7datalog22mk_subsumption_checkerE...no-op 0s)
expand: query!0 (0, 0) FAR  w(0) 1. F 0.00
(spacer::context::check_reachability :time 0.00 :before-memory 11.60 :after-memory 11.98)
Entering level 1
BRUNCH_STAT max_query_lvl 0
BRUNCH_STAT num_queries 0
BRUNCH_STAT num_reach_queries 0
BRUNCH_STAT num_reach_reuse 0
BRUNCH_STAT inductive_lvl 0
BRUNCH_STAT max_depth 1
BRUNCH_STAT cex_depth 0
expand: query!0 (1, 0) FAR  w(0) 1.
	create_child: ERR (0, 1) FAR 1 U 0.00
expand: ERR (0, 0) FAR  w(0) 1. F 0.00
expand: query!0 (1, 0) FAR  w(0) 1. F 0.00
(spacer::context::check_reachability :time 0.00 :before-memory 11.98 :after-memory 12.42)
Propagating: 0 1  ! 2 
(spacer::context::propagate :time 0.00 :before-memory 12.42 :after-memory 12.42)
Entering level 2
BRUNCH_STAT max_query_lvl 1
BRUNCH_STAT num_queries 1
BRUNCH_STAT num_reach_queries 0
BRUNCH_STAT num_reach_reuse 0
BRUNCH_STAT inductive_lvl 0
BRUNCH_STAT max_depth 2
BRUNCH_STAT cex_depth 0
expand: query!0 (2, 0) FAR  w(0) 1.
	create_child: ERR (1, 2) FAR 1 U 0.00
expand: ERR (1, 0) FAR  w(0) 1.
	create_child: MAIN (0, 2) FAR 2138 U 0.00
expand: MAIN (0, 0) FAR  w(0) 2138. F 0.00
expand: ERR (1, 0) FAR  w(0) 1. F 0.00
expand: query!0 (2, 0) FAR  w(0) 1. F 0.00
(spacer::context::check_reachability :time 0.00 :before-memory 12.42 :after-memory 12.89)
Propagating: 0 1 2  ! 3 
(spacer::context::propagate :time 0.00 :before-memory 12.89 :after-memory 12.89)
Entering level 3
BRUNCH_STAT max_query_lvl 2
BRUNCH_STAT num_queries 3
BRUNCH_STAT num_reach_queries 0
BRUNCH_STAT num_reach_reuse 0
BRUNCH_STAT inductive_lvl 0
BRUNCH_STAT max_depth 3
BRUNCH_STAT cex_depth 0
expand: query!0 (3, 0) FAR  w(0) 1.
	create_child: ERR (2, 3) FAR 1 U 0.00
expand: ERR (2, 0) FAR  w(0) 1.
	create_child: MAIN (1, 3) FAR 2138 U 0.00
expand: MAIN (1, 0) FAR  w(0) 2138.
	create_child: top_step (0, 3) FAR 2843 U 0.00
expand: top_step (0, 0) FAR  w(0) 2843. F 0.00
expand: MAIN (1, 0) FAR  w(0) 2138. F 0.00
expand: ERR (2, 0) FAR  w(0) 1. F 0.00
expand: query!0 (3, 0) FAR  w(0) 1. F 0.00
(spacer::context::check_reachability :time 0.01 :before-memory 12.89 :after-memory 13.92)
Propagating: 0 1 2 3  ! 4 
(spacer::context::propagate :time 0.00 :before-memory 13.92 :after-memory 14.02)
Entering level 4
BRUNCH_STAT max_query_lvl 3
BRUNCH_STAT num_queries 6
BRUNCH_STAT num_reach_queries 0
BRUNCH_STAT num_reach_reuse 0
BRUNCH_STAT inductive_lvl 0
BRUNCH_STAT max_depth 4
BRUNCH_STAT cex_depth 0
expand: query!0 (4, 0) FAR  w(0) 1.
	create_child: ERR (3, 4) FAR 1 U 0.00
expand: ERR (3, 0) FAR  w(0) 1.
	create_child: MAIN (2, 4) FAR 2138 U 0.00
expand: MAIN (2, 0) FAR  w(0) 2138.
	create_child: top_step (1, 4) FAR 2843 U 0.00
expand: top_step (1, 0) FAR  w(0) 2843.
	create_child: top_reset (1, 4) FAR 8087 X 0.01
expand: top_reset (1, 0) FAR  w(0) 8087.
	create_child: firefly_reset (0, 4) FAR 8582 U 0.00
expand: firefly_reset (0, 0) FAR  w(0) 8582. F 0.00
expand: top_reset (1, 0) FAR  w(0) 8087. F 0.00
expand: MAIN (2, 0) FAR  w(0) 2138.
	create_child: top_step (1, 4) FAR 11284 U 0.00
expand: top_step (1, 0) FAR  w(0) 11284.
	create_child: firefly_step (0, 4) FAR 11387 U 0.00
expand: firefly_step (0, 0) FAR  w(0) 11387. F 0.00
expand: top_step (1, 0) FAR  w(0) 11284. F 0.00
expand: MAIN (2, 0) FAR  w(0) 2138. F 0.00
expand: ERR (3, 0) FAR  w(0) 1. F 0.00
expand: query!0 (4, 0) FAR  w(0) 1. F 0.00
(spacer::context::check_reachability :time 0.03 :before-memory 14.02 :after-memory 18.22)
Propagating: 0 1 2 3 4  ! 5 
(spacer::context::propagate :time 0.00 :before-memory 18.22 :after-memory 18.22)
Entering level 5
BRUNCH_STAT max_query_lvl 4
BRUNCH_STAT num_queries 12
BRUNCH_STAT num_reach_queries 1
BRUNCH_STAT num_reach_reuse 5
BRUNCH_STAT inductive_lvl 0
BRUNCH_STAT max_depth 5
BRUNCH_STAT cex_depth 0
expand: query!0 (5, 0) FAR  w(0) 1.
	create_child: ERR (4, 5) FAR 1 U 0.00
expand: ERR (4, 0) FAR  w(0) 1.
	create_child: MAIN (3, 5) FAR 2138 U 0.00
expand: MAIN (3, 0) FAR  w(0) 2138.
	create_child: MAIN (2, 5) FAR 13934 U 0.00
expand: MAIN (2, 0) FAR  w(0) 13934.
	create_child: top_step (1, 5) FAR 13786 U 0.00
expand: top_step (1, 0) FAR  w(0) 13786.
	create_child: Sofar_step (0, 5) FAR 13906 U 0.00
expand: Sofar_step (0, 0) FAR  w(0) 13906.
	create_child: firefly_step (0, 5) FAR 14132 X 0.00
expand: firefly_step (0, 0) FAR  w(0) 14132. F 0.00
expand: top_step (1, 0) FAR  w(0) 13786. F 0.00
expand: MAIN (2, 0) FAR  w(0) 13934. F 0.00
expand: MAIN (3, 0) FAR  w(0) 2138.
	create_child: top_step (2, 5) FAR 14424 U 0.00
expand: top_step (2, 0) FAR  w(0) 14424.
	create_child: firefly_step (1, 5) FAR 14823 U 0.00
expand: firefly_step (1, 0) FAR  w(0) 14823. F 0.00
expand: top_step (2, 0) FAR  w(0) 14424.
	create_child: firefly_step (1, 5) FAR 14987 U 0.00
expand: firefly_step (1, 0) FAR  w(0) 14987. F 0.00
expand: top_step (2, 0) FAR  w(0) 14424.
	create_child: firefly_step (1, 5) FAR 15055 U 0.00
expand: firefly_step (1, 0) FAR  w(0) 15055. F 0.00
expand: top_step (2, 0) FAR  w(0) 14424. F 0.00
expand: MAIN (3, 0) FAR  w(0) 2138. F 0.00
expand: ERR (4, 0) FAR  w(0) 1. F 0.00
expand: query!0 (5, 0) FAR  w(0) 1. F 0.00
(spacer::context::check_reachability :time 0.03 :before-memory 18.22 :after-memory 19.66)
Propagating: 0 1 2 3 4 5  ! 6 
(spacer::context::propagate :time 0.00 :before-memory 19.66 :after-memory 19.66)
Entering level 6
BRUNCH_STAT max_query_lvl 5
BRUNCH_STAT num_queries 21
BRUNCH_STAT num_reach_queries 1
BRUNCH_STAT num_reach_reuse 13
BRUNCH_STAT inductive_lvl 0
BRUNCH_STAT max_depth 6
BRUNCH_STAT cex_depth 0
expand: query!0 (6, 0) FAR  w(0) 1.
	create_child: ERR (5, 6) FAR 1 U 0.00
expand: ERR (5, 0) FAR  w(0) 1.
	create_child: MAIN (4, 6) FAR 2138 U 0.00
expand: MAIN (4, 0) FAR  w(0) 2138.
	create_child: MAIN (3, 6) FAR 15578 U 0.00
expand: MAIN (3, 0) FAR  w(0) 15578.
	create_child: top_step (2, 6) FAR 15439 U 0.00
expand: top_step (2, 0) FAR  w(0) 15439. F 0.00
expand: MAIN (3, 0) FAR  w(0) 15578. F 0.00
expand: MAIN (4, 0) FAR  w(0) 2138.
	create_child: MAIN (3, 6) FAR 15827 U 0.00
expand: MAIN (3, 0) FAR  w(0) 15827.
	create_child: top_step (2, 6) FAR 15742 U 0.00
expand: top_step (2, 0) FAR  w(0) 15742. F 0.00
expand: MAIN (3, 0) FAR  w(0) 15827. F 0.00
expand: MAIN (4, 0) FAR  w(0) 2138. F 0.00
expand: ERR (5, 0) FAR  w(0) 1. F 0.00
expand: query!0 (6, 0) FAR  w(0) 1. F 0.00
(spacer::context::check_reachability :time 0.01 :before-memory 19.66 :after-memory 19.68)
Propagating: 2 
(spacer::context::propagate :time 0.00 :before-memory 19.68 :after-memory 19.68)
(define-fun ERR () Bool
  false)
(define-fun top_reset ((x!0 Int)
 (x!1 Int)
 (x!2 Int)
 (x!3 Int)
 (x!4 Int)
 (x!5 Int)
 (x!6 Bool)
 (x!7 Bool)
 (x!8 Bool)
 (x!9 Int)
 (x!10 Int)
 (x!11 Int)
 (x!12 Int)
 (x!13 Int)
 (x!14 Int)
 (x!15 Bool)
 (x!16 Bool)
 (x!17 Bool)) Bool
  x!15)
(define-fun top_step ((x!0 Bool)
 (x!1 Bool)
 (x!2 Bool)
 (x!3 Bool)
 (x!4 Bool)
 (x!5 Bool)
 (x!6 Bool)
 (x!7 Bool)
 (x!8 Int)
 (x!9 Bool)
 (x!10 Int)
 (x!11 Int)
 (x!12 Int)
 (x!13 Int)
 (x!14 Int)
 (x!15 Int)
 (x!16 Bool)
 (x!17 Bool)
 (x!18 Bool)
 (x!19 Int)
 (x!20 Int)
 (x!21 Int)
 (x!22 Int)
 (x!23 Int)
 (x!24 Int)
 (x!25 Bool)
 (x!26 Bool)
 (x!27 Bool)) Bool
  (and (or (not (>= x!13 0)) (>= x!22 0))
       (or x!9 (not x!16))
       (or (>= x!22 0) (not x!16))
       (or (not (>= x!13 0)) x!9)))
(define-fun firefly_reset ((x!0 Int)
 (x!1 Int)
 (x!2 Int)
 (x!3 Int)
 (x!4 Int)
 (x!5 Int)
 (x!6 Bool)
 (x!7 Int)
 (x!8 Int)
 (x!9 Int)
 (x!10 Int)
 (x!11 Int)
 (x!12 Int)
 (x!13 Bool)) Bool
  x!13)
(define-fun Sofar_reset ((x!0 Bool) (x!1 Bool) (x!2 Bool) (x!3 Bool)) Bool
  true)
(define-fun MAIN ((x!0 Int)
 (x!1 Int)
 (x!2 Int)
 (x!3 Int)
 (x!4 Int)
 (x!5 Int)
 (x!6 Bool)
 (x!7 Bool)
 (x!8 Bool)
 (x!9 Bool)) Bool
  (and (>= x!3 0) x!9))
(define-fun Sofar_step ((x!0 Bool)
 (x!1 Bool)
 (x!2 Bool)
 (x!3 Bool)
 (x!4 Bool)
 (x!5 Bool)) Bool
  true)
(define-fun firefly_step ((x!0 Bool)
 (x!1 Bool)
 (x!2 Bool)
 (x!3 Bool)
 (x!4 Bool)
 (x!5 Bool)
 (x!6 Bool)
 (x!7 Bool)
 (x!8 Int)
 (x!9 Int)
 (x!10 Int)
 (x!11 Int)
 (x!12 Int)
 (x!13 Int)
 (x!14 Int)
 (x!15 Int)
 (x!16 Int)
 (x!17 Int)
 (x!18 Int)
 (x!19 Bool)
 (x!20 Int)
 (x!21 Int)
 (x!22 Int)
 (x!23 Int)
 (x!24 Int)
 (x!25 Int)
 (x!26 Bool)) Bool
  (let ((a!1 (or (>= x!10 0) (>= (+ x!10 (* (- 1) x!16)) 0)))
        (a!2 (or (>= (+ x!10 (* (- 1) x!16)) 0) x!6 x!1 (= x!10 0)))
        (a!3 (or (>= x!10 0) (not x!1) (= (+ x!10 (* (- 1) x!16)) 0))))
    (and a!1 (or (not x!19) (= x!10 0)) (>= (+ x!23 (* (- 1) x!10)) 0) a!2 a!3)))
(define-fun excludes8_fun ((x!0 Bool)
 (x!1 Bool)
 (x!2 Bool)
 (x!3 Bool)
 (x!4 Bool)
 (x!5 Bool)
 (x!6 Bool)
 (x!7 Bool)
 (x!8 Bool)) Bool
  true)
BRUNCH_STAT max_query_lvl 6
BRUNCH_STAT num_queries 27
BRUNCH_STAT num_reach_queries 1
BRUNCH_STAT num_reach_reuse 15
BRUNCH_STAT inductive_lvl 2
BRUNCH_STAT max_depth 6
BRUNCH_STAT cex_depth 0
(:SPACER-inductive-level               2
 :SPACER-max-depth                     6
 :SPACER-max-query-lvl                 6
 :SPACER-num-invariants                17
 :SPACER-num-lemmas                    34
 :SPACER-num-properties                17
 :SPACER-num-queries                   27
 :SPACER-num-reach-queries             1
 :SPACER-num-reuse-reach-facts         15
 :added-eqs                            2272
 :arith-add-rows                       535
 :arith-assert-diseq                   488
 :arith-assert-lower                   919
 :arith-assert-upper                   1158
 :arith-bound-prop                     150
 :arith-conflicts                      10
 :arith-eq-adapter                     514
 :arith-fixed-eqs                      292
 :arith-offset-eqs                     170
 :arith-pivots                         305
 :bool-inductive-gen                   18
 :bool-inductive-gen-failures          30
 :conflicts                            214
 :decisions                            2798
 :del-clause                           470
 :final-checks                         72
 :minimized-lits                       12
 :mk-bool-var                          3246
 :mk-clause                            4256
 :num-checks                           194
 :propagations                         23746
 :time.itp_solver.itp_core             0.01
 :time.spacer.init_rules               0.01
 :time.spacer.init_rules.pt.init       0.00
 :time.spacer.solve                    0.08
 :time.spacer.solve.propagate          0.00
 :time.spacer.solve.pt.must_reachable  0.00
 :time.spacer.solve.reach              0.08
 :time.spacer.solve.reach.children     0.01
 :time.spacer.solve.reach.gen.bool_ind 0.01
 :time.virtual_solver.proof            0.00
 :time.virtual_solver.smt.total        0.05
 :time.virtual_solver.smt.total.sat    0.03
 :virtual_solver.checks                194
 :virtual_solver.checks.sat            72)
BRUNCH_STAT max_query_lvl 6
BRUNCH_STAT num_queries 27
BRUNCH_STAT num_reach_queries 1
BRUNCH_STAT num_reach_reuse 15
BRUNCH_STAT inductive_lvl 2
BRUNCH_STAT max_depth 6
BRUNCH_STAT cex_depth 0

real	0m0.126s
user	0m0.096s
sys	0m0.028s
