(transform N7datalog13mk_coi_filterE...no-op 0s)
(transform N7datalog25mk_interp_tail_simplifierE...12 rules 0s)
(transform N7datalog27mk_quantifier_instantiationE...no-op 0s)
(transform N7datalog8mk_scaleE...no-op 0s)
(transform N7datalog18mk_karr_invariantsE...no-op 0s)
(transform N7datalog14mk_array_blastE...no-op 0s)
(transform N7datalog22mk_subsumption_checkerE...11 rules 0s)
(transform N7datalog12mk_bit_blastE...no-op 0s)
(transform N7datalog15mk_rule_inlinerE...no-op 0s)
(transform N7datalog13mk_coi_filterE...no-op 0s)
(transform N7datalog25mk_interp_tail_simplifierE...11 rules 0s)
(transform N7datalog22mk_subsumption_checkerE...no-op 0s)
(transform N7datalog15mk_rule_inlinerE...no-op 0s)
(transform N7datalog13mk_coi_filterE...no-op 0s)
(transform N7datalog25mk_interp_tail_simplifierE...11 rules 0s)
(transform N7datalog22mk_subsumption_checkerE...no-op 0s)
(transform N7datalog15mk_rule_inlinerE...no-op 0s)
(transform N7datalog22mk_subsumption_checkerE...no-op 0s)
(transform N7datalog15mk_rule_inlinerE...no-op 0s)
(transform N7datalog22mk_subsumption_checkerE...no-op 0s)
(transform N7datalog15mk_rule_inlinerE...no-op 0s)
(transform N7datalog22mk_subsumption_checkerE...no-op 0s)
expand: query!0 (0, 0) FAR  w(0) 1. F 0.00
(spacer::context::check_reachability :time 0.00 :before-memory 11.59 :after-memory 11.98)
Entering level 1
BRUNCH_STAT max_query_lvl 0
BRUNCH_STAT num_queries 0
BRUNCH_STAT num_reach_queries 0
BRUNCH_STAT num_reach_reuse 0
BRUNCH_STAT inductive_lvl 0
BRUNCH_STAT max_depth 1
BRUNCH_STAT cex_depth 0
expand: query!0 (1, 0) FAR  w(0) 1.
	create_child: ERR (0, 1) FAR 1 U 0.00
expand: ERR (0, 0) FAR  w(0) 1. F 0.00
expand: query!0 (1, 0) FAR  w(0) 1. F 0.00
(spacer::context::check_reachability :time 0.00 :before-memory 11.98 :after-memory 12.42)
Propagating: 0 1  ! 2 
(spacer::context::propagate :time 0.00 :before-memory 12.42 :after-memory 12.42)
Entering level 2
BRUNCH_STAT max_query_lvl 1
BRUNCH_STAT num_queries 1
BRUNCH_STAT num_reach_queries 0
BRUNCH_STAT num_reach_reuse 0
BRUNCH_STAT inductive_lvl 0
BRUNCH_STAT max_depth 2
BRUNCH_STAT cex_depth 0
expand: query!0 (2, 0) FAR  w(0) 1.
	create_child: ERR (1, 2) FAR 1 U 0.00
expand: ERR (1, 0) FAR  w(0) 1.
	create_child: MAIN (0, 2) FAR 2183 U 0.00
expand: MAIN (0, 0) FAR  w(0) 2183. F 0.00
expand: ERR (1, 0) FAR  w(0) 1. F 0.00
expand: query!0 (2, 0) FAR  w(0) 1. F 0.00
(spacer::context::check_reachability :time 0.00 :before-memory 12.42 :after-memory 12.89)
Propagating: 0 1 2  ! 3 
(spacer::context::propagate :time 0.00 :before-memory 12.89 :after-memory 12.89)
Entering level 3
BRUNCH_STAT max_query_lvl 2
BRUNCH_STAT num_queries 3
BRUNCH_STAT num_reach_queries 0
BRUNCH_STAT num_reach_reuse 0
BRUNCH_STAT inductive_lvl 0
BRUNCH_STAT max_depth 3
BRUNCH_STAT cex_depth 0
expand: query!0 (3, 0) FAR  w(0) 1.
	create_child: ERR (2, 3) FAR 1 U 0.00
expand: ERR (2, 0) FAR  w(0) 1.
	create_child: MAIN (1, 3) FAR 2183 U 0.00
expand: MAIN (1, 0) FAR  w(0) 2183.
	create_child: top_step (0, 3) FAR 2890 U 0.00
expand: top_step (0, 0) FAR  w(0) 2890. F 0.00
expand: MAIN (1, 0) FAR  w(0) 2183. F 0.00
expand: ERR (2, 0) FAR  w(0) 1. F 0.00
expand: query!0 (3, 0) FAR  w(0) 1. F 0.00
(spacer::context::check_reachability :time 0.01 :before-memory 12.89 :after-memory 13.91)
Propagating: 0 1 2 3  ! 4 
(spacer::context::propagate :time 0.00 :before-memory 13.91 :after-memory 14.02)
Entering level 4
BRUNCH_STAT max_query_lvl 3
BRUNCH_STAT num_queries 6
BRUNCH_STAT num_reach_queries 0
BRUNCH_STAT num_reach_reuse 0
BRUNCH_STAT inductive_lvl 0
BRUNCH_STAT max_depth 4
BRUNCH_STAT cex_depth 0
expand: query!0 (4, 0) FAR  w(0) 1.
	create_child: ERR (3, 4) FAR 1 U 0.00
expand: ERR (3, 0) FAR  w(0) 1.
	create_child: MAIN (2, 4) FAR 2183 U 0.00
expand: MAIN (2, 0) FAR  w(0) 2183.
	create_child: top_step (1, 4) FAR 2890 U 0.00
expand: top_step (1, 0) FAR  w(0) 2890.
	create_child: top_reset (1, 4) FAR 8161 X 0.01
expand: top_reset (1, 0) FAR  w(0) 8161.
	create_child: firefly_reset (0, 4) FAR 8619 U 0.00
expand: firefly_reset (0, 0) FAR  w(0) 8619. F 0.00
expand: top_reset (1, 0) FAR  w(0) 8161. F 0.00
expand: MAIN (2, 0) FAR  w(0) 2183.
	create_child: top_step (1, 4) FAR 11406 U 0.00
expand: top_step (1, 0) FAR  w(0) 11406.
	create_child: firefly_step (0, 4) FAR 11563 U 0.00
expand: firefly_step (0, 0) FAR  w(0) 11563. F 0.00
expand: top_step (1, 0) FAR  w(0) 11406. F 0.00
expand: MAIN (2, 0) FAR  w(0) 2183. F 0.00
expand: ERR (3, 0) FAR  w(0) 1. F 0.00
expand: query!0 (4, 0) FAR  w(0) 1. F 0.00
(spacer::context::check_reachability :time 0.03 :before-memory 14.02 :after-memory 18.06)
Propagating: 0 1 2 3 4  ! 5 
(spacer::context::propagate :time 0.00 :before-memory 18.06 :after-memory 18.06)
Entering level 5
BRUNCH_STAT max_query_lvl 4
BRUNCH_STAT num_queries 12
BRUNCH_STAT num_reach_queries 1
BRUNCH_STAT num_reach_reuse 5
BRUNCH_STAT inductive_lvl 0
BRUNCH_STAT max_depth 5
BRUNCH_STAT cex_depth 0
expand: query!0 (5, 0) FAR  w(0) 1.
	create_child: ERR (4, 5) FAR 1 U 0.00
expand: ERR (4, 0) FAR  w(0) 1.
	create_child: MAIN (3, 5) FAR 2183 U 0.00
expand: MAIN (3, 0) FAR  w(0) 2183.
	create_child: MAIN (2, 5) FAR 14009 U 0.00
expand: MAIN (2, 0) FAR  w(0) 14009.
	create_child: top_step (1, 5) FAR 13937 U 0.00
expand: top_step (1, 0) FAR  w(0) 13937.
	create_child: firefly_step (0, 5) FAR 14146 U 0.00
expand: firefly_step (0, 0) FAR  w(0) 14146. F 0.00
expand: top_step (1, 0) FAR  w(0) 13937. F 0.00
expand: MAIN (2, 0) FAR  w(0) 14009. F 0.00
expand: MAIN (3, 0) FAR  w(0) 2183.
	create_child: top_step (2, 5) FAR 14575 U 0.00
expand: top_step (2, 0) FAR  w(0) 14575.
	create_child: firefly_step (1, 5) FAR 15210 U 0.00
expand: firefly_step (1, 0) FAR  w(0) 15210. F 0.00
expand: top_step (2, 0) FAR  w(0) 14575.
	create_child: firefly_step (1, 5) FAR 15378 U 0.00
expand: firefly_step (1, 0) FAR  w(0) 15378. F 0.00
expand: top_step (2, 0) FAR  w(0) 14575.
	create_child: firefly_step (1, 5) FAR 15561 U 0.00
expand: firefly_step (1, 0) FAR  w(0) 15561. F 0.00
expand: top_step (2, 0) FAR  w(0) 14575. F 0.00
expand: MAIN (3, 0) FAR  w(0) 2183. F 0.00
expand: ERR (4, 0) FAR  w(0) 1. F 0.00
expand: query!0 (5, 0) FAR  w(0) 1. F 0.00
(spacer::context::check_reachability :time 0.04 :before-memory 18.06 :after-memory 18.59)
Propagating: 0 1 2 3 4 5  ! 6 
(spacer::context::propagate :time 0.00 :before-memory 18.59 :after-memory 18.59)
Entering level 6
BRUNCH_STAT max_query_lvl 5
BRUNCH_STAT num_queries 21
BRUNCH_STAT num_reach_queries 1
BRUNCH_STAT num_reach_reuse 14
BRUNCH_STAT inductive_lvl 0
BRUNCH_STAT max_depth 6
BRUNCH_STAT cex_depth 0
expand: query!0 (6, 0) FAR  w(0) 1.
	create_child: ERR (5, 6) FAR 1 U 0.00
expand: ERR (5, 0) FAR  w(0) 1.
	create_child: MAIN (4, 6) FAR 2183 U 0.00
expand: MAIN (4, 0) FAR  w(0) 2183.
	create_child: MAIN (3, 6) FAR 16093 U 0.00
expand: MAIN (3, 0) FAR  w(0) 16093.
	create_child: top_step (2, 6) FAR 16059 U 0.00
expand: top_step (2, 0) FAR  w(0) 16059.
	create_child: firefly_step (1, 6) FAR 16178 U 0.00
expand: firefly_step (1, 0) FAR  w(0) 16178. F 0.00
expand: top_step (2, 0) FAR  w(0) 16059.
	create_child: firefly_step (1, 6) FAR 16264 U 0.00
expand: firefly_step (1, 0) FAR  w(0) 16264. F 0.00
expand: top_step (2, 0) FAR  w(0) 16059. F 0.00
expand: MAIN (3, 0) FAR  w(0) 16093. F 0.00
expand: MAIN (4, 0) FAR  w(0) 2183.
	create_child: MAIN (3, 6) FAR 14009 U 0.00
expand: MAIN (3, 0) FAR  w(0) 14009.
	create_child: MAIN (2, 6) FAR 16687 U 0.00
expand: MAIN (2, 0) FAR  w(0) 16687.
	create_child: top_step (1, 6) FAR 16606 U 0.00
expand: top_step (1, 0) FAR  w(0) 16606.
	create_child: firefly_step (0, 6) FAR 16717 U 0.00
expand: firefly_step (0, 0) FAR  w(0) 16717. F 0.00
expand: top_step (1, 0) FAR  w(0) 16606. F 0.00
expand: MAIN (2, 0) FAR  w(0) 16687. F 0.00
expand: MAIN (3, 0) FAR  w(0) 14009.
	create_child: top_step (2, 6) FAR 16942 U 0.00
expand: top_step (2, 0) FAR  w(0) 16942.
	create_child: excludes8_fun (1, 6) FAR 17436 U 0.00
expand: excludes8_fun (1, 0) FAR  w(0) 17436. F 0.00
expand: top_step (2, 0) FAR  w(0) 16942.
	create_child: excludes8_fun (1, 6) FAR 17761 U 0.00
expand: excludes8_fun (1, 0) FAR  w(0) 17761.
	create_child: firefly_step (1, 6) FAR 17814 X 0.00
expand: firefly_step (1, 0) FAR  w(0) 17814. F 0.00
expand: top_step (2, 0) FAR  w(0) 16942.
	create_child: excludes8_fun (1, 6) FAR 18037 U 0.00
expand: excludes8_fun (1, 0) FAR  w(0) 18037. F 0.00
expand: top_step (2, 0) FAR  w(0) 16942.
	create_child: excludes8_fun (1, 6) FAR 18061 U 0.00
expand: excludes8_fun (1, 0) FAR  w(0) 18061. F 0.00
expand: top_step (2, 0) FAR  w(0) 16942.
	create_child: excludes8_fun (1, 6) FAR 18114 U 0.00
expand: excludes8_fun (1, 0) FAR  w(0) 18114. F 0.00
expand: top_step (2, 0) FAR  w(0) 16942.
	create_child: excludes8_fun (1, 6) FAR 18177 U 0.00
expand: excludes8_fun (1, 0) FAR  w(0) 18177.
	create_child: Sofar_step (1, 6) FAR 18217 X 0.00
expand: Sofar_step (1, 0) FAR  w(0) 18217. F 0.00
expand: top_step (2, 0) FAR  w(0) 16942. F 0.01
expand: MAIN (3, 0) FAR  w(0) 14009. F 0.00
expand: MAIN (4, 0) FAR  w(0) 2183.
	create_child: MAIN (3, 6) FAR 18971 U 0.00
expand: MAIN (3, 0) FAR  w(0) 18971.
	create_child: top_step (2, 6) FAR 18826 U 0.00
expand: top_step (2, 0) FAR  w(0) 18826.
	create_child: Sofar_step (1, 6) FAR 19008 U 0.00
expand: Sofar_step (1, 0) FAR  w(0) 19008. F 0.00
expand: top_step (2, 0) FAR  w(0) 18826. F 0.00
expand: MAIN (3, 0) FAR  w(0) 18971. F 0.00
expand: MAIN (4, 0) FAR  w(0) 2183.
	create_child: MAIN (3, 6) FAR 19110 U 0.00
expand: MAIN (3, 0) FAR  w(0) 19110. F 0.00
expand: MAIN (4, 0) FAR  w(0) 2183.
	create_child: top_step (3, 6) FAR 19138 U 0.00
expand: top_step (3, 0) FAR  w(0) 19138.
	create_child: firefly_step (2, 6) FAR 19244 U 0.00
expand: firefly_step (2, 0) FAR  w(0) 19244. F 0.00
expand: top_step (3, 0) FAR  w(0) 19138.
	create_child: firefly_step (2, 6) FAR 19400 U 0.00
expand: firefly_step (2, 0) FAR  w(0) 19400. F 0.00
expand: top_step (3, 0) FAR  w(0) 19138. F 0.00
expand: MAIN (4, 0) FAR  w(0) 2183.
	create_child: top_step (3, 6) FAR 19589 U 0.00
expand: top_step (3, 0) FAR  w(0) 19589.
	create_child: Sofar_step (2, 6) FAR 19795 U 0.00
expand: Sofar_step (2, 0) FAR  w(0) 19795. F 0.00
expand: top_step (3, 0) FAR  w(0) 19589.
	create_child: Sofar_step (2, 6) FAR 19830 U 0.00
expand: Sofar_step (2, 0) FAR  w(0) 19830. F 0.00
expand: top_step (3, 0) FAR  w(0) 19589. F 0.00
expand: MAIN (4, 0) FAR  w(0) 2183. F 0.00
expand: ERR (5, 0) FAR  w(0) 1. F 0.00
expand: query!0 (6, 0) FAR  w(0) 1. F 0.00
(spacer::context::check_reachability :time 0.11 :before-memory 18.59 :after-memory 21.07)
Propagating: 0 1 2 3 4 5 6  ! 7 
(spacer::context::propagate :time 0.00 :before-memory 21.07 :after-memory 21.07)
Entering level 7
BRUNCH_STAT max_query_lvl 6
BRUNCH_STAT num_queries 48
BRUNCH_STAT num_reach_queries 1
BRUNCH_STAT num_reach_reuse 41
BRUNCH_STAT inductive_lvl 0
BRUNCH_STAT max_depth 7
BRUNCH_STAT cex_depth 0
expand: query!0 (7, 0) FAR  w(0) 1.
	create_child: ERR (6, 7) FAR 1 U 0.00
expand: ERR (6, 0) FAR  w(0) 1.
	create_child: MAIN (5, 7) FAR 2183 U 0.00
expand: MAIN (5, 0) FAR  w(0) 2183.
	create_child: MAIN (4, 7) FAR 14009 U 0.00
expand: MAIN (4, 0) FAR  w(0) 14009.
	create_child: MAIN (3, 7) FAR 16687 U 0.00
expand: MAIN (3, 0) FAR  w(0) 16687.
	create_child: top_step (2, 7) FAR 20268 U 0.00
expand: top_step (2, 0) FAR  w(0) 20268.
	create_child: Sofar_step (1, 7) FAR 20362 U 0.00
expand: Sofar_step (1, 0) FAR  w(0) 20362. F 0.00
expand: top_step (2, 0) FAR  w(0) 20268. F 0.00
expand: MAIN (3, 0) FAR  w(0) 16687.
	create_child: top_step (2, 7) FAR 20402 U 0.00
expand: top_step (2, 0) FAR  w(0) 20402.
	create_child: firefly_step (1, 7) FAR 20489 U 0.00
expand: firefly_step (1, 0) FAR  w(0) 20489. F 0.00
expand: top_step (2, 0) FAR  w(0) 20402. F 0.00
expand: MAIN (3, 0) FAR  w(0) 16687. F 0.00
expand: MAIN (4, 0) FAR  w(0) 14009.
	create_child: MAIN (3, 7) FAR 21005 U 0.00
expand: MAIN (3, 0) FAR  w(0) 21005.
	create_child: top_step (2, 7) FAR 20995 U 0.00
expand: top_step (2, 0) FAR  w(0) 20995.
	create_child: excludes8_fun (1, 7) FAR 21224 U 0.00
expand: excludes8_fun (1, 0) FAR  w(0) 21224.
	create_child: firefly_step (1, 7) FAR 21183 X 0.00
expand: firefly_step (1, 0) FAR  w(0) 21183. F 0.01
expand: top_step (2, 0) FAR  w(0) 20995. F 0.01
expand: MAIN (3, 0) FAR  w(0) 21005. F 0.00
expand: MAIN (4, 0) FAR  w(0) 14009.
	create_child: top_step (3, 7) FAR 21641 U 0.00
expand: top_step (3, 0) FAR  w(0) 21641.
	create_child: excludes8_fun (2, 7) FAR 21981 U 0.00
expand: excludes8_fun (2, 0) FAR  w(0) 21981. F 0.00
expand: top_step (3, 0) FAR  w(0) 21641.
	create_child: firefly_step (2, 7) FAR 21723 U 0.00
expand: firefly_step (2, 0) FAR  w(0) 21723. F 0.00
expand: top_step (3, 0) FAR  w(0) 21641.
	create_child: firefly_step (2, 7) FAR 21394 U 0.00
expand: firefly_step (2, 0) FAR  w(0) 21394. F 0.00
expand: top_step (3, 0) FAR  w(0) 21641. F 0.01
expand: MAIN (4, 0) FAR  w(0) 14009.
	create_child: top_step (3, 7) FAR 21907 U 0.00
expand: top_step (3, 0) FAR  w(0) 21907.
	create_child: firefly_step (2, 7) FAR 22227 U 0.00
expand: firefly_step (2, 0) FAR  w(0) 22227. F 0.00
expand: top_step (3, 0) FAR  w(0) 21907.
	create_child: firefly_step (2, 7) FAR 22232 U 0.00
expand: firefly_step (2, 0) FAR  w(0) 22232. F 0.00
expand: top_step (3, 0) FAR  w(0) 21907. F 0.01
expand: MAIN (4, 0) FAR  w(0) 14009. F 0.00
expand: MAIN (5, 0) FAR  w(0) 2183.
	create_child: MAIN (4, 7) FAR 19110 U 0.00
expand: MAIN (4, 0) FAR  w(0) 19110.
	create_child: top_step (3, 7) FAR 22013 U 0.00
expand: top_step (3, 0) FAR  w(0) 22013. F 0.01
expand: MAIN (4, 0) FAR  w(0) 19110. F 0.00
expand: MAIN (5, 0) FAR  w(0) 2183. F 0.00
expand: ERR (6, 0) FAR  w(0) 1. F 0.00
expand: query!0 (7, 0) FAR  w(0) 1. F 0.00
(spacer::context::check_reachability :time 0.11 :before-memory 21.07 :after-memory 21.78)
Propagating: 1 2 3 4 5 6 7  ! 8 
(spacer::context::propagate :time 0.00 :before-memory 21.78 :after-memory 21.78)
Entering level 8
BRUNCH_STAT max_query_lvl 7
BRUNCH_STAT num_queries 68
BRUNCH_STAT num_reach_queries 1
BRUNCH_STAT num_reach_reuse 59
BRUNCH_STAT inductive_lvl 0
BRUNCH_STAT max_depth 8
BRUNCH_STAT cex_depth 0
expand: query!0 (8, 0) FAR  w(0) 1.
	create_child: ERR (7, 8) FAR 1 U 0.00
expand: ERR (7, 0) FAR  w(0) 1.
	create_child: MAIN (6, 8) FAR 2183 U 0.00
expand: MAIN (6, 0) FAR  w(0) 2183.
	create_child: MAIN (5, 8) FAR 14009 U 0.00
expand: MAIN (5, 0) FAR  w(0) 14009.
	create_child: MAIN (4, 8) FAR 16687 U 0.00
expand: MAIN (4, 0) FAR  w(0) 16687.
	create_child: MAIN (3, 8) FAR 23328 U 0.00
expand: MAIN (3, 0) FAR  w(0) 23328.
	create_child: MAIN (2, 8) FAR 23305 U 0.00
expand: MAIN (2, 0) FAR  w(0) 23305.
	create_child: top_step (1, 8) FAR 23267 U 0.00
expand: top_step (1, 0) FAR  w(0) 23267.
	create_child: firefly_step (0, 8) FAR 22802 U 0.00
expand: firefly_step (0, 0) FAR  w(0) 22802. F 0.00
expand: top_step (1, 0) FAR  w(0) 23267. F 0.00
expand: MAIN (2, 0) FAR  w(0) 23305. F 0.00
expand: MAIN (3, 0) FAR  w(0) 23328.
	create_child: top_step (2, 8) FAR 23578 U 0.00
expand: top_step (2, 0) FAR  w(0) 23578.
	create_child: excludes8_fun (1, 8) FAR 24255 U 0.01
expand: excludes8_fun (1, 0) FAR  w(0) 24255. F 0.00
expand: top_step (2, 0) FAR  w(0) 23578.
	create_child: excludes8_fun (1, 8) FAR 24102 U 0.00
expand: excludes8_fun (1, 0) FAR  w(0) 24102.
	create_child: firefly_step (1, 8) FAR 24315 X 0.00
expand: firefly_step (1, 0) FAR  w(0) 24315. F 0.00
expand: top_step (2, 0) FAR  w(0) 23578.
	create_child: excludes8_fun (1, 8) FAR 24555 U 0.00
expand: excludes8_fun (1, 0) FAR  w(0) 24555. F 0.00
expand: top_step (2, 0) FAR  w(0) 23578. F 0.01
expand: MAIN (3, 0) FAR  w(0) 23328. F 0.00
expand: MAIN (4, 0) FAR  w(0) 16687.
	create_child: top_step (3, 8) FAR 24906 U 0.00
expand: top_step (3, 0) FAR  w(0) 24906.
	create_child: firefly_step (2, 8) FAR 24934 U 0.00
expand: firefly_step (2, 0) FAR  w(0) 24934. F 0.00
expand: top_step (3, 0) FAR  w(0) 24906.
	create_child: firefly_step (2, 8) FAR 25059 U 0.00
expand: firefly_step (2, 0) FAR  w(0) 25059. F 0.00
expand: top_step (3, 0) FAR  w(0) 24906. F 0.01
expand: MAIN (4, 0) FAR  w(0) 16687. F 0.00
expand: MAIN (5, 0) FAR  w(0) 14009.
	create_child: MAIN (4, 8) FAR 21005 U 0.00
expand: MAIN (4, 0) FAR  w(0) 21005.
	create_child: top_step (3, 8) FAR 25547 U 0.00
expand: top_step (3, 0) FAR  w(0) 25547.
	create_child: excludes8_fun (2, 8) FAR 25712 U 0.00
expand: excludes8_fun (2, 0) FAR  w(0) 25712.
	create_child: firefly_step (2, 8) FAR 25709 X 0.00
expand: firefly_step (2, 0) FAR  w(0) 25709. F 0.00
expand: top_step (3, 0) FAR  w(0) 25547. F 0.01
expand: MAIN (4, 0) FAR  w(0) 21005.
	create_child: top_step (3, 8) FAR 26416 U 0.00
expand: top_step (3, 0) FAR  w(0) 26416.
	create_child: excludes8_fun (2, 8) FAR 26814 U 0.00
expand: excludes8_fun (2, 0) FAR  w(0) 26814. F 0.00
expand: top_step (3, 0) FAR  w(0) 26416.
	create_child: excludes8_fun (2, 8) FAR 26837 U 0.00
expand: excludes8_fun (2, 0) FAR  w(0) 26837. F 0.00
expand: top_step (3, 0) FAR  w(0) 26416.
	create_child: excludes8_fun (2, 8) FAR 24102 U 0.00
expand: excludes8_fun (2, 0) FAR  w(0) 24102.
	create_child: firefly_step (2, 8) FAR 26768 X 0.00
expand: firefly_step (2, 0) FAR  w(0) 26768. F 0.00
expand: top_step (3, 0) FAR  w(0) 26416.
	create_child: firefly_step (2, 8) FAR 26560 U 0.00
expand: firefly_step (2, 0) FAR  w(0) 26560. F 0.00
expand: top_step (3, 0) FAR  w(0) 26416.
	create_child: firefly_step (2, 8) FAR 26800 U 0.00
expand: firefly_step (2, 0) FAR  w(0) 26800. F 0.01
expand: top_step (3, 0) FAR  w(0) 26416.
	create_child: excludes8_fun (2, 8) FAR 27078 U 0.00
expand: excludes8_fun (2, 0) FAR  w(0) 27078. F 0.00
expand: top_step (3, 0) FAR  w(0) 26416. F 0.01
expand: MAIN (4, 0) FAR  w(0) 21005. F 0.00
expand: MAIN (5, 0) FAR  w(0) 14009. F 0.00
expand: MAIN (6, 0) FAR  w(0) 2183. F 0.00
expand: ERR (7, 0) FAR  w(0) 1. F 0.00
expand: query!0 (8, 0) FAR  w(0) 1. F 0.00
(spacer::context::check_reachability :time 0.16 :before-memory 21.78 :after-memory 23.36)
Propagating: 0 1 2 3 4 5 6 7 8  ! 9 
(spacer::context::propagate :time 0.01 :before-memory 23.36 :after-memory 23.36)
Entering level 9
BRUNCH_STAT max_query_lvl 8
BRUNCH_STAT num_queries 93
BRUNCH_STAT num_reach_queries 1
BRUNCH_STAT num_reach_reuse 85
BRUNCH_STAT inductive_lvl 0
BRUNCH_STAT max_depth 9
BRUNCH_STAT cex_depth 0
expand: query!0 (9, 0) FAR  w(0) 1.
	create_child: ERR (8, 9) FAR 1 U 0.00
expand: ERR (8, 0) FAR  w(0) 1.
	create_child: MAIN (7, 9) FAR 2183 U 0.00
expand: MAIN (7, 0) FAR  w(0) 2183.
	create_child: MAIN (6, 9) FAR 14009 U 0.00
expand: MAIN (6, 0) FAR  w(0) 14009.
	create_child: MAIN (5, 9) FAR 21005 U 0.00
expand: MAIN (5, 0) FAR  w(0) 21005.
	create_child: MAIN (4, 9) FAR 28028 U 0.00
expand: MAIN (4, 0) FAR  w(0) 28028.
	create_child: top_step (3, 9) FAR 28057 U 0.00
expand: top_step (3, 0) FAR  w(0) 28057.
	create_child: Sofar_step (2, 9) FAR 28352 U 0.00
expand: Sofar_step (2, 0) FAR  w(0) 28352.
	create_child: firefly_step (2, 9) FAR 28270 X 0.00
expand: firefly_step (2, 0) FAR  w(0) 28270. F 0.00
expand: top_step (3, 0) FAR  w(0) 28057.
	create_child: Sofar_step (2, 9) FAR 28352 U 0.00
expand: Sofar_step (2, 0) FAR  w(0) 28352.
	create_child: firefly_step (2, 9) FAR 28459 X 0.00
expand: firefly_step (2, 0) FAR  w(0) 28459. F 0.00
expand: top_step (3, 0) FAR  w(0) 28057.
	create_child: Sofar_step (2, 9) FAR 28352 U 0.00
expand: Sofar_step (2, 0) FAR  w(0) 28352.
	create_child: firefly_step (2, 9) FAR 28580 X 0.00
expand: firefly_step (2, 0) FAR  w(0) 28580. F 0.01
expand: top_step (3, 0) FAR  w(0) 28057. F 0.01
expand: MAIN (4, 0) FAR  w(0) 28028.
	create_child: top_step (3, 9) FAR 28009 U 0.00
expand: top_step (3, 0) FAR  w(0) 28009.
	create_child: excludes8_fun (2, 9) FAR 29051 U 0.00
expand: excludes8_fun (2, 0) FAR  w(0) 29051. F 0.00
expand: top_step (3, 0) FAR  w(0) 28009.
	create_child: excludes8_fun (2, 9) FAR 29139 U 0.00
expand: excludes8_fun (2, 0) FAR  w(0) 29139. F 0.00
expand: top_step (3, 0) FAR  w(0) 28009.
	create_child: excludes8_fun (2, 9) FAR 29070 U 0.00
expand: excludes8_fun (2, 0) FAR  w(0) 29070.
	create_child: firefly_step (2, 9) FAR 28820 X 0.00
expand: firefly_step (2, 0) FAR  w(0) 28820. F 0.01
expand: top_step (3, 0) FAR  w(0) 28009. F 0.01
expand: MAIN (4, 0) FAR  w(0) 28028. F 0.00
expand: MAIN (5, 0) FAR  w(0) 21005.
	create_child: MAIN (4, 9) FAR 29401 U 0.00
expand: MAIN (4, 0) FAR  w(0) 29401.
	create_child: top_step (3, 9) FAR 29422 U 0.00
expand: top_step (3, 0) FAR  w(0) 29422.
	create_child: excludes8_fun (2, 9) FAR 29581 U 0.00
expand: excludes8_fun (2, 0) FAR  w(0) 29581. F 0.00
expand: top_step (3, 0) FAR  w(0) 29422.
	create_child: excludes8_fun (2, 9) FAR 29703 U 0.00
expand: excludes8_fun (2, 0) FAR  w(0) 29703. F 0.00
expand: top_step (3, 0) FAR  w(0) 29422. F 0.01
expand: MAIN (4, 0) FAR  w(0) 29401. F 0.00
expand: MAIN (5, 0) FAR  w(0) 21005.
	create_child: top_step (4, 9) FAR 29891 U 0.00
expand: top_step (4, 0) FAR  w(0) 29891.
	create_child: Sofar_step (3, 9) FAR 28352 U 0.00
expand: Sofar_step (3, 0) FAR  w(0) 28352.
	create_child: firefly_step (3, 9) FAR 29578 X 0.00
expand: firefly_step (3, 0) FAR  w(0) 29578. F 0.01
expand: top_step (4, 0) FAR  w(0) 29891.
	create_child: Sofar_step (3, 9) FAR 28352 U 0.00
expand: Sofar_step (3, 0) FAR  w(0) 28352.
	create_child: firefly_step (3, 9) FAR 30108 X 0.00
expand: firefly_step (3, 0) FAR  w(0) 30108. F 0.00
expand: top_step (4, 0) FAR  w(0) 29891. F 0.01
expand: MAIN (5, 0) FAR  w(0) 21005. F 0.00
expand: MAIN (6, 0) FAR  w(0) 14009.
	create_child: MAIN (5, 9) FAR 16687 U 0.00
expand: MAIN (5, 0) FAR  w(0) 16687. F 0.00
expand: MAIN (6, 0) FAR  w(0) 14009. F 0.00
expand: MAIN (7, 0) FAR  w(0) 2183. F 0.00
expand: ERR (8, 0) FAR  w(0) 1. F 0.00
expand: query!0 (9, 0) FAR  w(0) 1. F 0.00
(spacer::context::check_reachability :time 0.16 :before-memory 23.36 :after-memory 25.32)
Propagating: 2 3 4 5 6 7 8 9  ! 10 
(spacer::context::propagate :time 0.01 :before-memory 25.32 :after-memory 25.32)
Entering level 10
BRUNCH_STAT max_query_lvl 9
BRUNCH_STAT num_queries 114
BRUNCH_STAT num_reach_queries 1
BRUNCH_STAT num_reach_reuse 102
BRUNCH_STAT inductive_lvl 0
BRUNCH_STAT max_depth 10
BRUNCH_STAT cex_depth 0
expand: query!0 (10, 0) FAR  w(0) 1.
	create_child: ERR (9, 10) FAR 1 U 0.00
expand: ERR (9, 0) FAR  w(0) 1.
	create_child: MAIN (8, 10) FAR 2183 U 0.00
expand: MAIN (8, 0) FAR  w(0) 2183.
	create_child: MAIN (7, 10) FAR 14009 U 0.00
expand: MAIN (7, 0) FAR  w(0) 14009.
	create_child: MAIN (6, 10) FAR 21005 U 0.00
expand: MAIN (6, 0) FAR  w(0) 21005.
	create_child: MAIN (5, 10) FAR 28028 U 0.00
expand: MAIN (5, 0) FAR  w(0) 28028.
	create_child: MAIN (4, 10) FAR 30997 U 0.00
expand: MAIN (4, 0) FAR  w(0) 30997.
	create_child: top_step (3, 10) FAR 30915 U 0.00
expand: top_step (3, 0) FAR  w(0) 30915.
	create_child: Sofar_step (2, 10) FAR 28352 U 0.00
expand: Sofar_step (2, 0) FAR  w(0) 28352.
	create_child: firefly_step (2, 10) FAR 31231 X 0.00
expand: firefly_step (2, 0) FAR  w(0) 31231. F 0.00
expand: top_step (3, 0) FAR  w(0) 30915.
	create_child: Sofar_step (2, 10) FAR 28352 U 0.00
expand: Sofar_step (2, 0) FAR  w(0) 28352.
	create_child: firefly_step (2, 10) FAR 31389 X 0.00
expand: firefly_step (2, 0) FAR  w(0) 31389. F 0.00
expand: top_step (3, 0) FAR  w(0) 30915.
	create_child: Sofar_step (2, 10) FAR 28352 U 0.00
expand: Sofar_step (2, 0) FAR  w(0) 28352.
	create_child: firefly_step (2, 10) FAR 31521 X 0.00
expand: firefly_step (2, 0) FAR  w(0) 31521. F 0.01
expand: top_step (3, 0) FAR  w(0) 30915.
	create_child: Sofar_step (2, 10) FAR 28352 U 0.00
expand: Sofar_step (2, 0) FAR  w(0) 28352.
	create_child: firefly_step (2, 10) FAR 31170 X 0.00
expand: firefly_step (2, 0) FAR  w(0) 31170. F 0.01
expand: top_step (3, 0) FAR  w(0) 30915. F 0.01
expand: MAIN (4, 0) FAR  w(0) 30997.
	create_child: top_step (3, 10) FAR 30992 U 0.00
expand: top_step (3, 0) FAR  w(0) 30992.
	create_child: firefly_step (2, 10) FAR 30892 U 0.00
expand: firefly_step (2, 0) FAR  w(0) 30892. F 0.01
expand: top_step (3, 0) FAR  w(0) 30992. F 0.01
expand: MAIN (4, 0) FAR  w(0) 30997. F 0.00
expand: MAIN (5, 0) FAR  w(0) 28028.
	create_child: MAIN (4, 10) FAR 32192 U 0.00
expand: MAIN (4, 0) FAR  w(0) 32192.
	create_child: top_step (3, 10) FAR 32252 U 0.00
expand: top_step (3, 0) FAR  w(0) 32252.
	create_child: excludes8_fun (2, 10) FAR 32626 U 0.00
expand: excludes8_fun (2, 0) FAR  w(0) 32626. F 0.00
expand: top_step (3, 0) FAR  w(0) 32252.
	create_child: Sofar_step (2, 10) FAR 28352 U 0.00
expand: Sofar_step (2, 0) FAR  w(0) 28352.
	create_child: firefly_step (2, 10) FAR 31891 X 0.00
expand: firefly_step (2, 0) FAR  w(0) 31891. F 0.01
expand: top_step (3, 0) FAR  w(0) 32252.
	create_child: excludes8_fun (2, 10) FAR 32699 U 0.00
expand: excludes8_fun (2, 0) FAR  w(0) 32699. F 0.00
expand: top_step (3, 0) FAR  w(0) 32252.
	create_child: excludes8_fun (2, 10) FAR 32597 U 0.00
expand: excludes8_fun (2, 0) FAR  w(0) 32597. F 0.00
expand: top_step (3, 0) FAR  w(0) 32252. F 0.01
expand: MAIN (4, 0) FAR  w(0) 32192. F 0.00
expand: MAIN (5, 0) FAR  w(0) 28028.
	create_child: top_step (4, 10) FAR 32919 U 0.00
expand: top_step (4, 0) FAR  w(0) 32919.
	create_child: excludes8_fun (3, 10) FAR 33044 U 0.01
expand: excludes8_fun (3, 0) FAR  w(0) 33044. F 0.00
expand: top_step (4, 0) FAR  w(0) 32919.
	create_child: excludes8_fun (3, 10) FAR 32989 U 0.00
expand: excludes8_fun (3, 0) FAR  w(0) 32989. F 0.00
expand: top_step (4, 0) FAR  w(0) 32919. F 0.01
expand: MAIN (5, 0) FAR  w(0) 28028. F 0.00
expand: MAIN (6, 0) FAR  w(0) 21005.
	create_child: MAIN (5, 10) FAR 29401 U 0.00
expand: MAIN (5, 0) FAR  w(0) 29401. F 0.00
expand: MAIN (6, 0) FAR  w(0) 21005. F 0.01
expand: MAIN (7, 0) FAR  w(0) 14009.
	create_child: MAIN (6, 10) FAR 16687 U 0.00
expand: MAIN (6, 0) FAR  w(0) 16687. F 0.00
expand: MAIN (7, 0) FAR  w(0) 14009.
	create_child: top_step (6, 10) FAR 33892 U 0.00
expand: top_step (6, 0) FAR  w(0) 33892.
	create_child: firefly_step (5, 10) FAR 33798 U 0.00
expand: firefly_step (5, 0) FAR  w(0) 33798. F 0.00
expand: top_step (6, 0) FAR  w(0) 33892. F 0.00
expand: MAIN (7, 0) FAR  w(0) 14009. F 0.00
expand: MAIN (8, 0) FAR  w(0) 2183. F 0.00
expand: ERR (9, 0) FAR  w(0) 1. F 0.00
expand: query!0 (10, 0) FAR  w(0) 1. F 0.00
(spacer::context::check_reachability :time 0.20 :before-memory 25.32 :after-memory 25.75)
Propagating: 2 3 4 
(spacer::context::propagate :time 0.00 :before-memory 25.75 :after-memory 25.75)
(define-fun ERR () Bool
  false)
(define-fun top_reset ((x!0 Int)
 (x!1 Int)
 (x!2 Int)
 (x!3 Int)
 (x!4 Int)
 (x!5 Int)
 (x!6 Bool)
 (x!7 Bool)
 (x!8 Bool)
 (x!9 Int)
 (x!10 Int)
 (x!11 Int)
 (x!12 Int)
 (x!13 Int)
 (x!14 Int)
 (x!15 Bool)
 (x!16 Bool)
 (x!17 Bool)) Bool
  x!15)
(define-fun top_step ((x!0 Bool)
 (x!1 Bool)
 (x!2 Bool)
 (x!3 Bool)
 (x!4 Bool)
 (x!5 Bool)
 (x!6 Bool)
 (x!7 Bool)
 (x!8 Int)
 (x!9 Bool)
 (x!10 Int)
 (x!11 Int)
 (x!12 Int)
 (x!13 Int)
 (x!14 Int)
 (x!15 Int)
 (x!16 Bool)
 (x!17 Bool)
 (x!18 Bool)
 (x!19 Int)
 (x!20 Int)
 (x!21 Int)
 (x!22 Int)
 (x!23 Int)
 (x!24 Int)
 (x!25 Bool)
 (x!26 Bool)
 (x!27 Bool)) Bool
  (let ((a!1 (not (<= (+ x!11 (* (- 1) x!20)) (- 2))))
        (a!2 (or (>= (+ x!13 (* (- 1) x!22)) 0)
                 (not (>= x!22 2))
                 (not (<= x!11 0))))
        (a!3 (or (not (<= (+ x!10 x!11) 1))
                 (not x!26)
                 (<= x!22 0)
                 (not (<= x!13 1))
                 (not (= x!19 1))
                 (= x!10 1)))
        (a!4 (or (not (>= (+ x!19 x!20) 2))
                 (not x!26)
                 (not (<= x!13 0))
                 (<= x!20 0)
                 (not (<= x!11 1))
                 (not (<= x!10 0))))
        (a!5 (or (<= (+ x!19 x!20) 0)
                 (not x!26)
                 (<= x!22 0)
                 (not (<= x!13 1))
                 (= x!10 1)
                 (not (<= (+ x!10 x!11) 0)))))
    (and (or a!1 (not (<= x!11 0)) (<= x!20 0))
         (not x!27)
         (or x!9 (not x!16))
         (or (<= x!22 0) (not x!16))
         (or (not (<= x!13 0)) x!9)
         (or (not (>= x!22 2)) (not (<= x!13 0)))
         (or (<= x!20 0) (not x!16))
         (or (not (<= x!13 1)) x!9 (not (<= x!11 0)))
         (or x!18 x!17 x!9)
         (or (not x!26) x!17 x!18)
         (or (<= x!19 0) (<= x!22 0) (not (<= x!13 0)) (not (<= x!11 0)))
         (or (not (<= x!11 1))
             (not x!26)
             (<= x!22 0)
             (not (<= x!13 0))
             (<= x!20 0))
         (or (= x!10 1) (not x!26) (<= x!22 0) (not (<= x!11 0)) (<= x!20 0))
         a!2
         (<= x!21 0)
         (or (not (<= x!12 0))
             (not x!26)
             (not (<= x!11 0))
             (<= x!20 0)
             (<= x!19 0))
         (or (= x!10 1) (not (>= x!20 2)) (not (<= x!11 1)))
         (or (= x!10 1)
             (not x!26)
             (<= x!22 0)
             (not (<= x!13 0))
             (not (= x!19 1)))
         a!3
         (or (<= (+ x!19 x!20) 0)
             (not x!26)
             (<= x!22 0)
             (not (<= x!13 0))
             (not (<= x!11 1))
             (not (<= x!10 0)))
         a!4
         a!5)))
(define-fun firefly_reset ((x!0 Int)
 (x!1 Int)
 (x!2 Int)
 (x!3 Int)
 (x!4 Int)
 (x!5 Int)
 (x!6 Bool)
 (x!7 Int)
 (x!8 Int)
 (x!9 Int)
 (x!10 Int)
 (x!11 Int)
 (x!12 Int)
 (x!13 Bool)) Bool
  x!13)
(define-fun Sofar_reset ((x!0 Bool) (x!1 Bool) (x!2 Bool) (x!3 Bool)) Bool
  true)
(define-fun MAIN ((x!0 Int)
 (x!1 Int)
 (x!2 Int)
 (x!3 Int)
 (x!4 Int)
 (x!5 Int)
 (x!6 Bool)
 (x!7 Bool)
 (x!8 Bool)
 (x!9 Bool)) Bool
  (and (or (<= x!3 0) (not x!7) (<= (+ x!0 x!1) 0))
       x!9
       (not x!8)
       (or (not (>= x!3 2)) (not x!7))
       (<= x!2 0)
       (or (not (>= x!1 2)) (not x!7))
       (or (<= x!3 0) (not x!7) (<= x!1 0))
       (or (<= x!3 0) (not x!7) (not (= x!0 1)))
       (or (<= x!0 0) (not x!7) (<= x!1 0))))
(define-fun Sofar_step ((x!0 Bool)
 (x!1 Bool)
 (x!2 Bool)
 (x!3 Bool)
 (x!4 Bool)
 (x!5 Bool)) Bool
  (and (or x!0 (not x!1)) (not x!5) (or x!1 (not x!4)) (or x!2 x!3 (not x!1))))
(define-fun firefly_step ((x!0 Bool)
 (x!1 Bool)
 (x!2 Bool)
 (x!3 Bool)
 (x!4 Bool)
 (x!5 Bool)
 (x!6 Bool)
 (x!7 Bool)
 (x!8 Int)
 (x!9 Int)
 (x!10 Int)
 (x!11 Int)
 (x!12 Int)
 (x!13 Int)
 (x!14 Int)
 (x!15 Int)
 (x!16 Int)
 (x!17 Int)
 (x!18 Int)
 (x!19 Bool)
 (x!20 Int)
 (x!21 Int)
 (x!22 Int)
 (x!23 Int)
 (x!24 Int)
 (x!25 Int)
 (x!26 Bool)) Bool
  (let ((a!1 (or (<= (+ x!10 (* (- 1) x!16)) 0) x!5 x!3 (= x!10 0)))
        (a!2 (or (= (+ x!10 (* (- 1) x!16)) 1)
                 (= x!10 0)
                 (not (<= x!16 0))
                 (= (+ x!10 (* (- 1) x!16)) 0)))
        (a!3 (or (>= (+ x!16 (* (- 1) x!10)) 0)
                 (not x!3)
                 (= x!10 0)
                 (not (<= x!14 0))))
        (a!4 (or (>= (+ x!16 (* (- 1) x!10)) 0) x!3 (= x!10 0) (= x!10 1)))
        (a!5 (or (not (>= (+ x!20 x!21) 2))
                 x!6
                 x!1
                 (not (<= x!14 0))
                 (not (<= x!13 0))))
        (a!6 (or (not (<= x!13 1))
                 (not x!1)
                 x!4
                 (<= x!23 0)
                 (not (<= x!14 0))
                 (not (<= x!16 1))
                 (not (>= (+ x!20 x!21) 2))))
        (a!7 (or (not (>= (+ x!20 x!21) 2))
                 x!7
                 (not (<= x!16 0))
                 (not (<= x!14 1))
                 (not (<= x!13 0))))
        (a!8 (or (not (<= (+ x!13 x!14) 1))
                 (not x!2)
                 x!1
                 (not (= x!20 1))
                 (= x!13 1)))
        (a!9 (or (not (= (+ x!20 x!21) 1))
                 x!2
                 x!0
                 (<= x!23 0)
                 (not (<= x!16 0))
                 (not (<= x!14 1))
                 (= x!13 1)))
        (a!10 (or (<= (+ x!20 x!21) 0)
                  x!5
                  x!3
                  (<= x!23 0)
                  (= x!13 1)
                  (not (<= (+ x!13 x!14) 0))
                  (not (<= x!16 1))))
        (a!11 (or (<= (+ x!20 x!21) 0)
                  x!6
                  x!5
                  x!1
                  (<= x!23 0)
                  (= x!13 1)
                  (not (<= (+ x!13 x!14) 0))))
        (a!12 (or (<= (+ x!20 x!21) 0)
                  x!6
                  x!1
                  x!0
                  (= x!13 1)
                  (not (<= (+ x!13 x!14) 0))))
        (a!13 (or (not (>= (+ x!20 x!21) 2))
                  x!6
                  x!1
                  x!0
                  (<= x!21 0)
                  (not (<= x!14 1))
                  (not (<= x!13 0)))))
    (and (or (>= x!14 0) (<= x!21 0))
         (or (not x!19) (= x!10 0))
         (>= (+ x!10 (* (- 1) x!23)) 0)
         a!1
         a!2
         (or (<= x!21 0) (not x!19))
         (or (not (<= x!14 0)) x!4 x!0 (<= x!21 0))
         a!3
         a!4
         (or (not (>= x!21 2)) (not (<= x!14 0)))
         (or (<= x!21 0) x!3 x!0 (<= x!23 0) (not (<= x!16 0)))
         (or (<= x!20 0) x!3 (<= x!23 0) (not (<= x!16 0)))
         (or (not (<= x!14 1)) (not x!3) x!2 x!0 (<= x!21 0))
         (or (= x!13 1) x!0 (<= x!21 0) (not (<= x!14 0)))
         (or (not (<= x!14 0)) (not x!0) x!5 (<= x!23 0) (<= x!21 0))
         (<= x!22 0)
         (or (not (<= x!15 0)) x!1 (<= x!21 0) (not (<= x!14 0)) (<= x!20 0))
         (or (not (<= x!14 1)) x!4 (not (>= x!21 2)))
         (or (= x!13 1) (not (>= x!21 2)) (not (<= x!14 1)))
         (or (= x!13 1) x!2 (not (<= x!16 0)) (not (= x!20 1)))
         (or (not (= x!20 1))
             (= x!13 1)
             (not x!1)
             (<= x!23 0)
             (not (<= x!16 1)))
         (or (not (<= x!16 1))
             x!5
             x!3
             x!2
             (<= x!23 0)
             (not (= x!20 1))
             (= x!13 1))
         a!5
         a!6
         a!7
         (or (= x!13 1) x!6 x!1 x!2 (not (= x!20 1)))
         (or (<= (+ x!20 x!21) 0)
             (not x!1)
             (<= x!23 0)
             (not (<= x!14 0))
             (not (<= x!13 0))
             (not (<= x!16 1)))
         a!8
         a!9
         a!10
         a!11
         a!12
         a!13)))
(define-fun excludes8_fun ((x!0 Bool)
 (x!1 Bool)
 (x!2 Bool)
 (x!3 Bool)
 (x!4 Bool)
 (x!5 Bool)
 (x!6 Bool)
 (x!7 Bool)
 (x!8 Bool)) Bool
  (and (or (not x!8) (not x!1) (not x!3))
       (or (not x!4) (not x!8) (not x!3))
       (or (not x!8) (not x!0) (not x!5))
       (or (not x!3) (not x!8) (not x!0))
       (or (not x!5) (not x!8) (not x!4))
       (or (not x!8) (not x!2) (not x!3))
       (or (not x!8) (not x!1) (not x!4))
       (or (not x!8) (not x!0) (not x!1))
       (or (not x!8) (not x!5) (not x!6))
       (or (not x!8) (not x!2) (not x!6))
       (or (not x!8) (not x!3) (not x!6))
       (or (not x!8) (not x!0) (not x!2))
       (or (not x!8) (not x!3) (not x!5))
       (or (not x!8) (not x!3) (not x!7))
       (or (not x!8) (not x!2) (not x!7))
       (or (not x!8) (not x!0) (not x!7))
       (or (not x!8) (not x!6) (not x!7))
       (or (not x!8) (not x!1) (not x!7))
       (or (not x!8) (not x!1) (not x!5))))
BRUNCH_STAT max_query_lvl 10
BRUNCH_STAT num_queries 140
BRUNCH_STAT num_reach_queries 1
BRUNCH_STAT num_reach_reuse 121
BRUNCH_STAT inductive_lvl 4
BRUNCH_STAT max_depth 10
BRUNCH_STAT cex_depth 0
(:SPACER-inductive-level               4
 :SPACER-max-depth                     10
 :SPACER-max-query-lvl                 10
 :SPACER-num-invariants                112
 :SPACER-num-lemmas                    151
 :SPACER-num-properties                98
 :SPACER-num-queries                   140
 :SPACER-num-reach-queries             1
 :SPACER-num-reuse-reach-facts         121
 :added-eqs                            38377
 :arith-add-rows                       5830
 :arith-assert-diseq                   12210
 :arith-assert-lower                   29545
 :arith-assert-upper                   29296
 :arith-bound-prop                     1046
 :arith-conflicts                      76
 :arith-eq-adapter                     9119
 :arith-fixed-eqs                      6884
 :arith-offset-eqs                     2695
 :arith-pivots                         2170
 :bool-inductive-gen                   127
 :bool-inductive-gen-failures          452
 :conflicts                            1299
 :decisions                            35891
 :del-clause                           1670
 :final-checks                         729
 :minimized-lits                       527
 :mk-bool-var                          22039
 :mk-clause                            7946
 :num-checks                           1485
 :propagations                         350783
 :time.itp_solver.itp_core             0.06
 :time.spacer.init_rules               0.01
 :time.spacer.init_rules.pt.init       0.00
 :time.spacer.solve                    0.84
 :time.spacer.solve.propagate          0.03
 :time.spacer.solve.pt.must_reachable  0.02
 :time.spacer.solve.reach              0.81
 :time.spacer.solve.reach.children     0.14
 :time.spacer.solve.reach.gen.bool_ind 0.27
 :time.virtual_solver.proof            0.03
 :time.virtual_solver.smt.total        0.59
 :time.virtual_solver.smt.total.sat    0.34
 :virtual_solver.checks                1485
 :virtual_solver.checks.sat            729)
BRUNCH_STAT max_query_lvl 10
BRUNCH_STAT num_queries 140
BRUNCH_STAT num_reach_queries 1
BRUNCH_STAT num_reach_reuse 121
BRUNCH_STAT inductive_lvl 4
BRUNCH_STAT max_depth 10
BRUNCH_STAT cex_depth 0

real	0m0.951s
user	0m0.940s
sys	0m0.008s
