(transform N7datalog13mk_coi_filterE...no-op 0s)
(transform N7datalog25mk_interp_tail_simplifierE...14 rules 0s)
(transform N7datalog27mk_quantifier_instantiationE...no-op 0s)
(transform N7datalog8mk_scaleE...no-op 0s)
(transform N7datalog18mk_karr_invariantsE...no-op 0s)
(transform N7datalog14mk_array_blastE...no-op 0s)
(transform N7datalog22mk_subsumption_checkerE...13 rules 0s)
(transform N7datalog12mk_bit_blastE...no-op 0s)
(transform N7datalog15mk_rule_inlinerE...no-op 0s)
(transform N7datalog13mk_coi_filterE...no-op 0s)
(transform N7datalog25mk_interp_tail_simplifierE...13 rules 0s)
(transform N7datalog22mk_subsumption_checkerE...no-op 0s)
(transform N7datalog15mk_rule_inlinerE...no-op 0s)
(transform N7datalog13mk_coi_filterE...no-op 0s)
(transform N7datalog25mk_interp_tail_simplifierE...13 rules 0s)
(transform N7datalog22mk_subsumption_checkerE...no-op 0s)
(transform N7datalog15mk_rule_inlinerE...no-op 0s)
(transform N7datalog22mk_subsumption_checkerE...no-op 0s)
(transform N7datalog15mk_rule_inlinerE...no-op 0s)
(transform N7datalog22mk_subsumption_checkerE...no-op 0s)
(transform N7datalog15mk_rule_inlinerE...no-op 0s)
(transform N7datalog22mk_subsumption_checkerE...no-op 0s)
expand: query!0 (0, 0) FAR  w(0) 1. F 0.00
(spacer::context::check_reachability :time 0.00 :before-memory 13.33 :after-memory 13.74)
Entering level 1
BRUNCH_STAT max_query_lvl 0
BRUNCH_STAT num_queries 0
BRUNCH_STAT num_reach_queries 0
BRUNCH_STAT num_reach_reuse 0
BRUNCH_STAT inductive_lvl 0
BRUNCH_STAT max_depth 1
BRUNCH_STAT cex_depth 0
expand: query!0 (1, 0) FAR  w(0) 1.
	create_child: ERR (0, 1) FAR 1 U 0.00
expand: ERR (0, 0) FAR  w(0) 1. F 0.00
expand: query!0 (1, 0) FAR  w(0) 1. F 0.00
(spacer::context::check_reachability :time 0.00 :before-memory 13.74 :after-memory 14.19)
Propagating: 0 1  ! 2 
(spacer::context::propagate :time 0.00 :before-memory 14.19 :after-memory 14.19)
Entering level 2
BRUNCH_STAT max_query_lvl 1
BRUNCH_STAT num_queries 1
BRUNCH_STAT num_reach_queries 0
BRUNCH_STAT num_reach_reuse 0
BRUNCH_STAT inductive_lvl 0
BRUNCH_STAT max_depth 2
BRUNCH_STAT cex_depth 0
expand: query!0 (2, 0) FAR  w(0) 1.
	create_child: ERR (1, 2) FAR 1 U 0.00
expand: ERR (1, 0) FAR  w(0) 1.
	create_child: MAIN (0, 2) FAR 2359 U 0.00
expand: MAIN (0, 0) FAR  w(0) 2359. F 0.00
expand: ERR (1, 0) FAR  w(0) 1. F 0.00
expand: query!0 (2, 0) FAR  w(0) 1. F 0.00
(spacer::context::check_reachability :time 0.00 :before-memory 14.19 :after-memory 14.65)
Propagating: 0 1 2  ! 3 
(spacer::context::propagate :time 0.00 :before-memory 14.65 :after-memory 14.65)
Entering level 3
BRUNCH_STAT max_query_lvl 2
BRUNCH_STAT num_queries 3
BRUNCH_STAT num_reach_queries 0
BRUNCH_STAT num_reach_reuse 0
BRUNCH_STAT inductive_lvl 0
BRUNCH_STAT max_depth 3
BRUNCH_STAT cex_depth 0
expand: query!0 (3, 0) FAR  w(0) 1.
	create_child: ERR (2, 3) FAR 1 U 0.00
expand: ERR (2, 0) FAR  w(0) 1.
	create_child: MAIN (1, 3) FAR 2359 U 0.00
expand: MAIN (1, 0) FAR  w(0) 2359.
	create_child: top_step (0, 3) FAR 3133 U 0.00
expand: top_step (0, 0) FAR  w(0) 3133. F 0.00
expand: MAIN (1, 0) FAR  w(0) 2359. F 0.00
expand: ERR (2, 0) FAR  w(0) 1. F 0.00
expand: query!0 (3, 0) FAR  w(0) 1. F 0.00
(spacer::context::check_reachability :time 0.01 :before-memory 14.65 :after-memory 15.78)
Propagating: 0 1 2 3  ! 4 
(spacer::context::propagate :time 0.00 :before-memory 15.78 :after-memory 15.87)
Entering level 4
BRUNCH_STAT max_query_lvl 3
BRUNCH_STAT num_queries 6
BRUNCH_STAT num_reach_queries 0
BRUNCH_STAT num_reach_reuse 0
BRUNCH_STAT inductive_lvl 0
BRUNCH_STAT max_depth 4
BRUNCH_STAT cex_depth 0
expand: query!0 (4, 0) FAR  w(0) 1.
	create_child: ERR (3, 4) FAR 1 U 0.00
expand: ERR (3, 0) FAR  w(0) 1.
	create_child: MAIN (2, 4) FAR 2359 U 0.00
expand: MAIN (2, 0) FAR  w(0) 2359.
	create_child: top_step (1, 4) FAR 3133 U 0.00
expand: top_step (1, 0) FAR  w(0) 3133.
	create_child: top_reset (1, 4) FAR 8860 X 0.01
expand: top_reset (1, 0) FAR  w(0) 8860.
	create_child: firefly_reset (0, 4) FAR 9429 U 0.00
expand: firefly_reset (0, 0) FAR  w(0) 9429. F 0.00
expand: top_reset (1, 0) FAR  w(0) 8860. F 0.00
expand: MAIN (2, 0) FAR  w(0) 2359.
	create_child: top_reset (1, 4) FAR 12422 U 0.00
expand: top_reset (1, 0) FAR  w(0) 12422.
	create_child: First_reset (0, 4) FAR 12333 U 0.00
expand: First_reset (0, 0) FAR  w(0) 12333. F 0.00
expand: top_reset (1, 0) FAR  w(0) 12422. F 0.00
expand: MAIN (2, 0) FAR  w(0) 2359.
	create_child: top_step (1, 4) FAR 12460 U 0.00
expand: top_step (1, 0) FAR  w(0) 12460.
	create_child: First_step (0, 4) FAR 13145 U 0.01
expand: First_step (0, 0) FAR  w(0) 13145. F 0.00
expand: top_step (1, 0) FAR  w(0) 12460.
	create_child: Sofar_step (0, 4) FAR 13464 U 0.00
expand: Sofar_step (0, 0) FAR  w(0) 13464. F 0.00
expand: top_step (1, 0) FAR  w(0) 12460.
	create_child: firefly_step (0, 4) FAR 13236 U 0.00
expand: firefly_step (0, 0) FAR  w(0) 13236. F 0.00
expand: top_step (1, 0) FAR  w(0) 12460.
	create_child: firefly_step (0, 4) FAR 15531 U 0.00
expand: firefly_step (0, 0) FAR  w(0) 15531. F 0.00
expand: top_step (1, 0) FAR  w(0) 12460.
	create_child: firefly_step (0, 4) FAR 15803 U 0.00
expand: firefly_step (0, 0) FAR  w(0) 15803. F 0.00
expand: top_step (1, 0) FAR  w(0) 12460.
	create_child: firefly_step (0, 4) FAR 15944 U 0.00
expand: firefly_step (0, 0) FAR  w(0) 15944. F 0.00
expand: top_step (1, 0) FAR  w(0) 12460. F 0.00
expand: MAIN (2, 0) FAR  w(0) 2359. F 0.00
expand: ERR (3, 0) FAR  w(0) 1. F 0.00
expand: query!0 (4, 0) FAR  w(0) 1. F 0.00
(spacer::context::check_reachability :time 0.05 :before-memory 15.87 :after-memory 22.08)
Propagating: 0 1 2 3 4  ! 5 
(spacer::context::propagate :time 0.00 :before-memory 22.08 :after-memory 22.08)
Entering level 5
BRUNCH_STAT max_query_lvl 4
BRUNCH_STAT num_queries 19
BRUNCH_STAT num_reach_queries 1
BRUNCH_STAT num_reach_reuse 24
BRUNCH_STAT inductive_lvl 0
BRUNCH_STAT max_depth 5
BRUNCH_STAT cex_depth 0
expand: query!0 (5, 0) FAR  w(0) 1.
	create_child: ERR (4, 5) FAR 1 U 0.00
expand: ERR (4, 0) FAR  w(0) 1.
	create_child: MAIN (3, 5) FAR 2359 U 0.00
expand: MAIN (3, 0) FAR  w(0) 2359.
	create_child: MAIN (2, 5) FAR 16417 U 0.00
expand: MAIN (2, 0) FAR  w(0) 16417.
	create_child: top_step (1, 5) FAR 16312 U 0.00
expand: top_step (1, 0) FAR  w(0) 16312.
	create_child: Sofar_step (0, 5) FAR 16243 U 0.00
expand: Sofar_step (0, 0) FAR  w(0) 16243. F 0.00
expand: top_step (1, 0) FAR  w(0) 16312. F 0.00
expand: MAIN (2, 0) FAR  w(0) 16417. F 0.00
expand: MAIN (3, 0) FAR  w(0) 2359.
	create_child: MAIN (2, 5) FAR 16601 U 0.00
expand: MAIN (2, 0) FAR  w(0) 16601.
	create_child: top_step (1, 5) FAR 16597 U 0.00
expand: top_step (1, 0) FAR  w(0) 16597.
	create_child: First_step (0, 5) FAR 16775 U 0.00
expand: First_step (0, 0) FAR  w(0) 16775. F 0.00
expand: top_step (1, 0) FAR  w(0) 16597.
	create_child: Sofar_step (0, 5) FAR 16950 U 0.00
expand: Sofar_step (0, 0) FAR  w(0) 16950. F 0.00
expand: top_step (1, 0) FAR  w(0) 16597.
	create_child: Sofar_step (0, 5) FAR 16830 U 0.00
expand: Sofar_step (0, 0) FAR  w(0) 16830.
	create_child: firefly_step (0, 5) FAR 16773 X 0.00
expand: firefly_step (0, 0) FAR  w(0) 16773. F 0.00
expand: top_step (1, 0) FAR  w(0) 16597. F 0.00
expand: MAIN (2, 0) FAR  w(0) 16601. F 0.00
expand: MAIN (3, 0) FAR  w(0) 2359.
	create_child: MAIN (2, 5) FAR 17414 U 0.00
expand: MAIN (2, 0) FAR  w(0) 17414.
	create_child: top_step (1, 5) FAR 17372 U 0.00
expand: top_step (1, 0) FAR  w(0) 17372. F 0.00
expand: MAIN (2, 0) FAR  w(0) 17414. F 0.00
expand: MAIN (3, 0) FAR  w(0) 2359.
	create_child: MAIN (2, 5) FAR 17668 U 0.00
expand: MAIN (2, 0) FAR  w(0) 17668.
	create_child: top_step (1, 5) FAR 17533 U 0.00
expand: top_step (1, 0) FAR  w(0) 17533.
	create_child: firefly_step (0, 5) FAR 17705 U 0.00
expand: firefly_step (0, 0) FAR  w(0) 17705. F 0.00
expand: top_step (1, 0) FAR  w(0) 17533. F 0.00
expand: MAIN (2, 0) FAR  w(0) 17668. F 0.00
expand: MAIN (3, 0) FAR  w(0) 2359.
	create_child: MAIN (2, 5) FAR 18442 U 0.00
expand: MAIN (2, 0) FAR  w(0) 18442.
	create_child: top_step (1, 5) FAR 18283 U 0.00
expand: top_step (1, 0) FAR  w(0) 18283. F 0.00
expand: MAIN (2, 0) FAR  w(0) 18442. F 0.00
expand: MAIN (3, 0) FAR  w(0) 2359.
	create_child: MAIN (2, 5) FAR 18645 U 0.00
expand: MAIN (2, 0) FAR  w(0) 18645.
	create_child: top_step (1, 5) FAR 18590 U 0.00
expand: top_step (1, 0) FAR  w(0) 18590.
	create_child: firefly_step (0, 5) FAR 18568 U 0.00
expand: firefly_step (0, 0) FAR  w(0) 18568. F 0.00
expand: top_step (1, 0) FAR  w(0) 18590. F 0.00
expand: MAIN (2, 0) FAR  w(0) 18645. F 0.00
expand: MAIN (3, 0) FAR  w(0) 2359.
	create_child: MAIN (2, 5) FAR 18772 U 0.00
expand: MAIN (2, 0) FAR  w(0) 18772.
	create_child: top_step (1, 5) FAR 18714 U 0.00
expand: top_step (1, 0) FAR  w(0) 18714.
	create_child: First_step (0, 5) FAR 18724 U 0.00
expand: First_step (0, 0) FAR  w(0) 18724. F 0.00
expand: top_step (1, 0) FAR  w(0) 18714. F 0.00
expand: MAIN (2, 0) FAR  w(0) 18772. F 0.00
expand: MAIN (3, 0) FAR  w(0) 2359.
	create_child: MAIN (2, 5) FAR 19010 U 0.00
expand: MAIN (2, 0) FAR  w(0) 19010.
	create_child: top_step (1, 5) FAR 18931 U 0.00
expand: top_step (1, 0) FAR  w(0) 18931.
	create_child: firefly_step (0, 5) FAR 18904 U 0.00
expand: firefly_step (0, 0) FAR  w(0) 18904. F 0.00
expand: top_step (1, 0) FAR  w(0) 18931. F 0.00
expand: MAIN (2, 0) FAR  w(0) 19010. F 0.00
expand: MAIN (3, 0) FAR  w(0) 2359.
	create_child: MAIN (2, 5) FAR 19297 U 0.00
expand: MAIN (2, 0) FAR  w(0) 19297.
	create_child: top_step (1, 5) FAR 19272 U 0.00
expand: top_step (1, 0) FAR  w(0) 19272.
	create_child: firefly_step (0, 5) FAR 19105 U 0.00
expand: firefly_step (0, 0) FAR  w(0) 19105. F 0.00
expand: top_step (1, 0) FAR  w(0) 19272. F 0.00
expand: MAIN (2, 0) FAR  w(0) 19297. F 0.00
expand: MAIN (3, 0) FAR  w(0) 2359.
	create_child: MAIN (2, 5) FAR 19542 U 0.00
expand: MAIN (2, 0) FAR  w(0) 19542.
	create_child: top_step (1, 5) FAR 19471 U 0.00
expand: top_step (1, 0) FAR  w(0) 19471.
	create_child: firefly_step (0, 5) FAR 19457 U 0.00
expand: firefly_step (0, 0) FAR  w(0) 19457. F 0.00
expand: top_step (1, 0) FAR  w(0) 19471. F 0.00
expand: MAIN (2, 0) FAR  w(0) 19542. F 0.00
expand: MAIN (3, 0) FAR  w(0) 2359.
	create_child: MAIN (2, 5) FAR 20023 U 0.00
expand: MAIN (2, 0) FAR  w(0) 20023.
	create_child: top_step (1, 5) FAR 19936 U 0.00
expand: top_step (1, 0) FAR  w(0) 19936.
	create_child: firefly_step (0, 5) FAR 19922 U 0.00
expand: firefly_step (0, 0) FAR  w(0) 19922. F 0.00
expand: top_step (1, 0) FAR  w(0) 19936. F 0.00
expand: MAIN (2, 0) FAR  w(0) 20023. F 0.00
expand: MAIN (3, 0) FAR  w(0) 2359.
	create_child: top_step (2, 5) FAR 21055 U 0.00
expand: top_step (2, 0) FAR  w(0) 21055.
	create_child: Sofar_step (1, 5) FAR 21333 U 0.00
expand: Sofar_step (1, 0) FAR  w(0) 21333. F 0.00
expand: top_step (2, 0) FAR  w(0) 21055. F 0.00
expand: MAIN (3, 0) FAR  w(0) 2359.
	create_child: top_step (2, 5) FAR 21315 U 0.00
expand: top_step (2, 0) FAR  w(0) 21315.
	create_child: First_step (1, 5) FAR 24483 U 0.02
expand: First_step (1, 0) FAR  w(0) 24483. F 0.00
expand: top_step (2, 0) FAR  w(0) 21315.
	create_child: First_step (1, 5) FAR 24980 U 0.01
expand: First_step (1, 0) FAR  w(0) 24980.
	create_child: firefly_step (1, 5) FAR 25077 X 0.00
expand: firefly_step (1, 0) FAR  w(0) 25077. F 0.01
expand: top_step (2, 0) FAR  w(0) 21315.
	create_child: First_step (1, 5) FAR 24980 U 0.00
expand: First_step (1, 0) FAR  w(0) 24980.
	create_child: firefly_step (1, 5) FAR 26343 X 0.00
expand: firefly_step (1, 0) FAR  w(0) 26343. F 0.00
expand: top_step (2, 0) FAR  w(0) 21315.
	create_child: First_step (1, 5) FAR 24980 U 0.00
expand: First_step (1, 0) FAR  w(0) 24980.
	create_child: firefly_step (1, 5) FAR 26591 X 0.00
expand: firefly_step (1, 0) FAR  w(0) 26591. F 0.00
expand: top_step (2, 0) FAR  w(0) 21315.
	create_child: First_step (1, 5) FAR 24980 U 0.00
expand: First_step (1, 0) FAR  w(0) 24980.
	create_child: firefly_step (1, 5) FAR 26707 X 0.00
expand: firefly_step (1, 0) FAR  w(0) 26707. F 0.00
expand: top_step (2, 0) FAR  w(0) 21315.
	create_child: First_step (1, 5) FAR 24980 U 0.00
expand: First_step (1, 0) FAR  w(0) 24980.
	create_child: firefly_step (1, 5) FAR 26173 X 0.00
expand: firefly_step (1, 0) FAR  w(0) 26173. F 0.00
expand: top_step (2, 0) FAR  w(0) 21315.
	create_child: First_step (1, 5) FAR 24980 U 0.00
expand: First_step (1, 0) FAR  w(0) 24980.
	create_child: firefly_step (1, 5) FAR 26878 X 0.00
expand: firefly_step (1, 0) FAR  w(0) 26878. F 0.01
expand: top_step (2, 0) FAR  w(0) 21315.
	create_child: First_step (1, 5) FAR 24980 U 0.00
expand: First_step (1, 0) FAR  w(0) 24980.
	create_child: firefly_step (1, 5) FAR 27208 X 0.00
expand: firefly_step (1, 0) FAR  w(0) 27208. F 0.00
expand: top_step (2, 0) FAR  w(0) 21315.
	create_child: First_step (1, 5) FAR 24980 U 0.00
expand: First_step (1, 0) FAR  w(0) 24980.
	create_child: firefly_step (1, 5) FAR 27167 X 0.00
expand: firefly_step (1, 0) FAR  w(0) 27167. F 0.00
expand: top_step (2, 0) FAR  w(0) 21315.
	create_child: excludes8_fun (1, 5) FAR 27843 U 0.00
expand: excludes8_fun (1, 0) FAR  w(0) 27843. F 0.00
expand: top_step (2, 0) FAR  w(0) 21315.
	create_child: excludes8_fun (1, 5) FAR 28075 U 0.00
expand: excludes8_fun (1, 0) FAR  w(0) 28075. F 0.00
expand: top_step (2, 0) FAR  w(0) 21315.
	create_child: excludes8_fun (1, 5) FAR 28559 U 0.01
expand: excludes8_fun (1, 0) FAR  w(0) 28559. F 0.00
expand: top_step (2, 0) FAR  w(0) 21315.
	create_child: excludes8_fun (1, 5) FAR 28383 U 0.00
expand: excludes8_fun (1, 0) FAR  w(0) 28383. F 0.00
expand: top_step (2, 0) FAR  w(0) 21315.
	create_child: First_step (1, 5) FAR 24980 U 0.01
expand: First_step (1, 0) FAR  w(0) 24980.
	create_child: excludes8_fun (1, 5) FAR 28618 X 0.00
expand: excludes8_fun (1, 0) FAR  w(0) 28618. F 0.00
expand: top_step (2, 0) FAR  w(0) 21315.
	create_child: First_step (1, 5) FAR 24980 U 0.00
expand: First_step (1, 0) FAR  w(0) 24980.
	create_child: excludes8_fun (1, 5) FAR 28708 X 0.00
expand: excludes8_fun (1, 0) FAR  w(0) 28708. F 0.00
expand: top_step (2, 0) FAR  w(0) 21315.
	create_child: excludes8_fun (1, 5) FAR 28314 U 0.00
expand: excludes8_fun (1, 0) FAR  w(0) 28314.
	create_child: firefly_step (1, 5) FAR 28530 X 0.00
expand: firefly_step (1, 0) FAR  w(0) 28530. F 0.01
expand: top_step (2, 0) FAR  w(0) 21315.
	create_child: First_step (1, 5) FAR 24980 U 0.00
expand: First_step (1, 0) FAR  w(0) 24980.
	create_child: excludes8_fun (1, 5) FAR 28848 X 0.00
expand: excludes8_fun (1, 0) FAR  w(0) 28848. F 0.00
expand: top_step (2, 0) FAR  w(0) 21315.
	create_child: First_step (1, 5) FAR 24980 U 0.00
expand: First_step (1, 0) FAR  w(0) 24980.
	create_child: excludes8_fun (1, 5) FAR 29081 X 0.00
expand: excludes8_fun (1, 0) FAR  w(0) 29081. F 0.00
expand: top_step (2, 0) FAR  w(0) 21315.
	create_child: First_step (1, 5) FAR 24980 U 0.00
expand: First_step (1, 0) FAR  w(0) 24980.
	create_child: excludes8_fun (1, 5) FAR 29106 X 0.00
expand: excludes8_fun (1, 0) FAR  w(0) 29106. F 0.00
expand: top_step (2, 0) FAR  w(0) 21315.
	create_child: First_step (1, 5) FAR 24980 U 0.00
expand: First_step (1, 0) FAR  w(0) 24980.
	create_child: excludes8_fun (1, 5) FAR 29148 X 0.00
expand: excludes8_fun (1, 0) FAR  w(0) 29148. F 0.00
expand: top_step (2, 0) FAR  w(0) 21315.
	create_child: First_step (1, 5) FAR 24980 U 0.00
expand: First_step (1, 0) FAR  w(0) 24980.
	create_child: excludes8_fun (1, 5) FAR 28980 X 0.00
expand: excludes8_fun (1, 0) FAR  w(0) 28980. F 0.00
expand: top_step (2, 0) FAR  w(0) 21315.
	create_child: First_step (1, 5) FAR 24980 U 0.00
expand: First_step (1, 0) FAR  w(0) 24980.
	create_child: excludes8_fun (1, 5) FAR 28937 X 0.00
expand: excludes8_fun (1, 0) FAR  w(0) 28937. F 0.00
expand: top_step (2, 0) FAR  w(0) 21315.
	create_child: excludes8_fun (1, 5) FAR 29240 U 0.00
expand: excludes8_fun (1, 0) FAR  w(0) 29240. F 0.00
expand: top_step (2, 0) FAR  w(0) 21315. F 0.02
expand: MAIN (3, 0) FAR  w(0) 2359. F 0.00
expand: ERR (4, 0) FAR  w(0) 1. F 0.00
expand: query!0 (5, 0) FAR  w(0) 1. F 0.00
(spacer::context::check_reachability :time 0.37 :before-memory 22.08 :after-memory 29.12)
Propagating: 0 1 2 3 4 5  ! 6 
(spacer::context::propagate :time 0.01 :before-memory 29.12 :after-memory 29.12)
Entering level 6
BRUNCH_STAT max_query_lvl 5
BRUNCH_STAT num_queries 80
BRUNCH_STAT num_reach_queries 1
BRUNCH_STAT num_reach_reuse 111
BRUNCH_STAT inductive_lvl 0
BRUNCH_STAT max_depth 6
BRUNCH_STAT cex_depth 0
expand: query!0 (6, 0) FAR  w(0) 1.
	create_child: ERR (5, 6) FAR 1 U 0.00
expand: ERR (5, 0) FAR  w(0) 1.
	create_child: MAIN (4, 6) FAR 2359 U 0.00
expand: MAIN (4, 0) FAR  w(0) 2359.
	create_child: MAIN (3, 6) FAR 19010 U 0.00
expand: MAIN (3, 0) FAR  w(0) 19010.
	create_child: top_step (2, 6) FAR 30733 U 0.00
expand: top_step (2, 0) FAR  w(0) 30733. F 0.00
expand: MAIN (3, 0) FAR  w(0) 19010.
	create_child: top_step (2, 6) FAR 30900 U 0.00
expand: top_step (2, 0) FAR  w(0) 30900.
	create_child: firefly_step (1, 6) FAR 31303 U 0.01
expand: firefly_step (1, 0) FAR  w(0) 31303. F 0.00
expand: top_step (2, 0) FAR  w(0) 30900.
	create_child: firefly_step (1, 6) FAR 31700 U 0.00
expand: firefly_step (1, 0) FAR  w(0) 31700. F 0.00
expand: top_step (2, 0) FAR  w(0) 30900. F 0.02
expand: MAIN (3, 0) FAR  w(0) 19010. F 0.00
expand: MAIN (4, 0) FAR  w(0) 2359.
	create_child: MAIN (3, 6) FAR 33082 U 0.00
expand: MAIN (3, 0) FAR  w(0) 33082.
	create_child: top_step (2, 6) FAR 32738 U 0.00
expand: top_step (2, 0) FAR  w(0) 32738.
	create_child: firefly_step (1, 6) FAR 32658 U 0.00
expand: firefly_step (1, 0) FAR  w(0) 32658. F 0.01
expand: top_step (2, 0) FAR  w(0) 32738.
	create_child: firefly_step (1, 6) FAR 32698 U 0.00
expand: firefly_step (1, 0) FAR  w(0) 32698. F 0.00
expand: top_step (2, 0) FAR  w(0) 32738. F 0.01
expand: MAIN (3, 0) FAR  w(0) 33082. F 0.00
expand: MAIN (4, 0) FAR  w(0) 2359.
	create_child: MAIN (3, 6) FAR 34887 U 0.00
expand: MAIN (3, 0) FAR  w(0) 34887.
	create_child: top_step (2, 6) FAR 34801 U 0.00
expand: top_step (2, 0) FAR  w(0) 34801.
	create_child: Sofar_step (1, 6) FAR 34755 U 0.00
expand: Sofar_step (1, 0) FAR  w(0) 34755.
	create_child: firefly_step (1, 6) FAR 34874 X 0.00
expand: firefly_step (1, 0) FAR  w(0) 34874. F 0.00
expand: top_step (2, 0) FAR  w(0) 34801.
	create_child: Sofar_step (1, 6) FAR 34755 U 0.00
expand: Sofar_step (1, 0) FAR  w(0) 34755.
	create_child: firefly_step (1, 6) FAR 34925 X 0.00
expand: firefly_step (1, 0) FAR  w(0) 34925. F 0.00
expand: top_step (2, 0) FAR  w(0) 34801. F 0.01
expand: MAIN (3, 0) FAR  w(0) 34887. F 0.00
expand: MAIN (4, 0) FAR  w(0) 2359.
	create_child: MAIN (3, 6) FAR 35530 U 0.00
expand: MAIN (3, 0) FAR  w(0) 35530.
	create_child: top_step (2, 6) FAR 35468 U 0.00
expand: top_step (2, 0) FAR  w(0) 35468. F 0.01
expand: MAIN (3, 0) FAR  w(0) 35530. F 0.00
expand: MAIN (4, 0) FAR  w(0) 2359.
	create_child: MAIN (3, 6) FAR 35686 U 0.00
expand: MAIN (3, 0) FAR  w(0) 35686.
	create_child: top_step (2, 6) FAR 35758 U 0.00
expand: top_step (2, 0) FAR  w(0) 35758. F 0.01
expand: MAIN (3, 0) FAR  w(0) 35686. F 0.00
expand: MAIN (4, 0) FAR  w(0) 2359.
	create_child: MAIN (3, 6) FAR 17668 U 0.00
expand: MAIN (3, 0) FAR  w(0) 17668.
	create_child: top_step (2, 6) FAR 35766 U 0.00
expand: top_step (2, 0) FAR  w(0) 35766.
	create_child: MAIN (2, 6) FAR 36220 X 0.01
expand: MAIN (2, 0) FAR  w(0) 36220.
	create_child: top_reset (1, 6) FAR 36486 U 0.00
expand: top_reset (1, 0) FAR  w(0) 36486.
	create_child: Sofar_reset (0, 6) FAR 36631 U 0.00
expand: Sofar_reset (0, 0) FAR  w(0) 36631. F 0.00
expand: top_reset (1, 0) FAR  w(0) 36486. F 0.00
expand: MAIN (2, 0) FAR  w(0) 36220.
	create_child: top_reset (1, 6) FAR 36348 U 0.00
expand: top_reset (1, 0) FAR  w(0) 36348. T 0.00
is-reachable: MAIN (2, 0) FAR 36220 T 0.00
is-reachable: MAIN (3, 0) FAR 17668 T 0.00
is-reachable: MAIN (4, 0) FAR 2359 T 0.01
is-reachable: ERR (5, 0) FAR 1 T 0.00
is-reachable: query!0 (6, 0) FAR 1 T 0.00
(spacer::context::check_reachability :time 0.18 :before-memory 29.12 :after-memory 31.89)
BRUNCH_STAT max_query_lvl 6
BRUNCH_STAT num_queries 104
BRUNCH_STAT num_reach_queries 8
BRUNCH_STAT num_reach_reuse 144
BRUNCH_STAT inductive_lvl 0
BRUNCH_STAT max_depth 6
BRUNCH_STAT cex_depth 6
(:SPACER-cex-depth                     6
 :SPACER-max-depth                     6
 :SPACER-max-query-lvl                 6
 :SPACER-num-invariants                76
 :SPACER-num-lemmas                    105
 :SPACER-num-properties                92
 :SPACER-num-queries                   104
 :SPACER-num-reach-queries             8
 :SPACER-num-reuse-reach-facts         144
 :added-eqs                            24347
 :arith-add-rows                       15424
 :arith-assert-diseq                   5994
 :arith-assert-lower                   15626
 :arith-assert-upper                   15090
 :arith-bound-prop                     1071
 :arith-conflicts                      143
 :arith-eq-adapter                     5540
 :arith-fixed-eqs                      3721
 :arith-offset-eqs                     2793
 :arith-pivots                         2031
 :bool-inductive-gen                   91
 :bool-inductive-gen-failures          247
 :conflicts                            1115
 :decisions                            21428
 :del-clause                           1283
 :final-checks                         409
 :minimized-lits                       1024
 :mk-bool-var                          13178
 :mk-clause                            7963
 :num-checks                           905
 :propagations                         221323
 :time.itp_solver.itp_core             0.04
 :time.spacer.init_rules               0.01
 :time.spacer.init_rules.pt.init       0.00
 :time.spacer.solve                    0.61
 :time.spacer.solve.propagate          0.01
 :time.spacer.solve.pt.must_reachable  0.03
 :time.spacer.solve.reach              0.60
 :time.spacer.solve.reach.children     0.11
 :time.spacer.solve.reach.gen.bool_ind 0.14
 :time.spacer.solve.reach.is-reach     0.02
 :time.virtual_solver.proof            0.02
 :time.virtual_solver.smt.total        0.40
 :time.virtual_solver.smt.total.sat    0.23
 :virtual_solver.checks                905
 :virtual_solver.checks.sat            409)
BRUNCH_STAT max_query_lvl 6
BRUNCH_STAT num_queries 104
BRUNCH_STAT num_reach_queries 8
BRUNCH_STAT num_reach_reuse 144
BRUNCH_STAT inductive_lvl 0
BRUNCH_STAT max_depth 6
BRUNCH_STAT cex_depth 6

real	0m0.715s
user	0m0.676s
sys	0m0.004s
