(transform N7datalog13mk_coi_filterE...no-op 0s)
(transform N7datalog25mk_interp_tail_simplifierE...14 rules 0s)
(transform N7datalog27mk_quantifier_instantiationE...no-op 0s)
(transform N7datalog8mk_scaleE...no-op 0s)
(transform N7datalog18mk_karr_invariantsE...no-op 0s)
(transform N7datalog14mk_array_blastE...no-op 0s)
(transform N7datalog22mk_subsumption_checkerE...13 rules 0s)
(transform N7datalog12mk_bit_blastE...no-op 0s)
(transform N7datalog15mk_rule_inlinerE...no-op 0s)
(transform N7datalog13mk_coi_filterE...no-op 0s)
(transform N7datalog25mk_interp_tail_simplifierE...13 rules 0s)
(transform N7datalog22mk_subsumption_checkerE...no-op 0s)
(transform N7datalog15mk_rule_inlinerE...no-op 0s)
(transform N7datalog13mk_coi_filterE...no-op 0s)
(transform N7datalog25mk_interp_tail_simplifierE...13 rules 0s)
(transform N7datalog22mk_subsumption_checkerE...no-op 0s)
(transform N7datalog15mk_rule_inlinerE...no-op 0s)
(transform N7datalog22mk_subsumption_checkerE...no-op 0s)
(transform N7datalog15mk_rule_inlinerE...no-op 0s)
(transform N7datalog22mk_subsumption_checkerE...no-op 0s)
(transform N7datalog15mk_rule_inlinerE...no-op 0s)
(transform N7datalog22mk_subsumption_checkerE...no-op 0s)
expand: query!0 (0, 0) FAR  w(0) 1. F 0.00
(spacer::context::check_reachability :time 0.00 :before-memory 13.34 :after-memory 13.74)
Entering level 1
BRUNCH_STAT max_query_lvl 0
BRUNCH_STAT num_queries 0
BRUNCH_STAT num_reach_queries 0
BRUNCH_STAT num_reach_reuse 0
BRUNCH_STAT inductive_lvl 0
BRUNCH_STAT max_depth 1
BRUNCH_STAT cex_depth 0
expand: query!0 (1, 0) FAR  w(0) 1.
	create_child: ERR (0, 1) FAR 1 U 0.00
expand: ERR (0, 0) FAR  w(0) 1. F 0.00
expand: query!0 (1, 0) FAR  w(0) 1. F 0.00
(spacer::context::check_reachability :time 0.00 :before-memory 13.74 :after-memory 14.19)
Propagating: 0 1  ! 2 
(spacer::context::propagate :time 0.00 :before-memory 14.19 :after-memory 14.19)
Entering level 2
BRUNCH_STAT max_query_lvl 1
BRUNCH_STAT num_queries 1
BRUNCH_STAT num_reach_queries 0
BRUNCH_STAT num_reach_reuse 0
BRUNCH_STAT inductive_lvl 0
BRUNCH_STAT max_depth 2
BRUNCH_STAT cex_depth 0
expand: query!0 (2, 0) FAR  w(0) 1.
	create_child: ERR (1, 2) FAR 1 U 0.00
expand: ERR (1, 0) FAR  w(0) 1.
	create_child: MAIN (0, 2) FAR 2332 U 0.00
expand: MAIN (0, 0) FAR  w(0) 2332. F 0.00
expand: ERR (1, 0) FAR  w(0) 1. F 0.00
expand: query!0 (2, 0) FAR  w(0) 1. F 0.00
(spacer::context::check_reachability :time 0.00 :before-memory 14.19 :after-memory 14.65)
Propagating: 0 1 2  ! 3 
(spacer::context::propagate :time 0.00 :before-memory 14.65 :after-memory 14.65)
Entering level 3
BRUNCH_STAT max_query_lvl 2
BRUNCH_STAT num_queries 3
BRUNCH_STAT num_reach_queries 0
BRUNCH_STAT num_reach_reuse 0
BRUNCH_STAT inductive_lvl 0
BRUNCH_STAT max_depth 3
BRUNCH_STAT cex_depth 0
expand: query!0 (3, 0) FAR  w(0) 1.
	create_child: ERR (2, 3) FAR 1 U 0.00
expand: ERR (2, 0) FAR  w(0) 1.
	create_child: MAIN (1, 3) FAR 2332 U 0.00
expand: MAIN (1, 0) FAR  w(0) 2332.
	create_child: top_step (0, 3) FAR 3106 U 0.00
expand: top_step (0, 0) FAR  w(0) 3106. F 0.00
expand: MAIN (1, 0) FAR  w(0) 2332. F 0.00
expand: ERR (2, 0) FAR  w(0) 1. F 0.00
expand: query!0 (3, 0) FAR  w(0) 1. F 0.00
(spacer::context::check_reachability :time 0.01 :before-memory 14.65 :after-memory 15.78)
Propagating: 0 1 2 3  ! 4 
(spacer::context::propagate :time 0.00 :before-memory 15.78 :after-memory 15.78)
Entering level 4
BRUNCH_STAT max_query_lvl 3
BRUNCH_STAT num_queries 6
BRUNCH_STAT num_reach_queries 0
BRUNCH_STAT num_reach_reuse 0
BRUNCH_STAT inductive_lvl 0
BRUNCH_STAT max_depth 4
BRUNCH_STAT cex_depth 0
expand: query!0 (4, 0) FAR  w(0) 1.
	create_child: ERR (3, 4) FAR 1 U 0.00
expand: ERR (3, 0) FAR  w(0) 1.
	create_child: MAIN (2, 4) FAR 2332 U 0.00
expand: MAIN (2, 0) FAR  w(0) 2332.
	create_child: top_step (1, 4) FAR 3106 U 0.00
expand: top_step (1, 0) FAR  w(0) 3106.
	create_child: top_reset (1, 4) FAR 8737 X 0.01
expand: top_reset (1, 0) FAR  w(0) 8737.
	create_child: First_reset (0, 4) FAR 9292 U 0.00
expand: First_reset (0, 0) FAR  w(0) 9292. F 0.00
expand: top_reset (1, 0) FAR  w(0) 8737. F 0.00
expand: MAIN (2, 0) FAR  w(0) 2332.
	create_child: top_reset (1, 4) FAR 12234 U 0.01
expand: top_reset (1, 0) FAR  w(0) 12234.
	create_child: Sofar_reset (0, 4) FAR 12148 U 0.00
expand: Sofar_reset (0, 0) FAR  w(0) 12148. F 0.00
expand: top_reset (1, 0) FAR  w(0) 12234. F 0.00
expand: MAIN (2, 0) FAR  w(0) 2332.
	create_child: top_reset (1, 4) FAR 12457 U 0.00
expand: top_reset (1, 0) FAR  w(0) 12457.
	create_child: firefly_reset (0, 4) FAR 12310 U 0.00
expand: firefly_reset (0, 0) FAR  w(0) 12310. F 0.00
expand: top_reset (1, 0) FAR  w(0) 12457. F 0.00
expand: MAIN (2, 0) FAR  w(0) 2332.
	create_child: top_step (1, 4) FAR 12488 U 0.00
expand: top_step (1, 0) FAR  w(0) 12488.
	create_child: firefly_step (0, 4) FAR 12725 U 0.00
expand: firefly_step (0, 0) FAR  w(0) 12725. F 0.00
expand: top_step (1, 0) FAR  w(0) 12488.
	create_child: firefly_step (0, 4) FAR 14918 U 0.00
expand: firefly_step (0, 0) FAR  w(0) 14918. F 0.00
expand: top_step (1, 0) FAR  w(0) 12488.
	create_child: firefly_step (0, 4) FAR 14846 U 0.00
expand: firefly_step (0, 0) FAR  w(0) 14846.
	create_child: First_step (0, 4) FAR 15127 X 0.00
expand: First_step (0, 0) FAR  w(0) 15127. F 0.00
expand: top_step (1, 0) FAR  w(0) 12488.
	create_child: firefly_step (0, 4) FAR 14846 U 0.00
expand: firefly_step (0, 0) FAR  w(0) 14846.
	create_child: First_step (0, 4) FAR 15373 X 0.00
expand: First_step (0, 0) FAR  w(0) 15373. F 0.00
expand: top_step (1, 0) FAR  w(0) 12488. F 0.00
expand: MAIN (2, 0) FAR  w(0) 2332. F 0.00
expand: ERR (3, 0) FAR  w(0) 1. F 0.00
expand: query!0 (4, 0) FAR  w(0) 1. F 0.00
(spacer::context::check_reachability :time 0.05 :before-memory 15.78 :after-memory 22.91)
Propagating: 0 1 2 3 4  ! 5 
(spacer::context::propagate :time 0.00 :before-memory 22.91 :after-memory 22.91)
Entering level 5
BRUNCH_STAT max_query_lvl 4
BRUNCH_STAT num_queries 19
BRUNCH_STAT num_reach_queries 1
BRUNCH_STAT num_reach_reuse 20
BRUNCH_STAT inductive_lvl 0
BRUNCH_STAT max_depth 5
BRUNCH_STAT cex_depth 0
expand: query!0 (5, 0) FAR  w(0) 1.
	create_child: ERR (4, 5) FAR 1 U 0.00
expand: ERR (4, 0) FAR  w(0) 1.
	create_child: MAIN (3, 5) FAR 2332 U 0.00
expand: MAIN (3, 0) FAR  w(0) 2332.
	create_child: MAIN (2, 5) FAR 15945 U 0.00
expand: MAIN (2, 0) FAR  w(0) 15945.
	create_child: top_step (1, 5) FAR 15890 U 0.00
expand: top_step (1, 0) FAR  w(0) 15890.
	create_child: firefly_step (0, 5) FAR 15835 U 0.00
expand: firefly_step (0, 0) FAR  w(0) 15835. F 0.00
expand: top_step (1, 0) FAR  w(0) 15890. F 0.00
expand: MAIN (2, 0) FAR  w(0) 15945. F 0.00
expand: MAIN (3, 0) FAR  w(0) 2332.
	create_child: MAIN (2, 5) FAR 16103 U 0.00
expand: MAIN (2, 0) FAR  w(0) 16103.
	create_child: top_step (1, 5) FAR 16088 U 0.00
expand: top_step (1, 0) FAR  w(0) 16088.
	create_child: firefly_step (0, 5) FAR 16331 U 0.00
expand: firefly_step (0, 0) FAR  w(0) 16331. F 0.00
expand: top_step (1, 0) FAR  w(0) 16088.
	create_child: firefly_step (0, 5) FAR 16272 U 0.00
expand: firefly_step (0, 0) FAR  w(0) 16272.
	create_child: First_step (0, 5) FAR 15160 X 0.00
expand: First_step (0, 0) FAR  w(0) 15160. F 0.00
expand: top_step (1, 0) FAR  w(0) 16088. F 0.00
expand: MAIN (2, 0) FAR  w(0) 16103. F 0.00
expand: MAIN (3, 0) FAR  w(0) 2332.
	create_child: MAIN (2, 5) FAR 17077 U 0.00
expand: MAIN (2, 0) FAR  w(0) 17077.
	create_child: top_step (1, 5) FAR 16990 U 0.00
expand: top_step (1, 0) FAR  w(0) 16990.
	create_child: firefly_step (0, 5) FAR 17112 U 0.00
expand: firefly_step (0, 0) FAR  w(0) 17112. F 0.00
expand: top_step (1, 0) FAR  w(0) 16990.
	create_child: firefly_step (0, 5) FAR 17275 U 0.00
expand: firefly_step (0, 0) FAR  w(0) 17275.
	create_child: First_step (0, 5) FAR 17313 X 0.00
expand: First_step (0, 0) FAR  w(0) 17313. F 0.00
expand: top_step (1, 0) FAR  w(0) 16990. F 0.00
expand: MAIN (2, 0) FAR  w(0) 17077. F 0.00
expand: MAIN (3, 0) FAR  w(0) 2332.
	create_child: MAIN (2, 5) FAR 17650 U 0.00
expand: MAIN (2, 0) FAR  w(0) 17650.
	create_child: top_step (1, 5) FAR 17608 U 0.00
expand: top_step (1, 0) FAR  w(0) 17608.
	create_child: firefly_step (0, 5) FAR 16973 U 0.00
expand: firefly_step (0, 0) FAR  w(0) 16973. F 0.00
expand: top_step (1, 0) FAR  w(0) 17608. F 0.00
expand: MAIN (2, 0) FAR  w(0) 17650. F 0.00
expand: MAIN (3, 0) FAR  w(0) 2332.
	create_child: MAIN (2, 5) FAR 18348 U 0.00
expand: MAIN (2, 0) FAR  w(0) 18348.
	create_child: top_step (1, 5) FAR 18228 U 0.00
expand: top_step (1, 0) FAR  w(0) 18228.
	create_child: Sofar_step (0, 5) FAR 18347 U 0.00
expand: Sofar_step (0, 0) FAR  w(0) 18347. F 0.00
expand: top_step (1, 0) FAR  w(0) 18228. F 0.00
expand: MAIN (2, 0) FAR  w(0) 18348. F 0.00
expand: MAIN (3, 0) FAR  w(0) 2332.
	create_child: MAIN (2, 5) FAR 18734 U 0.00
expand: MAIN (2, 0) FAR  w(0) 18734.
	create_child: top_step (1, 5) FAR 18708 U 0.00
expand: top_step (1, 0) FAR  w(0) 18708.
	create_child: firefly_step (0, 5) FAR 18653 U 0.00
expand: firefly_step (0, 0) FAR  w(0) 18653. F 0.00
expand: top_step (1, 0) FAR  w(0) 18708. F 0.00
expand: MAIN (2, 0) FAR  w(0) 18734. F 0.00
expand: MAIN (3, 0) FAR  w(0) 2332.
	create_child: MAIN (2, 5) FAR 19252 U 0.00
expand: MAIN (2, 0) FAR  w(0) 19252.
	create_child: top_step (1, 5) FAR 19221 U 0.00
expand: top_step (1, 0) FAR  w(0) 19221. F 0.00
expand: MAIN (2, 0) FAR  w(0) 19252. F 0.00
expand: MAIN (3, 0) FAR  w(0) 2332.
	create_child: MAIN (2, 5) FAR 19429 U 0.00
expand: MAIN (2, 0) FAR  w(0) 19429.
	create_child: top_step (1, 5) FAR 19370 U 0.00
expand: top_step (1, 0) FAR  w(0) 19370.
	create_child: First_step (0, 5) FAR 19514 U 0.00
expand: First_step (0, 0) FAR  w(0) 19514. F 0.00
expand: top_step (1, 0) FAR  w(0) 19370. F 0.00
expand: MAIN (2, 0) FAR  w(0) 19429. F 0.00
expand: MAIN (3, 0) FAR  w(0) 2332.
	create_child: MAIN (2, 5) FAR 19546 U 0.00
expand: MAIN (2, 0) FAR  w(0) 19546.
	create_child: top_step (1, 5) FAR 19427 U 0.00
expand: top_step (1, 0) FAR  w(0) 19427.
	create_child: firefly_step (0, 5) FAR 19519 U 0.00
expand: firefly_step (0, 0) FAR  w(0) 19519. F 0.00
expand: top_step (1, 0) FAR  w(0) 19427. F 0.00
expand: MAIN (2, 0) FAR  w(0) 19546. F 0.00
expand: MAIN (3, 0) FAR  w(0) 2332.
	create_child: MAIN (2, 5) FAR 19778 U 0.00
expand: MAIN (2, 0) FAR  w(0) 19778.
	create_child: top_step (1, 5) FAR 19467 U 0.00
expand: top_step (1, 0) FAR  w(0) 19467.
	create_child: firefly_step (0, 5) FAR 19389 U 0.00
expand: firefly_step (0, 0) FAR  w(0) 19389. F 0.00
expand: top_step (1, 0) FAR  w(0) 19467. F 0.00
expand: MAIN (2, 0) FAR  w(0) 19778. F 0.00
expand: MAIN (3, 0) FAR  w(0) 2332.
	create_child: MAIN (2, 5) FAR 20600 U 0.00
expand: MAIN (2, 0) FAR  w(0) 20600.
	create_child: top_step (1, 5) FAR 20560 U 0.00
expand: top_step (1, 0) FAR  w(0) 20560.
	create_child: firefly_step (0, 5) FAR 20686 U 0.00
expand: firefly_step (0, 0) FAR  w(0) 20686. F 0.00
expand: top_step (1, 0) FAR  w(0) 20560. F 0.00
expand: MAIN (2, 0) FAR  w(0) 20600. F 0.00
expand: MAIN (3, 0) FAR  w(0) 2332.
	create_child: top_step (2, 5) FAR 21294 U 0.00
expand: top_step (2, 0) FAR  w(0) 21294.
	create_child: excludes8_fun (1, 5) FAR 23974 U 0.01
expand: excludes8_fun (1, 0) FAR  w(0) 23974. F 0.00
expand: top_step (2, 0) FAR  w(0) 21294.
	create_child: excludes8_fun (1, 5) FAR 24390 U 0.01
expand: excludes8_fun (1, 0) FAR  w(0) 24390. F 0.00
expand: top_step (2, 0) FAR  w(0) 21294.
	create_child: excludes8_fun (1, 5) FAR 24587 U 0.00
expand: excludes8_fun (1, 0) FAR  w(0) 24587. F 0.00
expand: top_step (2, 0) FAR  w(0) 21294.
	create_child: excludes8_fun (1, 5) FAR 24818 U 0.00
expand: excludes8_fun (1, 0) FAR  w(0) 24818. F 0.00
expand: top_step (2, 0) FAR  w(0) 21294.
	create_child: excludes8_fun (1, 5) FAR 24900 U 0.00
expand: excludes8_fun (1, 0) FAR  w(0) 24900. F 0.00
expand: top_step (2, 0) FAR  w(0) 21294.
	create_child: excludes8_fun (1, 5) FAR 24987 U 0.00
expand: excludes8_fun (1, 0) FAR  w(0) 24987. F 0.00
expand: top_step (2, 0) FAR  w(0) 21294.
	create_child: excludes8_fun (1, 5) FAR 25007 U 0.00
expand: excludes8_fun (1, 0) FAR  w(0) 25007.
	create_child: First_step (1, 5) FAR 24906 X 0.00
expand: First_step (1, 0) FAR  w(0) 24906. F 0.00
expand: top_step (2, 0) FAR  w(0) 21294.
	create_child: excludes8_fun (1, 5) FAR 25007 U 0.00
expand: excludes8_fun (1, 0) FAR  w(0) 25007.
	create_child: First_step (1, 5) FAR 25396 X 0.00
expand: First_step (1, 0) FAR  w(0) 25396. F 0.00
expand: top_step (2, 0) FAR  w(0) 21294.
	create_child: excludes8_fun (1, 5) FAR 1671 U 0.01
expand: excludes8_fun (1, 0) FAR  w(0) 1671.
	create_child: firefly_step (1, 5) FAR 25115 X 0.00
expand: firefly_step (1, 0) FAR  w(0) 25115. F 0.01
expand: top_step (2, 0) FAR  w(0) 21294.
	create_child: excludes8_fun (1, 5) FAR 25987 U 0.01
expand: excludes8_fun (1, 0) FAR  w(0) 25987.
	create_child: firefly_step (1, 5) FAR 25975 X 0.00
expand: firefly_step (1, 0) FAR  w(0) 25975. F 0.01
expand: top_step (2, 0) FAR  w(0) 21294.
	create_child: excludes8_fun (1, 5) FAR 25904 U 0.00
expand: excludes8_fun (1, 0) FAR  w(0) 25904.
	create_child: firefly_step (1, 5) FAR 26371 X 0.00
expand: firefly_step (1, 0) FAR  w(0) 26371. F 0.01
expand: top_step (2, 0) FAR  w(0) 21294.
	create_child: excludes8_fun (1, 5) FAR 26354 U 0.00
expand: excludes8_fun (1, 0) FAR  w(0) 26354. F 0.00
expand: top_step (2, 0) FAR  w(0) 21294.
	create_child: excludes8_fun (1, 5) FAR 1671 U 0.00
expand: excludes8_fun (1, 0) FAR  w(0) 1671.
	create_child: firefly_step (1, 5) FAR 25886 X 0.00
expand: firefly_step (1, 0) FAR  w(0) 25886. F 0.01
expand: top_step (2, 0) FAR  w(0) 21294.
	create_child: excludes8_fun (1, 5) FAR 25987 U 0.00
expand: excludes8_fun (1, 0) FAR  w(0) 25987.
	create_child: firefly_step (1, 5) FAR 28150 X 0.00
expand: firefly_step (1, 0) FAR  w(0) 28150. F 0.01
expand: top_step (2, 0) FAR  w(0) 21294.
	create_child: excludes8_fun (1, 5) FAR 28031 U 0.01
expand: excludes8_fun (1, 0) FAR  w(0) 28031.
	create_child: firefly_step (1, 5) FAR 28560 X 0.00
expand: firefly_step (1, 0) FAR  w(0) 28560. F 0.01
expand: top_step (2, 0) FAR  w(0) 21294.
	create_child: excludes8_fun (1, 5) FAR 28025 U 0.00
expand: excludes8_fun (1, 0) FAR  w(0) 28025. F 0.00
expand: top_step (2, 0) FAR  w(0) 21294.
	create_child: excludes8_fun (1, 5) FAR 28507 U 0.00
expand: excludes8_fun (1, 0) FAR  w(0) 28507.
	create_child: firefly_step (1, 5) FAR 28859 X 0.00
expand: firefly_step (1, 0) FAR  w(0) 28859. F 0.01
expand: top_step (2, 0) FAR  w(0) 21294.
	create_child: excludes8_fun (1, 5) FAR 28059 U 0.00
expand: excludes8_fun (1, 0) FAR  w(0) 28059. F 0.00
expand: top_step (2, 0) FAR  w(0) 21294.
	create_child: excludes8_fun (1, 5) FAR 29283 U 0.00
expand: excludes8_fun (1, 0) FAR  w(0) 29283.
	create_child: Sofar_step (1, 5) FAR 29062 X 0.00
expand: Sofar_step (1, 0) FAR  w(0) 29062. F 0.00
expand: top_step (2, 0) FAR  w(0) 21294. F 0.02
expand: MAIN (3, 0) FAR  w(0) 2332. F 0.00
expand: ERR (4, 0) FAR  w(0) 1. F 0.00
expand: query!0 (5, 0) FAR  w(0) 1. F 0.00
(spacer::context::check_reachability :time 0.34 :before-memory 22.91 :after-memory 29.07)
Propagating: 0 1 2 3 4 5  ! 6 
(spacer::context::propagate :time 0.01 :before-memory 29.07 :after-memory 29.07)
Entering level 6
BRUNCH_STAT max_query_lvl 5
BRUNCH_STAT num_queries 75
BRUNCH_STAT num_reach_queries 1
BRUNCH_STAT num_reach_reuse 98
BRUNCH_STAT inductive_lvl 0
BRUNCH_STAT max_depth 6
BRUNCH_STAT cex_depth 0
expand: query!0 (6, 0) FAR  w(0) 1.
	create_child: ERR (5, 6) FAR 1 U 0.00
expand: ERR (5, 0) FAR  w(0) 1.
	create_child: MAIN (4, 6) FAR 2332 U 0.00
expand: MAIN (4, 0) FAR  w(0) 2332.
	create_child: MAIN (3, 6) FAR 31436 U 0.00
expand: MAIN (3, 0) FAR  w(0) 31436.
	create_child: top_step (2, 6) FAR 31373 U 0.00
expand: top_step (2, 0) FAR  w(0) 31373.
	create_child: Sofar_step (1, 6) FAR 31697 U 0.00
expand: Sofar_step (1, 0) FAR  w(0) 31697. F 0.00
expand: top_step (2, 0) FAR  w(0) 31373. F 0.01
expand: MAIN (3, 0) FAR  w(0) 31436. F 0.00
expand: MAIN (4, 0) FAR  w(0) 2332.
	create_child: MAIN (3, 6) FAR 20600 U 0.00
expand: MAIN (3, 0) FAR  w(0) 20600.
	create_child: top_step (2, 6) FAR 32280 U 0.00
expand: top_step (2, 0) FAR  w(0) 32280.
	create_child: firefly_step (1, 6) FAR 32382 U 0.00
expand: firefly_step (1, 0) FAR  w(0) 32382. F 0.00
expand: top_step (2, 0) FAR  w(0) 32280.
	create_child: Sofar_step (1, 6) FAR 32680 U 0.01
expand: Sofar_step (1, 0) FAR  w(0) 32680.
	create_child: firefly_step (1, 6) FAR 32745 X 0.00
expand: firefly_step (1, 0) FAR  w(0) 32745. F 0.01
expand: top_step (2, 0) FAR  w(0) 32280. F 0.01
expand: MAIN (3, 0) FAR  w(0) 20600. F 0.00
expand: MAIN (4, 0) FAR  w(0) 2332.
	create_child: MAIN (3, 6) FAR 34128 U 0.01
expand: MAIN (3, 0) FAR  w(0) 34128.
	create_child: top_step (2, 6) FAR 34019 U 0.00
expand: top_step (2, 0) FAR  w(0) 34019.
	create_child: First_step (1, 6) FAR 34335 U 0.00
expand: First_step (1, 0) FAR  w(0) 34335. F 0.00
expand: top_step (2, 0) FAR  w(0) 34019. F 0.01
expand: MAIN (3, 0) FAR  w(0) 34128. F 0.00
expand: MAIN (4, 0) FAR  w(0) 2332.
	create_child: MAIN (3, 6) FAR 34922 U 0.00
expand: MAIN (3, 0) FAR  w(0) 34922.
	create_child: MAIN (2, 6) FAR 35209 U 0.00
expand: MAIN (2, 0) FAR  w(0) 35209.
	create_child: top_reset (1, 6) FAR 35303 U 0.00
expand: top_reset (1, 0) FAR  w(0) 35303. T 0.00
is-reachable: MAIN (2, 0) FAR 35209 T 0.00
is-reachable: MAIN (3, 0) FAR 34922 T 0.00
is-reachable: MAIN (4, 0) FAR 2332 T 0.01
is-reachable: ERR (5, 0) FAR 1 T 0.00
is-reachable: query!0 (6, 0) FAR 1 T 0.00
(spacer::context::check_reachability :time 0.12 :before-memory 29.07 :after-memory 31.65)
BRUNCH_STAT max_query_lvl 6
BRUNCH_STAT num_queries 90
BRUNCH_STAT num_reach_queries 7
BRUNCH_STAT num_reach_reuse 117
BRUNCH_STAT inductive_lvl 0
BRUNCH_STAT max_depth 6
BRUNCH_STAT cex_depth 6
(:SPACER-cex-depth                     6
 :SPACER-max-depth                     6
 :SPACER-max-query-lvl                 6
 :SPACER-num-invariants                64
 :SPACER-num-lemmas                    91
 :SPACER-num-properties                80
 :SPACER-num-queries                   90
 :SPACER-num-reach-queries             7
 :SPACER-num-reuse-reach-facts         117
 :added-eqs                            25350
 :arith-add-rows                       10351
 :arith-assert-diseq                   5471
 :arith-assert-lower                   13433
 :arith-assert-upper                   13951
 :arith-bound-prop                     1178
 :arith-conflicts                      183
 :arith-eq-adapter                     5137
 :arith-fixed-eqs                      4450
 :arith-offset-eqs                     3506
 :arith-pivots                         1696
 :bool-inductive-gen                   77
 :bool-inductive-gen-failures          195
 :conflicts                            1085
 :decisions                            17635
 :del-clause                           1166
 :final-checks                         349
 :minimized-lits                       1109
 :mk-bool-var                          11263
 :mk-clause                            8402
 :num-checks                           754
 :propagations                         191769
 :time.itp_solver.itp_core             0.03
 :time.spacer.init_rules               0.01
 :time.spacer.init_rules.pt.init       0.00
 :time.spacer.solve                    0.53
 :time.spacer.solve.propagate          0.01
 :time.spacer.solve.pt.must_reachable  0.02
 :time.spacer.solve.reach              0.52
 :time.spacer.solve.reach.children     0.10
 :time.spacer.solve.reach.gen.bool_ind 0.13
 :time.spacer.solve.reach.is-reach     0.02
 :time.virtual_solver.proof            0.02
 :time.virtual_solver.smt.total        0.35
 :time.virtual_solver.smt.total.sat    0.21
 :virtual_solver.checks                754
 :virtual_solver.checks.sat            349)
BRUNCH_STAT max_query_lvl 6
BRUNCH_STAT num_queries 90
BRUNCH_STAT num_reach_queries 7
BRUNCH_STAT num_reach_reuse 117
BRUNCH_STAT inductive_lvl 0
BRUNCH_STAT max_depth 6
BRUNCH_STAT cex_depth 6

real	0m0.603s
user	0m0.588s
sys	0m0.012s
