(transform N7datalog13mk_coi_filterE...no-op 0s)
(transform N7datalog25mk_interp_tail_simplifierE...12 rules 0s)
(transform N7datalog27mk_quantifier_instantiationE...no-op 0s)
(transform N7datalog8mk_scaleE...no-op 0s)
(transform N7datalog18mk_karr_invariantsE...no-op 0s)
(transform N7datalog14mk_array_blastE...no-op 0s)
(transform N7datalog22mk_subsumption_checkerE...11 rules 0s)
(transform N7datalog12mk_bit_blastE...no-op 0s)
(transform N7datalog15mk_rule_inlinerE...no-op 0s)
(transform N7datalog13mk_coi_filterE...no-op 0s)
(transform N7datalog25mk_interp_tail_simplifierE...11 rules 0s)
(transform N7datalog22mk_subsumption_checkerE...no-op 0s)
(transform N7datalog15mk_rule_inlinerE...no-op 0s)
(transform N7datalog13mk_coi_filterE...no-op 0s)
(transform N7datalog25mk_interp_tail_simplifierE...11 rules 0s)
(transform N7datalog22mk_subsumption_checkerE...no-op 0s)
(transform N7datalog15mk_rule_inlinerE...no-op 0s)
(transform N7datalog22mk_subsumption_checkerE...no-op 0s)
(transform N7datalog15mk_rule_inlinerE...no-op 0s)
(transform N7datalog22mk_subsumption_checkerE...no-op 0s)
(transform N7datalog15mk_rule_inlinerE...no-op 0s)
(transform N7datalog22mk_subsumption_checkerE...no-op 0s)
expand: query!0 (0, 0) FAR  w(0) 1. F 0.00
(spacer::context::check_reachability :time 0.00 :before-memory 11.60 :after-memory 11.98)
Entering level 1
BRUNCH_STAT max_query_lvl 0
BRUNCH_STAT num_queries 0
BRUNCH_STAT num_reach_queries 0
BRUNCH_STAT num_reach_reuse 0
BRUNCH_STAT inductive_lvl 0
BRUNCH_STAT max_depth 1
BRUNCH_STAT cex_depth 0
expand: query!0 (1, 0) FAR  w(0) 1.
	create_child: ERR (0, 1) FAR 1 U 0.00
expand: ERR (0, 0) FAR  w(0) 1. F 0.00
expand: query!0 (1, 0) FAR  w(0) 1. F 0.00
(spacer::context::check_reachability :time 0.00 :before-memory 11.98 :after-memory 12.42)
Propagating: 0 1  ! 2 
(spacer::context::propagate :time 0.00 :before-memory 12.42 :after-memory 12.42)
Entering level 2
BRUNCH_STAT max_query_lvl 1
BRUNCH_STAT num_queries 1
BRUNCH_STAT num_reach_queries 0
BRUNCH_STAT num_reach_reuse 0
BRUNCH_STAT inductive_lvl 0
BRUNCH_STAT max_depth 2
BRUNCH_STAT cex_depth 0
expand: query!0 (2, 0) FAR  w(0) 1.
	create_child: ERR (1, 2) FAR 1 U 0.00
expand: ERR (1, 0) FAR  w(0) 1.
	create_child: MAIN (0, 2) FAR 2150 U 0.00
expand: MAIN (0, 0) FAR  w(0) 2150. F 0.00
expand: ERR (1, 0) FAR  w(0) 1. F 0.00
expand: query!0 (2, 0) FAR  w(0) 1. F 0.00
(spacer::context::check_reachability :time 0.00 :before-memory 12.42 :after-memory 12.89)
Propagating: 0 1 2  ! 3 
(spacer::context::propagate :time 0.00 :before-memory 12.89 :after-memory 12.89)
Entering level 3
BRUNCH_STAT max_query_lvl 2
BRUNCH_STAT num_queries 3
BRUNCH_STAT num_reach_queries 0
BRUNCH_STAT num_reach_reuse 0
BRUNCH_STAT inductive_lvl 0
BRUNCH_STAT max_depth 3
BRUNCH_STAT cex_depth 0
expand: query!0 (3, 0) FAR  w(0) 1.
	create_child: ERR (2, 3) FAR 1 U 0.00
expand: ERR (2, 0) FAR  w(0) 1.
	create_child: MAIN (1, 3) FAR 2150 U 0.00
expand: MAIN (1, 0) FAR  w(0) 2150.
	create_child: top_step (0, 3) FAR 2856 U 0.00
expand: top_step (0, 0) FAR  w(0) 2856. F 0.00
expand: MAIN (1, 0) FAR  w(0) 2150. F 0.00
expand: ERR (2, 0) FAR  w(0) 1. F 0.00
expand: query!0 (3, 0) FAR  w(0) 1. F 0.00
(spacer::context::check_reachability :time 0.01 :before-memory 12.89 :after-memory 13.92)
Propagating: 0 1 2 3  ! 4 
(spacer::context::propagate :time 0.00 :before-memory 13.92 :after-memory 14.02)
Entering level 4
BRUNCH_STAT max_query_lvl 3
BRUNCH_STAT num_queries 6
BRUNCH_STAT num_reach_queries 0
BRUNCH_STAT num_reach_reuse 0
BRUNCH_STAT inductive_lvl 0
BRUNCH_STAT max_depth 4
BRUNCH_STAT cex_depth 0
expand: query!0 (4, 0) FAR  w(0) 1.
	create_child: ERR (3, 4) FAR 1 U 0.00
expand: ERR (3, 0) FAR  w(0) 1.
	create_child: MAIN (2, 4) FAR 2150 U 0.00
expand: MAIN (2, 0) FAR  w(0) 2150.
	create_child: top_step (1, 4) FAR 2856 U 0.00
expand: top_step (1, 0) FAR  w(0) 2856.
	create_child: top_reset (1, 4) FAR 8227 X 0.01
expand: top_reset (1, 0) FAR  w(0) 8227.
	create_child: firefly_reset (0, 4) FAR 8662 U 0.00
expand: firefly_reset (0, 0) FAR  w(0) 8662. F 0.00
expand: top_reset (1, 0) FAR  w(0) 8227. F 0.00
expand: MAIN (2, 0) FAR  w(0) 2150.
	create_child: top_step (1, 4) FAR 11433 U 0.00
expand: top_step (1, 0) FAR  w(0) 11433.
	create_child: firefly_step (0, 4) FAR 11477 U 0.00
expand: firefly_step (0, 0) FAR  w(0) 11477. F 0.00
expand: top_step (1, 0) FAR  w(0) 11433. F 0.00
expand: MAIN (2, 0) FAR  w(0) 2150. F 0.00
expand: ERR (3, 0) FAR  w(0) 1. F 0.00
expand: query!0 (4, 0) FAR  w(0) 1. F 0.00
(spacer::context::check_reachability :time 0.02 :before-memory 14.02 :after-memory 18.13)
Propagating: 0 1 2 3 4  ! 5 
(spacer::context::propagate :time 0.00 :before-memory 18.13 :after-memory 18.13)
Entering level 5
BRUNCH_STAT max_query_lvl 4
BRUNCH_STAT num_queries 12
BRUNCH_STAT num_reach_queries 1
BRUNCH_STAT num_reach_reuse 5
BRUNCH_STAT inductive_lvl 0
BRUNCH_STAT max_depth 5
BRUNCH_STAT cex_depth 0
expand: query!0 (5, 0) FAR  w(0) 1.
	create_child: ERR (4, 5) FAR 1 U 0.00
expand: ERR (4, 0) FAR  w(0) 1.
	create_child: MAIN (3, 5) FAR 2150 U 0.00
expand: MAIN (3, 0) FAR  w(0) 2150.
	create_child: MAIN (2, 5) FAR 14065 U 0.00
expand: MAIN (2, 0) FAR  w(0) 14065.
	create_child: top_step (1, 5) FAR 13928 U 0.00
expand: top_step (1, 0) FAR  w(0) 13928.
	create_child: firefly_step (0, 5) FAR 14139 U 0.00
expand: firefly_step (0, 0) FAR  w(0) 14139. F 0.00
expand: top_step (1, 0) FAR  w(0) 13928. F 0.00
expand: MAIN (2, 0) FAR  w(0) 14065. F 0.00
expand: MAIN (3, 0) FAR  w(0) 2150.
	create_child: top_step (2, 5) FAR 14299 U 0.00
expand: top_step (2, 0) FAR  w(0) 14299.
	create_child: firefly_step (1, 5) FAR 14798 U 0.00
expand: firefly_step (1, 0) FAR  w(0) 14798. F 0.00
expand: top_step (2, 0) FAR  w(0) 14299.
	create_child: firefly_step (1, 5) FAR 14980 U 0.00
expand: firefly_step (1, 0) FAR  w(0) 14980. F 0.00
expand: top_step (2, 0) FAR  w(0) 14299. F 0.00
expand: MAIN (3, 0) FAR  w(0) 2150. F 0.00
expand: ERR (4, 0) FAR  w(0) 1. F 0.00
expand: query!0 (5, 0) FAR  w(0) 1. F 0.00
(spacer::context::check_reachability :time 0.02 :before-memory 18.13 :after-memory 18.64)
Propagating: 0 1 2 3 4 5  ! 6 
(spacer::context::propagate :time 0.00 :before-memory 18.64 :after-memory 18.64)
Entering level 6
BRUNCH_STAT max_query_lvl 5
BRUNCH_STAT num_queries 20
BRUNCH_STAT num_reach_queries 1
BRUNCH_STAT num_reach_reuse 12
BRUNCH_STAT inductive_lvl 0
BRUNCH_STAT max_depth 6
BRUNCH_STAT cex_depth 0
expand: query!0 (6, 0) FAR  w(0) 1.
	create_child: ERR (5, 6) FAR 1 U 0.00
expand: ERR (5, 0) FAR  w(0) 1.
	create_child: MAIN (4, 6) FAR 2150 U 0.00
expand: MAIN (4, 0) FAR  w(0) 2150.
	create_child: MAIN (3, 6) FAR 15474 U 0.00
expand: MAIN (3, 0) FAR  w(0) 15474.
	create_child: top_step (2, 6) FAR 15427 U 0.00
expand: top_step (2, 0) FAR  w(0) 15427.
	create_child: Sofar_step (1, 6) FAR 15502 U 0.00
expand: Sofar_step (1, 0) FAR  w(0) 15502. F 0.00
expand: top_step (2, 0) FAR  w(0) 15427. F 0.00
expand: MAIN (3, 0) FAR  w(0) 15474. F 0.00
expand: MAIN (4, 0) FAR  w(0) 2150.
	create_child: MAIN (3, 6) FAR 15929 U 0.00
expand: MAIN (3, 0) FAR  w(0) 15929.
	create_child: top_step (2, 6) FAR 15824 U 0.00
expand: top_step (2, 0) FAR  w(0) 15824.
	create_child: Sofar_step (1, 6) FAR 15941 U 0.00
expand: Sofar_step (1, 0) FAR  w(0) 15941.
	create_child: firefly_step (1, 6) FAR 15921 X 0.00
expand: firefly_step (1, 0) FAR  w(0) 15921. F 0.00
expand: top_step (2, 0) FAR  w(0) 15824. F 0.00
expand: MAIN (3, 0) FAR  w(0) 15929. F 0.00
expand: MAIN (4, 0) FAR  w(0) 2150.
	create_child: MAIN (3, 6) FAR 14065 U 0.00
expand: MAIN (3, 0) FAR  w(0) 14065.
	create_child: MAIN (2, 6) FAR 16246 U 0.00
expand: MAIN (2, 0) FAR  w(0) 16246.
	create_child: top_step (1, 6) FAR 15773 U 0.00
expand: top_step (1, 0) FAR  w(0) 15773.
	create_child: firefly_step (0, 6) FAR 16295 U 0.00
expand: firefly_step (0, 0) FAR  w(0) 16295. F 0.00
expand: top_step (1, 0) FAR  w(0) 15773. F 0.00
expand: MAIN (2, 0) FAR  w(0) 16246. F 0.00
expand: MAIN (3, 0) FAR  w(0) 14065.
	create_child: top_step (2, 6) FAR 16516 U 0.00
expand: top_step (2, 0) FAR  w(0) 16516.
	create_child: excludes8_fun (1, 6) FAR 17127 U 0.00
expand: excludes8_fun (1, 0) FAR  w(0) 17127. F 0.00
expand: top_step (2, 0) FAR  w(0) 16516.
	create_child: excludes8_fun (1, 6) FAR 17263 U 0.00
expand: excludes8_fun (1, 0) FAR  w(0) 17263.
	create_child: firefly_step (1, 6) FAR 17533 X 0.00
expand: firefly_step (1, 0) FAR  w(0) 17533. F 0.00
expand: top_step (2, 0) FAR  w(0) 16516.
	create_child: Sofar_step (1, 6) FAR 17769 U 0.00
expand: Sofar_step (1, 0) FAR  w(0) 17769. F 0.00
expand: top_step (2, 0) FAR  w(0) 16516.
	create_child: excludes8_fun (1, 6) FAR 17890 U 0.00
expand: excludes8_fun (1, 0) FAR  w(0) 17890.
	create_child: Sofar_step (1, 6) FAR 15941 X 0.00
expand: Sofar_step (1, 0) FAR  w(0) 15941.
	create_child: firefly_step (1, 6) FAR 17897 X 0.00
expand: firefly_step (1, 0) FAR  w(0) 17897. F 0.00
expand: top_step (2, 0) FAR  w(0) 16516.
	create_child: excludes8_fun (1, 6) FAR 18009 U 0.00
expand: excludes8_fun (1, 0) FAR  w(0) 18009.
	create_child: Sofar_step (1, 6) FAR 15941 X 0.00
expand: Sofar_step (1, 0) FAR  w(0) 15941.
	create_child: firefly_step (1, 6) FAR 17914 X 0.00
expand: firefly_step (1, 0) FAR  w(0) 17914. F 0.00
expand: top_step (2, 0) FAR  w(0) 16516.
	create_child: excludes8_fun (1, 6) FAR 18190 U 0.00
expand: excludes8_fun (1, 0) FAR  w(0) 18190. F 0.00
expand: top_step (2, 0) FAR  w(0) 16516. F 0.01
expand: MAIN (3, 0) FAR  w(0) 14065. F 0.00
expand: MAIN (4, 0) FAR  w(0) 2150.
	create_child: MAIN (3, 6) FAR 18660 U 0.00
expand: MAIN (3, 0) FAR  w(0) 18660.
	create_child: top_step (2, 6) FAR 18531 U 0.00
expand: top_step (2, 0) FAR  w(0) 18531.
	create_child: excludes8_fun (1, 6) FAR 18009 U 0.00
expand: excludes8_fun (1, 0) FAR  w(0) 18009.
	create_child: Sofar_step (1, 6) FAR 15941 X 0.00
expand: Sofar_step (1, 0) FAR  w(0) 15941.
	create_child: firefly_step (1, 6) FAR 18683 X 0.00
expand: firefly_step (1, 0) FAR  w(0) 18683. F 0.00
expand: top_step (2, 0) FAR  w(0) 18531. F 0.00
expand: MAIN (3, 0) FAR  w(0) 18660. F 0.00
expand: MAIN (4, 0) FAR  w(0) 2150.
	create_child: top_step (3, 6) FAR 18897 U 0.00
expand: top_step (3, 0) FAR  w(0) 18897.
	create_child: firefly_step (2, 6) FAR 18964 U 0.00
expand: firefly_step (2, 0) FAR  w(0) 18964. F 0.00
expand: top_step (3, 0) FAR  w(0) 18897.
	create_child: firefly_step (2, 6) FAR 19142 U 0.00
expand: firefly_step (2, 0) FAR  w(0) 19142. F 0.00
expand: top_step (3, 0) FAR  w(0) 18897. F 0.00
expand: MAIN (4, 0) FAR  w(0) 2150.
	create_child: top_step (3, 6) FAR 19442 U 0.00
expand: top_step (3, 0) FAR  w(0) 19442.
	create_child: Sofar_step (2, 6) FAR 19705 U 0.00
expand: Sofar_step (2, 0) FAR  w(0) 19705. F 0.00
expand: top_step (3, 0) FAR  w(0) 19442. F 0.00
expand: MAIN (4, 0) FAR  w(0) 2150. F 0.00
expand: ERR (5, 0) FAR  w(0) 1. F 0.00
expand: query!0 (6, 0) FAR  w(0) 1. F 0.00
(spacer::context::check_reachability :time 0.11 :before-memory 18.64 :after-memory 21.63)
Propagating: 0 1 2 3 4 5 6  ! 7 
(spacer::context::propagate :time 0.00 :before-memory 21.63 :after-memory 21.63)
Entering level 7
BRUNCH_STAT max_query_lvl 6
BRUNCH_STAT num_queries 47
BRUNCH_STAT num_reach_queries 1
BRUNCH_STAT num_reach_reuse 32
BRUNCH_STAT inductive_lvl 0
BRUNCH_STAT max_depth 7
BRUNCH_STAT cex_depth 0
expand: query!0 (7, 0) FAR  w(0) 1.
	create_child: ERR (6, 7) FAR 1 U 0.00
expand: ERR (6, 0) FAR  w(0) 1.
	create_child: MAIN (5, 7) FAR 2150 U 0.00
expand: MAIN (5, 0) FAR  w(0) 2150.
	create_child: MAIN (4, 7) FAR 14065 U 0.00
expand: MAIN (4, 0) FAR  w(0) 14065.
	create_child: MAIN (3, 7) FAR 16246 U 0.00
expand: MAIN (3, 0) FAR  w(0) 16246.
	create_child: top_step (2, 7) FAR 20007 U 0.00
expand: top_step (2, 0) FAR  w(0) 20007.
	create_child: Sofar_step (1, 7) FAR 20054 U 0.00
expand: Sofar_step (1, 0) FAR  w(0) 20054. F 0.00
expand: top_step (2, 0) FAR  w(0) 20007. F 0.00
expand: MAIN (3, 0) FAR  w(0) 16246.
	create_child: top_step (2, 7) FAR 20149 U 0.00
expand: top_step (2, 0) FAR  w(0) 20149.
	create_child: firefly_step (1, 7) FAR 20235 U 0.00
expand: firefly_step (1, 0) FAR  w(0) 20235. F 0.00
expand: top_step (2, 0) FAR  w(0) 20149. F 0.00
expand: MAIN (3, 0) FAR  w(0) 16246. F 0.00
expand: MAIN (4, 0) FAR  w(0) 14065.
	create_child: MAIN (3, 7) FAR 20673 U 0.00
expand: MAIN (3, 0) FAR  w(0) 20673.
	create_child: top_step (2, 7) FAR 20727 U 0.00
expand: top_step (2, 0) FAR  w(0) 20727.
	create_child: excludes8_fun (1, 7) FAR 18009 U 0.00
expand: excludes8_fun (1, 0) FAR  w(0) 18009.
	create_child: firefly_step (1, 7) FAR 20964 X 0.00
expand: firefly_step (1, 0) FAR  w(0) 20964. F 0.00
expand: top_step (2, 0) FAR  w(0) 20727. F 0.01
expand: MAIN (3, 0) FAR  w(0) 20673. F 0.00
expand: MAIN (4, 0) FAR  w(0) 14065.
	create_child: top_step (3, 7) FAR 21905 U 0.00
expand: top_step (3, 0) FAR  w(0) 21905.
	create_child: excludes8_fun (2, 7) FAR 22090 U 0.00
expand: excludes8_fun (2, 0) FAR  w(0) 22090. F 0.00
expand: top_step (3, 0) FAR  w(0) 21905.
	create_child: excludes8_fun (2, 7) FAR 22136 U 0.00
expand: excludes8_fun (2, 0) FAR  w(0) 22136. F 0.00
expand: top_step (3, 0) FAR  w(0) 21905.
	create_child: excludes8_fun (2, 7) FAR 22111 U 0.00
expand: excludes8_fun (2, 0) FAR  w(0) 22111. F 0.00
expand: top_step (3, 0) FAR  w(0) 21905.
	create_child: firefly_step (2, 7) FAR 22132 U 0.00
expand: firefly_step (2, 0) FAR  w(0) 22132. F 0.00
expand: top_step (3, 0) FAR  w(0) 21905.
	create_child: firefly_step (2, 7) FAR 21075 U 0.00
expand: firefly_step (2, 0) FAR  w(0) 21075. F 0.00
expand: top_step (3, 0) FAR  w(0) 21905. F 0.01
expand: MAIN (4, 0) FAR  w(0) 14065.
	create_child: top_step (3, 7) FAR 21925 U 0.00
expand: top_step (3, 0) FAR  w(0) 21925.
	create_child: Sofar_step (2, 7) FAR 15941 U 0.00
expand: Sofar_step (2, 0) FAR  w(0) 15941.
	create_child: firefly_step (2, 7) FAR 22327 X 0.00
expand: firefly_step (2, 0) FAR  w(0) 22327. F 0.00
expand: top_step (3, 0) FAR  w(0) 21925.
	create_child: firefly_step (2, 7) FAR 22411 U 0.00
expand: firefly_step (2, 0) FAR  w(0) 22411. F 0.00
expand: top_step (3, 0) FAR  w(0) 21925. F 0.01
expand: MAIN (4, 0) FAR  w(0) 14065. F 0.00
expand: MAIN (5, 0) FAR  w(0) 2150.
	create_child: MAIN (4, 7) FAR 22763 U 0.00
expand: MAIN (4, 0) FAR  w(0) 22763.
	create_child: top_step (3, 7) FAR 22643 U 0.00
expand: top_step (3, 0) FAR  w(0) 22643. F 0.00
expand: MAIN (4, 0) FAR  w(0) 22763. F 0.00
expand: MAIN (5, 0) FAR  w(0) 2150. F 0.00
expand: ERR (6, 0) FAR  w(0) 1. F 0.00
expand: query!0 (7, 0) FAR  w(0) 1. F 0.00
(spacer::context::check_reachability :time 0.11 :before-memory 21.63 :after-memory 22.38)
Propagating: 1 2 3 4 5 6 7  ! 8 
(spacer::context::propagate :time 0.00 :before-memory 22.38 :after-memory 22.38)
Entering level 8
BRUNCH_STAT max_query_lvl 7
BRUNCH_STAT num_queries 69
BRUNCH_STAT num_reach_queries 1
BRUNCH_STAT num_reach_reuse 53
BRUNCH_STAT inductive_lvl 0
BRUNCH_STAT max_depth 8
BRUNCH_STAT cex_depth 0
expand: query!0 (8, 0) FAR  w(0) 1.
	create_child: ERR (7, 8) FAR 1 U 0.00
expand: ERR (7, 0) FAR  w(0) 1.
	create_child: MAIN (6, 8) FAR 2150 U 0.00
expand: MAIN (6, 0) FAR  w(0) 2150.
	create_child: MAIN (5, 8) FAR 14065 U 0.00
expand: MAIN (5, 0) FAR  w(0) 14065.
	create_child: MAIN (4, 8) FAR 16246 U 0.00
expand: MAIN (4, 0) FAR  w(0) 16246.
	create_child: MAIN (3, 8) FAR 23187 U 0.00
expand: MAIN (3, 0) FAR  w(0) 23187.
	create_child: MAIN (2, 8) FAR 23182 U 0.00
expand: MAIN (2, 0) FAR  w(0) 23182.
	create_child: top_step (1, 8) FAR 23122 U 0.00
expand: top_step (1, 0) FAR  w(0) 23122.
	create_child: firefly_step (0, 8) FAR 23179 U 0.00
expand: firefly_step (0, 0) FAR  w(0) 23179. F 0.00
expand: top_step (1, 0) FAR  w(0) 23122. F 0.00
expand: MAIN (2, 0) FAR  w(0) 23182. F 0.00
expand: MAIN (3, 0) FAR  w(0) 23187.
	create_child: top_step (2, 8) FAR 23654 U 0.00
expand: top_step (2, 0) FAR  w(0) 23654.
	create_child: excludes8_fun (1, 8) FAR 24306 U 0.01
expand: excludes8_fun (1, 0) FAR  w(0) 24306. F 0.00
expand: top_step (2, 0) FAR  w(0) 23654.
	create_child: excludes8_fun (1, 8) FAR 24450 U 0.00
expand: excludes8_fun (1, 0) FAR  w(0) 24450.
	create_child: firefly_step (1, 8) FAR 24466 X 0.00
expand: firefly_step (1, 0) FAR  w(0) 24466. F 0.00
expand: top_step (2, 0) FAR  w(0) 23654.
	create_child: excludes8_fun (1, 8) FAR 24700 U 0.00
expand: excludes8_fun (1, 0) FAR  w(0) 24700.
	create_child: firefly_step (1, 8) FAR 24667 X 0.00
expand: firefly_step (1, 0) FAR  w(0) 24667. F 0.01
expand: top_step (2, 0) FAR  w(0) 23654.
	create_child: excludes8_fun (1, 8) FAR 24864 U 0.00
expand: excludes8_fun (1, 0) FAR  w(0) 24864. F 0.00
expand: top_step (2, 0) FAR  w(0) 23654. F 0.01
expand: MAIN (3, 0) FAR  w(0) 23187. F 0.00
expand: MAIN (4, 0) FAR  w(0) 16246.
	create_child: top_step (3, 8) FAR 25293 U 0.00
expand: top_step (3, 0) FAR  w(0) 25293.
	create_child: firefly_step (2, 8) FAR 25534 U 0.00
expand: firefly_step (2, 0) FAR  w(0) 25534. F 0.00
expand: top_step (3, 0) FAR  w(0) 25293. F 0.00
expand: MAIN (4, 0) FAR  w(0) 16246. F 0.00
expand: MAIN (5, 0) FAR  w(0) 14065.
	create_child: MAIN (4, 8) FAR 20673 U 0.00
expand: MAIN (4, 0) FAR  w(0) 20673.
	create_child: top_step (3, 8) FAR 25838 U 0.00
expand: top_step (3, 0) FAR  w(0) 25838.
	create_child: excludes8_fun (2, 8) FAR 25297 U 0.00
expand: excludes8_fun (2, 0) FAR  w(0) 25297.
	create_child: firefly_step (2, 8) FAR 26020 X 0.00
expand: firefly_step (2, 0) FAR  w(0) 26020. F 0.01
expand: top_step (3, 0) FAR  w(0) 25838.
	create_child: excludes8_fun (2, 8) FAR 25962 U 0.00
expand: excludes8_fun (2, 0) FAR  w(0) 25962. F 0.00
expand: top_step (3, 0) FAR  w(0) 25838.
	create_child: excludes8_fun (2, 8) FAR 25943 U 0.00
expand: excludes8_fun (2, 0) FAR  w(0) 25943. F 0.00
expand: top_step (3, 0) FAR  w(0) 25838. F 0.01
expand: MAIN (4, 0) FAR  w(0) 20673.
	create_child: top_step (3, 8) FAR 25744 U 0.00
expand: top_step (3, 0) FAR  w(0) 25744.
	create_child: excludes8_fun (2, 8) FAR 26829 U 0.00
expand: excludes8_fun (2, 0) FAR  w(0) 26829. F 0.00
expand: top_step (3, 0) FAR  w(0) 25744.
	create_child: excludes8_fun (2, 8) FAR 26510 U 0.00
expand: excludes8_fun (2, 0) FAR  w(0) 26510. F 0.00
expand: top_step (3, 0) FAR  w(0) 25744.
	create_child: firefly_step (2, 8) FAR 26160 U 0.00
expand: firefly_step (2, 0) FAR  w(0) 26160. F 0.01
expand: top_step (3, 0) FAR  w(0) 25744.
	create_child: firefly_step (2, 8) FAR 26719 U 0.00
expand: firefly_step (2, 0) FAR  w(0) 26719. F 0.00
expand: top_step (3, 0) FAR  w(0) 25744.
	create_child: excludes8_fun (2, 8) FAR 26858 U 0.00
expand: excludes8_fun (2, 0) FAR  w(0) 26858. F 0.00
expand: top_step (3, 0) FAR  w(0) 25744.
	create_child: excludes8_fun (2, 8) FAR 26886 U 0.00
expand: excludes8_fun (2, 0) FAR  w(0) 26886. F 0.00
expand: top_step (3, 0) FAR  w(0) 25744.
	create_child: excludes8_fun (2, 8) FAR 26912 U 0.00
expand: excludes8_fun (2, 0) FAR  w(0) 26912. F 0.00
expand: top_step (3, 0) FAR  w(0) 25744. F 0.01
expand: MAIN (4, 0) FAR  w(0) 20673. F 0.00
expand: MAIN (5, 0) FAR  w(0) 14065. F 0.00
expand: MAIN (6, 0) FAR  w(0) 2150. F 0.00
expand: ERR (7, 0) FAR  w(0) 1. F 0.00
expand: query!0 (8, 0) FAR  w(0) 1. F 0.00
(spacer::context::check_reachability :time 0.16 :before-memory 22.38 :after-memory 24.00)
Propagating: 0 1 2 3 4 5 6 7 8  ! 9 
(spacer::context::propagate :time 0.01 :before-memory 24.00 :after-memory 24.17)
Entering level 9
BRUNCH_STAT max_query_lvl 8
BRUNCH_STAT num_queries 97
BRUNCH_STAT num_reach_queries 1
BRUNCH_STAT num_reach_reuse 80
BRUNCH_STAT inductive_lvl 0
BRUNCH_STAT max_depth 9
BRUNCH_STAT cex_depth 0
expand: query!0 (9, 0) FAR  w(0) 1.
	create_child: ERR (8, 9) FAR 1 U 0.00
expand: ERR (8, 0) FAR  w(0) 1.
	create_child: MAIN (7, 9) FAR 2150 U 0.00
expand: MAIN (7, 0) FAR  w(0) 2150.
	create_child: MAIN (6, 9) FAR 14065 U 0.00
expand: MAIN (6, 0) FAR  w(0) 14065.
	create_child: MAIN (5, 9) FAR 16246 U 0.00
expand: MAIN (5, 0) FAR  w(0) 16246.
	create_child: MAIN (4, 9) FAR 23187 U 0.00
expand: MAIN (4, 0) FAR  w(0) 23187.
	create_child: top_step (3, 9) FAR 27947 U 0.00
expand: top_step (3, 0) FAR  w(0) 27947.
	create_child: firefly_step (2, 9) FAR 28133 U 0.00
expand: firefly_step (2, 0) FAR  w(0) 28133. F 0.00
expand: top_step (3, 0) FAR  w(0) 27947.
	create_child: firefly_step (2, 9) FAR 28153 U 0.00
expand: firefly_step (2, 0) FAR  w(0) 28153. F 0.00
expand: top_step (3, 0) FAR  w(0) 27947. F 0.01
expand: MAIN (4, 0) FAR  w(0) 23187. F 0.00
expand: MAIN (5, 0) FAR  w(0) 16246. F 0.00
expand: MAIN (6, 0) FAR  w(0) 14065.
	create_child: MAIN (5, 9) FAR 20673 U 0.00
expand: MAIN (5, 0) FAR  w(0) 20673.
	create_child: MAIN (4, 9) FAR 28763 U 0.00
expand: MAIN (4, 0) FAR  w(0) 28763.
	create_child: top_step (3, 9) FAR 28913 U 0.00
expand: top_step (3, 0) FAR  w(0) 28913.
	create_child: Sofar_step (2, 9) FAR 15941 U 0.01
expand: Sofar_step (2, 0) FAR  w(0) 15941.
	create_child: firefly_step (2, 9) FAR 29185 X 0.00
expand: firefly_step (2, 0) FAR  w(0) 29185. F 0.00
expand: top_step (3, 0) FAR  w(0) 28913.
	create_child: Sofar_step (2, 9) FAR 15941 U 0.00
expand: Sofar_step (2, 0) FAR  w(0) 15941.
	create_child: firefly_step (2, 9) FAR 29501 X 0.00
expand: firefly_step (2, 0) FAR  w(0) 29501. F 0.00
expand: top_step (3, 0) FAR  w(0) 28913.
	create_child: Sofar_step (2, 9) FAR 15941 U 0.00
expand: Sofar_step (2, 0) FAR  w(0) 15941.
	create_child: firefly_step (2, 9) FAR 29610 X 0.00
expand: firefly_step (2, 0) FAR  w(0) 29610. F 0.00
expand: top_step (3, 0) FAR  w(0) 28913.
	create_child: Sofar_step (2, 9) FAR 15941 U 0.00
expand: Sofar_step (2, 0) FAR  w(0) 15941.
	create_child: firefly_step (2, 9) FAR 29480 X 0.00
expand: firefly_step (2, 0) FAR  w(0) 29480. F 0.00
expand: top_step (3, 0) FAR  w(0) 28913.
	create_child: Sofar_step (2, 9) FAR 15941 U 0.00
expand: Sofar_step (2, 0) FAR  w(0) 15941.
	create_child: firefly_step (2, 9) FAR 29605 X 0.00
expand: firefly_step (2, 0) FAR  w(0) 29605. F 0.00
expand: top_step (3, 0) FAR  w(0) 28913. F 0.01
expand: MAIN (4, 0) FAR  w(0) 28763.
	create_child: top_step (3, 9) FAR 30040 U 0.00
expand: top_step (3, 0) FAR  w(0) 30040.
	create_child: firefly_step (2, 9) FAR 29850 U 0.00
expand: firefly_step (2, 0) FAR  w(0) 29850. F 0.01
expand: top_step (3, 0) FAR  w(0) 30040.
	create_child: excludes8_fun (2, 9) FAR 30298 U 0.00
expand: excludes8_fun (2, 0) FAR  w(0) 30298. F 0.00
expand: top_step (3, 0) FAR  w(0) 30040. F 0.01
expand: MAIN (4, 0) FAR  w(0) 28763. F 0.00
expand: MAIN (5, 0) FAR  w(0) 20673.
	create_child: top_step (4, 9) FAR 30672 U 0.00
expand: top_step (4, 0) FAR  w(0) 30672.
	create_child: Sofar_step (3, 9) FAR 15941 U 0.00
expand: Sofar_step (3, 0) FAR  w(0) 15941.
	create_child: firefly_step (3, 9) FAR 30772 X 0.00
expand: firefly_step (3, 0) FAR  w(0) 30772. F 0.00
expand: top_step (4, 0) FAR  w(0) 30672. F 0.01
expand: MAIN (5, 0) FAR  w(0) 20673.
	create_child: top_step (4, 9) FAR 29930 U 0.00
expand: top_step (4, 0) FAR  w(0) 29930. F 0.01
expand: MAIN (5, 0) FAR  w(0) 20673. F 0.00
expand: MAIN (6, 0) FAR  w(0) 14065. F 0.00
expand: MAIN (7, 0) FAR  w(0) 2150. F 0.00
expand: ERR (8, 0) FAR  w(0) 1. F 0.00
expand: query!0 (9, 0) FAR  w(0) 1. F 0.00
(spacer::context::check_reachability :time 0.17 :before-memory 24.17 :after-memory 25.23)
Propagating: 2 3 4 5 6 7 8 9  ! 10 
(spacer::context::propagate :time 0.01 :before-memory 25.23 :after-memory 25.23)
Entering level 10
BRUNCH_STAT max_query_lvl 9
BRUNCH_STAT num_queries 119
BRUNCH_STAT num_reach_queries 1
BRUNCH_STAT num_reach_reuse 98
BRUNCH_STAT inductive_lvl 0
BRUNCH_STAT max_depth 10
BRUNCH_STAT cex_depth 0
expand: query!0 (10, 0) FAR  w(0) 1.
	create_child: ERR (9, 10) FAR 1 U 0.00
expand: ERR (9, 0) FAR  w(0) 1.
	create_child: MAIN (8, 10) FAR 2150 U 0.00
expand: MAIN (8, 0) FAR  w(0) 2150.
	create_child: MAIN (7, 10) FAR 14065 U 0.00
expand: MAIN (7, 0) FAR  w(0) 14065.
	create_child: MAIN (6, 10) FAR 20673 U 0.00
expand: MAIN (6, 0) FAR  w(0) 20673.
	create_child: MAIN (5, 10) FAR 28763 U 0.00
expand: MAIN (5, 0) FAR  w(0) 28763.
	create_child: top_step (4, 10) FAR 32173 U 0.00
expand: top_step (4, 0) FAR  w(0) 32173.
	create_child: Sofar_step (3, 10) FAR 15941 U 0.01
expand: Sofar_step (3, 0) FAR  w(0) 15941.
	create_child: firefly_step (3, 10) FAR 32562 X 0.00
expand: firefly_step (3, 0) FAR  w(0) 32562. F 0.00
expand: top_step (4, 0) FAR  w(0) 32173. F 0.01
expand: MAIN (5, 0) FAR  w(0) 28763.
	create_child: top_step (4, 10) FAR 32823 U 0.00
expand: top_step (4, 0) FAR  w(0) 32823.
	create_child: Sofar_step (3, 10) FAR 15941 U 0.00
expand: Sofar_step (3, 0) FAR  w(0) 15941.
	create_child: firefly_step (3, 10) FAR 32324 X 0.00
expand: firefly_step (3, 0) FAR  w(0) 32324. F 0.00
expand: top_step (4, 0) FAR  w(0) 32823. F 0.00
expand: MAIN (5, 0) FAR  w(0) 28763.
	create_child: top_step (4, 10) FAR 32953 U 0.00
expand: top_step (4, 0) FAR  w(0) 32953.
	create_child: firefly_step (3, 10) FAR 32418 U 0.00
expand: firefly_step (3, 0) FAR  w(0) 32418. F 0.01
expand: top_step (4, 0) FAR  w(0) 32953. F 0.01
expand: MAIN (5, 0) FAR  w(0) 28763. F 0.01
expand: MAIN (6, 0) FAR  w(0) 20673.
	create_child: top_step (5, 10) FAR 33812 U 0.00
expand: top_step (5, 0) FAR  w(0) 33812.
	create_child: excludes8_fun (4, 10) FAR 33894 U 0.00
expand: excludes8_fun (4, 0) FAR  w(0) 33894.
	create_child: firefly_step (4, 10) FAR 33864 X 0.00
expand: firefly_step (4, 0) FAR  w(0) 33864. F 0.00
expand: top_step (5, 0) FAR  w(0) 33812. F 0.01
expand: MAIN (6, 0) FAR  w(0) 20673. F 0.01
expand: MAIN (7, 0) FAR  w(0) 14065. F 0.00
expand: MAIN (8, 0) FAR  w(0) 2150. F 0.00
expand: ERR (9, 0) FAR  w(0) 1. F 0.00
expand: query!0 (10, 0) FAR  w(0) 1. F 0.00
(spacer::context::check_reachability :time 0.10 :before-memory 25.23 :after-memory 25.63)
Propagating: 3 4 5 6 7 8 9 10  ! 11 
(spacer::context::propagate :time 0.01 :before-memory 25.63 :after-memory 25.63)
Entering level 11
BRUNCH_STAT max_query_lvl 10
BRUNCH_STAT num_queries 132
BRUNCH_STAT num_reach_queries 1
BRUNCH_STAT num_reach_reuse 106
BRUNCH_STAT inductive_lvl 0
BRUNCH_STAT max_depth 11
BRUNCH_STAT cex_depth 0
expand: query!0 (11, 0) FAR  w(0) 1.
	create_child: ERR (10, 11) FAR 1 U 0.00
expand: ERR (10, 0) FAR  w(0) 1.
	create_child: MAIN (9, 11) FAR 2150 U 0.00
expand: MAIN (9, 0) FAR  w(0) 2150.
	create_child: MAIN (8, 11) FAR 14065 U 0.00
expand: MAIN (8, 0) FAR  w(0) 14065.
	create_child: MAIN (7, 11) FAR 20673 U 0.00
expand: MAIN (7, 0) FAR  w(0) 20673.
	create_child: MAIN (6, 11) FAR 28763 U 0.00
expand: MAIN (6, 0) FAR  w(0) 28763.
	create_child: top_step (5, 11) FAR 35034 U 0.00
expand: top_step (5, 0) FAR  w(0) 35034.
	create_child: excludes8_fun (4, 11) FAR 35404 U 0.01
expand: excludes8_fun (4, 0) FAR  w(0) 35404. F 0.00
expand: top_step (5, 0) FAR  w(0) 35034.
	create_child: excludes8_fun (4, 11) FAR 35501 U 0.00
expand: excludes8_fun (4, 0) FAR  w(0) 35501.
	create_child: firefly_step (4, 11) FAR 35341 X 0.00
expand: firefly_step (4, 0) FAR  w(0) 35341. F 0.01
expand: top_step (5, 0) FAR  w(0) 35034.
	create_child: excludes8_fun (4, 11) FAR 35947 U 0.00
expand: excludes8_fun (4, 0) FAR  w(0) 35947. F 0.00
expand: top_step (5, 0) FAR  w(0) 35034.
	create_child: excludes8_fun (4, 11) FAR 35883 U 0.00
expand: excludes8_fun (4, 0) FAR  w(0) 35883.
	create_child: firefly_step (4, 11) FAR 35803 X 0.00
expand: firefly_step (4, 0) FAR  w(0) 35803. F 0.01
expand: top_step (5, 0) FAR  w(0) 35034.
	create_child: excludes8_fun (4, 11) FAR 36111 U 0.00
expand: excludes8_fun (4, 0) FAR  w(0) 36111. F 0.00
expand: top_step (5, 0) FAR  w(0) 35034.
	create_child: excludes8_fun (4, 11) FAR 35848 U 0.00
expand: excludes8_fun (4, 0) FAR  w(0) 35848.
	create_child: firefly_step (4, 11) FAR 36131 X 0.00
expand: firefly_step (4, 0) FAR  w(0) 36131. F 0.00
expand: top_step (5, 0) FAR  w(0) 35034.
	create_child: excludes8_fun (4, 11) FAR 36197 U 0.00
expand: excludes8_fun (4, 0) FAR  w(0) 36197. F 0.00
expand: top_step (5, 0) FAR  w(0) 35034.
	create_child: excludes8_fun (4, 11) FAR 36349 U 0.00
expand: excludes8_fun (4, 0) FAR  w(0) 36349. F 0.00
expand: top_step (5, 0) FAR  w(0) 35034.
	create_child: excludes8_fun (4, 11) FAR 36397 U 0.00
expand: excludes8_fun (4, 0) FAR  w(0) 36397.
	create_child: firefly_step (4, 11) FAR 36337 X 0.00
expand: firefly_step (4, 0) FAR  w(0) 36337. F 0.01
expand: top_step (5, 0) FAR  w(0) 35034.
	create_child: excludes8_fun (4, 11) FAR 36572 U 0.00
expand: excludes8_fun (4, 0) FAR  w(0) 36572. F 0.00
expand: top_step (5, 0) FAR  w(0) 35034. F 0.01
expand: MAIN (6, 0) FAR  w(0) 28763. F 0.00
expand: MAIN (7, 0) FAR  w(0) 20673. F 0.00
expand: MAIN (8, 0) FAR  w(0) 14065. F 0.00
expand: MAIN (9, 0) FAR  w(0) 2150. F 0.00
expand: ERR (10, 0) FAR  w(0) 1. F 0.00
expand: query!0 (11, 0) FAR  w(0) 1. F 0.00
(spacer::context::check_reachability :time 0.11 :before-memory 25.63 :after-memory 26.00)
Propagating: 4 5 
(spacer::context::propagate :time 0.00 :before-memory 26.00 :after-memory 26.00)
(define-fun ERR () Bool
  false)
(define-fun top_reset ((x!0 Int)
 (x!1 Int)
 (x!2 Int)
 (x!3 Int)
 (x!4 Int)
 (x!5 Int)
 (x!6 Bool)
 (x!7 Bool)
 (x!8 Bool)
 (x!9 Int)
 (x!10 Int)
 (x!11 Int)
 (x!12 Int)
 (x!13 Int)
 (x!14 Int)
 (x!15 Bool)
 (x!16 Bool)
 (x!17 Bool)) Bool
  x!15)
(define-fun top_step ((x!0 Bool)
 (x!1 Bool)
 (x!2 Bool)
 (x!3 Bool)
 (x!4 Bool)
 (x!5 Bool)
 (x!6 Bool)
 (x!7 Bool)
 (x!8 Int)
 (x!9 Bool)
 (x!10 Int)
 (x!11 Int)
 (x!12 Int)
 (x!13 Int)
 (x!14 Int)
 (x!15 Int)
 (x!16 Bool)
 (x!17 Bool)
 (x!18 Bool)
 (x!19 Int)
 (x!20 Int)
 (x!21 Int)
 (x!22 Int)
 (x!23 Int)
 (x!24 Int)
 (x!25 Bool)
 (x!26 Bool)
 (x!27 Bool)) Bool
  (let ((a!1 (or (not (>= (+ x!10 x!11) 2))
                 (not x!26)
                 (<= x!22 0)
                 (not (<= x!11 0))
                 (not (<= x!13 1))
                 (not (<= (+ x!19 x!20) 1))
                 (<= x!23 0)))
        (a!2 (or (<= (+ x!19 x!20) 0)
                 (not x!26)
                 (<= x!22 0)
                 (not (<= x!13 1))
                 (not (<= (+ x!10 x!11) 0))
                 (= x!10 1)
                 (<= x!23 0)))
        (a!3 (or (= x!10 1)
                 (not x!26)
                 (<= x!22 0)
                 (not (<= x!13 1))
                 (not (= x!19 1))
                 (not (<= (+ x!10 x!11) 0))))
        (a!4 (or (not (>= x!10 2))
                 (<= x!22 0)
                 (not (<= x!13 0))
                 (not (<= (+ x!19 x!20) 1))))
        (a!5 (or (not (>= (+ x!10 x!11) 2))
                 (not x!26)
                 (<= x!22 0)
                 (not (<= x!13 1))
                 (not (= x!19 1))
                 (= x!10 1))))
    (and a!1
         (not x!27)
         (or x!9 (not x!16))
         (or (<= x!22 0) (not x!16))
         (or (not (<= x!13 0)) x!9)
         (or (<= x!20 0) (not x!16))
         (or (not (>= x!22 2)) (not (<= x!13 0)))
         (or (not (<= x!13 1)) x!9 (not (<= x!11 0)))
         (or x!18 x!17 x!9)
         (or (not x!26) x!17 x!18)
         (or (not (>= x!20 2)) (not (<= x!11 0)))
         (or (<= x!19 0) (<= x!22 0) (not (<= x!13 0)) (not (<= x!11 0)))
         (or (= x!10 1) (not x!26) (<= x!22 0) (<= x!20 0) (not (<= x!11 0)))
         (or (not (<= x!11 1))
             (not x!26)
             (<= x!22 0)
             (not (<= x!13 0))
             (<= x!20 0))
         (or (not (<= x!13 1)) (not (<= x!11 0)) (not (>= x!22 2)))
         (<= x!21 0)
         (or (not (<= x!12 0))
             (not x!26)
             (<= x!20 0)
             (not (<= x!11 0))
             (<= x!19 0))
         (or (= x!10 1) (not (>= x!20 2)) (not (<= x!11 1)))
         (or (= x!10 1)
             (not x!26)
             (<= x!22 0)
             (not (<= x!13 0))
             (not (= x!19 1)))
         (or (= x!10 1)
             (not x!26)
             (not (<= x!13 0))
             (<= x!20 0)
             (not (= x!19 1)))
         (or (not (<= x!14 0)) (not (= x!19 1)) (= x!10 1))
         (or (<= (+ x!19 x!20) 0)
             (not x!26)
             (<= x!22 0)
             (not (<= x!13 0))
             (not (<= x!11 1))
             (not (<= x!10 0)))
         a!2
         a!3
         a!4
         (or (not (<= x!14 0)) (<= x!22 0) (<= x!23 0))
         a!5)))
(define-fun firefly_reset ((x!0 Int)
 (x!1 Int)
 (x!2 Int)
 (x!3 Int)
 (x!4 Int)
 (x!5 Int)
 (x!6 Bool)
 (x!7 Int)
 (x!8 Int)
 (x!9 Int)
 (x!10 Int)
 (x!11 Int)
 (x!12 Int)
 (x!13 Bool)) Bool
  x!13)
(define-fun Sofar_reset ((x!0 Bool) (x!1 Bool) (x!2 Bool) (x!3 Bool)) Bool
  true)
(define-fun MAIN ((x!0 Int)
 (x!1 Int)
 (x!2 Int)
 (x!3 Int)
 (x!4 Int)
 (x!5 Int)
 (x!6 Bool)
 (x!7 Bool)
 (x!8 Bool)
 (x!9 Bool)) Bool
  (let ((a!1 (or (<= x!4 0) (not x!7) (not (= (+ x!0 x!1) 1)) (<= x!3 0))))
    (and a!1
         x!9
         (not x!8)
         (or (<= x!3 0) (not x!7) (<= x!1 0))
         (or (not (>= x!3 2)) (not x!7))
         (<= x!2 0)
         (or (not (>= x!1 2)) (not x!7))
         (or (not (= x!0 1)) (not x!7) (<= x!1 0))
         (or (not (= x!0 1)) (not x!7) (<= x!3 0)))))
(define-fun Sofar_step ((x!0 Bool)
 (x!1 Bool)
 (x!2 Bool)
 (x!3 Bool)
 (x!4 Bool)
 (x!5 Bool)) Bool
  (and (or x!2 x!3 (not x!1)) (not x!5) (or x!0 (not x!4)) (or x!1 (not x!4))))
(define-fun firefly_step ((x!0 Bool)
 (x!1 Bool)
 (x!2 Bool)
 (x!3 Bool)
 (x!4 Bool)
 (x!5 Bool)
 (x!6 Bool)
 (x!7 Bool)
 (x!8 Int)
 (x!9 Int)
 (x!10 Int)
 (x!11 Int)
 (x!12 Int)
 (x!13 Int)
 (x!14 Int)
 (x!15 Int)
 (x!16 Int)
 (x!17 Int)
 (x!18 Int)
 (x!19 Bool)
 (x!20 Int)
 (x!21 Int)
 (x!22 Int)
 (x!23 Int)
 (x!24 Int)
 (x!25 Int)
 (x!26 Bool)) Bool
  (let ((a!1 (<= (+ x!13 x!14 (* (- 1) x!20) (* (- 1) x!21)) 0))
        (a!2 (or (<= (+ x!10 (* (- 1) x!16)) 0) x!5 x!3 (= x!10 0)))
        (a!3 (or (= (+ x!10 (* (- 1) x!16)) 0)
                 (= x!10 0)
                 (not (<= x!16 0))
                 (= (+ x!10 (* (- 1) x!16)) 1)))
        (a!4 (or (>= (+ x!16 (* (- 1) x!10)) 0)
                 (not x!3)
                 (= x!10 0)
                 (not (<= x!14 0))))
        (a!5 (or (= x!10 1) x!3 (= x!10 0) (>= (+ x!16 (* (- 1) x!10)) 0)))
        (a!6 (or (>= (+ x!15 (* (- 1) x!20)) 0)
                 x!1
                 x!0
                 (<= x!21 0)
                 (not (<= x!14 0))))
        (a!7 (or (not (<= (+ x!13 x!14) 0)) x!6 x!1 (not (= x!20 1)) (= x!13 1)))
        (a!8 (or (<= (+ x!20 x!21) 0)
                 x!6
                 x!1
                 x!4
                 x!0
                 (not (<= (+ x!13 x!14) 0))))
        (a!9 (or (<= (+ x!20 x!21) 0)
                 x!6
                 x!5
                 x!1
                 x!4
                 (<= x!23 0)
                 (not (<= (+ x!13 x!14) 0))))
        (a!10 (or (<= (+ x!20 x!21) 0)
                  (not x!4)
                  x!1
                  x!0
                  (= x!13 1)
                  (not (<= (+ x!13 x!14) 0))))
        (a!11 (or (not (>= x!13 2))
                  (<= x!23 0)
                  (not (<= x!16 0))
                  (not (<= (+ x!20 x!21) 1))))
        (a!12 (not (<= (+ (* (- 1) x!13) (* (- 1) x!14)) (- 2))))
        (a!13 (or (>= (+ x!20 x!21 (* (- 1) x!13) (* (- 1) x!14)) 0)
                  x!3
                  x!7
                  x!4
                  x!2
                  (<= x!23 0))))
    (and (or a!1 x!7 x!4 x!0 (<= x!23 0) (not (<= x!14 0)))
         (or (not x!19) (= x!10 0))
         (>= (+ x!10 (* (- 1) x!23)) 0)
         a!2
         a!3
         (or (<= x!21 0) (not x!19))
         (or (not (<= x!14 0)) x!4 x!0 (<= x!21 0))
         a!4
         (or (not (>= x!21 2)) (not (<= x!14 0)))
         a!5
         (or (<= x!20 0) x!3 (<= x!23 0) (not (<= x!16 0)))
         (or (not (<= x!14 1)) (not x!3) x!2 x!0 (<= x!21 0))
         (or (<= x!21 0) x!3 x!0 (<= x!23 0) (not (<= x!16 0)))
         (or (= x!13 1) x!0 (<= x!21 0) (not (<= x!14 0)))
         (or (not (<= x!14 0)) (not x!0) x!5 (<= x!23 0) (<= x!21 0))
         (<= x!22 0)
         a!6
         (or (<= x!20 0) x!4 (<= x!21 0) (not (<= x!14 0)))
         (or (= x!13 1) (not (>= x!21 2)) (not (<= x!14 1)))
         (or (= x!13 1) x!6 x!1 x!2 (not (= x!20 1)))
         (or (not (<= x!16 1))
             x!5
             x!3
             x!2
             (<= x!23 0)
             (not (= x!20 1))
             (= x!13 1))
         (or (= x!13 1) x!2 (not (<= x!16 0)) (not (= x!20 1)))
         a!7
         (or (= x!13 1) (not x!2) x!1 x!0 (<= x!21 0) (not (= x!20 1)))
         (or (<= x!24 0) (not x!6) x!5 x!3 (<= x!23 0) (not (<= x!16 1)))
         a!8
         a!9
         (or (<= x!24 0) (not x!1) (<= x!23 0) (not (<= x!16 1)))
         (or (not (<= x!17 0)) (not (= x!20 1)) (= x!13 1))
         (or (<= (+ x!20 x!21) 0)
             (not x!3)
             x!6
             x!1
             x!7
             x!2
             x!0
             (not (<= x!14 1))
             (not (<= x!13 0)))
         (or (not (<= x!17 0)) (<= x!23 0) (<= x!24 0))
         a!10
         a!11
         (or a!12 (not x!2) x!1 (not (= x!20 1)) (= x!13 1))
         a!13
         (or a!1 (not x!4) x!3 x!2 (<= x!23 0) (= x!13 1))
         (or a!1 x!6 x!3 x!1 x!4 x!0 (<= x!23 0)))))
(define-fun excludes8_fun ((x!0 Bool)
 (x!1 Bool)
 (x!2 Bool)
 (x!3 Bool)
 (x!4 Bool)
 (x!5 Bool)
 (x!6 Bool)
 (x!7 Bool)
 (x!8 Bool)) Bool
  (and (or (not x!8) (not x!3) (not x!5))
       (or (not x!8) (not x!4) (not x!5))
       (or (not x!8) (not x!0) (not x!5))
       (or (not x!8) (not x!0) (not x!2))
       (or (not x!8) (not x!2) (not x!3))
       (or (not x!8) (not x!0) (not x!3))
       (or (not x!8) (not x!1) (not x!4))
       (or (not x!8) (not x!0) (not x!4))
       (or (not x!8) (not x!3) (not x!6))
       (or (not x!8) (not x!1) (not x!3))
       (or (not x!8) (not x!0) (not x!6))
       (or (not x!8) (not x!5) (not x!6))
       (or (not x!8) (not x!1) (not x!5))
       (or (not x!8) (not x!2) (not x!6))
       (or (not x!8) (not x!1) (not x!2))
       (or (not x!8) (not x!3) (not x!7))
       (or (not x!8) (not x!0) (not x!7))
       (or (not x!8) (not x!5) (not x!7))
       (or (not x!8) (not x!2) (not x!4))
       (or (not x!8) (not x!4) (not x!7))
       (or (not x!8) (not x!3) (not x!4))))
BRUNCH_STAT max_query_lvl 11
BRUNCH_STAT num_queries 148
BRUNCH_STAT num_reach_queries 1
BRUNCH_STAT num_reach_reuse 120
BRUNCH_STAT inductive_lvl 5
BRUNCH_STAT max_depth 11
BRUNCH_STAT cex_depth 0
(:SPACER-inductive-level               5
 :SPACER-max-depth                     11
 :SPACER-max-query-lvl                 11
 :SPACER-num-invariants                113
 :SPACER-num-lemmas                    160
 :SPACER-num-properties                111
 :SPACER-num-queries                   148
 :SPACER-num-reach-queries             1
 :SPACER-num-reuse-reach-facts         120
 :added-eqs                            40433
 :arith-add-rows                       5665
 :arith-assert-diseq                   11887
 :arith-assert-lower                   30461
 :arith-assert-upper                   31132
 :arith-bound-prop                     926
 :arith-conflicts                      87
 :arith-eq-adapter                     10829
 :arith-fixed-eqs                      7048
 :arith-offset-eqs                     2518
 :arith-pivots                         2509
 :bool-inductive-gen                   134
 :bool-inductive-gen-failures          468
 :conflicts                            1518
 :decisions                            39451
 :del-clause                           2726
 :final-checks                         810
 :minimized-lits                       633
 :mk-bool-var                          26277
 :mk-clause                            8941
 :num-checks                           1668
 :propagations                         398794
 :time.itp_solver.itp_core             0.06
 :time.spacer.init_rules               0.01
 :time.spacer.init_rules.pt.init       0.00
 :time.spacer.solve                    0.87
 :time.spacer.solve.propagate          0.04
 :time.spacer.solve.pt.must_reachable  0.02
 :time.spacer.solve.reach              0.82
 :time.spacer.solve.reach.children     0.15
 :time.spacer.solve.reach.gen.bool_ind 0.28
 :time.virtual_solver.proof            0.03
 :time.virtual_solver.smt.total        0.60
 :time.virtual_solver.smt.total.sat    0.35
 :virtual_solver.checks                1668
 :virtual_solver.checks.sat            810)
BRUNCH_STAT max_query_lvl 11
BRUNCH_STAT num_queries 148
BRUNCH_STAT num_reach_queries 1
BRUNCH_STAT num_reach_reuse 120
BRUNCH_STAT inductive_lvl 5
BRUNCH_STAT max_depth 11
BRUNCH_STAT cex_depth 0

real	0m0.976s
user	0m0.952s
sys	0m0.020s
