(transform N7datalog13mk_coi_filterE...no-op 0s)
(transform N7datalog25mk_interp_tail_simplifierE...12 rules 0s)
(transform N7datalog27mk_quantifier_instantiationE...no-op 0s)
(transform N7datalog8mk_scaleE...no-op 0s)
(transform N7datalog18mk_karr_invariantsE...no-op 0s)
(transform N7datalog14mk_array_blastE...no-op 0s)
(transform N7datalog22mk_subsumption_checkerE...11 rules 0s)
(transform N7datalog12mk_bit_blastE...no-op 0s)
(transform N7datalog15mk_rule_inlinerE...no-op 0s)
(transform N7datalog13mk_coi_filterE...no-op 0s)
(transform N7datalog25mk_interp_tail_simplifierE...11 rules 0s)
(transform N7datalog22mk_subsumption_checkerE...no-op 0s)
(transform N7datalog15mk_rule_inlinerE...no-op 0s)
(transform N7datalog13mk_coi_filterE...no-op 0s)
(transform N7datalog25mk_interp_tail_simplifierE...11 rules 0s)
(transform N7datalog22mk_subsumption_checkerE...no-op 0s)
(transform N7datalog15mk_rule_inlinerE...no-op 0s)
(transform N7datalog22mk_subsumption_checkerE...no-op 0s)
(transform N7datalog15mk_rule_inlinerE...no-op 0s)
(transform N7datalog22mk_subsumption_checkerE...no-op 0s)
(transform N7datalog15mk_rule_inlinerE...no-op 0s)
(transform N7datalog22mk_subsumption_checkerE...no-op 0s)
expand: query!0 (0, 0) FAR  w(0) 1. F 0.00
(spacer::context::check_reachability :time 0.00 :before-memory 11.59 :after-memory 11.99)
Entering level 1
BRUNCH_STAT max_query_lvl 0
BRUNCH_STAT num_queries 0
BRUNCH_STAT num_reach_queries 0
BRUNCH_STAT num_reach_reuse 0
BRUNCH_STAT inductive_lvl 0
BRUNCH_STAT max_depth 1
BRUNCH_STAT cex_depth 0
expand: query!0 (1, 0) FAR  w(0) 1.
	create_child: ERR (0, 1) FAR 1 U 0.00
expand: ERR (0, 0) FAR  w(0) 1. F 0.00
expand: query!0 (1, 0) FAR  w(0) 1. F 0.00
(spacer::context::check_reachability :time 0.00 :before-memory 11.99 :after-memory 12.43)
Propagating: 0 1  ! 2 
(spacer::context::propagate :time 0.00 :before-memory 12.43 :after-memory 12.43)
Entering level 2
BRUNCH_STAT max_query_lvl 1
BRUNCH_STAT num_queries 1
BRUNCH_STAT num_reach_queries 0
BRUNCH_STAT num_reach_reuse 0
BRUNCH_STAT inductive_lvl 0
BRUNCH_STAT max_depth 2
BRUNCH_STAT cex_depth 0
expand: query!0 (2, 0) FAR  w(0) 1.
	create_child: ERR (1, 2) FAR 1 U 0.00
expand: ERR (1, 0) FAR  w(0) 1.
	create_child: MAIN (0, 2) FAR 2240 U 0.00
expand: MAIN (0, 0) FAR  w(0) 2240. F 0.00
expand: ERR (1, 0) FAR  w(0) 1. F 0.00
expand: query!0 (2, 0) FAR  w(0) 1. F 0.00
(spacer::context::check_reachability :time 0.00 :before-memory 12.43 :after-memory 12.90)
Propagating: 0 1 2  ! 3 
(spacer::context::propagate :time 0.00 :before-memory 12.90 :after-memory 12.90)
Entering level 3
BRUNCH_STAT max_query_lvl 2
BRUNCH_STAT num_queries 3
BRUNCH_STAT num_reach_queries 0
BRUNCH_STAT num_reach_reuse 0
BRUNCH_STAT inductive_lvl 0
BRUNCH_STAT max_depth 3
BRUNCH_STAT cex_depth 0
expand: query!0 (3, 0) FAR  w(0) 1.
	create_child: ERR (2, 3) FAR 1 U 0.00
expand: ERR (2, 0) FAR  w(0) 1.
	create_child: MAIN (1, 3) FAR 2240 U 0.00
expand: MAIN (1, 0) FAR  w(0) 2240.
	create_child: top_step (0, 3) FAR 3014 U 0.00
expand: top_step (0, 0) FAR  w(0) 3014. F 0.00
expand: MAIN (1, 0) FAR  w(0) 2240. F 0.00
expand: ERR (2, 0) FAR  w(0) 1. F 0.00
expand: query!0 (3, 0) FAR  w(0) 1. F 0.00
(spacer::context::check_reachability :time 0.01 :before-memory 12.90 :after-memory 13.97)
Propagating: 0 1 2 3  ! 4 
(spacer::context::propagate :time 0.00 :before-memory 13.97 :after-memory 14.07)
Entering level 4
BRUNCH_STAT max_query_lvl 3
BRUNCH_STAT num_queries 6
BRUNCH_STAT num_reach_queries 0
BRUNCH_STAT num_reach_reuse 0
BRUNCH_STAT inductive_lvl 0
BRUNCH_STAT max_depth 4
BRUNCH_STAT cex_depth 0
expand: query!0 (4, 0) FAR  w(0) 1.
	create_child: ERR (3, 4) FAR 1 U 0.00
expand: ERR (3, 0) FAR  w(0) 1.
	create_child: MAIN (2, 4) FAR 2240 U 0.00
expand: MAIN (2, 0) FAR  w(0) 2240.
	create_child: top_step (1, 4) FAR 3014 U 0.00
expand: top_step (1, 0) FAR  w(0) 3014.
	create_child: top_reset (1, 4) FAR 8652 X 0.01
expand: top_reset (1, 0) FAR  w(0) 8652. F 0.00
expand: MAIN (2, 0) FAR  w(0) 2240.
	create_child: top_step (1, 4) FAR 11796 U 0.00
expand: top_step (1, 0) FAR  w(0) 11796. F 0.00
expand: MAIN (2, 0) FAR  w(0) 2240. F 0.00
expand: ERR (3, 0) FAR  w(0) 1. F 0.00
expand: query!0 (4, 0) FAR  w(0) 1. F 0.00
(spacer::context::check_reachability :time 0.02 :before-memory 14.07 :after-memory 16.72)
Propagating: 1 2 3 4  ! 5 
(spacer::context::propagate :time 0.00 :before-memory 16.72 :after-memory 16.72)
Entering level 5
BRUNCH_STAT max_query_lvl 4
BRUNCH_STAT num_queries 10
BRUNCH_STAT num_reach_queries 1
BRUNCH_STAT num_reach_reuse 3
BRUNCH_STAT inductive_lvl 0
BRUNCH_STAT max_depth 5
BRUNCH_STAT cex_depth 0
expand: query!0 (5, 0) FAR  w(0) 1.
	create_child: ERR (4, 5) FAR 1 U 0.00
expand: ERR (4, 0) FAR  w(0) 1.
	create_child: MAIN (3, 5) FAR 2240 U 0.00
expand: MAIN (3, 0) FAR  w(0) 2240.
	create_child: MAIN (2, 5) FAR 12332 U 0.00
expand: MAIN (2, 0) FAR  w(0) 12332.
	create_child: top_step (1, 5) FAR 12289 U 0.00
expand: top_step (1, 0) FAR  w(0) 12289.
	create_child: Sofar_step (0, 5) FAR 12214 U 0.00
expand: Sofar_step (0, 0) FAR  w(0) 12214. F 0.00
expand: top_step (1, 0) FAR  w(0) 12289. F 0.00
expand: MAIN (2, 0) FAR  w(0) 12332. F 0.00
expand: MAIN (3, 0) FAR  w(0) 2240.
	create_child: MAIN (2, 5) FAR 12632 U 0.00
expand: MAIN (2, 0) FAR  w(0) 12632.
	create_child: top_step (1, 5) FAR 12570 U 0.00
expand: top_step (1, 0) FAR  w(0) 12570.
	create_child: firefly_step (0, 5) FAR 12525 U 0.00
expand: firefly_step (0, 0) FAR  w(0) 12525. F 0.00
expand: top_step (1, 0) FAR  w(0) 12570. F 0.00
expand: MAIN (2, 0) FAR  w(0) 12632. F 0.00
expand: MAIN (3, 0) FAR  w(0) 2240.
	create_child: MAIN (2, 5) FAR 14670 U 0.00
expand: MAIN (2, 0) FAR  w(0) 14670.
	create_child: top_step (1, 5) FAR 14685 U 0.00
expand: top_step (1, 0) FAR  w(0) 14685.
	create_child: firefly_step (0, 5) FAR 14836 U 0.00
expand: firefly_step (0, 0) FAR  w(0) 14836. F 0.00
expand: top_step (1, 0) FAR  w(0) 14685. F 0.00
expand: MAIN (2, 0) FAR  w(0) 14670. F 0.00
expand: MAIN (3, 0) FAR  w(0) 2240.
	create_child: MAIN (2, 5) FAR 15301 U 0.00
expand: MAIN (2, 0) FAR  w(0) 15301.
	create_child: top_step (1, 5) FAR 15162 U 0.00
expand: top_step (1, 0) FAR  w(0) 15162.
	create_child: firefly_step (0, 5) FAR 15032 U 0.00
expand: firefly_step (0, 0) FAR  w(0) 15032. F 0.00
expand: top_step (1, 0) FAR  w(0) 15162. F 0.00
expand: MAIN (2, 0) FAR  w(0) 15301. F 0.00
expand: MAIN (3, 0) FAR  w(0) 2240.
	create_child: MAIN (2, 5) FAR 16101 U 0.00
expand: MAIN (2, 0) FAR  w(0) 16101.
	create_child: top_step (1, 5) FAR 16007 U 0.00
expand: top_step (1, 0) FAR  w(0) 16007.
	create_child: firefly_step (0, 5) FAR 16198 U 0.00
expand: firefly_step (0, 0) FAR  w(0) 16198. F 0.00
expand: top_step (1, 0) FAR  w(0) 16007. F 0.00
expand: MAIN (2, 0) FAR  w(0) 16101. F 0.00
expand: MAIN (3, 0) FAR  w(0) 2240.
	create_child: MAIN (2, 5) FAR 16732 U 0.00
expand: MAIN (2, 0) FAR  w(0) 16732.
	create_child: top_step (1, 5) FAR 16601 U 0.00
expand: top_step (1, 0) FAR  w(0) 16601.
	create_child: firefly_step (0, 5) FAR 16734 U 0.00
expand: firefly_step (0, 0) FAR  w(0) 16734. F 0.00
expand: top_step (1, 0) FAR  w(0) 16601. F 0.00
expand: MAIN (2, 0) FAR  w(0) 16732. F 0.00
expand: MAIN (3, 0) FAR  w(0) 2240.
	create_child: top_step (2, 5) FAR 17790 UNDEF 0.00
expand: top_step (2, 0) FAR  w(0) 17790.
	create_child: MAIN (2, 5) FAR 17913 X 0.00
expand: MAIN (2, 0) FAR  w(0) 17913.
	create_child: top_step (1, 5) FAR 18016 UNDEF 0.00
expand: top_step (1, 0) FAR  w(0) 18016.
	create_child: top_reset (1, 5) FAR 18130 X 0.00
expand: top_reset (1, 0) FAR  w(0) 18130.
	create_child: Sofar_reset (0, 5) FAR 18240 UNDEF 0.00
expand: Sofar_reset (0, 0) FAR  w(0) 18240. F 0.00
expand: top_reset (1, 0) FAR  w(0) 18130. F 0.00
expand: MAIN (2, 0) FAR  w(0) 17913.
	create_child: top_step (1, 5) FAR 18343 UNDEF 0.00
expand: top_step (1, 0) FAR  w(0) 18343.
	create_child: top_reset (1, 5) FAR 18355 X 0.00
expand: top_reset (1, 0) FAR  w(0) 18355.
	create_child: Sofar_reset (0, 5) FAR 1625 UNDEF 0.00
expand: Sofar_reset (0, 0) FAR  w(0) 1625. T 0.00
is-reachable: top_reset (1, 0) FAR 18355 F 0.00
expand: top_reset (1, 0) FAR  w(1) 18355.
	create_child: firefly_reset (0, 5) FAR 18287 U 0.00
expand: firefly_reset (0, 0) FAR  w(0) 18287. F 0.00
expand: top_reset (1, 0) FAR  w(1) 18355. F 0.00
expand: MAIN (2, 0) FAR  w(0) 17913.
	create_child: top_step (1, 5) FAR 18562 U 0.00
expand: top_step (1, 0) FAR  w(0) 18562.
	create_child: firefly_step (0, 5) FAR 18627 U 0.00
expand: firefly_step (0, 0) FAR  w(0) 18627. F 0.00
expand: top_step (1, 0) FAR  w(0) 18562. F 0.00
expand: MAIN (2, 0) FAR  w(0) 17913. F 0.00
expand: MAIN (3, 0) FAR  w(0) 2240.
	create_child: top_step (2, 5) FAR 19317 U 0.00
expand: top_step (2, 0) FAR  w(0) 19317.
	create_child: excludes8_fun (1, 5) FAR 22029 U 0.01
expand: excludes8_fun (1, 0) FAR  w(0) 22029. F 0.00
expand: top_step (2, 0) FAR  w(0) 19317.
	create_child: excludes8_fun (1, 5) FAR 22511 U 0.00
expand: excludes8_fun (1, 0) FAR  w(0) 22511. F 0.00
expand: top_step (2, 0) FAR  w(0) 19317.
	create_child: excludes8_fun (1, 5) FAR 22875 U 0.01
expand: excludes8_fun (1, 0) FAR  w(0) 22875. F 0.00
expand: top_step (2, 0) FAR  w(0) 19317.
	create_child: excludes8_fun (1, 5) FAR 22785 U 0.00
expand: excludes8_fun (1, 0) FAR  w(0) 22785. F 0.00
expand: top_step (2, 0) FAR  w(0) 19317.
	create_child: excludes8_fun (1, 5) FAR 23125 U 0.00
expand: excludes8_fun (1, 0) FAR  w(0) 23125. F 0.00
expand: top_step (2, 0) FAR  w(0) 19317.
	create_child: excludes8_fun (1, 5) FAR 23028 U 0.00
expand: excludes8_fun (1, 0) FAR  w(0) 23028. F 0.00
expand: top_step (2, 0) FAR  w(0) 19317.
	create_child: excludes8_fun (1, 5) FAR 22929 U 0.00
expand: excludes8_fun (1, 0) FAR  w(0) 22929. F 0.00
expand: top_step (2, 0) FAR  w(0) 19317.
	create_child: excludes8_fun (1, 5) FAR 22917 U 0.00
expand: excludes8_fun (1, 0) FAR  w(0) 22917. F 0.00
expand: top_step (2, 0) FAR  w(0) 19317.
	create_child: excludes8_fun (1, 5) FAR 23330 U 0.00
expand: excludes8_fun (1, 0) FAR  w(0) 23330. F 0.00
expand: top_step (2, 0) FAR  w(0) 19317.
	create_child: excludes8_fun (1, 5) FAR 23264 U 0.00
expand: excludes8_fun (1, 0) FAR  w(0) 23264. F 0.00
expand: top_step (2, 0) FAR  w(0) 19317.
	create_child: excludes8_fun (1, 5) FAR 23749 U 0.01
expand: excludes8_fun (1, 0) FAR  w(0) 23749. F 0.00
expand: top_step (2, 0) FAR  w(0) 19317.
	create_child: excludes8_fun (1, 5) FAR 23340 U 0.00
expand: excludes8_fun (1, 0) FAR  w(0) 23340. F 0.00
expand: top_step (2, 0) FAR  w(0) 19317.
	create_child: excludes8_fun (1, 5) FAR 23884 U 0.00
expand: excludes8_fun (1, 0) FAR  w(0) 23884. F 0.00
expand: top_step (2, 0) FAR  w(0) 19317.
	create_child: excludes8_fun (1, 5) FAR 23929 U 0.00
expand: excludes8_fun (1, 0) FAR  w(0) 23929. F 0.00
expand: top_step (2, 0) FAR  w(0) 19317.
	create_child: excludes8_fun (1, 5) FAR 23955 U 0.00
expand: excludes8_fun (1, 0) FAR  w(0) 23955. F 0.00
expand: top_step (2, 0) FAR  w(0) 19317.
	create_child: excludes8_fun (1, 5) FAR 23903 U 0.00
expand: excludes8_fun (1, 0) FAR  w(0) 23903.
	create_child: firefly_step (1, 5) FAR 24029 X 0.00
expand: firefly_step (1, 0) FAR  w(0) 24029. F 0.01
expand: top_step (2, 0) FAR  w(0) 19317.
	create_child: excludes8_fun (1, 5) FAR 23903 U 0.00
expand: excludes8_fun (1, 0) FAR  w(0) 23903.
	create_child: firefly_step (1, 5) FAR 25103 X 0.00
expand: firefly_step (1, 0) FAR  w(0) 25103. F 0.01
expand: top_step (2, 0) FAR  w(0) 19317.
	create_child: excludes8_fun (1, 5) FAR 23903 U 0.00
expand: excludes8_fun (1, 0) FAR  w(0) 23903.
	create_child: firefly_step (1, 5) FAR 25039 X 0.00
expand: firefly_step (1, 0) FAR  w(0) 25039. F 0.01
expand: top_step (2, 0) FAR  w(0) 19317.
	create_child: excludes8_fun (1, 5) FAR 24907 U 0.00
expand: excludes8_fun (1, 0) FAR  w(0) 24907.
	create_child: firefly_step (1, 5) FAR 24983 X 0.00
expand: firefly_step (1, 0) FAR  w(0) 24983. F 0.01
expand: top_step (2, 0) FAR  w(0) 19317.
	create_child: excludes8_fun (1, 5) FAR 24907 U 0.00
expand: excludes8_fun (1, 0) FAR  w(0) 24907.
	create_child: firefly_step (1, 5) FAR 26901 X 0.00
expand: firefly_step (1, 0) FAR  w(0) 26901. F 0.01
expand: top_step (2, 0) FAR  w(0) 19317.
	create_child: excludes8_fun (1, 5) FAR 27426 U 0.00
expand: excludes8_fun (1, 0) FAR  w(0) 27426. F 0.00
expand: top_step (2, 0) FAR  w(0) 19317.
	create_child: excludes8_fun (1, 5) FAR 27425 U 0.00
expand: excludes8_fun (1, 0) FAR  w(0) 27425. F 0.00
expand: top_step (2, 0) FAR  w(0) 19317.
	create_child: excludes8_fun (1, 5) FAR 26720 U 0.00
expand: excludes8_fun (1, 0) FAR  w(0) 26720.
	create_child: firefly_step (1, 5) FAR 26741 X 0.00
expand: firefly_step (1, 0) FAR  w(0) 26741. F 0.01
expand: top_step (2, 0) FAR  w(0) 19317.
	create_child: excludes8_fun (1, 5) FAR 27779 U 0.00
expand: excludes8_fun (1, 0) FAR  w(0) 27779. F 0.00
expand: top_step (2, 0) FAR  w(0) 19317.
	create_child: excludes8_fun (1, 5) FAR 27563 U 0.00
expand: excludes8_fun (1, 0) FAR  w(0) 27563.
	create_child: firefly_step (1, 5) FAR 27836 X 0.00
expand: firefly_step (1, 0) FAR  w(0) 27836. F 0.01
expand: top_step (2, 0) FAR  w(0) 19317.
	create_child: excludes8_fun (1, 5) FAR 27805 U 0.00
expand: excludes8_fun (1, 0) FAR  w(0) 27805. F 0.00
expand: top_step (2, 0) FAR  w(0) 19317.
	create_child: excludes8_fun (1, 5) FAR 27934 U 0.00
expand: excludes8_fun (1, 0) FAR  w(0) 27934. F 0.00
expand: top_step (2, 0) FAR  w(0) 19317.
	create_child: excludes8_fun (1, 5) FAR 28062 U 0.00
expand: excludes8_fun (1, 0) FAR  w(0) 28062. F 0.00
expand: top_step (2, 0) FAR  w(0) 19317.
	create_child: excludes8_fun (1, 5) FAR 28128 U 0.00
expand: excludes8_fun (1, 0) FAR  w(0) 28128. F 0.00
expand: top_step (2, 0) FAR  w(0) 19317.
	create_child: excludes8_fun (1, 5) FAR 28351 U 0.00
expand: excludes8_fun (1, 0) FAR  w(0) 28351.
	create_child: Sofar_step (1, 5) FAR 27755 X 0.00
expand: Sofar_step (1, 0) FAR  w(0) 27755. F 0.00
expand: top_step (2, 0) FAR  w(0) 19317. F 0.01
expand: MAIN (3, 0) FAR  w(0) 2240.
	create_child: top_step (2, 5) FAR 28818 U 0.00
expand: top_step (2, 0) FAR  w(0) 28818.
	create_child: excludes8_fun (1, 5) FAR 29591 U 0.01
expand: excludes8_fun (1, 0) FAR  w(0) 29591.
	create_child: firefly_step (1, 5) FAR 29605 X 0.00
expand: firefly_step (1, 0) FAR  w(0) 29605. F 0.01
expand: top_step (2, 0) FAR  w(0) 28818.
	create_child: excludes8_fun (1, 5) FAR 24907 U 0.00
expand: excludes8_fun (1, 0) FAR  w(0) 24907.
	create_child: firefly_step (1, 5) FAR 29479 X 0.00
expand: firefly_step (1, 0) FAR  w(0) 29479. F 0.01
expand: top_step (2, 0) FAR  w(0) 28818.
	create_child: excludes8_fun (1, 5) FAR 30186 U 0.00
expand: excludes8_fun (1, 0) FAR  w(0) 30186. F 0.00
expand: top_step (2, 0) FAR  w(0) 28818. F 0.01
expand: MAIN (3, 0) FAR  w(0) 2240.
	create_child: top_step (2, 5) FAR 30585 U 0.00
expand: top_step (2, 0) FAR  w(0) 30585.
	create_child: excludes8_fun (1, 5) FAR 30867 U 0.01
expand: excludes8_fun (1, 0) FAR  w(0) 30867.
	create_child: firefly_step (1, 5) FAR 30924 X 0.00
expand: firefly_step (1, 0) FAR  w(0) 30924. F 0.00
expand: top_step (2, 0) FAR  w(0) 30585.
	create_child: excludes8_fun (1, 5) FAR 24907 U 0.01
expand: excludes8_fun (1, 0) FAR  w(0) 24907.
	create_child: firefly_step (1, 5) FAR 30731 X 0.00
expand: firefly_step (1, 0) FAR  w(0) 30731. F 0.01
expand: top_step (2, 0) FAR  w(0) 30585. F 0.01
expand: MAIN (3, 0) FAR  w(0) 2240. F 0.00
expand: ERR (4, 0) FAR  w(0) 1. F 0.00
expand: query!0 (5, 0) FAR  w(0) 1. F 0.00
(spacer::context::check_reachability :time 0.41 :before-memory 16.72 :after-memory 25.78)
Propagating: 0 1 2 3 4 5  ! 6 
(spacer::context::propagate :time 0.01 :before-memory 25.78 :after-memory 25.78)
Entering level 6
BRUNCH_STAT max_query_lvl 5
BRUNCH_STAT num_queries 76
BRUNCH_STAT num_reach_queries 1
BRUNCH_STAT num_reach_reuse 73
BRUNCH_STAT inductive_lvl 0
BRUNCH_STAT max_depth 6
BRUNCH_STAT cex_depth 0
expand: query!0 (6, 0) FAR  w(0) 1.
	create_child: ERR (5, 6) FAR 1 U 0.00
expand: ERR (5, 0) FAR  w(0) 1.
	create_child: MAIN (4, 6) FAR 2240 U 0.00
expand: MAIN (4, 0) FAR  w(0) 2240.
	create_child: MAIN (3, 6) FAR 32465 U 0.00
expand: MAIN (3, 0) FAR  w(0) 32465.
	create_child: MAIN (2, 6) FAR 32640 U 0.00
expand: MAIN (2, 0) FAR  w(0) 32640.
	create_child: top_step (1, 6) FAR 32400 U 0.00
expand: top_step (1, 0) FAR  w(0) 32400.
	create_child: firefly_step (0, 6) FAR 32746 U 0.00
expand: firefly_step (0, 0) FAR  w(0) 32746. F 0.00
expand: top_step (1, 0) FAR  w(0) 32400. F 0.00
expand: MAIN (2, 0) FAR  w(0) 32640. F 0.00
expand: MAIN (3, 0) FAR  w(0) 32465.
	create_child: top_step (2, 6) FAR 33005 U 0.00
expand: top_step (2, 0) FAR  w(0) 33005.
	create_child: excludes8_fun (1, 6) FAR 27563 UNDEF 0.01
expand: excludes8_fun (1, 0) FAR  w(0) 27563. T 0.00
is-reachable: top_step (2, 0) FAR 33005 F 0.00
expand: top_step (2, 0) FAR  w(1) 33005.
	create_child: excludes8_fun (1, 6) FAR 33620 U 0.00
expand: excludes8_fun (1, 0) FAR  w(0) 33620.
	create_child: firefly_step (1, 6) FAR 33765 X 0.00
expand: firefly_step (1, 0) FAR  w(0) 33765. F 0.01
expand: top_step (2, 0) FAR  w(1) 33005.
	create_child: Sofar_step (1, 6) FAR 34046 U 0.01
expand: Sofar_step (1, 0) FAR  w(0) 34046. F 0.00
expand: top_step (2, 0) FAR  w(1) 33005.
	create_child: Sofar_step (1, 6) FAR 34108 U 0.00
expand: Sofar_step (1, 0) FAR  w(0) 34108.
	create_child: firefly_step (1, 6) FAR 34175 X 0.00
expand: firefly_step (1, 0) FAR  w(0) 34175. F 0.01
expand: top_step (2, 0) FAR  w(1) 33005. F 0.01
expand: MAIN (3, 0) FAR  w(0) 32465.
	create_child: top_step (2, 6) FAR 34598 U 0.00
expand: top_step (2, 0) FAR  w(0) 34598.
	create_child: excludes8_fun (1, 6) FAR 27563 UNDEF 0.01
expand: excludes8_fun (1, 0) FAR  w(0) 27563. T 0.00
is-reachable: top_step (2, 0) FAR 34598 F 0.00
expand: top_step (2, 0) FAR  w(1) 34598.
	create_child: Sofar_step (1, 6) FAR 34108 U 0.00
expand: Sofar_step (1, 0) FAR  w(0) 34108.
	create_child: firefly_step (1, 6) FAR 34952 X 0.00
expand: firefly_step (1, 0) FAR  w(0) 34952. F 0.00
expand: top_step (2, 0) FAR  w(1) 34598.
	create_child: Sofar_step (1, 6) FAR 34108 U 0.00
expand: Sofar_step (1, 0) FAR  w(0) 34108.
	create_child: firefly_step (1, 6) FAR 34221 X 0.00
expand: firefly_step (1, 0) FAR  w(0) 34221. F 0.01
expand: top_step (2, 0) FAR  w(1) 34598. F 0.01
expand: MAIN (3, 0) FAR  w(0) 32465.
	create_child: top_step (2, 6) FAR 34526 U 0.00
expand: top_step (2, 0) FAR  w(0) 34526. F 0.01
expand: MAIN (3, 0) FAR  w(0) 32465. F 0.00
expand: MAIN (4, 0) FAR  w(0) 2240.
	create_child: MAIN (3, 6) FAR 17913 U 0.00
expand: MAIN (3, 0) FAR  w(0) 17913.
	create_child: MAIN (2, 6) FAR 36247 U 0.00
expand: MAIN (2, 0) FAR  w(0) 36247.
	create_child: top_reset (1, 6) FAR 36381 U 0.00
expand: top_reset (1, 0) FAR  w(0) 36381.
	create_child: Sofar_reset (0, 6) FAR 1625 UNDEF 0.00
expand: Sofar_reset (0, 0) FAR  w(0) 1625.
	create_child: firefly_reset (0, 6) FAR 1606 X 0.00
expand: firefly_reset (0, 0) FAR  w(0) 1606. UNDEF 0.00
expand: firefly_reset (0, 0) FAR  w(1) 1606. T 0.00
is-reachable: top_reset (1, 0) FAR 36381 T 0.00
is-reachable: MAIN (2, 0) FAR 36247 T 0.00
is-reachable: MAIN (3, 0) FAR 17913 T 0.00
is-reachable: MAIN (4, 0) FAR 2240 T 0.00
is-reachable: ERR (5, 0) FAR 1 T 0.00
is-reachable: query!0 (6, 0) FAR 1 T 0.00
(spacer::context::check_reachability :time 0.15 :before-memory 25.78 :after-memory 28.40)
BRUNCH_STAT max_query_lvl 6
BRUNCH_STAT num_queries 96
BRUNCH_STAT num_reach_queries 7
BRUNCH_STAT num_reach_reuse 85
BRUNCH_STAT inductive_lvl 0
BRUNCH_STAT max_depth 6
BRUNCH_STAT cex_depth 6
(:SPACER-cex-depth                     6
 :SPACER-expand-node-undef             9
 :SPACER-max-depth                     6
 :SPACER-max-query-lvl                 6
 :SPACER-num-invariants                74
 :SPACER-num-lemmas                    93
 :SPACER-num-properties                82
 :SPACER-num-queries                   96
 :SPACER-num-reach-queries             7
 :SPACER-num-reuse-reach-facts         85
 :added-eqs                            21647
 :arith-add-rows                       11157
 :arith-assert-diseq                   5220
 :arith-assert-lower                   14143
 :arith-assert-upper                   13737
 :arith-bound-prop                     988
 :arith-conflicts                      128
 :arith-eq-adapter                     5268
 :arith-fixed-eqs                      4428
 :arith-gcd-tests                      247
 :arith-offset-eqs                     2926
 :arith-pivots                         1918
 :bool-inductive-gen                   79
 :bool-inductive-gen-failures          275
 :conflicts                            1074
 :decisions                            17472
 :del-clause                           2055
 :final-checks                         432
 :minimized-lits                       1578
 :mk-bool-var                          12300
 :mk-clause                            8415
 :num-checks                           853
 :propagations                         195845
 :time.itp_solver.itp_core             0.03
 :time.spacer.init_rules               0.01
 :time.spacer.init_rules.pt.init       0.00
 :time.spacer.solve                    0.60
 :time.spacer.solve.propagate          0.01
 :time.spacer.solve.pt.must_reachable  0.02
 :time.spacer.solve.reach              0.59
 :time.spacer.solve.reach.children     0.13
 :time.spacer.solve.reach.gen.bool_ind 0.14
 :time.spacer.solve.reach.is-reach     0.02
 :time.virtual_solver.proof            0.02
 :time.virtual_solver.smt.total        0.37
 :time.virtual_solver.smt.total.sat    0.21
 :time.virtual_solver.smt.total.undef  0.01
 :virtual_solver.checks                853
 :virtual_solver.checks.sat            418
 :virtual_solver.checks.undef          14)
BRUNCH_STAT max_query_lvl 6
BRUNCH_STAT num_queries 96
BRUNCH_STAT num_reach_queries 7
BRUNCH_STAT num_reach_reuse 85
BRUNCH_STAT inductive_lvl 0
BRUNCH_STAT max_depth 6
BRUNCH_STAT cex_depth 6

real	0m0.663s
user	0m0.632s
sys	0m0.028s
