(transform N7datalog13mk_coi_filterE...no-op 0s)
(transform N7datalog25mk_interp_tail_simplifierE...14 rules 0s)
(transform N7datalog27mk_quantifier_instantiationE...no-op 0s)
(transform N7datalog8mk_scaleE...no-op 0s)
(transform N7datalog18mk_karr_invariantsE...no-op 0s)
(transform N7datalog14mk_array_blastE...no-op 0s)
(transform N7datalog22mk_subsumption_checkerE...13 rules 0s)
(transform N7datalog12mk_bit_blastE...no-op 0s)
(transform N7datalog15mk_rule_inlinerE...no-op 0s)
(transform N7datalog13mk_coi_filterE...no-op 0s)
(transform N7datalog25mk_interp_tail_simplifierE...13 rules 0s)
(transform N7datalog22mk_subsumption_checkerE...no-op 0s)
(transform N7datalog15mk_rule_inlinerE...no-op 0s)
(transform N7datalog13mk_coi_filterE...no-op 0s)
(transform N7datalog25mk_interp_tail_simplifierE...13 rules 0s)
(transform N7datalog22mk_subsumption_checkerE...no-op 0s)
(transform N7datalog15mk_rule_inlinerE...no-op 0s)
(transform N7datalog22mk_subsumption_checkerE...no-op 0s)
(transform N7datalog15mk_rule_inlinerE...no-op 0s)
(transform N7datalog22mk_subsumption_checkerE...no-op 0s)
(transform N7datalog15mk_rule_inlinerE...no-op 0s)
(transform N7datalog22mk_subsumption_checkerE...no-op 0s)
expand: query!0 (0, 0) FAR  w(0) 1. F 0.00
(spacer::context::check_reachability :time 0.00 :before-memory 13.35 :after-memory 13.78)
Entering level 1
BRUNCH_STAT max_query_lvl 0
BRUNCH_STAT num_queries 0
BRUNCH_STAT num_reach_queries 0
BRUNCH_STAT num_reach_reuse 0
BRUNCH_STAT inductive_lvl 0
BRUNCH_STAT max_depth 1
BRUNCH_STAT cex_depth 0
expand: query!0 (1, 0) FAR  w(0) 1.
	create_child: ERR (0, 1) FAR 1 U 0.00
expand: ERR (0, 0) FAR  w(0) 1. F 0.00
expand: query!0 (1, 0) FAR  w(0) 1. F 0.00
(spacer::context::check_reachability :time 0.00 :before-memory 13.78 :after-memory 14.22)
Propagating: 0 1  ! 2 
(spacer::context::propagate :time 0.00 :before-memory 14.22 :after-memory 14.22)
Entering level 2
BRUNCH_STAT max_query_lvl 1
BRUNCH_STAT num_queries 1
BRUNCH_STAT num_reach_queries 0
BRUNCH_STAT num_reach_reuse 0
BRUNCH_STAT inductive_lvl 0
BRUNCH_STAT max_depth 2
BRUNCH_STAT cex_depth 0
expand: query!0 (2, 0) FAR  w(0) 1.
	create_child: ERR (1, 2) FAR 1 U 0.00
expand: ERR (1, 0) FAR  w(0) 1.
	create_child: MAIN (0, 2) FAR 2488 U 0.00
expand: MAIN (0, 0) FAR  w(0) 2488. F 0.00
expand: ERR (1, 0) FAR  w(0) 1. F 0.00
expand: query!0 (2, 0) FAR  w(0) 1. F 0.00
(spacer::context::check_reachability :time 0.00 :before-memory 14.22 :after-memory 14.68)
Propagating: 0 1 2  ! 3 
(spacer::context::propagate :time 0.00 :before-memory 14.68 :after-memory 14.68)
Entering level 3
BRUNCH_STAT max_query_lvl 2
BRUNCH_STAT num_queries 3
BRUNCH_STAT num_reach_queries 0
BRUNCH_STAT num_reach_reuse 0
BRUNCH_STAT inductive_lvl 0
BRUNCH_STAT max_depth 3
BRUNCH_STAT cex_depth 0
expand: query!0 (3, 0) FAR  w(0) 1.
	create_child: ERR (2, 3) FAR 1 U 0.00
expand: ERR (2, 0) FAR  w(0) 1.
	create_child: MAIN (1, 3) FAR 2488 U 0.00
expand: MAIN (1, 0) FAR  w(0) 2488.
	create_child: top_step (0, 3) FAR 3306 U 0.00
expand: top_step (0, 0) FAR  w(0) 3306. F 0.00
expand: MAIN (1, 0) FAR  w(0) 2488. F 0.00
expand: ERR (2, 0) FAR  w(0) 1. F 0.00
expand: query!0 (3, 0) FAR  w(0) 1. F 0.00
(spacer::context::check_reachability :time 0.01 :before-memory 14.68 :after-memory 15.84)
Propagating: 0 1 2 3  ! 4 
(spacer::context::propagate :time 0.00 :before-memory 15.84 :after-memory 15.94)
Entering level 4
BRUNCH_STAT max_query_lvl 3
BRUNCH_STAT num_queries 6
BRUNCH_STAT num_reach_queries 0
BRUNCH_STAT num_reach_reuse 0
BRUNCH_STAT inductive_lvl 0
BRUNCH_STAT max_depth 4
BRUNCH_STAT cex_depth 0
expand: query!0 (4, 0) FAR  w(0) 1.
	create_child: ERR (3, 4) FAR 1 U 0.00
expand: ERR (3, 0) FAR  w(0) 1.
	create_child: MAIN (2, 4) FAR 2488 U 0.00
expand: MAIN (2, 0) FAR  w(0) 2488.
	create_child: top_step (1, 4) FAR 3306 U 0.00
expand: top_step (1, 0) FAR  w(0) 3306.
	create_child: top_reset (1, 4) FAR 9314 X 0.01
expand: top_reset (1, 0) FAR  w(0) 9314. F 0.00
expand: MAIN (2, 0) FAR  w(0) 2488.
	create_child: top_reset (1, 4) FAR 12840 U 0.01
expand: top_reset (1, 0) FAR  w(0) 12840.
	create_child: First_reset (0, 4) FAR 12724 U 0.00
expand: First_reset (0, 0) FAR  w(0) 12724. F 0.00
expand: top_reset (1, 0) FAR  w(0) 12840. F 0.00
expand: MAIN (2, 0) FAR  w(0) 2488.
	create_child: top_reset (1, 4) FAR 13116 U 0.00
expand: top_reset (1, 0) FAR  w(0) 13116.
	create_child: Sofar_reset (0, 4) FAR 12960 U 0.00
expand: Sofar_reset (0, 0) FAR  w(0) 12960. F 0.00
expand: top_reset (1, 0) FAR  w(0) 13116. F 0.00
expand: MAIN (2, 0) FAR  w(0) 2488.
	create_child: top_reset (1, 4) FAR 13255 U 0.00
expand: top_reset (1, 0) FAR  w(0) 13255.
	create_child: firefly_reset (0, 4) FAR 13221 U 0.00
expand: firefly_reset (0, 0) FAR  w(0) 13221. F 0.00
expand: top_reset (1, 0) FAR  w(0) 13255. F 0.00
expand: MAIN (2, 0) FAR  w(0) 2488.
	create_child: top_step (1, 4) FAR 13348 U 0.00
expand: top_step (1, 0) FAR  w(0) 13348.
	create_child: First_step (0, 4) FAR 13977 U 0.01
expand: First_step (0, 0) FAR  w(0) 13977. F 0.00
expand: top_step (1, 0) FAR  w(0) 13348.
	create_child: First_step (0, 4) FAR 14263 U 0.00
expand: First_step (0, 0) FAR  w(0) 14263. F 0.00
expand: top_step (1, 0) FAR  w(0) 13348.
	create_child: Sofar_step (0, 4) FAR 14442 U 0.00
expand: Sofar_step (0, 0) FAR  w(0) 14442. F 0.00
expand: top_step (1, 0) FAR  w(0) 13348.
	create_child: Sofar_step (0, 4) FAR 14031 U 0.00
expand: Sofar_step (0, 0) FAR  w(0) 14031.
	create_child: firefly_step (0, 4) FAR 14004 X 0.00
expand: firefly_step (0, 0) FAR  w(0) 14004. F 0.00
expand: top_step (1, 0) FAR  w(0) 13348.
	create_child: Sofar_step (0, 4) FAR 14031 U 0.00
expand: Sofar_step (0, 0) FAR  w(0) 14031.
	create_child: firefly_step (0, 4) FAR 16542 X 0.00
expand: firefly_step (0, 0) FAR  w(0) 16542. F 0.00
expand: top_step (1, 0) FAR  w(0) 13348.
	create_child: First_step (0, 4) FAR 16770 U 0.00
expand: First_step (0, 0) FAR  w(0) 16770.
	create_child: firefly_step (0, 4) FAR 16708 X 0.00
expand: firefly_step (0, 0) FAR  w(0) 16708. F 0.00
expand: top_step (1, 0) FAR  w(0) 13348.
	create_child: First_step (0, 4) FAR 16770 U 0.00
expand: First_step (0, 0) FAR  w(0) 16770.
	create_child: firefly_step (0, 4) FAR 17075 X 0.00
expand: firefly_step (0, 0) FAR  w(0) 17075. F 0.00
expand: top_step (1, 0) FAR  w(0) 13348. F 0.00
expand: MAIN (2, 0) FAR  w(0) 2488. F 0.00
expand: ERR (3, 0) FAR  w(0) 1. F 0.00
expand: query!0 (4, 0) FAR  w(0) 1. F 0.00
(spacer::context::check_reachability :time 0.08 :before-memory 15.94 :after-memory 24.22)
Propagating: 0 1 2 3 4  ! 5 
(spacer::context::propagate :time 0.00 :before-memory 24.22 :after-memory 24.22)
Entering level 5
BRUNCH_STAT max_query_lvl 4
BRUNCH_STAT num_queries 23
BRUNCH_STAT num_reach_queries 1
BRUNCH_STAT num_reach_reuse 27
BRUNCH_STAT inductive_lvl 0
BRUNCH_STAT max_depth 5
BRUNCH_STAT cex_depth 0
expand: query!0 (5, 0) FAR  w(0) 1.
	create_child: ERR (4, 5) FAR 1 U 0.00
expand: ERR (4, 0) FAR  w(0) 1.
	create_child: MAIN (3, 5) FAR 2488 U 0.00
expand: MAIN (3, 0) FAR  w(0) 2488.
	create_child: MAIN (2, 5) FAR 17722 U 0.00
expand: MAIN (2, 0) FAR  w(0) 17722.
	create_child: top_step (1, 5) FAR 17640 U 0.00
expand: top_step (1, 0) FAR  w(0) 17640.
	create_child: firefly_step (0, 5) FAR 17863 U 0.00
expand: firefly_step (0, 0) FAR  w(0) 17863. F 0.00
expand: top_step (1, 0) FAR  w(0) 17640.
	create_child: First_step (0, 5) FAR 18088 U 0.00
expand: First_step (0, 0) FAR  w(0) 18088.
	create_child: Sofar_step (0, 5) FAR 18061 X 0.00
expand: Sofar_step (0, 0) FAR  w(0) 18061. F 0.00
expand: top_step (1, 0) FAR  w(0) 17640. F 0.00
expand: MAIN (2, 0) FAR  w(0) 17722. F 0.00
expand: MAIN (3, 0) FAR  w(0) 2488.
	create_child: MAIN (2, 5) FAR 18532 U 0.00
expand: MAIN (2, 0) FAR  w(0) 18532.
	create_child: top_step (1, 5) FAR 18404 U 0.00
expand: top_step (1, 0) FAR  w(0) 18404.
	create_child: Sofar_step (0, 5) FAR 18550 U 0.00
expand: Sofar_step (0, 0) FAR  w(0) 18550. F 0.00
expand: top_step (1, 0) FAR  w(0) 18404. F 0.00
expand: MAIN (2, 0) FAR  w(0) 18532. F 0.00
expand: MAIN (3, 0) FAR  w(0) 2488.
	create_child: MAIN (2, 5) FAR 18674 U 0.00
expand: MAIN (2, 0) FAR  w(0) 18674.
	create_child: top_step (1, 5) FAR 18554 U 0.00
expand: top_step (1, 0) FAR  w(0) 18554.
	create_child: firefly_step (0, 5) FAR 18648 U 0.00
expand: firefly_step (0, 0) FAR  w(0) 18648. F 0.00
expand: top_step (1, 0) FAR  w(0) 18554. F 0.00
expand: MAIN (2, 0) FAR  w(0) 18674. F 0.00
expand: MAIN (3, 0) FAR  w(0) 2488.
	create_child: MAIN (2, 5) FAR 19288 U 0.00
expand: MAIN (2, 0) FAR  w(0) 19288.
	create_child: top_step (1, 5) FAR 19247 U 0.00
expand: top_step (1, 0) FAR  w(0) 19247. F 0.00
expand: MAIN (2, 0) FAR  w(0) 19288. F 0.00
expand: MAIN (3, 0) FAR  w(0) 2488.
	create_child: MAIN (2, 5) FAR 19707 U 0.00
expand: MAIN (2, 0) FAR  w(0) 19707.
	create_child: top_step (1, 5) FAR 19597 U 0.00
expand: top_step (1, 0) FAR  w(0) 19597.
	create_child: First_step (0, 5) FAR 19894 U 0.00
expand: First_step (0, 0) FAR  w(0) 19894. F 0.00
expand: top_step (1, 0) FAR  w(0) 19597. F 0.00
expand: MAIN (2, 0) FAR  w(0) 19707. F 0.00
expand: MAIN (3, 0) FAR  w(0) 2488.
	create_child: MAIN (2, 5) FAR 20129 U 0.00
expand: MAIN (2, 0) FAR  w(0) 20129.
	create_child: top_step (1, 5) FAR 19987 U 0.00
expand: top_step (1, 0) FAR  w(0) 19987.
	create_child: First_step (0, 5) FAR 20227 U 0.00
expand: First_step (0, 0) FAR  w(0) 20227. F 0.00
expand: top_step (1, 0) FAR  w(0) 19987. F 0.00
expand: MAIN (2, 0) FAR  w(0) 20129. F 0.00
expand: MAIN (3, 0) FAR  w(0) 2488.
	create_child: MAIN (2, 5) FAR 20322 U 0.00
expand: MAIN (2, 0) FAR  w(0) 20322.
	create_child: top_step (1, 5) FAR 20217 U 0.00
expand: top_step (1, 0) FAR  w(0) 20217.
	create_child: firefly_step (0, 5) FAR 20204 U 0.00
expand: firefly_step (0, 0) FAR  w(0) 20204. F 0.00
expand: top_step (1, 0) FAR  w(0) 20217. F 0.00
expand: MAIN (2, 0) FAR  w(0) 20322. F 0.00
expand: MAIN (3, 0) FAR  w(0) 2488.
	create_child: MAIN (2, 5) FAR 20976 U 0.00
expand: MAIN (2, 0) FAR  w(0) 20976.
	create_child: top_step (1, 5) FAR 20921 U 0.00
expand: top_step (1, 0) FAR  w(0) 20921.
	create_child: firefly_step (0, 5) FAR 20873 U 0.00
expand: firefly_step (0, 0) FAR  w(0) 20873. F 0.00
expand: top_step (1, 0) FAR  w(0) 20921. F 0.00
expand: MAIN (2, 0) FAR  w(0) 20976. F 0.00
expand: MAIN (3, 0) FAR  w(0) 2488.
	create_child: MAIN (2, 5) FAR 21201 U 0.00
expand: MAIN (2, 0) FAR  w(0) 21201.
	create_child: top_step (1, 5) FAR 21178 U 0.00
expand: top_step (1, 0) FAR  w(0) 21178. F 0.00
expand: MAIN (2, 0) FAR  w(0) 21201. F 0.01
expand: MAIN (3, 0) FAR  w(0) 2488.
	create_child: MAIN (2, 5) FAR 22179 U 0.00
expand: MAIN (2, 0) FAR  w(0) 22179.
	create_child: top_step (1, 5) FAR 22055 U 0.00
expand: top_step (1, 0) FAR  w(0) 22055.
	create_child: First_step (0, 5) FAR 22371 U 0.00
expand: First_step (0, 0) FAR  w(0) 22371. F 0.00
expand: top_step (1, 0) FAR  w(0) 22055. F 0.00
expand: MAIN (2, 0) FAR  w(0) 22179. F 0.00
expand: MAIN (3, 0) FAR  w(0) 2488.
	create_child: MAIN (2, 5) FAR 22571 U 0.00
expand: MAIN (2, 0) FAR  w(0) 22571. F 0.00
expand: MAIN (3, 0) FAR  w(0) 2488.
	create_child: MAIN (2, 5) FAR 22806 U 0.00
expand: MAIN (2, 0) FAR  w(0) 22806.
	create_child: top_step (1, 5) FAR 22674 U 0.00
expand: top_step (1, 0) FAR  w(0) 22674.
	create_child: firefly_step (0, 5) FAR 22891 U 0.00
expand: firefly_step (0, 0) FAR  w(0) 22891. F 0.00
expand: top_step (1, 0) FAR  w(0) 22674. F 0.00
expand: MAIN (2, 0) FAR  w(0) 22806. F 0.00
expand: MAIN (3, 0) FAR  w(0) 2488.
	create_child: MAIN (2, 5) FAR 23953 U 0.00
expand: MAIN (2, 0) FAR  w(0) 23953.
	create_child: top_step (1, 5) FAR 23751 U 0.00
expand: top_step (1, 0) FAR  w(0) 23751.
	create_child: firefly_step (0, 5) FAR 23936 U 0.00
expand: firefly_step (0, 0) FAR  w(0) 23936. F 0.00
expand: top_step (1, 0) FAR  w(0) 23751. F 0.00
expand: MAIN (2, 0) FAR  w(0) 23953. F 0.00
expand: MAIN (3, 0) FAR  w(0) 2488.
	create_child: top_step (2, 5) FAR 24486 U 0.01
expand: top_step (2, 0) FAR  w(0) 24486.
	create_child: Sofar_step (1, 5) FAR 25246 U 0.01
expand: Sofar_step (1, 0) FAR  w(0) 25246. F 0.00
expand: top_step (2, 0) FAR  w(0) 24486. F 0.00
expand: MAIN (3, 0) FAR  w(0) 2488.
	create_child: top_step (2, 5) FAR 25297 U 0.00
expand: top_step (2, 0) FAR  w(0) 25297.
	create_child: First_step (1, 5) FAR 29490 U 0.02
expand: First_step (1, 0) FAR  w(0) 29490. F 0.00
expand: top_step (2, 0) FAR  w(0) 25297.
	create_child: First_step (1, 5) FAR 29608 U 0.00
expand: First_step (1, 0) FAR  w(0) 29608. F 0.00
expand: top_step (2, 0) FAR  w(0) 25297.
	create_child: First_step (1, 5) FAR 30338 U 0.01
expand: First_step (1, 0) FAR  w(0) 30338.
	create_child: firefly_step (1, 5) FAR 30395 X 0.00
expand: firefly_step (1, 0) FAR  w(0) 30395. F 0.01
expand: top_step (2, 0) FAR  w(0) 25297.
	create_child: First_step (1, 5) FAR 30338 U 0.01
expand: First_step (1, 0) FAR  w(0) 30338.
	create_child: firefly_step (1, 5) FAR 31937 X 0.00
expand: firefly_step (1, 0) FAR  w(0) 31937. F 0.01
expand: top_step (2, 0) FAR  w(0) 25297.
	create_child: First_step (1, 5) FAR 30338 U 0.00
expand: First_step (1, 0) FAR  w(0) 30338.
	create_child: firefly_step (1, 5) FAR 32564 X 0.00
expand: firefly_step (1, 0) FAR  w(0) 32564. F 0.01
expand: top_step (2, 0) FAR  w(0) 25297.
	create_child: First_step (1, 5) FAR 30338 U 0.01
expand: First_step (1, 0) FAR  w(0) 30338.
	create_child: firefly_step (1, 5) FAR 32360 X 0.00
expand: firefly_step (1, 0) FAR  w(0) 32360. F 0.01
expand: top_step (2, 0) FAR  w(0) 25297.
	create_child: First_step (1, 5) FAR 30338 U 0.01
expand: First_step (1, 0) FAR  w(0) 30338.
	create_child: firefly_step (1, 5) FAR 33024 X 0.00
expand: firefly_step (1, 0) FAR  w(0) 33024. F 0.01
expand: top_step (2, 0) FAR  w(0) 25297.
	create_child: First_step (1, 5) FAR 30338 U 0.01
expand: First_step (1, 0) FAR  w(0) 30338.
	create_child: firefly_step (1, 5) FAR 33572 X 0.00
expand: firefly_step (1, 0) FAR  w(0) 33572. F 0.00
expand: top_step (2, 0) FAR  w(0) 25297.
	create_child: First_step (1, 5) FAR 30338 U 0.01
expand: First_step (1, 0) FAR  w(0) 30338.
	create_child: firefly_step (1, 5) FAR 33679 X 0.00
expand: firefly_step (1, 0) FAR  w(0) 33679. F 0.01
expand: top_step (2, 0) FAR  w(0) 25297.
	create_child: First_step (1, 5) FAR 30338 U 0.00
expand: First_step (1, 0) FAR  w(0) 30338.
	create_child: firefly_step (1, 5) FAR 34166 X 0.00
expand: firefly_step (1, 0) FAR  w(0) 34166. F 0.01
expand: top_step (2, 0) FAR  w(0) 25297.
	create_child: First_step (1, 5) FAR 30338 U 0.00
expand: First_step (1, 0) FAR  w(0) 30338.
	create_child: firefly_step (1, 5) FAR 34542 X 0.00
expand: firefly_step (1, 0) FAR  w(0) 34542. F 0.00
expand: top_step (2, 0) FAR  w(0) 25297.
	create_child: First_step (1, 5) FAR 30338 U 0.00
expand: First_step (1, 0) FAR  w(0) 30338.
	create_child: firefly_step (1, 5) FAR 34057 X 0.00
expand: firefly_step (1, 0) FAR  w(0) 34057. F 0.01
expand: top_step (2, 0) FAR  w(0) 25297.
	create_child: First_step (1, 5) FAR 30338 U 0.01
expand: First_step (1, 0) FAR  w(0) 30338.
	create_child: firefly_step (1, 5) FAR 34919 X 0.00
expand: firefly_step (1, 0) FAR  w(0) 34919. F 0.01
expand: top_step (2, 0) FAR  w(0) 25297.
	create_child: First_step (1, 5) FAR 30338 U 0.01
expand: First_step (1, 0) FAR  w(0) 30338.
	create_child: excludes8_fun (1, 5) FAR 35211 X 0.00
expand: excludes8_fun (1, 0) FAR  w(0) 35211. F 0.00
expand: top_step (2, 0) FAR  w(0) 25297.
	create_child: First_step (1, 5) FAR 30338 U 0.00
expand: First_step (1, 0) FAR  w(0) 30338.
	create_child: excludes8_fun (1, 5) FAR 35620 X 0.00
expand: excludes8_fun (1, 0) FAR  w(0) 35620. F 0.00
expand: top_step (2, 0) FAR  w(0) 25297.
	create_child: First_step (1, 5) FAR 30338 U 0.00
expand: First_step (1, 0) FAR  w(0) 30338.
	create_child: excludes8_fun (1, 5) FAR 35473 X 0.00
expand: excludes8_fun (1, 0) FAR  w(0) 35473. F 0.00
expand: top_step (2, 0) FAR  w(0) 25297.
	create_child: First_step (1, 5) FAR 30338 U 0.00
expand: First_step (1, 0) FAR  w(0) 30338.
	create_child: excludes8_fun (1, 5) FAR 35676 X 0.00
expand: excludes8_fun (1, 0) FAR  w(0) 35676. F 0.00
expand: top_step (2, 0) FAR  w(0) 25297.
	create_child: First_step (1, 5) FAR 35606 U 0.01
expand: First_step (1, 0) FAR  w(0) 35606.
	create_child: excludes8_fun (1, 5) FAR 35600 X 0.00
expand: excludes8_fun (1, 0) FAR  w(0) 35600. F 0.00
expand: top_step (2, 0) FAR  w(0) 25297.
	create_child: First_step (1, 5) FAR 35606 U 0.00
expand: First_step (1, 0) FAR  w(0) 35606.
	create_child: excludes8_fun (1, 5) FAR 35418 X 0.00
expand: excludes8_fun (1, 0) FAR  w(0) 35418. F 0.00
expand: top_step (2, 0) FAR  w(0) 25297.
	create_child: First_step (1, 5) FAR 35606 U 0.01
expand: First_step (1, 0) FAR  w(0) 35606.
	create_child: excludes8_fun (1, 5) FAR 36045 X 0.00
expand: excludes8_fun (1, 0) FAR  w(0) 36045. F 0.00
expand: top_step (2, 0) FAR  w(0) 25297.
	create_child: First_step (1, 5) FAR 35606 U 0.00
expand: First_step (1, 0) FAR  w(0) 35606.
	create_child: excludes8_fun (1, 5) FAR 35656 X 0.00
expand: excludes8_fun (1, 0) FAR  w(0) 35656. F 0.00
expand: top_step (2, 0) FAR  w(0) 25297.
	create_child: First_step (1, 5) FAR 35606 U 0.01
expand: First_step (1, 0) FAR  w(0) 35606.
	create_child: excludes8_fun (1, 5) FAR 36044 X 0.00
expand: excludes8_fun (1, 0) FAR  w(0) 36044. F 0.00
expand: top_step (2, 0) FAR  w(0) 25297.
	create_child: First_step (1, 5) FAR 35783 U 0.01
expand: First_step (1, 0) FAR  w(0) 35783.
	create_child: excludes8_fun (1, 5) FAR 36094 X 0.00
expand: excludes8_fun (1, 0) FAR  w(0) 36094. F 0.00
expand: top_step (2, 0) FAR  w(0) 25297.
	create_child: First_step (1, 5) FAR 35783 U 0.00
expand: First_step (1, 0) FAR  w(0) 35783.
	create_child: excludes8_fun (1, 5) FAR 36143 X 0.00
expand: excludes8_fun (1, 0) FAR  w(0) 36143. F 0.00
expand: top_step (2, 0) FAR  w(0) 25297.
	create_child: First_step (1, 5) FAR 35783 U 0.00
expand: First_step (1, 0) FAR  w(0) 35783.
	create_child: excludes8_fun (1, 5) FAR 35809 X 0.00
expand: excludes8_fun (1, 0) FAR  w(0) 35809. F 0.00
expand: top_step (2, 0) FAR  w(0) 25297.
	create_child: First_step (1, 5) FAR 35783 U 0.00
expand: First_step (1, 0) FAR  w(0) 35783.
	create_child: excludes8_fun (1, 5) FAR 35993 X 0.00
expand: excludes8_fun (1, 0) FAR  w(0) 35993. F 0.00
expand: top_step (2, 0) FAR  w(0) 25297.
	create_child: First_step (1, 5) FAR 35783 U 0.00
expand: First_step (1, 0) FAR  w(0) 35783.
	create_child: excludes8_fun (1, 5) FAR 36300 X 0.00
expand: excludes8_fun (1, 0) FAR  w(0) 36300. F 0.00
expand: top_step (2, 0) FAR  w(0) 25297.
	create_child: First_step (1, 5) FAR 35783 U 0.00
expand: First_step (1, 0) FAR  w(0) 35783.
	create_child: excludes8_fun (1, 5) FAR 35767 X 0.00
expand: excludes8_fun (1, 0) FAR  w(0) 35767. F 0.00
expand: top_step (2, 0) FAR  w(0) 25297. F 0.02
expand: MAIN (3, 0) FAR  w(0) 2488.
	create_child: top_step (2, 5) FAR 25159 U 0.00
expand: top_step (2, 0) FAR  w(0) 25159. F 0.02
expand: MAIN (3, 0) FAR  w(0) 2488. F 0.00
expand: ERR (4, 0) FAR  w(0) 1. F 0.00
expand: query!0 (5, 0) FAR  w(0) 1. F 0.00
(spacer::context::check_reachability :time 0.57 :before-memory 24.22 :after-memory 30.17)
Propagating: 0 1 2 3 4 5  ! 6 
(spacer::context::propagate :time 0.01 :before-memory 30.17 :after-memory 30.17)
Entering level 6
BRUNCH_STAT max_query_lvl 5
BRUNCH_STAT num_queries 93
BRUNCH_STAT num_reach_queries 1
BRUNCH_STAT num_reach_reuse 116
BRUNCH_STAT inductive_lvl 0
BRUNCH_STAT max_depth 6
BRUNCH_STAT cex_depth 0
expand: query!0 (6, 0) FAR  w(0) 1.
	create_child: ERR (5, 6) FAR 1 U 0.00
expand: ERR (5, 0) FAR  w(0) 1.
	create_child: MAIN (4, 6) FAR 2488 U 0.00
expand: MAIN (4, 0) FAR  w(0) 2488.
	create_child: MAIN (3, 6) FAR 39131 U 0.00
expand: MAIN (3, 0) FAR  w(0) 39131.
	create_child: top_step (2, 6) FAR 38976 U 0.00
expand: top_step (2, 0) FAR  w(0) 38976. F 0.00
expand: MAIN (3, 0) FAR  w(0) 39131. F 0.00
expand: MAIN (4, 0) FAR  w(0) 2488.
	create_child: MAIN (3, 6) FAR 23953 U 0.00
expand: MAIN (3, 0) FAR  w(0) 23953.
	create_child: top_step (2, 6) FAR 39139 U 0.00
expand: top_step (2, 0) FAR  w(0) 39139. F 0.00
expand: MAIN (3, 0) FAR  w(0) 23953.
	create_child: top_step (2, 6) FAR 39051 U 0.00
expand: top_step (2, 0) FAR  w(0) 39051.
	create_child: firefly_step (1, 6) FAR 39383 U 0.00
expand: firefly_step (1, 0) FAR  w(0) 39383. F 0.01
expand: top_step (2, 0) FAR  w(0) 39051.
	create_child: firefly_step (1, 6) FAR 39497 U 0.00
expand: firefly_step (1, 0) FAR  w(0) 39497. F 0.00
expand: top_step (2, 0) FAR  w(0) 39051. F 0.01
expand: MAIN (3, 0) FAR  w(0) 23953. F 0.00
expand: MAIN (4, 0) FAR  w(0) 2488.
	create_child: MAIN (3, 6) FAR 39656 U 0.00
expand: MAIN (3, 0) FAR  w(0) 39656.
	create_child: top_step (2, 6) FAR 39992 U 0.00
expand: top_step (2, 0) FAR  w(0) 39992.
	create_child: firefly_step (1, 6) FAR 40103 U 0.00
expand: firefly_step (1, 0) FAR  w(0) 40103. F 0.00
expand: top_step (2, 0) FAR  w(0) 39992. F 0.00
expand: MAIN (3, 0) FAR  w(0) 39656. F 0.00
expand: MAIN (4, 0) FAR  w(0) 2488.
	create_child: MAIN (3, 6) FAR 40584 U 0.00
expand: MAIN (3, 0) FAR  w(0) 40584.
	create_child: top_step (2, 6) FAR 40488 U 0.00
expand: top_step (2, 0) FAR  w(0) 40488.
	create_child: firefly_step (1, 6) FAR 40634 U 0.00
expand: firefly_step (1, 0) FAR  w(0) 40634. F 0.00
expand: top_step (2, 0) FAR  w(0) 40488. F 0.00
expand: MAIN (3, 0) FAR  w(0) 40584. F 0.00
expand: MAIN (4, 0) FAR  w(0) 2488.
	create_child: MAIN (3, 6) FAR 22806 U 0.00
expand: MAIN (3, 0) FAR  w(0) 22806.
	create_child: top_step (2, 6) FAR 40961 U 0.00
expand: top_step (2, 0) FAR  w(0) 40961.
	create_child: MAIN (2, 6) FAR 41186 X 0.01
expand: MAIN (2, 0) FAR  w(0) 41186.
	create_child: top_step (1, 6) FAR 41116 U 0.00
expand: top_step (1, 0) FAR  w(0) 41116.
	create_child: firefly_step (0, 6) FAR 41547 U 0.00
expand: firefly_step (0, 0) FAR  w(0) 41547. F 0.00
expand: top_step (1, 0) FAR  w(0) 41116. F 0.00
expand: MAIN (2, 0) FAR  w(0) 41186. F 0.00
expand: MAIN (3, 0) FAR  w(0) 22806.
	create_child: MAIN (2, 6) FAR 41915 U 0.00
expand: MAIN (2, 0) FAR  w(0) 41915.
	create_child: top_reset (1, 6) FAR 42019 U 0.00
expand: top_reset (1, 0) FAR  w(0) 42019. T 0.00
is-reachable: MAIN (2, 0) FAR 41915 T 0.00
is-reachable: MAIN (3, 0) FAR 22806 T 0.01
is-reachable: MAIN (4, 0) FAR 2488 T 0.01
is-reachable: ERR (5, 0) FAR 1 T 0.00
is-reachable: query!0 (6, 0) FAR 1 T 0.00
(spacer::context::check_reachability :time 0.13 :before-memory 30.17 :after-memory 33.36)
BRUNCH_STAT max_query_lvl 6
BRUNCH_STAT num_queries 114
BRUNCH_STAT num_reach_queries 7
BRUNCH_STAT num_reach_reuse 141
BRUNCH_STAT inductive_lvl 0
BRUNCH_STAT max_depth 6
BRUNCH_STAT cex_depth 6
(:SPACER-cex-depth                     6
 :SPACER-max-depth                     6
 :SPACER-max-query-lvl                 6
 :SPACER-num-invariants                89
 :SPACER-num-lemmas                    115
 :SPACER-num-properties                103
 :SPACER-num-queries                   114
 :SPACER-num-reach-queries             7
 :SPACER-num-reuse-reach-facts         141
 :added-eqs                            30253
 :arith-add-rows                       19539
 :arith-assert-diseq                   6619
 :arith-assert-lower                   18373
 :arith-assert-upper                   19302
 :arith-bound-prop                     1385
 :arith-conflicts                      176
 :arith-eq-adapter                     6176
 :arith-fixed-eqs                      5406
 :arith-offset-eqs                     4584
 :arith-pivots                         2515
 :bool-inductive-gen                   101
 :bool-inductive-gen-failures          275
 :conflicts                            1256
 :decisions                            25206
 :del-clause                           1951
 :final-checks                         470
 :minimized-lits                       1357
 :mk-bool-var                          15186
 :mk-clause                            9359
 :num-checks                           1016
 :propagations                         245209
 :time.itp_solver.itp_core             0.04
 :time.spacer.init_rules               0.01
 :time.spacer.init_rules.pt.init       0.00
 :time.spacer.solve                    0.80
 :time.spacer.solve.propagate          0.01
 :time.spacer.solve.pt.must_reachable  0.04
 :time.spacer.solve.reach              0.79
 :time.spacer.solve.reach.children     0.16
 :time.spacer.solve.reach.gen.bool_ind 0.16
 :time.spacer.solve.reach.is-reach     0.02
 :time.virtual_solver.proof            0.02
 :time.virtual_solver.smt.total        0.50
 :time.virtual_solver.smt.total.sat    0.29
 :virtual_solver.checks                1016
 :virtual_solver.checks.sat            470)
BRUNCH_STAT max_query_lvl 6
BRUNCH_STAT num_queries 114
BRUNCH_STAT num_reach_queries 7
BRUNCH_STAT num_reach_reuse 141
BRUNCH_STAT inductive_lvl 0
BRUNCH_STAT max_depth 6
BRUNCH_STAT cex_depth 6

real	0m0.875s
user	0m0.852s
sys	0m0.020s
