(transform N7datalog13mk_coi_filterE...no-op 0s)
(transform N7datalog25mk_interp_tail_simplifierE...14 rules 0s)
(transform N7datalog27mk_quantifier_instantiationE...no-op 0s)
(transform N7datalog8mk_scaleE...no-op 0s)
(transform N7datalog18mk_karr_invariantsE...no-op 0s)
(transform N7datalog14mk_array_blastE...no-op 0s)
(transform N7datalog22mk_subsumption_checkerE...13 rules 0s)
(transform N7datalog12mk_bit_blastE...no-op 0s)
(transform N7datalog15mk_rule_inlinerE...no-op 0s)
(transform N7datalog13mk_coi_filterE...no-op 0s)
(transform N7datalog25mk_interp_tail_simplifierE...13 rules 0s)
(transform N7datalog22mk_subsumption_checkerE...no-op 0s)
(transform N7datalog15mk_rule_inlinerE...no-op 0s)
(transform N7datalog13mk_coi_filterE...no-op 0s)
(transform N7datalog25mk_interp_tail_simplifierE...13 rules 0s)
(transform N7datalog22mk_subsumption_checkerE...no-op 0s)
(transform N7datalog15mk_rule_inlinerE...no-op 0s)
(transform N7datalog22mk_subsumption_checkerE...no-op 0s)
(transform N7datalog15mk_rule_inlinerE...no-op 0s)
(transform N7datalog22mk_subsumption_checkerE...no-op 0s)
(transform N7datalog15mk_rule_inlinerE...no-op 0s)
(transform N7datalog22mk_subsumption_checkerE...no-op 0s)
expand: query!0 (0, 0) FAR  w(0) 1. F 0.00
(spacer::context::check_reachability :time 0.00 :before-memory 13.33 :after-memory 13.74)
Entering level 1
BRUNCH_STAT max_query_lvl 0
BRUNCH_STAT num_queries 0
BRUNCH_STAT num_reach_queries 0
BRUNCH_STAT num_reach_reuse 0
BRUNCH_STAT inductive_lvl 0
BRUNCH_STAT max_depth 1
BRUNCH_STAT cex_depth 0
expand: query!0 (1, 0) FAR  w(0) 1.
	create_child: ERR (0, 1) FAR 1 U 0.00
expand: ERR (0, 0) FAR  w(0) 1. F 0.00
expand: query!0 (1, 0) FAR  w(0) 1. F 0.00
(spacer::context::check_reachability :time 0.00 :before-memory 13.74 :after-memory 14.19)
Propagating: 0 1  ! 2 
(spacer::context::propagate :time 0.00 :before-memory 14.19 :after-memory 14.19)
Entering level 2
BRUNCH_STAT max_query_lvl 1
BRUNCH_STAT num_queries 1
BRUNCH_STAT num_reach_queries 0
BRUNCH_STAT num_reach_reuse 0
BRUNCH_STAT inductive_lvl 0
BRUNCH_STAT max_depth 2
BRUNCH_STAT cex_depth 0
expand: query!0 (2, 0) FAR  w(0) 1.
	create_child: ERR (1, 2) FAR 1 U 0.00
expand: ERR (1, 0) FAR  w(0) 1.
	create_child: MAIN (0, 2) FAR 2356 U 0.00
expand: MAIN (0, 0) FAR  w(0) 2356. F 0.00
expand: ERR (1, 0) FAR  w(0) 1. F 0.00
expand: query!0 (2, 0) FAR  w(0) 1. F 0.00
(spacer::context::check_reachability :time 0.00 :before-memory 14.19 :after-memory 14.65)
Propagating: 0 1 2  ! 3 
(spacer::context::propagate :time 0.00 :before-memory 14.65 :after-memory 14.65)
Entering level 3
BRUNCH_STAT max_query_lvl 2
BRUNCH_STAT num_queries 3
BRUNCH_STAT num_reach_queries 0
BRUNCH_STAT num_reach_reuse 0
BRUNCH_STAT inductive_lvl 0
BRUNCH_STAT max_depth 3
BRUNCH_STAT cex_depth 0
expand: query!0 (3, 0) FAR  w(0) 1.
	create_child: ERR (2, 3) FAR 1 U 0.00
expand: ERR (2, 0) FAR  w(0) 1.
	create_child: MAIN (1, 3) FAR 2356 U 0.00
expand: MAIN (1, 0) FAR  w(0) 2356.
	create_child: top_step (0, 3) FAR 3131 U 0.00
expand: top_step (0, 0) FAR  w(0) 3131. F 0.00
expand: MAIN (1, 0) FAR  w(0) 2356. F 0.00
expand: ERR (2, 0) FAR  w(0) 1. F 0.00
expand: query!0 (3, 0) FAR  w(0) 1. F 0.00
(spacer::context::check_reachability :time 0.01 :before-memory 14.65 :after-memory 15.79)
Propagating: 0 1 2 3  ! 4 
(spacer::context::propagate :time 0.00 :before-memory 15.79 :after-memory 15.89)
Entering level 4
BRUNCH_STAT max_query_lvl 3
BRUNCH_STAT num_queries 6
BRUNCH_STAT num_reach_queries 0
BRUNCH_STAT num_reach_reuse 0
BRUNCH_STAT inductive_lvl 0
BRUNCH_STAT max_depth 4
BRUNCH_STAT cex_depth 0
expand: query!0 (4, 0) FAR  w(0) 1.
	create_child: ERR (3, 4) FAR 1 U 0.00
expand: ERR (3, 0) FAR  w(0) 1.
	create_child: MAIN (2, 4) FAR 2356 U 0.00
expand: MAIN (2, 0) FAR  w(0) 2356.
	create_child: top_step (1, 4) FAR 3131 U 0.00
expand: top_step (1, 0) FAR  w(0) 3131.
	create_child: top_reset (1, 4) FAR 8858 X 0.01
expand: top_reset (1, 0) FAR  w(0) 8858.
	create_child: firefly_reset (0, 4) FAR 9452 U 0.00
expand: firefly_reset (0, 0) FAR  w(0) 9452. F 0.00
expand: top_reset (1, 0) FAR  w(0) 8858. F 0.00
expand: MAIN (2, 0) FAR  w(0) 2356.
	create_child: top_reset (1, 4) FAR 12455 U 0.00
expand: top_reset (1, 0) FAR  w(0) 12455.
	create_child: First_reset (0, 4) FAR 12376 U 0.00
expand: First_reset (0, 0) FAR  w(0) 12376. F 0.00
expand: top_reset (1, 0) FAR  w(0) 12455. F 0.00
expand: MAIN (2, 0) FAR  w(0) 2356.
	create_child: top_reset (1, 4) FAR 12600 U 0.00
expand: top_reset (1, 0) FAR  w(0) 12600.
	create_child: Sofar_reset (0, 4) FAR 12433 U 0.00
expand: Sofar_reset (0, 0) FAR  w(0) 12433. F 0.00
expand: top_reset (1, 0) FAR  w(0) 12600. F 0.00
expand: MAIN (2, 0) FAR  w(0) 2356.
	create_child: top_step (1, 4) FAR 12644 U 0.00
expand: top_step (1, 0) FAR  w(0) 12644.
	create_child: First_step (0, 4) FAR 13010 U 0.01
expand: First_step (0, 0) FAR  w(0) 13010. F 0.00
expand: top_step (1, 0) FAR  w(0) 12644.
	create_child: First_step (0, 4) FAR 13235 U 0.00
expand: First_step (0, 0) FAR  w(0) 13235.
	create_child: firefly_step (0, 4) FAR 13258 X 0.00
expand: firefly_step (0, 0) FAR  w(0) 13258. F 0.00
expand: top_step (1, 0) FAR  w(0) 12644.
	create_child: Sofar_step (0, 4) FAR 15557 U 0.00
expand: Sofar_step (0, 0) FAR  w(0) 15557. F 0.00
expand: top_step (1, 0) FAR  w(0) 12644.
	create_child: firefly_step (0, 4) FAR 15701 U 0.00
expand: firefly_step (0, 0) FAR  w(0) 15701. F 0.00
expand: top_step (1, 0) FAR  w(0) 12644.
	create_child: firefly_step (0, 4) FAR 15918 U 0.00
expand: firefly_step (0, 0) FAR  w(0) 15918. F 0.00
expand: top_step (1, 0) FAR  w(0) 12644.
	create_child: firefly_step (0, 4) FAR 15799 U 0.00
expand: firefly_step (0, 0) FAR  w(0) 15799. F 0.00
expand: top_step (1, 0) FAR  w(0) 12644. F 0.00
expand: MAIN (2, 0) FAR  w(0) 2356. F 0.00
expand: ERR (3, 0) FAR  w(0) 1. F 0.00
expand: query!0 (4, 0) FAR  w(0) 1. F 0.00
(spacer::context::check_reachability :time 0.06 :before-memory 15.89 :after-memory 23.13)
Propagating: 0 1 2 3 4  ! 5 
(spacer::context::propagate :time 0.00 :before-memory 23.13 :after-memory 23.13)
Entering level 5
BRUNCH_STAT max_query_lvl 4
BRUNCH_STAT num_queries 21
BRUNCH_STAT num_reach_queries 1
BRUNCH_STAT num_reach_reuse 26
BRUNCH_STAT inductive_lvl 0
BRUNCH_STAT max_depth 5
BRUNCH_STAT cex_depth 0
expand: query!0 (5, 0) FAR  w(0) 1.
	create_child: ERR (4, 5) FAR 1 U 0.00
expand: ERR (4, 0) FAR  w(0) 1.
	create_child: MAIN (3, 5) FAR 2356 U 0.00
expand: MAIN (3, 0) FAR  w(0) 2356.
	create_child: MAIN (2, 5) FAR 16424 U 0.00
expand: MAIN (2, 0) FAR  w(0) 16424.
	create_child: top_step (1, 5) FAR 16362 U 0.00
expand: top_step (1, 0) FAR  w(0) 16362.
	create_child: First_step (0, 5) FAR 16602 U 0.00
expand: First_step (0, 0) FAR  w(0) 16602. F 0.00
expand: top_step (1, 0) FAR  w(0) 16362.
	create_child: First_step (0, 5) FAR 16689 U 0.00
expand: First_step (0, 0) FAR  w(0) 16689.
	create_child: firefly_step (0, 5) FAR 16705 X 0.00
expand: firefly_step (0, 0) FAR  w(0) 16705. F 0.00
expand: top_step (1, 0) FAR  w(0) 16362.
	create_child: First_step (0, 5) FAR 17101 U 0.00
expand: First_step (0, 0) FAR  w(0) 17101.
	create_child: Sofar_step (0, 5) FAR 16918 X 0.00
expand: Sofar_step (0, 0) FAR  w(0) 16918. F 0.00
expand: top_step (1, 0) FAR  w(0) 16362. F 0.00
expand: MAIN (2, 0) FAR  w(0) 16424. F 0.00
expand: MAIN (3, 0) FAR  w(0) 2356.
	create_child: MAIN (2, 5) FAR 17164 U 0.00
expand: MAIN (2, 0) FAR  w(0) 17164.
	create_child: top_step (1, 5) FAR 16888 U 0.00
expand: top_step (1, 0) FAR  w(0) 16888.
	create_child: First_step (0, 5) FAR 16689 U 0.00
expand: First_step (0, 0) FAR  w(0) 16689.
	create_child: firefly_step (0, 5) FAR 17258 X 0.00
expand: firefly_step (0, 0) FAR  w(0) 17258. F 0.00
expand: top_step (1, 0) FAR  w(0) 16888. F 0.01
expand: MAIN (2, 0) FAR  w(0) 17164. F 0.00
expand: MAIN (3, 0) FAR  w(0) 2356.
	create_child: MAIN (2, 5) FAR 17761 U 0.00
expand: MAIN (2, 0) FAR  w(0) 17761.
	create_child: top_reset (1, 5) FAR 17763 U 0.00
expand: top_reset (1, 0) FAR  w(0) 17763. T 0.00
is-reachable: MAIN (2, 0) FAR 17761 T 0.00
is-reachable: MAIN (3, 0) FAR 2356 T 0.00
is-reachable: ERR (4, 0) FAR 1 T 0.00
is-reachable: query!0 (5, 0) FAR 1 T 0.00
(spacer::context::check_reachability :time 0.06 :before-memory 23.13 :after-memory 24.31)
BRUNCH_STAT max_query_lvl 5
BRUNCH_STAT num_queries 33
BRUNCH_STAT num_reach_queries 6
BRUNCH_STAT num_reach_reuse 42
BRUNCH_STAT inductive_lvl 0
BRUNCH_STAT max_depth 5
BRUNCH_STAT cex_depth 5
(:SPACER-cex-depth                     5
 :SPACER-max-depth                     5
 :SPACER-max-query-lvl                 5
 :SPACER-num-invariants                19
 :SPACER-num-lemmas                    34
 :SPACER-num-properties                26
 :SPACER-num-queries                   33
 :SPACER-num-reach-queries             6
 :SPACER-num-reuse-reach-facts         42
 :added-eqs                            4159
 :arith-add-rows                       1651
 :arith-assert-diseq                   681
 :arith-assert-lower                   1982
 :arith-assert-upper                   2034
 :arith-bound-prop                     289
 :arith-conflicts                      34
 :arith-eq-adapter                     894
 :arith-fixed-eqs                      573
 :arith-offset-eqs                     585
 :arith-pivots                         449
 :bool-inductive-gen                   22
 :bool-inductive-gen-failures          46
 :conflicts                            183
 :decisions                            4345
 :del-clause                           481
 :final-checks                         99
 :minimized-lits                       2
 :mk-bool-var                          3962
 :mk-clause                            5012
 :num-checks                           206
 :propagations                         31130
 :time.itp_solver.itp_core             0.01
 :time.spacer.init_rules               0.01
 :time.spacer.init_rules.pt.init       0.00
 :time.spacer.solve                    0.13
 :time.spacer.solve.propagate          0.00
 :time.spacer.solve.pt.must_reachable  0.01
 :time.spacer.solve.reach              0.12
 :time.spacer.solve.reach.children     0.02
 :time.spacer.solve.reach.gen.bool_ind 0.02
 :time.spacer.solve.reach.is-reach     0.01
 :time.virtual_solver.proof            0.00
 :time.virtual_solver.smt.total        0.08
 :time.virtual_solver.smt.total.sat    0.04
 :virtual_solver.checks                206
 :virtual_solver.checks.sat            99)
BRUNCH_STAT max_query_lvl 5
BRUNCH_STAT num_queries 33
BRUNCH_STAT num_reach_queries 6
BRUNCH_STAT num_reach_reuse 42
BRUNCH_STAT inductive_lvl 0
BRUNCH_STAT max_depth 5
BRUNCH_STAT cex_depth 5

real	0m0.180s
user	0m0.168s
sys	0m0.008s
