(transform N7datalog13mk_coi_filterE...no-op 0s)
(transform N7datalog25mk_interp_tail_simplifierE...12 rules 0s)
(transform N7datalog27mk_quantifier_instantiationE...no-op 0s)
(transform N7datalog8mk_scaleE...no-op 0s)
(transform N7datalog18mk_karr_invariantsE...no-op 0s)
(transform N7datalog14mk_array_blastE...no-op 0s)
(transform N7datalog22mk_subsumption_checkerE...11 rules 0s)
(transform N7datalog12mk_bit_blastE...no-op 0s)
(transform N7datalog15mk_rule_inlinerE...no-op 0s)
(transform N7datalog13mk_coi_filterE...no-op 0s)
(transform N7datalog25mk_interp_tail_simplifierE...11 rules 0s)
(transform N7datalog22mk_subsumption_checkerE...no-op 0s)
(transform N7datalog15mk_rule_inlinerE...no-op 0s)
(transform N7datalog13mk_coi_filterE...no-op 0s)
(transform N7datalog25mk_interp_tail_simplifierE...11 rules 0s)
(transform N7datalog22mk_subsumption_checkerE...no-op 0s)
(transform N7datalog15mk_rule_inlinerE...no-op 0s)
(transform N7datalog22mk_subsumption_checkerE...no-op 0s)
(transform N7datalog15mk_rule_inlinerE...no-op 0s)
(transform N7datalog22mk_subsumption_checkerE...no-op 0s)
(transform N7datalog15mk_rule_inlinerE...no-op 0s)
(transform N7datalog22mk_subsumption_checkerE...no-op 0s)
expand: query!0 (0, 0) FAR  w(0) 1. F 0.00
(spacer::context::check_reachability :time 0.00 :before-memory 11.59 :after-memory 12.00)
Entering level 1
BRUNCH_STAT max_query_lvl 0
BRUNCH_STAT num_queries 0
BRUNCH_STAT num_reach_queries 0
BRUNCH_STAT num_reach_reuse 0
BRUNCH_STAT inductive_lvl 0
BRUNCH_STAT max_depth 1
BRUNCH_STAT cex_depth 0
expand: query!0 (1, 0) FAR  w(0) 1.
	create_child: ERR (0, 1) FAR 1 U 0.00
expand: ERR (0, 0) FAR  w(0) 1. F 0.00
expand: query!0 (1, 0) FAR  w(0) 1. F 0.00
(spacer::context::check_reachability :time 0.00 :before-memory 12.00 :after-memory 12.46)
Propagating: 0 1  ! 2 
(spacer::context::propagate :time 0.00 :before-memory 12.46 :after-memory 12.46)
Entering level 2
BRUNCH_STAT max_query_lvl 1
BRUNCH_STAT num_queries 1
BRUNCH_STAT num_reach_queries 0
BRUNCH_STAT num_reach_reuse 0
BRUNCH_STAT inductive_lvl 0
BRUNCH_STAT max_depth 2
BRUNCH_STAT cex_depth 0
expand: query!0 (2, 0) FAR  w(0) 1.
	create_child: ERR (1, 2) FAR 1 U 0.00
expand: ERR (1, 0) FAR  w(0) 1.
	create_child: MAIN (0, 2) FAR 2435 U 0.00
expand: MAIN (0, 0) FAR  w(0) 2435. F 0.00
expand: ERR (1, 0) FAR  w(0) 1. F 0.00
expand: query!0 (2, 0) FAR  w(0) 1. F 0.00
(spacer::context::check_reachability :time 0.00 :before-memory 12.46 :after-memory 12.92)
Propagating: 0 1 2  ! 3 
(spacer::context::propagate :time 0.00 :before-memory 12.92 :after-memory 12.92)
Entering level 3
BRUNCH_STAT max_query_lvl 2
BRUNCH_STAT num_queries 3
BRUNCH_STAT num_reach_queries 0
BRUNCH_STAT num_reach_reuse 0
BRUNCH_STAT inductive_lvl 0
BRUNCH_STAT max_depth 3
BRUNCH_STAT cex_depth 0
expand: query!0 (3, 0) FAR  w(0) 1.
	create_child: ERR (2, 3) FAR 1 U 0.00
expand: ERR (2, 0) FAR  w(0) 1.
	create_child: MAIN (1, 3) FAR 2435 U 0.00
expand: MAIN (1, 0) FAR  w(0) 2435.
	create_child: top_step (0, 3) FAR 3180 U 0.00
expand: top_step (0, 0) FAR  w(0) 3180. F 0.00
expand: MAIN (1, 0) FAR  w(0) 2435. F 0.00
expand: ERR (2, 0) FAR  w(0) 1. F 0.00
expand: query!0 (3, 0) FAR  w(0) 1. F 0.00
(spacer::context::check_reachability :time 0.01 :before-memory 12.92 :after-memory 13.98)
Propagating: 0 1 2 3  ! 4 
(spacer::context::propagate :time 0.00 :before-memory 13.98 :after-memory 14.07)
Entering level 4
BRUNCH_STAT max_query_lvl 3
BRUNCH_STAT num_queries 6
BRUNCH_STAT num_reach_queries 0
BRUNCH_STAT num_reach_reuse 0
BRUNCH_STAT inductive_lvl 0
BRUNCH_STAT max_depth 4
BRUNCH_STAT cex_depth 0
expand: query!0 (4, 0) FAR  w(0) 1.
	create_child: ERR (3, 4) FAR 1 U 0.00
expand: ERR (3, 0) FAR  w(0) 1.
	create_child: MAIN (2, 4) FAR 2435 U 0.00
expand: MAIN (2, 0) FAR  w(0) 2435.
	create_child: top_step (1, 4) FAR 3180 U 0.00
expand: top_step (1, 0) FAR  w(0) 3180.
	create_child: top_reset (1, 4) FAR 9580 X 0.01
expand: top_reset (1, 0) FAR  w(0) 9580. F 0.00
expand: MAIN (2, 0) FAR  w(0) 2435.
	create_child: top_step (1, 4) FAR 13252 U 0.00
expand: top_step (1, 0) FAR  w(0) 13252. F 0.00
expand: MAIN (2, 0) FAR  w(0) 2435. F 0.00
expand: ERR (3, 0) FAR  w(0) 1. F 0.00
expand: query!0 (4, 0) FAR  w(0) 1. F 0.00
(spacer::context::check_reachability :time 0.02 :before-memory 14.07 :after-memory 17.01)
Propagating: 1 2 3 4  ! 5 
(spacer::context::propagate :time 0.00 :before-memory 17.01 :after-memory 17.01)
Entering level 5
BRUNCH_STAT max_query_lvl 4
BRUNCH_STAT num_queries 10
BRUNCH_STAT num_reach_queries 1
BRUNCH_STAT num_reach_reuse 3
BRUNCH_STAT inductive_lvl 0
BRUNCH_STAT max_depth 5
BRUNCH_STAT cex_depth 0
expand: query!0 (5, 0) FAR  w(0) 1.
	create_child: ERR (4, 5) FAR 1 U 0.00
expand: ERR (4, 0) FAR  w(0) 1.
	create_child: MAIN (3, 5) FAR 2435 U 0.00
expand: MAIN (3, 0) FAR  w(0) 2435.
	create_child: MAIN (2, 5) FAR 13811 U 0.00
expand: MAIN (2, 0) FAR  w(0) 13811.
	create_child: top_reset (1, 5) FAR 14025 U 0.00
expand: top_reset (1, 0) FAR  w(0) 14025.
	create_child: Sofar_reset (0, 5) FAR 13969 U 0.00
expand: Sofar_reset (0, 0) FAR  w(0) 13969. F 0.00
expand: top_reset (1, 0) FAR  w(0) 14025. F 0.00
expand: MAIN (2, 0) FAR  w(0) 13811.
	create_child: top_reset (1, 5) FAR 14297 U 0.00
expand: top_reset (1, 0) FAR  w(0) 14297.
	create_child: illinois_reset (0, 5) FAR 14218 U 0.00
expand: illinois_reset (0, 0) FAR  w(0) 14218. F 0.00
expand: top_reset (1, 0) FAR  w(0) 14297. F 0.00
expand: MAIN (2, 0) FAR  w(0) 13811.
	create_child: top_step (1, 5) FAR 14356 U 0.00
expand: top_step (1, 0) FAR  w(0) 14356.
	create_child: illinois_step (0, 5) FAR 14548 U 0.00
expand: illinois_step (0, 0) FAR  w(0) 14548. F 0.01
expand: top_step (1, 0) FAR  w(0) 14356. F 0.00
expand: MAIN (2, 0) FAR  w(0) 13811. F 0.00
expand: MAIN (3, 0) FAR  w(0) 2435.
	create_child: MAIN (2, 5) FAR 17400 U 0.00
expand: MAIN (2, 0) FAR  w(0) 17400.
	create_child: top_step (1, 5) FAR 17199 U 0.00
expand: top_step (1, 0) FAR  w(0) 17199.
	create_child: illinois_step (0, 5) FAR 17403 U 0.00
expand: illinois_step (0, 0) FAR  w(0) 17403. F 0.00
expand: top_step (1, 0) FAR  w(0) 17199. F 0.00
expand: MAIN (2, 0) FAR  w(0) 17400. F 0.00
expand: MAIN (3, 0) FAR  w(0) 2435.
	create_child: MAIN (2, 5) FAR 17762 U 0.00
expand: MAIN (2, 0) FAR  w(0) 17762.
	create_child: top_step (1, 5) FAR 17668 U 0.00
expand: top_step (1, 0) FAR  w(0) 17668.
	create_child: illinois_step (0, 5) FAR 17489 U 0.00
expand: illinois_step (0, 0) FAR  w(0) 17489. F 0.00
expand: top_step (1, 0) FAR  w(0) 17668. F 0.00
expand: MAIN (2, 0) FAR  w(0) 17762. F 0.00
expand: MAIN (3, 0) FAR  w(0) 2435.
	create_child: MAIN (2, 5) FAR 17990 U 0.00
expand: MAIN (2, 0) FAR  w(0) 17990.
	create_child: top_reset (1, 5) FAR 18015 U 0.00
expand: top_reset (1, 0) FAR  w(0) 18015. T 0.00
is-reachable: MAIN (2, 0) FAR 17990 T 0.00
is-reachable: MAIN (3, 0) FAR 2435 T 0.00
is-reachable: ERR (4, 0) FAR 1 T 0.00
is-reachable: query!0 (5, 0) FAR 1 T 0.00
(spacer::context::check_reachability :time 0.05 :before-memory 17.01 :after-memory 20.34)
BRUNCH_STAT max_query_lvl 5
BRUNCH_STAT num_queries 27
BRUNCH_STAT num_reach_queries 6
BRUNCH_STAT num_reach_reuse 19
BRUNCH_STAT inductive_lvl 0
BRUNCH_STAT max_depth 5
BRUNCH_STAT cex_depth 5
(:SPACER-cex-depth                     5
 :SPACER-max-depth                     5
 :SPACER-max-query-lvl                 5
 :SPACER-num-invariants                12
 :SPACER-num-lemmas                    28
 :SPACER-num-properties                20
 :SPACER-num-queries                   27
 :SPACER-num-reach-queries             6
 :SPACER-num-reuse-reach-facts         19
 :added-eqs                            2079
 :arith-add-rows                       1294
 :arith-assert-diseq                   417
 :arith-assert-lower                   1119
 :arith-assert-upper                   1022
 :arith-bound-prop                     249
 :arith-conflicts                      22
 :arith-eq-adapter                     487
 :arith-fixed-eqs                      313
 :arith-offset-eqs                     317
 :arith-pivots                         299
 :bool-inductive-gen                   16
 :bool-inductive-gen-failures          21
 :conflicts                            135
 :decisions                            1928
 :del-clause                           320
 :final-checks                         57
 :mk-bool-var                          3095
 :mk-clause                            5091
 :num-checks                           147
 :propagations                         16141
 :time.itp_solver.itp_core             0.01
 :time.spacer.init_rules               0.01
 :time.spacer.init_rules.pt.init       0.00
 :time.spacer.solve                    0.08
 :time.spacer.solve.propagate          0.00
 :time.spacer.solve.pt.must_reachable  0.00
 :time.spacer.solve.reach              0.08
 :time.spacer.solve.reach.children     0.01
 :time.spacer.solve.reach.gen.bool_ind 0.01
 :time.spacer.solve.reach.is-reach     0.01
 :time.virtual_solver.proof            0.00
 :time.virtual_solver.smt.total        0.05
 :time.virtual_solver.smt.total.sat    0.02
 :virtual_solver.checks                147
 :virtual_solver.checks.sat            57)
BRUNCH_STAT max_query_lvl 5
BRUNCH_STAT num_queries 27
BRUNCH_STAT num_reach_queries 6
BRUNCH_STAT num_reach_reuse 19
BRUNCH_STAT inductive_lvl 0
BRUNCH_STAT max_depth 5
BRUNCH_STAT cex_depth 5

real	0m0.134s
user	0m0.116s
sys	0m0.016s
