(transform N7datalog13mk_coi_filterE...no-op 0s)
(transform N7datalog25mk_interp_tail_simplifierE...12 rules 0s)
(transform N7datalog27mk_quantifier_instantiationE...no-op 0s)
(transform N7datalog8mk_scaleE...no-op 0s)
(transform N7datalog18mk_karr_invariantsE...no-op 0s)
(transform N7datalog14mk_array_blastE...no-op 0s)
(transform N7datalog22mk_subsumption_checkerE...11 rules 0s)
(transform N7datalog12mk_bit_blastE...no-op 0s)
(transform N7datalog15mk_rule_inlinerE...no-op 0s)
(transform N7datalog13mk_coi_filterE...no-op 0s)
(transform N7datalog25mk_interp_tail_simplifierE...11 rules 0s)
(transform N7datalog22mk_subsumption_checkerE...no-op 0s)
(transform N7datalog15mk_rule_inlinerE...no-op 0s)
(transform N7datalog13mk_coi_filterE...no-op 0s)
(transform N7datalog25mk_interp_tail_simplifierE...11 rules 0s)
(transform N7datalog22mk_subsumption_checkerE...no-op 0s)
(transform N7datalog15mk_rule_inlinerE...no-op 0s)
(transform N7datalog22mk_subsumption_checkerE...no-op 0s)
(transform N7datalog15mk_rule_inlinerE...no-op 0s)
(transform N7datalog22mk_subsumption_checkerE...no-op 0s)
(transform N7datalog15mk_rule_inlinerE...no-op 0s)
(transform N7datalog22mk_subsumption_checkerE...no-op 0s)
expand: query!0 (0, 0) FAR  w(0) 1. F 0.00
(spacer::context::check_reachability :time 0.00 :before-memory 11.61 :after-memory 12.00)
Entering level 1
BRUNCH_STAT max_query_lvl 0
BRUNCH_STAT num_queries 0
BRUNCH_STAT num_reach_queries 0
BRUNCH_STAT num_reach_reuse 0
BRUNCH_STAT inductive_lvl 0
BRUNCH_STAT max_depth 1
BRUNCH_STAT cex_depth 0
expand: query!0 (1, 0) FAR  w(0) 1.
	create_child: ERR (0, 1) FAR 1 U 0.00
expand: ERR (0, 0) FAR  w(0) 1. F 0.00
expand: query!0 (1, 0) FAR  w(0) 1. F 0.00
(spacer::context::check_reachability :time 0.00 :before-memory 12.00 :after-memory 12.44)
Propagating: 0 1  ! 2 
(spacer::context::propagate :time 0.00 :before-memory 12.44 :after-memory 12.44)
Entering level 2
BRUNCH_STAT max_query_lvl 1
BRUNCH_STAT num_queries 1
BRUNCH_STAT num_reach_queries 0
BRUNCH_STAT num_reach_reuse 0
BRUNCH_STAT inductive_lvl 0
BRUNCH_STAT max_depth 2
BRUNCH_STAT cex_depth 0
expand: query!0 (2, 0) FAR  w(0) 1.
	create_child: ERR (1, 2) FAR 1 U 0.00
expand: ERR (1, 0) FAR  w(0) 1.
	create_child: MAIN (0, 2) FAR 2376 U 0.00
expand: MAIN (0, 0) FAR  w(0) 2376. F 0.00
expand: ERR (1, 0) FAR  w(0) 1. F 0.00
expand: query!0 (2, 0) FAR  w(0) 1. F 0.00
(spacer::context::check_reachability :time 0.00 :before-memory 12.44 :after-memory 12.90)
Propagating: 0 1 2  ! 3 
(spacer::context::propagate :time 0.00 :before-memory 12.90 :after-memory 12.90)
Entering level 3
BRUNCH_STAT max_query_lvl 2
BRUNCH_STAT num_queries 3
BRUNCH_STAT num_reach_queries 0
BRUNCH_STAT num_reach_reuse 0
BRUNCH_STAT inductive_lvl 0
BRUNCH_STAT max_depth 3
BRUNCH_STAT cex_depth 0
expand: query!0 (3, 0) FAR  w(0) 1.
	create_child: ERR (2, 3) FAR 1 U 0.00
expand: ERR (2, 0) FAR  w(0) 1.
	create_child: MAIN (1, 3) FAR 2376 U 0.00
expand: MAIN (1, 0) FAR  w(0) 2376.
	create_child: top_step (0, 3) FAR 3017 U 0.00
expand: top_step (0, 0) FAR  w(0) 3017. F 0.00
expand: MAIN (1, 0) FAR  w(0) 2376. F 0.00
expand: ERR (2, 0) FAR  w(0) 1. F 0.00
expand: query!0 (3, 0) FAR  w(0) 1. F 0.00
(spacer::context::check_reachability :time 0.01 :before-memory 12.90 :after-memory 13.98)
Propagating: 0 1 2 3  ! 4 
(spacer::context::propagate :time 0.00 :before-memory 13.98 :after-memory 14.07)
Entering level 4
BRUNCH_STAT max_query_lvl 3
BRUNCH_STAT num_queries 6
BRUNCH_STAT num_reach_queries 0
BRUNCH_STAT num_reach_reuse 0
BRUNCH_STAT inductive_lvl 0
BRUNCH_STAT max_depth 4
BRUNCH_STAT cex_depth 0
expand: query!0 (4, 0) FAR  w(0) 1.
	create_child: ERR (3, 4) FAR 1 U 0.00
expand: ERR (3, 0) FAR  w(0) 1.
	create_child: MAIN (2, 4) FAR 2376 U 0.00
expand: MAIN (2, 0) FAR  w(0) 2376.
	create_child: top_step (1, 4) FAR 3017 U 0.00
expand: top_step (1, 0) FAR  w(0) 3017.
	create_child: top_reset (1, 4) FAR 9048 X 0.01
expand: top_reset (1, 0) FAR  w(0) 9048.
	create_child: illinois_reset (0, 4) FAR 9475 U 0.00
expand: illinois_reset (0, 0) FAR  w(0) 9475. F 0.00
expand: top_reset (1, 0) FAR  w(0) 9048. F 0.00
expand: MAIN (2, 0) FAR  w(0) 2376.
	create_child: top_step (1, 4) FAR 12713 U 0.00
expand: top_step (1, 0) FAR  w(0) 12713.
	create_child: illinois_step (0, 4) FAR 13020 U 0.00
expand: illinois_step (0, 0) FAR  w(0) 13020. F 0.00
expand: top_step (1, 0) FAR  w(0) 12713. F 0.00
expand: MAIN (2, 0) FAR  w(0) 2376. F 0.00
expand: ERR (3, 0) FAR  w(0) 1. F 0.00
expand: query!0 (4, 0) FAR  w(0) 1. F 0.00
(spacer::context::check_reachability :time 0.03 :before-memory 14.07 :after-memory 18.45)
Propagating: 0 1 2 3 4  ! 5 
(spacer::context::propagate :time 0.00 :before-memory 18.45 :after-memory 18.45)
Entering level 5
BRUNCH_STAT max_query_lvl 4
BRUNCH_STAT num_queries 12
BRUNCH_STAT num_reach_queries 1
BRUNCH_STAT num_reach_reuse 6
BRUNCH_STAT inductive_lvl 0
BRUNCH_STAT max_depth 5
BRUNCH_STAT cex_depth 0
expand: query!0 (5, 0) FAR  w(0) 1.
	create_child: ERR (4, 5) FAR 1 U 0.00
expand: ERR (4, 0) FAR  w(0) 1.
	create_child: MAIN (3, 5) FAR 2376 U 0.00
expand: MAIN (3, 0) FAR  w(0) 2376.
	create_child: MAIN (2, 5) FAR 15968 U 0.00
expand: MAIN (2, 0) FAR  w(0) 15968.
	create_child: top_step (1, 5) FAR 15771 U 0.00
expand: top_step (1, 0) FAR  w(0) 15771.
	create_child: Sofar_step (0, 5) FAR 15832 U 0.00
expand: Sofar_step (0, 0) FAR  w(0) 15832.
	create_child: illinois_step (0, 5) FAR 16158 X 0.00
expand: illinois_step (0, 0) FAR  w(0) 16158. F 0.00
expand: top_step (1, 0) FAR  w(0) 15771. F 0.00
expand: MAIN (2, 0) FAR  w(0) 15968. F 0.00
expand: MAIN (3, 0) FAR  w(0) 2376.
	create_child: top_step (2, 5) FAR 16551 U 0.00
expand: top_step (2, 0) FAR  w(0) 16551.
	create_child: illinois_step (1, 5) FAR 17008 U 0.00
expand: illinois_step (1, 0) FAR  w(0) 17008. F 0.00
expand: top_step (2, 0) FAR  w(0) 16551.
	create_child: illinois_step (1, 5) FAR 17165 U 0.00
expand: illinois_step (1, 0) FAR  w(0) 17165. F 0.00
expand: top_step (2, 0) FAR  w(0) 16551. F 0.00
expand: MAIN (3, 0) FAR  w(0) 2376. F 0.00
expand: ERR (4, 0) FAR  w(0) 1. F 0.00
expand: query!0 (5, 0) FAR  w(0) 1. F 0.00
(spacer::context::check_reachability :time 0.03 :before-memory 18.45 :after-memory 19.84)
Propagating: 0 1 2 3 4 5  ! 6 
(spacer::context::propagate :time 0.00 :before-memory 19.84 :after-memory 19.84)
Entering level 6
BRUNCH_STAT max_query_lvl 5
BRUNCH_STAT num_queries 20
BRUNCH_STAT num_reach_queries 1
BRUNCH_STAT num_reach_reuse 12
BRUNCH_STAT inductive_lvl 0
BRUNCH_STAT max_depth 6
BRUNCH_STAT cex_depth 0
expand: query!0 (6, 0) FAR  w(0) 1.
	create_child: ERR (5, 6) FAR 1 U 0.00
expand: ERR (5, 0) FAR  w(0) 1.
	create_child: MAIN (4, 6) FAR 2376 U 0.00
expand: MAIN (4, 0) FAR  w(0) 2376.
	create_child: MAIN (3, 6) FAR 17691 U 0.00
expand: MAIN (3, 0) FAR  w(0) 17691.
	create_child: top_step (2, 6) FAR 17633 U 0.00
expand: top_step (2, 0) FAR  w(0) 17633. F 0.00
expand: MAIN (3, 0) FAR  w(0) 17691. F 0.00
expand: MAIN (4, 0) FAR  w(0) 2376. F 0.00
expand: ERR (5, 0) FAR  w(0) 1. F 0.00
expand: query!0 (6, 0) FAR  w(0) 1. F 0.00
(spacer::context::check_reachability :time 0.01 :before-memory 19.84 :after-memory 19.85)
Propagating: 2 
(spacer::context::propagate :time 0.00 :before-memory 19.85 :after-memory 19.85)
(define-fun ERR () Bool
  false)
(define-fun illinois_step ((x!0 Bool)
 (x!1 Bool)
 (x!2 Bool)
 (x!3 Bool)
 (x!4 Bool)
 (x!5 Bool)
 (x!6 Bool)
 (x!7 Bool)
 (x!8 Bool)
 (x!9 Int)
 (x!10 Int)
 (x!11 Int)
 (x!12 Int)
 (x!13 Int)
 (x!14 Int)
 (x!15 Int)
 (x!16 Int)
 (x!17 Int)
 (x!18 Int)
 (x!19 Bool)
 (x!20 Int)
 (x!21 Int)
 (x!22 Int)
 (x!23 Int)
 (x!24 Int)
 (x!25 Bool)) Bool
  (let ((a!1 (or (>= (+ x!11 (* (- 1) x!17)) 0) x!6 x!5 x!1 (= x!11 0))))
    (and (or (>= x!11 0) (not (>= x!17 0)))
         (or (not x!19) (= x!11 0))
         (>= (+ x!23 (* (- 1) x!11)) 0)
         a!1)))
(define-fun Sofar_reset ((x!0 Bool) (x!1 Bool) (x!2 Bool) (x!3 Bool)) Bool
  true)
(define-fun illinois_reset ((x!0 Int)
 (x!1 Int)
 (x!2 Int)
 (x!3 Int)
 (x!4 Int)
 (x!5 Bool)
 (x!6 Int)
 (x!7 Int)
 (x!8 Int)
 (x!9 Int)
 (x!10 Int)
 (x!11 Bool)) Bool
  x!11)
(define-fun MAIN ((x!0 Int)
 (x!1 Int)
 (x!2 Int)
 (x!3 Int)
 (x!4 Int)
 (x!5 Bool)
 (x!6 Bool)
 (x!7 Bool)
 (x!8 Bool)) Bool
  (and (>= x!3 0) x!8))
(define-fun excludes9_fun ((x!0 Bool)
 (x!1 Bool)
 (x!2 Bool)
 (x!3 Bool)
 (x!4 Bool)
 (x!5 Bool)
 (x!6 Bool)
 (x!7 Bool)
 (x!8 Bool)
 (x!9 Bool)) Bool
  true)
(define-fun top_reset ((x!0 Int)
 (x!1 Int)
 (x!2 Int)
 (x!3 Int)
 (x!4 Int)
 (x!5 Bool)
 (x!6 Bool)
 (x!7 Bool)
 (x!8 Int)
 (x!9 Int)
 (x!10 Int)
 (x!11 Int)
 (x!12 Int)
 (x!13 Bool)
 (x!14 Bool)
 (x!15 Bool)) Bool
  x!13)
(define-fun Sofar_step ((x!0 Bool)
 (x!1 Bool)
 (x!2 Bool)
 (x!3 Bool)
 (x!4 Bool)
 (x!5 Bool)) Bool
  true)
(define-fun top_step ((x!0 Bool)
 (x!1 Bool)
 (x!2 Bool)
 (x!3 Bool)
 (x!4 Bool)
 (x!5 Bool)
 (x!6 Bool)
 (x!7 Bool)
 (x!8 Bool)
 (x!9 Int)
 (x!10 Bool)
 (x!11 Int)
 (x!12 Int)
 (x!13 Int)
 (x!14 Int)
 (x!15 Int)
 (x!16 Bool)
 (x!17 Bool)
 (x!18 Bool)
 (x!19 Int)
 (x!20 Int)
 (x!21 Int)
 (x!22 Int)
 (x!23 Int)
 (x!24 Bool)
 (x!25 Bool)
 (x!26 Bool)) Bool
  (and (or (not (>= x!14 0)) (>= x!22 0))
       (or x!10 (not x!16))
       (or (>= x!22 0) (not x!16))
       (or (not (>= x!14 0)) x!10)))
BRUNCH_STAT max_query_lvl 6
BRUNCH_STAT num_queries 24
BRUNCH_STAT num_reach_queries 1
BRUNCH_STAT num_reach_reuse 13
BRUNCH_STAT inductive_lvl 2
BRUNCH_STAT max_depth 6
BRUNCH_STAT cex_depth 0
(:SPACER-inductive-level               2
 :SPACER-max-depth                     6
 :SPACER-max-query-lvl                 6
 :SPACER-num-invariants                14
 :SPACER-num-lemmas                    31
 :SPACER-num-properties                16
 :SPACER-num-queries                   24
 :SPACER-num-reach-queries             1
 :SPACER-num-reuse-reach-facts         13
 :added-eqs                            1878
 :arith-add-rows                       588
 :arith-assert-diseq                   471
 :arith-assert-lower                   946
 :arith-assert-upper                   953
 :arith-bound-prop                     164
 :arith-conflicts                      19
 :arith-eq-adapter                     460
 :arith-fixed-eqs                      243
 :arith-offset-eqs                     150
 :arith-pivots                         197
 :bool-inductive-gen                   15
 :bool-inductive-gen-failures          25
 :conflicts                            226
 :decisions                            2455
 :del-clause                           358
 :final-checks                         65
 :minimized-lits                       29
 :mk-bool-var                          3103
 :mk-clause                            4797
 :num-checks                           176
 :propagations                         23929
 :time.itp_solver.itp_core             0.01
 :time.spacer.init_rules               0.01
 :time.spacer.init_rules.pt.init       0.00
 :time.spacer.solve                    0.08
 :time.spacer.solve.propagate          0.00
 :time.spacer.solve.pt.must_reachable  0.00
 :time.spacer.solve.reach              0.07
 :time.spacer.solve.reach.children     0.01
 :time.spacer.solve.reach.gen.bool_ind 0.01
 :time.virtual_solver.proof            0.00
 :time.virtual_solver.smt.total        0.05
 :time.virtual_solver.smt.total.sat    0.02
 :virtual_solver.checks                176
 :virtual_solver.checks.sat            65)
BRUNCH_STAT max_query_lvl 6
BRUNCH_STAT num_queries 24
BRUNCH_STAT num_reach_queries 1
BRUNCH_STAT num_reach_reuse 13
BRUNCH_STAT inductive_lvl 2
BRUNCH_STAT max_depth 6
BRUNCH_STAT cex_depth 0

real	0m0.122s
user	0m0.108s
sys	0m0.012s
