(transform N7datalog13mk_coi_filterE...no-op 0s)
(transform N7datalog25mk_interp_tail_simplifierE...14 rules 0s)
(transform N7datalog27mk_quantifier_instantiationE...no-op 0s)
(transform N7datalog8mk_scaleE...no-op 0s)
(transform N7datalog18mk_karr_invariantsE...no-op 0s)
(transform N7datalog14mk_array_blastE...no-op 0s)
(transform N7datalog22mk_subsumption_checkerE...13 rules 0s)
(transform N7datalog12mk_bit_blastE...no-op 0s)
(transform N7datalog15mk_rule_inlinerE...no-op 0s)
(transform N7datalog13mk_coi_filterE...no-op 0s)
(transform N7datalog25mk_interp_tail_simplifierE...13 rules 0s)
(transform N7datalog22mk_subsumption_checkerE...no-op 0s)
(transform N7datalog15mk_rule_inlinerE...no-op 0s)
(transform N7datalog13mk_coi_filterE...no-op 0s)
(transform N7datalog25mk_interp_tail_simplifierE...13 rules 0s)
(transform N7datalog22mk_subsumption_checkerE...no-op 0s)
(transform N7datalog15mk_rule_inlinerE...no-op 0s)
(transform N7datalog22mk_subsumption_checkerE...no-op 0s)
(transform N7datalog15mk_rule_inlinerE...no-op 0s)
(transform N7datalog22mk_subsumption_checkerE...no-op 0s)
(transform N7datalog15mk_rule_inlinerE...no-op 0s)
(transform N7datalog22mk_subsumption_checkerE...no-op 0s)
expand: query!0 (0, 0) FAR  w(0) 1. F 0.00
(spacer::context::check_reachability :time 0.00 :before-memory 13.35 :after-memory 13.75)
Entering level 1
BRUNCH_STAT max_query_lvl 0
BRUNCH_STAT num_queries 0
BRUNCH_STAT num_reach_queries 0
BRUNCH_STAT num_reach_reuse 0
BRUNCH_STAT inductive_lvl 0
BRUNCH_STAT max_depth 1
BRUNCH_STAT cex_depth 0
expand: query!0 (1, 0) FAR  w(0) 1.
	create_child: ERR (0, 1) FAR 1 U 0.00
expand: ERR (0, 0) FAR  w(0) 1. F 0.00
expand: query!0 (1, 0) FAR  w(0) 1. F 0.00
(spacer::context::check_reachability :time 0.00 :before-memory 13.75 :after-memory 14.19)
Propagating: 0 1  ! 2 
(spacer::context::propagate :time 0.00 :before-memory 14.19 :after-memory 14.19)
Entering level 2
BRUNCH_STAT max_query_lvl 1
BRUNCH_STAT num_queries 1
BRUNCH_STAT num_reach_queries 0
BRUNCH_STAT num_reach_reuse 0
BRUNCH_STAT inductive_lvl 0
BRUNCH_STAT max_depth 2
BRUNCH_STAT cex_depth 0
expand: query!0 (2, 0) FAR  w(0) 1.
	create_child: ERR (1, 2) FAR 1 U 0.00
expand: ERR (1, 0) FAR  w(0) 1.
	create_child: MAIN (0, 2) FAR 2533 U 0.00
expand: MAIN (0, 0) FAR  w(0) 2533. F 0.00
expand: ERR (1, 0) FAR  w(0) 1. F 0.00
expand: query!0 (2, 0) FAR  w(0) 1. F 0.00
(spacer::context::check_reachability :time 0.00 :before-memory 14.19 :after-memory 14.65)
Propagating: 0 1 2  ! 3 
(spacer::context::propagate :time 0.00 :before-memory 14.65 :after-memory 14.65)
Entering level 3
BRUNCH_STAT max_query_lvl 2
BRUNCH_STAT num_queries 3
BRUNCH_STAT num_reach_queries 0
BRUNCH_STAT num_reach_reuse 0
BRUNCH_STAT inductive_lvl 0
BRUNCH_STAT max_depth 3
BRUNCH_STAT cex_depth 0
expand: query!0 (3, 0) FAR  w(0) 1.
	create_child: ERR (2, 3) FAR 1 U 0.00
expand: ERR (2, 0) FAR  w(0) 1.
	create_child: MAIN (1, 3) FAR 2533 U 0.00
expand: MAIN (1, 0) FAR  w(0) 2533.
	create_child: top_step (0, 3) FAR 3277 U 0.00
expand: top_step (0, 0) FAR  w(0) 3277. F 0.00
expand: MAIN (1, 0) FAR  w(0) 2533. F 0.00
expand: ERR (2, 0) FAR  w(0) 1. F 0.00
expand: query!0 (3, 0) FAR  w(0) 1. F 0.00
(spacer::context::check_reachability :time 0.01 :before-memory 14.65 :after-memory 15.76)
Propagating: 0 1 2 3  ! 4 
(spacer::context::propagate :time 0.00 :before-memory 15.76 :after-memory 15.86)
Entering level 4
BRUNCH_STAT max_query_lvl 3
BRUNCH_STAT num_queries 6
BRUNCH_STAT num_reach_queries 0
BRUNCH_STAT num_reach_reuse 0
BRUNCH_STAT inductive_lvl 0
BRUNCH_STAT max_depth 4
BRUNCH_STAT cex_depth 0
expand: query!0 (4, 0) FAR  w(0) 1.
	create_child: ERR (3, 4) FAR 1 U 0.00
expand: ERR (3, 0) FAR  w(0) 1.
	create_child: MAIN (2, 4) FAR 2533 U 0.00
expand: MAIN (2, 0) FAR  w(0) 2533.
	create_child: top_step (1, 4) FAR 3277 U 0.00
expand: top_step (1, 0) FAR  w(0) 3277.
	create_child: top_reset (1, 4) FAR 9609 X 0.01
expand: top_reset (1, 0) FAR  w(0) 9609.
	create_child: First_reset (0, 4) FAR 10207 U 0.00
expand: First_reset (0, 0) FAR  w(0) 10207. F 0.00
expand: top_reset (1, 0) FAR  w(0) 9609. F 0.00
expand: MAIN (2, 0) FAR  w(0) 2533.
	create_child: top_reset (1, 4) FAR 13714 U 0.01
expand: top_reset (1, 0) FAR  w(0) 13714.
	create_child: Sofar_reset (0, 4) FAR 13507 U 0.00
expand: Sofar_reset (0, 0) FAR  w(0) 13507. F 0.00
expand: top_reset (1, 0) FAR  w(0) 13714. F 0.00
expand: MAIN (2, 0) FAR  w(0) 2533.
	create_child: top_reset (1, 4) FAR 13896 U 0.00
expand: top_reset (1, 0) FAR  w(0) 13896.
	create_child: illinois_reset (0, 4) FAR 13868 U 0.00
expand: illinois_reset (0, 0) FAR  w(0) 13868. F 0.00
expand: top_reset (1, 0) FAR  w(0) 13896. F 0.00
expand: MAIN (2, 0) FAR  w(0) 2533.
	create_child: top_step (1, 4) FAR 13983 U 0.00
expand: top_step (1, 0) FAR  w(0) 13983.
	create_child: Sofar_step (0, 4) FAR 14545 U 0.01
expand: Sofar_step (0, 0) FAR  w(0) 14545. F 0.00
expand: top_step (1, 0) FAR  w(0) 13983.
	create_child: illinois_step (0, 4) FAR 14594 U 0.00
expand: illinois_step (0, 0) FAR  w(0) 14594. F 0.01
expand: top_step (1, 0) FAR  w(0) 13983.
	create_child: illinois_step (0, 4) FAR 17161 U 0.00
expand: illinois_step (0, 0) FAR  w(0) 17161. F 0.00
expand: top_step (1, 0) FAR  w(0) 13983.
	create_child: illinois_step (0, 4) FAR 17372 U 0.00
expand: illinois_step (0, 0) FAR  w(0) 17372.
	create_child: First_step (0, 4) FAR 17428 X 0.00
expand: First_step (0, 0) FAR  w(0) 17428. F 0.00
expand: top_step (1, 0) FAR  w(0) 13983.
	create_child: illinois_step (0, 4) FAR 17372 U 0.00
expand: illinois_step (0, 0) FAR  w(0) 17372.
	create_child: First_step (0, 4) FAR 17338 X 0.00
expand: First_step (0, 0) FAR  w(0) 17338. F 0.00
expand: top_step (1, 0) FAR  w(0) 13983. F 0.00
expand: MAIN (2, 0) FAR  w(0) 2533. F 0.00
expand: ERR (3, 0) FAR  w(0) 1. F 0.00
expand: query!0 (4, 0) FAR  w(0) 1. F 0.00
(spacer::context::check_reachability :time 0.06 :before-memory 15.86 :after-memory 23.77)
Propagating: 0 1 2 3 4  ! 5 
(spacer::context::propagate :time 0.00 :before-memory 23.77 :after-memory 23.77)
Entering level 5
BRUNCH_STAT max_query_lvl 4
BRUNCH_STAT num_queries 20
BRUNCH_STAT num_reach_queries 1
BRUNCH_STAT num_reach_reuse 22
BRUNCH_STAT inductive_lvl 0
BRUNCH_STAT max_depth 5
BRUNCH_STAT cex_depth 0
expand: query!0 (5, 0) FAR  w(0) 1.
	create_child: ERR (4, 5) FAR 1 U 0.00
expand: ERR (4, 0) FAR  w(0) 1.
	create_child: MAIN (3, 5) FAR 2533 U 0.00
expand: MAIN (3, 0) FAR  w(0) 2533.
	create_child: MAIN (2, 5) FAR 18097 U 0.00
expand: MAIN (2, 0) FAR  w(0) 18097.
	create_child: top_step (1, 5) FAR 17916 U 0.00
expand: top_step (1, 0) FAR  w(0) 17916.
	create_child: Sofar_step (0, 5) FAR 18114 U 0.00
expand: Sofar_step (0, 0) FAR  w(0) 18114. F 0.00
expand: top_step (1, 0) FAR  w(0) 17916.
	create_child: Sofar_step (0, 5) FAR 18272 U 0.00
expand: Sofar_step (0, 0) FAR  w(0) 18272.
	create_child: illinois_step (0, 5) FAR 18277 X 0.00
expand: illinois_step (0, 0) FAR  w(0) 18277. F 0.00
expand: top_step (1, 0) FAR  w(0) 17916. F 0.01
expand: MAIN (2, 0) FAR  w(0) 18097. F 0.00
expand: MAIN (3, 0) FAR  w(0) 2533.
	create_child: MAIN (2, 5) FAR 18930 U 0.00
expand: MAIN (2, 0) FAR  w(0) 18930.
	create_child: top_step (1, 5) FAR 18722 U 0.00
expand: top_step (1, 0) FAR  w(0) 18722.
	create_child: illinois_step (0, 5) FAR 18880 U 0.00
expand: illinois_step (0, 0) FAR  w(0) 18880. F 0.00
expand: top_step (1, 0) FAR  w(0) 18722. F 0.00
expand: MAIN (2, 0) FAR  w(0) 18930. F 0.00
expand: MAIN (3, 0) FAR  w(0) 2533.
	create_child: MAIN (2, 5) FAR 19407 U 0.00
expand: MAIN (2, 0) FAR  w(0) 19407.
	create_child: top_step (1, 5) FAR 18693 U 0.00
expand: top_step (1, 0) FAR  w(0) 18693.
	create_child: illinois_step (0, 5) FAR 19400 U 0.00
expand: illinois_step (0, 0) FAR  w(0) 19400. F 0.00
expand: top_step (1, 0) FAR  w(0) 18693. F 0.00
expand: MAIN (2, 0) FAR  w(0) 19407. F 0.00
expand: MAIN (3, 0) FAR  w(0) 2533.
	create_child: MAIN (2, 5) FAR 19904 U 0.00
expand: MAIN (2, 0) FAR  w(0) 19904.
	create_child: top_step (1, 5) FAR 19786 U 0.00
expand: top_step (1, 0) FAR  w(0) 19786.
	create_child: illinois_step (0, 5) FAR 19820 U 0.00
expand: illinois_step (0, 0) FAR  w(0) 19820. F 0.00
expand: top_step (1, 0) FAR  w(0) 19786. F 0.00
expand: MAIN (2, 0) FAR  w(0) 19904. F 0.00
expand: MAIN (3, 0) FAR  w(0) 2533.
	create_child: MAIN (2, 5) FAR 20078 U 0.00
expand: MAIN (2, 0) FAR  w(0) 20078.
	create_child: top_step (1, 5) FAR 19862 U 0.00
expand: top_step (1, 0) FAR  w(0) 19862.
	create_child: illinois_step (0, 5) FAR 20037 U 0.00
expand: illinois_step (0, 0) FAR  w(0) 20037. F 0.00
expand: top_step (1, 0) FAR  w(0) 19862.
	create_child: illinois_step (0, 5) FAR 20436 U 0.00
expand: illinois_step (0, 0) FAR  w(0) 20436.
	create_child: First_step (0, 5) FAR 20549 X 0.00
expand: First_step (0, 0) FAR  w(0) 20549. F 0.00
expand: top_step (1, 0) FAR  w(0) 19862. F 0.00
expand: MAIN (2, 0) FAR  w(0) 20078. F 0.00
expand: MAIN (3, 0) FAR  w(0) 2533.
	create_child: MAIN (2, 5) FAR 21101 U 0.00
expand: MAIN (2, 0) FAR  w(0) 21101.
	create_child: top_step (1, 5) FAR 20931 U 0.00
expand: top_step (1, 0) FAR  w(0) 20931. F 0.01
expand: MAIN (2, 0) FAR  w(0) 21101. F 0.00
expand: MAIN (3, 0) FAR  w(0) 2533.
	create_child: MAIN (2, 5) FAR 21505 U 0.00
expand: MAIN (2, 0) FAR  w(0) 21505.
	create_child: top_step (1, 5) FAR 21414 U 0.00
expand: top_step (1, 0) FAR  w(0) 21414.
	create_child: illinois_step (0, 5) FAR 21444 U 0.00
expand: illinois_step (0, 0) FAR  w(0) 21444. F 0.00
expand: top_step (1, 0) FAR  w(0) 21414. F 0.00
expand: MAIN (2, 0) FAR  w(0) 21505. F 0.00
expand: MAIN (3, 0) FAR  w(0) 2533.
	create_child: MAIN (2, 5) FAR 21825 U 0.00
expand: MAIN (2, 0) FAR  w(0) 21825.
	create_child: top_step (1, 5) FAR 21716 U 0.00
expand: top_step (1, 0) FAR  w(0) 21716.
	create_child: First_step (0, 5) FAR 21945 U 0.00
expand: First_step (0, 0) FAR  w(0) 21945. F 0.00
expand: top_step (1, 0) FAR  w(0) 21716. F 0.00
expand: MAIN (2, 0) FAR  w(0) 21825. F 0.00
expand: MAIN (3, 0) FAR  w(0) 2533.
	create_child: MAIN (2, 5) FAR 21985 U 0.00
expand: MAIN (2, 0) FAR  w(0) 21985.
	create_child: top_step (1, 5) FAR 21888 U 0.00
expand: top_step (1, 0) FAR  w(0) 21888.
	create_child: illinois_step (0, 5) FAR 21971 U 0.00
expand: illinois_step (0, 0) FAR  w(0) 21971. F 0.00
expand: top_step (1, 0) FAR  w(0) 21888.
	create_child: illinois_step (0, 5) FAR 22035 U 0.00
expand: illinois_step (0, 0) FAR  w(0) 22035.
	create_child: First_step (0, 5) FAR 22075 X 0.00
expand: First_step (0, 0) FAR  w(0) 22075. F 0.00
expand: top_step (1, 0) FAR  w(0) 21888. F 0.00
expand: MAIN (2, 0) FAR  w(0) 21985. F 0.00
expand: MAIN (3, 0) FAR  w(0) 2533.
	create_child: MAIN (2, 5) FAR 22537 U 0.00
expand: MAIN (2, 0) FAR  w(0) 22537.
	create_child: top_step (1, 5) FAR 22472 U 0.00
expand: top_step (1, 0) FAR  w(0) 22472.
	create_child: illinois_step (0, 5) FAR 22390 U 0.00
expand: illinois_step (0, 0) FAR  w(0) 22390. F 0.00
expand: top_step (1, 0) FAR  w(0) 22472. F 0.00
expand: MAIN (2, 0) FAR  w(0) 22537. F 0.00
expand: MAIN (3, 0) FAR  w(0) 2533.
	create_child: MAIN (2, 5) FAR 23042 U 0.00
expand: MAIN (2, 0) FAR  w(0) 23042.
	create_child: top_reset (1, 5) FAR 23054 U 0.00
expand: top_reset (1, 0) FAR  w(0) 23054. T 0.00
is-reachable: MAIN (2, 0) FAR 23042 T 0.00
is-reachable: MAIN (3, 0) FAR 2533 T 0.01
is-reachable: ERR (4, 0) FAR 1 T 0.00
is-reachable: query!0 (5, 0) FAR 1 T 0.00
(spacer::context::check_reachability :time 0.16 :before-memory 23.77 :after-memory 27.21)
BRUNCH_STAT max_query_lvl 5
BRUNCH_STAT num_queries 56
BRUNCH_STAT num_reach_queries 6
BRUNCH_STAT num_reach_reuse 69
BRUNCH_STAT inductive_lvl 0
BRUNCH_STAT max_depth 5
BRUNCH_STAT cex_depth 5
(:SPACER-cex-depth                     5
 :SPACER-max-depth                     5
 :SPACER-max-query-lvl                 5
 :SPACER-num-invariants                34
 :SPACER-num-lemmas                    57
 :SPACER-num-properties                49
 :SPACER-num-queries                   56
 :SPACER-num-reach-queries             6
 :SPACER-num-reuse-reach-facts         69
 :added-eqs                            9085
 :arith-add-rows                       3755
 :arith-assert-diseq                   1875
 :arith-assert-lower                   4757
 :arith-assert-upper                   4965
 :arith-bound-prop                     594
 :arith-conflicts                      72
 :arith-eq-adapter                     1868
 :arith-fixed-eqs                      1407
 :arith-offset-eqs                     1375
 :arith-pivots                         730
 :bool-inductive-gen                   45
 :bool-inductive-gen-failures          83
 :conflicts                            338
 :decisions                            7414
 :del-clause                           455
 :final-checks                         150
 :minimized-lits                       16
 :mk-bool-var                          6054
 :mk-clause                            6669
 :num-checks                           363
 :propagations                         68860
 :time.itp_solver.itp_core             0.02
 :time.spacer.init_rules               0.01
 :time.spacer.init_rules.pt.init       0.00
 :time.spacer.solve                    0.23
 :time.spacer.solve.propagate          0.00
 :time.spacer.solve.pt.must_reachable  0.01
 :time.spacer.solve.reach              0.23
 :time.spacer.solve.reach.children     0.04
 :time.spacer.solve.reach.gen.bool_ind 0.04
 :time.spacer.solve.reach.is-reach     0.01
 :time.virtual_solver.proof            0.01
 :time.virtual_solver.smt.total        0.14
 :time.virtual_solver.smt.total.sat    0.08
 :virtual_solver.checks                363
 :virtual_solver.checks.sat            150)
BRUNCH_STAT max_query_lvl 5
BRUNCH_STAT num_queries 56
BRUNCH_STAT num_reach_queries 6
BRUNCH_STAT num_reach_reuse 69
BRUNCH_STAT inductive_lvl 0
BRUNCH_STAT max_depth 5
BRUNCH_STAT cex_depth 5

real	0m0.292s
user	0m0.280s
sys	0m0.008s
