(transform N7datalog13mk_coi_filterE...no-op 0s)
(transform N7datalog25mk_interp_tail_simplifierE...12 rules 0s)
(transform N7datalog27mk_quantifier_instantiationE...no-op 0s)
(transform N7datalog8mk_scaleE...no-op 0s)
(transform N7datalog18mk_karr_invariantsE...no-op 0s)
(transform N7datalog14mk_array_blastE...no-op 0s)
(transform N7datalog22mk_subsumption_checkerE...11 rules 0s)
(transform N7datalog12mk_bit_blastE...no-op 0s)
(transform N7datalog15mk_rule_inlinerE...no-op 0s)
(transform N7datalog13mk_coi_filterE...no-op 0s)
(transform N7datalog25mk_interp_tail_simplifierE...11 rules 0s)
(transform N7datalog22mk_subsumption_checkerE...no-op 0s)
(transform N7datalog15mk_rule_inlinerE...no-op 0s)
(transform N7datalog13mk_coi_filterE...no-op 0s)
(transform N7datalog25mk_interp_tail_simplifierE...11 rules 0s)
(transform N7datalog22mk_subsumption_checkerE...no-op 0s)
(transform N7datalog15mk_rule_inlinerE...no-op 0s)
(transform N7datalog22mk_subsumption_checkerE...no-op 0s)
(transform N7datalog15mk_rule_inlinerE...no-op 0s)
(transform N7datalog22mk_subsumption_checkerE...no-op 0s)
(transform N7datalog15mk_rule_inlinerE...no-op 0s)
(transform N7datalog22mk_subsumption_checkerE...no-op 0s)
expand: query!0 (0, 0) FAR  w(0) 1. F 0.00
(spacer::context::check_reachability :time 0.00 :before-memory 11.59 :after-memory 12.00)
Entering level 1
BRUNCH_STAT max_query_lvl 0
BRUNCH_STAT num_queries 0
BRUNCH_STAT num_reach_queries 0
BRUNCH_STAT num_reach_reuse 0
BRUNCH_STAT inductive_lvl 0
BRUNCH_STAT max_depth 1
BRUNCH_STAT cex_depth 0
expand: query!0 (1, 0) FAR  w(0) 1.
	create_child: ERR (0, 1) FAR 1 U 0.00
expand: ERR (0, 0) FAR  w(0) 1. F 0.00
expand: query!0 (1, 0) FAR  w(0) 1. F 0.00
(spacer::context::check_reachability :time 0.00 :before-memory 12.00 :after-memory 12.46)
Propagating: 0 1  ! 2 
(spacer::context::propagate :time 0.00 :before-memory 12.46 :after-memory 12.46)
Entering level 2
BRUNCH_STAT max_query_lvl 1
BRUNCH_STAT num_queries 1
BRUNCH_STAT num_reach_queries 0
BRUNCH_STAT num_reach_reuse 0
BRUNCH_STAT inductive_lvl 0
BRUNCH_STAT max_depth 2
BRUNCH_STAT cex_depth 0
expand: query!0 (2, 0) FAR  w(0) 1.
	create_child: ERR (1, 2) FAR 1 U 0.00
expand: ERR (1, 0) FAR  w(0) 1.
	create_child: MAIN (0, 2) FAR 2435 U 0.00
expand: MAIN (0, 0) FAR  w(0) 2435. F 0.00
expand: ERR (1, 0) FAR  w(0) 1. F 0.00
expand: query!0 (2, 0) FAR  w(0) 1. F 0.00
(spacer::context::check_reachability :time 0.00 :before-memory 12.46 :after-memory 12.92)
Propagating: 0 1 2  ! 3 
(spacer::context::propagate :time 0.00 :before-memory 12.92 :after-memory 12.92)
Entering level 3
BRUNCH_STAT max_query_lvl 2
BRUNCH_STAT num_queries 3
BRUNCH_STAT num_reach_queries 0
BRUNCH_STAT num_reach_reuse 0
BRUNCH_STAT inductive_lvl 0
BRUNCH_STAT max_depth 3
BRUNCH_STAT cex_depth 0
expand: query!0 (3, 0) FAR  w(0) 1.
	create_child: ERR (2, 3) FAR 1 U 0.00
expand: ERR (2, 0) FAR  w(0) 1.
	create_child: MAIN (1, 3) FAR 2435 U 0.00
expand: MAIN (1, 0) FAR  w(0) 2435.
	create_child: top_step (0, 3) FAR 3180 U 0.00
expand: top_step (0, 0) FAR  w(0) 3180. F 0.00
expand: MAIN (1, 0) FAR  w(0) 2435. F 0.00
expand: ERR (2, 0) FAR  w(0) 1. F 0.00
expand: query!0 (3, 0) FAR  w(0) 1. F 0.00
(spacer::context::check_reachability :time 0.01 :before-memory 12.92 :after-memory 13.98)
Propagating: 0 1 2 3  ! 4 
(spacer::context::propagate :time 0.00 :before-memory 13.98 :after-memory 14.07)
Entering level 4
BRUNCH_STAT max_query_lvl 3
BRUNCH_STAT num_queries 6
BRUNCH_STAT num_reach_queries 0
BRUNCH_STAT num_reach_reuse 0
BRUNCH_STAT inductive_lvl 0
BRUNCH_STAT max_depth 4
BRUNCH_STAT cex_depth 0
expand: query!0 (4, 0) FAR  w(0) 1.
	create_child: ERR (3, 4) FAR 1 U 0.00
expand: ERR (3, 0) FAR  w(0) 1.
	create_child: MAIN (2, 4) FAR 2435 U 0.00
expand: MAIN (2, 0) FAR  w(0) 2435.
	create_child: top_step (1, 4) FAR 3180 U 0.00
expand: top_step (1, 0) FAR  w(0) 3180.
	create_child: top_reset (1, 4) FAR 9502 X 0.01
expand: top_reset (1, 0) FAR  w(0) 9502. F 0.00
expand: MAIN (2, 0) FAR  w(0) 2435.
	create_child: top_step (1, 4) FAR 13111 U 0.00
expand: top_step (1, 0) FAR  w(0) 13111. F 0.01
expand: MAIN (2, 0) FAR  w(0) 2435. F 0.00
expand: ERR (3, 0) FAR  w(0) 1. F 0.00
expand: query!0 (4, 0) FAR  w(0) 1. F 0.00
(spacer::context::check_reachability :time 0.02 :before-memory 14.07 :after-memory 17.01)
Propagating: 1 2 3 4  ! 5 
(spacer::context::propagate :time 0.00 :before-memory 17.01 :after-memory 17.01)
Entering level 5
BRUNCH_STAT max_query_lvl 4
BRUNCH_STAT num_queries 10
BRUNCH_STAT num_reach_queries 1
BRUNCH_STAT num_reach_reuse 3
BRUNCH_STAT inductive_lvl 0
BRUNCH_STAT max_depth 5
BRUNCH_STAT cex_depth 0
expand: query!0 (5, 0) FAR  w(0) 1.
	create_child: ERR (4, 5) FAR 1 U 0.00
expand: ERR (4, 0) FAR  w(0) 1.
	create_child: MAIN (3, 5) FAR 2435 U 0.00
expand: MAIN (3, 0) FAR  w(0) 2435.
	create_child: MAIN (2, 5) FAR 13796 U 0.00
expand: MAIN (2, 0) FAR  w(0) 13796.
	create_child: top_step (1, 5) FAR 13655 U 0.00
expand: top_step (1, 0) FAR  w(0) 13655.
	create_child: illinois_step (0, 5) FAR 14054 U 0.00
expand: illinois_step (0, 0) FAR  w(0) 14054. F 0.00
expand: top_step (1, 0) FAR  w(0) 13655. F 0.00
expand: MAIN (2, 0) FAR  w(0) 13796. F 0.00
expand: MAIN (3, 0) FAR  w(0) 2435.
	create_child: MAIN (2, 5) FAR 16850 U 0.00
expand: MAIN (2, 0) FAR  w(0) 16850.
	create_child: top_step (1, 5) FAR 16745 U 0.00
expand: top_step (1, 0) FAR  w(0) 16745.
	create_child: illinois_step (0, 5) FAR 16774 U 0.00
expand: illinois_step (0, 0) FAR  w(0) 16774. F 0.00
expand: top_step (1, 0) FAR  w(0) 16745. F 0.00
expand: MAIN (2, 0) FAR  w(0) 16850. F 0.00
expand: MAIN (3, 0) FAR  w(0) 2435.
	create_child: MAIN (2, 5) FAR 17338 U 0.00
expand: MAIN (2, 0) FAR  w(0) 17338.
	create_child: top_step (1, 5) FAR 17223 U 0.00
expand: top_step (1, 0) FAR  w(0) 17223.
	create_child: illinois_step (0, 5) FAR 16416 U 0.00
expand: illinois_step (0, 0) FAR  w(0) 16416. F 0.00
expand: top_step (1, 0) FAR  w(0) 17223. F 0.00
expand: MAIN (2, 0) FAR  w(0) 17338. F 0.00
expand: MAIN (3, 0) FAR  w(0) 2435.
	create_child: MAIN (2, 5) FAR 17386 U 0.00
expand: MAIN (2, 0) FAR  w(0) 17386.
	create_child: top_step (1, 5) FAR 17266 U 0.00
expand: top_step (1, 0) FAR  w(0) 17266.
	create_child: Sofar_step (0, 5) FAR 17372 U 0.00
expand: Sofar_step (0, 0) FAR  w(0) 17372. F 0.00
expand: top_step (1, 0) FAR  w(0) 17266. F 0.00
expand: MAIN (2, 0) FAR  w(0) 17386. F 0.00
expand: MAIN (3, 0) FAR  w(0) 2435.
	create_child: MAIN (2, 5) FAR 17854 U 0.00
expand: MAIN (2, 0) FAR  w(0) 17854.
	create_child: top_step (1, 5) FAR 17773 U 0.00
expand: top_step (1, 0) FAR  w(0) 17773.
	create_child: illinois_step (0, 5) FAR 17667 U 0.00
expand: illinois_step (0, 0) FAR  w(0) 17667. F 0.00
expand: top_step (1, 0) FAR  w(0) 17773. F 0.00
expand: MAIN (2, 0) FAR  w(0) 17854. F 0.00
expand: MAIN (3, 0) FAR  w(0) 2435.
	create_child: MAIN (2, 5) FAR 18109 U 0.00
expand: MAIN (2, 0) FAR  w(0) 18109.
	create_child: top_step (1, 5) FAR 17999 U 0.00
expand: top_step (1, 0) FAR  w(0) 17999.
	create_child: illinois_step (0, 5) FAR 17805 U 0.00
expand: illinois_step (0, 0) FAR  w(0) 17805. F 0.00
expand: top_step (1, 0) FAR  w(0) 17999. F 0.00
expand: MAIN (2, 0) FAR  w(0) 18109. F 0.00
expand: MAIN (3, 0) FAR  w(0) 2435.
	create_child: top_step (2, 5) FAR 19719 U 0.01
expand: top_step (2, 0) FAR  w(0) 19719.
	create_child: excludes9_fun (1, 5) FAR 25036 U 0.03
expand: excludes9_fun (1, 0) FAR  w(0) 25036. F 0.00
expand: top_step (2, 0) FAR  w(0) 19719.
	create_child: excludes9_fun (1, 5) FAR 25649 U 0.00
expand: excludes9_fun (1, 0) FAR  w(0) 25649. F 0.00
expand: top_step (2, 0) FAR  w(0) 19719.
	create_child: excludes9_fun (1, 5) FAR 25580 U 0.00
expand: excludes9_fun (1, 0) FAR  w(0) 25580. F 0.00
expand: top_step (2, 0) FAR  w(0) 19719.
	create_child: excludes9_fun (1, 5) FAR 25694 U 0.00
expand: excludes9_fun (1, 0) FAR  w(0) 25694. F 0.00
expand: top_step (2, 0) FAR  w(0) 19719.
	create_child: excludes9_fun (1, 5) FAR 25997 U 0.00
expand: excludes9_fun (1, 0) FAR  w(0) 25997. F 0.00
expand: top_step (2, 0) FAR  w(0) 19719.
	create_child: excludes9_fun (1, 5) FAR 26082 U 0.00
expand: excludes9_fun (1, 0) FAR  w(0) 26082. F 0.00
expand: top_step (2, 0) FAR  w(0) 19719.
	create_child: excludes9_fun (1, 5) FAR 26067 U 0.00
expand: excludes9_fun (1, 0) FAR  w(0) 26067. F 0.00
expand: top_step (2, 0) FAR  w(0) 19719.
	create_child: excludes9_fun (1, 5) FAR 26287 U 0.00
expand: excludes9_fun (1, 0) FAR  w(0) 26287. F 0.00
expand: top_step (2, 0) FAR  w(0) 19719.
	create_child: excludes9_fun (1, 5) FAR 26588 U 0.00
expand: excludes9_fun (1, 0) FAR  w(0) 26588. F 0.00
expand: top_step (2, 0) FAR  w(0) 19719.
	create_child: excludes9_fun (1, 5) FAR 25946 U 0.00
expand: excludes9_fun (1, 0) FAR  w(0) 25946. F 0.00
expand: top_step (2, 0) FAR  w(0) 19719.
	create_child: excludes9_fun (1, 5) FAR 26594 U 0.00
expand: excludes9_fun (1, 0) FAR  w(0) 26594. F 0.00
expand: top_step (2, 0) FAR  w(0) 19719.
	create_child: excludes9_fun (1, 5) FAR 26695 U 0.01
expand: excludes9_fun (1, 0) FAR  w(0) 26695. F 0.00
expand: top_step (2, 0) FAR  w(0) 19719.
	create_child: excludes9_fun (1, 5) FAR 26870 U 0.00
expand: excludes9_fun (1, 0) FAR  w(0) 26870. F 0.00
expand: top_step (2, 0) FAR  w(0) 19719.
	create_child: excludes9_fun (1, 5) FAR 26775 U 0.00
expand: excludes9_fun (1, 0) FAR  w(0) 26775. F 0.00
expand: top_step (2, 0) FAR  w(0) 19719.
	create_child: excludes9_fun (1, 5) FAR 26888 U 0.00
expand: excludes9_fun (1, 0) FAR  w(0) 26888. F 0.00
expand: top_step (2, 0) FAR  w(0) 19719.
	create_child: excludes9_fun (1, 5) FAR 27110 U 0.00
expand: excludes9_fun (1, 0) FAR  w(0) 27110. F 0.00
expand: top_step (2, 0) FAR  w(0) 19719.
	create_child: excludes9_fun (1, 5) FAR 27238 U 0.00
expand: excludes9_fun (1, 0) FAR  w(0) 27238. F 0.00
expand: top_step (2, 0) FAR  w(0) 19719.
	create_child: excludes9_fun (1, 5) FAR 26810 U 0.00
expand: excludes9_fun (1, 0) FAR  w(0) 26810. F 0.00
expand: top_step (2, 0) FAR  w(0) 19719.
	create_child: excludes9_fun (1, 5) FAR 26469 U 0.00
expand: excludes9_fun (1, 0) FAR  w(0) 26469. F 0.00
expand: top_step (2, 0) FAR  w(0) 19719.
	create_child: excludes9_fun (1, 5) FAR 27369 U 0.00
expand: excludes9_fun (1, 0) FAR  w(0) 27369. F 0.00
expand: top_step (2, 0) FAR  w(0) 19719.
	create_child: excludes9_fun (1, 5) FAR 26825 U 0.00
expand: excludes9_fun (1, 0) FAR  w(0) 26825. F 0.00
expand: top_step (2, 0) FAR  w(0) 19719.
	create_child: excludes9_fun (1, 5) FAR 27614 U 0.01
expand: excludes9_fun (1, 0) FAR  w(0) 27614. F 0.00
expand: top_step (2, 0) FAR  w(0) 19719.
	create_child: excludes9_fun (1, 5) FAR 27744 U 0.00
expand: excludes9_fun (1, 0) FAR  w(0) 27744. F 0.00
expand: top_step (2, 0) FAR  w(0) 19719.
	create_child: excludes9_fun (1, 5) FAR 27575 U 0.00
expand: excludes9_fun (1, 0) FAR  w(0) 27575. F 0.00
expand: top_step (2, 0) FAR  w(0) 19719.
	create_child: Sofar_step (1, 5) FAR 27720 U 0.00
expand: Sofar_step (1, 0) FAR  w(0) 27720. F 0.00
expand: top_step (2, 0) FAR  w(0) 19719.
	create_child: excludes9_fun (1, 5) FAR 28000 U 0.01
expand: excludes9_fun (1, 0) FAR  w(0) 28000.
	create_child: Sofar_step (1, 5) FAR 28023 X 0.00
expand: Sofar_step (1, 0) FAR  w(0) 28023.
	create_child: illinois_step (1, 5) FAR 28174 X 0.00
expand: illinois_step (1, 0) FAR  w(0) 28174. F 0.01
expand: top_step (2, 0) FAR  w(0) 19719.
	create_child: illinois_step (1, 5) FAR 28724 U 0.00
expand: illinois_step (1, 0) FAR  w(0) 28724. F 0.01
expand: top_step (2, 0) FAR  w(0) 19719.
	create_child: illinois_step (1, 5) FAR 29072 U 0.00
expand: illinois_step (1, 0) FAR  w(0) 29072. F 0.01
expand: top_step (2, 0) FAR  w(0) 19719.
	create_child: illinois_step (1, 5) FAR 27955 U 0.00
expand: illinois_step (1, 0) FAR  w(0) 27955. F 0.01
expand: top_step (2, 0) FAR  w(0) 19719.
	create_child: illinois_step (1, 5) FAR 30183 U 0.00
expand: illinois_step (1, 0) FAR  w(0) 30183. F 0.01
expand: top_step (2, 0) FAR  w(0) 19719.
	create_child: illinois_step (1, 5) FAR 30508 U 0.00
expand: illinois_step (1, 0) FAR  w(0) 30508. F 0.01
expand: top_step (2, 0) FAR  w(0) 19719.
	create_child: illinois_step (1, 5) FAR 31057 U 0.00
expand: illinois_step (1, 0) FAR  w(0) 31057. F 0.00
expand: top_step (2, 0) FAR  w(0) 19719.
	create_child: illinois_step (1, 5) FAR 30985 U 0.00
expand: illinois_step (1, 0) FAR  w(0) 30985. F 0.00
expand: top_step (2, 0) FAR  w(0) 19719.
	create_child: illinois_step (1, 5) FAR 31356 U 0.00
expand: illinois_step (1, 0) FAR  w(0) 31356. F 0.00
expand: top_step (2, 0) FAR  w(0) 19719.
	create_child: illinois_step (1, 5) FAR 31577 U 0.00
expand: illinois_step (1, 0) FAR  w(0) 31577. F 0.00
expand: top_step (2, 0) FAR  w(0) 19719.
	create_child: excludes9_fun (1, 5) FAR 31137 U 0.00
expand: excludes9_fun (1, 0) FAR  w(0) 31137. F 0.00
expand: top_step (2, 0) FAR  w(0) 19719. F 0.01
expand: MAIN (3, 0) FAR  w(0) 2435. F 0.00
expand: ERR (4, 0) FAR  w(0) 1. F 0.00
expand: query!0 (5, 0) FAR  w(0) 1. F 0.00
(spacer::context::check_reachability :time 0.33 :before-memory 17.01 :after-memory 24.64)
Propagating: 0 1 2 
(spacer::context::propagate :time 0.00 :before-memory 24.64 :after-memory 24.64)
(define-fun ERR () Bool
  false)
(define-fun top_step ((x!0 Bool)
 (x!1 Bool)
 (x!2 Bool)
 (x!3 Bool)
 (x!4 Bool)
 (x!5 Bool)
 (x!6 Bool)
 (x!7 Bool)
 (x!8 Bool)
 (x!9 Int)
 (x!10 Bool)
 (x!11 Int)
 (x!12 Bool)
 (x!13 Int)
 (x!14 Int)
 (x!15 Int)
 (x!16 Int)
 (x!17 Int)
 (x!18 Bool)
 (x!19 Bool)
 (x!20 Bool)
 (x!21 Int)
 (x!22 Bool)
 (x!23 Int)
 (x!24 Int)
 (x!25 Int)
 (x!26 Int)
 (x!27 Int)
 (x!28 Bool)
 (x!29 Bool)
 (x!30 Bool)) Bool
  (let ((a!1 (not (= (+ x!11
                        (* (- 1) x!13)
                        (* (- 1) x!14)
                        (* (- 1) x!16)
                        (* (- 1) x!17))
                     0)))
        (a!2 (not (= (+ x!11
                        (* (- 1) x!13)
                        (* (- 1) x!14)
                        (* (- 1) x!15)
                        (* (- 1) x!16)
                        (* (- 1) x!17))
                     0)))
        (a!3 (+ x!21
                (* (- 1) x!23)
                (* (- 1) x!24)
                (* (- 1) x!25)
                (* (- 1) x!26)
                (* (- 1) x!27))))
    (and (or a!1 x!10 x!18 a!2)
         (not x!30)
         (not x!28)
         (>= (+ x!21
                (* (- 1) x!23)
                (* (- 1) x!24)
                (* (- 1) x!26)
                (* (- 1) x!27))
             0)
         (or (not x!12) x!10)
         (<= a!3 0)
         (>= a!3 0)
         (>= (+ x!23 x!24 x!26 x!27 (* (- 1) x!21)) 0))))
(define-fun illinois_reset ((x!0 Int)
 (x!1 Int)
 (x!2 Int)
 (x!3 Int)
 (x!4 Int)
 (x!5 Bool)
 (x!6 Int)
 (x!7 Int)
 (x!8 Int)
 (x!9 Int)
 (x!10 Int)
 (x!11 Bool)) Bool
  true)
(define-fun Sofar_reset ((x!0 Bool) (x!1 Bool) (x!2 Bool) (x!3 Bool)) Bool
  true)
(define-fun illinois_step ((x!0 Bool)
 (x!1 Bool)
 (x!2 Bool)
 (x!3 Bool)
 (x!4 Bool)
 (x!5 Bool)
 (x!6 Bool)
 (x!7 Bool)
 (x!8 Bool)
 (x!9 Int)
 (x!10 Int)
 (x!11 Int)
 (x!12 Int)
 (x!13 Int)
 (x!14 Int)
 (x!15 Int)
 (x!16 Int)
 (x!17 Int)
 (x!18 Int)
 (x!19 Bool)
 (x!20 Int)
 (x!21 Int)
 (x!22 Int)
 (x!23 Int)
 (x!24 Int)
 (x!25 Bool)) Bool
  (let ((a!1 (<= (+ x!10
                    x!11
                    x!12
                    x!13
                    (* (- 1) x!14)
                    (* (- 1) x!15)
                    (* (- 1) x!16)
                    (* (- 1) x!17)
                    (* (- 1) x!18))
                 0))
        (a!2 (>= (+ x!10
                    x!11
                    x!12
                    x!13
                    (* (- 1) x!14)
                    (* (- 1) x!15)
                    (* (- 1) x!17)
                    (* (- 1) x!18))
                 0)))
    (and (or a!1 x!4 x!3 x!1 x!2 x!0 x!19 (not (>= x!16 0)))
         (not x!25)
         (>= (+ x!20
                x!21
                x!22
                x!23
                x!24
                (* (- 1) x!10)
                (* (- 1) x!11)
                (* (- 1) x!12)
                (* (- 1) x!13))
             0)
         (>= (+ x!10
                x!11
                x!12
                x!13
                (* (- 1) x!20)
                (* (- 1) x!21)
                (* (- 1) x!22)
                (* (- 1) x!23)
                (* (- 1) x!24))
             0)
         (>= (+ x!20
                x!21
                x!23
                x!24
                (* (- 1) x!10)
                (* (- 1) x!11)
                (* (- 1) x!12)
                (* (- 1) x!13))
             0)
         (>= (+ x!10
                x!11
                x!12
                x!13
                (* (- 1) x!20)
                (* (- 1) x!21)
                (* (- 1) x!23)
                (* (- 1) x!24))
             0)
         (or a!2 (not x!2) x!6 x!5 x!1 x!0 x!19 (not (>= x!16 0)))
         (or a!2 x!6 x!5 x!3 x!8 x!2 x!0 x!19)
         (or a!1 x!5 x!3 x!2 x!0 x!19 (not (>= x!16 0)))
         (or a!2 x!6 x!5 x!4 x!1 x!2 x!7 x!19)
         (or a!2 x!5 x!3 x!8 x!2 x!0 x!7 x!19)
         (or a!1 x!6 x!5 x!8 x!2 x!0 x!19 (not (>= x!16 0)))
         (or a!2 x!19 x!1 x!0 x!4 x!2 x!3 (not x!5))
         (or a!1 x!5 x!3 x!1 x!2 x!19 (not (>= x!16 0)))
         (or a!1 x!5 x!4 x!3 x!1 x!0 x!19 (not (>= x!16 0))))))
(define-fun MAIN ((x!0 Int)
 (x!1 Bool)
 (x!2 Int)
 (x!3 Int)
 (x!4 Int)
 (x!5 Int)
 (x!6 Int)
 (x!7 Bool)
 (x!8 Bool)
 (x!9 Bool)
 (x!10 Bool)) Bool
  (let ((a!1 (+ x!0 (* (- 1) x!2) (* (- 1) x!3) (* (- 1) x!5) (* (- 1) x!6))))
    (and (<= a!1 0)
         x!10
         (not x!7)
         (not x!9)
         (>= (+ x!0
                (* (- 1) x!2)
                (* (- 1) x!3)
                (* (- 1) x!4)
                (* (- 1) x!5)
                (* (- 1) x!6))
             0)
         (>= (+ x!2 x!3 x!4 x!5 x!6 (* (- 1) x!0)) 0)
         (>= a!1 0))))
(define-fun excludes9_fun ((x!0 Bool)
 (x!1 Bool)
 (x!2 Bool)
 (x!3 Bool)
 (x!4 Bool)
 (x!5 Bool)
 (x!6 Bool)
 (x!7 Bool)
 (x!8 Bool)
 (x!9 Bool)) Bool
  (and (or (not x!9) (not x!3) (not x!7))
       (or (not x!9) (not x!1) (not x!8))
       (or (not x!9) (not x!6) (not x!7))
       (or (not x!9) (not x!4) (not x!8))
       (or (not x!9) (not x!3) (not x!4))
       (or (not x!9) (not x!1) (not x!2))
       (or (not x!9) (not x!0) (not x!4))
       (or (not x!9) (not x!0) (not x!2))
       (or (not x!9) (not x!2) (not x!6))
       (or (not x!9) (not x!2) (not x!4))
       (or (not x!9) (not x!3) (not x!1))
       (or (not x!9) (not x!4) (not x!5))
       (or (not x!9) (not x!3) (not x!8))
       (or (not x!9) (not x!0) (not x!1))
       (or (not x!9) (not x!0) (not x!7))
       (or (not x!9) (not x!3) (not x!2))
       (or (not x!9) (not x!3) (not x!5))
       (or (not x!9) (not x!7) (not x!8))
       (or (not x!9) (not x!3) (not x!6))
       (or (not x!9) (not x!0) (not x!3))
       (or (not x!9) (not x!0) (not x!6))
       (or (not x!9) (not x!6) (not x!8))
       (or (not x!9) (not x!1) (not x!5))
       (or (not x!9) (not x!0) (not x!5))
       (or (not x!9) (not x!2) (not x!5))))
(define-fun Sofar_step ((x!0 Bool)
 (x!1 Bool)
 (x!2 Bool)
 (x!3 Bool)
 (x!4 Bool)
 (x!5 Bool)) Bool
  (and (or (not x!1) x!0) (not x!5)))
(define-fun top_reset ((x!0 Int)
 (x!1 Bool)
 (x!2 Int)
 (x!3 Int)
 (x!4 Int)
 (x!5 Int)
 (x!6 Int)
 (x!7 Bool)
 (x!8 Bool)
 (x!9 Bool)
 (x!10 Int)
 (x!11 Bool)
 (x!12 Int)
 (x!13 Int)
 (x!14 Int)
 (x!15 Int)
 (x!16 Int)
 (x!17 Bool)
 (x!18 Bool)
 (x!19 Bool)) Bool
  x!11)
BRUNCH_STAT max_query_lvl 5
BRUNCH_STAT num_queries 67
BRUNCH_STAT num_reach_queries 1
BRUNCH_STAT num_reach_reuse 89
BRUNCH_STAT inductive_lvl 2
BRUNCH_STAT max_depth 5
BRUNCH_STAT cex_depth 0
(:SPACER-inductive-level               2
 :SPACER-max-depth                     5
 :SPACER-max-query-lvl                 5
 :SPACER-num-invariants                60
 :SPACER-num-lemmas                    73
 :SPACER-num-properties                62
 :SPACER-num-queries                   67
 :SPACER-num-reach-queries             1
 :SPACER-num-reuse-reach-facts         89
 :added-eqs                            13494
 :arith-add-rows                       6643
 :arith-assert-diseq                   4227
 :arith-assert-lower                   10058
 :arith-assert-upper                   8569
 :arith-bound-prop                     682
 :arith-conflicts                      159
 :arith-eq-adapter                     2896
 :arith-fixed-eqs                      3157
 :arith-offset-eqs                     1799
 :arith-pivots                         1030
 :bool-inductive-gen                   59
 :bool-inductive-gen-failures          198
 :conflicts                            803
 :decisions                            7520
 :del-clause                           822
 :final-checks                         271
 :minimized-lits                       1281
 :mk-bool-var                          7310
 :mk-clause                            6781
 :num-checks                           541
 :propagations                         127441
 :restarts                             1
 :time.itp_solver.itp_core             0.02
 :time.spacer.init_rules               0.01
 :time.spacer.init_rules.pt.init       0.00
 :time.spacer.solve                    0.37
 :time.spacer.solve.propagate          0.01
 :time.spacer.solve.pt.must_reachable  0.01
 :time.spacer.solve.reach              0.36
 :time.spacer.solve.reach.children     0.09
 :time.spacer.solve.reach.gen.bool_ind 0.06
 :time.virtual_solver.proof            0.01
 :time.virtual_solver.smt.total        0.23
 :time.virtual_solver.smt.total.sat    0.11
 :virtual_solver.checks                541
 :virtual_solver.checks.sat            271)
BRUNCH_STAT max_query_lvl 5
BRUNCH_STAT num_queries 67
BRUNCH_STAT num_reach_queries 1
BRUNCH_STAT num_reach_reuse 89
BRUNCH_STAT inductive_lvl 2
BRUNCH_STAT max_depth 5
BRUNCH_STAT cex_depth 0

real	0m0.441s
user	0m0.416s
sys	0m0.024s
