(transform N7datalog13mk_coi_filterE...no-op 0s)
(transform N7datalog25mk_interp_tail_simplifierE...12 rules 0s)
(transform N7datalog27mk_quantifier_instantiationE...no-op 0s)
(transform N7datalog8mk_scaleE...no-op 0s)
(transform N7datalog18mk_karr_invariantsE...no-op 0s)
(transform N7datalog14mk_array_blastE...no-op 0s)
(transform N7datalog22mk_subsumption_checkerE...11 rules 0s)
(transform N7datalog12mk_bit_blastE...no-op 0s)
(transform N7datalog15mk_rule_inlinerE...no-op 0s)
(transform N7datalog13mk_coi_filterE...no-op 0s)
(transform N7datalog25mk_interp_tail_simplifierE...11 rules 0s)
(transform N7datalog22mk_subsumption_checkerE...no-op 0s)
(transform N7datalog15mk_rule_inlinerE...no-op 0s)
(transform N7datalog13mk_coi_filterE...no-op 0s)
(transform N7datalog25mk_interp_tail_simplifierE...11 rules 0s)
(transform N7datalog22mk_subsumption_checkerE...no-op 0s)
(transform N7datalog15mk_rule_inlinerE...no-op 0s)
(transform N7datalog22mk_subsumption_checkerE...no-op 0s)
(transform N7datalog15mk_rule_inlinerE...no-op 0s)
(transform N7datalog22mk_subsumption_checkerE...no-op 0s)
(transform N7datalog15mk_rule_inlinerE...no-op 0s)
(transform N7datalog22mk_subsumption_checkerE...no-op 0s)
expand: query!0 (0, 0) FAR  w(0) 1. F 0.00
(spacer::context::check_reachability :time 0.00 :before-memory 11.61 :after-memory 12.00)
Entering level 1
BRUNCH_STAT max_query_lvl 0
BRUNCH_STAT num_queries 0
BRUNCH_STAT num_reach_queries 0
BRUNCH_STAT num_reach_reuse 0
BRUNCH_STAT inductive_lvl 0
BRUNCH_STAT max_depth 1
BRUNCH_STAT cex_depth 0
expand: query!0 (1, 0) FAR  w(0) 1.
	create_child: ERR (0, 1) FAR 1 U 0.00
expand: ERR (0, 0) FAR  w(0) 1. F 0.00
expand: query!0 (1, 0) FAR  w(0) 1. F 0.00
(spacer::context::check_reachability :time 0.00 :before-memory 12.00 :after-memory 12.44)
Propagating: 0 1  ! 2 
(spacer::context::propagate :time 0.00 :before-memory 12.44 :after-memory 12.44)
Entering level 2
BRUNCH_STAT max_query_lvl 1
BRUNCH_STAT num_queries 1
BRUNCH_STAT num_reach_queries 0
BRUNCH_STAT num_reach_reuse 0
BRUNCH_STAT inductive_lvl 0
BRUNCH_STAT max_depth 2
BRUNCH_STAT cex_depth 0
expand: query!0 (2, 0) FAR  w(0) 1.
	create_child: ERR (1, 2) FAR 1 U 0.00
expand: ERR (1, 0) FAR  w(0) 1.
	create_child: MAIN (0, 2) FAR 2376 U 0.00
expand: MAIN (0, 0) FAR  w(0) 2376. F 0.00
expand: ERR (1, 0) FAR  w(0) 1. F 0.00
expand: query!0 (2, 0) FAR  w(0) 1. F 0.00
(spacer::context::check_reachability :time 0.00 :before-memory 12.44 :after-memory 12.90)
Propagating: 0 1 2  ! 3 
(spacer::context::propagate :time 0.00 :before-memory 12.90 :after-memory 12.90)
Entering level 3
BRUNCH_STAT max_query_lvl 2
BRUNCH_STAT num_queries 3
BRUNCH_STAT num_reach_queries 0
BRUNCH_STAT num_reach_reuse 0
BRUNCH_STAT inductive_lvl 0
BRUNCH_STAT max_depth 3
BRUNCH_STAT cex_depth 0
expand: query!0 (3, 0) FAR  w(0) 1.
	create_child: ERR (2, 3) FAR 1 U 0.00
expand: ERR (2, 0) FAR  w(0) 1.
	create_child: MAIN (1, 3) FAR 2376 U 0.00
expand: MAIN (1, 0) FAR  w(0) 2376.
	create_child: top_step (0, 3) FAR 3017 U 0.00
expand: top_step (0, 0) FAR  w(0) 3017. F 0.00
expand: MAIN (1, 0) FAR  w(0) 2376. F 0.00
expand: ERR (2, 0) FAR  w(0) 1. F 0.00
expand: query!0 (3, 0) FAR  w(0) 1. F 0.00
(spacer::context::check_reachability :time 0.01 :before-memory 12.90 :after-memory 13.98)
Propagating: 0 1 2 3  ! 4 
(spacer::context::propagate :time 0.00 :before-memory 13.98 :after-memory 14.07)
Entering level 4
BRUNCH_STAT max_query_lvl 3
BRUNCH_STAT num_queries 6
BRUNCH_STAT num_reach_queries 0
BRUNCH_STAT num_reach_reuse 0
BRUNCH_STAT inductive_lvl 0
BRUNCH_STAT max_depth 4
BRUNCH_STAT cex_depth 0
expand: query!0 (4, 0) FAR  w(0) 1.
	create_child: ERR (3, 4) FAR 1 U 0.00
expand: ERR (3, 0) FAR  w(0) 1.
	create_child: MAIN (2, 4) FAR 2376 U 0.00
expand: MAIN (2, 0) FAR  w(0) 2376.
	create_child: top_step (1, 4) FAR 3017 U 0.00
expand: top_step (1, 0) FAR  w(0) 3017.
	create_child: top_reset (1, 4) FAR 9029 X 0.01
expand: top_reset (1, 0) FAR  w(0) 9029.
	create_child: illinois_reset (0, 4) FAR 9472 U 0.00
expand: illinois_reset (0, 0) FAR  w(0) 9472. F 0.00
expand: top_reset (1, 0) FAR  w(0) 9029. F 0.00
expand: MAIN (2, 0) FAR  w(0) 2376.
	create_child: top_step (1, 4) FAR 12727 U 0.00
expand: top_step (1, 0) FAR  w(0) 12727.
	create_child: illinois_step (0, 4) FAR 13092 U 0.00
expand: illinois_step (0, 0) FAR  w(0) 13092. F 0.00
expand: top_step (1, 0) FAR  w(0) 12727. F 0.00
expand: MAIN (2, 0) FAR  w(0) 2376. F 0.00
expand: ERR (3, 0) FAR  w(0) 1. F 0.00
expand: query!0 (4, 0) FAR  w(0) 1. F 0.00
(spacer::context::check_reachability :time 0.03 :before-memory 14.07 :after-memory 18.45)
Propagating: 0 1 2 3 4  ! 5 
(spacer::context::propagate :time 0.00 :before-memory 18.45 :after-memory 18.45)
Entering level 5
BRUNCH_STAT max_query_lvl 4
BRUNCH_STAT num_queries 12
BRUNCH_STAT num_reach_queries 1
BRUNCH_STAT num_reach_reuse 5
BRUNCH_STAT inductive_lvl 0
BRUNCH_STAT max_depth 5
BRUNCH_STAT cex_depth 0
expand: query!0 (5, 0) FAR  w(0) 1.
	create_child: ERR (4, 5) FAR 1 U 0.00
expand: ERR (4, 0) FAR  w(0) 1.
	create_child: MAIN (3, 5) FAR 2376 U 0.00
expand: MAIN (3, 0) FAR  w(0) 2376.
	create_child: MAIN (2, 5) FAR 15980 U 0.00
expand: MAIN (2, 0) FAR  w(0) 15980.
	create_child: top_step (1, 5) FAR 15815 U 0.00
expand: top_step (1, 0) FAR  w(0) 15815.
	create_child: Sofar_step (0, 5) FAR 15833 U 0.00
expand: Sofar_step (0, 0) FAR  w(0) 15833.
	create_child: illinois_step (0, 5) FAR 16159 X 0.00
expand: illinois_step (0, 0) FAR  w(0) 16159. F 0.00
expand: top_step (1, 0) FAR  w(0) 15815. F 0.00
expand: MAIN (2, 0) FAR  w(0) 15980. F 0.00
expand: MAIN (3, 0) FAR  w(0) 2376.
	create_child: MAIN (2, 5) FAR 16648 U 0.00
expand: MAIN (2, 0) FAR  w(0) 16648.
	create_child: top_step (1, 5) FAR 16552 U 0.00
expand: top_step (1, 0) FAR  w(0) 16552.
	create_child: Sofar_step (0, 5) FAR 16528 U 0.00
expand: Sofar_step (0, 0) FAR  w(0) 16528. F 0.00
expand: top_step (1, 0) FAR  w(0) 16552. F 0.00
expand: MAIN (2, 0) FAR  w(0) 16648. F 0.00
expand: MAIN (3, 0) FAR  w(0) 2376.
	create_child: MAIN (2, 5) FAR 16903 U 0.00
expand: MAIN (2, 0) FAR  w(0) 16903.
	create_child: top_step (1, 5) FAR 16707 U 0.00
expand: top_step (1, 0) FAR  w(0) 16707.
	create_child: illinois_step (0, 5) FAR 16731 U 0.00
expand: illinois_step (0, 0) FAR  w(0) 16731. F 0.00
expand: top_step (1, 0) FAR  w(0) 16707. F 0.00
expand: MAIN (2, 0) FAR  w(0) 16903. F 0.00
expand: MAIN (3, 0) FAR  w(0) 2376.
	create_child: top_step (2, 5) FAR 16950 U 0.00
expand: top_step (2, 0) FAR  w(0) 16950.
	create_child: excludes9_fun (1, 5) FAR 1920 U 0.01
expand: excludes9_fun (1, 0) FAR  w(0) 1920.
	create_child: illinois_step (1, 5) FAR 17507 X 0.00
expand: illinois_step (1, 0) FAR  w(0) 17507. F 0.00
expand: top_step (2, 0) FAR  w(0) 16950.
	create_child: excludes9_fun (1, 5) FAR 18108 U 0.00
expand: excludes9_fun (1, 0) FAR  w(0) 18108.
	create_child: illinois_step (1, 5) FAR 18111 X 0.00
expand: illinois_step (1, 0) FAR  w(0) 18111. F 0.00
expand: top_step (2, 0) FAR  w(0) 16950.
	create_child: excludes9_fun (1, 5) FAR 18377 U 0.00
expand: excludes9_fun (1, 0) FAR  w(0) 18377. F 0.00
expand: top_step (2, 0) FAR  w(0) 16950.
	create_child: excludes9_fun (1, 5) FAR 18328 U 0.00
expand: excludes9_fun (1, 0) FAR  w(0) 18328.
	create_child: illinois_step (1, 5) FAR 18399 X 0.00
expand: illinois_step (1, 0) FAR  w(0) 18399. F 0.00
expand: top_step (2, 0) FAR  w(0) 16950.
	create_child: excludes9_fun (1, 5) FAR 18442 U 0.00
expand: excludes9_fun (1, 0) FAR  w(0) 18442. F 0.00
expand: top_step (2, 0) FAR  w(0) 16950.
	create_child: Sofar_step (1, 5) FAR 18542 U 0.00
expand: Sofar_step (1, 0) FAR  w(0) 18542. F 0.00
expand: top_step (2, 0) FAR  w(0) 16950. F 0.00
expand: MAIN (3, 0) FAR  w(0) 2376. F 0.00
expand: ERR (4, 0) FAR  w(0) 1. F 0.00
expand: query!0 (5, 0) FAR  w(0) 1. F 0.00
(spacer::context::check_reachability :time 0.07 :before-memory 18.45 :after-memory 21.37)
Propagating: 0 1 2 3 4 5  ! 6 
(spacer::context::propagate :time 0.00 :before-memory 21.37 :after-memory 21.37)
Entering level 6
BRUNCH_STAT max_query_lvl 5
BRUNCH_STAT num_queries 30
BRUNCH_STAT num_reach_queries 1
BRUNCH_STAT num_reach_reuse 18
BRUNCH_STAT inductive_lvl 0
BRUNCH_STAT max_depth 6
BRUNCH_STAT cex_depth 0
expand: query!0 (6, 0) FAR  w(0) 1.
	create_child: ERR (5, 6) FAR 1 U 0.00
expand: ERR (5, 0) FAR  w(0) 1.
	create_child: MAIN (4, 6) FAR 2376 U 0.00
expand: MAIN (4, 0) FAR  w(0) 2376.
	create_child: MAIN (3, 6) FAR 19144 U 0.00
expand: MAIN (3, 0) FAR  w(0) 19144.
	create_child: top_step (2, 6) FAR 19117 U 0.00
expand: top_step (2, 0) FAR  w(0) 19117.
	create_child: Sofar_step (1, 6) FAR 19060 U 0.00
expand: Sofar_step (1, 0) FAR  w(0) 19060. F 0.00
expand: top_step (2, 0) FAR  w(0) 19117. F 0.00
expand: MAIN (3, 0) FAR  w(0) 19144. F 0.00
expand: MAIN (4, 0) FAR  w(0) 2376.
	create_child: top_step (3, 6) FAR 19392 U 0.00
expand: top_step (3, 0) FAR  w(0) 19392.
	create_child: Sofar_step (2, 6) FAR 19653 U 0.00
expand: Sofar_step (2, 0) FAR  w(0) 19653. F 0.00
expand: top_step (3, 0) FAR  w(0) 19392. F 0.00
expand: MAIN (4, 0) FAR  w(0) 2376. F 0.00
expand: ERR (5, 0) FAR  w(0) 1. F 0.00
expand: query!0 (6, 0) FAR  w(0) 1. F 0.00
(spacer::context::check_reachability :time 0.02 :before-memory 21.37 :after-memory 21.58)
Propagating: 1 2 3 4 5 6  ! 7 
(spacer::context::propagate :time 0.00 :before-memory 21.58 :after-memory 21.58)
Entering level 7
BRUNCH_STAT max_query_lvl 6
BRUNCH_STAT num_queries 37
BRUNCH_STAT num_reach_queries 1
BRUNCH_STAT num_reach_reuse 22
BRUNCH_STAT inductive_lvl 0
BRUNCH_STAT max_depth 7
BRUNCH_STAT cex_depth 0
expand: query!0 (7, 0) FAR  w(0) 1.
	create_child: ERR (6, 7) FAR 1 U 0.00
expand: ERR (6, 0) FAR  w(0) 1.
	create_child: MAIN (5, 7) FAR 2376 U 0.00
expand: MAIN (5, 0) FAR  w(0) 2376.
	create_child: MAIN (4, 7) FAR 19144 U 0.00
expand: MAIN (4, 0) FAR  w(0) 19144.
	create_child: top_step (3, 7) FAR 19812 U 0.00
expand: top_step (3, 0) FAR  w(0) 19812. F 0.00
expand: MAIN (4, 0) FAR  w(0) 19144. F 0.00
expand: MAIN (5, 0) FAR  w(0) 2376. F 0.00
expand: ERR (6, 0) FAR  w(0) 1. F 0.00
expand: query!0 (7, 0) FAR  w(0) 1. F 0.00
(spacer::context::check_reachability :time 0.01 :before-memory 21.58 :after-memory 21.61)
Propagating: 3 
(spacer::context::propagate :time 0.00 :before-memory 21.61 :after-memory 21.61)
(define-fun ERR () Bool
  false)
(define-fun illinois_step ((x!0 Bool)
 (x!1 Bool)
 (x!2 Bool)
 (x!3 Bool)
 (x!4 Bool)
 (x!5 Bool)
 (x!6 Bool)
 (x!7 Bool)
 (x!8 Bool)
 (x!9 Int)
 (x!10 Int)
 (x!11 Int)
 (x!12 Int)
 (x!13 Int)
 (x!14 Int)
 (x!15 Int)
 (x!16 Int)
 (x!17 Int)
 (x!18 Int)
 (x!19 Bool)
 (x!20 Int)
 (x!21 Int)
 (x!22 Int)
 (x!23 Int)
 (x!24 Int)
 (x!25 Bool)) Bool
  (let ((a!1 (or (>= (+ x!12 (* (- 1) x!16)) 0)
                 (= x!12 0)
                 x!0
                 (not x!2)
                 (= (+ x!12 (* (- 1) x!15)) 0)))
        (a!2 (or (>= (+ x!12 (* (- 1) x!15)) 0) x!3 x!8 x!2 (= x!12 0)))
        (a!3 (or (>= x!12 0) x!2 (= (+ x!12 (* (- 1) x!15)) 0))))
    (and a!1
         (or (not x!19) (= x!12 0))
         (>= (+ x!21 (* (- 1) x!12)) 0)
         (>= x!22 0)
         a!2
         a!3)))
(define-fun Sofar_reset ((x!0 Bool) (x!1 Bool) (x!2 Bool) (x!3 Bool)) Bool
  true)
(define-fun illinois_reset ((x!0 Int)
 (x!1 Int)
 (x!2 Int)
 (x!3 Int)
 (x!4 Int)
 (x!5 Bool)
 (x!6 Int)
 (x!7 Int)
 (x!8 Int)
 (x!9 Int)
 (x!10 Int)
 (x!11 Bool)) Bool
  x!11)
(define-fun MAIN ((x!0 Int)
 (x!1 Int)
 (x!2 Int)
 (x!3 Int)
 (x!4 Int)
 (x!5 Bool)
 (x!6 Bool)
 (x!7 Bool)
 (x!8 Bool)) Bool
  (and (or (>= x!1 0) (not x!6)) x!8 (not x!7) (>= x!2 0)))
(define-fun excludes9_fun ((x!0 Bool)
 (x!1 Bool)
 (x!2 Bool)
 (x!3 Bool)
 (x!4 Bool)
 (x!5 Bool)
 (x!6 Bool)
 (x!7 Bool)
 (x!8 Bool)
 (x!9 Bool)) Bool
  (and (or (not x!2) (not x!9) (not x!0)) (or (not x!8) (not x!9) (not x!2))))
(define-fun top_reset ((x!0 Int)
 (x!1 Int)
 (x!2 Int)
 (x!3 Int)
 (x!4 Int)
 (x!5 Bool)
 (x!6 Bool)
 (x!7 Bool)
 (x!8 Int)
 (x!9 Int)
 (x!10 Int)
 (x!11 Int)
 (x!12 Int)
 (x!13 Bool)
 (x!14 Bool)
 (x!15 Bool)) Bool
  x!13)
(define-fun Sofar_step ((x!0 Bool)
 (x!1 Bool)
 (x!2 Bool)
 (x!3 Bool)
 (x!4 Bool)
 (x!5 Bool)) Bool
  (and (or x!2 x!3 (not x!1)) (not x!5) (or x!1 (not x!4)) (or (not x!1) x!0)))
(define-fun top_step ((x!0 Bool)
 (x!1 Bool)
 (x!2 Bool)
 (x!3 Bool)
 (x!4 Bool)
 (x!5 Bool)
 (x!6 Bool)
 (x!7 Bool)
 (x!8 Bool)
 (x!9 Int)
 (x!10 Bool)
 (x!11 Int)
 (x!12 Int)
 (x!13 Int)
 (x!14 Int)
 (x!15 Int)
 (x!16 Bool)
 (x!17 Bool)
 (x!18 Bool)
 (x!19 Int)
 (x!20 Int)
 (x!21 Int)
 (x!22 Int)
 (x!23 Int)
 (x!24 Bool)
 (x!25 Bool)
 (x!26 Bool)) Bool
  (and (or x!18 (not x!25) x!17)
       (not x!26)
       (or x!10 (not x!16))
       (or (>= x!20 0) (not x!16))
       (>= x!21 0)
       (or (not (>= x!13 0)) x!10 (not (>= x!12 0)))
       (or (not (>= x!13 0)) (not x!25) (>= x!20 0) (not (>= x!12 0)))
       (or x!18 x!17 x!10)))
BRUNCH_STAT max_query_lvl 7
BRUNCH_STAT num_queries 41
BRUNCH_STAT num_reach_queries 1
BRUNCH_STAT num_reach_reuse 23
BRUNCH_STAT inductive_lvl 3
BRUNCH_STAT max_depth 7
BRUNCH_STAT cex_depth 0
(:SPACER-inductive-level               3
 :SPACER-max-depth                     7
 :SPACER-max-query-lvl                 7
 :SPACER-num-invariants                28
 :SPACER-num-lemmas                    49
 :SPACER-num-properties                31
 :SPACER-num-queries                   41
 :SPACER-num-reach-queries             1
 :SPACER-num-reuse-reach-facts         23
 :added-eqs                            3982
 :arith-add-rows                       1143
 :arith-assert-diseq                   942
 :arith-assert-lower                   2361
 :arith-assert-upper                   1972
 :arith-bound-prop                     271
 :arith-conflicts                      31
 :arith-eq-adapter                     1083
 :arith-fixed-eqs                      558
 :arith-offset-eqs                     277
 :arith-pivots                         363
 :bool-inductive-gen                   31
 :bool-inductive-gen-failures          64
 :conflicts                            304
 :decisions                            4754
 :del-clause                           704
 :final-checks                         127
 :minimized-lits                       31
 :mk-bool-var                          4901
 :mk-clause                            5589
 :num-checks                           312
 :propagations                         46802
 :time.itp_solver.itp_core             0.01
 :time.spacer.init_rules               0.01
 :time.spacer.init_rules.pt.init       0.00
 :time.spacer.solve                    0.14
 :time.spacer.solve.propagate          0.01
 :time.spacer.solve.pt.must_reachable  0.01
 :time.spacer.solve.reach              0.13
 :time.spacer.solve.reach.children     0.02
 :time.spacer.solve.reach.gen.bool_ind 0.02
 :time.virtual_solver.proof            0.01
 :time.virtual_solver.smt.total        0.09
 :time.virtual_solver.smt.total.sat    0.04
 :virtual_solver.checks                312
 :virtual_solver.checks.sat            127)
BRUNCH_STAT max_query_lvl 7
BRUNCH_STAT num_queries 41
BRUNCH_STAT num_reach_queries 1
BRUNCH_STAT num_reach_reuse 23
BRUNCH_STAT inductive_lvl 3
BRUNCH_STAT max_depth 7
BRUNCH_STAT cex_depth 0

real	0m0.185s
user	0m0.172s
sys	0m0.012s
