(transform N7datalog13mk_coi_filterE...no-op 0s)
(transform N7datalog25mk_interp_tail_simplifierE...13 rules 0s)
(transform N7datalog27mk_quantifier_instantiationE...no-op 0s)
(transform N7datalog8mk_scaleE...no-op 0s)
(transform N7datalog18mk_karr_invariantsE...no-op 0s)
(transform N7datalog14mk_array_blastE...no-op 0s)
(transform N7datalog22mk_subsumption_checkerE...12 rules 0s)
(transform N7datalog12mk_bit_blastE...no-op 0s)
(transform N7datalog15mk_rule_inlinerE...no-op 0s)
(transform N7datalog13mk_coi_filterE...no-op 0s)
(transform N7datalog25mk_interp_tail_simplifierE...12 rules 0s)
(transform N7datalog22mk_subsumption_checkerE...no-op 0s)
(transform N7datalog15mk_rule_inlinerE...no-op 0s)
(transform N7datalog13mk_coi_filterE...no-op 0s)
(transform N7datalog25mk_interp_tail_simplifierE...12 rules 0s)
(transform N7datalog22mk_subsumption_checkerE...no-op 0s)
(transform N7datalog15mk_rule_inlinerE...no-op 0s)
(transform N7datalog22mk_subsumption_checkerE...no-op 0s)
(transform N7datalog15mk_rule_inlinerE...no-op 0s)
(transform N7datalog22mk_subsumption_checkerE...no-op 0s)
(transform N7datalog15mk_rule_inlinerE...no-op 0s)
(transform N7datalog22mk_subsumption_checkerE...no-op 0s)
expand: query!0 (0, 0) FAR  w(0) 1. F 0.00
(spacer::context::check_reachability :time 0.00 :before-memory 12.19 :after-memory 12.64)
Entering level 1
BRUNCH_STAT max_query_lvl 0
BRUNCH_STAT num_queries 0
BRUNCH_STAT num_reach_queries 0
BRUNCH_STAT num_reach_reuse 0
BRUNCH_STAT inductive_lvl 0
BRUNCH_STAT max_depth 1
BRUNCH_STAT cex_depth 0
expand: query!0 (1, 0) FAR  w(0) 1.
	create_child: ERR (0, 1) FAR 1 U 0.00
expand: ERR (0, 0) FAR  w(0) 1. F 0.00
expand: query!0 (1, 0) FAR  w(0) 1. F 0.00
(spacer::context::check_reachability :time 0.00 :before-memory 12.64 :after-memory 13.07)
Propagating: 0 1  ! 2 
(spacer::context::propagate :time 0.00 :before-memory 13.07 :after-memory 13.07)
Entering level 2
BRUNCH_STAT max_query_lvl 1
BRUNCH_STAT num_queries 1
BRUNCH_STAT num_reach_queries 0
BRUNCH_STAT num_reach_reuse 0
BRUNCH_STAT inductive_lvl 0
BRUNCH_STAT max_depth 2
BRUNCH_STAT cex_depth 0
expand: query!0 (2, 0) FAR  w(0) 1.
	create_child: ERR (1, 2) FAR 1 U 0.00
expand: ERR (1, 0) FAR  w(0) 1.
	create_child: MAIN (0, 2) FAR 1448 U 0.00
expand: MAIN (0, 0) FAR  w(0) 1448. F 0.00
expand: ERR (1, 0) FAR  w(0) 1. F 0.00
expand: query!0 (2, 0) FAR  w(0) 1. F 0.00
(spacer::context::check_reachability :time 0.00 :before-memory 13.07 :after-memory 13.52)
Propagating: 0 1 2  ! 3 
(spacer::context::propagate :time 0.00 :before-memory 13.52 :after-memory 13.52)
Entering level 3
BRUNCH_STAT max_query_lvl 2
BRUNCH_STAT num_queries 3
BRUNCH_STAT num_reach_queries 0
BRUNCH_STAT num_reach_reuse 0
BRUNCH_STAT inductive_lvl 0
BRUNCH_STAT max_depth 3
BRUNCH_STAT cex_depth 0
expand: query!0 (3, 0) FAR  w(0) 1.
	create_child: ERR (2, 3) FAR 1 U 0.00
expand: ERR (2, 0) FAR  w(0) 1.
	create_child: MAIN (1, 3) FAR 1448 U 0.00
expand: MAIN (1, 0) FAR  w(0) 1448.
	create_child: top_step (0, 3) FAR 1959 U 0.00
expand: top_step (0, 0) FAR  w(0) 1959. F 0.00
expand: MAIN (1, 0) FAR  w(0) 1448. F 0.00
expand: ERR (2, 0) FAR  w(0) 1. F 0.00
expand: query!0 (3, 0) FAR  w(0) 1. F 0.00
(spacer::context::check_reachability :time 0.00 :before-memory 13.52 :after-memory 14.38)
Propagating: 0 1 2 3  ! 4 
(spacer::context::propagate :time 0.00 :before-memory 14.38 :after-memory 14.47)
Entering level 4
BRUNCH_STAT max_query_lvl 3
BRUNCH_STAT num_queries 6
BRUNCH_STAT num_reach_queries 0
BRUNCH_STAT num_reach_reuse 0
BRUNCH_STAT inductive_lvl 0
BRUNCH_STAT max_depth 4
BRUNCH_STAT cex_depth 0
expand: query!0 (4, 0) FAR  w(0) 1.
	create_child: ERR (3, 4) FAR 1 U 0.00
expand: ERR (3, 0) FAR  w(0) 1.
	create_child: MAIN (2, 4) FAR 1448 U 0.00
expand: MAIN (2, 0) FAR  w(0) 1448.
	create_child: top_step (1, 4) FAR 1959 U 0.00
expand: top_step (1, 0) FAR  w(0) 1959.
	create_child: top_reset (1, 4) FAR 5002 X 0.00
expand: top_reset (1, 0) FAR  w(0) 5002.
	create_child: Sofar_reset (0, 4) FAR 5480 U 0.00
expand: Sofar_reset (0, 0) FAR  w(0) 5480. F 0.00
expand: top_reset (1, 0) FAR  w(0) 5002. F 0.00
expand: MAIN (2, 0) FAR  w(0) 1448.
	create_child: top_reset (1, 4) FAR 6731 U 0.00
expand: top_reset (1, 0) FAR  w(0) 6731.
	create_child: mesi_reset (0, 4) FAR 6670 U 0.00
expand: mesi_reset (0, 0) FAR  w(0) 6670. F 0.00
expand: top_reset (1, 0) FAR  w(0) 6731. F 0.00
expand: MAIN (2, 0) FAR  w(0) 1448.
	create_child: top_step (1, 4) FAR 6856 U 0.00
expand: top_step (1, 0) FAR  w(0) 6856.
	create_child: mesi_step (0, 4) FAR 7038 U 0.00
expand: mesi_step (0, 0) FAR  w(0) 7038. F 0.00
expand: top_step (1, 0) FAR  w(0) 6856.
	create_child: mesi_step (0, 4) FAR 8001 U 0.00
expand: mesi_step (0, 0) FAR  w(0) 8001. F 0.00
expand: top_step (1, 0) FAR  w(0) 6856.
	create_child: mesi_step (0, 4) FAR 8142 U 0.00
expand: mesi_step (0, 0) FAR  w(0) 8142. F 0.00
expand: top_step (1, 0) FAR  w(0) 6856.
	create_child: mesi_step (0, 4) FAR 8265 U 0.00
expand: mesi_step (0, 0) FAR  w(0) 8265. F 0.00
expand: top_step (1, 0) FAR  w(0) 6856.
	create_child: mesi_step (0, 4) FAR 8242 U 0.00
expand: mesi_step (0, 0) FAR  w(0) 8242. F 0.00
expand: top_step (1, 0) FAR  w(0) 6856.
	create_child: Abs_fun (0, 4) FAR 8540 U 0.00
expand: Abs_fun (0, 0) FAR  w(0) 8540. F 0.00
expand: top_step (1, 0) FAR  w(0) 6856. F 0.00
expand: MAIN (2, 0) FAR  w(0) 1448. F 0.00
expand: ERR (3, 0) FAR  w(0) 1. F 0.00
expand: query!0 (4, 0) FAR  w(0) 1. F 0.00
(spacer::context::check_reachability :time 0.04 :before-memory 14.47 :after-memory 18.82)
Propagating: 0 1 2 3 4  ! 5 
(spacer::context::propagate :time 0.00 :before-memory 18.82 :after-memory 18.82)
Entering level 5
BRUNCH_STAT max_query_lvl 4
BRUNCH_STAT num_queries 19
BRUNCH_STAT num_reach_queries 1
BRUNCH_STAT num_reach_reuse 45
BRUNCH_STAT inductive_lvl 0
BRUNCH_STAT max_depth 5
BRUNCH_STAT cex_depth 0
expand: query!0 (5, 0) FAR  w(0) 1.
	create_child: ERR (4, 5) FAR 1 U 0.00
expand: ERR (4, 0) FAR  w(0) 1.
	create_child: MAIN (3, 5) FAR 1448 U 0.00
expand: MAIN (3, 0) FAR  w(0) 1448.
	create_child: MAIN (2, 5) FAR 9038 U 0.00
expand: MAIN (2, 0) FAR  w(0) 9038.
	create_child: top_step (1, 5) FAR 9095 U 0.00
expand: top_step (1, 0) FAR  w(0) 9095.
	create_child: mesi_step (0, 5) FAR 9233 U 0.00
expand: mesi_step (0, 0) FAR  w(0) 9233. F 0.00
expand: top_step (1, 0) FAR  w(0) 9095. F 0.00
expand: MAIN (2, 0) FAR  w(0) 9038. F 0.00
expand: MAIN (3, 0) FAR  w(0) 1448.
	create_child: top_step (2, 5) FAR 9589 U 0.00
expand: top_step (2, 0) FAR  w(0) 9589.
	create_child: MAIN (2, 5) FAR 9766 X 0.01
expand: MAIN (2, 0) FAR  w(0) 9766.
	create_child: top_step (1, 5) FAR 10179 U 0.00
expand: top_step (1, 0) FAR  w(0) 10179.
	create_child: mesi_step (0, 5) FAR 10358 U 0.00
expand: mesi_step (0, 0) FAR  w(0) 10358. F 0.00
expand: top_step (1, 0) FAR  w(0) 10179. F 0.00
expand: MAIN (2, 0) FAR  w(0) 9766. F 0.00
expand: MAIN (3, 0) FAR  w(0) 1448.
	create_child: MAIN (2, 5) FAR 10768 U 0.00
expand: MAIN (2, 0) FAR  w(0) 10768.
	create_child: top_step (1, 5) FAR 10791 U 0.00
expand: top_step (1, 0) FAR  w(0) 10791.
	create_child: mesi_step (0, 5) FAR 10946 U 0.00
expand: mesi_step (0, 0) FAR  w(0) 10946. F 0.00
expand: top_step (1, 0) FAR  w(0) 10791. F 0.00
expand: MAIN (2, 0) FAR  w(0) 10768. F 0.00
expand: MAIN (3, 0) FAR  w(0) 1448.
	create_child: MAIN (2, 5) FAR 11385 U 0.00
expand: MAIN (2, 0) FAR  w(0) 11385.
	create_child: top_step (1, 5) FAR 11386 U 0.00
expand: top_step (1, 0) FAR  w(0) 11386.
	create_child: mesi_step (0, 5) FAR 10818 U 0.00
expand: mesi_step (0, 0) FAR  w(0) 10818. F 0.00
expand: top_step (1, 0) FAR  w(0) 11386. F 0.00
expand: MAIN (2, 0) FAR  w(0) 11385. F 0.00
expand: MAIN (3, 0) FAR  w(0) 1448.
	create_child: MAIN (2, 5) FAR 12075 U 0.00
expand: MAIN (2, 0) FAR  w(0) 12075. F 0.00
expand: MAIN (3, 0) FAR  w(0) 1448.
	create_child: top_step (2, 5) FAR 12312 U 0.00
expand: top_step (2, 0) FAR  w(0) 12312.
	create_child: MAIN (2, 5) FAR 12996 X 0.01
expand: MAIN (2, 0) FAR  w(0) 12996.
	create_child: top_step (1, 5) FAR 13277 U 0.00
expand: top_step (1, 0) FAR  w(0) 13277.
	create_child: mesi_step (0, 5) FAR 13377 U 0.00
expand: mesi_step (0, 0) FAR  w(0) 13377. F 0.00
expand: top_step (1, 0) FAR  w(0) 13277. F 0.00
expand: MAIN (2, 0) FAR  w(0) 12996. F 0.00
expand: MAIN (3, 0) FAR  w(0) 1448.
	create_child: top_step (2, 5) FAR 13696 U 0.00
expand: top_step (2, 0) FAR  w(0) 13696.
	create_child: MAIN (2, 5) FAR 14114 X 0.01
expand: MAIN (2, 0) FAR  w(0) 14114.
	create_child: top_reset (1, 5) FAR 14463 U 0.00
expand: top_reset (1, 0) FAR  w(0) 14463. T 0.00
is-reachable: MAIN (2, 0) FAR 14114 T 0.00
is-reachable: MAIN (3, 0) FAR 1448 T 0.00
is-reachable: ERR (4, 0) FAR 1 T 0.00
is-reachable: query!0 (5, 0) FAR 1 T 0.00
(spacer::context::check_reachability :time 0.09 :before-memory 18.82 :after-memory 21.04)
BRUNCH_STAT max_query_lvl 5
BRUNCH_STAT num_queries 39
BRUNCH_STAT num_reach_queries 9
BRUNCH_STAT num_reach_reuse 102
BRUNCH_STAT inductive_lvl 0
BRUNCH_STAT max_depth 5
BRUNCH_STAT cex_depth 5
(:SPACER-cex-depth                     5
 :SPACER-max-depth                     5
 :SPACER-max-query-lvl                 5
 :SPACER-num-invariants                21
 :SPACER-num-lemmas                    40
 :SPACER-num-properties                32
 :SPACER-num-queries                   39
 :SPACER-num-reach-queries             9
 :SPACER-num-reuse-reach-facts         102
 :added-eqs                            4818
 :arith-add-rows                       3024
 :arith-assert-diseq                   749
 :arith-assert-lower                   3059
 :arith-assert-upper                   2975
 :arith-bound-prop                     485
 :arith-conflicts                      54
 :arith-eq-adapter                     1207
 :arith-fixed-eqs                      1044
 :arith-offset-eqs                     688
 :arith-pivots                         645
 :bool-inductive-gen                   28
 :bool-inductive-gen-failures          41
 :conflicts                            289
 :decisions                            3669
 :del-clause                           523
 :final-checks                         103
 :minimized-lits                       47
 :mk-bool-var                          3938
 :mk-clause                            3590
 :num-checks                           261
 :propagations                         28452
 :time.itp_solver.itp_core             0.01
 :time.spacer.init_rules               0.01
 :time.spacer.init_rules.pt.init       0.00
 :time.spacer.solve                    0.14
 :time.spacer.solve.propagate          0.00
 :time.spacer.solve.pt.must_reachable  0.01
 :time.spacer.solve.reach              0.14
 :time.spacer.solve.reach.children     0.02
 :time.spacer.solve.reach.gen.bool_ind 0.02
 :time.spacer.solve.reach.is-reach     0.01
 :time.virtual_solver.proof            0.00
 :time.virtual_solver.smt.total        0.09
 :time.virtual_solver.smt.total.sat    0.05
 :virtual_solver.checks                261
 :virtual_solver.checks.sat            103)
BRUNCH_STAT max_query_lvl 5
BRUNCH_STAT num_queries 39
BRUNCH_STAT num_reach_queries 9
BRUNCH_STAT num_reach_reuse 102
BRUNCH_STAT inductive_lvl 0
BRUNCH_STAT max_depth 5
BRUNCH_STAT cex_depth 5

real	0m0.181s
user	0m0.164s
sys	0m0.016s
