(transform N7datalog13mk_coi_filterE...no-op 0s)
(transform N7datalog25mk_interp_tail_simplifierE...12 rules 0s)
(transform N7datalog27mk_quantifier_instantiationE...no-op 0s)
(transform N7datalog8mk_scaleE...no-op 0s)
(transform N7datalog18mk_karr_invariantsE...no-op 0s)
(transform N7datalog14mk_array_blastE...no-op 0s)
(transform N7datalog22mk_subsumption_checkerE...11 rules 0s)
(transform N7datalog12mk_bit_blastE...no-op 0s)
(transform N7datalog15mk_rule_inlinerE...no-op 0s)
(transform N7datalog13mk_coi_filterE...no-op 0s)
(transform N7datalog25mk_interp_tail_simplifierE...11 rules 0s)
(transform N7datalog22mk_subsumption_checkerE...no-op 0s)
(transform N7datalog15mk_rule_inlinerE...no-op 0s)
(transform N7datalog13mk_coi_filterE...no-op 0s)
(transform N7datalog25mk_interp_tail_simplifierE...11 rules 0s)
(transform N7datalog22mk_subsumption_checkerE...no-op 0s)
(transform N7datalog15mk_rule_inlinerE...no-op 0s)
(transform N7datalog22mk_subsumption_checkerE...no-op 0s)
(transform N7datalog15mk_rule_inlinerE...no-op 0s)
(transform N7datalog22mk_subsumption_checkerE...no-op 0s)
(transform N7datalog15mk_rule_inlinerE...no-op 0s)
(transform N7datalog22mk_subsumption_checkerE...no-op 0s)
expand: query!0 (0, 0) FAR  w(0) 1. F 0.00
(spacer::context::check_reachability :time 0.00 :before-memory 11.24 :after-memory 11.72)
Entering level 1
BRUNCH_STAT max_query_lvl 0
BRUNCH_STAT num_queries 0
BRUNCH_STAT num_reach_queries 0
BRUNCH_STAT num_reach_reuse 0
BRUNCH_STAT inductive_lvl 0
BRUNCH_STAT max_depth 1
BRUNCH_STAT cex_depth 0
expand: query!0 (1, 0) FAR  w(0) 1.
	create_child: ERR (0, 1) FAR 1 U 0.00
expand: ERR (0, 0) FAR  w(0) 1. F 0.00
expand: query!0 (1, 0) FAR  w(0) 1. F 0.00
(spacer::context::check_reachability :time 0.00 :before-memory 11.72 :after-memory 12.16)
Propagating: 0 1  ! 2 
(spacer::context::propagate :time 0.00 :before-memory 12.16 :after-memory 12.16)
Entering level 2
BRUNCH_STAT max_query_lvl 1
BRUNCH_STAT num_queries 1
BRUNCH_STAT num_reach_queries 0
BRUNCH_STAT num_reach_reuse 0
BRUNCH_STAT inductive_lvl 0
BRUNCH_STAT max_depth 2
BRUNCH_STAT cex_depth 0
expand: query!0 (2, 0) FAR  w(0) 1.
	create_child: ERR (1, 2) FAR 1 U 0.00
expand: ERR (1, 0) FAR  w(0) 1.
	create_child: MAIN (0, 2) FAR 1285 U 0.00
expand: MAIN (0, 0) FAR  w(0) 1285. F 0.00
expand: ERR (1, 0) FAR  w(0) 1. F 0.00
expand: query!0 (2, 0) FAR  w(0) 1. F 0.00
(spacer::context::check_reachability :time 0.00 :before-memory 12.16 :after-memory 12.65)
Propagating: 0 1 2  ! 3 
(spacer::context::propagate :time 0.00 :before-memory 12.65 :after-memory 12.65)
Entering level 3
BRUNCH_STAT max_query_lvl 2
BRUNCH_STAT num_queries 3
BRUNCH_STAT num_reach_queries 0
BRUNCH_STAT num_reach_reuse 0
BRUNCH_STAT inductive_lvl 0
BRUNCH_STAT max_depth 3
BRUNCH_STAT cex_depth 0
expand: query!0 (3, 0) FAR  w(0) 1.
	create_child: ERR (2, 3) FAR 1 U 0.00
expand: ERR (2, 0) FAR  w(0) 1.
	create_child: MAIN (1, 3) FAR 1285 U 0.00
expand: MAIN (1, 0) FAR  w(0) 1285.
	create_child: top_step (0, 3) FAR 1808 U 0.00
expand: top_step (0, 0) FAR  w(0) 1808. F 0.00
expand: MAIN (1, 0) FAR  w(0) 1285. F 0.00
expand: ERR (2, 0) FAR  w(0) 1. F 0.00
expand: query!0 (3, 0) FAR  w(0) 1. F 0.00
(spacer::context::check_reachability :time 0.00 :before-memory 12.65 :after-memory 13.43)
Propagating: 0 1 2 3  ! 4 
(spacer::context::propagate :time 0.00 :before-memory 13.43 :after-memory 13.43)
Entering level 4
BRUNCH_STAT max_query_lvl 3
BRUNCH_STAT num_queries 6
BRUNCH_STAT num_reach_queries 0
BRUNCH_STAT num_reach_reuse 0
BRUNCH_STAT inductive_lvl 0
BRUNCH_STAT max_depth 4
BRUNCH_STAT cex_depth 0
expand: query!0 (4, 0) FAR  w(0) 1.
	create_child: ERR (3, 4) FAR 1 U 0.00
expand: ERR (3, 0) FAR  w(0) 1.
	create_child: MAIN (2, 4) FAR 1285 U 0.00
expand: MAIN (2, 0) FAR  w(0) 1285.
	create_child: top_step (1, 4) FAR 1808 U 0.00
expand: top_step (1, 0) FAR  w(0) 1808.
	create_child: top_reset (1, 4) FAR 4261 X 0.00
expand: top_reset (1, 0) FAR  w(0) 4261.
	create_child: Sofar_reset (0, 4) FAR 4640 U 0.00
expand: Sofar_reset (0, 0) FAR  w(0) 4640. F 0.00
expand: top_reset (1, 0) FAR  w(0) 4261. F 0.00
expand: MAIN (2, 0) FAR  w(0) 1285.
	create_child: top_reset (1, 4) FAR 5760 U 0.00
expand: top_reset (1, 0) FAR  w(0) 5760.
	create_child: mesi_reset (0, 4) FAR 5749 U 0.00
expand: mesi_reset (0, 0) FAR  w(0) 5749. F 0.00
expand: top_reset (1, 0) FAR  w(0) 5760. F 0.00
expand: MAIN (2, 0) FAR  w(0) 1285.
	create_child: top_step (1, 4) FAR 5884 U 0.00
expand: top_step (1, 0) FAR  w(0) 5884.
	create_child: mesi_step (0, 4) FAR 5954 U 0.00
expand: mesi_step (0, 0) FAR  w(0) 5954. F 0.00
expand: top_step (1, 0) FAR  w(0) 5884. F 0.00
expand: MAIN (2, 0) FAR  w(0) 1285. F 0.00
expand: ERR (3, 0) FAR  w(0) 1. F 0.00
expand: query!0 (4, 0) FAR  w(0) 1. F 0.00
(spacer::context::check_reachability :time 0.02 :before-memory 13.43 :after-memory 16.85)
Propagating: 0 1 2 3 4  ! 5 
(spacer::context::propagate :time 0.00 :before-memory 16.85 :after-memory 16.85)
Entering level 5
BRUNCH_STAT max_query_lvl 4
BRUNCH_STAT num_queries 14
BRUNCH_STAT num_reach_queries 1
BRUNCH_STAT num_reach_reuse 7
BRUNCH_STAT inductive_lvl 0
BRUNCH_STAT max_depth 5
BRUNCH_STAT cex_depth 0
expand: query!0 (5, 0) FAR  w(0) 1.
	create_child: ERR (4, 5) FAR 1 U 0.00
expand: ERR (4, 0) FAR  w(0) 1.
	create_child: MAIN (3, 5) FAR 1285 U 0.00
expand: MAIN (3, 0) FAR  w(0) 1285.
	create_child: MAIN (2, 5) FAR 7104 U 0.00
expand: MAIN (2, 0) FAR  w(0) 7104.
	create_child: top_step (1, 5) FAR 7067 U 0.00
expand: top_step (1, 0) FAR  w(0) 7067.
	create_child: mesi_step (0, 5) FAR 7226 U 0.00
expand: mesi_step (0, 0) FAR  w(0) 7226. F 0.00
expand: top_step (1, 0) FAR  w(0) 7067. F 0.00
expand: MAIN (2, 0) FAR  w(0) 7104. F 0.00
expand: MAIN (3, 0) FAR  w(0) 1285.
	create_child: MAIN (2, 5) FAR 7509 U 0.00
expand: MAIN (2, 0) FAR  w(0) 7509.
	create_child: top_step (1, 5) FAR 7559 U 0.00
expand: top_step (1, 0) FAR  w(0) 7559.
	create_child: mesi_step (0, 5) FAR 7668 U 0.00
expand: mesi_step (0, 0) FAR  w(0) 7668. F 0.00
expand: top_step (1, 0) FAR  w(0) 7559. F 0.00
expand: MAIN (2, 0) FAR  w(0) 7509. F 0.00
expand: MAIN (3, 0) FAR  w(0) 1285.
	create_child: MAIN (2, 5) FAR 8017 U 0.00
expand: MAIN (2, 0) FAR  w(0) 8017.
	create_child: top_step (1, 5) FAR 7990 U 0.00
expand: top_step (1, 0) FAR  w(0) 7990.
	create_child: mesi_step (0, 5) FAR 7850 U 0.00
expand: mesi_step (0, 0) FAR  w(0) 7850. F 0.00
expand: top_step (1, 0) FAR  w(0) 7990. F 0.00
expand: MAIN (2, 0) FAR  w(0) 8017. F 0.00
expand: MAIN (3, 0) FAR  w(0) 1285.
	create_child: top_step (2, 5) FAR 8323 U 0.00
expand: top_step (2, 0) FAR  w(0) 8323.
	create_child: mesi_step (1, 5) FAR 8706 U 0.00
expand: mesi_step (1, 0) FAR  w(0) 8706. F 0.00
expand: top_step (2, 0) FAR  w(0) 8323. F 0.00
expand: MAIN (3, 0) FAR  w(0) 1285. F 0.00
expand: ERR (4, 0) FAR  w(0) 1. F 0.00
expand: query!0 (5, 0) FAR  w(0) 1. F 0.00
(spacer::context::check_reachability :time 0.04 :before-memory 16.85 :after-memory 17.55)
Propagating: 0 1 2 3 4 5  ! 6 
(spacer::context::propagate :time 0.00 :before-memory 17.55 :after-memory 17.55)
Entering level 6
BRUNCH_STAT max_query_lvl 5
BRUNCH_STAT num_queries 27
BRUNCH_STAT num_reach_queries 1
BRUNCH_STAT num_reach_reuse 17
BRUNCH_STAT inductive_lvl 0
BRUNCH_STAT max_depth 6
BRUNCH_STAT cex_depth 0
expand: query!0 (6, 0) FAR  w(0) 1.
	create_child: ERR (5, 6) FAR 1 U 0.00
expand: ERR (5, 0) FAR  w(0) 1.
	create_child: MAIN (4, 6) FAR 1285 U 0.00
expand: MAIN (4, 0) FAR  w(0) 1285.
	create_child: MAIN (3, 6) FAR 9427 U 0.00
expand: MAIN (3, 0) FAR  w(0) 9427.
	create_child: top_step (2, 6) FAR 9433 U 0.00
expand: top_step (2, 0) FAR  w(0) 9433. F 0.00
expand: MAIN (3, 0) FAR  w(0) 9427. F 0.00
expand: MAIN (4, 0) FAR  w(0) 1285.
	create_child: MAIN (3, 6) FAR 9704 U 0.00
expand: MAIN (3, 0) FAR  w(0) 9704.
	create_child: top_step (2, 6) FAR 9612 U 0.00
expand: top_step (2, 0) FAR  w(0) 9612.
	create_child: Sofar_step (1, 6) FAR 9959 U 0.00
expand: Sofar_step (1, 0) FAR  w(0) 9959. F 0.00
expand: top_step (2, 0) FAR  w(0) 9612. F 0.00
expand: MAIN (3, 0) FAR  w(0) 9704. F 0.00
expand: MAIN (4, 0) FAR  w(0) 1285.
	create_child: MAIN (3, 6) FAR 7509 U 0.00
expand: MAIN (3, 0) FAR  w(0) 7509.
	create_child: MAIN (2, 6) FAR 10239 U 0.00
expand: MAIN (2, 0) FAR  w(0) 10239.
	create_child: top_step (1, 6) FAR 10237 U 0.00
expand: top_step (1, 0) FAR  w(0) 10237. F 0.00
expand: MAIN (2, 0) FAR  w(0) 10239. F 0.00
expand: MAIN (3, 0) FAR  w(0) 7509.
	create_child: top_step (2, 6) FAR 10441 U 0.00
expand: top_step (2, 0) FAR  w(0) 10441.
	create_child: mesi_step (1, 6) FAR 10704 U 0.00
expand: mesi_step (1, 0) FAR  w(0) 10704. F 0.00
expand: top_step (2, 0) FAR  w(0) 10441. F 0.00
expand: MAIN (3, 0) FAR  w(0) 7509. F 0.00
expand: MAIN (4, 0) FAR  w(0) 1285.
	create_child: MAIN (3, 6) FAR 10445 U 0.00
expand: MAIN (3, 0) FAR  w(0) 10445.
	create_child: MAIN (2, 6) FAR 11429 U 0.00
expand: MAIN (2, 0) FAR  w(0) 11429.
	create_child: top_step (1, 6) FAR 11445 U 0.00
expand: top_step (1, 0) FAR  w(0) 11445.
	create_child: mesi_step (0, 6) FAR 11544 U 0.00
expand: mesi_step (0, 0) FAR  w(0) 11544. F 0.00
expand: top_step (1, 0) FAR  w(0) 11445. F 0.00
expand: MAIN (2, 0) FAR  w(0) 11429. F 0.00
expand: MAIN (3, 0) FAR  w(0) 10445.
	create_child: MAIN (2, 6) FAR 11828 U 0.00
expand: MAIN (2, 0) FAR  w(0) 11828.
	create_child: top_step (1, 6) FAR 11836 U 0.00
expand: top_step (1, 0) FAR  w(0) 11836.
	create_child: mesi_step (0, 6) FAR 11913 U 0.00
expand: mesi_step (0, 0) FAR  w(0) 11913. F 0.00
expand: top_step (1, 0) FAR  w(0) 11836. F 0.00
expand: MAIN (2, 0) FAR  w(0) 11828. F 0.00
expand: MAIN (3, 0) FAR  w(0) 10445.
	create_child: top_step (2, 6) FAR 12150 U 0.00
expand: top_step (2, 0) FAR  w(0) 12150.
	create_child: mesi_step (1, 6) FAR 12467 U 0.00
expand: mesi_step (1, 0) FAR  w(0) 12467. F 0.00
expand: top_step (2, 0) FAR  w(0) 12150.
	create_child: mesi_step (1, 6) FAR 12656 U 0.00
expand: mesi_step (1, 0) FAR  w(0) 12656. F 0.00
expand: top_step (2, 0) FAR  w(0) 12150.
	create_child: mesi_step (1, 6) FAR 12677 U 0.00
expand: mesi_step (1, 0) FAR  w(0) 12677. F 0.00
expand: top_step (2, 0) FAR  w(0) 12150. F 0.00
expand: MAIN (3, 0) FAR  w(0) 10445. F 0.00
expand: MAIN (4, 0) FAR  w(0) 1285. F 0.00
expand: ERR (5, 0) FAR  w(0) 1. F 0.00
expand: query!0 (6, 0) FAR  w(0) 1. F 0.00
(spacer::context::check_reachability :time 0.08 :before-memory 17.55 :after-memory 19.04)
Propagating: 0 1 2 3 4 5 6  ! 7 
(spacer::context::propagate :time 0.00 :before-memory 19.04 :after-memory 19.04)
Entering level 7
BRUNCH_STAT max_query_lvl 6
BRUNCH_STAT num_queries 50
BRUNCH_STAT num_reach_queries 1
BRUNCH_STAT num_reach_reuse 38
BRUNCH_STAT inductive_lvl 0
BRUNCH_STAT max_depth 7
BRUNCH_STAT cex_depth 0
expand: query!0 (7, 0) FAR  w(0) 1.
	create_child: ERR (6, 7) FAR 1 U 0.00
expand: ERR (6, 0) FAR  w(0) 1.
	create_child: MAIN (5, 7) FAR 1285 U 0.00
expand: MAIN (5, 0) FAR  w(0) 1285.
	create_child: MAIN (4, 7) FAR 10445 U 0.00
expand: MAIN (4, 0) FAR  w(0) 10445.
	create_child: MAIN (3, 7) FAR 11429 U 0.00
expand: MAIN (3, 0) FAR  w(0) 11429.
	create_child: top_step (2, 7) FAR 13383 U 0.00
expand: top_step (2, 0) FAR  w(0) 13383.
	create_child: mesi_step (1, 7) FAR 13520 U 0.00
expand: mesi_step (1, 0) FAR  w(0) 13520. F 0.00
expand: top_step (2, 0) FAR  w(0) 13383.
	create_child: mesi_step (1, 7) FAR 13650 U 0.00
expand: mesi_step (1, 0) FAR  w(0) 13650. F 0.00
expand: top_step (2, 0) FAR  w(0) 13383. F 0.00
expand: MAIN (3, 0) FAR  w(0) 11429. F 0.00
expand: MAIN (4, 0) FAR  w(0) 10445.
	create_child: MAIN (3, 7) FAR 11828 U 0.00
expand: MAIN (3, 0) FAR  w(0) 11828.
	create_child: MAIN (2, 7) FAR 13476 U 0.00
expand: MAIN (2, 0) FAR  w(0) 13476.
	create_child: top_reset (1, 7) FAR 13837 U 0.00
expand: top_reset (1, 0) FAR  w(0) 13837. T 0.00
is-reachable: MAIN (2, 0) FAR 13476 T 0.00
is-reachable: MAIN (3, 0) FAR 11828 T 0.00
is-reachable: MAIN (4, 0) FAR 10445 T 0.00
is-reachable: MAIN (5, 0) FAR 1285 T 0.00
is-reachable: ERR (6, 0) FAR 1 T 0.00
is-reachable: query!0 (7, 0) FAR 1 T 0.00
(spacer::context::check_reachability :time 0.03 :before-memory 19.04 :after-memory 19.62)
BRUNCH_STAT max_query_lvl 7
BRUNCH_STAT num_queries 60
BRUNCH_STAT num_reach_queries 8
BRUNCH_STAT num_reach_reuse 49
BRUNCH_STAT inductive_lvl 0
BRUNCH_STAT max_depth 7
BRUNCH_STAT cex_depth 7
(:SPACER-cex-depth                     7
 :SPACER-max-depth                     7
 :SPACER-max-query-lvl                 7
 :SPACER-num-invariants                32
 :SPACER-num-lemmas                    61
 :SPACER-num-properties                45
 :SPACER-num-queries                   60
 :SPACER-num-reach-queries             8
 :SPACER-num-reuse-reach-facts         49
 :added-eqs                            6669
 :arith-add-rows                       4697
 :arith-assert-diseq                   761
 :arith-assert-lower                   4444
 :arith-assert-upper                   3766
 :arith-bound-prop                     392
 :arith-conflicts                      89
 :arith-eq-adapter                     1959
 :arith-fixed-eqs                      1502
 :arith-offset-eqs                     657
 :arith-pivots                         947
 :bool-inductive-gen                   45
 :bool-inductive-gen-failures          88
 :conflicts                            473
 :decisions                            6435
 :del-clause                           937
 :final-checks                         172
 :minimized-lits                       31
 :mk-bool-var                          5635
 :mk-clause                            3708
 :num-checks                           431
 :propagations                         43552
 :time.itp_solver.itp_core             0.01
 :time.spacer.init_rules               0.01
 :time.spacer.init_rules.pt.init       0.00
 :time.spacer.solve                    0.18
 :time.spacer.solve.propagate          0.01
 :time.spacer.solve.pt.must_reachable  0.00
 :time.spacer.solve.reach              0.17
 :time.spacer.solve.reach.children     0.03
 :time.spacer.solve.reach.gen.bool_ind 0.03
 :time.spacer.solve.reach.is-reach     0.01
 :time.virtual_solver.proof            0.01
 :time.virtual_solver.smt.total        0.12
 :time.virtual_solver.smt.total.sat    0.06
 :virtual_solver.checks                431
 :virtual_solver.checks.sat            172)
BRUNCH_STAT max_query_lvl 7
BRUNCH_STAT num_queries 60
BRUNCH_STAT num_reach_queries 8
BRUNCH_STAT num_reach_reuse 49
BRUNCH_STAT inductive_lvl 0
BRUNCH_STAT max_depth 7
BRUNCH_STAT cex_depth 7

real	0m0.224s
user	0m0.220s
sys	0m0.000s
