(transform N7datalog13mk_coi_filterE...no-op 0s)
(transform N7datalog25mk_interp_tail_simplifierE...12 rules 0s)
(transform N7datalog27mk_quantifier_instantiationE...no-op 0s)
(transform N7datalog8mk_scaleE...no-op 0s)
(transform N7datalog18mk_karr_invariantsE...no-op 0s)
(transform N7datalog14mk_array_blastE...no-op 0s)
(transform N7datalog22mk_subsumption_checkerE...11 rules 0s)
(transform N7datalog12mk_bit_blastE...no-op 0s)
(transform N7datalog15mk_rule_inlinerE...no-op 0s)
(transform N7datalog13mk_coi_filterE...no-op 0s)
(transform N7datalog25mk_interp_tail_simplifierE...11 rules 0s)
(transform N7datalog22mk_subsumption_checkerE...no-op 0s)
(transform N7datalog15mk_rule_inlinerE...no-op 0s)
(transform N7datalog13mk_coi_filterE...no-op 0s)
(transform N7datalog25mk_interp_tail_simplifierE...11 rules 0s)
(transform N7datalog22mk_subsumption_checkerE...no-op 0s)
(transform N7datalog15mk_rule_inlinerE...no-op 0s)
(transform N7datalog22mk_subsumption_checkerE...no-op 0s)
(transform N7datalog15mk_rule_inlinerE...no-op 0s)
(transform N7datalog22mk_subsumption_checkerE...no-op 0s)
(transform N7datalog15mk_rule_inlinerE...no-op 0s)
(transform N7datalog22mk_subsumption_checkerE...no-op 0s)
expand: query!0 (0, 0) FAR  w(0) 1. F 0.00
(spacer::context::check_reachability :time 0.00 :before-memory 11.24 :after-memory 11.72)
Entering level 1
BRUNCH_STAT max_query_lvl 0
BRUNCH_STAT num_queries 0
BRUNCH_STAT num_reach_queries 0
BRUNCH_STAT num_reach_reuse 0
BRUNCH_STAT inductive_lvl 0
BRUNCH_STAT max_depth 1
BRUNCH_STAT cex_depth 0
expand: query!0 (1, 0) FAR  w(0) 1.
	create_child: ERR (0, 1) FAR 1 U 0.00
expand: ERR (0, 0) FAR  w(0) 1. F 0.00
expand: query!0 (1, 0) FAR  w(0) 1. F 0.00
(spacer::context::check_reachability :time 0.00 :before-memory 11.72 :after-memory 12.16)
Propagating: 0 1  ! 2 
(spacer::context::propagate :time 0.00 :before-memory 12.16 :after-memory 12.16)
Entering level 2
BRUNCH_STAT max_query_lvl 1
BRUNCH_STAT num_queries 1
BRUNCH_STAT num_reach_queries 0
BRUNCH_STAT num_reach_reuse 0
BRUNCH_STAT inductive_lvl 0
BRUNCH_STAT max_depth 2
BRUNCH_STAT cex_depth 0
expand: query!0 (2, 0) FAR  w(0) 1.
	create_child: ERR (1, 2) FAR 1 U 0.00
expand: ERR (1, 0) FAR  w(0) 1.
	create_child: MAIN (0, 2) FAR 1292 U 0.00
expand: MAIN (0, 0) FAR  w(0) 1292. F 0.00
expand: ERR (1, 0) FAR  w(0) 1. F 0.00
expand: query!0 (2, 0) FAR  w(0) 1. F 0.00
(spacer::context::check_reachability :time 0.00 :before-memory 12.16 :after-memory 12.65)
Propagating: 0 1 2  ! 3 
(spacer::context::propagate :time 0.00 :before-memory 12.65 :after-memory 12.65)
Entering level 3
BRUNCH_STAT max_query_lvl 2
BRUNCH_STAT num_queries 3
BRUNCH_STAT num_reach_queries 0
BRUNCH_STAT num_reach_reuse 0
BRUNCH_STAT inductive_lvl 0
BRUNCH_STAT max_depth 3
BRUNCH_STAT cex_depth 0
expand: query!0 (3, 0) FAR  w(0) 1.
	create_child: ERR (2, 3) FAR 1 U 0.00
expand: ERR (2, 0) FAR  w(0) 1.
	create_child: MAIN (1, 3) FAR 1292 U 0.00
expand: MAIN (1, 0) FAR  w(0) 1292.
	create_child: top_step (0, 3) FAR 1815 U 0.00
expand: top_step (0, 0) FAR  w(0) 1815. F 0.00
expand: MAIN (1, 0) FAR  w(0) 1292. F 0.00
expand: ERR (2, 0) FAR  w(0) 1. F 0.00
expand: query!0 (3, 0) FAR  w(0) 1. F 0.00
(spacer::context::check_reachability :time 0.00 :before-memory 12.65 :after-memory 13.43)
Propagating: 0 1 2 3  ! 4 
(spacer::context::propagate :time 0.00 :before-memory 13.43 :after-memory 13.43)
Entering level 4
BRUNCH_STAT max_query_lvl 3
BRUNCH_STAT num_queries 6
BRUNCH_STAT num_reach_queries 0
BRUNCH_STAT num_reach_reuse 0
BRUNCH_STAT inductive_lvl 0
BRUNCH_STAT max_depth 4
BRUNCH_STAT cex_depth 0
expand: query!0 (4, 0) FAR  w(0) 1.
	create_child: ERR (3, 4) FAR 1 U 0.00
expand: ERR (3, 0) FAR  w(0) 1.
	create_child: MAIN (2, 4) FAR 1292 U 0.00
expand: MAIN (2, 0) FAR  w(0) 1292.
	create_child: top_step (1, 4) FAR 1815 U 0.00
expand: top_step (1, 0) FAR  w(0) 1815.
	create_child: top_reset (1, 4) FAR 4258 X 0.00
expand: top_reset (1, 0) FAR  w(0) 4258.
	create_child: Sofar_reset (0, 4) FAR 4655 U 0.00
expand: Sofar_reset (0, 0) FAR  w(0) 4655. F 0.00
expand: top_reset (1, 0) FAR  w(0) 4258. F 0.00
expand: MAIN (2, 0) FAR  w(0) 1292.
	create_child: top_reset (1, 4) FAR 5755 U 0.00
expand: top_reset (1, 0) FAR  w(0) 5755.
	create_child: mesi_reset (0, 4) FAR 5721 U 0.00
expand: mesi_reset (0, 0) FAR  w(0) 5721. F 0.00
expand: top_reset (1, 0) FAR  w(0) 5755. F 0.00
expand: MAIN (2, 0) FAR  w(0) 1292.
	create_child: top_step (1, 4) FAR 5843 U 0.00
expand: top_step (1, 0) FAR  w(0) 5843.
	create_child: mesi_step (0, 4) FAR 5908 U 0.00
expand: mesi_step (0, 0) FAR  w(0) 5908. F 0.00
expand: top_step (1, 0) FAR  w(0) 5843. F 0.00
expand: MAIN (2, 0) FAR  w(0) 1292. F 0.00
expand: ERR (3, 0) FAR  w(0) 1. F 0.00
expand: query!0 (4, 0) FAR  w(0) 1. F 0.00
(spacer::context::check_reachability :time 0.02 :before-memory 13.43 :after-memory 16.90)
Propagating: 0 1 2 3 4  ! 5 
(spacer::context::propagate :time 0.00 :before-memory 16.90 :after-memory 16.90)
Entering level 5
BRUNCH_STAT max_query_lvl 4
BRUNCH_STAT num_queries 14
BRUNCH_STAT num_reach_queries 1
BRUNCH_STAT num_reach_reuse 7
BRUNCH_STAT inductive_lvl 0
BRUNCH_STAT max_depth 5
BRUNCH_STAT cex_depth 0
expand: query!0 (5, 0) FAR  w(0) 1.
	create_child: ERR (4, 5) FAR 1 U 0.00
expand: ERR (4, 0) FAR  w(0) 1.
	create_child: MAIN (3, 5) FAR 1292 U 0.00
expand: MAIN (3, 0) FAR  w(0) 1292.
	create_child: MAIN (2, 5) FAR 7081 U 0.00
expand: MAIN (2, 0) FAR  w(0) 7081.
	create_child: top_step (1, 5) FAR 7062 U 0.00
expand: top_step (1, 0) FAR  w(0) 7062.
	create_child: mesi_step (0, 5) FAR 7203 U 0.00
expand: mesi_step (0, 0) FAR  w(0) 7203. F 0.00
expand: top_step (1, 0) FAR  w(0) 7062. F 0.00
expand: MAIN (2, 0) FAR  w(0) 7081. F 0.00
expand: MAIN (3, 0) FAR  w(0) 1292.
	create_child: MAIN (2, 5) FAR 7447 U 0.00
expand: MAIN (2, 0) FAR  w(0) 7447.
	create_child: top_reset (1, 5) FAR 7512 U 0.00
expand: top_reset (1, 0) FAR  w(0) 7512. T 0.00
is-reachable: MAIN (2, 0) FAR 7447 T 0.00
is-reachable: MAIN (3, 0) FAR 1292 T 0.00
is-reachable: ERR (4, 0) FAR 1 T 0.00
is-reachable: query!0 (5, 0) FAR 1 T 0.00
(spacer::context::check_reachability :time 0.01 :before-memory 16.90 :after-memory 17.28)
BRUNCH_STAT max_query_lvl 5
BRUNCH_STAT num_queries 21
BRUNCH_STAT num_reach_queries 6
BRUNCH_STAT num_reach_reuse 14
BRUNCH_STAT inductive_lvl 0
BRUNCH_STAT max_depth 5
BRUNCH_STAT cex_depth 5
(:SPACER-cex-depth                     5
 :SPACER-max-depth                     5
 :SPACER-max-query-lvl                 5
 :SPACER-num-invariants                8
 :SPACER-num-lemmas                    22
 :SPACER-num-properties                14
 :SPACER-num-queries                   21
 :SPACER-num-reach-queries             6
 :SPACER-num-reuse-reach-facts         14
 :added-eqs                            733
 :arith-add-rows                       295
 :arith-assert-diseq                   62
 :arith-assert-lower                   311
 :arith-assert-upper                   365
 :arith-bound-prop                     36
 :arith-conflicts                      6
 :arith-eq-adapter                     256
 :arith-fixed-eqs                      107
 :arith-offset-eqs                     58
 :arith-pivots                         167
 :bool-inductive-gen                   10
 :bool-inductive-gen-failures          14
 :conflicts                            102
 :decisions                            1154
 :del-clause                           213
 :final-checks                         50
 :minimized-lits                       1
 :mk-bool-var                          1684
 :mk-clause                            1861
 :num-checks                           116
 :propagations                         5465
 :time.itp_solver.itp_core             0.00
 :time.spacer.init_rules               0.01
 :time.spacer.init_rules.pt.init       0.00
 :time.spacer.solve                    0.04
 :time.spacer.solve.propagate          0.00
 :time.spacer.solve.pt.must_reachable  0.00
 :time.spacer.solve.reach              0.04
 :time.spacer.solve.reach.children     0.01
 :time.spacer.solve.reach.gen.bool_ind 0.00
 :time.spacer.solve.reach.is-reach     0.00
 :time.virtual_solver.proof            0.00
 :time.virtual_solver.smt.total        0.03
 :time.virtual_solver.smt.total.sat    0.01
 :virtual_solver.checks                116
 :virtual_solver.checks.sat            50)
BRUNCH_STAT max_query_lvl 5
BRUNCH_STAT num_queries 21
BRUNCH_STAT num_reach_queries 6
BRUNCH_STAT num_reach_reuse 14
BRUNCH_STAT inductive_lvl 0
BRUNCH_STAT max_depth 5
BRUNCH_STAT cex_depth 5

real	0m0.077s
user	0m0.056s
sys	0m0.020s
