(transform N7datalog13mk_coi_filterE...no-op 0s)
(transform N7datalog25mk_interp_tail_simplifierE...15 rules 0s)
(transform N7datalog27mk_quantifier_instantiationE...no-op 0s)
(transform N7datalog8mk_scaleE...no-op 0s)
(transform N7datalog18mk_karr_invariantsE...no-op 0s)
(transform N7datalog14mk_array_blastE...no-op 0s)
(transform N7datalog22mk_subsumption_checkerE...14 rules 0s)
(transform N7datalog12mk_bit_blastE...no-op 0s)
(transform N7datalog15mk_rule_inlinerE...no-op 0s)
(transform N7datalog13mk_coi_filterE...no-op 0s)
(transform N7datalog25mk_interp_tail_simplifierE...14 rules 0s)
(transform N7datalog22mk_subsumption_checkerE...no-op 0s)
(transform N7datalog15mk_rule_inlinerE...no-op 0s)
(transform N7datalog13mk_coi_filterE...no-op 0s)
(transform N7datalog25mk_interp_tail_simplifierE...14 rules 0s)
(transform N7datalog22mk_subsumption_checkerE...no-op 0s)
(transform N7datalog15mk_rule_inlinerE...no-op 0s)
(transform N7datalog22mk_subsumption_checkerE...no-op 0s)
(transform N7datalog15mk_rule_inlinerE...no-op 0s)
(transform N7datalog22mk_subsumption_checkerE...no-op 0s)
(transform N7datalog15mk_rule_inlinerE...no-op 0s)
(transform N7datalog22mk_subsumption_checkerE...no-op 0s)
expand: query!0 (0, 0) FAR  w(0) 1. F 0.00
(spacer::context::check_reachability :time 0.00 :before-memory 14.26 :after-memory 14.68)
Entering level 1
BRUNCH_STAT max_query_lvl 0
BRUNCH_STAT num_queries 0
BRUNCH_STAT num_reach_queries 0
BRUNCH_STAT num_reach_reuse 0
BRUNCH_STAT inductive_lvl 0
BRUNCH_STAT max_depth 1
BRUNCH_STAT cex_depth 0
expand: query!0 (1, 0) FAR  w(0) 1.
	create_child: ERR (0, 1) FAR 1 U 0.00
expand: ERR (0, 0) FAR  w(0) 1. F 0.00
expand: query!0 (1, 0) FAR  w(0) 1. F 0.00
(spacer::context::check_reachability :time 0.00 :before-memory 14.68 :after-memory 15.13)
Propagating: 0 1  ! 2 
(spacer::context::propagate :time 0.00 :before-memory 15.13 :after-memory 15.13)
Entering level 2
BRUNCH_STAT max_query_lvl 1
BRUNCH_STAT num_queries 1
BRUNCH_STAT num_reach_queries 0
BRUNCH_STAT num_reach_reuse 0
BRUNCH_STAT inductive_lvl 0
BRUNCH_STAT max_depth 2
BRUNCH_STAT cex_depth 0
expand: query!0 (2, 0) FAR  w(0) 1.
	create_child: ERR (1, 2) FAR 1 U 0.00
expand: ERR (1, 0) FAR  w(0) 1.
	create_child: MAIN (0, 2) FAR 2414 U 0.00
expand: MAIN (0, 0) FAR  w(0) 2414. F 0.00
expand: ERR (1, 0) FAR  w(0) 1. F 0.00
expand: query!0 (2, 0) FAR  w(0) 1. F 0.00
(spacer::context::check_reachability :time 0.00 :before-memory 15.13 :after-memory 15.71)
Propagating: 0 1 2  ! 3 
(spacer::context::propagate :time 0.00 :before-memory 15.71 :after-memory 15.71)
Entering level 3
BRUNCH_STAT max_query_lvl 2
BRUNCH_STAT num_queries 3
BRUNCH_STAT num_reach_queries 0
BRUNCH_STAT num_reach_reuse 0
BRUNCH_STAT inductive_lvl 0
BRUNCH_STAT max_depth 3
BRUNCH_STAT cex_depth 0
expand: query!0 (3, 0) FAR  w(0) 1.
	create_child: ERR (2, 3) FAR 1 U 0.00
expand: ERR (2, 0) FAR  w(0) 1.
	create_child: MAIN (1, 3) FAR 2414 U 0.00
expand: MAIN (1, 0) FAR  w(0) 2414.
	create_child: top_step (0, 3) FAR 3508 U 0.00
expand: top_step (0, 0) FAR  w(0) 3508. F 0.00
expand: MAIN (1, 0) FAR  w(0) 2414. F 0.00
expand: ERR (2, 0) FAR  w(0) 1. F 0.00
expand: query!0 (3, 0) FAR  w(0) 1. F 0.00
(spacer::context::check_reachability :time 0.00 :before-memory 15.71 :after-memory 16.42)
Propagating: 0 1 2 3  ! 4 
(spacer::context::propagate :time 0.00 :before-memory 16.42 :after-memory 16.42)
Entering level 4
BRUNCH_STAT max_query_lvl 3
BRUNCH_STAT num_queries 6
BRUNCH_STAT num_reach_queries 0
BRUNCH_STAT num_reach_reuse 0
BRUNCH_STAT inductive_lvl 0
BRUNCH_STAT max_depth 4
BRUNCH_STAT cex_depth 0
expand: query!0 (4, 0) FAR  w(0) 1.
	create_child: ERR (3, 4) FAR 1 U 0.00
expand: ERR (3, 0) FAR  w(0) 1.
	create_child: MAIN (2, 4) FAR 2414 U 0.00
expand: MAIN (2, 0) FAR  w(0) 2414.
	create_child: top_step (1, 4) FAR 3508 U 0.00
expand: top_step (1, 0) FAR  w(0) 3508.
	create_child: main_step (0, 4) FAR 1141 U 0.00
expand: main_step (0, 0) FAR  w(0) 1141. F 0.00
expand: top_step (1, 0) FAR  w(0) 3508. F 0.00
expand: MAIN (2, 0) FAR  w(0) 2414. F 0.00
expand: ERR (3, 0) FAR  w(0) 1. F 0.00
expand: query!0 (4, 0) FAR  w(0) 1. F 0.00
(spacer::context::check_reachability :time 0.01 :before-memory 16.42 :after-memory 17.29)
Propagating: 0 1 2 3 4  ! 5 
(spacer::context::propagate :time 0.00 :before-memory 17.29 :after-memory 17.38)
Entering level 5
BRUNCH_STAT max_query_lvl 4
BRUNCH_STAT num_queries 10
BRUNCH_STAT num_reach_queries 0
BRUNCH_STAT num_reach_reuse 0
BRUNCH_STAT inductive_lvl 0
BRUNCH_STAT max_depth 5
BRUNCH_STAT cex_depth 0
expand: query!0 (5, 0) FAR  w(0) 1.
	create_child: ERR (4, 5) FAR 1 U 0.00
expand: ERR (4, 0) FAR  w(0) 1.
	create_child: MAIN (3, 5) FAR 2414 U 0.00
expand: MAIN (3, 0) FAR  w(0) 2414.
	create_child: top_step (2, 5) FAR 3508 U 0.00
expand: top_step (2, 0) FAR  w(0) 3508.
	create_child: main_step (1, 5) FAR 1141 U 0.00
expand: main_step (1, 0) FAR  w(0) 1141.
	create_child: Sofar_step (1, 5) FAR 8428 X 0.01
expand: Sofar_step (1, 0) FAR  w(0) 8428. T 0.00
is-reachable: top_step (2, 0) FAR 3508
	create_child: top_reset (2, 5) FAR 11025 X 0.01
is-reachable: top_reset (2, 0) FAR 11025 F 0.00
expand: top_reset (2, 0) FAR  w(0) 11025. F 0.00
expand: MAIN (3, 0) FAR  w(0) 2414.
	create_child: top_step (2, 5) FAR 12909 U 0.00
expand: top_step (2, 0) FAR  w(0) 12909. F 0.00
expand: MAIN (3, 0) FAR  w(0) 2414. F 0.00
expand: ERR (4, 0) FAR  w(0) 1. F 0.00
expand: query!0 (5, 0) FAR  w(0) 1. F 0.00
(spacer::context::check_reachability :time 0.02 :before-memory 17.38 :after-memory 21.24)
Propagating: 2 3 4 5  ! 6 
(spacer::context::propagate :time 0.00 :before-memory 21.24 :after-memory 21.24)
Entering level 6
BRUNCH_STAT max_query_lvl 5
BRUNCH_STAT num_queries 15
BRUNCH_STAT num_reach_queries 2
BRUNCH_STAT num_reach_reuse 4
BRUNCH_STAT inductive_lvl 0
BRUNCH_STAT max_depth 6
BRUNCH_STAT cex_depth 0
expand: query!0 (6, 0) FAR  w(0) 1.
	create_child: ERR (5, 6) FAR 1 U 0.00
expand: ERR (5, 0) FAR  w(0) 1.
	create_child: MAIN (4, 6) FAR 2414 U 0.00
expand: MAIN (4, 0) FAR  w(0) 2414.
	create_child: MAIN (3, 6) FAR 13291 U 0.00
expand: MAIN (3, 0) FAR  w(0) 13291.
	create_child: top_step (2, 6) FAR 13252 U 0.00
expand: top_step (2, 0) FAR  w(0) 13252.
	create_child: main_step (1, 6) FAR 13396 U 0.00
expand: main_step (1, 0) FAR  w(0) 13396. F 0.00
expand: top_step (2, 0) FAR  w(0) 13252. F 0.00
expand: MAIN (3, 0) FAR  w(0) 13291. F 0.00
expand: MAIN (4, 0) FAR  w(0) 2414.
	create_child: MAIN (3, 6) FAR 13621 U 0.00
expand: MAIN (3, 0) FAR  w(0) 13621.
	create_child: top_step (2, 6) FAR 13637 U 0.00
expand: top_step (2, 0) FAR  w(0) 13637.
	create_child: main_step (1, 6) FAR 13601 U 0.00
expand: main_step (1, 0) FAR  w(0) 13601.
	create_child: controleur_step (0, 6) FAR 1087 U 0.00
expand: controleur_step (0, 0) FAR  w(0) 1087. F 0.00
expand: main_step (1, 0) FAR  w(0) 13601. F 0.00
expand: top_step (2, 0) FAR  w(0) 13637. F 0.00
expand: MAIN (3, 0) FAR  w(0) 13621. F 0.00
expand: MAIN (4, 0) FAR  w(0) 2414.
	create_child: MAIN (3, 6) FAR 14327 U 0.00
expand: MAIN (3, 0) FAR  w(0) 14327.
	create_child: top_step (2, 6) FAR 14475 U 0.00
expand: top_step (2, 0) FAR  w(0) 14475.
	create_child: main_step (1, 6) FAR 14709 U 0.00
expand: main_step (1, 0) FAR  w(0) 14709.
	create_child: controleur_step (0, 6) FAR 15030 U 0.00
expand: controleur_step (0, 0) FAR  w(0) 15030. F 0.00
expand: main_step (1, 0) FAR  w(0) 14709. F 0.00
expand: top_step (2, 0) FAR  w(0) 14475. F 0.00
expand: MAIN (3, 0) FAR  w(0) 14327. F 0.00
expand: MAIN (4, 0) FAR  w(0) 2414.
	create_child: MAIN (3, 6) FAR 15556 U 0.00
expand: MAIN (3, 0) FAR  w(0) 15556.
	create_child: top_step (2, 6) FAR 15547 U 0.00
expand: top_step (2, 0) FAR  w(0) 15547.
	create_child: main_step (1, 6) FAR 15687 U 0.00
expand: main_step (1, 0) FAR  w(0) 15687.
	create_child: controleur_step (0, 6) FAR 15855 U 0.00
expand: controleur_step (0, 0) FAR  w(0) 15855. F 0.00
expand: main_step (1, 0) FAR  w(0) 15687. F 0.00
expand: top_step (2, 0) FAR  w(0) 15547. F 0.00
expand: MAIN (3, 0) FAR  w(0) 15556. F 0.00
expand: MAIN (4, 0) FAR  w(0) 2414.
	create_child: MAIN (3, 6) FAR 16550 U 0.00
expand: MAIN (3, 0) FAR  w(0) 16550.
	create_child: top_step (2, 6) FAR 16548 U 0.00
expand: top_step (2, 0) FAR  w(0) 16548.
	create_child: main_step (1, 6) FAR 16573 U 0.00
expand: main_step (1, 0) FAR  w(0) 16573. F 0.00
expand: top_step (2, 0) FAR  w(0) 16548. F 0.00
expand: MAIN (3, 0) FAR  w(0) 16550. F 0.00
expand: MAIN (4, 0) FAR  w(0) 2414.
	create_child: MAIN (3, 6) FAR 16687 U 0.00
expand: MAIN (3, 0) FAR  w(0) 16687.
	create_child: top_step (2, 6) FAR 16725 U 0.00
expand: top_step (2, 0) FAR  w(0) 16725.
	create_child: main_step (1, 6) FAR 16815 U 0.00
expand: main_step (1, 0) FAR  w(0) 16815.
	create_child: controleur_step (0, 6) FAR 17001 U 0.00
expand: controleur_step (0, 0) FAR  w(0) 17001. F 0.00
expand: main_step (1, 0) FAR  w(0) 16815.
	create_child: controleur_step (0, 6) FAR 17074 U 0.00
expand: controleur_step (0, 0) FAR  w(0) 17074. F 0.00
expand: main_step (1, 0) FAR  w(0) 16815.
	create_child: controleur_step (0, 6) FAR 17121 U 0.00
expand: controleur_step (0, 0) FAR  w(0) 17121. F 0.00
expand: main_step (1, 0) FAR  w(0) 16815. F 0.00
expand: top_step (2, 0) FAR  w(0) 16725. F 0.00
expand: MAIN (3, 0) FAR  w(0) 16687. F 0.00
expand: MAIN (4, 0) FAR  w(0) 2414.
	create_child: MAIN (3, 6) FAR 17395 U 0.00
expand: MAIN (3, 0) FAR  w(0) 17395.
	create_child: top_step (2, 6) FAR 17497 U 0.00
expand: top_step (2, 0) FAR  w(0) 17497.
	create_child: main_step (1, 6) FAR 17360 U 0.00
expand: main_step (1, 0) FAR  w(0) 17360.
	create_child: hypothese_step (0, 6) FAR 17537 U 0.00
expand: hypothese_step (0, 0) FAR  w(0) 17537. F 0.00
expand: main_step (1, 0) FAR  w(0) 17360. F 0.00
expand: top_step (2, 0) FAR  w(0) 17497. F 0.00
expand: MAIN (3, 0) FAR  w(0) 17395. F 0.00
expand: MAIN (4, 0) FAR  w(0) 2414.
	create_child: top_step (3, 6) FAR 18032 U 0.00
expand: top_step (3, 0) FAR  w(0) 18032.
	create_child: main_step (2, 6) FAR 18198 U 0.00
expand: main_step (2, 0) FAR  w(0) 18198. T 0.01
is-reachable: top_step (3, 0) FAR 18032
	create_child: MAIN (3, 6) FAR 18638 X 0.01
is-reachable: MAIN (3, 0) FAR 18638 F 0.00
expand: MAIN (3, 0) FAR  w(0) 18638.
	create_child: top_step (2, 6) FAR 19384 U 0.00
expand: top_step (2, 0) FAR  w(0) 19384.
	create_child: main_step (1, 6) FAR 19514 U 0.00
expand: main_step (1, 0) FAR  w(0) 19514. F 0.00
expand: top_step (2, 0) FAR  w(0) 19384. F 0.00
expand: MAIN (3, 0) FAR  w(0) 18638. F 0.00
expand: MAIN (4, 0) FAR  w(0) 2414.
	create_child: MAIN (3, 6) FAR 20125 U 0.00
expand: MAIN (3, 0) FAR  w(0) 20125.
	create_child: top_step (2, 6) FAR 20204 U 0.00
expand: top_step (2, 0) FAR  w(0) 20204.
	create_child: main_step (1, 6) FAR 20368 U 0.00
expand: main_step (1, 0) FAR  w(0) 20368.
	create_child: controleur_step (0, 6) FAR 19614 U 0.00
expand: controleur_step (0, 0) FAR  w(0) 19614. F 0.00
expand: main_step (1, 0) FAR  w(0) 20368.
	create_child: controleur_step (0, 6) FAR 20703 U 0.00
expand: controleur_step (0, 0) FAR  w(0) 20703.
	create_child: hypothese_step (0, 6) FAR 20649 X 0.00
expand: hypothese_step (0, 0) FAR  w(0) 20649. F 0.00
expand: main_step (1, 0) FAR  w(0) 20368. F 0.00
expand: top_step (2, 0) FAR  w(0) 20204. F 0.00
expand: MAIN (3, 0) FAR  w(0) 20125. F 0.00
expand: MAIN (4, 0) FAR  w(0) 2414.
	create_child: MAIN (3, 6) FAR 21061 U 0.00
expand: MAIN (3, 0) FAR  w(0) 21061.
	create_child: top_step (2, 6) FAR 21073 U 0.00
expand: top_step (2, 0) FAR  w(0) 21073.
	create_child: Sofar_step (1, 6) FAR 21155 U 0.00
expand: Sofar_step (1, 0) FAR  w(0) 21155. F 0.00
expand: top_step (2, 0) FAR  w(0) 21073. F 0.00
expand: MAIN (3, 0) FAR  w(0) 21061. F 0.00
expand: MAIN (4, 0) FAR  w(0) 2414.
	create_child: MAIN (3, 6) FAR 21110 U 0.00
expand: MAIN (3, 0) FAR  w(0) 21110.
	create_child: top_step (2, 6) FAR 21160 U 0.00
expand: top_step (2, 0) FAR  w(0) 21160.
	create_child: main_step (1, 6) FAR 21301 U 0.00
expand: main_step (1, 0) FAR  w(0) 21301.
	create_child: controleur_step (0, 6) FAR 21409 U 0.00
expand: controleur_step (0, 0) FAR  w(0) 21409.
	create_child: hypothese_step (0, 6) FAR 21388 X 0.00
expand: hypothese_step (0, 0) FAR  w(0) 21388. F 0.00
expand: main_step (1, 0) FAR  w(0) 21301. F 0.00
expand: top_step (2, 0) FAR  w(0) 21160. F 0.00
expand: MAIN (3, 0) FAR  w(0) 21110. F 0.00
expand: MAIN (4, 0) FAR  w(0) 2414.
	create_child: MAIN (3, 6) FAR 21655 U 0.00
expand: MAIN (3, 0) FAR  w(0) 21655.
	create_child: top_reset (2, 6) FAR 21692 U 0.00
expand: top_reset (2, 0) FAR  w(0) 21692.
	create_child: main_reset (1, 6) FAR 21941 U 0.00
expand: main_reset (1, 0) FAR  w(0) 21941. F 0.00
expand: top_reset (2, 0) FAR  w(0) 21692. F 0.00
expand: MAIN (3, 0) FAR  w(0) 21655.
	create_child: top_step (2, 6) FAR 23076 U 0.00
expand: top_step (2, 0) FAR  w(0) 23076.
	create_child: main_step (1, 6) FAR 23269 U 0.00
expand: main_step (1, 0) FAR  w(0) 23269. F 0.00
expand: top_step (2, 0) FAR  w(0) 23076. F 0.00
expand: MAIN (3, 0) FAR  w(0) 21655. F 0.00
expand: MAIN (4, 0) FAR  w(0) 2414.
	create_child: MAIN (3, 6) FAR 23433 U 0.00
expand: MAIN (3, 0) FAR  w(0) 23433.
	create_child: top_step (2, 6) FAR 23395 U 0.00
expand: top_step (2, 0) FAR  w(0) 23395.
	create_child: main_step (1, 6) FAR 23617 U 0.00
expand: main_step (1, 0) FAR  w(0) 23617. F 0.00
expand: top_step (2, 0) FAR  w(0) 23395. F 0.00
expand: MAIN (3, 0) FAR  w(0) 23433. F 0.00
expand: MAIN (4, 0) FAR  w(0) 2414.
	create_child: top_step (3, 6) FAR 23913 U 0.00
expand: top_step (3, 0) FAR  w(0) 23913. F 0.00
expand: MAIN (4, 0) FAR  w(0) 2414. F 0.00
expand: ERR (5, 0) FAR  w(0) 1. F 0.00
expand: query!0 (6, 0) FAR  w(0) 1. F 0.00
(spacer::context::check_reachability :time 0.21 :before-memory 21.24 :after-memory 27.58)
Propagating: 0 1 2 3 4 5 6  ! 7 
(spacer::context::propagate :time 0.01 :before-memory 27.58 :after-memory 27.58)
Entering level 7
BRUNCH_STAT max_query_lvl 6
BRUNCH_STAT num_queries 70
BRUNCH_STAT num_reach_queries 4
BRUNCH_STAT num_reach_reuse 49
BRUNCH_STAT inductive_lvl 0
BRUNCH_STAT max_depth 7
BRUNCH_STAT cex_depth 0
expand: query!0 (7, 0) FAR  w(0) 1.
	create_child: ERR (6, 7) FAR 1 U 0.00
expand: ERR (6, 0) FAR  w(0) 1.
	create_child: MAIN (5, 7) FAR 2414 U 0.00
expand: MAIN (5, 0) FAR  w(0) 2414.
	create_child: MAIN (4, 7) FAR 25309 U 0.00
expand: MAIN (4, 0) FAR  w(0) 25309.
	create_child: top_step (3, 7) FAR 25318 U 0.00
expand: top_step (3, 0) FAR  w(0) 25318.
	create_child: MAIN (3, 7) FAR 25474 X 0.00
expand: MAIN (3, 0) FAR  w(0) 25474.
	create_child: top_step (2, 7) FAR 25459 U 0.00
expand: top_step (2, 0) FAR  w(0) 25459.
	create_child: main_step (1, 7) FAR 25530 U 0.00
expand: main_step (1, 0) FAR  w(0) 25530. F 0.00
expand: top_step (2, 0) FAR  w(0) 25459. F 0.00
expand: MAIN (3, 0) FAR  w(0) 25474. F 0.00
expand: MAIN (4, 0) FAR  w(0) 25309.
	create_child: top_step (3, 7) FAR 25299 U 0.00
expand: top_step (3, 0) FAR  w(0) 25299.
	create_child: main_step (2, 7) FAR 25904 U 0.00
expand: main_step (2, 0) FAR  w(0) 25904. F 0.00
expand: top_step (3, 0) FAR  w(0) 25299. F 0.00
expand: MAIN (4, 0) FAR  w(0) 25309. F 0.00
expand: MAIN (5, 0) FAR  w(0) 2414.
	create_child: MAIN (4, 7) FAR 26274 U 0.00
expand: MAIN (4, 0) FAR  w(0) 26274.
	create_child: top_step (3, 7) FAR 26309 U 0.00
expand: top_step (3, 0) FAR  w(0) 26309.
	create_child: main_step (2, 7) FAR 26481 U 0.00
expand: main_step (2, 0) FAR  w(0) 26481. F 0.00
expand: top_step (3, 0) FAR  w(0) 26309. F 0.00
expand: MAIN (4, 0) FAR  w(0) 26274. F 0.00
expand: MAIN (5, 0) FAR  w(0) 2414.
	create_child: MAIN (4, 7) FAR 26701 U 0.00
expand: MAIN (4, 0) FAR  w(0) 26701.
	create_child: top_step (3, 7) FAR 26708 U 0.00
expand: top_step (3, 0) FAR  w(0) 26708.
	create_child: main_step (2, 7) FAR 26882 U 0.00
expand: main_step (2, 0) FAR  w(0) 26882.
	create_child: controleur_step (1, 7) FAR 26816 U 0.00
expand: controleur_step (1, 0) FAR  w(0) 26816. F 0.00
expand: main_step (2, 0) FAR  w(0) 26882. F 0.00
expand: top_step (3, 0) FAR  w(0) 26708. F 0.00
expand: MAIN (4, 0) FAR  w(0) 26701.
	create_child: top_step (3, 7) FAR 27241 U 0.00
expand: top_step (3, 0) FAR  w(0) 27241.
	create_child: main_step (2, 7) FAR 27403 U 0.00
expand: main_step (2, 0) FAR  w(0) 27403.
	create_child: controleur_step (1, 7) FAR 27269 U 0.00
expand: controleur_step (1, 0) FAR  w(0) 27269. F 0.00
expand: main_step (2, 0) FAR  w(0) 27403. F 0.00
expand: top_step (3, 0) FAR  w(0) 27241. F 0.00
expand: MAIN (4, 0) FAR  w(0) 26701. F 0.00
expand: MAIN (5, 0) FAR  w(0) 2414.
	create_child: MAIN (4, 7) FAR 27369 U 0.00
expand: MAIN (4, 0) FAR  w(0) 27369.
	create_child: top_step (3, 7) FAR 27671 U 0.00
expand: top_step (3, 0) FAR  w(0) 27671.
	create_child: main_step (2, 7) FAR 27821 U 0.00
expand: main_step (2, 0) FAR  w(0) 27821. F 0.00
expand: top_step (3, 0) FAR  w(0) 27671. F 0.00
expand: MAIN (4, 0) FAR  w(0) 27369. F 0.00
expand: MAIN (5, 0) FAR  w(0) 2414.
	create_child: MAIN (4, 7) FAR 28018 U 0.00
expand: MAIN (4, 0) FAR  w(0) 28018.
	create_child: top_step (3, 7) FAR 28063 U 0.00
expand: top_step (3, 0) FAR  w(0) 28063.
	create_child: main_step (2, 7) FAR 28276 U 0.00
expand: main_step (2, 0) FAR  w(0) 28276.
	create_child: controleur_step (1, 7) FAR 28363 U 0.00
expand: controleur_step (1, 0) FAR  w(0) 28363. F 0.00
expand: main_step (2, 0) FAR  w(0) 28276. F 0.00
expand: top_step (3, 0) FAR  w(0) 28063. F 0.00
expand: MAIN (4, 0) FAR  w(0) 28018. F 0.00
expand: MAIN (5, 0) FAR  w(0) 2414.
	create_child: MAIN (4, 7) FAR 28780 U 0.00
expand: MAIN (4, 0) FAR  w(0) 28780.
	create_child: MAIN (3, 7) FAR 28883 U 0.00
expand: MAIN (3, 0) FAR  w(0) 28883.
	create_child: top_step (2, 7) FAR 28744 U 0.00
expand: top_step (2, 0) FAR  w(0) 28744.
	create_child: main_step (1, 7) FAR 29125 U 0.00
expand: main_step (1, 0) FAR  w(0) 29125. F 0.00
expand: top_step (2, 0) FAR  w(0) 28744. F 0.00
expand: MAIN (3, 0) FAR  w(0) 28883. F 0.00
expand: MAIN (4, 0) FAR  w(0) 28780.
	create_child: MAIN (3, 7) FAR 29573 U 0.00
expand: MAIN (3, 0) FAR  w(0) 29573.
	create_child: top_step (2, 7) FAR 29472 U 0.00
expand: top_step (2, 0) FAR  w(0) 29472.
	create_child: main_step (1, 7) FAR 29754 U 0.00
expand: main_step (1, 0) FAR  w(0) 29754. F 0.00
expand: top_step (2, 0) FAR  w(0) 29472. F 0.00
expand: MAIN (3, 0) FAR  w(0) 29573. F 0.00
expand: MAIN (4, 0) FAR  w(0) 28780.
	create_child: top_step (3, 7) FAR 29906 U 0.00
expand: top_step (3, 0) FAR  w(0) 29906.
	create_child: main_step (2, 7) FAR 30057 U 0.00
expand: main_step (2, 0) FAR  w(0) 30057. F 0.00
expand: top_step (3, 0) FAR  w(0) 29906. F 0.00
expand: MAIN (4, 0) FAR  w(0) 28780. F 0.00
expand: MAIN (5, 0) FAR  w(0) 2414. F 0.00
expand: ERR (6, 0) FAR  w(0) 1. F 0.00
expand: query!0 (7, 0) FAR  w(0) 1. F 0.00
(spacer::context::check_reachability :time 0.16 :before-memory 27.58 :after-memory 29.04)
Propagating: 1 2 3 4 5 6 7  ! 8 
(spacer::context::propagate :time 0.00 :before-memory 29.04 :after-memory 29.04)
Entering level 8
BRUNCH_STAT max_query_lvl 7
BRUNCH_STAT num_queries 104
BRUNCH_STAT num_reach_queries 4
BRUNCH_STAT num_reach_reuse 76
BRUNCH_STAT inductive_lvl 0
BRUNCH_STAT max_depth 8
BRUNCH_STAT cex_depth 0
expand: query!0 (8, 0) FAR  w(0) 1.
	create_child: ERR (7, 8) FAR 1 U 0.00
expand: ERR (7, 0) FAR  w(0) 1.
	create_child: MAIN (6, 8) FAR 2414 U 0.00
expand: MAIN (6, 0) FAR  w(0) 2414.
	create_child: MAIN (5, 8) FAR 30882 U 0.00
expand: MAIN (5, 0) FAR  w(0) 30882.
	create_child: MAIN (4, 8) FAR 30994 U 0.00
expand: MAIN (4, 0) FAR  w(0) 30994. F 0.00
expand: MAIN (5, 0) FAR  w(0) 30882.
	create_child: MAIN (4, 8) FAR 31148 U 0.00
expand: MAIN (4, 0) FAR  w(0) 31148.
	create_child: top_step (3, 8) FAR 30990 U 0.00
expand: top_step (3, 0) FAR  w(0) 30990.
	create_child: main_step (2, 8) FAR 31434 U 0.00
expand: main_step (2, 0) FAR  w(0) 31434. F 0.00
expand: top_step (3, 0) FAR  w(0) 30990. F 0.00
expand: MAIN (4, 0) FAR  w(0) 31148. F 0.00
expand: MAIN (5, 0) FAR  w(0) 30882.
	create_child: top_step (4, 8) FAR 31842 U 0.00
expand: top_step (4, 0) FAR  w(0) 31842.
	create_child: main_step (3, 8) FAR 32048 U 0.00
expand: main_step (3, 0) FAR  w(0) 32048. F 0.00
expand: top_step (4, 0) FAR  w(0) 31842. F 0.00
expand: MAIN (5, 0) FAR  w(0) 30882. F 0.00
expand: MAIN (6, 0) FAR  w(0) 2414.
	create_child: MAIN (5, 8) FAR 32212 U 0.00
expand: MAIN (5, 0) FAR  w(0) 32212.
	create_child: top_step (4, 8) FAR 32179 U 0.00
expand: top_step (4, 0) FAR  w(0) 32179.
	create_child: main_step (3, 8) FAR 32395 U 0.00
expand: main_step (3, 0) FAR  w(0) 32395.
	create_child: controleur_step (2, 8) FAR 32524 U 0.00
expand: controleur_step (2, 0) FAR  w(0) 32524. F 0.00
expand: main_step (3, 0) FAR  w(0) 32395.
	create_child: controleur_step (2, 8) FAR 32635 U 0.00
expand: controleur_step (2, 0) FAR  w(0) 32635. F 0.00
expand: main_step (3, 0) FAR  w(0) 32395. F 0.00
expand: top_step (4, 0) FAR  w(0) 32179. F 0.00
expand: MAIN (5, 0) FAR  w(0) 32212. F 0.00
expand: MAIN (6, 0) FAR  w(0) 2414.
	create_child: MAIN (5, 8) FAR 32781 U 0.00
expand: MAIN (5, 0) FAR  w(0) 32781.
	create_child: MAIN (4, 8) FAR 32908 U 0.00
expand: MAIN (4, 0) FAR  w(0) 32908.
	create_child: top_step (3, 8) FAR 32925 U 0.00
expand: top_step (3, 0) FAR  w(0) 32925.
	create_child: main_step (2, 8) FAR 33149 U 0.00
expand: main_step (2, 0) FAR  w(0) 33149. F 0.00
expand: top_step (3, 0) FAR  w(0) 32925. F 0.00
expand: MAIN (4, 0) FAR  w(0) 32908. F 0.00
expand: MAIN (5, 0) FAR  w(0) 32781.
	create_child: MAIN (4, 8) FAR 33273 U 0.00
expand: MAIN (4, 0) FAR  w(0) 33273.
	create_child: top_step (3, 8) FAR 33405 U 0.00
expand: top_step (3, 0) FAR  w(0) 33405.
	create_child: main_step (2, 8) FAR 33566 U 0.00
expand: main_step (2, 0) FAR  w(0) 33566.
	create_child: hypothese_step (1, 8) FAR 33768 U 0.00
expand: hypothese_step (1, 0) FAR  w(0) 33768. F 0.00
expand: main_step (2, 0) FAR  w(0) 33566. F 0.00
expand: top_step (3, 0) FAR  w(0) 33405. F 0.00
expand: MAIN (4, 0) FAR  w(0) 33273. F 0.00
expand: MAIN (5, 0) FAR  w(0) 32781.
	create_child: MAIN (4, 8) FAR 33978 U 0.00
expand: MAIN (4, 0) FAR  w(0) 33978.
	create_child: top_step (3, 8) FAR 34030 U 0.00
expand: top_step (3, 0) FAR  w(0) 34030.
	create_child: main_step (2, 8) FAR 34162 U 0.00
expand: main_step (2, 0) FAR  w(0) 34162. F 0.00
expand: top_step (3, 0) FAR  w(0) 34030. F 0.00
expand: MAIN (4, 0) FAR  w(0) 33978. F 0.00
expand: MAIN (5, 0) FAR  w(0) 32781.
	create_child: top_step (4, 8) FAR 34101 U 0.00
expand: top_step (4, 0) FAR  w(0) 34101.
	create_child: main_step (3, 8) FAR 34328 U 0.00
expand: main_step (3, 0) FAR  w(0) 34328.
	create_child: hypothese_step (2, 8) FAR 34427 U 0.00
expand: hypothese_step (2, 0) FAR  w(0) 34427. F 0.00
expand: main_step (3, 0) FAR  w(0) 34328. F 0.00
expand: top_step (4, 0) FAR  w(0) 34101.
	create_child: main_step (3, 8) FAR 34374 U 0.00
expand: main_step (3, 0) FAR  w(0) 34374.
	create_child: Sofar_step (3, 8) FAR 34868 X 0.01
expand: Sofar_step (3, 0) FAR  w(0) 34868. F 0.00
expand: top_step (4, 0) FAR  w(0) 34101. F 0.01
expand: MAIN (5, 0) FAR  w(0) 32781. F 0.00
expand: MAIN (6, 0) FAR  w(0) 2414.
	create_child: top_step (5, 8) FAR 35102 U 0.00
expand: top_step (5, 0) FAR  w(0) 35102.
	create_child: Sofar_step (4, 8) FAR 35232 U 0.00
expand: Sofar_step (4, 0) FAR  w(0) 35232. F 0.00
expand: top_step (5, 0) FAR  w(0) 35102. F 0.00
expand: MAIN (6, 0) FAR  w(0) 2414. F 0.00
expand: ERR (7, 0) FAR  w(0) 1. F 0.00
expand: query!0 (8, 0) FAR  w(0) 1. F 0.00
(spacer::context::check_reachability :time 0.18 :before-memory 29.04 :after-memory 30.23)
Propagating: 1 2 3 4 5 6 7 8  ! 9 
(spacer::context::propagate :time 0.01 :before-memory 30.23 :after-memory 30.23)
Entering level 9
BRUNCH_STAT max_query_lvl 8
BRUNCH_STAT num_queries 135
BRUNCH_STAT num_reach_queries 5
BRUNCH_STAT num_reach_reuse 108
BRUNCH_STAT inductive_lvl 0
BRUNCH_STAT max_depth 9
BRUNCH_STAT cex_depth 0
expand: query!0 (9, 0) FAR  w(0) 1.
	create_child: ERR (8, 9) FAR 1 U 0.00
expand: ERR (8, 0) FAR  w(0) 1.
	create_child: MAIN (7, 9) FAR 2414 U 0.00
expand: MAIN (7, 0) FAR  w(0) 2414.
	create_child: MAIN (6, 9) FAR 35659 U 0.00
expand: MAIN (6, 0) FAR  w(0) 35659.
	create_child: MAIN (5, 9) FAR 35636 U 0.00
expand: MAIN (5, 0) FAR  w(0) 35636.
	create_child: top_step (4, 9) FAR 35728 U 0.00
expand: top_step (4, 0) FAR  w(0) 35728.
	create_child: main_step (3, 9) FAR 35802 U 0.00
expand: main_step (3, 0) FAR  w(0) 35802. F 0.00
expand: top_step (4, 0) FAR  w(0) 35728. F 0.00
expand: MAIN (5, 0) FAR  w(0) 35636. F 0.00
expand: MAIN (6, 0) FAR  w(0) 35659.
	create_child: top_step (5, 9) FAR 35729 U 0.00
expand: top_step (5, 0) FAR  w(0) 35729.
	create_child: Sofar_step (4, 9) FAR 36013 U 0.00
expand: Sofar_step (4, 0) FAR  w(0) 36013. F 0.00
expand: top_step (5, 0) FAR  w(0) 35729. F 0.00
expand: MAIN (6, 0) FAR  w(0) 35659. F 0.00
expand: MAIN (7, 0) FAR  w(0) 2414.
	create_child: MAIN (6, 9) FAR 35596 U 0.00
expand: MAIN (6, 0) FAR  w(0) 35596.
	create_child: top_step (5, 9) FAR 35914 U 0.00
expand: top_step (5, 0) FAR  w(0) 35914.
	create_child: main_step (4, 9) FAR 36040 U 0.00
expand: main_step (4, 0) FAR  w(0) 36040. F 0.00
expand: top_step (5, 0) FAR  w(0) 35914. F 0.00
expand: MAIN (6, 0) FAR  w(0) 35596. F 0.00
expand: MAIN (7, 0) FAR  w(0) 2414.
	create_child: MAIN (6, 9) FAR 36230 U 0.00
expand: MAIN (6, 0) FAR  w(0) 36230.
	create_child: top_step (5, 9) FAR 36276 U 0.00
expand: top_step (5, 0) FAR  w(0) 36276.
	create_child: main_step (4, 9) FAR 36409 U 0.00
expand: main_step (4, 0) FAR  w(0) 36409. F 0.00
expand: top_step (5, 0) FAR  w(0) 36276. F 0.00
expand: MAIN (6, 0) FAR  w(0) 36230. F 0.00
expand: MAIN (7, 0) FAR  w(0) 2414.
	create_child: MAIN (6, 9) FAR 36697 U 0.00
expand: MAIN (6, 0) FAR  w(0) 36697.
	create_child: top_step (5, 9) FAR 36687 U 0.00
expand: top_step (5, 0) FAR  w(0) 36687.
	create_child: main_step (4, 9) FAR 36819 U 0.00
expand: main_step (4, 0) FAR  w(0) 36819. F 0.00
expand: top_step (5, 0) FAR  w(0) 36687. F 0.00
expand: MAIN (6, 0) FAR  w(0) 36697. F 0.00
expand: MAIN (7, 0) FAR  w(0) 2414.
	create_child: MAIN (6, 9) FAR 36971 U 0.00
expand: MAIN (6, 0) FAR  w(0) 36971.
	create_child: top_step (5, 9) FAR 37002 U 0.00
expand: top_step (5, 0) FAR  w(0) 37002.
	create_child: main_step (4, 9) FAR 37143 U 0.00
expand: main_step (4, 0) FAR  w(0) 37143. F 0.00
expand: top_step (5, 0) FAR  w(0) 37002. F 0.00
expand: MAIN (6, 0) FAR  w(0) 36971. F 0.00
expand: MAIN (7, 0) FAR  w(0) 2414.
	create_child: MAIN (6, 9) FAR 37432 U 0.00
expand: MAIN (6, 0) FAR  w(0) 37432.
	create_child: MAIN (5, 9) FAR 37436 U 0.00
expand: MAIN (5, 0) FAR  w(0) 37436.
	create_child: MAIN (4, 9) FAR 37403 U 0.00
expand: MAIN (4, 0) FAR  w(0) 37403. F 0.00
expand: MAIN (5, 0) FAR  w(0) 37436.
	create_child: top_step (4, 9) FAR 37804 U 0.00
expand: top_step (4, 0) FAR  w(0) 37804.
	create_child: main_step (3, 9) FAR 38054 U 0.00
expand: main_step (3, 0) FAR  w(0) 38054. F 0.00
expand: top_step (4, 0) FAR  w(0) 37804. F 0.00
expand: MAIN (5, 0) FAR  w(0) 37436. F 0.00
expand: MAIN (6, 0) FAR  w(0) 37432. F 0.00
expand: MAIN (7, 0) FAR  w(0) 2414. F 0.00
expand: ERR (8, 0) FAR  w(0) 1. F 0.00
expand: query!0 (9, 0) FAR  w(0) 1. F 0.00
(spacer::context::check_reachability :time 0.14 :before-memory 30.23 :after-memory 30.51)
Propagating: 3 4 5 6 7 8 9  ! 10 
(spacer::context::propagate :time 0.01 :before-memory 30.51 :after-memory 30.51)
Entering level 10
BRUNCH_STAT max_query_lvl 9
BRUNCH_STAT num_queries 160
BRUNCH_STAT num_reach_queries 5
BRUNCH_STAT num_reach_reuse 123
BRUNCH_STAT inductive_lvl 0
BRUNCH_STAT max_depth 10
BRUNCH_STAT cex_depth 0
expand: query!0 (10, 0) FAR  w(0) 1.
	create_child: ERR (9, 10) FAR 1 U 0.00
expand: ERR (9, 0) FAR  w(0) 1.
	create_child: MAIN (8, 10) FAR 2414 U 0.00
expand: MAIN (8, 0) FAR  w(0) 2414.
	create_child: MAIN (7, 10) FAR 39100 U 0.00
expand: MAIN (7, 0) FAR  w(0) 39100.
	create_child: MAIN (6, 10) FAR 39184 U 0.00
expand: MAIN (6, 0) FAR  w(0) 39184.
	create_child: MAIN (5, 10) FAR 39043 U 0.00
expand: MAIN (5, 0) FAR  w(0) 39043.
	create_child: top_step (4, 10) FAR 39286 U 0.00
expand: top_step (4, 0) FAR  w(0) 39286.
	create_child: main_step (3, 10) FAR 39626 U 0.00
expand: main_step (3, 0) FAR  w(0) 39626. F 0.01
expand: top_step (4, 0) FAR  w(0) 39286. F 0.00
expand: MAIN (5, 0) FAR  w(0) 39043. F 0.00
expand: MAIN (6, 0) FAR  w(0) 39184.
	create_child: top_step (5, 10) FAR 39894 U 0.00
expand: top_step (5, 0) FAR  w(0) 39894.
	create_child: main_step (4, 10) FAR 40113 U 0.00
expand: main_step (4, 0) FAR  w(0) 40113. F 0.01
expand: top_step (5, 0) FAR  w(0) 39894. F 0.00
expand: MAIN (6, 0) FAR  w(0) 39184. F 0.00
expand: MAIN (7, 0) FAR  w(0) 39100. F 0.00
expand: MAIN (8, 0) FAR  w(0) 2414. F 0.00
expand: ERR (9, 0) FAR  w(0) 1. F 0.00
expand: query!0 (10, 0) FAR  w(0) 1. F 0.00
(spacer::context::check_reachability :time 0.05 :before-memory 30.51 :after-memory 30.80)
Propagating: 3 4 5 6 7 8 9 10  ! 11 
(spacer::context::propagate :time 0.01 :before-memory 30.80 :after-memory 30.80)
Entering level 11
BRUNCH_STAT max_query_lvl 10
BRUNCH_STAT num_queries 169
BRUNCH_STAT num_reach_queries 5
BRUNCH_STAT num_reach_reuse 128
BRUNCH_STAT inductive_lvl 0
BRUNCH_STAT max_depth 11
BRUNCH_STAT cex_depth 0
expand: query!0 (11, 0) FAR  w(0) 1.
	create_child: ERR (10, 11) FAR 1 U 0.00
expand: ERR (10, 0) FAR  w(0) 1.
	create_child: MAIN (9, 11) FAR 2414 U 0.00
expand: MAIN (9, 0) FAR  w(0) 2414.
	create_child: MAIN (8, 11) FAR 40552 U 0.00
expand: MAIN (8, 0) FAR  w(0) 40552.
	create_child: MAIN (7, 11) FAR 40562 U 0.00
expand: MAIN (7, 0) FAR  w(0) 40562.
	create_child: MAIN (6, 11) FAR 40485 U 0.00
expand: MAIN (6, 0) FAR  w(0) 40485.
	create_child: MAIN (5, 11) FAR 40520 U 0.00
expand: MAIN (5, 0) FAR  w(0) 40520.
	create_child: top_step (4, 11) FAR 40718 U 0.00
expand: top_step (4, 0) FAR  w(0) 40718.
	create_child: main_step (3, 11) FAR 41171 U 0.01
expand: main_step (3, 0) FAR  w(0) 41171. F 0.00
expand: top_step (4, 0) FAR  w(0) 40718. F 0.00
expand: MAIN (5, 0) FAR  w(0) 40520. F 0.00
expand: MAIN (6, 0) FAR  w(0) 40485.
	create_child: top_step (5, 11) FAR 41760 U 0.00
expand: top_step (5, 0) FAR  w(0) 41760.
	create_child: main_step (4, 11) FAR 42002 U 0.00
expand: main_step (4, 0) FAR  w(0) 42002. F 0.00
expand: top_step (5, 0) FAR  w(0) 41760. F 0.00
expand: MAIN (6, 0) FAR  w(0) 40485. F 0.00
expand: MAIN (7, 0) FAR  w(0) 40562. F 0.00
expand: MAIN (8, 0) FAR  w(0) 40552. F 0.00
expand: MAIN (9, 0) FAR  w(0) 2414. F 0.00
expand: ERR (10, 0) FAR  w(0) 1. F 0.00
expand: query!0 (11, 0) FAR  w(0) 1. F 0.00
(spacer::context::check_reachability :time 0.05 :before-memory 30.80 :after-memory 31.73)
Propagating: 3 4 5 6 7 8 9 10 11  ! 12 
(spacer::context::propagate :time 0.01 :before-memory 31.73 :after-memory 31.73)
Entering level 12
BRUNCH_STAT max_query_lvl 11
BRUNCH_STAT num_queries 179
BRUNCH_STAT num_reach_queries 5
BRUNCH_STAT num_reach_reuse 134
BRUNCH_STAT inductive_lvl 0
BRUNCH_STAT max_depth 12
BRUNCH_STAT cex_depth 0
expand: query!0 (12, 0) FAR  w(0) 1.
	create_child: ERR (11, 12) FAR 1 U 0.00
expand: ERR (11, 0) FAR  w(0) 1.
	create_child: MAIN (10, 12) FAR 2414 U 0.00
expand: MAIN (10, 0) FAR  w(0) 2414.
	create_child: MAIN (9, 12) FAR 40552 U 0.00
expand: MAIN (9, 0) FAR  w(0) 40552.
	create_child: MAIN (8, 12) FAR 40562 U 0.00
expand: MAIN (8, 0) FAR  w(0) 40562.
	create_child: MAIN (7, 12) FAR 40485 U 0.00
expand: MAIN (7, 0) FAR  w(0) 40485.
	create_child: MAIN (6, 12) FAR 40520 U 0.00
expand: MAIN (6, 0) FAR  w(0) 40520.
	create_child: MAIN (5, 12) FAR 42227 U 0.00
expand: MAIN (5, 0) FAR  w(0) 42227.
	create_child: top_step (4, 12) FAR 42538 U 0.00
expand: top_step (4, 0) FAR  w(0) 42538.
	create_child: main_step (3, 12) FAR 42740 U 0.00
expand: main_step (3, 0) FAR  w(0) 42740. F 0.00
expand: top_step (4, 0) FAR  w(0) 42538. F 0.00
expand: MAIN (5, 0) FAR  w(0) 42227. F 0.00
expand: MAIN (6, 0) FAR  w(0) 40520.
	create_child: top_step (5, 12) FAR 43193 U 0.00
expand: top_step (5, 0) FAR  w(0) 43193.
	create_child: main_step (4, 12) FAR 43337 U 0.00
expand: main_step (4, 0) FAR  w(0) 43337. F 0.00
expand: top_step (5, 0) FAR  w(0) 43193. F 0.00
expand: MAIN (6, 0) FAR  w(0) 40520. F 0.00
expand: MAIN (7, 0) FAR  w(0) 40485. F 0.00
expand: MAIN (8, 0) FAR  w(0) 40562. F 0.00
expand: MAIN (9, 0) FAR  w(0) 40552. F 0.00
expand: MAIN (10, 0) FAR  w(0) 2414. F 0.00
expand: ERR (11, 0) FAR  w(0) 1. F 0.00
expand: query!0 (12, 0) FAR  w(0) 1. F 0.00
(spacer::context::check_reachability :time 0.05 :before-memory 31.73 :after-memory 32.06)
Propagating: 3 4 5 6 7 8 9 10 11 12  ! 13 
(spacer::context::propagate :time 0.01 :before-memory 32.06 :after-memory 32.06)
Entering level 13
BRUNCH_STAT max_query_lvl 12
BRUNCH_STAT num_queries 190
BRUNCH_STAT num_reach_queries 5
BRUNCH_STAT num_reach_reuse 141
BRUNCH_STAT inductive_lvl 0
BRUNCH_STAT max_depth 13
BRUNCH_STAT cex_depth 0
expand: query!0 (13, 0) FAR  w(0) 1.
	create_child: ERR (12, 13) FAR 1 U 0.00
expand: ERR (12, 0) FAR  w(0) 1.
	create_child: MAIN (11, 13) FAR 2414 U 0.00
expand: MAIN (11, 0) FAR  w(0) 2414.
	create_child: MAIN (10, 13) FAR 40552 U 0.00
expand: MAIN (10, 0) FAR  w(0) 40552.
	create_child: MAIN (9, 13) FAR 40562 U 0.00
expand: MAIN (9, 0) FAR  w(0) 40562.
	create_child: MAIN (8, 13) FAR 40485 U 0.00
expand: MAIN (8, 0) FAR  w(0) 40485.
	create_child: MAIN (7, 13) FAR 40520 U 0.00
expand: MAIN (7, 0) FAR  w(0) 40520.
	create_child: MAIN (6, 13) FAR 42227 U 0.00
expand: MAIN (6, 0) FAR  w(0) 42227.
	create_child: MAIN (5, 13) FAR 43953 U 0.00
expand: MAIN (5, 0) FAR  w(0) 43953.
	create_child: top_step (4, 13) FAR 43976 U 0.00
expand: top_step (4, 0) FAR  w(0) 43976. F 0.00
expand: MAIN (5, 0) FAR  w(0) 43953. F 0.00
expand: MAIN (6, 0) FAR  w(0) 42227.
	create_child: top_step (5, 13) FAR 44331 U 0.00
expand: top_step (5, 0) FAR  w(0) 44331. F 0.00
expand: MAIN (6, 0) FAR  w(0) 42227. F 0.00
expand: MAIN (7, 0) FAR  w(0) 40520. F 0.00
expand: MAIN (8, 0) FAR  w(0) 40485. F 0.00
expand: MAIN (9, 0) FAR  w(0) 40562. F 0.00
expand: MAIN (10, 0) FAR  w(0) 40552. F 0.00
expand: MAIN (11, 0) FAR  w(0) 2414. F 0.00
expand: ERR (12, 0) FAR  w(0) 1. F 0.00
expand: query!0 (13, 0) FAR  w(0) 1. F 0.00
(spacer::context::check_reachability :time 0.04 :before-memory 32.06 :after-memory 32.13)
Propagating: 4 5 6 7 8 9 10 11 12 13  ! 14 
(spacer::context::propagate :time 0.01 :before-memory 32.13 :after-memory 32.13)
Entering level 14
BRUNCH_STAT max_query_lvl 13
BRUNCH_STAT num_queries 200
BRUNCH_STAT num_reach_queries 5
BRUNCH_STAT num_reach_reuse 147
BRUNCH_STAT inductive_lvl 0
BRUNCH_STAT max_depth 14
BRUNCH_STAT cex_depth 0
expand: query!0 (14, 0) FAR  w(0) 1.
	create_child: ERR (13, 14) FAR 1 U 0.00
expand: ERR (13, 0) FAR  w(0) 1.
	create_child: MAIN (12, 14) FAR 2414 U 0.00
expand: MAIN (12, 0) FAR  w(0) 2414.
	create_child: MAIN (11, 14) FAR 40552 U 0.00
expand: MAIN (11, 0) FAR  w(0) 40552.
	create_child: MAIN (10, 14) FAR 40562 U 0.00
expand: MAIN (10, 0) FAR  w(0) 40562.
	create_child: MAIN (9, 14) FAR 40485 U 0.00
expand: MAIN (9, 0) FAR  w(0) 40485.
	create_child: MAIN (8, 14) FAR 40520 U 0.00
expand: MAIN (8, 0) FAR  w(0) 40520.
	create_child: MAIN (7, 14) FAR 42227 U 0.00
expand: MAIN (7, 0) FAR  w(0) 42227.
	create_child: MAIN (6, 14) FAR 43953 U 0.00
expand: MAIN (6, 0) FAR  w(0) 43953.
	create_child: MAIN (5, 14) FAR 45163 U 0.00
expand: MAIN (5, 0) FAR  w(0) 45163.
	create_child: top_step (4, 14) FAR 45029 U 0.00
expand: top_step (4, 0) FAR  w(0) 45029. F 0.00
expand: MAIN (5, 0) FAR  w(0) 45163. F 0.00
expand: MAIN (6, 0) FAR  w(0) 43953.
	create_child: top_step (5, 14) FAR 45517 U 0.00
expand: top_step (5, 0) FAR  w(0) 45517. F 0.00
expand: MAIN (6, 0) FAR  w(0) 43953. F 0.00
expand: MAIN (7, 0) FAR  w(0) 42227. F 0.00
expand: MAIN (8, 0) FAR  w(0) 40520. F 0.00
expand: MAIN (9, 0) FAR  w(0) 40485. F 0.00
expand: MAIN (10, 0) FAR  w(0) 40562. F 0.00
expand: MAIN (11, 0) FAR  w(0) 40552. F 0.00
expand: MAIN (12, 0) FAR  w(0) 2414. F 0.00
expand: ERR (13, 0) FAR  w(0) 1. F 0.00
expand: query!0 (14, 0) FAR  w(0) 1. F 0.00
(spacer::context::check_reachability :time 0.05 :before-memory 32.13 :after-memory 32.33)
Propagating: 4 5 6 7 8 9 10 11 12 13 14  ! 15 
(spacer::context::propagate :time 0.01 :before-memory 32.33 :after-memory 32.33)
Entering level 15
BRUNCH_STAT max_query_lvl 14
BRUNCH_STAT num_queries 211
BRUNCH_STAT num_reach_queries 5
BRUNCH_STAT num_reach_reuse 154
BRUNCH_STAT inductive_lvl 0
BRUNCH_STAT max_depth 15
BRUNCH_STAT cex_depth 0
expand: query!0 (15, 0) FAR  w(0) 1.
	create_child: ERR (14, 15) FAR 1 U 0.00
expand: ERR (14, 0) FAR  w(0) 1.
	create_child: MAIN (13, 15) FAR 2414 U 0.00
expand: MAIN (13, 0) FAR  w(0) 2414.
	create_child: MAIN (12, 15) FAR 46090 U 0.00
expand: MAIN (12, 0) FAR  w(0) 46090.
	create_child: MAIN (11, 15) FAR 46172 U 0.00
expand: MAIN (11, 0) FAR  w(0) 46172.
	create_child: MAIN (10, 15) FAR 46060 U 0.00
expand: MAIN (10, 0) FAR  w(0) 46060.
	create_child: MAIN (9, 15) FAR 46007 U 0.00
expand: MAIN (9, 0) FAR  w(0) 46007.
	create_child: MAIN (8, 15) FAR 46057 U 0.00
expand: MAIN (8, 0) FAR  w(0) 46057.
	create_child: MAIN (7, 15) FAR 46513 U 0.00
expand: MAIN (7, 0) FAR  w(0) 46513.
	create_child: MAIN (6, 15) FAR 46117 U 0.00
expand: MAIN (6, 0) FAR  w(0) 46117.
	create_child: MAIN (5, 15) FAR 46382 U 0.00
expand: MAIN (5, 0) FAR  w(0) 46382.
	create_child: top_step (4, 15) FAR 46546 U 0.00
expand: top_step (4, 0) FAR  w(0) 46546. F 0.01
expand: MAIN (5, 0) FAR  w(0) 46382. F 0.00
expand: MAIN (6, 0) FAR  w(0) 46117.
	create_child: top_step (5, 15) FAR 47572 U 0.00
expand: top_step (5, 0) FAR  w(0) 47572. F 0.00
expand: MAIN (6, 0) FAR  w(0) 46117. F 0.00
expand: MAIN (7, 0) FAR  w(0) 46513. F 0.00
expand: MAIN (8, 0) FAR  w(0) 46057. F 0.00
expand: MAIN (9, 0) FAR  w(0) 46007. F 0.00
expand: MAIN (10, 0) FAR  w(0) 46060. F 0.00
expand: MAIN (11, 0) FAR  w(0) 46172. F 0.00
expand: MAIN (12, 0) FAR  w(0) 46090. F 0.01
expand: MAIN (13, 0) FAR  w(0) 2414. F 0.00
expand: ERR (14, 0) FAR  w(0) 1. F 0.00
expand: query!0 (15, 0) FAR  w(0) 1. F 0.00
(spacer::context::check_reachability :time 0.06 :before-memory 32.33 :after-memory 33.76)
Propagating: 4 5 6 7 8 9 10 11 12 13 14 15  ! 16 
(spacer::context::propagate :time 0.01 :before-memory 33.76 :after-memory 33.76)
Entering level 16
BRUNCH_STAT max_query_lvl 15
BRUNCH_STAT num_queries 223
BRUNCH_STAT num_reach_queries 5
BRUNCH_STAT num_reach_reuse 162
BRUNCH_STAT inductive_lvl 0
BRUNCH_STAT max_depth 16
BRUNCH_STAT cex_depth 0
expand: query!0 (16, 0) FAR  w(0) 1.
	create_child: ERR (15, 16) FAR 1 U 0.00
expand: ERR (15, 0) FAR  w(0) 1.
	create_child: MAIN (14, 16) FAR 2414 U 0.00
expand: MAIN (14, 0) FAR  w(0) 2414.
	create_child: MAIN (13, 16) FAR 46090 U 0.00
expand: MAIN (13, 0) FAR  w(0) 46090.
	create_child: MAIN (12, 16) FAR 46172 U 0.00
expand: MAIN (12, 0) FAR  w(0) 46172.
	create_child: MAIN (11, 16) FAR 46060 U 0.00
expand: MAIN (11, 0) FAR  w(0) 46060.
	create_child: MAIN (10, 16) FAR 46007 U 0.00
expand: MAIN (10, 0) FAR  w(0) 46007.
	create_child: MAIN (9, 16) FAR 46057 U 0.00
expand: MAIN (9, 0) FAR  w(0) 46057.
	create_child: MAIN (8, 16) FAR 46513 U 0.00
expand: MAIN (8, 0) FAR  w(0) 46513.
	create_child: MAIN (7, 16) FAR 46117 U 0.00
expand: MAIN (7, 0) FAR  w(0) 46117.
	create_child: MAIN (6, 16) FAR 46382 U 0.00
expand: MAIN (6, 0) FAR  w(0) 46382.
	create_child: MAIN (5, 16) FAR 48354 U 0.00
expand: MAIN (5, 0) FAR  w(0) 48354.
	create_child: top_step (4, 16) FAR 48254 U 0.01
expand: top_step (4, 0) FAR  w(0) 48254. F 0.01
expand: MAIN (5, 0) FAR  w(0) 48354. F 0.00
expand: MAIN (6, 0) FAR  w(0) 46382.
	create_child: top_step (5, 16) FAR 47724 U 0.00
expand: top_step (5, 0) FAR  w(0) 47724. F 0.01
expand: MAIN (6, 0) FAR  w(0) 46382. F 0.00
expand: MAIN (7, 0) FAR  w(0) 46117. F 0.00
expand: MAIN (8, 0) FAR  w(0) 46513. F 0.00
expand: MAIN (9, 0) FAR  w(0) 46057. F 0.00
expand: MAIN (10, 0) FAR  w(0) 46007. F 0.00
expand: MAIN (11, 0) FAR  w(0) 46060. F 0.00
expand: MAIN (12, 0) FAR  w(0) 46172. F 0.00
expand: MAIN (13, 0) FAR  w(0) 46090. F 0.00
expand: MAIN (14, 0) FAR  w(0) 2414. F 0.00
expand: ERR (15, 0) FAR  w(0) 1. F 0.00
expand: query!0 (16, 0) FAR  w(0) 1. F 0.00
(spacer::context::check_reachability :time 0.06 :before-memory 33.76 :after-memory 33.95)
Propagating: 4 5 6 7 8 9 10 11 12 13 14 15 16  ! 17 
(spacer::context::propagate :time 0.01 :before-memory 33.95 :after-memory 33.95)
Entering level 17
BRUNCH_STAT max_query_lvl 16
BRUNCH_STAT num_queries 236
BRUNCH_STAT num_reach_queries 5
BRUNCH_STAT num_reach_reuse 171
BRUNCH_STAT inductive_lvl 0
BRUNCH_STAT max_depth 17
BRUNCH_STAT cex_depth 0
expand: query!0 (17, 0) FAR  w(0) 1.
	create_child: ERR (16, 17) FAR 1 U 0.00
expand: ERR (16, 0) FAR  w(0) 1.
	create_child: MAIN (15, 17) FAR 2414 U 0.00
expand: MAIN (15, 0) FAR  w(0) 2414.
	create_child: MAIN (14, 17) FAR 40552 U 0.00
expand: MAIN (14, 0) FAR  w(0) 40552.
	create_child: MAIN (13, 17) FAR 40562 U 0.00
expand: MAIN (13, 0) FAR  w(0) 40562.
	create_child: MAIN (12, 17) FAR 40485 U 0.00
expand: MAIN (12, 0) FAR  w(0) 40485.
	create_child: MAIN (11, 17) FAR 40520 U 0.00
expand: MAIN (11, 0) FAR  w(0) 40520.
	create_child: MAIN (10, 17) FAR 42227 U 0.00
expand: MAIN (10, 0) FAR  w(0) 42227.
	create_child: MAIN (9, 17) FAR 43953 U 0.00
expand: MAIN (9, 0) FAR  w(0) 43953.
	create_child: MAIN (8, 17) FAR 45163 U 0.00
expand: MAIN (8, 0) FAR  w(0) 45163.
	create_child: MAIN (7, 17) FAR 49776 U 0.00
expand: MAIN (7, 0) FAR  w(0) 49776.
	create_child: MAIN (6, 17) FAR 49680 U 0.00
expand: MAIN (6, 0) FAR  w(0) 49680.
	create_child: MAIN (5, 17) FAR 49953 U 0.00
expand: MAIN (5, 0) FAR  w(0) 49953.
	create_child: top_step (4, 17) FAR 49693 U 0.00
expand: top_step (4, 0) FAR  w(0) 49693. F 0.01
expand: MAIN (5, 0) FAR  w(0) 49953. F 0.00
expand: MAIN (6, 0) FAR  w(0) 49680.
	create_child: top_step (5, 17) FAR 50246 U 0.00
expand: top_step (5, 0) FAR  w(0) 50246. F 0.01
expand: MAIN (6, 0) FAR  w(0) 49680. F 0.00
expand: MAIN (7, 0) FAR  w(0) 49776. F 0.00
expand: MAIN (8, 0) FAR  w(0) 45163. F 0.00
expand: MAIN (9, 0) FAR  w(0) 43953. F 0.00
expand: MAIN (10, 0) FAR  w(0) 42227. F 0.00
expand: MAIN (11, 0) FAR  w(0) 40520. F 0.00
expand: MAIN (12, 0) FAR  w(0) 40485. F 0.00
expand: MAIN (13, 0) FAR  w(0) 40562. F 0.00
expand: MAIN (14, 0) FAR  w(0) 40552. F 0.00
expand: MAIN (15, 0) FAR  w(0) 2414. F 0.00
expand: ERR (16, 0) FAR  w(0) 1. F 0.00
expand: query!0 (17, 0) FAR  w(0) 1. F 0.00
(spacer::context::check_reachability :time 0.07 :before-memory 33.95 :after-memory 34.05)
Propagating: 4 5 6 7 8 9 10 11 12 13 14 15 16 17  ! 18 
(spacer::context::propagate :time 0.01 :before-memory 34.05 :after-memory 34.05)
Entering level 18
BRUNCH_STAT max_query_lvl 17
BRUNCH_STAT num_queries 250
BRUNCH_STAT num_reach_queries 5
BRUNCH_STAT num_reach_reuse 181
BRUNCH_STAT inductive_lvl 0
BRUNCH_STAT max_depth 18
BRUNCH_STAT cex_depth 0
expand: query!0 (18, 0) FAR  w(0) 1.
	create_child: ERR (17, 18) FAR 1 U 0.00
expand: ERR (17, 0) FAR  w(0) 1.
	create_child: MAIN (16, 18) FAR 2414 U 0.00
expand: MAIN (16, 0) FAR  w(0) 2414.
	create_child: MAIN (15, 18) FAR 40552 U 0.00
expand: MAIN (15, 0) FAR  w(0) 40552.
	create_child: MAIN (14, 18) FAR 40562 U 0.00
expand: MAIN (14, 0) FAR  w(0) 40562.
	create_child: MAIN (13, 18) FAR 40485 U 0.00
expand: MAIN (13, 0) FAR  w(0) 40485.
	create_child: MAIN (12, 18) FAR 40520 U 0.00
expand: MAIN (12, 0) FAR  w(0) 40520.
	create_child: MAIN (11, 18) FAR 42227 U 0.00
expand: MAIN (11, 0) FAR  w(0) 42227.
	create_child: MAIN (10, 18) FAR 43953 U 0.00
expand: MAIN (10, 0) FAR  w(0) 43953.
	create_child: MAIN (9, 18) FAR 45163 U 0.00
expand: MAIN (9, 0) FAR  w(0) 45163.
	create_child: MAIN (8, 18) FAR 49776 U 0.00
expand: MAIN (8, 0) FAR  w(0) 49776.
	create_child: MAIN (7, 18) FAR 49680 U 0.00
expand: MAIN (7, 0) FAR  w(0) 49680.
	create_child: MAIN (6, 18) FAR 49953 U 0.00
expand: MAIN (6, 0) FAR  w(0) 49953.
	create_child: MAIN (5, 18) FAR 51349 U 0.00
expand: MAIN (5, 0) FAR  w(0) 51349.
	create_child: MAIN (4, 18) FAR 51292 U 0.00
expand: MAIN (4, 0) FAR  w(0) 51292.
	create_child: MAIN (3, 18) FAR 51127 U 0.00
expand: MAIN (3, 0) FAR  w(0) 51127. F 0.00
expand: MAIN (4, 0) FAR  w(0) 51292.
	create_child: top_step (3, 18) FAR 51498 U 0.00
expand: top_step (3, 0) FAR  w(0) 51498.
	create_child: main_step (2, 18) FAR 52092 U 0.01
expand: main_step (2, 0) FAR  w(0) 52092.
	create_child: controleur_step (1, 18) FAR 53681 U 0.01
expand: controleur_step (1, 0) FAR  w(0) 53681. F 0.00
expand: main_step (2, 0) FAR  w(0) 52092. F 0.01
expand: top_step (3, 0) FAR  w(0) 51498. F 0.01
expand: MAIN (4, 0) FAR  w(0) 51292.
	create_child: top_step (3, 18) FAR 53755 U 0.01
expand: top_step (3, 0) FAR  w(0) 53755.
	create_child: main_step (2, 18) FAR 53885 U 0.00
expand: main_step (2, 0) FAR  w(0) 53885.
	create_child: hypothese_step (1, 18) FAR 53816 U 0.01
expand: hypothese_step (1, 0) FAR  w(0) 53816. F 0.00
expand: main_step (2, 0) FAR  w(0) 53885. F 0.00
expand: top_step (3, 0) FAR  w(0) 53755. F 0.00
expand: MAIN (4, 0) FAR  w(0) 51292. F 0.00
expand: MAIN (5, 0) FAR  w(0) 51349.
	create_child: top_step (4, 18) FAR 54194 U 0.01
expand: top_step (4, 0) FAR  w(0) 54194.
	create_child: main_step (3, 18) FAR 54557 U 0.01
expand: main_step (3, 0) FAR  w(0) 54557.
	create_child: hypothese_step (2, 18) FAR 54644 U 0.01
expand: hypothese_step (2, 0) FAR  w(0) 54644. F 0.00
expand: main_step (3, 0) FAR  w(0) 54557. F 0.01
expand: top_step (4, 0) FAR  w(0) 54194. F 0.01
expand: MAIN (5, 0) FAR  w(0) 51349. F 0.00
expand: MAIN (6, 0) FAR  w(0) 49953. F 0.00
expand: MAIN (7, 0) FAR  w(0) 49680. F 0.00
expand: MAIN (8, 0) FAR  w(0) 49776. F 0.00
expand: MAIN (9, 0) FAR  w(0) 45163. F 0.00
expand: MAIN (10, 0) FAR  w(0) 43953. F 0.00
expand: MAIN (11, 0) FAR  w(0) 42227.
	create_child: MAIN (10, 18) FAR 55030 U 0.00
expand: MAIN (10, 0) FAR  w(0) 55030. F 0.00
expand: MAIN (11, 0) FAR  w(0) 42227.
	create_child: MAIN (10, 18) FAR 54410 U 0.00
expand: MAIN (10, 0) FAR  w(0) 54410. F 0.00
expand: MAIN (11, 0) FAR  w(0) 42227.
	create_child: top_step (10, 18) FAR 55134 U 0.00
expand: top_step (10, 0) FAR  w(0) 55134.
	create_child: main_step (9, 18) FAR 54872 U 0.00
expand: main_step (9, 0) FAR  w(0) 54872.
	create_child: hypothese_step (8, 18) FAR 55512 U 0.01
expand: hypothese_step (8, 0) FAR  w(0) 55512. F 0.00
expand: main_step (9, 0) FAR  w(0) 54872. F 0.01
expand: top_step (10, 0) FAR  w(0) 55134. F 0.01
expand: MAIN (11, 0) FAR  w(0) 42227. F 0.00
expand: MAIN (12, 0) FAR  w(0) 40520.
	create_child: top_step (11, 18) FAR 55421 U 0.00
expand: top_step (11, 0) FAR  w(0) 55421.
	create_child: main_step (10, 18) FAR 55756 U 0.01
expand: main_step (10, 0) FAR  w(0) 55756.
	create_child: hypothese_step (9, 18) FAR 55636 U 0.01
expand: hypothese_step (9, 0) FAR  w(0) 55636. F 0.00
expand: main_step (10, 0) FAR  w(0) 55756. F 0.01
expand: top_step (11, 0) FAR  w(0) 55421. F 0.01
expand: MAIN (12, 0) FAR  w(0) 40520. F 0.00
expand: MAIN (13, 0) FAR  w(0) 40485.
	create_child: top_step (12, 18) FAR 56199 U 0.00
expand: top_step (12, 0) FAR  w(0) 56199.
	create_child: main_step (11, 18) FAR 56463 U 0.00
expand: main_step (11, 0) FAR  w(0) 56463. F 0.01
expand: top_step (12, 0) FAR  w(0) 56199. F 0.01
expand: MAIN (13, 0) FAR  w(0) 40485. F 0.00
expand: MAIN (14, 0) FAR  w(0) 40562.
	create_child: top_step (13, 18) FAR 56231 U 0.00
expand: top_step (13, 0) FAR  w(0) 56231.
	create_child: main_step (12, 18) FAR 56814 U 0.00
expand: main_step (12, 0) FAR  w(0) 56814. F 0.01
expand: top_step (13, 0) FAR  w(0) 56231. F 0.01
expand: MAIN (14, 0) FAR  w(0) 40562. F 0.00
expand: MAIN (15, 0) FAR  w(0) 40552.
	create_child: top_step (14, 18) FAR 56759 U 0.00
expand: top_step (14, 0) FAR  w(0) 56759.
	create_child: main_step (13, 18) FAR 57094 U 0.00
expand: main_step (13, 0) FAR  w(0) 57094. F 0.01
expand: top_step (14, 0) FAR  w(0) 56759. F 0.01
expand: MAIN (15, 0) FAR  w(0) 40552. F 0.01
expand: MAIN (16, 0) FAR  w(0) 2414.
	create_child: MAIN (15, 18) FAR 57326 U 0.00
expand: MAIN (15, 0) FAR  w(0) 57326.
	create_child: MAIN (14, 18) FAR 57327 U 0.00
expand: MAIN (14, 0) FAR  w(0) 57327.
	create_child: MAIN (13, 18) FAR 57093 U 0.00
expand: MAIN (13, 0) FAR  w(0) 57093.
	create_child: MAIN (12, 18) FAR 56838 U 0.00
expand: MAIN (12, 0) FAR  w(0) 56838.
	create_child: MAIN (11, 18) FAR 57532 U 0.00
expand: MAIN (11, 0) FAR  w(0) 57532.
	create_child: MAIN (10, 18) FAR 57464 U 0.00
expand: MAIN (10, 0) FAR  w(0) 57464.
	create_child: top_step (9, 18) FAR 57596 U 0.00
expand: top_step (9, 0) FAR  w(0) 57596.
	create_child: main_step (8, 18) FAR 57649 U 0.01
expand: main_step (8, 0) FAR  w(0) 57649. F 0.01
expand: top_step (9, 0) FAR  w(0) 57596. F 0.01
expand: MAIN (10, 0) FAR  w(0) 57464. F 0.00
expand: MAIN (11, 0) FAR  w(0) 57532.
	create_child: top_step (10, 18) FAR 57843 U 0.00
expand: top_step (10, 0) FAR  w(0) 57843.
	create_child: main_step (9, 18) FAR 58045 U 0.00
expand: main_step (9, 0) FAR  w(0) 58045. F 0.01
expand: top_step (10, 0) FAR  w(0) 57843. F 0.01
expand: MAIN (11, 0) FAR  w(0) 57532. F 0.00
expand: MAIN (12, 0) FAR  w(0) 56838. F 0.00
expand: MAIN (13, 0) FAR  w(0) 57093. F 0.00
expand: MAIN (14, 0) FAR  w(0) 57327. F 0.00
expand: MAIN (15, 0) FAR  w(0) 57326.
	create_child: top_step (14, 18) FAR 58302 U 0.00
expand: top_step (14, 0) FAR  w(0) 58302.
	create_child: main_step (13, 18) FAR 58685 U 0.00
expand: main_step (13, 0) FAR  w(0) 58685.
	create_child: hypothese_step (12, 18) FAR 58738 U 0.00
expand: hypothese_step (12, 0) FAR  w(0) 58738. F 0.00
expand: main_step (13, 0) FAR  w(0) 58685. F 0.01
expand: top_step (14, 0) FAR  w(0) 58302. F 0.01
expand: MAIN (15, 0) FAR  w(0) 57326. F 0.00
expand: MAIN (16, 0) FAR  w(0) 2414. F 0.00
expand: ERR (17, 0) FAR  w(0) 1. F 0.00
expand: query!0 (18, 0) FAR  w(0) 1. F 0.00
(spacer::context::check_reachability :time 0.48 :before-memory 34.05 :after-memory 35.47)
Propagating: 1 2 3 4 5 6 7 8 9 10 11 12 13 14 15 16 17 18  ! 19 
(spacer::context::propagate :time 0.03 :before-memory 35.47 :after-memory 35.47)
Entering level 19
BRUNCH_STAT max_query_lvl 18
BRUNCH_STAT num_queries 301
BRUNCH_STAT num_reach_queries 5
BRUNCH_STAT num_reach_reuse 230
BRUNCH_STAT inductive_lvl 0
BRUNCH_STAT max_depth 19
BRUNCH_STAT cex_depth 0
expand: query!0 (19, 0) FAR  w(0) 1.
	create_child: ERR (18, 19) FAR 1 U 0.00
expand: ERR (18, 0) FAR  w(0) 1.
	create_child: MAIN (17, 19) FAR 2414 U 0.00
expand: MAIN (17, 0) FAR  w(0) 2414.
	create_child: MAIN (16, 19) FAR 60151 U 0.00
expand: MAIN (16, 0) FAR  w(0) 60151.
	create_child: MAIN (15, 19) FAR 60236 U 0.00
expand: MAIN (15, 0) FAR  w(0) 60236.
	create_child: MAIN (14, 19) FAR 60122 U 0.00
expand: MAIN (14, 0) FAR  w(0) 60122.
	create_child: MAIN (13, 19) FAR 60076 U 0.00
expand: MAIN (13, 0) FAR  w(0) 60076.
	create_child: MAIN (12, 19) FAR 60479 U 0.00
expand: MAIN (12, 0) FAR  w(0) 60479.
	create_child: top_step (11, 19) FAR 60366 U 0.00
expand: top_step (11, 0) FAR  w(0) 60366.
	create_child: main_step (10, 19) FAR 60410 U 0.00
expand: main_step (10, 0) FAR  w(0) 60410.
	create_child: hypothese_step (9, 19) FAR 60673 U 0.01
expand: hypothese_step (9, 0) FAR  w(0) 60673. F 0.00
expand: main_step (10, 0) FAR  w(0) 60410. F 0.01
expand: top_step (11, 0) FAR  w(0) 60366. F 0.01
expand: MAIN (12, 0) FAR  w(0) 60479. F 0.01
expand: MAIN (13, 0) FAR  w(0) 60076.
	create_child: top_step (12, 19) FAR 60606 U 0.00
expand: top_step (12, 0) FAR  w(0) 60606.
	create_child: main_step (11, 19) FAR 60925 U 0.00
expand: main_step (11, 0) FAR  w(0) 60925.
	create_child: hypothese_step (10, 19) FAR 60829 U 0.01
expand: hypothese_step (10, 0) FAR  w(0) 60829. F 0.00
expand: main_step (11, 0) FAR  w(0) 60925. F 0.01
expand: top_step (12, 0) FAR  w(0) 60606. F 0.01
expand: MAIN (13, 0) FAR  w(0) 60076. F 0.01
expand: MAIN (14, 0) FAR  w(0) 60122.
	create_child: top_step (13, 19) FAR 60858 U 0.00
expand: top_step (13, 0) FAR  w(0) 60858.
	create_child: main_step (12, 19) FAR 61239 U 0.00
expand: main_step (12, 0) FAR  w(0) 61239.
	create_child: hypothese_step (11, 19) FAR 61187 U 0.00
expand: hypothese_step (11, 0) FAR  w(0) 61187. F 0.00
expand: main_step (12, 0) FAR  w(0) 61239. F 0.01
expand: top_step (13, 0) FAR  w(0) 60858. F 0.01
expand: MAIN (14, 0) FAR  w(0) 60122. F 0.01
expand: MAIN (15, 0) FAR  w(0) 60236.
	create_child: top_step (14, 19) FAR 61402 U 0.00
expand: top_step (14, 0) FAR  w(0) 61402.
	create_child: main_step (13, 19) FAR 61444 U 0.00
expand: main_step (13, 0) FAR  w(0) 61444.
	create_child: hypothese_step (12, 19) FAR 61236 U 0.00
expand: hypothese_step (12, 0) FAR  w(0) 61236. F 0.00
expand: main_step (13, 0) FAR  w(0) 61444. F 0.01
expand: top_step (14, 0) FAR  w(0) 61402. F 0.01
expand: MAIN (15, 0) FAR  w(0) 60236. F 0.01
expand: MAIN (16, 0) FAR  w(0) 60151. F 0.01
expand: MAIN (17, 0) FAR  w(0) 2414.
	create_child: MAIN (16, 19) FAR 57326 U 0.00
expand: MAIN (16, 0) FAR  w(0) 57326.
	create_child: MAIN (15, 19) FAR 57327 U 0.00
expand: MAIN (15, 0) FAR  w(0) 57327.
	create_child: MAIN (14, 19) FAR 57093 U 0.00
expand: MAIN (14, 0) FAR  w(0) 57093.
	create_child: MAIN (13, 19) FAR 56838 U 0.00
expand: MAIN (13, 0) FAR  w(0) 56838.
	create_child: MAIN (12, 19) FAR 57532 U 0.00
expand: MAIN (12, 0) FAR  w(0) 57532.
	create_child: MAIN (11, 19) FAR 57464 U 0.00
expand: MAIN (11, 0) FAR  w(0) 57464.
	create_child: top_step (10, 19) FAR 61873 U 0.00
expand: top_step (10, 0) FAR  w(0) 61873. F 0.01
expand: MAIN (11, 0) FAR  w(0) 57464. F 0.01
expand: MAIN (12, 0) FAR  w(0) 57532. F 0.00
expand: MAIN (13, 0) FAR  w(0) 56838. F 0.00
expand: MAIN (14, 0) FAR  w(0) 57093.
	create_child: top_step (13, 19) FAR 61995 U 0.00
expand: top_step (13, 0) FAR  w(0) 61995.
	create_child: main_step (12, 19) FAR 62263 U 0.00
expand: main_step (12, 0) FAR  w(0) 62263. F 0.01
expand: top_step (13, 0) FAR  w(0) 61995. F 0.01
expand: MAIN (14, 0) FAR  w(0) 57093. F 0.01
expand: MAIN (15, 0) FAR  w(0) 57327.
	create_child: top_step (14, 19) FAR 61952 U 0.00
expand: top_step (14, 0) FAR  w(0) 61952.
	create_child: main_step (13, 19) FAR 62410 U 0.00
expand: main_step (13, 0) FAR  w(0) 62410.
	create_child: hypothese_step (12, 19) FAR 61490 U 0.00
expand: hypothese_step (12, 0) FAR  w(0) 61490. F 0.00
expand: main_step (13, 0) FAR  w(0) 62410. F 0.01
expand: top_step (14, 0) FAR  w(0) 61952. F 0.01
expand: MAIN (15, 0) FAR  w(0) 57327. F 0.01
expand: MAIN (16, 0) FAR  w(0) 57326. F 0.00
expand: MAIN (17, 0) FAR  w(0) 2414. F 0.00
expand: ERR (18, 0) FAR  w(0) 1. F 0.00
expand: query!0 (19, 0) FAR  w(0) 1. F 0.00
(spacer::context::check_reachability :time 0.28 :before-memory 35.47 :after-memory 37.11)
Propagating: 9 10 11 12 13 14 15 
(spacer::context::propagate :time 0.02 :before-memory 37.11 :after-memory 37.11)
(define-fun ERR () Bool
  false)
(define-fun controleur_step ((x!0 Int)
 (x!1 Int)
 (x!2 Int)
 (x!3 Bool)
 (x!4 Bool)
 (x!5 Bool)
 (x!6 Bool)
 (x!7 Bool)
 (x!8 Bool)
 (x!9 Bool)
 (x!10 Bool)) Bool
  (let ((a!1 (or (<= (+ x!0 (* (- 1) x!1)) 0) x!7 x!3 (not x!6)))
        (a!2 (or (<= (+ x!0 (* (- 1) x!1)) 0) (not x!4)))
        (a!3 (not (<= (+ x!0 (* (- 1) x!1)) 9)))
        (a!4 (not (>= (+ x!0 (* (- 1) x!1)) 10))))
    (and a!1
         (not x!10)
         (>= (+ x!0 (* (- 1) x!1) (* (- 1) x!2)) 0)
         (>= (+ x!1 x!2 (* (- 1) x!0)) 0)
         (or (not x!9) x!3)
         a!2
         (or (not x!8) x!4)
         (or (not x!3) x!9)
         (or a!3 x!6 (not x!3))
         (or a!4 x!7 x!3)
         (or (not (<= x!2 0)) (not x!3))
         (or (not x!4) x!8)
         (or (not (<= x!2 (- 10))) x!7 x!4))))
(define-fun main_step ((x!0 Bool)
 (x!1 Bool)
 (x!2 Bool)
 (x!3 Bool)
 (x!4 Int)
 (x!5 Int)
 (x!6 Int)
 (x!7 Int)
 (x!8 Int)
 (x!9 Bool)
 (x!10 Bool)
 (x!11 Bool)
 (x!12 Bool)
 (x!13 Int)
 (x!14 Int)
 (x!15 Int)
 (x!16 Bool)
 (x!17 Int)
 (x!18 Bool)
 (x!19 Bool)
 (x!20 Bool)
 (x!21 Int)
 (x!22 Bool)
 (x!23 Bool)
 (x!24 Bool)
 (x!25 Bool)
 (x!26 Bool)
 (x!27 Bool)
 (x!28 Bool)
 (x!29 Bool)
 (x!30 Bool)
 (x!31 Int)
 (x!32 Int)
 (x!33 Int)
 (x!34 Bool)
 (x!35 Int)
 (x!36 Bool)
 (x!37 Bool)
 (x!38 Bool)
 (x!39 Int)
 (x!40 Bool)
 (x!41 Bool)
 (x!42 Bool)
 (x!43 Bool)
 (x!44 Bool)
 (x!45 Bool)
 (x!46 Bool)
 (x!47 Bool)
 (x!48 Bool)) Bool
  (let ((a!1 (not (>= (+ x!31 (* (- 1) x!33)) (- 9))))
        (a!2 (not (<= (+ x!33 (* (- 1) x!31) (* (- 1) x!7)) (- 11))))
        (a!3 (not (<= (+ x!31 (* (- 1) x!32)) (- 10))))
        (a!4 (not (>= (+ x!31 (* (- 1) x!33)) 10)))
        (a!5 (not (>= (+ x!13 (* (- 1) x!15)) (- 19))))
        (a!6 (not (<= (+ x!13 (* (- 1) x!15)) 9)))
        (a!7 (not (>= (+ x!31 (* (- 1) x!33)) 11)))
        (a!8 (not (<= (+ x!13 (* (- 1) x!15)) 10)))
        (a!9 (not (>= (+ x!31 (* (- 1) x!32)) 0)))
        (a!10 (not (<= (+ x!31 (* (- 1) x!33)) (- 10))))
        (a!11 (not (<= (+ x!15 x!31 (* (- 1) x!13) (* (- 1) x!33)) (- 2))))
        (a!12 (not (>= (+ x!13 (* (- 1) x!15)) (- 9))))
        (a!14 (not (<= (+ x!35 (* (- 1) x!17)) 1)))
        (a!15 (not (<= (+ x!31 (* (- 1) x!33)) (- 18))))
        (a!16 (not (>= (+ x!13 (* (- 1) x!15)) (- 17))))
        (a!17 (not (>= (+ x!17 (* (- 1) x!35)) (- 1))))
        (a!18 (not (<= (+ x!31 (* (- 1) x!33)) (- 19))))
        (a!19 (not (>= (+ x!13 (* (- 1) x!15)) (- 18))))
        (a!20 (not (<= (+ x!31 (* (- 1) x!33)) (- 20))))
        (a!21 (not (>= (+ x!13 (* (- 1) x!15)) (- 20))))
        (a!22 (not (>= (+ x!13 (* (- 1) x!15)) (- 15))))
        (a!23 (not (<= (+ x!31 (* (- 1) x!33)) (- 16))))
        (a!24 (not (<= (+ x!31 (* (- 1) x!33)) (- 17))))
        (a!25 (not (>= (+ x!13 (* (- 1) x!15)) (- 16)))))
  (let ((a!13 (or (>= (+ x!13 (* (- 1) x!14)) 0) (not x!28) x!46 x!29 a!12 a!10)))
    (and (or (not (>= x!17 9)) (not x!43) (not x!16) x!19 (not (<= x!35 8)))
         (not x!48)
         (not x!47)
         (not x!44)
         (not x!41)
         (not x!37)
         (or (not (>= x!7 10)) a!1)
         (or (<= x!7 0) (not x!42))
         a!2
         (or x!43 (not x!34))
         (or (not x!43) x!34)
         (or (<= x!7 0) (not x!30))
         (or (not (<= x!7 0)) (not x!43))
         (>= (+ x!31 x!7 (* (- 1) x!33)) 0)
         (or a!3 x!46 x!29)
         (or a!4 (not x!30))
         (or a!5 (not (>= x!7 21)))
         (or (not x!42) x!36)
         (or a!6 a!7)
         (or a!4 x!26 x!42)
         (or a!8 (not x!3) (not x!18) x!19 (not (<= x!7 (- 11))))
         (or a!9 (not x!46))
         (or a!10 x!43 x!26)
         (or a!7 (not (>= x!7 (- 10))))
         (or x!38 (not x!46))
         (or (not x!46) (not x!45))
         (or a!11 x!30)
         a!13
         (or (not (<= x!35 (- 2))) x!16)
         (or (not (>= x!17 (- 1))) (not (<= x!35 (- 2))))
         (or a!14 (not x!16) (not x!43) x!19 a!15 a!16)
         (or a!17 (not x!16) (not x!43) x!19 a!18 a!19)
         (or a!17 (not x!16) (not x!43) x!19 a!5 a!20)
         (or a!17 (not x!16) (not x!43) x!19 (not (>= x!7 21)) a!21)
         (or a!22 (not x!16) (not x!43) x!19 a!23 a!17)
         (or a!17 (not x!16) (not x!43) x!19 a!24 a!25)
         (or (not (>= x!17 9)) (not x!3) x!19 (not (>= x!7 21)) a!21)
         (or (not (<= x!35 0)) (not x!43) (not x!16) x!19 (<= x!17 0))
         (or (not (<= x!35 2)) (not x!43) (not x!16) x!19 (not (>= x!17 3)))
         (or (not (<= x!35 4)) (not x!43) (not x!16) x!19 (not (>= x!17 5)))
         (or (not (<= x!35 6)) (not x!43) (not x!16) x!19 (not (>= x!17 7)))))))
(define-fun controleur_reset ((x!0 Bool)
 (x!1 Bool)
 (x!2 Bool)
 (x!3 Bool)
 (x!4 Bool)
 (x!5 Bool)) Bool
  true)
(define-fun top_step ((x!0 Bool)
 (x!1 Bool)
 (x!2 Bool)
 (x!3 Bool)
 (x!4 Int)
 (x!5 Bool)
 (x!6 Bool)
 (x!7 Bool)
 (x!8 Int)
 (x!9 Int)
 (x!10 Int)
 (x!11 Bool)
 (x!12 Int)
 (x!13 Bool)
 (x!14 Bool)
 (x!15 Bool)
 (x!16 Int)
 (x!17 Bool)
 (x!18 Bool)
 (x!19 Bool)
 (x!20 Bool)
 (x!21 Bool)
 (x!22 Bool)
 (x!23 Bool)
 (x!24 Bool)
 (x!25 Bool)
 (x!26 Int)
 (x!27 Bool)
 (x!28 Bool)
 (x!29 Bool)
 (x!30 Int)
 (x!31 Int)
 (x!32 Int)
 (x!33 Bool)
 (x!34 Int)
 (x!35 Bool)
 (x!36 Bool)
 (x!37 Bool)
 (x!38 Int)
 (x!39 Bool)
 (x!40 Bool)
 (x!41 Bool)
 (x!42 Bool)
 (x!43 Bool)
 (x!44 Bool)
 (x!45 Bool)
 (x!46 Bool)
 (x!47 Bool)) Bool
  (let ((a!1 (not (<= (+ x!32 (* (- 1) x!30)) 9)))
        (a!2 (not (<= (+ x!32 (* (- 1) x!26) (* (- 1) x!30)) (- 11))))
        (a!3 (not (<= (+ x!30 (* (- 1) x!31)) (- 10))))
        (a!4 (not (>= (+ x!30 (* (- 1) x!32)) 10)))
        (a!5 (not (<= (+ x!30 (* (- 1) x!32)) (- 11))))
        (a!6 (not (>= (+ x!8 (* (- 1) x!10)) (- 9))))
        (a!7 (not (>= (+ x!8 (* (- 1) x!10)) (- 19))))
        (a!8 (not (>= (+ x!30 (* (- 1) x!32)) 11)))
        (a!9 (not (<= (+ x!8 (* (- 1) x!10)) 9)))
        (a!10 (not (<= (+ x!8 (* (- 1) x!10)) 10)))
        (a!11 (not (<= (+ x!30 (* (- 1) x!32)) (- 10))))
        (a!12 (not (>= (+ x!30 (* (- 1) x!31)) 0)))
        (a!13 (not (>= (+ x!8 (* (- 1) x!10)) (- 18))))
        (a!14 (not (<= (+ x!30 (* (- 1) x!32)) (- 20))))
        (a!15 (not (>= (+ x!8 (* (- 1) x!10)) (- 17))))
        (a!16 (not (<= (+ x!30 (* (- 1) x!32)) (- 19))))
        (a!17 (not (>= (+ x!8 (* (- 1) x!10)) (- 16))))
        (a!18 (not (<= (+ x!30 (* (- 1) x!32)) (- 18))))
        (a!19 (not (<= (+ x!10 (* (- 1) x!8)) 15)))
        (a!20 (not (<= (+ x!30 (* (- 1) x!32)) (- 17))))
        (a!21 (not (>= (+ x!8 (* (- 1) x!10)) (- 14))))
        (a!22 (not (<= (+ x!30 (* (- 1) x!32)) (- 16))))
        (a!23 (not (>= (+ x!8 (* (- 1) x!10)) (- 13))))
        (a!24 (not (<= (+ x!30 (* (- 1) x!32)) (- 15))))
        (a!25 (not (>= (+ x!8 (* (- 1) x!10)) (- 12))))
        (a!26 (not (<= (+ x!30 (* (- 1) x!32)) (- 14))))
        (a!27 (not (<= (+ x!30 (* (- 1) x!32)) (- 12))))
        (a!28 (not (>= (+ x!8 (* (- 1) x!10)) (- 10))))
        (a!29 (not (>= (+ x!8 (* (- 1) x!10)) (- 11))))
        (a!30 (not (<= (+ x!30 (* (- 1) x!32)) (- 13))))
        (a!32 (not (>= (+ x!12 (* (- 1) x!34)) (- 1))))
        (a!33 (not (>= (+ x!4 x!8 (* (- 1) x!10)) 0)))
        (a!34 (not (>= (+ x!8 (* (- 1) x!10)) (- 15)))))
  (let ((a!31 (or (>= (+ x!8 (* (- 1) x!9)) 0) (not x!23) x!45 x!24 a!11 a!6)))
    (and (or (not (<= x!34 8)) (not x!11) (not x!42) x!14 (not (>= x!12 9)))
         (not x!36)
         (not x!40)
         (not x!43)
         (not x!46)
         (not x!47)
         (not x!29)
         (>= (+ x!26 x!30 (* (- 1) x!32)) 0)
         (or (not x!5) x!3)
         (or (not (>= x!26 10)) a!1)
         (or (<= x!26 0) (not x!41))
         a!2
         (or x!42 (not x!33))
         (or (not x!42) x!33)
         (or (<= x!26 0) (not x!25))
         (or (not (>= x!4 (- 10))) x!3 (not (<= x!4 20)))
         (or (not (<= x!26 0)) (not x!42))
         (or a!3 x!45 x!24)
         (or a!4 (not x!25))
         (or a!5 a!6)
         (or a!7 (not (>= x!26 21)))
         (or a!8 a!9)
         (or a!4 x!41 x!21)
         (or x!35 (not x!41))
         (or x!7 x!3 x!6)
         (or a!10 (not x!13) (not x!28) x!14 (not (<= x!26 (- 11))))
         (or a!8 (not (>= x!26 (- 10))))
         (or a!11 x!33 x!21)
         (or x!7 (not x!28) x!6)
         (or a!12 (not x!45))
         (or x!37 (not x!45))
         (or (not x!45) (not x!44))
         (or a!13 a!14)
         (or a!15 a!16)
         (or a!17 a!18)
         (or a!19 a!20)
         (or a!21 a!22)
         (or a!23 a!24)
         (or a!25 a!26)
         (or a!27 a!28)
         (or a!29 a!30)
         a!31
         (or (not (<= x!34 (- 2))) x!11)
         (or (not (>= x!12 (- 1))) (not (<= x!34 (- 2))))
         (or a!32 (not x!11) (not x!42) x!14 a!18 a!15)
         (or a!32 (not x!11) (not x!33) x!14 a!13 a!16)
         (or a!32 (not x!11) (not x!33) x!14 a!7 a!14)
         (or a!32
             (not x!11)
             (not x!42)
             x!14
             (not (<= x!4 20))
             (not (>= x!26 21))
             a!33)
         (or a!34 (not x!11) (not x!33) x!14 a!22 a!32)
         (or a!32 (not x!11) (not x!33) x!14 a!17 a!20)
         (or (not (>= x!12 9))
             (not x!28)
             x!14
             (not (<= x!4 20))
             (not (>= x!26 21))
             a!33)
         (or (not (<= x!34 2)) (not x!11) (not x!42) x!14 (not (>= x!12 3)))
         (or (not (>= x!12 5)) (not x!11) (not x!42) x!14 (not (<= x!34 4)))
         (or (<= x!12 0) (not x!11) (not x!42) x!14 (not (<= x!34 0)))
         (or (not (>= x!12 7)) (not x!11) (not x!42) x!14 (not (<= x!34 6)))))))
(define-fun Sofar_reset ((x!0 Bool) (x!1 Bool) (x!2 Bool) (x!3 Bool)) Bool
  true)
(define-fun hypothese_reset ((x!0 Bool)
 (x!1 Int)
 (x!2 Bool)
 (x!3 Bool)
 (x!4 Bool)
 (x!5 Int)
 (x!6 Bool)
 (x!7 Bool)) Bool
  true)
(define-fun hypothese_step ((x!0 Bool)
 (x!1 Bool)
 (x!2 Bool)
 (x!3 Bool)
 (x!4 Bool)
 (x!5 Bool)
 (x!6 Int)
 (x!7 Bool)
 (x!8 Bool)
 (x!9 Bool)
 (x!10 Int)
 (x!11 Bool)
 (x!12 Bool)) Bool
  (let ((a!1 (not (<= (+ x!10 (* (- 1) x!6)) 1))))
    (and (or (not (>= x!6 3)) (not x!2) (not x!5) x!8 (not (<= x!10 2)))
         (not x!12)
         (or x!2 (not x!9))
         (or (not x!2) x!9)
         (or x!5 (not (<= x!10 (- 2))))
         (or (not x!1) (not x!4) x!8 (not x!7))
         (or (not x!3) x!11)
         (or (not (>= x!6 (- 1))) (not (<= x!10 (- 2))))
         (or (not (<= x!10 8)) (not x!2) (not x!5) (not (>= x!6 9)) x!8)
         (or a!1 (not x!5) (not x!2) x!8 (not x!0))
         (or (not (>= x!6 9)) (not x!4) x!8 (not x!0))
         (or x!8 (not x!2) (not x!5) (not (<= x!10 0)) (<= x!6 0))
         (or (not (>= x!6 5)) (not x!2) (not x!5) x!8 (not (<= x!10 4)))
         (or (not (<= x!10 6)) (not x!2) (not x!5) x!8 (not (>= x!6 7))))))
(define-fun MAIN ((x!0 Int)
 (x!1 Bool)
 (x!2 Bool)
 (x!3 Bool)
 (x!4 Int)
 (x!5 Int)
 (x!6 Int)
 (x!7 Bool)
 (x!8 Int)
 (x!9 Bool)
 (x!10 Bool)
 (x!11 Bool)
 (x!12 Int)
 (x!13 Bool)
 (x!14 Bool)
 (x!15 Bool)
 (x!16 Bool)
 (x!17 Bool)
 (x!18 Bool)
 (x!19 Bool)
 (x!20 Bool)
 (x!21 Bool)
 (x!22 Bool)) Bool
  (let ((a!1 (not (<= (+ x!4 (* (- 1) x!6)) (- 20))))
        (a!2 (not (<= (+ x!6 (* (- 1) x!0) (* (- 1) x!4)) (- 11))))
        (a!3 (not (<= (+ x!4 (* (- 1) x!5)) (- 10))))
        (a!4 (not (>= (+ x!4 (* (- 1) x!6)) 10)))
        (a!5 (not (>= (+ x!4 (* (- 1) x!6)) 11)))
        (a!6 (not (>= (+ x!4 (* (- 1) x!5)) 0)))
        (a!7 (not (<= (+ x!4 (* (- 1) x!6)) (- 2))))
        (a!8 (not (<= (+ x!4 (* (- 1) x!6)) (- 11))))
        (a!9 (not (<= (+ x!4 (* (- 1) x!6)) (- 16))))
        (a!10 (not (<= (+ x!4 (* (- 1) x!6)) (- 17))))
        (a!11 (not (<= (+ x!4 (* (- 1) x!6)) (- 18))))
        (a!12 (not (<= (+ x!4 (* (- 1) x!6)) (- 19)))))
    (and (or (not (<= x!8 8)) a!1)
         x!22
         (not x!3)
         (not x!10)
         (not x!14)
         (not x!17)
         (not x!20)
         (not x!21)
         a!2
         (or (not x!7) x!16)
         (or x!7 (not x!16))
         (or (not (<= x!0 (- 11))) (not x!16))
         (or (not (<= x!0 (- 11))) x!19 a!3)
         (>= (+ x!0 x!4 (* (- 1) x!6)) 0)
         (or x!9 (not x!15))
         (or a!4 x!15)
         (or (not (<= x!0 (- 11))) (not x!2))
         (or a!5 (not (>= x!0 (- 10))))
         (or a!6 (not x!19))
         (or x!11 (not x!19))
         (or (not x!19) (not x!18))
         (or (not (<= x!8 (- 2))) (not x!16))
         (or a!7 (not x!15))
         (or a!8 x!7)
         (or (not (<= x!8 8)) (not (>= x!0 21)))
         (or a!9 (not (<= x!8 0)))
         (or (not (<= x!8 2)) a!10)
         (or (not (>= x!0 21)) (not x!2))
         (or (not (<= x!8 4)) a!11)
         (or (not (<= x!8 6)) a!12))))
(define-fun top_reset ((x!0 Int)
 (x!1 Bool)
 (x!2 Bool)
 (x!3 Bool)
 (x!4 Int)
 (x!5 Int)
 (x!6 Int)
 (x!7 Bool)
 (x!8 Int)
 (x!9 Bool)
 (x!10 Bool)
 (x!11 Bool)
 (x!12 Int)
 (x!13 Bool)
 (x!14 Bool)
 (x!15 Bool)
 (x!16 Bool)
 (x!17 Bool)
 (x!18 Bool)
 (x!19 Bool)
 (x!20 Bool)
 (x!21 Bool)
 (x!22 Int)
 (x!23 Bool)
 (x!24 Bool)
 (x!25 Bool)
 (x!26 Int)
 (x!27 Int)
 (x!28 Int)
 (x!29 Bool)
 (x!30 Int)
 (x!31 Bool)
 (x!32 Bool)
 (x!33 Bool)
 (x!34 Int)
 (x!35 Bool)
 (x!36 Bool)
 (x!37 Bool)
 (x!38 Bool)
 (x!39 Bool)
 (x!40 Bool)
 (x!41 Bool)
 (x!42 Bool)
 (x!43 Bool)) Bool
  (and x!43 x!23))
(define-fun main_reset ((x!0 Int)
 (x!1 Int)
 (x!2 Int)
 (x!3 Bool)
 (x!4 Int)
 (x!5 Bool)
 (x!6 Bool)
 (x!7 Bool)
 (x!8 Int)
 (x!9 Bool)
 (x!10 Bool)
 (x!11 Bool)
 (x!12 Bool)
 (x!13 Bool)
 (x!14 Bool)
 (x!15 Bool)
 (x!16 Bool)
 (x!17 Bool)
 (x!18 Int)
 (x!19 Int)
 (x!20 Int)
 (x!21 Bool)
 (x!22 Int)
 (x!23 Bool)
 (x!24 Bool)
 (x!25 Bool)
 (x!26 Int)
 (x!27 Bool)
 (x!28 Bool)
 (x!29 Bool)
 (x!30 Bool)
 (x!31 Bool)
 (x!32 Bool)
 (x!33 Bool)
 (x!34 Bool)
 (x!35 Bool)) Bool
  x!35)
(define-fun Sofar_step ((x!0 Bool)
 (x!1 Bool)
 (x!2 Bool)
 (x!3 Bool)
 (x!4 Bool)
 (x!5 Bool)) Bool
  (and (or x!2 x!3 (not x!1)) (not x!5) (or x!0 (not x!4)) (or x!1 (not x!4))))
BRUNCH_STAT max_query_lvl 19
BRUNCH_STAT num_queries 332
BRUNCH_STAT num_reach_queries 5
BRUNCH_STAT num_reach_reuse 262
BRUNCH_STAT inductive_lvl 15
BRUNCH_STAT max_depth 19
BRUNCH_STAT cex_depth 0
(:SPACER-inductive-level               15
 :SPACER-max-depth                     19
 :SPACER-max-query-lvl                 19
 :SPACER-num-invariants                210
 :SPACER-num-lemmas                    350
 :SPACER-num-properties                181
 :SPACER-num-queries                   332
 :SPACER-num-reach-queries             5
 :SPACER-num-reuse-reach-facts         262
 :added-eqs                            60148
 :arith-add-rows                       13067
 :arith-assert-diseq                   7540
 :arith-assert-lower                   73104
 :arith-assert-upper                   110287
 :arith-bound-prop                     1256
 :arith-conflicts                      329
 :arith-eq-adapter                     15144
 :arith-fixed-eqs                      15189
 :arith-offset-eqs                     6570
 :arith-pivots                         3442
 :bool-inductive-gen                   305
 :bool-inductive-gen-failures          678
 :conflicts                            2496
 :decisions                            127019
 :del-clause                           2876
 :final-checks                         1137
 :minimized-lits                       146
 :mk-bool-var                          42330
 :mk-clause                            12590
 :num-checks                           3067
 :propagations                         785477
 :time.itp_solver.itp_core             0.12
 :time.spacer.init_rules               0.01
 :time.spacer.init_rules.pt.init       0.00
 :time.spacer.solve                    2.10
 :time.spacer.solve.propagate          0.16
 :time.spacer.solve.pt.must_reachable  0.02
 :time.spacer.solve.reach              1.94
 :time.spacer.solve.reach.children     0.47
 :time.spacer.solve.reach.gen.bool_ind 0.52
 :time.spacer.solve.reach.is-reach     0.02
 :time.virtual_solver.proof            0.07
 :time.virtual_solver.smt.total        1.39
 :time.virtual_solver.smt.total.sat    0.78
 :virtual_solver.checks                3067
 :virtual_solver.checks.sat            1137)
BRUNCH_STAT max_query_lvl 19
BRUNCH_STAT num_queries 332
BRUNCH_STAT num_reach_queries 5
BRUNCH_STAT num_reach_reuse 262
BRUNCH_STAT inductive_lvl 15
BRUNCH_STAT max_depth 19
BRUNCH_STAT cex_depth 0

real	0m2.260s
user	0m2.204s
sys	0m0.052s
