(transform N7datalog13mk_coi_filterE...no-op 0s)
(transform N7datalog25mk_interp_tail_simplifierE...15 rules 0s)
(transform N7datalog27mk_quantifier_instantiationE...no-op 0s)
(transform N7datalog8mk_scaleE...no-op 0s)
(transform N7datalog18mk_karr_invariantsE...no-op 0s)
(transform N7datalog14mk_array_blastE...no-op 0s)
(transform N7datalog22mk_subsumption_checkerE...14 rules 0s)
(transform N7datalog12mk_bit_blastE...no-op 0s)
(transform N7datalog15mk_rule_inlinerE...no-op 0s)
(transform N7datalog13mk_coi_filterE...no-op 0s)
(transform N7datalog25mk_interp_tail_simplifierE...14 rules 0s)
(transform N7datalog22mk_subsumption_checkerE...no-op 0s)
(transform N7datalog15mk_rule_inlinerE...no-op 0s)
(transform N7datalog13mk_coi_filterE...no-op 0s)
(transform N7datalog25mk_interp_tail_simplifierE...14 rules 0s)
(transform N7datalog22mk_subsumption_checkerE...no-op 0s)
(transform N7datalog15mk_rule_inlinerE...no-op 0s)
(transform N7datalog22mk_subsumption_checkerE...no-op 0s)
(transform N7datalog15mk_rule_inlinerE...no-op 0s)
(transform N7datalog22mk_subsumption_checkerE...no-op 0s)
(transform N7datalog15mk_rule_inlinerE...no-op 0s)
(transform N7datalog22mk_subsumption_checkerE...no-op 0s)
expand: query!0 (0, 0) FAR  w(0) 1. F 0.00
(spacer::context::check_reachability :time 0.00 :before-memory 14.26 :after-memory 14.68)
Entering level 1
BRUNCH_STAT max_query_lvl 0
BRUNCH_STAT num_queries 0
BRUNCH_STAT num_reach_queries 0
BRUNCH_STAT num_reach_reuse 0
BRUNCH_STAT inductive_lvl 0
BRUNCH_STAT max_depth 1
BRUNCH_STAT cex_depth 0
expand: query!0 (1, 0) FAR  w(0) 1.
	create_child: ERR (0, 1) FAR 1 U 0.00
expand: ERR (0, 0) FAR  w(0) 1. F 0.00
expand: query!0 (1, 0) FAR  w(0) 1. F 0.00
(spacer::context::check_reachability :time 0.00 :before-memory 14.68 :after-memory 15.13)
Propagating: 0 1  ! 2 
(spacer::context::propagate :time 0.00 :before-memory 15.13 :after-memory 15.13)
Entering level 2
BRUNCH_STAT max_query_lvl 1
BRUNCH_STAT num_queries 1
BRUNCH_STAT num_reach_queries 0
BRUNCH_STAT num_reach_reuse 0
BRUNCH_STAT inductive_lvl 0
BRUNCH_STAT max_depth 2
BRUNCH_STAT cex_depth 0
expand: query!0 (2, 0) FAR  w(0) 1.
	create_child: ERR (1, 2) FAR 1 U 0.00
expand: ERR (1, 0) FAR  w(0) 1.
	create_child: MAIN (0, 2) FAR 2409 U 0.00
expand: MAIN (0, 0) FAR  w(0) 2409. F 0.00
expand: ERR (1, 0) FAR  w(0) 1. F 0.00
expand: query!0 (2, 0) FAR  w(0) 1. F 0.00
(spacer::context::check_reachability :time 0.00 :before-memory 15.13 :after-memory 15.72)
Propagating: 0 1 2  ! 3 
(spacer::context::propagate :time 0.00 :before-memory 15.72 :after-memory 15.72)
Entering level 3
BRUNCH_STAT max_query_lvl 2
BRUNCH_STAT num_queries 3
BRUNCH_STAT num_reach_queries 0
BRUNCH_STAT num_reach_reuse 0
BRUNCH_STAT inductive_lvl 0
BRUNCH_STAT max_depth 3
BRUNCH_STAT cex_depth 0
expand: query!0 (3, 0) FAR  w(0) 1.
	create_child: ERR (2, 3) FAR 1 U 0.00
expand: ERR (2, 0) FAR  w(0) 1.
	create_child: MAIN (1, 3) FAR 2409 U 0.00
expand: MAIN (1, 0) FAR  w(0) 2409.
	create_child: top_step (0, 3) FAR 3503 U 0.00
expand: top_step (0, 0) FAR  w(0) 3503. F 0.00
expand: MAIN (1, 0) FAR  w(0) 2409. F 0.00
expand: ERR (2, 0) FAR  w(0) 1. F 0.00
expand: query!0 (3, 0) FAR  w(0) 1. F 0.00
(spacer::context::check_reachability :time 0.00 :before-memory 15.72 :after-memory 16.42)
Propagating: 0 1 2 3  ! 4 
(spacer::context::propagate :time 0.00 :before-memory 16.42 :after-memory 16.42)
Entering level 4
BRUNCH_STAT max_query_lvl 3
BRUNCH_STAT num_queries 6
BRUNCH_STAT num_reach_queries 0
BRUNCH_STAT num_reach_reuse 0
BRUNCH_STAT inductive_lvl 0
BRUNCH_STAT max_depth 4
BRUNCH_STAT cex_depth 0
expand: query!0 (4, 0) FAR  w(0) 1.
	create_child: ERR (3, 4) FAR 1 U 0.00
expand: ERR (3, 0) FAR  w(0) 1.
	create_child: MAIN (2, 4) FAR 2409 U 0.00
expand: MAIN (2, 0) FAR  w(0) 2409.
	create_child: top_step (1, 4) FAR 3503 U 0.00
expand: top_step (1, 0) FAR  w(0) 3503.
	create_child: main_step (0, 4) FAR 1140 U 0.00
expand: main_step (0, 0) FAR  w(0) 1140. F 0.00
expand: top_step (1, 0) FAR  w(0) 3503. F 0.00
expand: MAIN (2, 0) FAR  w(0) 2409. F 0.00
expand: ERR (3, 0) FAR  w(0) 1. F 0.00
expand: query!0 (4, 0) FAR  w(0) 1. F 0.00
(spacer::context::check_reachability :time 0.01 :before-memory 16.42 :after-memory 17.29)
Propagating: 0 1 2 3 4  ! 5 
(spacer::context::propagate :time 0.00 :before-memory 17.29 :after-memory 17.38)
Entering level 5
BRUNCH_STAT max_query_lvl 4
BRUNCH_STAT num_queries 10
BRUNCH_STAT num_reach_queries 0
BRUNCH_STAT num_reach_reuse 0
BRUNCH_STAT inductive_lvl 0
BRUNCH_STAT max_depth 5
BRUNCH_STAT cex_depth 0
expand: query!0 (5, 0) FAR  w(0) 1.
	create_child: ERR (4, 5) FAR 1 U 0.00
expand: ERR (4, 0) FAR  w(0) 1.
	create_child: MAIN (3, 5) FAR 2409 U 0.00
expand: MAIN (3, 0) FAR  w(0) 2409.
	create_child: top_step (2, 5) FAR 3503 U 0.00
expand: top_step (2, 0) FAR  w(0) 3503.
	create_child: main_step (1, 5) FAR 1140 U 0.00
expand: main_step (1, 0) FAR  w(0) 1140.
	create_child: Sofar_step (1, 5) FAR 8352 X 0.00
expand: Sofar_step (1, 0) FAR  w(0) 8352. T 0.00
is-reachable: top_step (2, 0) FAR 3503
	create_child: top_reset (2, 5) FAR 10943 X 0.01
is-reachable: top_reset (2, 0) FAR 10943 F 0.00
expand: top_reset (2, 0) FAR  w(0) 10943. F 0.00
expand: MAIN (3, 0) FAR  w(0) 2409.
	create_child: top_step (2, 5) FAR 12869 U 0.00
expand: top_step (2, 0) FAR  w(0) 12869. F 0.00
expand: MAIN (3, 0) FAR  w(0) 2409. F 0.00
expand: ERR (4, 0) FAR  w(0) 1. F 0.00
expand: query!0 (5, 0) FAR  w(0) 1. F 0.00
(spacer::context::check_reachability :time 0.02 :before-memory 17.38 :after-memory 21.21)
Propagating: 2 3 4 5  ! 6 
(spacer::context::propagate :time 0.00 :before-memory 21.21 :after-memory 21.21)
Entering level 6
BRUNCH_STAT max_query_lvl 5
BRUNCH_STAT num_queries 15
BRUNCH_STAT num_reach_queries 2
BRUNCH_STAT num_reach_reuse 4
BRUNCH_STAT inductive_lvl 0
BRUNCH_STAT max_depth 6
BRUNCH_STAT cex_depth 0
expand: query!0 (6, 0) FAR  w(0) 1.
	create_child: ERR (5, 6) FAR 1 U 0.00
expand: ERR (5, 0) FAR  w(0) 1.
	create_child: MAIN (4, 6) FAR 2409 U 0.00
expand: MAIN (4, 0) FAR  w(0) 2409.
	create_child: MAIN (3, 6) FAR 13272 U 0.00
expand: MAIN (3, 0) FAR  w(0) 13272.
	create_child: top_step (2, 6) FAR 13447 U 0.00
expand: top_step (2, 0) FAR  w(0) 13447.
	create_child: main_step (1, 6) FAR 13664 U 0.00
expand: main_step (1, 0) FAR  w(0) 13664.
	create_child: controleur_step (0, 6) FAR 1086 U 0.00
expand: controleur_step (0, 0) FAR  w(0) 1086. F 0.00
expand: main_step (1, 0) FAR  w(0) 13664. F 0.00
expand: top_step (2, 0) FAR  w(0) 13447. F 0.00
expand: MAIN (3, 0) FAR  w(0) 13272. F 0.00
expand: MAIN (4, 0) FAR  w(0) 2409.
	create_child: MAIN (3, 6) FAR 14368 U 0.00
expand: MAIN (3, 0) FAR  w(0) 14368.
	create_child: top_step (2, 6) FAR 14438 U 0.00
expand: top_step (2, 0) FAR  w(0) 14438.
	create_child: main_step (1, 6) FAR 14603 U 0.00
expand: main_step (1, 0) FAR  w(0) 14603. F 0.00
expand: top_step (2, 0) FAR  w(0) 14438. F 0.00
expand: MAIN (3, 0) FAR  w(0) 14368. F 0.00
expand: MAIN (4, 0) FAR  w(0) 2409.
	create_child: MAIN (3, 6) FAR 14776 U 0.00
expand: MAIN (3, 0) FAR  w(0) 14776.
	create_child: top_step (2, 6) FAR 14932 U 0.00
expand: top_step (2, 0) FAR  w(0) 14932.
	create_child: main_step (1, 6) FAR 15146 U 0.00
expand: main_step (1, 0) FAR  w(0) 15146.
	create_child: controleur_step (0, 6) FAR 15326 U 0.00
expand: controleur_step (0, 0) FAR  w(0) 15326. F 0.00
expand: main_step (1, 0) FAR  w(0) 15146.
	create_child: controleur_step (0, 6) FAR 15495 U 0.00
expand: controleur_step (0, 0) FAR  w(0) 15495.
	create_child: hypothese_step (0, 6) FAR 15543 X 0.00
expand: hypothese_step (0, 0) FAR  w(0) 15543. F 0.00
expand: main_step (1, 0) FAR  w(0) 15146. F 0.00
expand: top_step (2, 0) FAR  w(0) 14932. F 0.00
expand: MAIN (3, 0) FAR  w(0) 14776. F 0.00
expand: MAIN (4, 0) FAR  w(0) 2409.
	create_child: top_step (3, 6) FAR 15934 U 0.00
expand: top_step (3, 0) FAR  w(0) 15934.
	create_child: main_step (2, 6) FAR 16029 U 0.00
expand: main_step (2, 0) FAR  w(0) 16029. T 0.00
is-reachable: top_step (3, 0) FAR 15934
	create_child: MAIN (3, 6) FAR 16671 X 0.01
is-reachable: MAIN (3, 0) FAR 16671 F 0.00
expand: MAIN (3, 0) FAR  w(0) 16671.
	create_child: top_step (2, 6) FAR 17071 U 0.00
expand: top_step (2, 0) FAR  w(0) 17071.
	create_child: main_step (1, 6) FAR 17102 U 0.00
expand: main_step (1, 0) FAR  w(0) 17102.
	create_child: controleur_step (0, 6) FAR 17262 U 0.01
expand: controleur_step (0, 0) FAR  w(0) 17262. F 0.00
expand: main_step (1, 0) FAR  w(0) 17102. F 0.00
expand: top_step (2, 0) FAR  w(0) 17071. F 0.00
expand: MAIN (3, 0) FAR  w(0) 16671. F 0.00
expand: MAIN (4, 0) FAR  w(0) 2409.
	create_child: MAIN (3, 6) FAR 17774 U 0.00
expand: MAIN (3, 0) FAR  w(0) 17774.
	create_child: top_step (2, 6) FAR 17944 U 0.00
expand: top_step (2, 0) FAR  w(0) 17944.
	create_child: main_step (1, 6) FAR 18210 U 0.00
expand: main_step (1, 0) FAR  w(0) 18210.
	create_child: controleur_step (0, 6) FAR 18490 U 0.00
expand: controleur_step (0, 0) FAR  w(0) 18490.
	create_child: controleur_step (0, 6) FAR 18536 X 0.00
expand: controleur_step (0, 0) FAR  w(0) 18536. F 0.00
expand: main_step (1, 0) FAR  w(0) 18210.
	create_child: controleur_step (0, 6) FAR 18490 U 0.00
expand: controleur_step (0, 0) FAR  w(0) 18490.
	create_child: controleur_step (0, 6) FAR 18643 X 0.00
expand: controleur_step (0, 0) FAR  w(0) 18643. F 0.00
expand: main_step (1, 0) FAR  w(0) 18210.
	create_child: controleur_step (0, 6) FAR 18490 U 0.00
expand: controleur_step (0, 0) FAR  w(0) 18490.
	create_child: controleur_step (0, 6) FAR 18810 X 0.00
expand: controleur_step (0, 0) FAR  w(0) 18810. F 0.00
expand: main_step (1, 0) FAR  w(0) 18210. F 0.00
expand: top_step (2, 0) FAR  w(0) 17944. F 0.00
expand: MAIN (3, 0) FAR  w(0) 17774. F 0.00
expand: MAIN (4, 0) FAR  w(0) 2409.
	create_child: MAIN (3, 6) FAR 19232 U 0.00
expand: MAIN (3, 0) FAR  w(0) 19232.
	create_child: top_step (2, 6) FAR 19353 U 0.00
expand: top_step (2, 0) FAR  w(0) 19353.
	create_child: main_step (1, 6) FAR 19474 U 0.00
expand: main_step (1, 0) FAR  w(0) 19474.
	create_child: controleur_step (0, 6) FAR 18490 U 0.00
expand: controleur_step (0, 0) FAR  w(0) 18490.
	create_child: hypothese_step (0, 6) FAR 19640 X 0.00
expand: hypothese_step (0, 0) FAR  w(0) 19640. F 0.00
expand: main_step (1, 0) FAR  w(0) 19474. F 0.00
expand: top_step (2, 0) FAR  w(0) 19353. F 0.00
expand: MAIN (3, 0) FAR  w(0) 19232. F 0.00
expand: MAIN (4, 0) FAR  w(0) 2409.
	create_child: MAIN (3, 6) FAR 19835 U 0.00
expand: MAIN (3, 0) FAR  w(0) 19835.
	create_child: top_step (2, 6) FAR 19946 U 0.00
expand: top_step (2, 0) FAR  w(0) 19946.
	create_child: main_step (1, 6) FAR 20103 U 0.00
expand: main_step (1, 0) FAR  w(0) 20103.
	create_child: controleur_step (0, 6) FAR 20252 U 0.00
expand: controleur_step (0, 0) FAR  w(0) 20252. F 0.00
expand: main_step (1, 0) FAR  w(0) 20103.
	create_child: controleur_step (0, 6) FAR 20350 U 0.00
expand: controleur_step (0, 0) FAR  w(0) 20350.
	create_child: hypothese_step (0, 6) FAR 20292 X 0.00
expand: hypothese_step (0, 0) FAR  w(0) 20292. F 0.00
expand: main_step (1, 0) FAR  w(0) 20103. F 0.00
expand: top_step (2, 0) FAR  w(0) 19946. F 0.00
expand: MAIN (3, 0) FAR  w(0) 19835. F 0.00
expand: MAIN (4, 0) FAR  w(0) 2409.
	create_child: MAIN (3, 6) FAR 20589 U 0.00
expand: MAIN (3, 0) FAR  w(0) 20589.
	create_child: top_step (2, 6) FAR 20600 U 0.00
expand: top_step (2, 0) FAR  w(0) 20600.
	create_child: Sofar_step (1, 6) FAR 20663 U 0.00
expand: Sofar_step (1, 0) FAR  w(0) 20663. F 0.00
expand: top_step (2, 0) FAR  w(0) 20600. F 0.00
expand: MAIN (3, 0) FAR  w(0) 20589. F 0.00
expand: MAIN (4, 0) FAR  w(0) 2409.
	create_child: MAIN (3, 6) FAR 20733 U 0.00
expand: MAIN (3, 0) FAR  w(0) 20733.
	create_child: top_step (2, 6) FAR 20799 U 0.00
expand: top_step (2, 0) FAR  w(0) 20799.
	create_child: main_step (1, 6) FAR 20845 U 0.00
expand: main_step (1, 0) FAR  w(0) 20845.
	create_child: controleur_step (0, 6) FAR 20880 U 0.00
expand: controleur_step (0, 0) FAR  w(0) 20880.
	create_child: hypothese_step (0, 6) FAR 20870 X 0.00
expand: hypothese_step (0, 0) FAR  w(0) 20870. F 0.00
expand: main_step (1, 0) FAR  w(0) 20845. F 0.00
expand: top_step (2, 0) FAR  w(0) 20799. F 0.00
expand: MAIN (3, 0) FAR  w(0) 20733. F 0.00
expand: MAIN (4, 0) FAR  w(0) 2409.
	create_child: MAIN (3, 6) FAR 21118 U 0.00
expand: MAIN (3, 0) FAR  w(0) 21118.
	create_child: top_reset (2, 6) FAR 21159 U 0.00
expand: top_reset (2, 0) FAR  w(0) 21159.
	create_child: main_reset (1, 6) FAR 21418 U 0.00
expand: main_reset (1, 0) FAR  w(0) 21418. F 0.00
expand: top_reset (2, 0) FAR  w(0) 21159. F 0.00
expand: MAIN (3, 0) FAR  w(0) 21118.
	create_child: top_step (2, 6) FAR 22558 U 0.00
expand: top_step (2, 0) FAR  w(0) 22558.
	create_child: main_step (1, 6) FAR 22644 U 0.00
expand: main_step (1, 0) FAR  w(0) 22644. F 0.00
expand: top_step (2, 0) FAR  w(0) 22558. F 0.00
expand: MAIN (3, 0) FAR  w(0) 21118. F 0.00
expand: MAIN (4, 0) FAR  w(0) 2409.
	create_child: MAIN (3, 6) FAR 22919 U 0.00
expand: MAIN (3, 0) FAR  w(0) 22919.
	create_child: top_step (2, 6) FAR 22940 U 0.00
expand: top_step (2, 0) FAR  w(0) 22940.
	create_child: main_step (1, 6) FAR 23088 U 0.00
expand: main_step (1, 0) FAR  w(0) 23088. F 0.00
expand: top_step (2, 0) FAR  w(0) 22940. F 0.00
expand: MAIN (3, 0) FAR  w(0) 22919. F 0.00
expand: MAIN (4, 0) FAR  w(0) 2409.
	create_child: MAIN (3, 6) FAR 23508 U 0.00
expand: MAIN (3, 0) FAR  w(0) 23508.
	create_child: top_step (2, 6) FAR 23522 U 0.00
expand: top_step (2, 0) FAR  w(0) 23522.
	create_child: main_step (1, 6) FAR 23472 U 0.00
expand: main_step (1, 0) FAR  w(0) 23472. F 0.00
expand: top_step (2, 0) FAR  w(0) 23522. F 0.00
expand: MAIN (3, 0) FAR  w(0) 23508. F 0.00
expand: MAIN (4, 0) FAR  w(0) 2409.
	create_child: MAIN (3, 6) FAR 23924 U 0.00
expand: MAIN (3, 0) FAR  w(0) 23924.
	create_child: top_step (2, 6) FAR 23919 U 0.00
expand: top_step (2, 0) FAR  w(0) 23919.
	create_child: main_step (1, 6) FAR 23988 U 0.00
expand: main_step (1, 0) FAR  w(0) 23988. F 0.00
expand: top_step (2, 0) FAR  w(0) 23919. F 0.00
expand: MAIN (3, 0) FAR  w(0) 23924. F 0.00
expand: MAIN (4, 0) FAR  w(0) 2409.
	create_child: MAIN (3, 6) FAR 24177 U 0.00
expand: MAIN (3, 0) FAR  w(0) 24177.
	create_child: top_step (2, 6) FAR 24175 U 0.00
expand: top_step (2, 0) FAR  w(0) 24175.
	create_child: main_step (1, 6) FAR 24212 U 0.00
expand: main_step (1, 0) FAR  w(0) 24212. F 0.00
expand: top_step (2, 0) FAR  w(0) 24175. F 0.00
expand: MAIN (3, 0) FAR  w(0) 24177. F 0.00
expand: MAIN (4, 0) FAR  w(0) 2409.
	create_child: MAIN (3, 6) FAR 24449 U 0.00
expand: MAIN (3, 0) FAR  w(0) 24449.
	create_child: top_step (2, 6) FAR 24417 U 0.00
expand: top_step (2, 0) FAR  w(0) 24417.
	create_child: main_step (1, 6) FAR 24100 U 0.00
expand: main_step (1, 0) FAR  w(0) 24100. F 0.00
expand: top_step (2, 0) FAR  w(0) 24417. F 0.00
expand: MAIN (3, 0) FAR  w(0) 24449. F 0.00
expand: MAIN (4, 0) FAR  w(0) 2409.
	create_child: top_step (3, 6) FAR 24595 U 0.00
expand: top_step (3, 0) FAR  w(0) 24595. F 0.00
expand: MAIN (4, 0) FAR  w(0) 2409. F 0.00
expand: ERR (5, 0) FAR  w(0) 1. F 0.00
expand: query!0 (6, 0) FAR  w(0) 1. F 0.00
(spacer::context::check_reachability :time 0.26 :before-memory 21.21 :after-memory 27.45)
Propagating: 0 1 2 3 4 5 6  ! 7 
(spacer::context::propagate :time 0.01 :before-memory 27.45 :after-memory 27.45)
Entering level 7
BRUNCH_STAT max_query_lvl 6
BRUNCH_STAT num_queries 77
BRUNCH_STAT num_reach_queries 4
BRUNCH_STAT num_reach_reuse 53
BRUNCH_STAT inductive_lvl 0
BRUNCH_STAT max_depth 7
BRUNCH_STAT cex_depth 0
expand: query!0 (7, 0) FAR  w(0) 1.
	create_child: ERR (6, 7) FAR 1 U 0.00
expand: ERR (6, 0) FAR  w(0) 1.
	create_child: MAIN (5, 7) FAR 2409 U 0.00
expand: MAIN (5, 0) FAR  w(0) 2409.
	create_child: MAIN (4, 7) FAR 26016 U 0.00
expand: MAIN (4, 0) FAR  w(0) 26016.
	create_child: top_step (3, 7) FAR 26038 U 0.00
expand: top_step (3, 0) FAR  w(0) 26038.
	create_child: main_step (2, 7) FAR 26201 U 0.00
expand: main_step (2, 0) FAR  w(0) 26201.
	create_child: controleur_step (1, 7) FAR 26294 U 0.00
expand: controleur_step (1, 0) FAR  w(0) 26294. F 0.00
expand: main_step (2, 0) FAR  w(0) 26201. F 0.00
expand: top_step (3, 0) FAR  w(0) 26038. F 0.00
expand: MAIN (4, 0) FAR  w(0) 26016. F 0.00
expand: MAIN (5, 0) FAR  w(0) 2409.
	create_child: MAIN (4, 7) FAR 26636 U 0.00
expand: MAIN (4, 0) FAR  w(0) 26636.
	create_child: top_step (3, 7) FAR 26676 U 0.00
expand: top_step (3, 0) FAR  w(0) 26676.
	create_child: main_step (2, 7) FAR 26713 U 0.00
expand: main_step (2, 0) FAR  w(0) 26713. F 0.00
expand: top_step (3, 0) FAR  w(0) 26676. F 0.00
expand: MAIN (4, 0) FAR  w(0) 26636. F 0.00
expand: MAIN (5, 0) FAR  w(0) 2409.
	create_child: MAIN (4, 7) FAR 26922 U 0.00
expand: MAIN (4, 0) FAR  w(0) 26922.
	create_child: MAIN (3, 7) FAR 26898 U 0.00
expand: MAIN (3, 0) FAR  w(0) 26898. F 0.00
expand: MAIN (4, 0) FAR  w(0) 26922.
	create_child: MAIN (3, 7) FAR 27320 U 0.00
expand: MAIN (3, 0) FAR  w(0) 27320.
	create_child: top_step (2, 7) FAR 27347 U 0.00
expand: top_step (2, 0) FAR  w(0) 27347. F 0.00
expand: MAIN (3, 0) FAR  w(0) 27320. F 0.00
expand: MAIN (4, 0) FAR  w(0) 26922.
	create_child: MAIN (3, 7) FAR 27556 U 0.00
expand: MAIN (3, 0) FAR  w(0) 27556.
	create_child: top_step (2, 7) FAR 27651 U 0.00
expand: top_step (2, 0) FAR  w(0) 27651.
	create_child: main_step (1, 7) FAR 27658 U 0.00
expand: main_step (1, 0) FAR  w(0) 27658. F 0.00
expand: top_step (2, 0) FAR  w(0) 27651. F 0.00
expand: MAIN (3, 0) FAR  w(0) 27556. F 0.00
expand: MAIN (4, 0) FAR  w(0) 26922.
	create_child: top_step (3, 7) FAR 27899 U 0.00
expand: top_step (3, 0) FAR  w(0) 27899.
	create_child: main_step (2, 7) FAR 28089 U 0.00
expand: main_step (2, 0) FAR  w(0) 28089. F 0.01
expand: top_step (3, 0) FAR  w(0) 27899. F 0.00
expand: MAIN (4, 0) FAR  w(0) 26922. F 0.00
expand: MAIN (5, 0) FAR  w(0) 2409.
	create_child: MAIN (4, 7) FAR 28508 U 0.00
expand: MAIN (4, 0) FAR  w(0) 28508.
	create_child: top_step (3, 7) FAR 28439 U 0.00
expand: top_step (3, 0) FAR  w(0) 28439.
	create_child: main_step (2, 7) FAR 28460 U 0.00
expand: main_step (2, 0) FAR  w(0) 28460. F 0.00
expand: top_step (3, 0) FAR  w(0) 28439. F 0.00
expand: MAIN (4, 0) FAR  w(0) 28508. F 0.00
expand: MAIN (5, 0) FAR  w(0) 2409.
	create_child: MAIN (4, 7) FAR 28628 U 0.00
expand: MAIN (4, 0) FAR  w(0) 28628.
	create_child: top_step (3, 7) FAR 28575 U 0.00
expand: top_step (3, 0) FAR  w(0) 28575.
	create_child: main_step (2, 7) FAR 28704 U 0.00
expand: main_step (2, 0) FAR  w(0) 28704.
	create_child: controleur_step (1, 7) FAR 28591 U 0.00
expand: controleur_step (1, 0) FAR  w(0) 28591. F 0.00
expand: main_step (2, 0) FAR  w(0) 28704. F 0.00
expand: top_step (3, 0) FAR  w(0) 28575. F 0.00
expand: MAIN (4, 0) FAR  w(0) 28628. F 0.00
expand: MAIN (5, 0) FAR  w(0) 2409.
	create_child: MAIN (4, 7) FAR 28997 U 0.00
expand: MAIN (4, 0) FAR  w(0) 28997.
	create_child: top_step (3, 7) FAR 28979 U 0.00
expand: top_step (3, 0) FAR  w(0) 28979.
	create_child: main_step (2, 7) FAR 29230 U 0.00
expand: main_step (2, 0) FAR  w(0) 29230.
	create_child: controleur_step (1, 7) FAR 29168 U 0.00
expand: controleur_step (1, 0) FAR  w(0) 29168. F 0.00
expand: main_step (2, 0) FAR  w(0) 29230. F 0.00
expand: top_step (3, 0) FAR  w(0) 28979. F 0.00
expand: MAIN (4, 0) FAR  w(0) 28997.
	create_child: top_step (3, 7) FAR 29178 U 0.00
expand: top_step (3, 0) FAR  w(0) 29178.
	create_child: main_step (2, 7) FAR 29621 U 0.00
expand: main_step (2, 0) FAR  w(0) 29621.
	create_child: controleur_step (1, 7) FAR 29612 U 0.00
expand: controleur_step (1, 0) FAR  w(0) 29612. F 0.00
expand: main_step (2, 0) FAR  w(0) 29621. F 0.00
expand: top_step (3, 0) FAR  w(0) 29178. F 0.00
expand: MAIN (4, 0) FAR  w(0) 28997. F 0.00
expand: MAIN (5, 0) FAR  w(0) 2409.
	create_child: MAIN (4, 7) FAR 29785 U 0.00
expand: MAIN (4, 0) FAR  w(0) 29785.
	create_child: MAIN (3, 7) FAR 29815 U 0.00
expand: MAIN (3, 0) FAR  w(0) 29815.
	create_child: top_step (2, 7) FAR 29876 U 0.00
expand: top_step (2, 0) FAR  w(0) 29876.
	create_child: main_step (1, 7) FAR 30163 U 0.00
expand: main_step (1, 0) FAR  w(0) 30163. F 0.00
expand: top_step (2, 0) FAR  w(0) 29876. F 0.00
expand: MAIN (3, 0) FAR  w(0) 29815. F 0.00
expand: MAIN (4, 0) FAR  w(0) 29785.
	create_child: top_step (3, 7) FAR 29917 U 0.00
expand: top_step (3, 0) FAR  w(0) 29917.
	create_child: main_step (2, 7) FAR 30686 U 0.00
expand: main_step (2, 0) FAR  w(0) 30686. F 0.00
expand: top_step (3, 0) FAR  w(0) 29917. F 0.00
expand: MAIN (4, 0) FAR  w(0) 29785. F 0.00
expand: MAIN (5, 0) FAR  w(0) 2409. F 0.00
expand: ERR (6, 0) FAR  w(0) 1. F 0.00
expand: query!0 (7, 0) FAR  w(0) 1. F 0.00
(spacer::context::check_reachability :time 0.18 :before-memory 27.45 :after-memory 28.73)
Propagating: 1 2 3 4 5 6 7  ! 8 
(spacer::context::propagate :time 0.01 :before-memory 28.73 :after-memory 28.73)
Entering level 8
BRUNCH_STAT max_query_lvl 7
BRUNCH_STAT num_queries 115
BRUNCH_STAT num_reach_queries 4
BRUNCH_STAT num_reach_reuse 86
BRUNCH_STAT inductive_lvl 0
BRUNCH_STAT max_depth 8
BRUNCH_STAT cex_depth 0
expand: query!0 (8, 0) FAR  w(0) 1.
	create_child: ERR (7, 8) FAR 1 U 0.00
expand: ERR (7, 0) FAR  w(0) 1.
	create_child: MAIN (6, 8) FAR 2409 U 0.00
expand: MAIN (6, 0) FAR  w(0) 2409.
	create_child: MAIN (5, 8) FAR 29785 U 0.00
expand: MAIN (5, 0) FAR  w(0) 29785.
	create_child: MAIN (4, 8) FAR 31425 U 0.00
expand: MAIN (4, 0) FAR  w(0) 31425.
	create_child: top_step (3, 8) FAR 31295 U 0.00
expand: top_step (3, 0) FAR  w(0) 31295.
	create_child: main_step (2, 8) FAR 31760 U 0.00
expand: main_step (2, 0) FAR  w(0) 31760. F 0.00
expand: top_step (3, 0) FAR  w(0) 31295. F 0.00
expand: MAIN (4, 0) FAR  w(0) 31425. F 0.00
expand: MAIN (5, 0) FAR  w(0) 29785.
	create_child: top_step (4, 8) FAR 31919 U 0.00
expand: top_step (4, 0) FAR  w(0) 31919.
	create_child: main_step (3, 8) FAR 32019 U 0.00
expand: main_step (3, 0) FAR  w(0) 32019. F 0.00
expand: top_step (4, 0) FAR  w(0) 31919. F 0.00
expand: MAIN (5, 0) FAR  w(0) 29785. F 0.00
expand: MAIN (6, 0) FAR  w(0) 2409.
	create_child: MAIN (5, 8) FAR 32272 U 0.00
expand: MAIN (5, 0) FAR  w(0) 32272.
	create_child: MAIN (4, 8) FAR 27556 U 0.00
expand: MAIN (4, 0) FAR  w(0) 27556.
	create_child: top_step (3, 8) FAR 31589 U 0.00
expand: top_step (3, 0) FAR  w(0) 31589.
	create_child: main_step (2, 8) FAR 32265 U 0.00
expand: main_step (2, 0) FAR  w(0) 32265. F 0.00
expand: top_step (3, 0) FAR  w(0) 31589. F 0.00
expand: MAIN (4, 0) FAR  w(0) 27556. F 0.00
expand: MAIN (5, 0) FAR  w(0) 32272.
	create_child: MAIN (4, 8) FAR 32708 U 0.00
expand: MAIN (4, 0) FAR  w(0) 32708.
	create_child: top_step (3, 8) FAR 32735 U 0.00
expand: top_step (3, 0) FAR  w(0) 32735.
	create_child: main_step (2, 8) FAR 32949 U 0.00
expand: main_step (2, 0) FAR  w(0) 32949. F 0.00
expand: top_step (3, 0) FAR  w(0) 32735. F 0.00
expand: MAIN (4, 0) FAR  w(0) 32708. F 0.00
expand: MAIN (5, 0) FAR  w(0) 32272.
	create_child: MAIN (4, 8) FAR 33433 U 0.00
expand: MAIN (4, 0) FAR  w(0) 33433.
	create_child: top_step (3, 8) FAR 33527 U 0.00
expand: top_step (3, 0) FAR  w(0) 33527.
	create_child: main_step (2, 8) FAR 33786 U 0.00
expand: main_step (2, 0) FAR  w(0) 33786. F 0.00
expand: top_step (3, 0) FAR  w(0) 33527. F 0.00
expand: MAIN (4, 0) FAR  w(0) 33433. F 0.00
expand: MAIN (5, 0) FAR  w(0) 32272.
	create_child: MAIN (4, 8) FAR 34092 U 0.00
expand: MAIN (4, 0) FAR  w(0) 34092.
	create_child: top_step (3, 8) FAR 34160 U 0.00
expand: top_step (3, 0) FAR  w(0) 34160.
	create_child: main_step (2, 8) FAR 34471 U 0.00
expand: main_step (2, 0) FAR  w(0) 34471. F 0.01
expand: top_step (3, 0) FAR  w(0) 34160. F 0.00
expand: MAIN (4, 0) FAR  w(0) 34092. F 0.00
expand: MAIN (5, 0) FAR  w(0) 32272.
	create_child: top_step (4, 8) FAR 34779 U 0.00
expand: top_step (4, 0) FAR  w(0) 34779.
	create_child: main_step (3, 8) FAR 34975 U 0.00
expand: main_step (3, 0) FAR  w(0) 34975.
	create_child: controleur_step (2, 8) FAR 35104 U 0.00
expand: controleur_step (2, 0) FAR  w(0) 35104. F 0.00
expand: main_step (3, 0) FAR  w(0) 34975. F 0.00
expand: top_step (4, 0) FAR  w(0) 34779. F 0.00
expand: MAIN (5, 0) FAR  w(0) 32272. F 0.00
expand: MAIN (6, 0) FAR  w(0) 2409. F 0.00
expand: ERR (7, 0) FAR  w(0) 1. F 0.00
expand: query!0 (8, 0) FAR  w(0) 1. F 0.00
(spacer::context::check_reachability :time 0.14 :before-memory 28.73 :after-memory 29.31)
Propagating: 2 3 4 5 6 7 8  ! 9 
(spacer::context::propagate :time 0.01 :before-memory 29.31 :after-memory 29.31)
Entering level 9
BRUNCH_STAT max_query_lvl 8
BRUNCH_STAT num_queries 139
BRUNCH_STAT num_reach_queries 4
BRUNCH_STAT num_reach_reuse 103
BRUNCH_STAT inductive_lvl 0
BRUNCH_STAT max_depth 9
BRUNCH_STAT cex_depth 0
expand: query!0 (9, 0) FAR  w(0) 1.
	create_child: ERR (8, 9) FAR 1 U 0.00
expand: ERR (8, 0) FAR  w(0) 1.
	create_child: MAIN (7, 9) FAR 2409 U 0.00
expand: MAIN (7, 0) FAR  w(0) 2409.
	create_child: MAIN (6, 9) FAR 35997 U 0.00
expand: MAIN (6, 0) FAR  w(0) 35997.
	create_child: MAIN (5, 9) FAR 36075 U 0.00
expand: MAIN (5, 0) FAR  w(0) 36075.
	create_child: MAIN (4, 9) FAR 36264 U 0.00
expand: MAIN (4, 0) FAR  w(0) 36264.
	create_child: top_step (3, 9) FAR 35962 U 0.00
expand: top_step (3, 0) FAR  w(0) 35962.
	create_child: main_step (2, 9) FAR 36798 U 0.00
expand: main_step (2, 0) FAR  w(0) 36798. F 0.00
expand: top_step (3, 0) FAR  w(0) 35962. F 0.00
expand: MAIN (4, 0) FAR  w(0) 36264. F 0.00
expand: MAIN (5, 0) FAR  w(0) 36075.
	create_child: top_step (4, 9) FAR 37121 U 0.00
expand: top_step (4, 0) FAR  w(0) 37121.
	create_child: main_step (3, 9) FAR 37366 U 0.00
expand: main_step (3, 0) FAR  w(0) 37366. F 0.00
expand: top_step (4, 0) FAR  w(0) 37121. F 0.00
expand: MAIN (5, 0) FAR  w(0) 36075. F 0.00
expand: MAIN (6, 0) FAR  w(0) 35997.
	create_child: MAIN (5, 9) FAR 37649 U 0.00
expand: MAIN (5, 0) FAR  w(0) 37649.
	create_child: MAIN (4, 9) FAR 37695 U 0.00
expand: MAIN (4, 0) FAR  w(0) 37695.
	create_child: top_step (3, 9) FAR 37675 U 0.00
expand: top_step (3, 0) FAR  w(0) 37675. F 0.00
expand: MAIN (4, 0) FAR  w(0) 37695. F 0.00
expand: MAIN (5, 0) FAR  w(0) 37649.
	create_child: top_step (4, 9) FAR 37976 U 0.00
expand: top_step (4, 0) FAR  w(0) 37976. F 0.00
expand: MAIN (5, 0) FAR  w(0) 37649. F 0.00
expand: MAIN (6, 0) FAR  w(0) 35997. F 0.00
expand: MAIN (7, 0) FAR  w(0) 2409.
	create_child: MAIN (6, 9) FAR 38164 U 0.00
expand: MAIN (6, 0) FAR  w(0) 38164.
	create_child: top_step (5, 9) FAR 38176 U 0.00
expand: top_step (5, 0) FAR  w(0) 38176.
	create_child: main_step (4, 9) FAR 38331 U 0.00
expand: main_step (4, 0) FAR  w(0) 38331.
	create_child: controleur_step (3, 9) FAR 38509 U 0.00
expand: controleur_step (3, 0) FAR  w(0) 38509. F 0.00
expand: main_step (4, 0) FAR  w(0) 38331. F 0.00
expand: top_step (5, 0) FAR  w(0) 38176. F 0.00
expand: MAIN (6, 0) FAR  w(0) 38164. F 0.00
expand: MAIN (7, 0) FAR  w(0) 2409.
	create_child: MAIN (6, 9) FAR 32272 U 0.00
expand: MAIN (6, 0) FAR  w(0) 32272.
	create_child: MAIN (5, 9) FAR 34092 U 0.00
expand: MAIN (5, 0) FAR  w(0) 34092.
	create_child: top_step (4, 9) FAR 38690 U 0.00
expand: top_step (4, 0) FAR  w(0) 38690.
	create_child: main_step (3, 9) FAR 38653 U 0.00
expand: main_step (3, 0) FAR  w(0) 38653.
	create_child: controleur_step (2, 9) FAR 38854 U 0.00
expand: controleur_step (2, 0) FAR  w(0) 38854. F 0.00
expand: main_step (3, 0) FAR  w(0) 38653. F 0.00
expand: top_step (4, 0) FAR  w(0) 38690. F 0.00
expand: MAIN (5, 0) FAR  w(0) 34092. F 0.00
expand: MAIN (6, 0) FAR  w(0) 32272.
	create_child: top_step (5, 9) FAR 38996 U 0.00
expand: top_step (5, 0) FAR  w(0) 38996.
	create_child: main_step (4, 9) FAR 39167 U 0.00
expand: main_step (4, 0) FAR  w(0) 39167.
	create_child: hypothese_step (3, 9) FAR 39045 U 0.00
expand: hypothese_step (3, 0) FAR  w(0) 39045. F 0.00
expand: main_step (4, 0) FAR  w(0) 39167. F 0.01
expand: top_step (5, 0) FAR  w(0) 38996.
	create_child: main_step (4, 9) FAR 39234 U 0.00
expand: main_step (4, 0) FAR  w(0) 39234.
	create_child: Sofar_step (4, 9) FAR 39578 X 0.01
expand: Sofar_step (4, 0) FAR  w(0) 39578. F 0.00
expand: top_step (5, 0) FAR  w(0) 38996. F 0.01
expand: MAIN (6, 0) FAR  w(0) 32272. F 0.00
expand: MAIN (7, 0) FAR  w(0) 2409.
	create_child: top_step (6, 9) FAR 39810 U 0.00
expand: top_step (6, 0) FAR  w(0) 39810.
	create_child: Sofar_step (5, 9) FAR 39929 U 0.00
expand: Sofar_step (5, 0) FAR  w(0) 39929. F 0.00
expand: top_step (6, 0) FAR  w(0) 39810.
	create_child: Sofar_step (5, 9) FAR 39837 U 0.00
expand: Sofar_step (5, 0) FAR  w(0) 39837. F 0.00
expand: top_step (6, 0) FAR  w(0) 39810. F 0.00
expand: MAIN (7, 0) FAR  w(0) 2409. F 0.00
expand: ERR (8, 0) FAR  w(0) 1. F 0.00
expand: query!0 (9, 0) FAR  w(0) 1. F 0.00
(spacer::context::check_reachability :time 0.17 :before-memory 29.31 :after-memory 30.46)
Propagating: 2 3 4 5 6 7 8 9  ! 10 
(spacer::context::propagate :time 0.01 :before-memory 30.46 :after-memory 30.46)
Entering level 10
BRUNCH_STAT max_query_lvl 9
BRUNCH_STAT num_queries 168
BRUNCH_STAT num_reach_queries 5
BRUNCH_STAT num_reach_reuse 130
BRUNCH_STAT inductive_lvl 0
BRUNCH_STAT max_depth 10
BRUNCH_STAT cex_depth 0
expand: query!0 (10, 0) FAR  w(0) 1.
	create_child: ERR (9, 10) FAR 1 U 0.00
expand: ERR (9, 0) FAR  w(0) 1.
	create_child: MAIN (8, 10) FAR 2409 U 0.00
expand: MAIN (8, 0) FAR  w(0) 2409.
	create_child: MAIN (7, 10) FAR 40334 U 0.00
expand: MAIN (7, 0) FAR  w(0) 40334.
	create_child: MAIN (6, 10) FAR 40286 U 0.00
expand: MAIN (6, 0) FAR  w(0) 40286.
	create_child: MAIN (5, 10) FAR 40555 U 0.00
expand: MAIN (5, 0) FAR  w(0) 40555.
	create_child: MAIN (4, 10) FAR 40580 U 0.00
expand: MAIN (4, 0) FAR  w(0) 40580.
	create_child: top_step (3, 10) FAR 40748 U 0.00
expand: top_step (3, 0) FAR  w(0) 40748. F 0.01
expand: MAIN (4, 0) FAR  w(0) 40580. F 0.00
expand: MAIN (5, 0) FAR  w(0) 40555.
	create_child: top_step (4, 10) FAR 41169 U 0.00
expand: top_step (4, 0) FAR  w(0) 41169. F 0.01
expand: MAIN (5, 0) FAR  w(0) 40555. F 0.00
expand: MAIN (6, 0) FAR  w(0) 40286. F 0.00
expand: MAIN (7, 0) FAR  w(0) 40334.
	create_child: MAIN (6, 10) FAR 41593 U 0.00
expand: MAIN (6, 0) FAR  w(0) 41593.
	create_child: MAIN (5, 10) FAR 41668 U 0.00
expand: MAIN (5, 0) FAR  w(0) 41668.
	create_child: MAIN (4, 10) FAR 41663 U 0.00
expand: MAIN (4, 0) FAR  w(0) 41663. F 0.00
expand: MAIN (5, 0) FAR  w(0) 41668. F 0.00
expand: MAIN (6, 0) FAR  w(0) 41593. F 0.00
expand: MAIN (7, 0) FAR  w(0) 40334. F 0.00
expand: MAIN (8, 0) FAR  w(0) 2409.
	create_child: MAIN (7, 10) FAR 41880 U 0.00
expand: MAIN (7, 0) FAR  w(0) 41880.
	create_child: MAIN (6, 10) FAR 41845 U 0.00
expand: MAIN (6, 0) FAR  w(0) 41845. F 0.00
expand: MAIN (7, 0) FAR  w(0) 41880.
	create_child: MAIN (6, 10) FAR 41972 U 0.00
expand: MAIN (6, 0) FAR  w(0) 41972. F 0.00
expand: MAIN (7, 0) FAR  w(0) 41880.
	create_child: top_step (6, 10) FAR 41856 U 0.00
expand: top_step (6, 0) FAR  w(0) 41856.
	create_child: Sofar_step (5, 10) FAR 42217 U 0.00
expand: Sofar_step (5, 0) FAR  w(0) 42217. F 0.00
expand: top_step (6, 0) FAR  w(0) 41856. F 0.00
expand: MAIN (7, 0) FAR  w(0) 41880. F 0.00
expand: MAIN (8, 0) FAR  w(0) 2409. F 0.00
expand: ERR (9, 0) FAR  w(0) 1. F 0.00
expand: query!0 (10, 0) FAR  w(0) 1. F 0.00
(spacer::context::check_reachability :time 0.07 :before-memory 30.46 :after-memory 31.20)
Propagating: 3 4 5 6 7 8 9 10  ! 11 
(spacer::context::propagate :time 0.02 :before-memory 31.20 :after-memory 31.20)
Entering level 11
BRUNCH_STAT max_query_lvl 10
BRUNCH_STAT num_queries 184
BRUNCH_STAT num_reach_queries 5
BRUNCH_STAT num_reach_reuse 141
BRUNCH_STAT inductive_lvl 0
BRUNCH_STAT max_depth 11
BRUNCH_STAT cex_depth 0
expand: query!0 (11, 0) FAR  w(0) 1.
	create_child: ERR (10, 11) FAR 1 U 0.00
expand: ERR (10, 0) FAR  w(0) 1.
	create_child: MAIN (9, 11) FAR 2409 U 0.00
expand: MAIN (9, 0) FAR  w(0) 2409.
	create_child: MAIN (8, 11) FAR 40334 U 0.00
expand: MAIN (8, 0) FAR  w(0) 40334.
	create_child: MAIN (7, 11) FAR 40286 U 0.00
expand: MAIN (7, 0) FAR  w(0) 40286.
	create_child: MAIN (6, 11) FAR 40555 U 0.00
expand: MAIN (6, 0) FAR  w(0) 40555.
	create_child: MAIN (5, 11) FAR 40580 U 0.00
expand: MAIN (5, 0) FAR  w(0) 40580.
	create_child: MAIN (4, 11) FAR 43652 U 0.00
expand: MAIN (4, 0) FAR  w(0) 43652. F 0.00
expand: MAIN (5, 0) FAR  w(0) 40580. F 0.00
expand: MAIN (6, 0) FAR  w(0) 40555. F 0.00
expand: MAIN (7, 0) FAR  w(0) 40286. F 0.00
expand: MAIN (8, 0) FAR  w(0) 40334.
	create_child: MAIN (7, 11) FAR 41593 U 0.00
expand: MAIN (7, 0) FAR  w(0) 41593.
	create_child: MAIN (6, 11) FAR 41668 U 0.00
expand: MAIN (6, 0) FAR  w(0) 41668.
	create_child: MAIN (5, 11) FAR 41663 U 0.00
expand: MAIN (5, 0) FAR  w(0) 41663.
	create_child: MAIN (4, 11) FAR 44076 U 0.00
expand: MAIN (4, 0) FAR  w(0) 44076. F 0.00
expand: MAIN (5, 0) FAR  w(0) 41663. F 0.00
expand: MAIN (6, 0) FAR  w(0) 41668. F 0.00
expand: MAIN (7, 0) FAR  w(0) 41593. F 0.00
expand: MAIN (8, 0) FAR  w(0) 40334. F 0.00
expand: MAIN (9, 0) FAR  w(0) 2409. F 0.00
expand: ERR (10, 0) FAR  w(0) 1. F 0.00
expand: query!0 (11, 0) FAR  w(0) 1. F 0.00
(spacer::context::check_reachability :time 0.04 :before-memory 31.20 :after-memory 31.54)
Propagating: 4 5 6 7 8 9 10 11  ! 12 
(spacer::context::propagate :time 0.01 :before-memory 31.54 :after-memory 31.54)
Entering level 12
BRUNCH_STAT max_query_lvl 11
BRUNCH_STAT num_queries 195
BRUNCH_STAT num_reach_queries 5
BRUNCH_STAT num_reach_reuse 150
BRUNCH_STAT inductive_lvl 0
BRUNCH_STAT max_depth 12
BRUNCH_STAT cex_depth 0
expand: query!0 (12, 0) FAR  w(0) 1.
	create_child: ERR (11, 12) FAR 1 U 0.00
expand: ERR (11, 0) FAR  w(0) 1.
	create_child: MAIN (10, 12) FAR 2409 U 0.00
expand: MAIN (10, 0) FAR  w(0) 2409.
	create_child: MAIN (9, 12) FAR 35997 U 0.00
expand: MAIN (9, 0) FAR  w(0) 35997.
	create_child: MAIN (8, 12) FAR 36075 U 0.00
expand: MAIN (8, 0) FAR  w(0) 36075.
	create_child: MAIN (7, 12) FAR 36264 U 0.00
expand: MAIN (7, 0) FAR  w(0) 36264.
	create_child: MAIN (6, 12) FAR 44767 U 0.00
expand: MAIN (6, 0) FAR  w(0) 44767.
	create_child: MAIN (5, 12) FAR 44711 U 0.00
expand: MAIN (5, 0) FAR  w(0) 44711.
	create_child: MAIN (4, 12) FAR 44691 U 0.00
expand: MAIN (4, 0) FAR  w(0) 44691.
	create_child: MAIN (3, 12) FAR 44790 U 0.00
expand: MAIN (3, 0) FAR  w(0) 44790.
	create_child: top_step (2, 12) FAR 44618 U 0.00
expand: top_step (2, 0) FAR  w(0) 44618. F 0.00
expand: MAIN (3, 0) FAR  w(0) 44790. F 0.00
expand: MAIN (4, 0) FAR  w(0) 44691. F 0.00
expand: MAIN (5, 0) FAR  w(0) 44711. F 0.00
expand: MAIN (6, 0) FAR  w(0) 44767. F 0.00
expand: MAIN (7, 0) FAR  w(0) 36264. F 0.00
expand: MAIN (8, 0) FAR  w(0) 36075. F 0.00
expand: MAIN (9, 0) FAR  w(0) 35997.
	create_child: MAIN (8, 12) FAR 37649 U 0.00
expand: MAIN (8, 0) FAR  w(0) 37649.
	create_child: MAIN (7, 12) FAR 37695 U 0.00
expand: MAIN (7, 0) FAR  w(0) 37695.
	create_child: MAIN (6, 12) FAR 45917 U 0.00
expand: MAIN (6, 0) FAR  w(0) 45917. F 0.00
expand: MAIN (7, 0) FAR  w(0) 37695. F 0.00
expand: MAIN (8, 0) FAR  w(0) 37649. F 0.00
expand: MAIN (9, 0) FAR  w(0) 35997. F 0.00
expand: MAIN (10, 0) FAR  w(0) 2409. F 0.00
expand: ERR (11, 0) FAR  w(0) 1. F 0.00
expand: query!0 (12, 0) FAR  w(0) 1. F 0.00
(spacer::context::check_reachability :time 0.05 :before-memory 31.54 :after-memory 31.74)
Propagating: 2 3 4 5 6 7 8 9 10 11 12  ! 13 
(spacer::context::propagate :time 0.02 :before-memory 31.74 :after-memory 31.74)
Entering level 13
BRUNCH_STAT max_query_lvl 12
BRUNCH_STAT num_queries 208
BRUNCH_STAT num_reach_queries 5
BRUNCH_STAT num_reach_reuse 160
BRUNCH_STAT inductive_lvl 0
BRUNCH_STAT max_depth 13
BRUNCH_STAT cex_depth 0
expand: query!0 (13, 0) FAR  w(0) 1.
	create_child: ERR (12, 13) FAR 1 U 0.00
expand: ERR (12, 0) FAR  w(0) 1.
	create_child: MAIN (11, 13) FAR 2409 U 0.00
expand: MAIN (11, 0) FAR  w(0) 2409.
	create_child: MAIN (10, 13) FAR 35997 U 0.00
expand: MAIN (10, 0) FAR  w(0) 35997.
	create_child: MAIN (9, 13) FAR 36075 U 0.00
expand: MAIN (9, 0) FAR  w(0) 36075.
	create_child: MAIN (8, 13) FAR 36264 U 0.00
expand: MAIN (8, 0) FAR  w(0) 36264.
	create_child: MAIN (7, 13) FAR 44767 U 0.00
expand: MAIN (7, 0) FAR  w(0) 44767.
	create_child: MAIN (6, 13) FAR 44711 U 0.00
expand: MAIN (6, 0) FAR  w(0) 44711.
	create_child: MAIN (5, 13) FAR 44691 U 0.00
expand: MAIN (5, 0) FAR  w(0) 44691.
	create_child: MAIN (4, 13) FAR 44790 U 0.00
expand: MAIN (4, 0) FAR  w(0) 44790. F 0.00
expand: MAIN (5, 0) FAR  w(0) 44691. F 0.00
expand: MAIN (6, 0) FAR  w(0) 44711. F 0.00
expand: MAIN (7, 0) FAR  w(0) 44767. F 0.00
expand: MAIN (8, 0) FAR  w(0) 36264. F 0.00
expand: MAIN (9, 0) FAR  w(0) 36075. F 0.00
expand: MAIN (10, 0) FAR  w(0) 35997.
	create_child: MAIN (9, 13) FAR 37649 U 0.00
expand: MAIN (9, 0) FAR  w(0) 37649. F 0.00
expand: MAIN (10, 0) FAR  w(0) 35997. F 0.00
expand: MAIN (11, 0) FAR  w(0) 2409. F 0.00
expand: ERR (12, 0) FAR  w(0) 1. F 0.00
expand: query!0 (13, 0) FAR  w(0) 1. F 0.00
(spacer::context::check_reachability :time 0.03 :before-memory 31.74 :after-memory 31.83)
Propagating: 4 5 6 7 8 9 10 11 12 13  ! 14 
(spacer::context::propagate :time 0.01 :before-memory 31.83 :after-memory 31.83)
Entering level 14
BRUNCH_STAT max_query_lvl 13
BRUNCH_STAT num_queries 218
BRUNCH_STAT num_reach_queries 5
BRUNCH_STAT num_reach_reuse 168
BRUNCH_STAT inductive_lvl 0
BRUNCH_STAT max_depth 14
BRUNCH_STAT cex_depth 0
expand: query!0 (14, 0) FAR  w(0) 1.
	create_child: ERR (13, 14) FAR 1 U 0.00
expand: ERR (13, 0) FAR  w(0) 1.
	create_child: MAIN (12, 14) FAR 2409 U 0.00
expand: MAIN (12, 0) FAR  w(0) 2409.
	create_child: MAIN (11, 14) FAR 35997 U 0.00
expand: MAIN (11, 0) FAR  w(0) 35997.
	create_child: MAIN (10, 14) FAR 36075 U 0.00
expand: MAIN (10, 0) FAR  w(0) 36075.
	create_child: MAIN (9, 14) FAR 36264 U 0.00
expand: MAIN (9, 0) FAR  w(0) 36264.
	create_child: MAIN (8, 14) FAR 44767 U 0.00
expand: MAIN (8, 0) FAR  w(0) 44767.
	create_child: MAIN (7, 14) FAR 44711 U 0.00
expand: MAIN (7, 0) FAR  w(0) 44711.
	create_child: MAIN (6, 14) FAR 44691 U 0.00
expand: MAIN (6, 0) FAR  w(0) 44691.
	create_child: MAIN (5, 14) FAR 44790 U 0.01
expand: MAIN (5, 0) FAR  w(0) 44790. F 0.00
expand: MAIN (6, 0) FAR  w(0) 44691. F 0.00
expand: MAIN (7, 0) FAR  w(0) 44711. F 0.00
expand: MAIN (8, 0) FAR  w(0) 44767. F 0.00
expand: MAIN (9, 0) FAR  w(0) 36264. F 0.00
expand: MAIN (10, 0) FAR  w(0) 36075. F 0.00
expand: MAIN (11, 0) FAR  w(0) 35997.
	create_child: MAIN (10, 14) FAR 37649 U 0.00
expand: MAIN (10, 0) FAR  w(0) 37649.
	create_child: MAIN (9, 14) FAR 37695 U 0.00
expand: MAIN (9, 0) FAR  w(0) 37695.
	create_child: MAIN (8, 14) FAR 45917 U 0.00
expand: MAIN (8, 0) FAR  w(0) 45917.
	create_child: MAIN (7, 14) FAR 47129 U 0.00
expand: MAIN (7, 0) FAR  w(0) 47129.
	create_child: MAIN (6, 14) FAR 47607 U 0.00
expand: MAIN (6, 0) FAR  w(0) 47607.
	create_child: MAIN (5, 14) FAR 47680 U 0.00
expand: MAIN (5, 0) FAR  w(0) 47680.
	create_child: MAIN (4, 14) FAR 47318 U 0.00
expand: MAIN (4, 0) FAR  w(0) 47318. F 0.00
expand: MAIN (5, 0) FAR  w(0) 47680. F 0.00
expand: MAIN (6, 0) FAR  w(0) 47607. F 0.00
expand: MAIN (7, 0) FAR  w(0) 47129. F 0.00
expand: MAIN (8, 0) FAR  w(0) 45917. F 0.00
expand: MAIN (9, 0) FAR  w(0) 37695. F 0.00
expand: MAIN (10, 0) FAR  w(0) 37649. F 0.00
expand: MAIN (11, 0) FAR  w(0) 35997. F 0.00
expand: MAIN (12, 0) FAR  w(0) 2409. F 0.00
expand: ERR (13, 0) FAR  w(0) 1. F 0.00
expand: query!0 (14, 0) FAR  w(0) 1. F 0.00
(spacer::context::check_reachability :time 0.06 :before-memory 31.83 :after-memory 33.13)
Propagating: 4 5 6 7 8 9 10 11 12 13 14  ! 15 
(spacer::context::propagate :time 0.02 :before-memory 33.13 :after-memory 33.13)
Entering level 15
BRUNCH_STAT max_query_lvl 14
BRUNCH_STAT num_queries 234
BRUNCH_STAT num_reach_queries 5
BRUNCH_STAT num_reach_reuse 182
BRUNCH_STAT inductive_lvl 0
BRUNCH_STAT max_depth 15
BRUNCH_STAT cex_depth 0
expand: query!0 (15, 0) FAR  w(0) 1.
	create_child: ERR (14, 15) FAR 1 U 0.00
expand: ERR (14, 0) FAR  w(0) 1.
	create_child: MAIN (13, 15) FAR 2409 U 0.00
expand: MAIN (13, 0) FAR  w(0) 2409.
	create_child: MAIN (12, 15) FAR 35997 U 0.00
expand: MAIN (12, 0) FAR  w(0) 35997.
	create_child: MAIN (11, 15) FAR 37649 U 0.00
expand: MAIN (11, 0) FAR  w(0) 37649.
	create_child: MAIN (10, 15) FAR 37695 U 0.00
expand: MAIN (10, 0) FAR  w(0) 37695.
	create_child: MAIN (9, 15) FAR 45917 U 0.00
expand: MAIN (9, 0) FAR  w(0) 45917.
	create_child: MAIN (8, 15) FAR 47129 U 0.00
expand: MAIN (8, 0) FAR  w(0) 47129.
	create_child: MAIN (7, 15) FAR 47607 U 0.00
expand: MAIN (7, 0) FAR  w(0) 47607.
	create_child: MAIN (6, 15) FAR 47680 U 0.00
expand: MAIN (6, 0) FAR  w(0) 47680.
	create_child: MAIN (5, 15) FAR 47318 U 0.00
expand: MAIN (5, 0) FAR  w(0) 47318.
	create_child: MAIN (4, 15) FAR 49150 U 0.00
expand: MAIN (4, 0) FAR  w(0) 49150. F 0.00
expand: MAIN (5, 0) FAR  w(0) 47318. F 0.00
expand: MAIN (6, 0) FAR  w(0) 47680. F 0.00
expand: MAIN (7, 0) FAR  w(0) 47607. F 0.00
expand: MAIN (8, 0) FAR  w(0) 47129. F 0.00
expand: MAIN (9, 0) FAR  w(0) 45917. F 0.00
expand: MAIN (10, 0) FAR  w(0) 37695. F 0.00
expand: MAIN (11, 0) FAR  w(0) 37649. F 0.00
expand: MAIN (12, 0) FAR  w(0) 35997. F 0.00
expand: MAIN (13, 0) FAR  w(0) 2409. F 0.00
expand: ERR (14, 0) FAR  w(0) 1. F 0.00
expand: query!0 (15, 0) FAR  w(0) 1. F 0.00
(spacer::context::check_reachability :time 0.04 :before-memory 33.13 :after-memory 33.23)
Propagating: 4 5 6 7 8 9 10 11 12 13 14 15  ! 16 
(spacer::context::propagate :time 0.02 :before-memory 33.23 :after-memory 33.23)
Entering level 16
BRUNCH_STAT max_query_lvl 15
BRUNCH_STAT num_queries 245
BRUNCH_STAT num_reach_queries 5
BRUNCH_STAT num_reach_reuse 191
BRUNCH_STAT inductive_lvl 0
BRUNCH_STAT max_depth 16
BRUNCH_STAT cex_depth 0
expand: query!0 (16, 0) FAR  w(0) 1.
	create_child: ERR (15, 16) FAR 1 U 0.00
expand: ERR (15, 0) FAR  w(0) 1.
	create_child: MAIN (14, 16) FAR 2409 U 0.00
expand: MAIN (14, 0) FAR  w(0) 2409.
	create_child: MAIN (13, 16) FAR 35997 U 0.00
expand: MAIN (13, 0) FAR  w(0) 35997.
	create_child: MAIN (12, 16) FAR 36075 U 0.00
expand: MAIN (12, 0) FAR  w(0) 36075.
	create_child: MAIN (11, 16) FAR 36264 U 0.00
expand: MAIN (11, 0) FAR  w(0) 36264.
	create_child: MAIN (10, 16) FAR 44767 U 0.00
expand: MAIN (10, 0) FAR  w(0) 44767.
	create_child: MAIN (9, 16) FAR 44711 U 0.00
expand: MAIN (9, 0) FAR  w(0) 44711.
	create_child: MAIN (8, 16) FAR 44691 U 0.00
expand: MAIN (8, 0) FAR  w(0) 44691.
	create_child: MAIN (7, 16) FAR 44790 U 0.00
expand: MAIN (7, 0) FAR  w(0) 44790.
	create_child: MAIN (6, 16) FAR 49884 U 0.00
expand: MAIN (6, 0) FAR  w(0) 49884.
	create_child: MAIN (5, 16) FAR 50005 U 0.00
expand: MAIN (5, 0) FAR  w(0) 50005.
	create_child: MAIN (4, 16) FAR 50209 U 0.00
expand: MAIN (4, 0) FAR  w(0) 50209. F 0.00
expand: MAIN (5, 0) FAR  w(0) 50005. F 0.00
expand: MAIN (6, 0) FAR  w(0) 49884. F 0.00
expand: MAIN (7, 0) FAR  w(0) 44790. F 0.00
expand: MAIN (8, 0) FAR  w(0) 44691. F 0.00
expand: MAIN (9, 0) FAR  w(0) 44711. F 0.00
expand: MAIN (10, 0) FAR  w(0) 44767. F 0.00
expand: MAIN (11, 0) FAR  w(0) 36264. F 0.00
expand: MAIN (12, 0) FAR  w(0) 36075. F 0.00
expand: MAIN (13, 0) FAR  w(0) 35997.
	create_child: MAIN (12, 16) FAR 50472 U 0.00
expand: MAIN (12, 0) FAR  w(0) 50472.
	create_child: top_step (11, 16) FAR 50108 U 0.00
expand: top_step (11, 0) FAR  w(0) 50108.
	create_child: main_step (10, 16) FAR 50566 U 0.00
expand: main_step (10, 0) FAR  w(0) 50566. F 0.01
expand: top_step (11, 0) FAR  w(0) 50108. F 0.00
expand: MAIN (12, 0) FAR  w(0) 50472. F 0.00
expand: MAIN (13, 0) FAR  w(0) 35997.
	create_child: MAIN (12, 16) FAR 37649 U 0.00
expand: MAIN (12, 0) FAR  w(0) 37649.
	create_child: MAIN (11, 16) FAR 37695 U 0.00
expand: MAIN (11, 0) FAR  w(0) 37695.
	create_child: MAIN (10, 16) FAR 45917 U 0.00
expand: MAIN (10, 0) FAR  w(0) 45917.
	create_child: MAIN (9, 16) FAR 47129 U 0.00
expand: MAIN (9, 0) FAR  w(0) 47129.
	create_child: MAIN (8, 16) FAR 47607 U 0.00
expand: MAIN (8, 0) FAR  w(0) 47607.
	create_child: MAIN (7, 16) FAR 47680 U 0.00
expand: MAIN (7, 0) FAR  w(0) 47680.
	create_child: MAIN (6, 16) FAR 47318 U 0.00
expand: MAIN (6, 0) FAR  w(0) 47318.
	create_child: MAIN (5, 16) FAR 49150 U 0.00
expand: MAIN (5, 0) FAR  w(0) 49150.
	create_child: MAIN (4, 16) FAR 50559 U 0.00
expand: MAIN (4, 0) FAR  w(0) 50559.
	create_child: MAIN (3, 16) FAR 51057 U 0.00
expand: MAIN (3, 0) FAR  w(0) 51057.
	create_child: top_step (2, 16) FAR 51013 U 0.00
expand: top_step (2, 0) FAR  w(0) 51013.
	create_child: main_step (1, 16) FAR 51574 U 0.00
expand: main_step (1, 0) FAR  w(0) 51574. F 0.00
expand: top_step (2, 0) FAR  w(0) 51013. F 0.01
expand: MAIN (3, 0) FAR  w(0) 51057. F 0.00
expand: MAIN (4, 0) FAR  w(0) 50559. F 0.00
expand: MAIN (5, 0) FAR  w(0) 49150. F 0.00
expand: MAIN (6, 0) FAR  w(0) 47318. F 0.00
expand: MAIN (7, 0) FAR  w(0) 47680. F 0.00
expand: MAIN (8, 0) FAR  w(0) 47607. F 0.00
expand: MAIN (9, 0) FAR  w(0) 47129. F 0.00
expand: MAIN (10, 0) FAR  w(0) 45917. F 0.00
expand: MAIN (11, 0) FAR  w(0) 37695. F 0.00
expand: MAIN (12, 0) FAR  w(0) 37649. F 0.00
expand: MAIN (13, 0) FAR  w(0) 35997. F 0.00
expand: MAIN (14, 0) FAR  w(0) 2409. F 0.00
expand: ERR (15, 0) FAR  w(0) 1. F 0.00
expand: query!0 (16, 0) FAR  w(0) 1. F 0.00
(spacer::context::check_reachability :time 0.13 :before-memory 33.23 :after-memory 33.92)
Propagating: 1 2 3 4 5 6 7 8 9 10 11 12 13 14 15 16  ! 17 
(spacer::context::propagate :time 0.03 :before-memory 33.92 :after-memory 33.92)
Entering level 17
BRUNCH_STAT max_query_lvl 16
BRUNCH_STAT num_queries 272
BRUNCH_STAT num_reach_queries 5
BRUNCH_STAT num_reach_reuse 214
BRUNCH_STAT inductive_lvl 0
BRUNCH_STAT max_depth 17
BRUNCH_STAT cex_depth 0
expand: query!0 (17, 0) FAR  w(0) 1.
	create_child: ERR (16, 17) FAR 1 U 0.00
expand: ERR (16, 0) FAR  w(0) 1.
	create_child: MAIN (15, 17) FAR 2409 U 0.00
expand: MAIN (15, 0) FAR  w(0) 2409.
	create_child: MAIN (14, 17) FAR 35997 U 0.00
expand: MAIN (14, 0) FAR  w(0) 35997.
	create_child: MAIN (13, 17) FAR 36075 U 0.00
expand: MAIN (13, 0) FAR  w(0) 36075.
	create_child: MAIN (12, 17) FAR 36264 U 0.00
expand: MAIN (12, 0) FAR  w(0) 36264.
	create_child: MAIN (11, 17) FAR 44767 U 0.00
expand: MAIN (11, 0) FAR  w(0) 44767.
	create_child: MAIN (10, 17) FAR 44711 U 0.00
expand: MAIN (10, 0) FAR  w(0) 44711.
	create_child: MAIN (9, 17) FAR 44691 U 0.00
expand: MAIN (9, 0) FAR  w(0) 44691.
	create_child: MAIN (8, 17) FAR 44790 U 0.00
expand: MAIN (8, 0) FAR  w(0) 44790.
	create_child: MAIN (7, 17) FAR 49884 U 0.00
expand: MAIN (7, 0) FAR  w(0) 49884.
	create_child: MAIN (6, 17) FAR 50005 U 0.00
expand: MAIN (6, 0) FAR  w(0) 50005.
	create_child: MAIN (5, 17) FAR 50209 U 0.00
expand: MAIN (5, 0) FAR  w(0) 50209.
	create_child: MAIN (4, 17) FAR 53876 U 0.00
expand: MAIN (4, 0) FAR  w(0) 53876.
	create_child: MAIN (3, 17) FAR 53742 U 0.00
expand: MAIN (3, 0) FAR  w(0) 53742.
	create_child: top_step (2, 17) FAR 54286 U 0.00
expand: top_step (2, 0) FAR  w(0) 54286.
	create_child: main_step (1, 17) FAR 54311 U 0.00
expand: main_step (1, 0) FAR  w(0) 54311.
	create_child: controleur_step (0, 17) FAR 54440 U 0.00
expand: controleur_step (0, 0) FAR  w(0) 54440. F 0.00
expand: main_step (1, 0) FAR  w(0) 54311. F 0.00
expand: top_step (2, 0) FAR  w(0) 54286. F 0.00
expand: MAIN (3, 0) FAR  w(0) 53742. F 0.00
expand: MAIN (4, 0) FAR  w(0) 53876.
	create_child: top_step (3, 17) FAR 53909 U 0.00
expand: top_step (3, 0) FAR  w(0) 53909.
	create_child: main_step (2, 17) FAR 55017 U 0.01
expand: main_step (2, 0) FAR  w(0) 55017.
	create_child: controleur_step (1, 17) FAR 55792 U 0.01
expand: controleur_step (1, 0) FAR  w(0) 55792. F 0.00
expand: main_step (2, 0) FAR  w(0) 55017. F 0.01
expand: top_step (3, 0) FAR  w(0) 53909. F 0.01
expand: MAIN (4, 0) FAR  w(0) 53876. F 0.00
expand: MAIN (5, 0) FAR  w(0) 50209. F 0.00
expand: MAIN (6, 0) FAR  w(0) 50005. F 0.00
expand: MAIN (7, 0) FAR  w(0) 49884. F 0.00
expand: MAIN (8, 0) FAR  w(0) 44790.
	create_child: MAIN (7, 17) FAR 57082 U 0.00
expand: MAIN (7, 0) FAR  w(0) 57082.
	create_child: MAIN (6, 17) FAR 57053 U 0.00
expand: MAIN (6, 0) FAR  w(0) 57053.
	create_child: MAIN (5, 17) FAR 56865 U 0.00
expand: MAIN (5, 0) FAR  w(0) 56865.
	create_child: MAIN (4, 17) FAR 56854 U 0.00
expand: MAIN (4, 0) FAR  w(0) 56854.
	create_child: MAIN (3, 17) FAR 56867 U 0.00
expand: MAIN (3, 0) FAR  w(0) 56867.
	create_child: top_reset (2, 17) FAR 57100 U 0.00
expand: top_reset (2, 0) FAR  w(0) 57100.
	create_child: main_reset (1, 17) FAR 56722 U 0.00
expand: main_reset (1, 0) FAR  w(0) 56722.
	create_child: hypothese_reset (0, 17) FAR 57691 U 0.00
expand: hypothese_reset (0, 0) FAR  w(0) 57691. F 0.00
expand: main_reset (1, 0) FAR  w(0) 56722. F 0.00
expand: top_reset (2, 0) FAR  w(0) 57100. F 0.00
expand: MAIN (3, 0) FAR  w(0) 56867.
	create_child: top_reset (2, 17) FAR 57356 U 0.00
expand: top_reset (2, 0) FAR  w(0) 57356.
	create_child: main_reset (1, 17) FAR 57439 U 0.00
expand: main_reset (1, 0) FAR  w(0) 57439. F 0.00
expand: top_reset (2, 0) FAR  w(0) 57356. F 0.00
expand: MAIN (3, 0) FAR  w(0) 56867.
	create_child: top_reset (2, 17) FAR 57714 U 0.00
expand: top_reset (2, 0) FAR  w(0) 57714.
	create_child: main_reset (1, 17) FAR 57402 U 0.00
expand: main_reset (1, 0) FAR  w(0) 57402.
	create_child: Sofar_reset (1, 17) FAR 57790 X 0.00
expand: Sofar_reset (1, 0) FAR  w(0) 57790. F 0.00
expand: top_reset (2, 0) FAR  w(0) 57714. F 0.00
expand: MAIN (3, 0) FAR  w(0) 56867.
	create_child: top_reset (2, 17) FAR 58164 U 0.00
expand: top_reset (2, 0) FAR  w(0) 58164. T 0.00
is-reachable: MAIN (3, 0) FAR 56867 T 0.00
is-reachable: MAIN (4, 0) FAR 56854 T 0.00
is-reachable: MAIN (5, 0) FAR 56865 T 0.00
is-reachable: MAIN (6, 0) FAR 57053 T 0.00
is-reachable: MAIN (7, 0) FAR 57082 T 0.00
is-reachable: MAIN (8, 0) FAR 44790 T 0.00
is-reachable: MAIN (9, 0) FAR 44691 T 0.00
is-reachable: MAIN (10, 0) FAR 44711 T 0.00
is-reachable: MAIN (11, 0) FAR 44767 T 0.00
is-reachable: MAIN (12, 0) FAR 36264 T 0.00
is-reachable: MAIN (13, 0) FAR 36075 T 0.00
is-reachable: MAIN (14, 0) FAR 35997 T 0.00
is-reachable: MAIN (15, 0) FAR 2409 T 0.00
is-reachable: ERR (16, 0) FAR 1 T 0.00
is-reachable: query!0 (17, 0) FAR 1 T 0.00
(spacer::context::check_reachability :time 0.19 :before-memory 33.92 :after-memory 40.13)
BRUNCH_STAT max_query_lvl 17
BRUNCH_STAT num_queries 305
BRUNCH_STAT num_reach_queries 22
BRUNCH_STAT num_reach_reuse 251
BRUNCH_STAT inductive_lvl 0
BRUNCH_STAT max_depth 17
BRUNCH_STAT cex_depth 17
(:SPACER-cex-depth                     17
 :SPACER-max-depth                     17
 :SPACER-max-query-lvl                 17
 :SPACER-num-invariants                152
 :SPACER-num-lemmas                    302
 :SPACER-num-properties                188
 :SPACER-num-queries                   305
 :SPACER-num-reach-queries             22
 :SPACER-num-reuse-reach-facts         251
 :added-eqs                            45924
 :arith-add-rows                       7178
 :arith-assert-diseq                   3437
 :arith-assert-lower                   45836
 :arith-assert-upper                   65147
 :arith-bound-prop                     1288
 :arith-conflicts                      208
 :arith-eq-adapter                     13273
 :arith-fixed-eqs                      10502
 :arith-offset-eqs                     6062
 :arith-pivots                         2410
 :bool-inductive-gen                   266
 :bool-inductive-gen-failures          418
 :conflicts                            1954
 :decisions                            71270
 :del-clause                           3941
 :final-checks                         850
 :minimized-lits                       98
 :mk-bool-var                          31613
 :mk-clause                            15022
 :num-checks                           2345
 :propagations                         504718
 :time.itp_solver.itp_core             0.09
 :time.spacer.init_rules               0.01
 :time.spacer.init_rules.pt.init       0.00
 :time.spacer.solve                    1.55
 :time.spacer.solve.propagate          0.15
 :time.spacer.solve.pt.must_reachable  0.02
 :time.spacer.solve.reach              1.40
 :time.spacer.solve.reach.children     0.39
 :time.spacer.solve.reach.gen.bool_ind 0.20
 :time.spacer.solve.reach.is-reach     0.07
 :time.virtual_solver.proof            0.05
 :time.virtual_solver.smt.total        0.96
 :time.virtual_solver.smt.total.sat    0.56
 :virtual_solver.checks                2345
 :virtual_solver.checks.sat            850)
BRUNCH_STAT max_query_lvl 17
BRUNCH_STAT num_queries 305
BRUNCH_STAT num_reach_queries 22
BRUNCH_STAT num_reach_reuse 251
BRUNCH_STAT inductive_lvl 0
BRUNCH_STAT max_depth 17
BRUNCH_STAT cex_depth 17

real	0m1.753s
user	0m1.684s
sys	0m0.068s
