(transform N7datalog13mk_coi_filterE...no-op 0s)
(transform N7datalog25mk_interp_tail_simplifierE...15 rules 0s)
(transform N7datalog27mk_quantifier_instantiationE...no-op 0s)
(transform N7datalog8mk_scaleE...no-op 0s)
(transform N7datalog18mk_karr_invariantsE...no-op 0s)
(transform N7datalog14mk_array_blastE...no-op 0s)
(transform N7datalog22mk_subsumption_checkerE...14 rules 0s)
(transform N7datalog12mk_bit_blastE...no-op 0s)
(transform N7datalog15mk_rule_inlinerE...no-op 0s)
(transform N7datalog13mk_coi_filterE...no-op 0s)
(transform N7datalog25mk_interp_tail_simplifierE...14 rules 0s)
(transform N7datalog22mk_subsumption_checkerE...no-op 0s)
(transform N7datalog15mk_rule_inlinerE...no-op 0s)
(transform N7datalog13mk_coi_filterE...no-op 0s)
(transform N7datalog25mk_interp_tail_simplifierE...14 rules 0s)
(transform N7datalog22mk_subsumption_checkerE...no-op 0s)
(transform N7datalog15mk_rule_inlinerE...no-op 0s)
(transform N7datalog22mk_subsumption_checkerE...no-op 0s)
(transform N7datalog15mk_rule_inlinerE...no-op 0s)
(transform N7datalog22mk_subsumption_checkerE...no-op 0s)
(transform N7datalog15mk_rule_inlinerE...no-op 0s)
(transform N7datalog22mk_subsumption_checkerE...no-op 0s)
expand: query!0 (0, 0) FAR  w(0) 1. F 0.00
(spacer::context::check_reachability :time 0.00 :before-memory 14.27 :after-memory 14.74)
Entering level 1
BRUNCH_STAT max_query_lvl 0
BRUNCH_STAT num_queries 0
BRUNCH_STAT num_reach_queries 0
BRUNCH_STAT num_reach_reuse 0
BRUNCH_STAT inductive_lvl 0
BRUNCH_STAT max_depth 1
BRUNCH_STAT cex_depth 0
expand: query!0 (1, 0) FAR  w(0) 1.
	create_child: ERR (0, 1) FAR 1 U 0.00
expand: ERR (0, 0) FAR  w(0) 1. F 0.00
expand: query!0 (1, 0) FAR  w(0) 1. F 0.00
(spacer::context::check_reachability :time 0.00 :before-memory 14.74 :after-memory 15.18)
Propagating: 0 1  ! 2 
(spacer::context::propagate :time 0.00 :before-memory 15.18 :after-memory 15.18)
Entering level 2
BRUNCH_STAT max_query_lvl 1
BRUNCH_STAT num_queries 1
BRUNCH_STAT num_reach_queries 0
BRUNCH_STAT num_reach_reuse 0
BRUNCH_STAT inductive_lvl 0
BRUNCH_STAT max_depth 2
BRUNCH_STAT cex_depth 0
expand: query!0 (2, 0) FAR  w(0) 1.
	create_child: ERR (1, 2) FAR 1 U 0.00
expand: ERR (1, 0) FAR  w(0) 1.
	create_child: MAIN (0, 2) FAR 2434 U 0.00
expand: MAIN (0, 0) FAR  w(0) 2434. F 0.00
expand: ERR (1, 0) FAR  w(0) 1. F 0.00
expand: query!0 (2, 0) FAR  w(0) 1. F 0.00
(spacer::context::check_reachability :time 0.00 :before-memory 15.18 :after-memory 15.76)
Propagating: 0 1 2  ! 3 
(spacer::context::propagate :time 0.00 :before-memory 15.76 :after-memory 15.76)
Entering level 3
BRUNCH_STAT max_query_lvl 2
BRUNCH_STAT num_queries 3
BRUNCH_STAT num_reach_queries 0
BRUNCH_STAT num_reach_reuse 0
BRUNCH_STAT inductive_lvl 0
BRUNCH_STAT max_depth 3
BRUNCH_STAT cex_depth 0
expand: query!0 (3, 0) FAR  w(0) 1.
	create_child: ERR (2, 3) FAR 1 U 0.00
expand: ERR (2, 0) FAR  w(0) 1.
	create_child: MAIN (1, 3) FAR 2434 U 0.00
expand: MAIN (1, 0) FAR  w(0) 2434.
	create_child: top_step (0, 3) FAR 3542 U 0.00
expand: top_step (0, 0) FAR  w(0) 3542. F 0.00
expand: MAIN (1, 0) FAR  w(0) 2434. F 0.00
expand: ERR (2, 0) FAR  w(0) 1. F 0.00
expand: query!0 (3, 0) FAR  w(0) 1. F 0.00
(spacer::context::check_reachability :time 0.00 :before-memory 15.76 :after-memory 16.56)
Propagating: 0 1 2 3  ! 4 
(spacer::context::propagate :time 0.00 :before-memory 16.56 :after-memory 16.56)
Entering level 4
BRUNCH_STAT max_query_lvl 3
BRUNCH_STAT num_queries 6
BRUNCH_STAT num_reach_queries 0
BRUNCH_STAT num_reach_reuse 0
BRUNCH_STAT inductive_lvl 0
BRUNCH_STAT max_depth 4
BRUNCH_STAT cex_depth 0
expand: query!0 (4, 0) FAR  w(0) 1.
	create_child: ERR (3, 4) FAR 1 U 0.00
expand: ERR (3, 0) FAR  w(0) 1.
	create_child: MAIN (2, 4) FAR 2434 U 0.00
expand: MAIN (2, 0) FAR  w(0) 2434.
	create_child: top_step (1, 4) FAR 3542 U 0.00
expand: top_step (1, 0) FAR  w(0) 3542.
	create_child: main_step (0, 4) FAR 1149 U 0.00
expand: main_step (0, 0) FAR  w(0) 1149. F 0.00
expand: top_step (1, 0) FAR  w(0) 3542. F 0.00
expand: MAIN (2, 0) FAR  w(0) 2434. F 0.00
expand: ERR (3, 0) FAR  w(0) 1. F 0.00
expand: query!0 (4, 0) FAR  w(0) 1. F 0.00
(spacer::context::check_reachability :time 0.01 :before-memory 16.56 :after-memory 17.34)
Propagating: 0 1 2 3 4  ! 5 
(spacer::context::propagate :time 0.00 :before-memory 17.34 :after-memory 17.44)
Entering level 5
BRUNCH_STAT max_query_lvl 4
BRUNCH_STAT num_queries 10
BRUNCH_STAT num_reach_queries 0
BRUNCH_STAT num_reach_reuse 0
BRUNCH_STAT inductive_lvl 0
BRUNCH_STAT max_depth 5
BRUNCH_STAT cex_depth 0
expand: query!0 (5, 0) FAR  w(0) 1.
	create_child: ERR (4, 5) FAR 1 U 0.00
expand: ERR (4, 0) FAR  w(0) 1.
	create_child: MAIN (3, 5) FAR 2434 U 0.00
expand: MAIN (3, 0) FAR  w(0) 2434.
	create_child: top_step (2, 5) FAR 3542 U 0.00
expand: top_step (2, 0) FAR  w(0) 3542.
	create_child: main_step (1, 5) FAR 1149 U 0.00
expand: main_step (1, 0) FAR  w(0) 1149.
	create_child: Sofar_step (1, 5) FAR 8390 X 0.00
expand: Sofar_step (1, 0) FAR  w(0) 8390. T 0.00
is-reachable: top_step (2, 0) FAR 3542
	create_child: top_reset (2, 5) FAR 10808 X 0.01
is-reachable: top_reset (2, 0) FAR 10808 F 0.00
expand: top_reset (2, 0) FAR  w(0) 10808. F 0.00
expand: MAIN (3, 0) FAR  w(0) 2434.
	create_child: top_step (2, 5) FAR 12578 U 0.00
expand: top_step (2, 0) FAR  w(0) 12578. F 0.00
expand: MAIN (3, 0) FAR  w(0) 2434. F 0.00
expand: ERR (4, 0) FAR  w(0) 1. F 0.00
expand: query!0 (5, 0) FAR  w(0) 1. F 0.00
(spacer::context::check_reachability :time 0.02 :before-memory 17.44 :after-memory 21.16)
Propagating: 2 3 4 5  ! 6 
(spacer::context::propagate :time 0.00 :before-memory 21.16 :after-memory 21.16)
Entering level 6
BRUNCH_STAT max_query_lvl 5
BRUNCH_STAT num_queries 15
BRUNCH_STAT num_reach_queries 2
BRUNCH_STAT num_reach_reuse 4
BRUNCH_STAT inductive_lvl 0
BRUNCH_STAT max_depth 6
BRUNCH_STAT cex_depth 0
expand: query!0 (6, 0) FAR  w(0) 1.
	create_child: ERR (5, 6) FAR 1 U 0.00
expand: ERR (5, 0) FAR  w(0) 1.
	create_child: MAIN (4, 6) FAR 2434 U 0.00
expand: MAIN (4, 0) FAR  w(0) 2434.
	create_child: MAIN (3, 6) FAR 13018 U 0.00
expand: MAIN (3, 0) FAR  w(0) 13018.
	create_child: top_step (2, 6) FAR 13163 U 0.00
expand: top_step (2, 0) FAR  w(0) 13163.
	create_child: main_step (1, 6) FAR 13361 U 0.00
expand: main_step (1, 0) FAR  w(0) 13361.
	create_child: controleur_step (0, 6) FAR 1095 U 0.00
expand: controleur_step (0, 0) FAR  w(0) 1095. F 0.00
expand: main_step (1, 0) FAR  w(0) 13361. F 0.00
expand: top_step (2, 0) FAR  w(0) 13163. F 0.00
expand: MAIN (3, 0) FAR  w(0) 13018. F 0.00
expand: MAIN (4, 0) FAR  w(0) 2434.
	create_child: MAIN (3, 6) FAR 14033 U 0.00
expand: MAIN (3, 0) FAR  w(0) 14033.
	create_child: top_step (2, 6) FAR 14195 U 0.00
expand: top_step (2, 0) FAR  w(0) 14195.
	create_child: main_step (1, 6) FAR 14416 U 0.00
expand: main_step (1, 0) FAR  w(0) 14416.
	create_child: hypothese_step (0, 6) FAR 14608 U 0.00
expand: hypothese_step (0, 0) FAR  w(0) 14608. F 0.00
expand: main_step (1, 0) FAR  w(0) 14416. F 0.00
expand: top_step (2, 0) FAR  w(0) 14195. F 0.00
expand: MAIN (3, 0) FAR  w(0) 14033. F 0.00
expand: MAIN (4, 0) FAR  w(0) 2434.
	create_child: MAIN (3, 6) FAR 15102 U 0.00
expand: MAIN (3, 0) FAR  w(0) 15102.
	create_child: top_step (2, 6) FAR 15111 U 0.00
expand: top_step (2, 0) FAR  w(0) 15111.
	create_child: main_step (1, 6) FAR 15085 U 0.00
expand: main_step (1, 0) FAR  w(0) 15085. F 0.00
expand: top_step (2, 0) FAR  w(0) 15111. F 0.00
expand: MAIN (3, 0) FAR  w(0) 15102. F 0.00
expand: MAIN (4, 0) FAR  w(0) 2434.
	create_child: top_step (3, 6) FAR 15152 U 0.00
expand: top_step (3, 0) FAR  w(0) 15152.
	create_child: main_step (2, 6) FAR 15272 U 0.00
expand: main_step (2, 0) FAR  w(0) 15272. T 0.00
is-reachable: top_step (3, 0) FAR 15152
	create_child: MAIN (3, 6) FAR 15891 X 0.01
is-reachable: MAIN (3, 0) FAR 15891 F 0.00
expand: MAIN (3, 0) FAR  w(0) 15891.
	create_child: top_step (2, 6) FAR 16378 UNDEF 0.00
expand: top_step (2, 0) FAR  w(0) 16378. T 0.00
is-reachable: MAIN (3, 0) FAR 15891 F 0.00
expand: MAIN (3, 0) FAR  w(1) 15891.
	create_child: top_reset (2, 6) FAR 16785 U 0.00
expand: top_reset (2, 0) FAR  w(0) 16785.
	create_child: main_reset (1, 6) FAR 16932 UNDEF 0.00
expand: main_reset (1, 0) FAR  w(0) 16932. F 0.00
expand: top_reset (2, 0) FAR  w(0) 16785. F 0.00
expand: MAIN (3, 0) FAR  w(1) 15891.
	create_child: top_step (2, 6) FAR 18124 U 0.00
expand: top_step (2, 0) FAR  w(0) 18124.
	create_child: main_step (1, 6) FAR 18227 U 0.00
expand: main_step (1, 0) FAR  w(0) 18227. F 0.00
expand: top_step (2, 0) FAR  w(0) 18124. F 0.00
expand: MAIN (3, 0) FAR  w(1) 15891. F 0.00
expand: MAIN (4, 0) FAR  w(0) 2434.
	create_child: top_step (3, 6) FAR 18636 UNDEF 0.00
expand: top_step (3, 0) FAR  w(0) 18636. F 0.00
expand: MAIN (4, 0) FAR  w(0) 2434. F 0.00
expand: ERR (5, 0) FAR  w(0) 1. F 0.00
expand: query!0 (6, 0) FAR  w(0) 1. F 0.00
(spacer::context::check_reachability :time 0.07 :before-memory 21.16 :after-memory 24.93)
Propagating: 0 1 2 3 4 5 6  ! 7 
(spacer::context::propagate :time 0.00 :before-memory 24.93 :after-memory 24.93)
Entering level 7
BRUNCH_STAT max_query_lvl 6
BRUNCH_STAT num_queries 36
BRUNCH_STAT num_reach_queries 5
BRUNCH_STAT num_reach_reuse 19
BRUNCH_STAT inductive_lvl 0
BRUNCH_STAT max_depth 7
BRUNCH_STAT cex_depth 0
expand: query!0 (7, 0) FAR  w(0) 1.
	create_child: ERR (6, 7) FAR 1 U 0.00
expand: ERR (6, 0) FAR  w(0) 1.
	create_child: MAIN (5, 7) FAR 2434 U 0.00
expand: MAIN (5, 0) FAR  w(0) 2434.
	create_child: top_step (4, 7) FAR 15152 UNDEF 0.00
expand: top_step (4, 0) FAR  w(0) 15152.
	create_child: MAIN (4, 7) FAR 15891 X 0.00
expand: MAIN (4, 0) FAR  w(0) 15891.
	create_child: top_step (3, 7) FAR 19304 UNDEF 0.00
expand: top_step (3, 0) FAR  w(0) 19304. T 0.00
is-reachable: MAIN (4, 0) FAR 15891 F 0.00
expand: MAIN (4, 0) FAR  w(1) 15891.
	create_child: MAIN (3, 7) FAR 19397 U 0.00
expand: MAIN (3, 0) FAR  w(0) 19397.
	create_child: top_step (2, 7) FAR 19359 U 0.00
expand: top_step (2, 0) FAR  w(0) 19359.
	create_child: main_step (1, 7) FAR 19680 U 0.00
expand: main_step (1, 0) FAR  w(0) 19680. F 0.00
expand: top_step (2, 0) FAR  w(0) 19359. F 0.00
expand: MAIN (3, 0) FAR  w(0) 19397. F 0.00
expand: MAIN (4, 0) FAR  w(1) 15891.
	create_child: MAIN (3, 7) FAR 20471 U 0.00
expand: MAIN (3, 0) FAR  w(0) 20471.
	create_child: top_step (2, 7) FAR 20502 U 0.00
expand: top_step (2, 0) FAR  w(0) 20502.
	create_child: main_step (1, 7) FAR 20698 U 0.00
expand: main_step (1, 0) FAR  w(0) 20698. F 0.00
expand: top_step (2, 0) FAR  w(0) 20502. F 0.00
expand: MAIN (3, 0) FAR  w(0) 20471. F 0.00
expand: MAIN (4, 0) FAR  w(1) 15891.
	create_child: top_step (3, 7) FAR 21106 U 0.00
expand: top_step (3, 0) FAR  w(0) 21106.
	create_child: main_step (2, 7) FAR 21558 UNDEF 0.00
expand: main_step (2, 0) FAR  w(0) 21558. T 0.00
is-reachable: top_step (3, 0) FAR 21106 F 0.00
expand: top_step (3, 0) FAR  w(1) 21106.
	create_child: main_step (2, 7) FAR 21623 U 0.00
expand: main_step (2, 0) FAR  w(0) 21623. F 0.00
expand: top_step (3, 0) FAR  w(1) 21106. F 0.00
expand: MAIN (4, 0) FAR  w(1) 15891. F 0.00
expand: MAIN (5, 0) FAR  w(0) 2434. F 0.00
expand: ERR (6, 0) FAR  w(0) 1. F 0.00
expand: query!0 (7, 0) FAR  w(0) 1. F 0.00
(spacer::context::check_reachability :time 0.06 :before-memory 24.93 :after-memory 25.46)
Propagating: 1 2 3 4 5 6 7  ! 8 
(spacer::context::propagate :time 0.00 :before-memory 25.46 :after-memory 25.46)
Entering level 8
BRUNCH_STAT max_query_lvl 7
BRUNCH_STAT num_queries 49
BRUNCH_STAT num_reach_queries 5
BRUNCH_STAT num_reach_reuse 24
BRUNCH_STAT inductive_lvl 0
BRUNCH_STAT max_depth 8
BRUNCH_STAT cex_depth 0
expand: query!0 (8, 0) FAR  w(0) 1.
	create_child: ERR (7, 8) FAR 1 U 0.00
expand: ERR (7, 0) FAR  w(0) 1.
	create_child: MAIN (6, 8) FAR 2434 U 0.00
expand: MAIN (6, 0) FAR  w(0) 2434.
	create_child: MAIN (5, 8) FAR 22242 U 0.00
expand: MAIN (5, 0) FAR  w(0) 22242.
	create_child: top_step (4, 8) FAR 22207 U 0.00
expand: top_step (4, 0) FAR  w(0) 22207.
	create_child: main_step (3, 8) FAR 22370 U 0.00
expand: main_step (3, 0) FAR  w(0) 22370.
	create_child: controleur_step (2, 8) FAR 22401 UNDEF 0.00
expand: controleur_step (2, 0) FAR  w(0) 22401. T 0.00
is-reachable: main_step (3, 0) FAR 22370 F 0.00
expand: main_step (3, 0) FAR  w(1) 22370.
	create_child: controleur_step (2, 8) FAR 22322 U 0.00
expand: controleur_step (2, 0) FAR  w(0) 22322. F 0.00
expand: main_step (3, 0) FAR  w(1) 22370.
	create_child: controleur_step (2, 8) FAR 22517 U 0.00
expand: controleur_step (2, 0) FAR  w(0) 22517. UNDEF 0.00
expand: controleur_step (2, 0) FAR  w(1) 22517.
	create_child: hypothese_step (2, 8) FAR 22585 X 0.00
expand: hypothese_step (2, 0) FAR  w(0) 22585. F 0.00
expand: main_step (3, 0) FAR  w(1) 22370. F 0.00
expand: top_step (4, 0) FAR  w(0) 22207. F 0.00
expand: MAIN (5, 0) FAR  w(0) 22242. F 0.00
expand: MAIN (6, 0) FAR  w(0) 2434.
	create_child: MAIN (5, 8) FAR 22848 U 0.00
expand: MAIN (5, 0) FAR  w(0) 22848.
	create_child: top_step (4, 8) FAR 22769 U 0.00
expand: top_step (4, 0) FAR  w(0) 22769.
	create_child: main_step (3, 8) FAR 22845 U 0.00
expand: main_step (3, 0) FAR  w(0) 22845. F 0.00
expand: top_step (4, 0) FAR  w(0) 22769. F 0.00
expand: MAIN (5, 0) FAR  w(0) 22848. F 0.00
expand: MAIN (6, 0) FAR  w(0) 2434.
	create_child: MAIN (5, 8) FAR 22920 U 0.00
expand: MAIN (5, 0) FAR  w(0) 22920.
	create_child: top_step (4, 8) FAR 23008 U 0.00
expand: top_step (4, 0) FAR  w(0) 23008.
	create_child: main_step (3, 8) FAR 23034 U 0.00
expand: main_step (3, 0) FAR  w(0) 23034. F 0.00
expand: top_step (4, 0) FAR  w(0) 23008. F 0.00
expand: MAIN (5, 0) FAR  w(0) 22920. F 0.00
expand: MAIN (6, 0) FAR  w(0) 2434.
	create_child: MAIN (5, 8) FAR 23127 U 0.00
expand: MAIN (5, 0) FAR  w(0) 23127.
	create_child: top_step (4, 8) FAR 23149 U 0.00
expand: top_step (4, 0) FAR  w(0) 23149.
	create_child: main_step (3, 8) FAR 23326 UNDEF 0.00
expand: main_step (3, 0) FAR  w(0) 23326.
	create_child: controleur_step (2, 8) FAR 22401 UNDEF 0.00
expand: controleur_step (2, 0) FAR  w(0) 22401. UNDEF 0.00
expand: controleur_step (2, 0) FAR  w(1) 22401.
	create_child: controleur_step (2, 8) FAR 23560 X 0.00
expand: controleur_step (2, 0) FAR  w(0) 23560. F 0.00
expand: main_step (3, 0) FAR  w(0) 23326. F 0.00
expand: top_step (4, 0) FAR  w(0) 23149. F 0.00
expand: MAIN (5, 0) FAR  w(0) 23127. F 0.00
expand: MAIN (6, 0) FAR  w(0) 2434.
	create_child: top_step (5, 8) FAR 24026 UNDEF 0.00
expand: top_step (5, 0) FAR  w(0) 24026. UNDEF 0.00
expand: top_step (5, 0) FAR  w(1) 24026.
	create_child: MAIN (5, 8) FAR 24125 X 0.00
expand: MAIN (5, 0) FAR  w(0) 24125.
	create_child: top_step (4, 8) FAR 24147 UNDEF 0.00
expand: top_step (4, 0) FAR  w(0) 24147. T 0.00
is-reachable: MAIN (5, 0) FAR 24125 F 0.00
expand: MAIN (5, 0) FAR  w(1) 24125.
	create_child: MAIN (4, 8) FAR 24118 U 0.00
expand: MAIN (4, 0) FAR  w(0) 24118.
	create_child: MAIN (3, 8) FAR 24185 U 0.00
expand: MAIN (3, 0) FAR  w(0) 24185.
	create_child: top_step (2, 8) FAR 24267 UNDEF 0.00
expand: top_step (2, 0) FAR  w(0) 24267. T 0.00
is-reachable: MAIN (3, 0) FAR 24185 F 0.00
expand: MAIN (3, 0) FAR  w(1) 24185.
	create_child: top_step (2, 8) FAR 24274 U 0.00
expand: top_step (2, 0) FAR  w(0) 24274.
	create_child: main_step (1, 8) FAR 24336 UNDEF 0.00
expand: main_step (1, 0) FAR  w(0) 24336. T 0.00
is-reachable: top_step (2, 0) FAR 24274 F 0.00
expand: top_step (2, 0) FAR  w(1) 24274.
	create_child: main_step (1, 8) FAR 24199 U 0.00
expand: main_step (1, 0) FAR  w(0) 24199. F 0.00
expand: top_step (2, 0) FAR  w(1) 24274. F 0.00
expand: MAIN (3, 0) FAR  w(1) 24185. F 0.00
expand: MAIN (4, 0) FAR  w(0) 24118.
	create_child: top_step (3, 8) FAR 24628 UNDEF 0.00
expand: top_step (3, 0) FAR  w(0) 24628. T 0.00
is-reachable: MAIN (4, 0) FAR 24118 F 0.00
expand: MAIN (4, 0) FAR  w(1) 24118.
	create_child: top_step (3, 8) FAR 24810 U 0.00
expand: top_step (3, 0) FAR  w(0) 24810.
	create_child: main_step (2, 8) FAR 25053 U 0.00
expand: main_step (2, 0) FAR  w(0) 25053. F 0.00
expand: top_step (3, 0) FAR  w(0) 24810. F 0.00
expand: MAIN (4, 0) FAR  w(1) 24118. F 0.00
expand: MAIN (5, 0) FAR  w(1) 24125. F 0.00
expand: MAIN (6, 0) FAR  w(0) 2434. F 0.00
expand: ERR (7, 0) FAR  w(0) 1. F 0.00
expand: query!0 (8, 0) FAR  w(0) 1. F 0.00
(spacer::context::check_reachability :time 0.13 :before-memory 25.46 :after-memory 27.71)
Propagating: 1 2 3 4 5 6 7 8  ! 9 
(spacer::context::propagate :time 0.01 :before-memory 27.71 :after-memory 27.71)
Entering level 9
BRUNCH_STAT max_query_lvl 8
BRUNCH_STAT num_queries 78
BRUNCH_STAT num_reach_queries 5
BRUNCH_STAT num_reach_reuse 39
BRUNCH_STAT inductive_lvl 0
BRUNCH_STAT max_depth 9
BRUNCH_STAT cex_depth 0
expand: query!0 (9, 0) FAR  w(0) 1.
	create_child: ERR (8, 9) FAR 1 U 0.00
expand: ERR (8, 0) FAR  w(0) 1.
	create_child: MAIN (7, 9) FAR 2434 U 0.00
expand: MAIN (7, 0) FAR  w(0) 2434.
	create_child: top_step (6, 9) FAR 24026 UNDEF 0.00
expand: top_step (6, 0) FAR  w(0) 24026.
	create_child: MAIN (6, 9) FAR 24125 X 0.00
expand: MAIN (6, 0) FAR  w(0) 24125.
	create_child: top_step (5, 9) FAR 24147 UNDEF 0.00
expand: top_step (5, 0) FAR  w(0) 24147. T 0.00
is-reachable: MAIN (6, 0) FAR 24125 F 0.00
expand: MAIN (6, 0) FAR  w(1) 24125.
	create_child: MAIN (5, 9) FAR 25896 U 0.00
expand: MAIN (5, 0) FAR  w(0) 25896.
	create_child: top_step (4, 9) FAR 25944 U 0.00
expand: top_step (4, 0) FAR  w(0) 25944.
	create_child: main_step (3, 9) FAR 26241 U 0.00
expand: main_step (3, 0) FAR  w(0) 26241. F 0.00
expand: top_step (4, 0) FAR  w(0) 25944. F 0.00
expand: MAIN (5, 0) FAR  w(0) 25896. F 0.00
expand: MAIN (6, 0) FAR  w(1) 24125.
	create_child: MAIN (5, 9) FAR 26585 U 0.00
expand: MAIN (5, 0) FAR  w(0) 26585.
	create_child: MAIN (4, 9) FAR 26642 U 0.00
expand: MAIN (4, 0) FAR  w(0) 26642.
	create_child: top_step (3, 9) FAR 26707 UNDEF 0.00
expand: top_step (3, 0) FAR  w(0) 26707. T 0.00
is-reachable: MAIN (4, 0) FAR 26642 F 0.00
expand: MAIN (4, 0) FAR  w(1) 26642.
	create_child: MAIN (3, 9) FAR 26534 U 0.00
expand: MAIN (3, 0) FAR  w(0) 26534.
	create_child: top_step (2, 9) FAR 26815 UNDEF 0.00
expand: top_step (2, 0) FAR  w(0) 26815. T 0.00
is-reachable: MAIN (3, 0) FAR 26534 F 0.00
expand: MAIN (3, 0) FAR  w(1) 26534.
	create_child: top_step (2, 9) FAR 26599 U 0.00
expand: top_step (2, 0) FAR  w(0) 26599.
	create_child: main_step (1, 9) FAR 26852 UNDEF 0.00
expand: main_step (1, 0) FAR  w(0) 26852. T 0.00
is-reachable: top_step (2, 0) FAR 26599 F 0.00
expand: top_step (2, 0) FAR  w(1) 26599.
	create_child: main_step (1, 9) FAR 26942 U 0.00
expand: main_step (1, 0) FAR  w(0) 26942. F 0.00
expand: top_step (2, 0) FAR  w(1) 26599. F 0.00
expand: MAIN (3, 0) FAR  w(1) 26534. F 0.00
expand: MAIN (4, 0) FAR  w(1) 26642.
	create_child: top_step (3, 9) FAR 27030 U 0.00
expand: top_step (3, 0) FAR  w(0) 27030.
	create_child: main_step (2, 9) FAR 27305 UNDEF 0.00
expand: main_step (2, 0) FAR  w(0) 27305. T 0.00
is-reachable: top_step (3, 0) FAR 27030 F 0.00
expand: top_step (3, 0) FAR  w(1) 27030.
	create_child: main_step (2, 9) FAR 27467 U 0.00
expand: main_step (2, 0) FAR  w(0) 27467. F 0.00
expand: top_step (3, 0) FAR  w(1) 27030. F 0.00
expand: MAIN (4, 0) FAR  w(1) 26642. F 0.00
expand: MAIN (5, 0) FAR  w(0) 26585.
	create_child: top_step (4, 9) FAR 27557 UNDEF 0.00
expand: top_step (4, 0) FAR  w(0) 27557.
	create_child: main_step (3, 9) FAR 27745 UNDEF 0.00
expand: main_step (3, 0) FAR  w(0) 27745.
	create_child: Sofar_step (3, 9) FAR 27828 X 0.00
expand: Sofar_step (3, 0) FAR  w(0) 27828. T 0.00
is-reachable: top_step (4, 0) FAR 27557 T 0.00
is-reachable: MAIN (5, 0) FAR 26585 F 0.00
Deleting closed node: top_step(4, 9) 27557
expand: MAIN (5, 0) FAR  w(1) 26585.
	create_child: top_step (4, 9) FAR 27885 U 0.00
expand: top_step (4, 0) FAR  w(0) 27885.
	create_child: main_step (3, 9) FAR 27745 UNDEF 0.00
expand: main_step (3, 0) FAR  w(0) 27745. T 0.00
is-reachable: top_step (4, 0) FAR 27885 F 0.00
expand: top_step (4, 0) FAR  w(1) 27885.
	create_child: main_step (3, 9) FAR 28040 U 0.00
expand: main_step (3, 0) FAR  w(0) 28040. F 0.00
expand: top_step (4, 0) FAR  w(1) 27885. F 0.00
expand: MAIN (5, 0) FAR  w(1) 26585. F 0.00
expand: MAIN (6, 0) FAR  w(1) 24125.
	create_child: MAIN (5, 9) FAR 28122 U 0.00
expand: MAIN (5, 0) FAR  w(0) 28122.
	create_child: top_step (4, 9) FAR 27627 UNDEF 0.00
expand: top_step (4, 0) FAR  w(0) 27627. T 0.00
is-reachable: MAIN (5, 0) FAR 28122 F 0.00
expand: MAIN (5, 0) FAR  w(1) 28122.
	create_child: MAIN (4, 9) FAR 28487 U 0.00
expand: MAIN (4, 0) FAR  w(0) 28487.
	create_child: top_step (3, 9) FAR 28620 UNDEF 0.00
expand: top_step (3, 0) FAR  w(0) 28620. T 0.00
is-reachable: MAIN (4, 0) FAR 28487 F 0.00
expand: MAIN (4, 0) FAR  w(1) 28487.
	create_child: MAIN (3, 9) FAR 28745 U 0.00
expand: MAIN (3, 0) FAR  w(0) 28745.
	create_child: top_step (2, 9) FAR 28748 UNDEF 0.00
expand: top_step (2, 0) FAR  w(0) 28748. T 0.00
is-reachable: MAIN (3, 0) FAR 28745 F 0.00
expand: MAIN (3, 0) FAR  w(1) 28745.
	create_child: top_step (2, 9) FAR 29365 U 0.00
expand: top_step (2, 0) FAR  w(0) 29365.
	create_child: main_step (1, 9) FAR 29286 U 0.00
expand: main_step (1, 0) FAR  w(0) 29286. F 0.00
expand: top_step (2, 0) FAR  w(0) 29365. F 0.00
expand: MAIN (3, 0) FAR  w(1) 28745. F 0.00
expand: MAIN (4, 0) FAR  w(1) 28487.
	create_child: top_step (3, 9) FAR 29967 U 0.00
expand: top_step (3, 0) FAR  w(0) 29967.
	create_child: main_step (2, 9) FAR 30167 U 0.00
expand: main_step (2, 0) FAR  w(0) 30167. F 0.00
expand: top_step (3, 0) FAR  w(0) 29967. F 0.00
expand: MAIN (4, 0) FAR  w(1) 28487. F 0.00
expand: MAIN (5, 0) FAR  w(1) 28122. F 0.00
expand: MAIN (6, 0) FAR  w(1) 24125. F 0.00
expand: MAIN (7, 0) FAR  w(0) 2434. F 0.00
expand: ERR (8, 0) FAR  w(0) 1. F 0.00
expand: query!0 (9, 0) FAR  w(0) 1. F 0.00
(spacer::context::check_reachability :time 0.17 :before-memory 27.71 :after-memory 29.20)
Propagating: 1 2 3 4 5 6 7 8 9  ! 10 
(spacer::context::propagate :time 0.01 :before-memory 29.20 :after-memory 29.20)
Entering level 10
BRUNCH_STAT max_query_lvl 9
BRUNCH_STAT num_queries 111
BRUNCH_STAT num_reach_queries 15
BRUNCH_STAT num_reach_reuse 78
BRUNCH_STAT inductive_lvl 0
BRUNCH_STAT max_depth 10
BRUNCH_STAT cex_depth 0
expand: query!0 (10, 0) FAR  w(0) 1.
	create_child: ERR (9, 10) FAR 1 U 0.00
expand: ERR (9, 0) FAR  w(0) 1.
	create_child: MAIN (8, 10) FAR 2434 U 0.00
expand: MAIN (8, 0) FAR  w(0) 2434.
	create_child: MAIN (7, 10) FAR 31269 U 0.00
expand: MAIN (7, 0) FAR  w(0) 31269.
	create_child: MAIN (6, 10) FAR 31223 U 0.00
expand: MAIN (6, 0) FAR  w(0) 31223.
	create_child: MAIN (5, 10) FAR 31218 U 0.00
expand: MAIN (5, 0) FAR  w(0) 31218.
	create_child: MAIN (4, 10) FAR 31375 U 0.00
expand: MAIN (4, 0) FAR  w(0) 31375.
	create_child: top_step (3, 10) FAR 31201 UNDEF 0.00
expand: top_step (3, 0) FAR  w(0) 31201. T 0.00
is-reachable: MAIN (4, 0) FAR 31375 F 0.00
expand: MAIN (4, 0) FAR  w(1) 31375.
	create_child: top_step (3, 10) FAR 31497 U 0.00
expand: top_step (3, 0) FAR  w(0) 31497. UNDEF 0.00
expand: top_step (3, 0) FAR  w(1) 31497.
	create_child: MAIN (3, 10) FAR 31573 X 0.00
expand: MAIN (3, 0) FAR  w(0) 31573.
	create_child: top_step (2, 10) FAR 31743 UNDEF 0.00
expand: top_step (2, 0) FAR  w(0) 31743. T 0.00
is-reachable: MAIN (3, 0) FAR 31573 F 0.00
expand: MAIN (3, 0) FAR  w(1) 31573.
	create_child: top_step (2, 10) FAR 31748 U 0.00
expand: top_step (2, 0) FAR  w(0) 31748.
	create_child: main_step (1, 10) FAR 31673 UNDEF 0.00
expand: main_step (1, 0) FAR  w(0) 31673. T 0.00
is-reachable: top_step (2, 0) FAR 31748 F 0.00
expand: top_step (2, 0) FAR  w(1) 31748.
	create_child: main_step (1, 10) FAR 32021 U 0.00
expand: main_step (1, 0) FAR  w(0) 32021. F 0.00
expand: top_step (2, 0) FAR  w(1) 31748. F 0.00
expand: MAIN (3, 0) FAR  w(1) 31573. F 0.00
expand: MAIN (4, 0) FAR  w(1) 31375.
	create_child: top_step (3, 10) FAR 31744 U 0.00
expand: top_step (3, 0) FAR  w(0) 31744.
	create_child: main_step (2, 10) FAR 32126 UNDEF 0.00
expand: main_step (2, 0) FAR  w(0) 32126. T 0.00
is-reachable: top_step (3, 0) FAR 31744 F 0.00
expand: top_step (3, 0) FAR  w(1) 31744.
	create_child: main_step (2, 10) FAR 32255 U 0.00
expand: main_step (2, 0) FAR  w(0) 32255. F 0.00
expand: top_step (3, 0) FAR  w(1) 31744. F 0.00
expand: MAIN (4, 0) FAR  w(1) 31375. F 0.00
expand: MAIN (5, 0) FAR  w(0) 31218. F 0.00
expand: MAIN (6, 0) FAR  w(0) 31223. F 0.00
expand: MAIN (7, 0) FAR  w(0) 31269.
	create_child: MAIN (6, 10) FAR 32544 U 0.00
expand: MAIN (6, 0) FAR  w(0) 32544.
	create_child: MAIN (5, 10) FAR 32608 U 0.00
expand: MAIN (5, 0) FAR  w(0) 32608.
	create_child: MAIN (4, 10) FAR 32419 U 0.00
expand: MAIN (4, 0) FAR  w(0) 32419.
	create_child: top_step (3, 10) FAR 32484 U 0.00
expand: top_step (3, 0) FAR  w(0) 32484.
	create_child: MAIN (3, 10) FAR 32784 X 0.00
expand: MAIN (3, 0) FAR  w(0) 32784.
	create_child: top_step (2, 10) FAR 32217 U 0.00
expand: top_step (2, 0) FAR  w(0) 32217.
	create_child: main_step (1, 10) FAR 32655 U 0.00
expand: main_step (1, 0) FAR  w(0) 32655. F 0.00
expand: top_step (2, 0) FAR  w(0) 32217. F 0.00
expand: MAIN (3, 0) FAR  w(0) 32784. F 0.00
expand: MAIN (4, 0) FAR  w(0) 32419.
	create_child: top_step (3, 10) FAR 32809 U 0.00
expand: top_step (3, 0) FAR  w(0) 32809.
	create_child: main_step (2, 10) FAR 33008 U 0.00
expand: main_step (2, 0) FAR  w(0) 33008. F 0.00
expand: top_step (3, 0) FAR  w(0) 32809. F 0.00
expand: MAIN (4, 0) FAR  w(0) 32419. F 0.00
expand: MAIN (5, 0) FAR  w(0) 32608. F 0.00
expand: MAIN (6, 0) FAR  w(0) 32544. F 0.00
expand: MAIN (7, 0) FAR  w(0) 31269. F 0.00
expand: MAIN (8, 0) FAR  w(0) 2434. F 0.00
expand: ERR (9, 0) FAR  w(0) 1. F 0.00
expand: query!0 (10, 0) FAR  w(0) 1. F 0.00
(spacer::context::check_reachability :time 0.12 :before-memory 29.20 :after-memory 29.86)
Propagating: 1 2 3 4 5 6 7 8 9 10  ! 11 
(spacer::context::propagate :time 0.01 :before-memory 29.86 :after-memory 29.86)
Entering level 11
BRUNCH_STAT max_query_lvl 10
BRUNCH_STAT num_queries 134
BRUNCH_STAT num_reach_queries 18
BRUNCH_STAT num_reach_reuse 99
BRUNCH_STAT inductive_lvl 0
BRUNCH_STAT max_depth 11
BRUNCH_STAT cex_depth 0
expand: query!0 (11, 0) FAR  w(0) 1.
	create_child: ERR (10, 11) FAR 1 U 0.00
expand: ERR (10, 0) FAR  w(0) 1.
	create_child: MAIN (9, 11) FAR 2434 U 0.00
expand: MAIN (9, 0) FAR  w(0) 2434.
	create_child: MAIN (8, 11) FAR 34087 U 0.00
expand: MAIN (8, 0) FAR  w(0) 34087.
	create_child: top_step (7, 11) FAR 34109 U 0.00
expand: top_step (7, 0) FAR  w(0) 34109.
	create_child: Sofar_step (6, 11) FAR 34194 U 0.00
expand: Sofar_step (6, 0) FAR  w(0) 34194. F 0.00
expand: top_step (7, 0) FAR  w(0) 34109. F 0.00
expand: MAIN (8, 0) FAR  w(0) 34087. F 0.00
expand: MAIN (9, 0) FAR  w(0) 2434.
	create_child: MAIN (8, 11) FAR 34318 U 0.00
expand: MAIN (8, 0) FAR  w(0) 34318.
	create_child: MAIN (7, 11) FAR 34197 U 0.00
expand: MAIN (7, 0) FAR  w(0) 34197.
	create_child: top_step (6, 11) FAR 34345 UNDEF 0.00
expand: top_step (6, 0) FAR  w(0) 34345. UNDEF 0.00
expand: top_step (6, 0) FAR  w(1) 34345.
	create_child: MAIN (6, 11) FAR 34398 X 0.00
expand: MAIN (6, 0) FAR  w(0) 34398.
	create_child: top_step (5, 11) FAR 34207 UNDEF 0.00
expand: top_step (5, 0) FAR  w(0) 34207. UNDEF 0.00
expand: top_step (5, 0) FAR  w(1) 34207.
	create_child: MAIN (5, 11) FAR 34158 X 0.00
expand: MAIN (5, 0) FAR  w(0) 34158.
	create_child: top_step (4, 11) FAR 34173 UNDEF 0.00
expand: top_step (4, 0) FAR  w(0) 34173. UNDEF 0.00
expand: top_step (4, 0) FAR  w(1) 34173.
	create_child: MAIN (4, 11) FAR 34175 X 0.00
expand: MAIN (4, 0) FAR  w(0) 34175.
	create_child: top_step (3, 11) FAR 34040 UNDEF 0.00
expand: top_step (3, 0) FAR  w(0) 34040. UNDEF 0.00
expand: top_step (3, 0) FAR  w(1) 34040.
	create_child: MAIN (3, 11) FAR 34256 X 0.00
expand: MAIN (3, 0) FAR  w(0) 34256.
	create_child: top_step (2, 11) FAR 34300 UNDEF 0.00
expand: top_step (2, 0) FAR  w(0) 34300.
	create_child: main_step (1, 11) FAR 33729 UNDEF 0.00
expand: main_step (1, 0) FAR  w(0) 33729. F 0.00
expand: top_step (2, 0) FAR  w(0) 34300. F 0.00
expand: MAIN (3, 0) FAR  w(0) 34256. F 0.00
expand: MAIN (4, 0) FAR  w(0) 34175.
	create_child: top_step (3, 11) FAR 34687 UNDEF 0.00
expand: top_step (3, 0) FAR  w(0) 34687.
	create_child: main_step (2, 11) FAR 34877 U 0.00
expand: main_step (2, 0) FAR  w(0) 34877. F 0.00
expand: top_step (3, 0) FAR  w(0) 34687. F 0.00
expand: MAIN (4, 0) FAR  w(0) 34175. F 0.00
expand: MAIN (5, 0) FAR  w(0) 34158. F 0.00
expand: MAIN (6, 0) FAR  w(0) 34398. F 0.00
expand: MAIN (7, 0) FAR  w(0) 34197. F 0.00
expand: MAIN (8, 0) FAR  w(0) 34318. F 0.00
expand: MAIN (9, 0) FAR  w(0) 2434. F 0.00
expand: ERR (10, 0) FAR  w(0) 1. F 0.00
expand: query!0 (11, 0) FAR  w(0) 1. F 0.00
(spacer::context::check_reachability :time 0.08 :before-memory 29.86 :after-memory 30.05)
Propagating: 1 2 3 4 5 6 7 8 9 10 11  ! 12 
(spacer::context::propagate :time 0.02 :before-memory 30.05 :after-memory 30.05)
Entering level 12
BRUNCH_STAT max_query_lvl 11
BRUNCH_STAT num_queries 149
BRUNCH_STAT num_reach_queries 18
BRUNCH_STAT num_reach_reuse 104
BRUNCH_STAT inductive_lvl 0
BRUNCH_STAT max_depth 12
BRUNCH_STAT cex_depth 0
expand: query!0 (12, 0) FAR  w(0) 1.
	create_child: ERR (11, 12) FAR 1 U 0.00
expand: ERR (11, 0) FAR  w(0) 1.
	create_child: MAIN (10, 12) FAR 2434 U 0.00
expand: MAIN (10, 0) FAR  w(0) 2434.
	create_child: MAIN (9, 12) FAR 36068 U 0.00
expand: MAIN (9, 0) FAR  w(0) 36068.
	create_child: MAIN (8, 12) FAR 36049 U 0.00
expand: MAIN (8, 0) FAR  w(0) 36049.
	create_child: top_step (7, 12) FAR 36099 UNDEF 0.00
expand: top_step (7, 0) FAR  w(0) 36099.
	create_child: MAIN (7, 12) FAR 36014 X 0.00
expand: MAIN (7, 0) FAR  w(0) 36014.
	create_child: top_step (6, 12) FAR 36344 UNDEF 0.00
expand: top_step (6, 0) FAR  w(0) 36344.
	create_child: main_step (5, 12) FAR 36254 UNDEF 0.00
expand: main_step (5, 0) FAR  w(0) 36254.
	create_child: controleur_step (4, 12) FAR 36327 UNDEF 0.00
expand: controleur_step (4, 0) FAR  w(0) 36327. UNDEF 0.00
expand: controleur_step (4, 0) FAR  w(1) 36327. T 0.00
is-reachable: main_step (5, 0) FAR 36254
	create_child: Sofar_step (5, 12) FAR 36613 X 0.01
is-reachable: Sofar_step (5, 0) FAR 36613 T 0.00
is-reachable: top_step (6, 0) FAR 36344
	create_child: MAIN (6, 12) FAR 36594 X 0.00
is-reachable: MAIN (6, 0) FAR 36594 F 0.00
Deleting closed node: Sofar_step(5, 12) 36613
expand: MAIN (6, 0) FAR  w(0) 36594.
	create_child: top_step (5, 12) FAR 36043 UNDEF 0.00
expand: top_step (5, 0) FAR  w(0) 36043.
	create_child: main_step (4, 12) FAR 36633 UNDEF 0.00
expand: main_step (4, 0) FAR  w(0) 36633.
	create_child: Sofar_step (4, 12) FAR 36613 X 0.00
expand: Sofar_step (4, 0) FAR  w(0) 36613. T 0.00
is-reachable: top_step (5, 0) FAR 36043
	create_child: MAIN (5, 12) FAR 15390 X 0.00
is-reachable: MAIN (5, 0) FAR 15390 F 0.00
expand: MAIN (5, 0) FAR  w(0) 15390.
	create_child: MAIN (4, 12) FAR 36542 U 0.00
expand: MAIN (4, 0) FAR  w(0) 36542.
	create_child: top_step (3, 12) FAR 36517 UNDEF 0.00
expand: top_step (3, 0) FAR  w(0) 36517.
	create_child: main_step (2, 12) FAR 35622 UNDEF 0.00
expand: main_step (2, 0) FAR  w(0) 35622.
	create_child: Sofar_step (2, 12) FAR 36613 X 0.01
expand: Sofar_step (2, 0) FAR  w(0) 36613. T 0.00
is-reachable: top_step (3, 0) FAR 36517 T 0.00
is-reachable: MAIN (4, 0) FAR 36542 F 0.00
Deleting closed node: top_step(3, 12) 36517
expand: MAIN (4, 0) FAR  w(1) 36542.
	create_child: MAIN (3, 12) FAR 36366 U 0.00
expand: MAIN (3, 0) FAR  w(0) 36366.
	create_child: top_step (2, 12) FAR 36427 UNDEF 0.00
expand: top_step (2, 0) FAR  w(0) 36427. T 0.00
is-reachable: MAIN (3, 0) FAR 36366 F 0.00
expand: MAIN (3, 0) FAR  w(1) 36366.
	create_child: top_step (2, 12) FAR 36771 U 0.00
expand: top_step (2, 0) FAR  w(0) 36771.
	create_child: main_step (1, 12) FAR 36766 UNDEF 0.00
expand: main_step (1, 0) FAR  w(0) 36766. T 0.00
is-reachable: top_step (2, 0) FAR 36771 F 0.00
expand: top_step (2, 0) FAR  w(1) 36771.
	create_child: main_step (1, 12) FAR 36485 U 0.00
expand: main_step (1, 0) FAR  w(0) 36485. F 0.00
expand: top_step (2, 0) FAR  w(1) 36771. F 0.00
expand: MAIN (3, 0) FAR  w(1) 36366. F 0.00
expand: MAIN (4, 0) FAR  w(1) 36542.
	create_child: top_step (3, 12) FAR 36939 U 0.00
expand: top_step (3, 0) FAR  w(0) 36939. F 0.00
expand: MAIN (4, 0) FAR  w(1) 36542. F 0.00
expand: MAIN (5, 0) FAR  w(0) 15390.
	create_child: top_step (4, 12) FAR 37107 UNDEF 0.00
expand: top_step (4, 0) FAR  w(0) 37107. T 0.00
is-reachable: MAIN (5, 0) FAR 15390 F 0.00
expand: MAIN (5, 0) FAR  w(1) 15390.
	create_child: MAIN (4, 12) FAR 37362 U 0.00
expand: MAIN (4, 0) FAR  w(0) 37362.
	create_child: MAIN (3, 12) FAR 37246 U 0.00
expand: MAIN (3, 0) FAR  w(0) 37246.
	create_child: top_step (2, 12) FAR 37373 U 0.00
expand: top_step (2, 0) FAR  w(0) 37373.
	create_child: main_step (1, 12) FAR 37354 U 0.00
expand: main_step (1, 0) FAR  w(0) 37354. F 0.00
expand: top_step (2, 0) FAR  w(0) 37373. F 0.00
expand: MAIN (3, 0) FAR  w(0) 37246. F 0.00
expand: MAIN (4, 0) FAR  w(0) 37362.
	create_child: top_step (3, 12) FAR 37667 UNDEF 0.00
expand: top_step (3, 0) FAR  w(0) 37667. T 0.00
is-reachable: MAIN (4, 0) FAR 37362 F 0.00
expand: MAIN (4, 0) FAR  w(1) 37362.
	create_child: top_step (3, 12) FAR 37786 U 0.00
expand: top_step (3, 0) FAR  w(0) 37786. F 0.00
expand: MAIN (4, 0) FAR  w(1) 37362. F 0.00
expand: MAIN (5, 0) FAR  w(1) 15390. F 0.00
expand: MAIN (6, 0) FAR  w(0) 36594. F 0.00
Deleting closed node: top_step(6, 12) 36344
expand: MAIN (7, 0) FAR  w(0) 36014. F 0.00
expand: MAIN (8, 0) FAR  w(0) 36049. F 0.00
expand: MAIN (9, 0) FAR  w(0) 36068. F 0.00
expand: MAIN (10, 0) FAR  w(0) 2434. F 0.00
expand: ERR (11, 0) FAR  w(0) 1. F 0.00
expand: query!0 (12, 0) FAR  w(0) 1. F 0.00
(spacer::context::check_reachability :time 0.15 :before-memory 30.05 :after-memory 30.54)
Propagating: 1 2 3 4 5 6 7 8 9 10 11 12  ! 13 
(spacer::context::propagate :time 0.02 :before-memory 30.54 :after-memory 30.54)
Entering level 13
BRUNCH_STAT max_query_lvl 12
BRUNCH_STAT num_queries 175
BRUNCH_STAT num_reach_queries 28
BRUNCH_STAT num_reach_reuse 130
BRUNCH_STAT inductive_lvl 0
BRUNCH_STAT max_depth 13
BRUNCH_STAT cex_depth 0
expand: query!0 (13, 0) FAR  w(0) 1.
	create_child: ERR (12, 13) FAR 1 U 0.00
expand: ERR (12, 0) FAR  w(0) 1.
	create_child: MAIN (11, 13) FAR 2434 U 0.00
expand: MAIN (11, 0) FAR  w(0) 2434.
	create_child: MAIN (10, 13) FAR 39173 U 0.00
expand: MAIN (10, 0) FAR  w(0) 39173.
	create_child: MAIN (9, 13) FAR 39255 U 0.00
expand: MAIN (9, 0) FAR  w(0) 39255.
	create_child: top_step (8, 13) FAR 39085 UNDEF 0.00
expand: top_step (8, 0) FAR  w(0) 39085.
	create_child: MAIN (8, 13) FAR 34398 X 0.00
expand: MAIN (8, 0) FAR  w(0) 34398.
	create_child: top_step (7, 13) FAR 34207 UNDEF 0.00
expand: top_step (7, 0) FAR  w(0) 34207. UNDEF 0.00
expand: top_step (7, 0) FAR  w(1) 34207.
	create_child: MAIN (7, 13) FAR 34158 X 0.00
expand: MAIN (7, 0) FAR  w(0) 34158.
	create_child: top_step (6, 13) FAR 34173 UNDEF 0.00
expand: top_step (6, 0) FAR  w(0) 34173. UNDEF 0.00
expand: top_step (6, 0) FAR  w(1) 34173.
	create_child: MAIN (6, 13) FAR 34175 X 0.00
expand: MAIN (6, 0) FAR  w(0) 34175.
	create_child: top_step (5, 13) FAR 34040 UNDEF 0.00
expand: top_step (5, 0) FAR  w(0) 34040. UNDEF 0.00
expand: top_step (5, 0) FAR  w(1) 34040.
	create_child: MAIN (5, 13) FAR 34256 X 0.00
expand: MAIN (5, 0) FAR  w(0) 34256.
	create_child: top_step (4, 13) FAR 39219 UNDEF 0.00
expand: top_step (4, 0) FAR  w(0) 39219. UNDEF 0.00
expand: top_step (4, 0) FAR  w(1) 39219.
	create_child: MAIN (4, 13) FAR 39205 X 0.00
expand: MAIN (4, 0) FAR  w(0) 39205.
	create_child: top_step (3, 13) FAR 39360 UNDEF 0.00
expand: top_step (3, 0) FAR  w(0) 39360. UNDEF 0.00
expand: top_step (3, 0) FAR  w(1) 39360.
	create_child: MAIN (3, 13) FAR 39313 X 0.00
expand: MAIN (3, 0) FAR  w(0) 39313.
	create_child: top_step (2, 13) FAR 39268 UNDEF 0.00
expand: top_step (2, 0) FAR  w(0) 39268.
	create_child: main_step (1, 13) FAR 39164 UNDEF 0.00
expand: main_step (1, 0) FAR  w(0) 39164. F 0.00
expand: top_step (2, 0) FAR  w(0) 39268. F 0.00
expand: MAIN (3, 0) FAR  w(0) 39313. F 0.00
expand: MAIN (4, 0) FAR  w(0) 39205.
	create_child: top_step (3, 13) FAR 39566 UNDEF 0.00
expand: top_step (3, 0) FAR  w(0) 39566. T 0.00
is-reachable: MAIN (4, 0) FAR 39205 F 0.00
expand: MAIN (4, 0) FAR  w(1) 39205.
	create_child: top_step (3, 13) FAR 39678 U 0.00
expand: top_step (3, 0) FAR  w(0) 39678. F 0.00
expand: MAIN (4, 0) FAR  w(1) 39205. F 0.00
expand: MAIN (5, 0) FAR  w(0) 34256. F 0.00
expand: MAIN (6, 0) FAR  w(0) 34175. F 0.00
expand: MAIN (7, 0) FAR  w(0) 34158. F 0.00
expand: MAIN (8, 0) FAR  w(0) 34398. F 0.00
expand: MAIN (9, 0) FAR  w(0) 39255. F 0.00
expand: MAIN (10, 0) FAR  w(0) 39173. F 0.00
expand: MAIN (11, 0) FAR  w(0) 2434. F 0.00
expand: ERR (12, 0) FAR  w(0) 1. F 0.00
expand: query!0 (13, 0) FAR  w(0) 1. F 0.00
(spacer::context::check_reachability :time 0.08 :before-memory 30.54 :after-memory 30.73)
Propagating: 1 2 3 4 5 6 7 8 9 10 11 12 13  ! 14 
(spacer::context::propagate :time 0.02 :before-memory 30.73 :after-memory 30.73)
Entering level 14
BRUNCH_STAT max_query_lvl 13
BRUNCH_STAT num_queries 189
BRUNCH_STAT num_reach_queries 28
BRUNCH_STAT num_reach_reuse 132
BRUNCH_STAT inductive_lvl 0
BRUNCH_STAT max_depth 14
BRUNCH_STAT cex_depth 0
expand: query!0 (14, 0) FAR  w(0) 1.
	create_child: ERR (13, 14) FAR 1 U 0.00
expand: ERR (13, 0) FAR  w(0) 1.
	create_child: MAIN (12, 14) FAR 2434 U 0.00
expand: MAIN (12, 0) FAR  w(0) 2434.
	create_child: MAIN (11, 14) FAR 41246 U 0.00
expand: MAIN (11, 0) FAR  w(0) 41246.
	create_child: MAIN (10, 14) FAR 41326 U 0.00
expand: MAIN (10, 0) FAR  w(0) 41326.
	create_child: top_step (9, 14) FAR 41252 UNDEF 0.00
expand: top_step (9, 0) FAR  w(0) 41252. UNDEF 0.00
expand: top_step (9, 0) FAR  w(1) 41252.
	create_child: MAIN (9, 14) FAR 34398 X 0.00
expand: MAIN (9, 0) FAR  w(0) 34398.
	create_child: top_step (8, 14) FAR 34207 UNDEF 0.00
expand: top_step (8, 0) FAR  w(0) 34207.
	create_child: MAIN (8, 14) FAR 34158 X 0.00
expand: MAIN (8, 0) FAR  w(0) 34158.
	create_child: top_step (7, 14) FAR 34173 UNDEF 0.00
expand: top_step (7, 0) FAR  w(0) 34173.
	create_child: MAIN (7, 14) FAR 34175 X 0.00
expand: MAIN (7, 0) FAR  w(0) 34175.
	create_child: top_step (6, 14) FAR 34040 UNDEF 0.00
expand: top_step (6, 0) FAR  w(0) 34040.
	create_child: MAIN (6, 14) FAR 34256 X 0.00
expand: MAIN (6, 0) FAR  w(0) 34256.
	create_child: top_step (5, 14) FAR 39219 UNDEF 0.00
expand: top_step (5, 0) FAR  w(0) 39219.
	create_child: MAIN (5, 14) FAR 39205 X 0.00
expand: MAIN (5, 0) FAR  w(0) 39205.
	create_child: top_step (4, 14) FAR 41353 UNDEF 0.00
expand: top_step (4, 0) FAR  w(0) 41353.
	create_child: MAIN (4, 14) FAR 39313 X 0.00
expand: MAIN (4, 0) FAR  w(0) 39313.
	create_child: top_step (3, 14) FAR 41300 UNDEF 0.00
expand: top_step (3, 0) FAR  w(0) 41300.
	create_child: MAIN (3, 14) FAR 41515 X 0.00
expand: MAIN (3, 0) FAR  w(0) 41515.
	create_child: top_step (2, 14) FAR 41542 UNDEF 0.00
expand: top_step (2, 0) FAR  w(0) 41542. T 0.00
is-reachable: MAIN (3, 0) FAR 41515 F 0.00
expand: MAIN (3, 0) FAR  w(1) 41515.
	create_child: top_step (2, 14) FAR 41545 U 0.00
expand: top_step (2, 0) FAR  w(0) 41545.
	create_child: main_step (1, 14) FAR 41473 UNDEF 0.00
expand: main_step (1, 0) FAR  w(0) 41473. T 0.00
is-reachable: top_step (2, 0) FAR 41545 F 0.00
expand: top_step (2, 0) FAR  w(1) 41545.
	create_child: main_step (1, 14) FAR 41680 U 0.00
expand: main_step (1, 0) FAR  w(0) 41680. F 0.00
expand: top_step (2, 0) FAR  w(1) 41545. F 0.00
expand: MAIN (3, 0) FAR  w(1) 41515. F 0.00
expand: MAIN (4, 0) FAR  w(0) 39313.
	create_child: top_step (3, 14) FAR 41759 U 0.00
expand: top_step (3, 0) FAR  w(0) 41759. F 0.00
expand: MAIN (4, 0) FAR  w(0) 39313. F 0.00
expand: MAIN (5, 0) FAR  w(0) 39205. F 0.00
expand: MAIN (6, 0) FAR  w(0) 34256. F 0.00
expand: MAIN (7, 0) FAR  w(0) 34175. F 0.00
expand: MAIN (8, 0) FAR  w(0) 34158. F 0.00
expand: MAIN (9, 0) FAR  w(0) 34398. F 0.00
expand: MAIN (10, 0) FAR  w(0) 41326. F 0.00
expand: MAIN (11, 0) FAR  w(0) 41246. F 0.00
expand: MAIN (12, 0) FAR  w(0) 2434. F 0.00
expand: ERR (13, 0) FAR  w(0) 1. F 0.00
expand: query!0 (14, 0) FAR  w(0) 1. F 0.00
(spacer::context::check_reachability :time 0.10 :before-memory 30.73 :after-memory 32.10)
Propagating: 1 2 3 4 5 6 7 8 9 10 11 12 13 14  ! 15 
(spacer::context::propagate :time 0.02 :before-memory 32.10 :after-memory 32.10)
Entering level 15
BRUNCH_STAT max_query_lvl 14
BRUNCH_STAT num_queries 205
BRUNCH_STAT num_reach_queries 29
BRUNCH_STAT num_reach_reuse 139
BRUNCH_STAT inductive_lvl 0
BRUNCH_STAT max_depth 15
BRUNCH_STAT cex_depth 0
expand: query!0 (15, 0) FAR  w(0) 1.
	create_child: ERR (14, 15) FAR 1 U 0.00
expand: ERR (14, 0) FAR  w(0) 1.
	create_child: MAIN (13, 15) FAR 2434 U 0.00
expand: MAIN (13, 0) FAR  w(0) 2434.
	create_child: MAIN (12, 15) FAR 43463 U 0.00
expand: MAIN (12, 0) FAR  w(0) 43463.
	create_child: MAIN (11, 15) FAR 43536 U 0.00
expand: MAIN (11, 0) FAR  w(0) 43536.
	create_child: MAIN (10, 15) FAR 43710 U 0.00
expand: MAIN (10, 0) FAR  w(0) 43710.
	create_child: MAIN (9, 15) FAR 43532 U 0.00
expand: MAIN (9, 0) FAR  w(0) 43532.
	create_child: MAIN (8, 15) FAR 43932 U 0.00
expand: MAIN (8, 0) FAR  w(0) 43932.
	create_child: MAIN (7, 15) FAR 44135 U 0.00
expand: MAIN (7, 0) FAR  w(0) 44135.
	create_child: MAIN (6, 15) FAR 44332 U 0.00
expand: MAIN (6, 0) FAR  w(0) 44332.
	create_child: MAIN (5, 15) FAR 43582 U 0.00
expand: MAIN (5, 0) FAR  w(0) 43582.
	create_child: MAIN (4, 15) FAR 44431 U 0.00
expand: MAIN (4, 0) FAR  w(0) 44431.
	create_child: MAIN (3, 15) FAR 44594 U 0.00
expand: MAIN (3, 0) FAR  w(0) 44594.
	create_child: top_step (2, 15) FAR 44836 U 0.00
expand: top_step (2, 0) FAR  w(0) 44836.
	create_child: main_step (1, 15) FAR 46104 U 0.01
expand: main_step (1, 0) FAR  w(0) 46104. F 0.01
expand: top_step (2, 0) FAR  w(0) 44836. F 0.00
expand: MAIN (3, 0) FAR  w(0) 44594. F 0.00
expand: MAIN (4, 0) FAR  w(0) 44431.
	create_child: top_step (3, 15) FAR 47561 U 0.00
expand: top_step (3, 0) FAR  w(0) 47561. F 0.00
expand: MAIN (4, 0) FAR  w(0) 44431. F 0.00
expand: MAIN (5, 0) FAR  w(0) 43582. F 0.00
expand: MAIN (6, 0) FAR  w(0) 44332. F 0.00
expand: MAIN (7, 0) FAR  w(0) 44135. F 0.00
expand: MAIN (8, 0) FAR  w(0) 43932. F 0.00
expand: MAIN (9, 0) FAR  w(0) 43532. F 0.00
expand: MAIN (10, 0) FAR  w(0) 43710. F 0.00
expand: MAIN (11, 0) FAR  w(0) 43536. F 0.00
expand: MAIN (12, 0) FAR  w(0) 43463. F 0.00
expand: MAIN (13, 0) FAR  w(0) 2434. F 0.00
expand: ERR (14, 0) FAR  w(0) 1. F 0.00
expand: query!0 (15, 0) FAR  w(0) 1. F 0.00
(spacer::context::check_reachability :time 0.08 :before-memory 32.10 :after-memory 33.87)
Propagating: 1 2 3 4 5 6 7 8 9 10 11 12 13 14 15  ! 16 
(spacer::context::propagate :time 0.03 :before-memory 33.87 :after-memory 33.96)
Entering level 16
BRUNCH_STAT max_query_lvl 15
BRUNCH_STAT num_queries 220
BRUNCH_STAT num_reach_queries 29
BRUNCH_STAT num_reach_reuse 150
BRUNCH_STAT inductive_lvl 0
BRUNCH_STAT max_depth 16
BRUNCH_STAT cex_depth 0
expand: query!0 (16, 0) FAR  w(0) 1.
	create_child: ERR (15, 16) FAR 1 U 0.00
expand: ERR (15, 0) FAR  w(0) 1.
	create_child: MAIN (14, 16) FAR 2434 U 0.00
expand: MAIN (14, 0) FAR  w(0) 2434.
	create_child: MAIN (13, 16) FAR 49458 U 0.00
expand: MAIN (13, 0) FAR  w(0) 49458.
	create_child: top_step (12, 16) FAR 49380 U 0.00
expand: top_step (12, 0) FAR  w(0) 49380.
	create_child: main_step (11, 16) FAR 49533 UNDEF 0.00
expand: main_step (11, 0) FAR  w(0) 49533.
	create_child: controleur_step (10, 16) FAR 49431 UNDEF 0.00
expand: controleur_step (10, 0) FAR  w(0) 49431. UNDEF 0.00
expand: controleur_step (10, 0) FAR  w(1) 49431. T 0.00
is-reachable: main_step (11, 0) FAR 49533 F 0.00
expand: main_step (11, 0) FAR  w(1) 49533.
	create_child: controleur_step (10, 16) FAR 49548 U 0.00
expand: controleur_step (10, 0) FAR  w(0) 49548. F 0.00
expand: main_step (11, 0) FAR  w(1) 49533.
	create_child: controleur_step (10, 16) FAR 49780 U 0.00
expand: controleur_step (10, 0) FAR  w(0) 49780. F 0.00
expand: main_step (11, 0) FAR  w(1) 49533. F 0.00
expand: top_step (12, 0) FAR  w(0) 49380. F 0.00
expand: MAIN (13, 0) FAR  w(0) 49458. F 0.00
expand: MAIN (14, 0) FAR  w(0) 2434.
	create_child: top_step (13, 16) FAR 50143 UNDEF 0.00
expand: top_step (13, 0) FAR  w(0) 50143.
	create_child: MAIN (13, 16) FAR 50209 X 0.00
expand: MAIN (13, 0) FAR  w(0) 50209.
	create_child: MAIN (12, 16) FAR 50302 U 0.00
expand: MAIN (12, 0) FAR  w(0) 50302.
	create_child: MAIN (11, 16) FAR 50371 U 0.00
expand: MAIN (11, 0) FAR  w(0) 50371.
	create_child: MAIN (10, 16) FAR 50334 U 0.00
expand: MAIN (10, 0) FAR  w(0) 50334.
	create_child: MAIN (9, 16) FAR 50234 U 0.00
expand: MAIN (9, 0) FAR  w(0) 50234.
	create_child: MAIN (8, 16) FAR 50252 U 0.00
expand: MAIN (8, 0) FAR  w(0) 50252.
	create_child: MAIN (7, 16) FAR 50381 U 0.00
expand: MAIN (7, 0) FAR  w(0) 50381.
	create_child: MAIN (6, 16) FAR 50473 U 0.00
expand: MAIN (6, 0) FAR  w(0) 50473.
	create_child: MAIN (5, 16) FAR 50171 U 0.00
expand: MAIN (5, 0) FAR  w(0) 50171.
	create_child: MAIN (4, 16) FAR 50370 U 0.00
expand: MAIN (4, 0) FAR  w(0) 50370.
	create_child: MAIN (3, 16) FAR 50543 U 0.00
expand: MAIN (3, 0) FAR  w(0) 50543.
	create_child: top_step (2, 16) FAR 50306 U 0.00
expand: top_step (2, 0) FAR  w(0) 50306.
	create_child: main_step (1, 16) FAR 49863 U 0.00
expand: main_step (1, 0) FAR  w(0) 49863. F 0.00
expand: top_step (2, 0) FAR  w(0) 50306. F 0.00
expand: MAIN (3, 0) FAR  w(0) 50543. F 0.00
expand: MAIN (4, 0) FAR  w(0) 50370.
	create_child: top_step (3, 16) FAR 50758 U 0.00
expand: top_step (3, 0) FAR  w(0) 50758. F 0.00
expand: MAIN (4, 0) FAR  w(0) 50370. F 0.00
expand: MAIN (5, 0) FAR  w(0) 50171.
	create_child: top_step (4, 16) FAR 51006 U 0.00
expand: top_step (4, 0) FAR  w(0) 51006. F 0.00
expand: MAIN (5, 0) FAR  w(0) 50171. F 0.00
expand: MAIN (6, 0) FAR  w(0) 50473.
	create_child: top_step (5, 16) FAR 51194 U 0.00
expand: top_step (5, 0) FAR  w(0) 51194. F 0.00
expand: MAIN (6, 0) FAR  w(0) 50473. F 0.00
expand: MAIN (7, 0) FAR  w(0) 50381.
	create_child: top_step (6, 16) FAR 51381 UNDEF 0.00
expand: top_step (6, 0) FAR  w(0) 51381. T 0.00
is-reachable: MAIN (7, 0) FAR 50381 F 0.00
expand: MAIN (7, 0) FAR  w(1) 50381.
	create_child: top_step (6, 16) FAR 51673 U 0.00
expand: top_step (6, 0) FAR  w(0) 51673. F 0.00
expand: MAIN (7, 0) FAR  w(1) 50381. F 0.00
expand: MAIN (8, 0) FAR  w(0) 50252. F 0.00
expand: MAIN (9, 0) FAR  w(0) 50234.
	create_child: top_step (8, 16) FAR 51448 UNDEF 0.00
expand: top_step (8, 0) FAR  w(0) 51448. UNDEF 0.00
expand: top_step (8, 0) FAR  w(1) 51448. T 0.00
is-reachable: MAIN (9, 0) FAR 50234 F 0.00
expand: MAIN (9, 0) FAR  w(1) 50234.
	create_child: top_step (8, 16) FAR 51480 U 0.00
expand: top_step (8, 0) FAR  w(0) 51480. F 0.00
expand: MAIN (9, 0) FAR  w(1) 50234. F 0.00
expand: MAIN (10, 0) FAR  w(0) 50334. F 0.00
expand: MAIN (11, 0) FAR  w(0) 50371. F 0.00
expand: MAIN (12, 0) FAR  w(0) 50302. F 0.00
expand: MAIN (13, 0) FAR  w(0) 50209.
	create_child: top_step (12, 16) FAR 51562 UNDEF 0.00
expand: top_step (12, 0) FAR  w(0) 51562. T 0.00
is-reachable: MAIN (13, 0) FAR 50209 F 0.00
expand: MAIN (13, 0) FAR  w(1) 50209.
	create_child: MAIN (12, 16) FAR 52023 U 0.00
expand: MAIN (12, 0) FAR  w(0) 52023.
	create_child: MAIN (11, 16) FAR 36014 U 0.00
expand: MAIN (11, 0) FAR  w(0) 36014.
	create_child: MAIN (10, 16) FAR 36594 U 0.00
expand: MAIN (10, 0) FAR  w(0) 36594.
	create_child: MAIN (9, 16) FAR 15390 U 0.00
expand: MAIN (9, 0) FAR  w(0) 15390.
	create_child: MAIN (8, 16) FAR 51856 U 0.00
expand: MAIN (8, 0) FAR  w(0) 51856.
	create_child: top_step (7, 16) FAR 51944 UNDEF 0.00
expand: top_step (7, 0) FAR  w(0) 51944. T 0.00
is-reachable: MAIN (8, 0) FAR 51856 F 0.00
expand: MAIN (8, 0) FAR  w(1) 51856.
	create_child: MAIN (7, 16) FAR 51899 U 0.00
expand: MAIN (7, 0) FAR  w(0) 51899.
	create_child: MAIN (6, 16) FAR 51925 U 0.00
expand: MAIN (6, 0) FAR  w(0) 51925.
	create_child: MAIN (5, 16) FAR 51933 U 0.00
expand: MAIN (5, 0) FAR  w(0) 51933.
	create_child: MAIN (4, 16) FAR 52118 U 0.00
expand: MAIN (4, 0) FAR  w(0) 52118.
	create_child: MAIN (3, 16) FAR 51364 U 0.00
expand: MAIN (3, 0) FAR  w(0) 51364.
	create_child: top_step (2, 16) FAR 52091 UNDEF 0.00
expand: top_step (2, 0) FAR  w(0) 52091. T 0.00
is-reachable: MAIN (3, 0) FAR 51364 F 0.00
expand: MAIN (3, 0) FAR  w(1) 51364.
	create_child: top_step (2, 16) FAR 51823 U 0.00
expand: top_step (2, 0) FAR  w(0) 51823.
	create_child: main_step (1, 16) FAR 52033 U 0.00
expand: main_step (1, 0) FAR  w(0) 52033. F 0.00
expand: top_step (2, 0) FAR  w(0) 51823. F 0.00
expand: MAIN (3, 0) FAR  w(1) 51364. F 0.00
expand: MAIN (4, 0) FAR  w(0) 52118.
	create_child: top_step (3, 16) FAR 52290 UNDEF 0.00
expand: top_step (3, 0) FAR  w(0) 52290. T 0.00
is-reachable: MAIN (4, 0) FAR 52118 F 0.00
expand: MAIN (4, 0) FAR  w(1) 52118.
	create_child: top_step (3, 16) FAR 52402 U 0.00
expand: top_step (3, 0) FAR  w(0) 52402. F 0.00
expand: MAIN (4, 0) FAR  w(1) 52118. F 0.00
expand: MAIN (5, 0) FAR  w(0) 51933. F 0.00
expand: MAIN (6, 0) FAR  w(0) 51925. F 0.00
expand: MAIN (7, 0) FAR  w(0) 51899. F 0.00
expand: MAIN (8, 0) FAR  w(1) 51856. F 0.00
expand: MAIN (9, 0) FAR  w(0) 15390. F 0.00
expand: MAIN (10, 0) FAR  w(0) 36594. F 0.00
expand: MAIN (11, 0) FAR  w(0) 36014. F 0.00
expand: MAIN (12, 0) FAR  w(0) 52023. F 0.00
expand: MAIN (13, 0) FAR  w(1) 50209. F 0.00
expand: MAIN (14, 0) FAR  w(0) 2434. F 0.00
expand: ERR (15, 0) FAR  w(0) 1. F 0.00
expand: query!0 (16, 0) FAR  w(0) 1. F 0.00
(spacer::context::check_reachability :time 0.25 :before-memory 33.96 :after-memory 34.75)
Propagating: 1 2 3 4 5 6 7 8 9 10 11 12 13 14 15 16  ! 17 
(spacer::context::propagate :time 0.04 :before-memory 34.75 :after-memory 34.75)
Entering level 17
BRUNCH_STAT max_query_lvl 16
BRUNCH_STAT num_queries 265
BRUNCH_STAT num_reach_queries 33
BRUNCH_STAT num_reach_reuse 186
BRUNCH_STAT inductive_lvl 0
BRUNCH_STAT max_depth 17
BRUNCH_STAT cex_depth 0
expand: query!0 (17, 0) FAR  w(0) 1.
	create_child: ERR (16, 17) FAR 1 U 0.00
expand: ERR (16, 0) FAR  w(0) 1.
	create_child: MAIN (15, 17) FAR 2434 U 0.00
expand: MAIN (15, 0) FAR  w(0) 2434.
	create_child: MAIN (14, 17) FAR 54291 U 0.00
expand: MAIN (14, 0) FAR  w(0) 54291.
	create_child: top_step (13, 17) FAR 54233 UNDEF 0.00
expand: top_step (13, 0) FAR  w(0) 54233. T 0.00
is-reachable: MAIN (14, 0) FAR 54291 F 0.00
expand: MAIN (14, 0) FAR  w(1) 54291.
	create_child: MAIN (13, 17) FAR 54408 U 0.00
expand: MAIN (13, 0) FAR  w(0) 54408.
	create_child: top_step (12, 17) FAR 54211 UNDEF 0.00
expand: top_step (12, 0) FAR  w(0) 54211. UNDEF 0.00
expand: top_step (12, 0) FAR  w(1) 54211.
	create_child: MAIN (12, 17) FAR 34398 X 0.00
expand: MAIN (12, 0) FAR  w(0) 34398.
	create_child: top_step (11, 17) FAR 54240 UNDEF 0.00
expand: top_step (11, 0) FAR  w(0) 54240.
	create_child: MAIN (11, 17) FAR 34158 X 0.00
expand: MAIN (11, 0) FAR  w(0) 34158.
	create_child: top_step (10, 17) FAR 54374 UNDEF 0.00
expand: top_step (10, 0) FAR  w(0) 54374.
	create_child: MAIN (10, 17) FAR 34175 X 0.00
expand: MAIN (10, 0) FAR  w(0) 34175.
	create_child: top_step (9, 17) FAR 54398 UNDEF 0.00
expand: top_step (9, 0) FAR  w(0) 54398.
	create_child: MAIN (9, 17) FAR 34256 X 0.00
expand: MAIN (9, 0) FAR  w(0) 34256.
	create_child: top_step (8, 17) FAR 54435 UNDEF 0.00
expand: top_step (8, 0) FAR  w(0) 54435.
	create_child: MAIN (8, 17) FAR 39205 X 0.00
expand: MAIN (8, 0) FAR  w(0) 39205.
	create_child: MAIN (7, 17) FAR 54472 U 0.00
expand: MAIN (7, 0) FAR  w(0) 54472.
	create_child: MAIN (6, 17) FAR 54531 U 0.00
expand: MAIN (6, 0) FAR  w(0) 54531.
	create_child: top_step (5, 17) FAR 54566 UNDEF 0.00
expand: top_step (5, 0) FAR  w(0) 54566.
	create_child: MAIN (5, 17) FAR 54318 X 0.00
expand: MAIN (5, 0) FAR  w(0) 54318.
	create_child: top_step (4, 17) FAR 54486 UNDEF 0.00
expand: top_step (4, 0) FAR  w(0) 54486.
	create_child: MAIN (4, 17) FAR 54333 X 0.00
expand: MAIN (4, 0) FAR  w(0) 54333.
	create_child: top_step (3, 17) FAR 54563 UNDEF 0.00
expand: top_step (3, 0) FAR  w(0) 54563.
	create_child: MAIN (3, 17) FAR 54400 X 0.00
expand: MAIN (3, 0) FAR  w(0) 54400.
	create_child: top_step (2, 17) FAR 54459 U 0.00
expand: top_step (2, 0) FAR  w(0) 54459.
	create_child: main_step (1, 17) FAR 54730 U 0.00
expand: main_step (1, 0) FAR  w(0) 54730. F 0.00
expand: top_step (2, 0) FAR  w(0) 54459. F 0.00
expand: MAIN (3, 0) FAR  w(0) 54400. F 0.00
expand: MAIN (4, 0) FAR  w(0) 54333.
	create_child: top_step (3, 17) FAR 54818 U 0.00
expand: top_step (3, 0) FAR  w(0) 54818. F 0.00
expand: MAIN (4, 0) FAR  w(0) 54333. F 0.00
expand: MAIN (5, 0) FAR  w(0) 54318. F 0.00
expand: MAIN (6, 0) FAR  w(0) 54531. F 0.00
expand: MAIN (7, 0) FAR  w(0) 54472. F 0.00
expand: MAIN (8, 0) FAR  w(0) 39205. F 0.00
expand: MAIN (9, 0) FAR  w(0) 34256. F 0.00
expand: MAIN (10, 0) FAR  w(0) 34175. F 0.00
expand: MAIN (11, 0) FAR  w(0) 34158. F 0.00
expand: MAIN (12, 0) FAR  w(0) 34398. F 0.00
expand: MAIN (13, 0) FAR  w(0) 54408. F 0.00
expand: MAIN (14, 0) FAR  w(1) 54291. F 0.00
expand: MAIN (15, 0) FAR  w(0) 2434. F 0.00
expand: ERR (16, 0) FAR  w(0) 1. F 0.00
expand: query!0 (17, 0) FAR  w(0) 1. F 0.00
(spacer::context::check_reachability :time 0.12 :before-memory 34.75 :after-memory 35.03)
Propagating: 1 2 3 4 5 6 7 8 9 10 11 12 13 14 15 16 17  ! 18 
(spacer::context::propagate :time 0.04 :before-memory 35.03 :after-memory 35.13)
Entering level 18
BRUNCH_STAT max_query_lvl 17
BRUNCH_STAT num_queries 283
BRUNCH_STAT num_reach_queries 33
BRUNCH_STAT num_reach_reuse 191
BRUNCH_STAT inductive_lvl 0
BRUNCH_STAT max_depth 18
BRUNCH_STAT cex_depth 0
expand: query!0 (18, 0) FAR  w(0) 1.
	create_child: ERR (17, 18) FAR 1 U 0.00
expand: ERR (17, 0) FAR  w(0) 1.
	create_child: MAIN (16, 18) FAR 2434 U 0.00
expand: MAIN (16, 0) FAR  w(0) 2434.
	create_child: MAIN (15, 18) FAR 50209 U 0.00
expand: MAIN (15, 0) FAR  w(0) 50209.
	create_child: MAIN (14, 18) FAR 52023 U 0.00
expand: MAIN (14, 0) FAR  w(0) 52023.
	create_child: top_step (13, 18) FAR 57196 UNDEF 0.00
expand: top_step (13, 0) FAR  w(0) 57196.
	create_child: MAIN (13, 18) FAR 36014 X 0.01
expand: MAIN (13, 0) FAR  w(0) 36014.
	create_child: top_step (12, 18) FAR 57347 UNDEF 0.00
expand: top_step (12, 0) FAR  w(0) 57347.
	create_child: main_step (11, 18) FAR 57321 UNDEF 0.00
expand: main_step (11, 0) FAR  w(0) 57321. UNDEF 0.00
expand: main_step (11, 0) FAR  w(1) 57321.
	create_child: Sofar_step (11, 18) FAR 36613 X 0.00
expand: Sofar_step (11, 0) FAR  w(0) 36613. T 0.00
is-reachable: top_step (12, 0) FAR 57347
	create_child: MAIN (12, 18) FAR 36594 X 0.00
is-reachable: MAIN (12, 0) FAR 36594 F 0.00
expand: MAIN (12, 0) FAR  w(0) 36594.
	create_child: top_step (11, 18) FAR 57454 UNDEF 0.00
expand: top_step (11, 0) FAR  w(0) 57454.
	create_child: main_step (10, 18) FAR 57139 UNDEF 0.00
expand: main_step (10, 0) FAR  w(0) 57139. UNDEF 0.00
expand: main_step (10, 0) FAR  w(1) 57139.
	create_child: Sofar_step (10, 18) FAR 36613 X 0.00
expand: Sofar_step (10, 0) FAR  w(0) 36613. T 0.00
is-reachable: top_step (11, 0) FAR 57454
	create_child: MAIN (11, 18) FAR 15390 X 0.00
is-reachable: MAIN (11, 0) FAR 15390 F 0.00
expand: MAIN (11, 0) FAR  w(0) 15390.
	create_child: top_step (10, 18) FAR 57300 UNDEF 0.00
expand: top_step (10, 0) FAR  w(0) 57300.
	create_child: main_step (9, 18) FAR 57466 UNDEF 0.00
expand: main_step (9, 0) FAR  w(0) 57466. UNDEF 0.00
expand: main_step (9, 0) FAR  w(1) 57466.
	create_child: Sofar_step (9, 18) FAR 36613 X 0.00
expand: Sofar_step (9, 0) FAR  w(0) 36613. T 0.00
is-reachable: top_step (10, 0) FAR 57300
	create_child: MAIN (10, 18) FAR 51856 X 0.00
is-reachable: MAIN (10, 0) FAR 51856 F 0.00
expand: MAIN (10, 0) FAR  w(0) 51856.
	create_child: top_step (9, 18) FAR 57173 UNDEF 0.00
expand: top_step (9, 0) FAR  w(0) 57173.
	create_child: main_step (8, 18) FAR 57533 UNDEF 0.00
expand: main_step (8, 0) FAR  w(0) 57533. UNDEF 0.00
expand: main_step (8, 0) FAR  w(1) 57533.
	create_child: Sofar_step (8, 18) FAR 36613 X 0.00
expand: Sofar_step (8, 0) FAR  w(0) 36613. T 0.00
is-reachable: top_step (9, 0) FAR 57173
	create_child: MAIN (9, 18) FAR 51899 X 0.00
is-reachable: MAIN (9, 0) FAR 51899 F 0.00
expand: MAIN (9, 0) FAR  w(0) 51899.
	create_child: MAIN (8, 18) FAR 51925 U 0.00
expand: MAIN (8, 0) FAR  w(0) 51925.
	create_child: top_step (7, 18) FAR 57557 UNDEF 0.00
expand: top_step (7, 0) FAR  w(0) 57557.
	create_child: main_step (6, 18) FAR 57482 UNDEF 0.00
expand: main_step (6, 0) FAR  w(0) 57482. UNDEF 0.00
expand: main_step (6, 0) FAR  w(1) 57482.
	create_child: Sofar_step (6, 18) FAR 36613 X 0.00
expand: Sofar_step (6, 0) FAR  w(0) 36613. T 0.00
is-reachable: top_step (7, 0) FAR 57557
	create_child: MAIN (7, 18) FAR 51933 X 0.01
is-reachable: MAIN (7, 0) FAR 51933 F 0.00
expand: MAIN (7, 0) FAR  w(0) 51933.
	create_child: MAIN (6, 18) FAR 52118 U 0.00
expand: MAIN (6, 0) FAR  w(0) 52118.
	create_child: MAIN (5, 18) FAR 51364 U 0.00
expand: MAIN (5, 0) FAR  w(0) 51364.
	create_child: MAIN (4, 18) FAR 57666 U 0.00
expand: MAIN (4, 0) FAR  w(0) 57666.
	create_child: MAIN (3, 18) FAR 57503 U 0.00
expand: MAIN (3, 0) FAR  w(0) 57503.
	create_child: top_step (2, 18) FAR 57705 U 0.00
expand: top_step (2, 0) FAR  w(0) 57705.
	create_child: main_step (1, 18) FAR 57671 U 0.00
expand: main_step (1, 0) FAR  w(0) 57671. F 0.00
expand: top_step (2, 0) FAR  w(0) 57705. F 0.00
expand: MAIN (3, 0) FAR  w(0) 57503. F 0.00
expand: MAIN (4, 0) FAR  w(0) 57666.
	create_child: top_step (3, 18) FAR 57857 UNDEF 0.00
expand: top_step (3, 0) FAR  w(0) 57857. T 0.00
is-reachable: MAIN (4, 0) FAR 57666 F 0.00
expand: MAIN (4, 0) FAR  w(1) 57666.
	create_child: top_step (3, 18) FAR 58177 U 0.00
expand: top_step (3, 0) FAR  w(0) 58177. F 0.00
expand: MAIN (4, 0) FAR  w(1) 57666. F 0.00
expand: MAIN (5, 0) FAR  w(0) 51364. F 0.00
expand: MAIN (6, 0) FAR  w(0) 52118. F 0.00
expand: MAIN (7, 0) FAR  w(0) 51933. F 0.00
expand: MAIN (8, 0) FAR  w(0) 51925. F 0.00
expand: MAIN (9, 0) FAR  w(0) 51899. F 0.00
expand: MAIN (10, 0) FAR  w(0) 51856. F 0.00
expand: MAIN (11, 0) FAR  w(0) 15390. F 0.00
expand: MAIN (12, 0) FAR  w(0) 36594. F 0.00
expand: MAIN (13, 0) FAR  w(0) 36014. F 0.00
expand: MAIN (14, 0) FAR  w(0) 52023. F 0.00
expand: MAIN (15, 0) FAR  w(0) 50209. F 0.00
expand: MAIN (16, 0) FAR  w(0) 2434. F 0.00
expand: ERR (17, 0) FAR  w(0) 1. F 0.00
expand: query!0 (18, 0) FAR  w(0) 1. F 0.00
(spacer::context::check_reachability :time 0.17 :before-memory 35.13 :after-memory 35.54)
Propagating: 1 2 3 4 5 6 7 8 9 10 11 12 13 14 15 16 17 18  ! 19 
(spacer::context::propagate :time 0.04 :before-memory 35.54 :after-memory 35.64)
Entering level 19
BRUNCH_STAT max_query_lvl 18
BRUNCH_STAT num_queries 307
BRUNCH_STAT num_reach_queries 40
BRUNCH_STAT num_reach_reuse 203
BRUNCH_STAT inductive_lvl 0
BRUNCH_STAT max_depth 19
BRUNCH_STAT cex_depth 0
expand: query!0 (19, 0) FAR  w(0) 1.
	create_child: ERR (18, 19) FAR 1 U 0.00
expand: ERR (18, 0) FAR  w(0) 1.
	create_child: MAIN (17, 19) FAR 2434 U 0.00
expand: MAIN (17, 0) FAR  w(0) 2434.
	create_child: MAIN (16, 19) FAR 60393 U 0.00
expand: MAIN (16, 0) FAR  w(0) 60393.
	create_child: MAIN (15, 19) FAR 60465 U 0.00
expand: MAIN (15, 0) FAR  w(0) 60465.
	create_child: top_step (14, 19) FAR 60367 UNDEF 0.00
expand: top_step (14, 0) FAR  w(0) 60367.
	create_child: main_step (13, 19) FAR 60333 UNDEF 0.00
expand: main_step (13, 0) FAR  w(0) 60333. T 0.00
is-reachable: top_step (14, 0) FAR 60367
	create_child: MAIN (14, 19) FAR 34398 X 0.00
is-reachable: MAIN (14, 0) FAR 34398 F 0.00
expand: MAIN (14, 0) FAR  w(0) 34398.
	create_child: top_step (13, 19) FAR 54240 UNDEF 0.00
expand: top_step (13, 0) FAR  w(0) 54240.
	create_child: MAIN (13, 19) FAR 34158 X 0.00
expand: MAIN (13, 0) FAR  w(0) 34158.
	create_child: top_step (12, 19) FAR 54374 UNDEF 0.00
expand: top_step (12, 0) FAR  w(0) 54374.
	create_child: MAIN (12, 19) FAR 34175 X 0.00
expand: MAIN (12, 0) FAR  w(0) 34175.
	create_child: top_step (11, 19) FAR 54398 UNDEF 0.00
expand: top_step (11, 0) FAR  w(0) 54398.
	create_child: MAIN (11, 19) FAR 34256 X 0.00
expand: MAIN (11, 0) FAR  w(0) 34256.
	create_child: top_step (10, 19) FAR 54435 UNDEF 0.00
expand: top_step (10, 0) FAR  w(0) 54435.
	create_child: MAIN (10, 19) FAR 39205 X 0.00
expand: MAIN (10, 0) FAR  w(0) 39205.
	create_child: MAIN (9, 19) FAR 60638 U 0.00
expand: MAIN (9, 0) FAR  w(0) 60638.
	create_child: top_step (8, 19) FAR 57944 UNDEF 0.00
expand: top_step (8, 0) FAR  w(0) 57944.
	create_child: main_step (7, 19) FAR 60512 UNDEF 0.00
expand: main_step (7, 0) FAR  w(0) 60512. T 0.00
is-reachable: top_step (8, 0) FAR 57944
	create_child: MAIN (8, 19) FAR 60443 X 0.01
is-reachable: MAIN (8, 0) FAR 60443 F 0.00
expand: MAIN (8, 0) FAR  w(0) 60443.
	create_child: top_step (7, 19) FAR 60622 UNDEF 0.00
expand: top_step (7, 0) FAR  w(0) 60622.
	create_child: MAIN (7, 19) FAR 60434 X 0.00
expand: MAIN (7, 0) FAR  w(0) 60434.
	create_child: top_step (6, 19) FAR 60583 UNDEF 0.00
expand: top_step (6, 0) FAR  w(0) 60583.
	create_child: main_step (5, 19) FAR 60535 UNDEF 0.00
expand: main_step (5, 0) FAR  w(0) 60535. T 0.00
is-reachable: top_step (6, 0) FAR 60583
	create_child: MAIN (6, 19) FAR 60488 X 0.01
is-reachable: MAIN (6, 0) FAR 60488 F 0.00
expand: MAIN (6, 0) FAR  w(0) 60488.
	create_child: top_step (5, 19) FAR 60649 UNDEF 0.00
expand: top_step (5, 0) FAR  w(0) 60649.
	create_child: MAIN (5, 19) FAR 60800 X 0.01
expand: MAIN (5, 0) FAR  w(0) 60800.
	create_child: top_step (4, 19) FAR 60883 UNDEF 0.00
expand: top_step (4, 0) FAR  w(0) 60883.
	create_child: MAIN (4, 19) FAR 60897 X 0.01
expand: MAIN (4, 0) FAR  w(0) 60897.
	create_child: MAIN (3, 19) FAR 60764 U 0.00
expand: MAIN (3, 0) FAR  w(0) 60764.
	create_child: top_step (2, 19) FAR 61041 U 0.00
expand: top_step (2, 0) FAR  w(0) 61041.
	create_child: main_step (1, 19) FAR 60727 U 0.00
expand: main_step (1, 0) FAR  w(0) 60727. F 0.00
expand: top_step (2, 0) FAR  w(0) 61041. F 0.00
expand: MAIN (3, 0) FAR  w(0) 60764. F 0.00
expand: MAIN (4, 0) FAR  w(0) 60897.
	create_child: top_step (3, 19) FAR 60636 UNDEF 0.01
expand: top_step (3, 0) FAR  w(0) 60636. T 0.00
is-reachable: MAIN (4, 0) FAR 60897 F 0.00
expand: MAIN (4, 0) FAR  w(1) 60897.
	create_child: top_step (3, 19) FAR 61220 U 0.00
expand: top_step (3, 0) FAR  w(0) 61220. F 0.00
expand: MAIN (4, 0) FAR  w(1) 60897. F 0.00
expand: MAIN (5, 0) FAR  w(0) 60800. F 0.00
expand: MAIN (6, 0) FAR  w(0) 60488. F 0.00
expand: MAIN (7, 0) FAR  w(0) 60434. F 0.00
expand: MAIN (8, 0) FAR  w(0) 60443. F 0.00
expand: MAIN (9, 0) FAR  w(0) 60638. F 0.00
expand: MAIN (10, 0) FAR  w(0) 39205. F 0.00
expand: MAIN (11, 0) FAR  w(0) 34256. F 0.00
expand: MAIN (12, 0) FAR  w(0) 34175. F 0.00
expand: MAIN (13, 0) FAR  w(0) 34158. F 0.00
expand: MAIN (14, 0) FAR  w(0) 34398. F 0.00
expand: MAIN (15, 0) FAR  w(0) 60465. F 0.00
expand: MAIN (16, 0) FAR  w(0) 60393. F 0.00
expand: MAIN (17, 0) FAR  w(0) 2434. F 0.00
expand: ERR (18, 0) FAR  w(0) 1. F 0.00
expand: query!0 (19, 0) FAR  w(0) 1. F 0.00
(spacer::context::check_reachability :time 0.17 :before-memory 35.64 :after-memory 35.94)
Propagating: 1 2 3 4 5 6 7 8 9 10 11 12 13 14 15 16 17 18 19  ! 20 
(spacer::context::propagate :time 0.05 :before-memory 35.94 :after-memory 36.69)
Entering level 20
BRUNCH_STAT max_query_lvl 19
BRUNCH_STAT num_queries 330
BRUNCH_STAT num_reach_queries 54
BRUNCH_STAT num_reach_reuse 236
BRUNCH_STAT inductive_lvl 0
BRUNCH_STAT max_depth 20
BRUNCH_STAT cex_depth 0
expand: query!0 (20, 0) FAR  w(0) 1.
	create_child: ERR (19, 20) FAR 1 U 0.00
expand: ERR (19, 0) FAR  w(0) 1.
	create_child: MAIN (18, 20) FAR 2434 U 0.00
expand: MAIN (18, 0) FAR  w(0) 2434.
	create_child: MAIN (17, 20) FAR 50209 U 0.00
expand: MAIN (17, 0) FAR  w(0) 50209.
	create_child: MAIN (16, 20) FAR 52023 U 0.00
expand: MAIN (16, 0) FAR  w(0) 52023.
	create_child: top_step (15, 20) FAR 57196 UNDEF 0.00
expand: top_step (15, 0) FAR  w(0) 57196.
	create_child: main_step (14, 20) FAR 62684 UNDEF 0.00
expand: main_step (14, 0) FAR  w(0) 62684. T 0.00
is-reachable: top_step (15, 0) FAR 57196
	create_child: MAIN (15, 20) FAR 36014 X 0.01
is-reachable: MAIN (15, 0) FAR 36014 F 0.00
expand: MAIN (15, 0) FAR  w(0) 36014.
	create_child: top_step (14, 20) FAR 57347 UNDEF 0.00
expand: top_step (14, 0) FAR  w(0) 57347.
	create_child: MAIN (14, 20) FAR 36594 X 0.00
expand: MAIN (14, 0) FAR  w(0) 36594.
	create_child: top_step (13, 20) FAR 57454 UNDEF 0.00
expand: top_step (13, 0) FAR  w(0) 57454.
	create_child: main_step (12, 20) FAR 63639 UNDEF 0.00
expand: main_step (12, 0) FAR  w(0) 63639. T 0.00
is-reachable: top_step (13, 0) FAR 57454
	create_child: MAIN (13, 20) FAR 15390 X 0.00
is-reachable: MAIN (13, 0) FAR 15390 F 0.00
expand: MAIN (13, 0) FAR  w(0) 15390.
	create_child: top_step (12, 20) FAR 57300 UNDEF 0.00
expand: top_step (12, 0) FAR  w(0) 57300.
	create_child: MAIN (12, 20) FAR 51856 X 0.00
expand: MAIN (12, 0) FAR  w(0) 51856.
	create_child: top_step (11, 20) FAR 57173 UNDEF 0.00
expand: top_step (11, 0) FAR  w(0) 57173.
	create_child: MAIN (11, 20) FAR 51899 X 0.00
expand: MAIN (11, 0) FAR  w(0) 51899.
	create_child: MAIN (10, 20) FAR 51925 U 0.00
expand: MAIN (10, 0) FAR  w(0) 51925.
	create_child: top_step (9, 20) FAR 57557 UNDEF 0.00
expand: top_step (9, 0) FAR  w(0) 57557.
	create_child: main_step (8, 20) FAR 63814 UNDEF 0.00
expand: main_step (8, 0) FAR  w(0) 63814. T 0.00
is-reachable: top_step (9, 0) FAR 57557
	create_child: MAIN (9, 20) FAR 51933 X 0.00
is-reachable: MAIN (9, 0) FAR 51933 F 0.00
expand: MAIN (9, 0) FAR  w(0) 51933.
	create_child: top_step (8, 20) FAR 63553 UNDEF 0.00
expand: top_step (8, 0) FAR  w(0) 63553.
	create_child: MAIN (8, 20) FAR 52118 X 0.00
expand: MAIN (8, 0) FAR  w(0) 52118.
	create_child: top_step (7, 20) FAR 63479 UNDEF 0.00
expand: top_step (7, 0) FAR  w(0) 63479.
	create_child: MAIN (7, 20) FAR 51364 X 0.00
expand: MAIN (7, 0) FAR  w(0) 51364.
	create_child: top_step (6, 20) FAR 63775 UNDEF 0.00
expand: top_step (6, 0) FAR  w(0) 63775.
	create_child: MAIN (6, 20) FAR 57666 X 0.00
expand: MAIN (6, 0) FAR  w(0) 57666.
	create_child: top_step (5, 20) FAR 63712 UNDEF 0.00
expand: top_step (5, 0) FAR  w(0) 63712.
	create_child: MAIN (5, 20) FAR 57503 X 0.00
expand: MAIN (5, 0) FAR  w(0) 57503.
	create_child: MAIN (4, 20) FAR 63795 U 0.00
expand: MAIN (4, 0) FAR  w(0) 63795.
	create_child: MAIN (3, 20) FAR 63496 U 0.00
expand: MAIN (3, 0) FAR  w(0) 63496.
	create_child: top_step (2, 20) FAR 63805 U 0.00
expand: top_step (2, 0) FAR  w(0) 63805.
	create_child: main_step (1, 20) FAR 62670 U 0.00
expand: main_step (1, 0) FAR  w(0) 62670. F 0.00
expand: top_step (2, 0) FAR  w(0) 63805. F 0.00
expand: MAIN (3, 0) FAR  w(0) 63496. F 0.00
expand: MAIN (4, 0) FAR  w(0) 63795.
	create_child: top_step (3, 20) FAR 63935 UNDEF 0.00
expand: top_step (3, 0) FAR  w(0) 63935. T 0.00
is-reachable: MAIN (4, 0) FAR 63795 F 0.00
expand: MAIN (4, 0) FAR  w(1) 63795.
	create_child: top_step (3, 20) FAR 64219 U 0.00
expand: top_step (3, 0) FAR  w(0) 64219. F 0.00
expand: MAIN (4, 0) FAR  w(1) 63795. F 0.00
expand: MAIN (5, 0) FAR  w(0) 57503. F 0.00
expand: MAIN (6, 0) FAR  w(0) 57666. F 0.00
expand: MAIN (7, 0) FAR  w(0) 51364. F 0.00
expand: MAIN (8, 0) FAR  w(0) 52118. F 0.00
expand: MAIN (9, 0) FAR  w(0) 51933. F 0.00
expand: MAIN (10, 0) FAR  w(0) 51925. F 0.00
expand: MAIN (11, 0) FAR  w(0) 51899. F 0.00
expand: MAIN (12, 0) FAR  w(0) 51856. F 0.00
expand: MAIN (13, 0) FAR  w(0) 15390. F 0.00
expand: MAIN (14, 0) FAR  w(0) 36594. F 0.00
expand: MAIN (15, 0) FAR  w(0) 36014. F 0.00
expand: MAIN (16, 0) FAR  w(0) 52023. F 0.00
expand: MAIN (17, 0) FAR  w(0) 50209. F 0.00
expand: MAIN (18, 0) FAR  w(0) 2434. F 0.00
expand: ERR (19, 0) FAR  w(0) 1. F 0.00
expand: query!0 (20, 0) FAR  w(0) 1. F 0.00
(spacer::context::check_reachability :time 0.17 :before-memory 36.69 :after-memory 37.85)
Propagating: 1 2 3 4 5 6 7 8 9 10 11 12 13 14 15 16 17 18 19 20  ! 21 
(spacer::context::propagate :time 0.05 :before-memory 37.85 :after-memory 37.95)
Entering level 21
BRUNCH_STAT max_query_lvl 20
BRUNCH_STAT num_queries 354
BRUNCH_STAT num_reach_queries 68
BRUNCH_STAT num_reach_reuse 270
BRUNCH_STAT inductive_lvl 0
BRUNCH_STAT max_depth 21
BRUNCH_STAT cex_depth 0
expand: query!0 (21, 0) FAR  w(0) 1.
	create_child: ERR (20, 21) FAR 1 U 0.00
expand: ERR (20, 0) FAR  w(0) 1.
	create_child: MAIN (19, 21) FAR 2434 U 0.00
expand: MAIN (19, 0) FAR  w(0) 2434.
	create_child: MAIN (18, 21) FAR 50209 U 0.00
expand: MAIN (18, 0) FAR  w(0) 50209.
	create_child: MAIN (17, 21) FAR 52023 U 0.00
expand: MAIN (17, 0) FAR  w(0) 52023.
	create_child: top_step (16, 21) FAR 57196 UNDEF 0.00
expand: top_step (16, 0) FAR  w(0) 57196.
	create_child: main_step (15, 21) FAR 62684 UNDEF 0.00
expand: main_step (15, 0) FAR  w(0) 62684. T 0.00
is-reachable: top_step (16, 0) FAR 57196
	create_child: MAIN (16, 21) FAR 36014 X 0.01
is-reachable: MAIN (16, 0) FAR 36014 F 0.00
expand: MAIN (16, 0) FAR  w(0) 36014.
	create_child: top_step (15, 21) FAR 57347 UNDEF 0.00
expand: top_step (15, 0) FAR  w(0) 57347.
	create_child: MAIN (15, 21) FAR 36594 X 0.00
expand: MAIN (15, 0) FAR  w(0) 36594.
	create_child: top_step (14, 21) FAR 57454 UNDEF 0.00
expand: top_step (14, 0) FAR  w(0) 57454.
	create_child: MAIN (14, 21) FAR 15390 X 0.00
expand: MAIN (14, 0) FAR  w(0) 15390.
	create_child: top_step (13, 21) FAR 57300 UNDEF 0.00
expand: top_step (13, 0) FAR  w(0) 57300.
	create_child: MAIN (13, 21) FAR 51856 X 0.00
expand: MAIN (13, 0) FAR  w(0) 51856.
	create_child: top_step (12, 21) FAR 57173 UNDEF 0.00
expand: top_step (12, 0) FAR  w(0) 57173.
	create_child: MAIN (12, 21) FAR 51899 X 0.00
expand: MAIN (12, 0) FAR  w(0) 51899.
	create_child: MAIN (11, 21) FAR 51925 U 0.00
expand: MAIN (11, 0) FAR  w(0) 51925.
	create_child: top_step (10, 21) FAR 57557 UNDEF 0.00
expand: top_step (10, 0) FAR  w(0) 57557.
	create_child: MAIN (10, 21) FAR 51933 X 0.00
expand: MAIN (10, 0) FAR  w(0) 51933.
	create_child: top_step (9, 21) FAR 63553 UNDEF 0.00
expand: top_step (9, 0) FAR  w(0) 63553.
	create_child: MAIN (9, 21) FAR 52118 X 0.00
expand: MAIN (9, 0) FAR  w(0) 52118.
	create_child: top_step (8, 21) FAR 63479 UNDEF 0.00
expand: top_step (8, 0) FAR  w(0) 63479.
	create_child: MAIN (8, 21) FAR 51364 X 0.01
expand: MAIN (8, 0) FAR  w(0) 51364.
	create_child: top_step (7, 21) FAR 63775 UNDEF 0.00
expand: top_step (7, 0) FAR  w(0) 63775.
	create_child: MAIN (7, 21) FAR 57666 X 0.01
expand: MAIN (7, 0) FAR  w(0) 57666.
	create_child: top_step (6, 21) FAR 63712 UNDEF 0.00
expand: top_step (6, 0) FAR  w(0) 63712.
	create_child: MAIN (6, 21) FAR 57503 X 0.00
expand: MAIN (6, 0) FAR  w(0) 57503.
	create_child: MAIN (5, 21) FAR 63795 U 0.00
expand: MAIN (5, 0) FAR  w(0) 63795.
	create_child: MAIN (4, 21) FAR 63496 U 0.00
expand: MAIN (4, 0) FAR  w(0) 63496.
	create_child: MAIN (3, 21) FAR 66647 U 0.00
expand: MAIN (3, 0) FAR  w(0) 66647.
	create_child: top_step (2, 21) FAR 66967 UNDEF 0.00
expand: top_step (2, 0) FAR  w(0) 66967.
	create_child: main_step (1, 21) FAR 66553 U 0.00
expand: main_step (1, 0) FAR  w(0) 66553. F 0.00
expand: top_step (2, 0) FAR  w(0) 66967. F 0.00
expand: MAIN (3, 0) FAR  w(0) 66647. F 0.00
expand: MAIN (4, 0) FAR  w(0) 63496.
	create_child: top_step (3, 21) FAR 67046 U 0.00
expand: top_step (3, 0) FAR  w(0) 67046. F 0.00
expand: MAIN (4, 0) FAR  w(0) 63496. F 0.00
expand: MAIN (5, 0) FAR  w(0) 63795. F 0.00
expand: MAIN (6, 0) FAR  w(0) 57503. F 0.00
expand: MAIN (7, 0) FAR  w(0) 57666. F 0.00
expand: MAIN (8, 0) FAR  w(0) 51364. F 0.00
expand: MAIN (9, 0) FAR  w(0) 52118. F 0.00
expand: MAIN (10, 0) FAR  w(0) 51933. F 0.00
expand: MAIN (11, 0) FAR  w(0) 51925. F 0.00
expand: MAIN (12, 0) FAR  w(0) 51899. F 0.00
expand: MAIN (13, 0) FAR  w(0) 51856. F 0.00
expand: MAIN (14, 0) FAR  w(0) 15390. F 0.00
expand: MAIN (15, 0) FAR  w(0) 36594. F 0.00
expand: MAIN (16, 0) FAR  w(0) 36014. F 0.00
expand: MAIN (17, 0) FAR  w(0) 52023. F 0.00
expand: MAIN (18, 0) FAR  w(0) 50209. F 0.00
expand: MAIN (19, 0) FAR  w(0) 2434. F 0.00
expand: ERR (20, 0) FAR  w(0) 1. F 0.00
expand: query!0 (21, 0) FAR  w(0) 1. F 0.00
(spacer::context::check_reachability :time 0.15 :before-memory 37.95 :after-memory 38.18)
Propagating: 1 2 3 4 5 6 7 8 9 10 11 12 13 14 15 16 17 18 19 20 21  ! 22 
(spacer::context::propagate :time 0.05 :before-memory 38.18 :after-memory 38.28)
Entering level 22
BRUNCH_STAT max_query_lvl 21
BRUNCH_STAT num_queries 376
BRUNCH_STAT num_reach_queries 79
BRUNCH_STAT num_reach_reuse 299
BRUNCH_STAT inductive_lvl 0
BRUNCH_STAT max_depth 22
BRUNCH_STAT cex_depth 0
expand: query!0 (22, 0) FAR  w(0) 1.
	create_child: ERR (21, 22) FAR 1 U 0.00
expand: ERR (21, 0) FAR  w(0) 1.
	create_child: MAIN (20, 22) FAR 2434 U 0.00
expand: MAIN (20, 0) FAR  w(0) 2434.
	create_child: MAIN (19, 22) FAR 50209 U 0.00
expand: MAIN (19, 0) FAR  w(0) 50209.
	create_child: MAIN (18, 22) FAR 52023 U 0.00
expand: MAIN (18, 0) FAR  w(0) 52023.
	create_child: top_step (17, 22) FAR 57196 UNDEF 0.00
expand: top_step (17, 0) FAR  w(0) 57196.
	create_child: MAIN (17, 22) FAR 36014 X 0.00
expand: MAIN (17, 0) FAR  w(0) 36014.
	create_child: top_step (16, 22) FAR 57347 UNDEF 0.00
expand: top_step (16, 0) FAR  w(0) 57347.
	create_child: MAIN (16, 22) FAR 36594 X 0.00
expand: MAIN (16, 0) FAR  w(0) 36594.
	create_child: top_step (15, 22) FAR 57454 UNDEF 0.00
expand: top_step (15, 0) FAR  w(0) 57454.
	create_child: MAIN (15, 22) FAR 15390 X 0.00
expand: MAIN (15, 0) FAR  w(0) 15390.
	create_child: top_step (14, 22) FAR 57300 UNDEF 0.00
expand: top_step (14, 0) FAR  w(0) 57300.
	create_child: MAIN (14, 22) FAR 51856 X 0.00
expand: MAIN (14, 0) FAR  w(0) 51856.
	create_child: top_step (13, 22) FAR 57173 UNDEF 0.00
expand: top_step (13, 0) FAR  w(0) 57173.
	create_child: MAIN (13, 22) FAR 51899 X 0.00
expand: MAIN (13, 0) FAR  w(0) 51899.
	create_child: MAIN (12, 22) FAR 51925 U 0.00
expand: MAIN (12, 0) FAR  w(0) 51925.
	create_child: top_step (11, 22) FAR 57557 UNDEF 0.00
expand: top_step (11, 0) FAR  w(0) 57557.
	create_child: MAIN (11, 22) FAR 51933 X 0.00
expand: MAIN (11, 0) FAR  w(0) 51933.
	create_child: top_step (10, 22) FAR 63553 UNDEF 0.00
expand: top_step (10, 0) FAR  w(0) 63553.
	create_child: MAIN (10, 22) FAR 52118 X 0.00
expand: MAIN (10, 0) FAR  w(0) 52118.
	create_child: top_step (9, 22) FAR 63479 UNDEF 0.00
expand: top_step (9, 0) FAR  w(0) 63479.
	create_child: MAIN (9, 22) FAR 51364 X 0.00
expand: MAIN (9, 0) FAR  w(0) 51364.
	create_child: top_step (8, 22) FAR 63775 UNDEF 0.00
expand: top_step (8, 0) FAR  w(0) 63775.
	create_child: MAIN (8, 22) FAR 57666 X 0.00
expand: MAIN (8, 0) FAR  w(0) 57666.
	create_child: top_step (7, 22) FAR 63712 UNDEF 0.00
expand: top_step (7, 0) FAR  w(0) 63712.
	create_child: MAIN (7, 22) FAR 57503 X 0.00
expand: MAIN (7, 0) FAR  w(0) 57503.
	create_child: top_step (6, 22) FAR 69786 UNDEF 0.00
expand: top_step (6, 0) FAR  w(0) 69786.
	create_child: MAIN (6, 22) FAR 63795 X 0.00
expand: MAIN (6, 0) FAR  w(0) 63795.
	create_child: MAIN (5, 22) FAR 63496 U 0.00
expand: MAIN (5, 0) FAR  w(0) 63496.
	create_child: MAIN (4, 22) FAR 66647 U 0.00
expand: MAIN (4, 0) FAR  w(0) 66647.
	create_child: MAIN (3, 22) FAR 69893 U 0.00
expand: MAIN (3, 0) FAR  w(0) 69893.
	create_child: top_reset (2, 22) FAR 70070 U 0.00
expand: top_reset (2, 0) FAR  w(0) 70070.
	create_child: main_reset (1, 22) FAR 69917 UNDEF 0.00
expand: main_reset (1, 0) FAR  w(0) 69917.
	create_child: hypothese_reset (0, 22) FAR 69997 U 0.00
expand: hypothese_reset (0, 0) FAR  w(0) 69997. F 0.00
expand: main_reset (1, 0) FAR  w(0) 69917. F 0.00
expand: top_reset (2, 0) FAR  w(0) 70070. F 0.00
expand: MAIN (3, 0) FAR  w(0) 69893.
	create_child: top_reset (2, 22) FAR 70216 U 0.00
expand: top_reset (2, 0) FAR  w(0) 70216.
	create_child: main_reset (1, 22) FAR 70300 UNDEF 0.00
expand: main_reset (1, 0) FAR  w(0) 70300. F 0.00
expand: top_reset (2, 0) FAR  w(0) 70216. F 0.00
expand: MAIN (3, 0) FAR  w(0) 69893.
	create_child: top_reset (2, 22) FAR 70202 U 0.00
expand: top_reset (2, 0) FAR  w(0) 70202.
	create_child: main_reset (1, 22) FAR 70308 UNDEF 0.00
expand: main_reset (1, 0) FAR  w(0) 70308.
	create_child: Sofar_reset (1, 22) FAR 70336 X 0.00
expand: Sofar_reset (1, 0) FAR  w(0) 70336. F 0.00
expand: top_reset (2, 0) FAR  w(0) 70202. F 0.00
expand: MAIN (3, 0) FAR  w(0) 69893.
	create_child: top_reset (2, 22) FAR 70944 U 0.00
expand: top_reset (2, 0) FAR  w(0) 70944. T 0.00
is-reachable: MAIN (3, 0) FAR 69893 T 0.00
is-reachable: MAIN (4, 0) FAR 66647 T 0.00
is-reachable: MAIN (5, 0) FAR 63496 T 0.00
is-reachable: MAIN (6, 0) FAR 63795 T 0.00
is-reachable: MAIN (7, 0) FAR 57503 T 0.00
is-reachable: MAIN (8, 0) FAR 57666 T 0.00
is-reachable: MAIN (9, 0) FAR 51364 T 0.00
is-reachable: MAIN (10, 0) FAR 52118 T 0.00
is-reachable: MAIN (11, 0) FAR 51933 T 0.00
is-reachable: MAIN (12, 0) FAR 51925 T 0.00
is-reachable: MAIN (13, 0) FAR 51899 T 0.00
is-reachable: MAIN (14, 0) FAR 51856 T 0.00
is-reachable: MAIN (15, 0) FAR 15390 T 0.00
is-reachable: MAIN (16, 0) FAR 36594 T 0.00
is-reachable: MAIN (17, 0) FAR 36014 T 0.00
is-reachable: MAIN (18, 0) FAR 52023 T 0.00
is-reachable: MAIN (19, 0) FAR 50209 T 0.00
is-reachable: MAIN (20, 0) FAR 2434 T 0.01
is-reachable: ERR (21, 0) FAR 1 T 0.00
is-reachable: query!0 (22, 0) FAR 1 T 0.00
(spacer::context::check_reachability :time 0.21 :before-memory 38.28 :after-memory 45.67)
BRUNCH_STAT max_query_lvl 22
BRUNCH_STAT num_queries 403
BRUNCH_STAT num_reach_queries 101
BRUNCH_STAT num_reach_reuse 317
BRUNCH_STAT inductive_lvl 0
BRUNCH_STAT max_depth 22
BRUNCH_STAT cex_depth 22
(:SPACER-cex-depth                     22
 :SPACER-expand-node-undef             174
 :SPACER-max-depth                     22
 :SPACER-max-query-lvl                 22
 :SPACER-num-invariants                122
 :SPACER-num-lemmas                    345
 :SPACER-num-properties                173
 :SPACER-num-queries                   403
 :SPACER-num-reach-queries             101
 :SPACER-num-reuse-reach-facts         317
 :added-eqs                            84107
 :arith-add-rows                       28146
 :arith-assert-diseq                   10292
 :arith-assert-lower                   97404
 :arith-assert-upper                   138602
 :arith-bound-prop                     3989
 :arith-conflicts                      447
 :arith-eq-adapter                     19227
 :arith-fixed-eqs                      20311
 :arith-gcd-tests                      5442
 :arith-gomory-cuts                    1
 :arith-ineq-splits                    38
 :arith-offset-eqs                     12187
 :arith-pivots                         5028
 :bool-inductive-gen                   296
 :bool-inductive-gen-failures          388
 :conflicts                            2650
 :decisions                            155696
 :del-clause                           8529
 :final-checks                         1480
 :minimized-lits                       76
 :mk-bool-var                          52284
 :mk-clause                            23059
 :num-checks                           3552
 :propagations                         842426
 :time.itp_solver.itp_core             0.09
 :time.spacer.init_rules               0.01
 :time.spacer.init_rules.pt.init       0.00
 :time.spacer.solve                    2.76
 :time.spacer.solve.propagate          0.43
 :time.spacer.solve.pt.must_reachable  0.15
 :time.spacer.solve.reach              2.33
 :time.spacer.solve.reach.children     0.50
 :time.spacer.solve.reach.gen.bool_ind 0.19
 :time.spacer.solve.reach.is-reach     0.26
 :time.virtual_solver.proof            0.05
 :time.virtual_solver.smt.total        1.84
 :time.virtual_solver.smt.total.sat    1.11
 :time.virtual_solver.smt.total.undef  0.22
 :virtual_solver.checks                3552
 :virtual_solver.checks.sat            1226
 :virtual_solver.checks.undef          213)
BRUNCH_STAT max_query_lvl 22
BRUNCH_STAT num_queries 403
BRUNCH_STAT num_reach_queries 101
BRUNCH_STAT num_reach_reuse 317
BRUNCH_STAT inductive_lvl 0
BRUNCH_STAT max_depth 22
BRUNCH_STAT cex_depth 22

real	0m3.017s
user	0m2.972s
sys	0m0.044s
