(transform N7datalog13mk_coi_filterE...no-op 0s)
(transform N7datalog25mk_interp_tail_simplifierE...7 rules 0.00166048s)
(transform N7datalog27mk_quantifier_instantiationE...no-op 0s)
(transform N7datalog8mk_scaleE...no-op 0s)
(transform N7datalog18mk_karr_invariantsE...no-op 0s)
(transform N7datalog14mk_array_blastE...no-op 0s)
(transform N7datalog22mk_subsumption_checkerE...6 rules 0s)
(transform N7datalog12mk_bit_blastE...no-op 0s)
(transform N7datalog15mk_rule_inlinerE...no-op 0s)
(transform N7datalog13mk_coi_filterE...no-op 0s)
(transform N7datalog25mk_interp_tail_simplifierE...6 rules 0s)
(transform N7datalog22mk_subsumption_checkerE...no-op 0s)
(transform N7datalog15mk_rule_inlinerE...no-op 0s)
(transform N7datalog13mk_coi_filterE...no-op 0s)
(transform N7datalog25mk_interp_tail_simplifierE...6 rules 0s)
(transform N7datalog22mk_subsumption_checkerE...no-op 0s)
(transform N7datalog15mk_rule_inlinerE...no-op 0s)
(transform N7datalog22mk_subsumption_checkerE...no-op 0s)
(transform N7datalog15mk_rule_inlinerE...no-op 0s)
(transform N7datalog22mk_subsumption_checkerE...no-op 0s)
(transform N7datalog15mk_rule_inlinerE...no-op 0s)
(transform N7datalog22mk_subsumption_checkerE...no-op 0s)
expand: query!0 (0, 0) FAR  w(0) 1. F 0.00
(spacer::context::check_reachability :time 0.00 :before-memory 7.79 :after-memory 8.27)
Entering level 1
BRUNCH_STAT max_query_lvl 0
BRUNCH_STAT num_queries 0
BRUNCH_STAT num_reach_queries 0
BRUNCH_STAT num_reach_reuse 0
BRUNCH_STAT inductive_lvl 0
BRUNCH_STAT max_depth 1
BRUNCH_STAT cex_depth 0
expand: query!0 (1, 0) FAR  w(0) 1.
	create_child: ERR (0, 1) FAR 1 U 0.00
expand: ERR (0, 0) FAR  w(0) 1. F 0.00
expand: query!0 (1, 0) FAR  w(0) 1. F 0.00
(spacer::context::check_reachability :time 0.00 :before-memory 8.27 :after-memory 8.73)
Propagating: 0 1  ! 2 
(spacer::context::propagate :time 0.00 :before-memory 8.73 :after-memory 8.73)
Entering level 2
BRUNCH_STAT max_query_lvl 1
BRUNCH_STAT num_queries 1
BRUNCH_STAT num_reach_queries 0
BRUNCH_STAT num_reach_reuse 0
BRUNCH_STAT inductive_lvl 0
BRUNCH_STAT max_depth 2
BRUNCH_STAT cex_depth 0
expand: query!0 (2, 0) FAR  w(0) 1.
	create_child: ERR (1, 2) FAR 1 U 0.00
expand: ERR (1, 0) FAR  w(0) 1.
	create_child: MAIN (0, 2) FAR 6209 U 0.00
expand: MAIN (0, 0) FAR  w(0) 6209. F 0.01
expand: ERR (1, 0) FAR  w(0) 1. F 0.00
expand: query!0 (2, 0) FAR  w(0) 1. F 0.00
(spacer::context::check_reachability :time 0.01 :before-memory 8.73 :after-memory 11.29)
Propagating: 0 1 2  ! 3 
(spacer::context::propagate :time 0.03 :before-memory 11.29 :after-memory 12.11)
Entering level 3
BRUNCH_STAT max_query_lvl 2
BRUNCH_STAT num_queries 3
BRUNCH_STAT num_reach_queries 0
BRUNCH_STAT num_reach_reuse 0
BRUNCH_STAT inductive_lvl 0
BRUNCH_STAT max_depth 3
BRUNCH_STAT cex_depth 0
expand: query!0 (3, 0) FAR  w(0) 1.
	create_child: ERR (2, 3) FAR 1 U 0.00
expand: ERR (2, 0) FAR  w(0) 1.
	create_child: MAIN (1, 3) FAR 6209 U 0.00
expand: MAIN (1, 0) FAR  w(0) 6209.
	create_child: top_step (0, 3) FAR 18538 UNDEF 0.01
expand: top_step (0, 0) FAR  w(0) 18538. UNDEF 0.01
expand: top_step (0, 0) FAR  w(1) 18538.
	create_child: top_reset (0, 3) FAR 25681 X 0.02
expand: top_reset (0, 0) FAR  w(0) 25681. F 0.00
expand: MAIN (1, 0) FAR  w(0) 6209.
	create_child: top_step (0, 3) FAR 26326 UNDEF 0.01
expand: top_step (0, 0) FAR  w(0) 26326. UNDEF 0.00
expand: top_step (0, 0) FAR  w(1) 26326. F 0.01
expand: MAIN (1, 0) FAR  w(0) 6209. F 0.00
expand: ERR (2, 0) FAR  w(0) 1. F 0.00
expand: query!0 (3, 0) FAR  w(0) 1. F 0.00
(spacer::context::check_reachability :time 0.06 :before-memory 12.11 :after-memory 17.33)
Propagating: 0 1 2 3  ! 4 
(spacer::context::propagate :time 0.00 :before-memory 17.33 :after-memory 17.33)
Entering level 4
BRUNCH_STAT max_query_lvl 3
BRUNCH_STAT num_queries 7
BRUNCH_STAT num_reach_queries 0
BRUNCH_STAT num_reach_reuse 0
BRUNCH_STAT inductive_lvl 0
BRUNCH_STAT max_depth 4
BRUNCH_STAT cex_depth 0
expand: query!0 (4, 0) FAR  w(0) 1.
	create_child: ERR (3, 4) FAR 1 U 0.00
expand: ERR (3, 0) FAR  w(0) 1.
	create_child: MAIN (2, 4) FAR 6209 U 0.00
expand: MAIN (2, 0) FAR  w(0) 6209.
	create_child: top_step (1, 4) FAR 18538 UNDEF 0.01
expand: top_step (1, 0) FAR  w(0) 18538. UNDEF 0.00
expand: top_step (1, 0) FAR  w(1) 18538.
	create_child: MAIN (1, 4) FAR 27774 X 0.01
expand: MAIN (1, 0) FAR  w(0) 27774.
	create_child: top_step (0, 4) FAR 27835 UNDEF 0.00
expand: top_step (0, 0) FAR  w(0) 27835. F 0.00
expand: MAIN (1, 0) FAR  w(0) 27774. F 0.00
expand: MAIN (2, 0) FAR  w(0) 6209.
	create_child: top_step (1, 4) FAR 27606 UNDEF 0.00
expand: top_step (1, 0) FAR  w(0) 27606. UNDEF 0.00
expand: top_step (1, 0) FAR  w(1) 27606.
	create_child: MAIN (1, 4) FAR 28195 X 0.01
expand: MAIN (1, 0) FAR  w(0) 28195.
	create_child: top_step (0, 4) FAR 28004 UNDEF 0.00
expand: top_step (0, 0) FAR  w(0) 28004. F 0.01
expand: MAIN (1, 0) FAR  w(0) 28195. F 0.00
expand: MAIN (2, 0) FAR  w(0) 6209.
	create_child: top_step (1, 4) FAR 27934 UNDEF 0.00
expand: top_step (1, 0) FAR  w(0) 27934. UNDEF 0.00
expand: top_step (1, 0) FAR  w(1) 27934.
	create_child: MAIN (1, 4) FAR 27428 X 0.01
expand: MAIN (1, 0) FAR  w(0) 27428.
	create_child: top_step (0, 4) FAR 27718 UNDEF 0.01
expand: top_step (0, 0) FAR  w(0) 27718. F 0.01
expand: MAIN (1, 0) FAR  w(0) 27428. F 0.01
expand: MAIN (2, 0) FAR  w(0) 6209.
	create_child: top_step (1, 4) FAR 28138 UNDEF 0.00
expand: top_step (1, 0) FAR  w(0) 28138. UNDEF 0.00
expand: top_step (1, 0) FAR  w(1) 28138.
	create_child: MAIN (1, 4) FAR 28666 X 0.01
expand: MAIN (1, 0) FAR  w(0) 28666.
	create_child: top_step (0, 4) FAR 28968 UNDEF 0.01
expand: top_step (0, 0) FAR  w(0) 28968. F 0.01
expand: MAIN (1, 0) FAR  w(0) 28666. F 0.01
expand: MAIN (2, 0) FAR  w(0) 6209.
	create_child: top_step (1, 4) FAR 28907 UNDEF 0.01
expand: top_step (1, 0) FAR  w(0) 28907. UNDEF 0.00
expand: top_step (1, 0) FAR  w(1) 28907.
	create_child: MAIN (1, 4) FAR 29987 X 0.01
expand: MAIN (1, 0) FAR  w(0) 29987.
	create_child: top_step (0, 4) FAR 29211 UNDEF 0.01
expand: top_step (0, 0) FAR  w(0) 29211. F 0.01
expand: MAIN (1, 0) FAR  w(0) 29987. F 0.00
expand: MAIN (2, 0) FAR  w(0) 6209.
	create_child: top_step (1, 4) FAR 30604 UNDEF 0.01
expand: top_step (1, 0) FAR  w(0) 30604. UNDEF 0.00
expand: top_step (1, 0) FAR  w(1) 30604.
	create_child: MAIN (1, 4) FAR 30700 X 0.01
expand: MAIN (1, 0) FAR  w(0) 30700.
	create_child: top_step (0, 4) FAR 30529 UNDEF 0.01
expand: top_step (0, 0) FAR  w(0) 30529. F 0.00
expand: MAIN (1, 0) FAR  w(0) 30700. F 0.01
expand: MAIN (2, 0) FAR  w(0) 6209.
	create_child: top_step (1, 4) FAR 30353 UNDEF 0.01
expand: top_step (1, 0) FAR  w(0) 30353. UNDEF 0.00
expand: top_step (1, 0) FAR  w(1) 30353.
	create_child: MAIN (1, 4) FAR 31069 X 0.01
expand: MAIN (1, 0) FAR  w(0) 31069.
	create_child: top_step (0, 4) FAR 29887 UNDEF 0.01
expand: top_step (0, 0) FAR  w(0) 29887. F 0.01
expand: MAIN (1, 0) FAR  w(0) 31069. F 0.01
expand: MAIN (2, 0) FAR  w(0) 6209.
	create_child: top_step (1, 4) FAR 30701 UNDEF 0.01
expand: top_step (1, 0) FAR  w(0) 30701. UNDEF 0.00
expand: top_step (1, 0) FAR  w(1) 30701.
	create_child: MAIN (1, 4) FAR 31629 X 0.01
expand: MAIN (1, 0) FAR  w(0) 31629.
	create_child: top_step (0, 4) FAR 30809 UNDEF 0.01
expand: top_step (0, 0) FAR  w(0) 30809. F 0.01
expand: MAIN (1, 0) FAR  w(0) 31629. F 0.00
expand: MAIN (2, 0) FAR  w(0) 6209.
	create_child: top_step (1, 4) FAR 31825 UNDEF 0.01
expand: top_step (1, 0) FAR  w(0) 31825. F 0.01
expand: MAIN (2, 0) FAR  w(0) 6209. F 0.00
expand: ERR (3, 0) FAR  w(0) 1. F 0.00
expand: query!0 (4, 0) FAR  w(0) 1. F 0.00
(spacer::context::check_reachability :time 0.30 :before-memory 17.33 :after-memory 19.26)
Propagating: 0 1 2 3 4  ! 5 
(spacer::context::propagate :time 0.04 :before-memory 19.26 :after-memory 19.46)
Entering level 5
BRUNCH_STAT max_query_lvl 4
BRUNCH_STAT num_queries 26
BRUNCH_STAT num_reach_queries 0
BRUNCH_STAT num_reach_reuse 0
BRUNCH_STAT inductive_lvl 0
BRUNCH_STAT max_depth 5
BRUNCH_STAT cex_depth 0
expand: query!0 (5, 0) FAR  w(0) 1.
	create_child: ERR (4, 5) FAR 1 U 0.00
expand: ERR (4, 0) FAR  w(0) 1.
	create_child: MAIN (3, 5) FAR 6209 U 0.00
expand: MAIN (3, 0) FAR  w(0) 6209.
	create_child: top_step (2, 5) FAR 33331 UNDEF 0.01
expand: top_step (2, 0) FAR  w(0) 33331.
	create_child: MAIN (2, 5) FAR 31629 X 0.01
expand: MAIN (2, 0) FAR  w(0) 31629.
	create_child: top_step (1, 5) FAR 31877 UNDEF 0.01
expand: top_step (1, 0) FAR  w(0) 31877. F 0.01
expand: MAIN (2, 0) FAR  w(0) 31629. F 0.01
expand: MAIN (3, 0) FAR  w(0) 6209.
	create_child: top_step (2, 5) FAR 30908 UNDEF 0.01
expand: top_step (2, 0) FAR  w(0) 30908.
	create_child: MAIN (2, 5) FAR 33822 X 0.01
expand: MAIN (2, 0) FAR  w(0) 33822.
	create_child: top_step (1, 5) FAR 33498 UNDEF 0.01
expand: top_step (1, 0) FAR  w(0) 33498. F 0.01
expand: MAIN (2, 0) FAR  w(0) 33822. F 0.01
expand: MAIN (3, 0) FAR  w(0) 6209.
	create_child: top_step (2, 5) FAR 34061 UNDEF 0.01
expand: top_step (2, 0) FAR  w(0) 34061.
	create_child: MAIN (2, 5) FAR 34227 X 0.01
expand: MAIN (2, 0) FAR  w(0) 34227. F 0.01
expand: MAIN (3, 0) FAR  w(0) 6209.
	create_child: top_step (2, 5) FAR 34080 UNDEF 0.01
expand: top_step (2, 0) FAR  w(0) 34080.
	create_child: MAIN (2, 5) FAR 34551 X 0.01
expand: MAIN (2, 0) FAR  w(0) 34551.
	create_child: top_step (1, 5) FAR 33606 UNDEF 0.00
expand: top_step (1, 0) FAR  w(0) 33606. F 0.01
expand: MAIN (2, 0) FAR  w(0) 34551. F 0.00
expand: MAIN (3, 0) FAR  w(0) 6209.
	create_child: top_step (2, 5) FAR 34069 UNDEF 0.00
expand: top_step (2, 0) FAR  w(0) 34069. UNDEF 0.00
expand: top_step (2, 0) FAR  w(1) 34069.
	create_child: MAIN (2, 5) FAR 34606 X 0.01
expand: MAIN (2, 0) FAR  w(0) 34606.
	create_child: top_step (1, 5) FAR 34518 UNDEF 0.01
expand: top_step (1, 0) FAR  w(0) 34518. F 0.01
expand: MAIN (2, 0) FAR  w(0) 34606.
	create_child: top_step (1, 5) FAR 34309 UNDEF 0.01
expand: top_step (1, 0) FAR  w(0) 34309. F 0.01
expand: MAIN (2, 0) FAR  w(0) 34606. F 0.01
expand: MAIN (3, 0) FAR  w(0) 6209.
	create_child: top_step (2, 5) FAR 33631 UNDEF 0.01
expand: top_step (2, 0) FAR  w(0) 33631. UNDEF 0.00
expand: top_step (2, 0) FAR  w(1) 33631.
	create_child: MAIN (2, 5) FAR 34930 X 0.01
expand: MAIN (2, 0) FAR  w(0) 34930.
	create_child: top_step (1, 5) FAR 34109 UNDEF 0.01
expand: top_step (1, 0) FAR  w(0) 34109. F 0.02
expand: MAIN (2, 0) FAR  w(0) 34930. F 0.00
expand: MAIN (3, 0) FAR  w(0) 6209.
	create_child: top_step (2, 5) FAR 36182 UNDEF 0.01
expand: top_step (2, 0) FAR  w(0) 36182. UNDEF 0.00
expand: top_step (2, 0) FAR  w(1) 36182.
	create_child: MAIN (2, 5) FAR 35858 X 0.02
expand: MAIN (2, 0) FAR  w(0) 35858.
	create_child: top_step (1, 5) FAR 36619 UNDEF 0.01
expand: top_step (1, 0) FAR  w(0) 36619. F 0.02
expand: MAIN (2, 0) FAR  w(0) 35858. F 0.01
expand: MAIN (3, 0) FAR  w(0) 6209.
	create_child: top_step (2, 5) FAR 37465 UNDEF 0.01
expand: top_step (2, 0) FAR  w(0) 37465. UNDEF 0.00
expand: top_step (2, 0) FAR  w(1) 37465.
	create_child: MAIN (2, 5) FAR 37666 X 0.01
expand: MAIN (2, 0) FAR  w(0) 37666.
	create_child: top_step (1, 5) FAR 37262 UNDEF 0.01
expand: top_step (1, 0) FAR  w(0) 37262. F 0.02
expand: MAIN (2, 0) FAR  w(0) 37666. F 0.01
expand: MAIN (3, 0) FAR  w(0) 6209.
	create_child: top_step (2, 5) FAR 38312 UNDEF 0.01
expand: top_step (2, 0) FAR  w(0) 38312. UNDEF 0.00
expand: top_step (2, 0) FAR  w(1) 38312.
	create_child: MAIN (2, 5) FAR 38662 X 0.02
expand: MAIN (2, 0) FAR  w(0) 38662. F 0.01
expand: MAIN (3, 0) FAR  w(0) 6209.
	create_child: top_step (2, 5) FAR 38584 UNDEF 0.01
expand: top_step (2, 0) FAR  w(0) 38584. F 0.01
expand: MAIN (3, 0) FAR  w(0) 6209.
	create_child: top_step (2, 5) FAR 38816 UNDEF 0.01
expand: top_step (2, 0) FAR  w(0) 38816. F 0.02
expand: MAIN (3, 0) FAR  w(0) 6209. F 0.00
expand: ERR (4, 0) FAR  w(0) 1. F 0.00
expand: query!0 (5, 0) FAR  w(0) 1. F 0.00
(spacer::context::check_reachability :time 0.46 :before-memory 19.46 :after-memory 20.53)
Propagating: 1 2 3 4 5  ! 6 
(spacer::context::propagate :time 0.08 :before-memory 20.53 :after-memory 20.74)
Entering level 6
BRUNCH_STAT max_query_lvl 5
BRUNCH_STAT num_queries 47
BRUNCH_STAT num_reach_queries 0
BRUNCH_STAT num_reach_reuse 0
BRUNCH_STAT inductive_lvl 0
BRUNCH_STAT max_depth 6
BRUNCH_STAT cex_depth 0
expand: query!0 (6, 0) FAR  w(0) 1.
	create_child: ERR (5, 6) FAR 1 U 0.00
expand: ERR (5, 0) FAR  w(0) 1.
	create_child: MAIN (4, 6) FAR 6209 U 0.00
expand: MAIN (4, 0) FAR  w(0) 6209.
	create_child: top_step (3, 6) FAR 39638 UNDEF 0.01
expand: top_step (3, 0) FAR  w(0) 39638. UNDEF 0.00
expand: top_step (3, 0) FAR  w(1) 39638.
	create_child: MAIN (3, 6) FAR 38662 X 0.02
expand: MAIN (3, 0) FAR  w(0) 38662.
	create_child: top_step (2, 6) FAR 39919 UNDEF 0.01
expand: top_step (2, 0) FAR  w(0) 39919. F 0.02
expand: MAIN (3, 0) FAR  w(0) 38662.
	create_child: top_step (2, 6) FAR 38859 UNDEF 0.01
expand: top_step (2, 0) FAR  w(0) 38859. F 0.01
expand: MAIN (3, 0) FAR  w(0) 38662. F 0.01
expand: MAIN (4, 0) FAR  w(0) 6209.
	create_child: top_step (3, 6) FAR 40550 UNDEF 0.01
expand: top_step (3, 0) FAR  w(0) 40550. UNDEF 0.00
expand: top_step (3, 0) FAR  w(1) 40550.
	create_child: MAIN (3, 6) FAR 40560 X 0.01
expand: MAIN (3, 0) FAR  w(0) 40560.
	create_child: top_step (2, 6) FAR 39765 UNDEF 0.01
expand: top_step (2, 0) FAR  w(0) 39765. F 0.02
expand: MAIN (3, 0) FAR  w(0) 40560. F 0.01
expand: MAIN (4, 0) FAR  w(0) 6209.
	create_child: top_step (3, 6) FAR 41636 UNDEF 0.01
expand: top_step (3, 0) FAR  w(0) 41636. UNDEF 0.00
expand: top_step (3, 0) FAR  w(1) 41636.
	create_child: MAIN (3, 6) FAR 41823 X 0.01
expand: MAIN (3, 0) FAR  w(0) 41823.
	create_child: top_step (2, 6) FAR 40589 UNDEF 0.01
expand: top_step (2, 0) FAR  w(0) 40589. F 0.02
expand: MAIN (3, 0) FAR  w(0) 41823. F 0.01
expand: MAIN (4, 0) FAR  w(0) 6209.
	create_child: top_step (3, 6) FAR 41773 UNDEF 0.01
expand: top_step (3, 0) FAR  w(0) 41773. UNDEF 0.00
expand: top_step (3, 0) FAR  w(1) 41773.
	create_child: MAIN (3, 6) FAR 41228 X 0.01
expand: MAIN (3, 0) FAR  w(0) 41228.
	create_child: top_step (2, 6) FAR 40774 UNDEF 0.01
expand: top_step (2, 0) FAR  w(0) 40774. F 0.02
expand: MAIN (3, 0) FAR  w(0) 41228. F 0.01
expand: MAIN (4, 0) FAR  w(0) 6209.
	create_child: top_step (3, 6) FAR 42260 UNDEF 0.01
expand: top_step (3, 0) FAR  w(0) 42260. UNDEF 0.00
expand: top_step (3, 0) FAR  w(1) 42260.
	create_child: MAIN (3, 6) FAR 42586 X 0.01
expand: MAIN (3, 0) FAR  w(0) 42586.
	create_child: top_step (2, 6) FAR 42177 UNDEF 0.01
expand: top_step (2, 0) FAR  w(0) 42177. F 0.02
expand: MAIN (3, 0) FAR  w(0) 42586.
	create_child: top_step (2, 6) FAR 42446 UNDEF 0.01
expand: top_step (2, 0) FAR  w(0) 42446. F 0.01
expand: MAIN (3, 0) FAR  w(0) 42586. F 0.01
expand: MAIN (4, 0) FAR  w(0) 6209.
	create_child: top_step (3, 6) FAR 43112 UNDEF 0.01
expand: top_step (3, 0) FAR  w(0) 43112. UNDEF 0.00
expand: top_step (3, 0) FAR  w(1) 43112.
	create_child: MAIN (3, 6) FAR 43084 X 0.01
expand: MAIN (3, 0) FAR  w(0) 43084.
	create_child: top_step (2, 6) FAR 42765 UNDEF 0.01
expand: top_step (2, 0) FAR  w(0) 42765. T 0.00
is-reachable: MAIN (3, 0) FAR 43084 F 0.04
expand: MAIN (3, 0) FAR  w(1) 43084.
	create_child: MAIN (2, 6) FAR 43623 U 0.01
expand: MAIN (2, 0) FAR  w(0) 43623. F 0.01
expand: MAIN (3, 0) FAR  w(1) 43084. F 0.01
expand: MAIN (4, 0) FAR  w(0) 6209. F 0.00
expand: ERR (5, 0) FAR  w(0) 1. F 0.00
expand: query!0 (6, 0) FAR  w(0) 1. F 0.00
(spacer::context::check_reachability :time 0.42 :before-memory 20.74 :after-memory 22.10)
Propagating: 2 3 
(spacer::context::propagate :time 0.01 :before-memory 22.10 :after-memory 22.10)
(define-fun ERR () Bool
  false)
(define-fun top_step ((x!0 Bool)
 (x!1 Bool)
 (x!2 Bool)
 (x!3 Bool)
 (x!4 Bool)
 (x!5 Bool)
 (x!6 Bool)
 (x!7 Bool)
 (x!8 Bool)
 (x!9 Bool)
 (x!10 Bool)
 (x!11 Bool)
 (x!12 Bool)
 (x!13 Bool)
 (x!14 Int)
 (x!15 Bool)
 (x!16 Bool)
 (x!17 Int)
 (x!18 Bool)
 (x!19 Bool)
 (x!20 Bool)
 (x!21 Bool)
 (x!22 Bool)
 (x!23 Bool)
 (x!24 Bool)
 (x!25 Bool)
 (x!26 Bool)
 (x!27 Bool)
 (x!28 Bool)
 (x!29 Bool)
 (x!30 Bool)
 (x!31 Int)
 (x!32 Int)
 (x!33 Int)
 (x!34 Int)
 (x!35 Bool)
 (x!36 Bool)
 (x!37 Bool)
 (x!38 Int)
 (x!39 Int)
 (x!40 Int)
 (x!41 Bool)
 (x!42 Bool)
 (x!43 Bool)
 (x!44 Bool)
 (x!45 Int)
 (x!46 Int)
 (x!47 Int)
 (x!48 Bool)
 (x!49 Bool)
 (x!50 Int)
 (x!51 Bool)
 (x!52 Int)
 (x!53 Int)
 (x!54 Bool)
 (x!55 Int)
 (x!56 Bool)
 (x!57 Int)
 (x!58 Bool)
 (x!59 Bool)
 (x!60 Int)
 (x!61 Bool)
 (x!62 Bool)
 (x!63 Bool)
 (x!64 Bool)
 (x!65 Bool)
 (x!66 Bool)
 (x!67 Bool)
 (x!68 Bool)
 (x!69 Bool)
 (x!70 Bool)
 (x!71 Bool)
 (x!72 Bool)
 (x!73 Bool)
 (x!74 Int)
 (x!75 Int)
 (x!76 Int)
 (x!77 Int)
 (x!78 Bool)
 (x!79 Bool)
 (x!80 Bool)
 (x!81 Int)
 (x!82 Int)
 (x!83 Int)
 (x!84 Bool)
 (x!85 Bool)
 (x!86 Bool)
 (x!87 Bool)
 (x!88 Int)
 (x!89 Int)
 (x!90 Int)
 (x!91 Bool)
 (x!92 Bool)
 (x!93 Int)
 (x!94 Bool)
 (x!95 Int)
 (x!96 Int)
 (x!97 Bool)
 (x!98 Int)
 (x!99 Bool)) Bool
  (and (or (not (>= x!39 2)) (= x!83 4) (not (<= x!82 1)))
       x!84
       (or x!13 (not x!56))
       (or x!58 (not x!56))
       (or (<= x!81 0) (not x!56))
       (or (not (>= x!82 2)) (not (<= x!57 1)))
       (or (not (<= x!98 638)) (not x!56))
       (>= (+ x!82 (* (- 1) x!57)) 0)
       (or (= x!83 4) (not x!56))
       (or (not (= x!40 4)) (not x!41) x!13)
       (or (not (= x!40 4)) x!87 (= x!83 4))
       (or (not (= x!40 4)) (not x!97) (= x!83 4))
       (or x!58 x!59)
       (or (not (>= x!40 4)) (not x!44) (not (<= x!83 3)))
       (or (not (>= x!40 4)) (not (<= x!81 0)) (not (<= x!83 3)))
       (or (not (>= x!40 3))
           (not x!97)
           x!54
           (not (<= x!83 3))
           (not (<= x!82 1)))
       (or (not (<= x!82 1)) (= x!83 4) (not (= x!40 4)))
       (or (= x!83 3) (not (<= x!83 3)) (not (<= x!82 1)) (not (>= x!40 3)))
       (or (= x!14 1) x!13)
       (or (not (>= x!40 3)) (not x!41) (not x!44) x!54 x!13 (not (<= x!40 4)))
       (or (<= x!81 0) (not x!58) (= x!14 1))
       (or (not (>= x!40 2)) (not (<= x!83 1)))
       (or (= x!83 3)
           (= x!83 4)
           (not (<= x!40 4))
           (not (<= x!82 1))
           (not (>= x!40 2)))))
(define-fun MAIN ((x!0 Int)
 (x!1 Bool)
 (x!2 Bool)
 (x!3 Int)
 (x!4 Bool)
 (x!5 Bool)
 (x!6 Bool)
 (x!7 Bool)
 (x!8 Bool)
 (x!9 Bool)
 (x!10 Bool)
 (x!11 Bool)
 (x!12 Bool)
 (x!13 Bool)
 (x!14 Bool)
 (x!15 Bool)
 (x!16 Bool)
 (x!17 Int)
 (x!18 Int)
 (x!19 Int)
 (x!20 Int)
 (x!21 Bool)
 (x!22 Bool)
 (x!23 Bool)
 (x!24 Int)
 (x!25 Int)
 (x!26 Int)
 (x!27 Bool)
 (x!28 Bool)
 (x!29 Bool)
 (x!30 Bool)
 (x!31 Int)
 (x!32 Int)
 (x!33 Int)
 (x!34 Bool)
 (x!35 Bool)
 (x!36 Int)
 (x!37 Bool)
 (x!38 Int)
 (x!39 Int)
 (x!40 Bool)
 (x!41 Int)
 (x!42 Bool)
 (x!43 Bool)) Bool
  (and (or (not (<= x!0 1)) (not (<= x!26 3)))
       x!27
       x!43
       (or (not (>= x!25 2)) (not (<= x!0 1)))
       (>= (+ x!25 (* (- 1) x!0)) 0)
       (or x!2 x!1)
       (not (<= x!26 1))
       (or (not (<= x!25 1)) (not (>= x!26 5)))))
(define-fun top_reset ((x!0 Int)
 (x!1 Bool)
 (x!2 Bool)
 (x!3 Int)
 (x!4 Bool)
 (x!5 Bool)
 (x!6 Bool)
 (x!7 Bool)
 (x!8 Bool)
 (x!9 Bool)
 (x!10 Bool)
 (x!11 Bool)
 (x!12 Bool)
 (x!13 Bool)
 (x!14 Bool)
 (x!15 Bool)
 (x!16 Bool)
 (x!17 Int)
 (x!18 Int)
 (x!19 Int)
 (x!20 Int)
 (x!21 Bool)
 (x!22 Bool)
 (x!23 Bool)
 (x!24 Int)
 (x!25 Int)
 (x!26 Int)
 (x!27 Bool)
 (x!28 Bool)
 (x!29 Bool)
 (x!30 Bool)
 (x!31 Int)
 (x!32 Int)
 (x!33 Int)
 (x!34 Bool)
 (x!35 Bool)
 (x!36 Int)
 (x!37 Bool)
 (x!38 Int)
 (x!39 Int)
 (x!40 Bool)
 (x!41 Int)
 (x!42 Bool)
 (x!43 Int)
 (x!44 Bool)
 (x!45 Bool)
 (x!46 Int)
 (x!47 Bool)
 (x!48 Bool)
 (x!49 Bool)
 (x!50 Bool)
 (x!51 Bool)
 (x!52 Bool)
 (x!53 Bool)
 (x!54 Bool)
 (x!55 Bool)
 (x!56 Bool)
 (x!57 Bool)
 (x!58 Bool)
 (x!59 Bool)
 (x!60 Int)
 (x!61 Int)
 (x!62 Int)
 (x!63 Int)
 (x!64 Bool)
 (x!65 Bool)
 (x!66 Bool)
 (x!67 Int)
 (x!68 Int)
 (x!69 Int)
 (x!70 Bool)
 (x!71 Bool)
 (x!72 Bool)
 (x!73 Bool)
 (x!74 Int)
 (x!75 Int)
 (x!76 Int)
 (x!77 Bool)
 (x!78 Bool)
 (x!79 Int)
 (x!80 Bool)
 (x!81 Int)
 (x!82 Int)
 (x!83 Bool)
 (x!84 Int)
 (x!85 Bool)) Bool
  x!85)
BRUNCH_STAT max_query_lvl 6
BRUNCH_STAT num_queries 64
BRUNCH_STAT num_reach_queries 0
BRUNCH_STAT num_reach_reuse 1
BRUNCH_STAT inductive_lvl 3
BRUNCH_STAT max_depth 6
BRUNCH_STAT cex_depth 0
(:SPACER-expand-node-undef             73
 :SPACER-inductive-level               3
 :SPACER-max-depth                     6
 :SPACER-max-query-lvl                 6
 :SPACER-num-invariants                42
 :SPACER-num-lemmas                    70
 :SPACER-num-properties                45
 :SPACER-num-queries                   64
 :SPACER-num-reuse-reach-facts         1
 :added-eqs                            105511
 :arith-add-rows                       24499
 :arith-assert-diseq                   25692
 :arith-assert-lower                   47877
 :arith-assert-upper                   48288
 :arith-bound-prop                     2047
 :arith-conflicts                      197
 :arith-eq-adapter                     17444
 :arith-fixed-eqs                      10783
 :arith-gcd-tests                      3401
 :arith-gomory-cuts                    71
 :arith-ineq-splits                    140
 :arith-offset-eqs                     12028
 :arith-pivots                         4481
 :bool-inductive-gen                   56
 :bool-inductive-gen-failures          115
 :conflicts                            953
 :decisions                            99823
 :del-clause                           20773
 :final-checks                         993
 :interface-eqs                        410
 :minimized-lits                       663
 :mk-bool-var                          35462
 :mk-clause                            32164
 :num-checks                           636
 :propagations                         581771
 :time.itp_solver.itp_core             0.04
 :time.spacer.init_rules               0.01
 :time.spacer.init_rules.pt.init       0.00
 :time.spacer.solve                    1.42
 :time.spacer.solve.propagate          0.16
 :time.spacer.solve.pt.must_reachable  0.10
 :time.spacer.solve.reach              1.26
 :time.spacer.solve.reach.children     0.06
 :time.spacer.solve.reach.gen.bool_ind 0.37
 :time.spacer.solve.reach.is-reach     0.04
 :time.virtual_solver.proof            0.03
 :time.virtual_solver.smt.total        1.23
 :time.virtual_solver.smt.total.sat    0.49
 :time.virtual_solver.smt.total.undef  0.46
 :virtual_solver.checks                636
 :virtual_solver.checks.sat            147
 :virtual_solver.checks.undef          160)
BRUNCH_STAT max_query_lvl 6
BRUNCH_STAT num_queries 64
BRUNCH_STAT num_reach_queries 0
BRUNCH_STAT num_reach_reuse 1
BRUNCH_STAT inductive_lvl 3
BRUNCH_STAT max_depth 6
BRUNCH_STAT cex_depth 0

real	0m1.514s
user	0m1.484s
sys	0m0.028s
