(transform N7datalog13mk_coi_filterE...no-op 0s)
(transform N7datalog25mk_interp_tail_simplifierE...7 rules 0.001722s)
(transform N7datalog27mk_quantifier_instantiationE...no-op 0s)
(transform N7datalog8mk_scaleE...no-op 0s)
(transform N7datalog18mk_karr_invariantsE...no-op 0s)
(transform N7datalog14mk_array_blastE...no-op 0s)
(transform N7datalog22mk_subsumption_checkerE...6 rules 0s)
(transform N7datalog12mk_bit_blastE...no-op 0s)
(transform N7datalog15mk_rule_inlinerE...no-op 0s)
(transform N7datalog13mk_coi_filterE...no-op 0s)
(transform N7datalog25mk_interp_tail_simplifierE...6 rules 0s)
(transform N7datalog22mk_subsumption_checkerE...no-op 0s)
(transform N7datalog15mk_rule_inlinerE...no-op 0s)
(transform N7datalog13mk_coi_filterE...no-op 0s)
(transform N7datalog25mk_interp_tail_simplifierE...6 rules 0s)
(transform N7datalog22mk_subsumption_checkerE...no-op 0s)
(transform N7datalog15mk_rule_inlinerE...no-op 0s)
(transform N7datalog22mk_subsumption_checkerE...no-op 0s)
(transform N7datalog15mk_rule_inlinerE...no-op 0s)
(transform N7datalog22mk_subsumption_checkerE...no-op 0s)
(transform N7datalog15mk_rule_inlinerE...no-op 0s)
(transform N7datalog22mk_subsumption_checkerE...no-op 0s)
expand: query!0 (0, 0) FAR  w(0) 1. F 0.00
(spacer::context::check_reachability :time 0.00 :before-memory 7.82 :after-memory 8.31)
Entering level 1
BRUNCH_STAT max_query_lvl 0
BRUNCH_STAT num_queries 0
BRUNCH_STAT num_reach_queries 0
BRUNCH_STAT num_reach_reuse 0
BRUNCH_STAT inductive_lvl 0
BRUNCH_STAT max_depth 1
BRUNCH_STAT cex_depth 0
expand: query!0 (1, 0) FAR  w(0) 1.
	create_child: ERR (0, 1) FAR 1 U 0.00
expand: ERR (0, 0) FAR  w(0) 1. F 0.00
expand: query!0 (1, 0) FAR  w(0) 1. F 0.00
(spacer::context::check_reachability :time 0.00 :before-memory 8.31 :after-memory 8.77)
Propagating: 0 1  ! 2 
(spacer::context::propagate :time 0.00 :before-memory 8.77 :after-memory 8.77)
Entering level 2
BRUNCH_STAT max_query_lvl 1
BRUNCH_STAT num_queries 1
BRUNCH_STAT num_reach_queries 0
BRUNCH_STAT num_reach_reuse 0
BRUNCH_STAT inductive_lvl 0
BRUNCH_STAT max_depth 2
BRUNCH_STAT cex_depth 0
expand: query!0 (2, 0) FAR  w(0) 1.
	create_child: ERR (1, 2) FAR 1 U 0.00
expand: ERR (1, 0) FAR  w(0) 1.
	create_child: MAIN (0, 2) FAR 6321 U 0.00
expand: MAIN (0, 0) FAR  w(0) 6321. F 0.01
expand: ERR (1, 0) FAR  w(0) 1. F 0.00
expand: query!0 (2, 0) FAR  w(0) 1. F 0.00
(spacer::context::check_reachability :time 0.01 :before-memory 8.77 :after-memory 11.40)
Propagating: 0 1 2  ! 3 
(spacer::context::propagate :time 0.01 :before-memory 11.40 :after-memory 12.05)
Entering level 3
BRUNCH_STAT max_query_lvl 2
BRUNCH_STAT num_queries 3
BRUNCH_STAT num_reach_queries 0
BRUNCH_STAT num_reach_reuse 0
BRUNCH_STAT inductive_lvl 0
BRUNCH_STAT max_depth 3
BRUNCH_STAT cex_depth 0
expand: query!0 (3, 0) FAR  w(0) 1.
	create_child: ERR (2, 3) FAR 1 U 0.00
expand: ERR (2, 0) FAR  w(0) 1.
	create_child: MAIN (1, 3) FAR 6321 U 0.00
expand: MAIN (1, 0) FAR  w(0) 6321.
	create_child: top_step (0, 3) FAR 18545 U 0.00
expand: top_step (0, 0) FAR  w(0) 18545. F 0.02
expand: MAIN (1, 0) FAR  w(0) 6321.
	create_child: top_step (0, 3) FAR 18258 UNDEF 0.01
expand: top_step (0, 0) FAR  w(0) 18258. UNDEF 0.00
expand: top_step (0, 0) FAR  w(1) 18258.
	create_child: top_reset (0, 3) FAR 26765 X 0.01
expand: top_reset (0, 0) FAR  w(0) 26765. F 0.00
expand: MAIN (1, 0) FAR  w(0) 6321. F 0.00
expand: ERR (2, 0) FAR  w(0) 1. F 0.00
expand: query!0 (3, 0) FAR  w(0) 1. F 0.00
(spacer::context::check_reachability :time 0.05 :before-memory 12.05 :after-memory 17.49)
Propagating: 0 1 2 3  ! 4 
(spacer::context::propagate :time 0.00 :before-memory 17.49 :after-memory 17.59)
Entering level 4
BRUNCH_STAT max_query_lvl 3
BRUNCH_STAT num_queries 7
BRUNCH_STAT num_reach_queries 0
BRUNCH_STAT num_reach_reuse 1
BRUNCH_STAT inductive_lvl 0
BRUNCH_STAT max_depth 4
BRUNCH_STAT cex_depth 0
expand: query!0 (4, 0) FAR  w(0) 1.
	create_child: ERR (3, 4) FAR 1 U 0.00
expand: ERR (3, 0) FAR  w(0) 1.
	create_child: MAIN (2, 4) FAR 6321 U 0.00
expand: MAIN (2, 0) FAR  w(0) 6321.
	create_child: top_step (1, 4) FAR 18258 UNDEF 0.00
expand: top_step (1, 0) FAR  w(0) 18258. UNDEF 0.00
expand: top_step (1, 0) FAR  w(1) 18258.
	create_child: MAIN (1, 4) FAR 28025 X 0.01
expand: MAIN (1, 0) FAR  w(0) 28025.
	create_child: top_step (0, 4) FAR 28010 UNDEF 0.00
expand: top_step (0, 0) FAR  w(0) 28010. F 0.00
expand: MAIN (1, 0) FAR  w(0) 28025. F 0.00
expand: MAIN (2, 0) FAR  w(0) 6321.
	create_child: top_step (1, 4) FAR 28077 UNDEF 0.00
expand: top_step (1, 0) FAR  w(0) 28077. UNDEF 0.00
expand: top_step (1, 0) FAR  w(1) 28077.
	create_child: MAIN (1, 4) FAR 28523 X 0.01
expand: MAIN (1, 0) FAR  w(0) 28523.
	create_child: top_step (0, 4) FAR 27822 UNDEF 0.01
expand: top_step (0, 0) FAR  w(0) 27822. F 0.01
expand: MAIN (1, 0) FAR  w(0) 28523. F 0.01
expand: MAIN (2, 0) FAR  w(0) 6321.
	create_child: top_step (1, 4) FAR 29182 UNDEF 0.01
expand: top_step (1, 0) FAR  w(0) 29182. UNDEF 0.00
expand: top_step (1, 0) FAR  w(1) 29182.
	create_child: MAIN (1, 4) FAR 29595 X 0.01
expand: MAIN (1, 0) FAR  w(0) 29595.
	create_child: top_step (0, 4) FAR 29163 UNDEF 0.01
expand: top_step (0, 0) FAR  w(0) 29163. F 0.01
expand: MAIN (1, 0) FAR  w(0) 29595. F 0.00
expand: MAIN (2, 0) FAR  w(0) 6321.
	create_child: top_step (1, 4) FAR 30187 UNDEF 0.01
expand: top_step (1, 0) FAR  w(0) 30187.
	create_child: MAIN (1, 4) FAR 30446 X 0.01
expand: MAIN (1, 0) FAR  w(0) 30446.
	create_child: top_step (0, 4) FAR 30128 UNDEF 0.01
expand: top_step (0, 0) FAR  w(0) 30128. F 0.01
expand: MAIN (1, 0) FAR  w(0) 30446. F 0.00
expand: MAIN (2, 0) FAR  w(0) 6321.
	create_child: top_step (1, 4) FAR 30953 UNDEF 0.00
expand: top_step (1, 0) FAR  w(0) 30953. UNDEF 0.00
expand: top_step (1, 0) FAR  w(1) 30953.
	create_child: MAIN (1, 4) FAR 31061 X 0.01
expand: MAIN (1, 0) FAR  w(0) 31061.
	create_child: top_step (0, 4) FAR 28537 UNDEF 0.01
expand: top_step (0, 0) FAR  w(0) 28537. F 0.01
expand: MAIN (1, 0) FAR  w(0) 31061. F 0.00
expand: MAIN (2, 0) FAR  w(0) 6321.
	create_child: top_step (1, 4) FAR 31565 UNDEF 0.00
expand: top_step (1, 0) FAR  w(0) 31565.
	create_child: MAIN (1, 4) FAR 31970 X 0.01
expand: MAIN (1, 0) FAR  w(0) 31970.
	create_child: top_step (0, 4) FAR 31386 UNDEF 0.01
expand: top_step (0, 0) FAR  w(0) 31386. F 0.01
expand: MAIN (1, 0) FAR  w(0) 31970. F 0.01
expand: MAIN (2, 0) FAR  w(0) 6321.
	create_child: top_step (1, 4) FAR 30400 UNDEF 0.00
expand: top_step (1, 0) FAR  w(0) 30400. F 0.01
expand: MAIN (2, 0) FAR  w(0) 6321. F 0.00
expand: ERR (3, 0) FAR  w(0) 1. F 0.00
expand: query!0 (4, 0) FAR  w(0) 1. F 0.00
(spacer::context::check_reachability :time 0.23 :before-memory 17.59 :after-memory 19.03)
Propagating: 0 1 2 3 4  ! 5 
(spacer::context::propagate :time 0.01 :before-memory 19.03 :after-memory 19.03)
Entering level 5
BRUNCH_STAT max_query_lvl 4
BRUNCH_STAT num_queries 22
BRUNCH_STAT num_reach_queries 0
BRUNCH_STAT num_reach_reuse 1
BRUNCH_STAT inductive_lvl 0
BRUNCH_STAT max_depth 5
BRUNCH_STAT cex_depth 0
expand: query!0 (5, 0) FAR  w(0) 1.
	create_child: ERR (4, 5) FAR 1 U 0.00
expand: ERR (4, 0) FAR  w(0) 1.
	create_child: MAIN (3, 5) FAR 6321 U 0.00
expand: MAIN (3, 0) FAR  w(0) 6321.
	create_child: top_step (2, 5) FAR 28077 UNDEF 0.00
expand: top_step (2, 0) FAR  w(0) 28077. UNDEF 0.00
expand: top_step (2, 0) FAR  w(1) 28077.
	create_child: MAIN (2, 5) FAR 31061 X 0.01
expand: MAIN (2, 0) FAR  w(0) 31061.
	create_child: top_step (1, 5) FAR 32821 UNDEF 0.01
expand: top_step (1, 0) FAR  w(0) 32821. F 0.00
expand: MAIN (2, 0) FAR  w(0) 31061. F 0.01
expand: MAIN (3, 0) FAR  w(0) 6321.
	create_child: top_step (2, 5) FAR 32919 UNDEF 0.01
expand: top_step (2, 0) FAR  w(0) 32919.
	create_child: MAIN (2, 5) FAR 29595 X 0.01
expand: MAIN (2, 0) FAR  w(0) 29595.
	create_child: top_step (1, 5) FAR 33255 UNDEF 0.01
expand: top_step (1, 0) FAR  w(0) 33255. F 0.03
expand: MAIN (2, 0) FAR  w(0) 29595. F 0.01
expand: MAIN (3, 0) FAR  w(0) 6321.
	create_child: top_step (2, 5) FAR 34387 UNDEF 0.00
expand: top_step (2, 0) FAR  w(0) 34387. UNDEF 0.00
expand: top_step (2, 0) FAR  w(1) 34387.
	create_child: MAIN (2, 5) FAR 34902 X 0.01
expand: MAIN (2, 0) FAR  w(0) 34902.
	create_child: top_step (1, 5) FAR 32601 UNDEF 0.01
expand: top_step (1, 0) FAR  w(0) 32601. F 0.00
expand: MAIN (2, 0) FAR  w(0) 34902. F 0.01
expand: MAIN (3, 0) FAR  w(0) 6321.
	create_child: top_step (2, 5) FAR 34875 UNDEF 0.01
expand: top_step (2, 0) FAR  w(0) 34875.
	create_child: MAIN (2, 5) FAR 35307 X 0.01
expand: MAIN (2, 0) FAR  w(0) 35307.
	create_child: top_step (1, 5) FAR 35668 UNDEF 0.01
expand: top_step (1, 0) FAR  w(0) 35668.
	create_child: MAIN (1, 5) FAR 36236 X 0.02
expand: MAIN (1, 0) FAR  w(0) 36236.
	create_child: top_step (0, 5) FAR 35881 UNDEF 0.01
expand: top_step (0, 0) FAR  w(0) 35881. F 0.01
expand: MAIN (1, 0) FAR  w(0) 36236. F 0.00
expand: MAIN (2, 0) FAR  w(0) 35307.
	create_child: top_step (1, 5) FAR 37390 UNDEF 0.03
expand: top_step (1, 0) FAR  w(0) 37390. UNDEF 0.01
expand: top_step (1, 0) FAR  w(1) 37390.
	create_child: MAIN (1, 5) FAR 37763 X 0.01
expand: MAIN (1, 0) FAR  w(0) 37763.
	create_child: top_step (0, 5) FAR 37329 UNDEF 0.01
expand: top_step (0, 0) FAR  w(0) 37329. F 0.01
expand: MAIN (1, 0) FAR  w(0) 37763. F 0.03
expand: MAIN (2, 0) FAR  w(0) 35307.
	create_child: top_step (1, 5) FAR 38756 UNDEF 0.01
expand: top_step (1, 0) FAR  w(0) 38756. UNDEF 0.01
expand: top_step (1, 0) FAR  w(1) 38756.
	create_child: MAIN (1, 5) FAR 39389 X 0.02
expand: MAIN (1, 0) FAR  w(0) 39389.
	create_child: top_step (0, 5) FAR 38445 UNDEF 0.01
expand: top_step (0, 0) FAR  w(0) 38445. F 0.03
expand: MAIN (1, 0) FAR  w(0) 39389. F 0.01
expand: MAIN (2, 0) FAR  w(0) 35307.
	create_child: top_step (1, 5) FAR 38268 UNDEF 0.01
expand: top_step (1, 0) FAR  w(0) 38268. UNDEF 0.01
expand: top_step (1, 0) FAR  w(1) 38268.
	create_child: MAIN (1, 5) FAR 39316 X 0.02
expand: MAIN (1, 0) FAR  w(0) 39316.
	create_child: top_step (0, 5) FAR 39571 UNDEF 0.03
expand: top_step (0, 0) FAR  w(0) 39571. F 0.04
expand: MAIN (1, 0) FAR  w(0) 39316. F 0.06
expand: MAIN (2, 0) FAR  w(0) 35307.
	create_child: top_step (1, 5) FAR 41871 UNDEF 0.03
expand: top_step (1, 0) FAR  w(0) 41871. UNDEF 0.01
expand: top_step (1, 0) FAR  w(1) 41871.
	create_child: MAIN (1, 5) FAR 39627 X 0.09
expand: MAIN (1, 0) FAR  w(0) 39627.
	create_child: top_step (0, 5) FAR 39651 UNDEF 0.02
expand: top_step (0, 0) FAR  w(0) 39651. UNDEF 0.01
expand: top_step (0, 0) FAR  w(1) 39651. T 0.02
is-reachable: MAIN (1, 0) FAR 39627 F 0.58
expand: MAIN (1, 0) FAR  w(1) 39627.
	create_child: top_step (0, 5) FAR 50753 U 2.83
expand: top_step (0, 0) FAR  w(0) 50753. F 0.05
expand: MAIN (1, 0) FAR  w(1) 39627.
real	15m30.005s
user	15m29.756s
sys	0m0.216s
