(transform N7datalog13mk_coi_filterE...no-op 0s)
(transform N7datalog25mk_interp_tail_simplifierE...7 rules 0.00176708s)
(transform N7datalog27mk_quantifier_instantiationE...no-op 0s)
(transform N7datalog8mk_scaleE...no-op 0s)
(transform N7datalog18mk_karr_invariantsE...no-op 0s)
(transform N7datalog14mk_array_blastE...no-op 0s)
(transform N7datalog22mk_subsumption_checkerE...6 rules 0s)
(transform N7datalog12mk_bit_blastE...no-op 0s)
(transform N7datalog15mk_rule_inlinerE...no-op 0s)
(transform N7datalog13mk_coi_filterE...no-op 0s)
(transform N7datalog25mk_interp_tail_simplifierE...6 rules 0s)
(transform N7datalog22mk_subsumption_checkerE...no-op 0s)
(transform N7datalog15mk_rule_inlinerE...no-op 0s)
(transform N7datalog13mk_coi_filterE...no-op 0s)
(transform N7datalog25mk_interp_tail_simplifierE...6 rules 0s)
(transform N7datalog22mk_subsumption_checkerE...no-op 0s)
(transform N7datalog15mk_rule_inlinerE...no-op 0s)
(transform N7datalog22mk_subsumption_checkerE...no-op 0s)
(transform N7datalog15mk_rule_inlinerE...no-op 0s)
(transform N7datalog22mk_subsumption_checkerE...no-op 0s)
(transform N7datalog15mk_rule_inlinerE...no-op 0s)
(transform N7datalog22mk_subsumption_checkerE...no-op 0s)
expand: query!0 (0, 0) FAR  w(0) 1. F 0.00
(spacer::context::check_reachability :time 0.00 :before-memory 7.91 :after-memory 8.32)
Entering level 1
BRUNCH_STAT max_query_lvl 0
BRUNCH_STAT num_queries 0
BRUNCH_STAT num_reach_queries 0
BRUNCH_STAT num_reach_reuse 0
BRUNCH_STAT inductive_lvl 0
BRUNCH_STAT max_depth 1
BRUNCH_STAT cex_depth 0
expand: query!0 (1, 0) FAR  w(0) 1.
	create_child: ERR (0, 1) FAR 1 U 0.00
expand: ERR (0, 0) FAR  w(0) 1. F 0.00
expand: query!0 (1, 0) FAR  w(0) 1. F 0.00
(spacer::context::check_reachability :time 0.00 :before-memory 8.32 :after-memory 8.78)
Propagating: 0 1  ! 2 
(spacer::context::propagate :time 0.00 :before-memory 8.78 :after-memory 8.78)
Entering level 2
BRUNCH_STAT max_query_lvl 1
BRUNCH_STAT num_queries 1
BRUNCH_STAT num_reach_queries 0
BRUNCH_STAT num_reach_reuse 0
BRUNCH_STAT inductive_lvl 0
BRUNCH_STAT max_depth 2
BRUNCH_STAT cex_depth 0
expand: query!0 (2, 0) FAR  w(0) 1.
	create_child: ERR (1, 2) FAR 1 U 0.00
expand: ERR (1, 0) FAR  w(0) 1.
	create_child: MAIN (0, 2) FAR 6379 U 0.00
expand: MAIN (0, 0) FAR  w(0) 6379. F 0.01
expand: ERR (1, 0) FAR  w(0) 1. F 0.00
expand: query!0 (2, 0) FAR  w(0) 1. F 0.00
(spacer::context::check_reachability :time 0.01 :before-memory 8.78 :after-memory 11.39)
Propagating: 0 1 2  ! 3 
(spacer::context::propagate :time 0.02 :before-memory 11.39 :after-memory 12.15)
Entering level 3
BRUNCH_STAT max_query_lvl 2
BRUNCH_STAT num_queries 3
BRUNCH_STAT num_reach_queries 0
BRUNCH_STAT num_reach_reuse 0
BRUNCH_STAT inductive_lvl 0
BRUNCH_STAT max_depth 3
BRUNCH_STAT cex_depth 0
expand: query!0 (3, 0) FAR  w(0) 1.
	create_child: ERR (2, 3) FAR 1 U 0.00
expand: ERR (2, 0) FAR  w(0) 1.
	create_child: MAIN (1, 3) FAR 6379 U 0.00
expand: MAIN (1, 0) FAR  w(0) 6379.
	create_child: top_step (0, 3) FAR 19353 UNDEF 0.01
expand: top_step (0, 0) FAR  w(0) 19353. F 0.01
expand: MAIN (1, 0) FAR  w(0) 6379. F 0.00
expand: ERR (2, 0) FAR  w(0) 1. F 0.00
expand: query!0 (3, 0) FAR  w(0) 1. F 0.00
(spacer::context::check_reachability :time 0.02 :before-memory 12.15 :after-memory 14.96)
Propagating: 0 1 
(spacer::context::propagate :time 0.00 :before-memory 14.96 :after-memory 14.96)
(define-fun ERR () Bool
  false)
(define-fun MAIN ((x!0 Int)
 (x!1 Bool)
 (x!2 Bool)
 (x!3 Int)
 (x!4 Bool)
 (x!5 Bool)
 (x!6 Bool)
 (x!7 Int)
 (x!8 Bool)
 (x!9 Bool)
 (x!10 Bool)
 (x!11 Bool)
 (x!12 Bool)
 (x!13 Bool)
 (x!14 Bool)
 (x!15 Bool)
 (x!16 Bool)
 (x!17 Bool)
 (x!18 Bool)
 (x!19 Bool)
 (x!20 Int)
 (x!21 Int)
 (x!22 Int)
 (x!23 Bool)
 (x!24 Int)
 (x!25 Int)
 (x!26 Bool)
 (x!27 Bool)
 (x!28 Int)
 (x!29 Int)
 (x!30 Bool)
 (x!31 Int)
 (x!32 Bool)
 (x!33 Bool)
 (x!34 Bool)
 (x!35 Int)
 (x!36 Int)
 (x!37 Bool)
 (x!38 Int)
 (x!39 Int)
 (x!40 Int)
 (x!41 Bool)
 (x!42 Int)
 (x!43 Bool)
 (x!44 Bool)) Bool
  x!44)
(define-fun top_reset ((x!0 Int)
 (x!1 Bool)
 (x!2 Bool)
 (x!3 Int)
 (x!4 Bool)
 (x!5 Bool)
 (x!6 Bool)
 (x!7 Int)
 (x!8 Bool)
 (x!9 Bool)
 (x!10 Bool)
 (x!11 Bool)
 (x!12 Bool)
 (x!13 Bool)
 (x!14 Bool)
 (x!15 Bool)
 (x!16 Bool)
 (x!17 Bool)
 (x!18 Bool)
 (x!19 Bool)
 (x!20 Int)
 (x!21 Int)
 (x!22 Int)
 (x!23 Bool)
 (x!24 Int)
 (x!25 Int)
 (x!26 Bool)
 (x!27 Bool)
 (x!28 Int)
 (x!29 Int)
 (x!30 Bool)
 (x!31 Int)
 (x!32 Bool)
 (x!33 Bool)
 (x!34 Bool)
 (x!35 Int)
 (x!36 Int)
 (x!37 Bool)
 (x!38 Int)
 (x!39 Int)
 (x!40 Int)
 (x!41 Bool)
 (x!42 Int)
 (x!43 Bool)
 (x!44 Int)
 (x!45 Bool)
 (x!46 Bool)
 (x!47 Int)
 (x!48 Bool)
 (x!49 Bool)
 (x!50 Bool)
 (x!51 Int)
 (x!52 Bool)
 (x!53 Bool)
 (x!54 Bool)
 (x!55 Bool)
 (x!56 Bool)
 (x!57 Bool)
 (x!58 Bool)
 (x!59 Bool)
 (x!60 Bool)
 (x!61 Bool)
 (x!62 Bool)
 (x!63 Bool)
 (x!64 Int)
 (x!65 Int)
 (x!66 Int)
 (x!67 Bool)
 (x!68 Int)
 (x!69 Int)
 (x!70 Bool)
 (x!71 Bool)
 (x!72 Int)
 (x!73 Int)
 (x!74 Bool)
 (x!75 Int)
 (x!76 Bool)
 (x!77 Bool)
 (x!78 Bool)
 (x!79 Int)
 (x!80 Int)
 (x!81 Bool)
 (x!82 Int)
 (x!83 Int)
 (x!84 Int)
 (x!85 Bool)
 (x!86 Int)
 (x!87 Bool)) Bool
  true)
(define-fun top_step ((x!0 Bool)
 (x!1 Bool)
 (x!2 Bool)
 (x!3 Bool)
 (x!4 Bool)
 (x!5 Bool)
 (x!6 Bool)
 (x!7 Bool)
 (x!8 Bool)
 (x!9 Bool)
 (x!10 Bool)
 (x!11 Bool)
 (x!12 Bool)
 (x!13 Bool)
 (x!14 Int)
 (x!15 Bool)
 (x!16 Bool)
 (x!17 Int)
 (x!18 Bool)
 (x!19 Bool)
 (x!20 Bool)
 (x!21 Int)
 (x!22 Bool)
 (x!23 Bool)
 (x!24 Bool)
 (x!25 Bool)
 (x!26 Bool)
 (x!27 Bool)
 (x!28 Bool)
 (x!29 Bool)
 (x!30 Bool)
 (x!31 Bool)
 (x!32 Bool)
 (x!33 Bool)
 (x!34 Int)
 (x!35 Int)
 (x!36 Int)
 (x!37 Bool)
 (x!38 Int)
 (x!39 Int)
 (x!40 Bool)
 (x!41 Bool)
 (x!42 Int)
 (x!43 Int)
 (x!44 Bool)
 (x!45 Int)
 (x!46 Bool)
 (x!47 Bool)
 (x!48 Bool)
 (x!49 Int)
 (x!50 Int)
 (x!51 Bool)
 (x!52 Int)
 (x!53 Int)
 (x!54 Int)
 (x!55 Bool)
 (x!56 Int)
 (x!57 Bool)
 (x!58 Int)
 (x!59 Bool)
 (x!60 Bool)
 (x!61 Int)
 (x!62 Bool)
 (x!63 Bool)
 (x!64 Bool)
 (x!65 Int)
 (x!66 Bool)
 (x!67 Bool)
 (x!68 Bool)
 (x!69 Bool)
 (x!70 Bool)
 (x!71 Bool)
 (x!72 Bool)
 (x!73 Bool)
 (x!74 Bool)
 (x!75 Bool)
 (x!76 Bool)
 (x!77 Bool)
 (x!78 Int)
 (x!79 Int)
 (x!80 Int)
 (x!81 Bool)
 (x!82 Int)
 (x!83 Int)
 (x!84 Bool)
 (x!85 Bool)
 (x!86 Int)
 (x!87 Int)
 (x!88 Bool)
 (x!89 Int)
 (x!90 Bool)
 (x!91 Bool)
 (x!92 Bool)
 (x!93 Int)
 (x!94 Int)
 (x!95 Bool)
 (x!96 Int)
 (x!97 Int)
 (x!98 Int)
 (x!99 Bool)
 (x!100 Int)
 (x!101 Bool)) Bool
  x!13)
BRUNCH_STAT max_query_lvl 3
BRUNCH_STAT num_queries 6
BRUNCH_STAT num_reach_queries 0
BRUNCH_STAT num_reach_reuse 0
BRUNCH_STAT inductive_lvl 1
BRUNCH_STAT max_depth 3
BRUNCH_STAT cex_depth 0
(:SPACER-expand-node-undef             1
 :SPACER-inductive-level               1
 :SPACER-max-depth                     3
 :SPACER-max-query-lvl                 3
 :SPACER-num-invariants                4
 :SPACER-num-lemmas                    10
 :SPACER-num-properties                5
 :SPACER-num-queries                   6
 :added-eqs                            2219
 :arith-add-rows                       1112
 :arith-assert-diseq                   410
 :arith-assert-lower                   1146
 :arith-assert-upper                   1190
 :arith-bound-prop                     181
 :arith-conflicts                      13
 :arith-eq-adapter                     482
 :arith-fixed-eqs                      212
 :arith-gcd-tests                      81
 :arith-gomory-cuts                    3
 :arith-ineq-splits                    5
 :arith-offset-eqs                     619
 :arith-pivots                         313
 :bool-inductive-gen                   2
 :bool-inductive-gen-failures          2
 :conflicts                            60
 :decisions                            1644
 :del-clause                           393
 :final-checks                         27
 :interface-eqs                        4
 :minimized-lits                       12
 :mk-bool-var                          3373
 :mk-clause                            6936
 :num-checks                           37
 :propagations                         11883
 :time.itp_solver.itp_core             0.00
 :time.spacer.init_rules               0.01
 :time.spacer.init_rules.pt.init       0.00
 :time.spacer.solve                    0.06
 :time.spacer.solve.propagate          0.02
 :time.spacer.solve.reach              0.04
 :time.spacer.solve.reach.children     0.00
 :time.spacer.solve.reach.gen.bool_ind 0.00
 :time.virtual_solver.proof            0.00
 :time.virtual_solver.smt.total        0.05
 :time.virtual_solver.smt.total.sat    0.02
 :time.virtual_solver.smt.total.undef  0.00
 :virtual_solver.checks                37
 :virtual_solver.checks.sat            11
 :virtual_solver.checks.undef          1)
BRUNCH_STAT max_query_lvl 3
BRUNCH_STAT num_queries 6
BRUNCH_STAT num_reach_queries 0
BRUNCH_STAT num_reach_reuse 0
BRUNCH_STAT inductive_lvl 1
BRUNCH_STAT max_depth 3
BRUNCH_STAT cex_depth 0

real	0m0.106s
user	0m0.096s
sys	0m0.008s
