(transform N7datalog13mk_coi_filterE...no-op 0s)
(transform N7datalog25mk_interp_tail_simplifierE...7 rules 0.00174038s)
(transform N7datalog27mk_quantifier_instantiationE...no-op 0s)
(transform N7datalog8mk_scaleE...no-op 0s)
(transform N7datalog18mk_karr_invariantsE...no-op 0s)
(transform N7datalog14mk_array_blastE...no-op 0s)
(transform N7datalog22mk_subsumption_checkerE...6 rules 0s)
(transform N7datalog12mk_bit_blastE...no-op 0s)
(transform N7datalog15mk_rule_inlinerE...no-op 0s)
(transform N7datalog13mk_coi_filterE...no-op 0s)
(transform N7datalog25mk_interp_tail_simplifierE...6 rules 0s)
(transform N7datalog22mk_subsumption_checkerE...no-op 0s)
(transform N7datalog15mk_rule_inlinerE...no-op 0s)
(transform N7datalog13mk_coi_filterE...no-op 0s)
(transform N7datalog25mk_interp_tail_simplifierE...6 rules 0s)
(transform N7datalog22mk_subsumption_checkerE...no-op 0s)
(transform N7datalog15mk_rule_inlinerE...no-op 0s)
(transform N7datalog22mk_subsumption_checkerE...no-op 0s)
(transform N7datalog15mk_rule_inlinerE...no-op 0s)
(transform N7datalog22mk_subsumption_checkerE...no-op 0s)
(transform N7datalog15mk_rule_inlinerE...no-op 0s)
(transform N7datalog22mk_subsumption_checkerE...no-op 0s)
expand: query!0 (0, 0) FAR  w(0) 1. F 0.00
(spacer::context::check_reachability :time 0.00 :before-memory 7.79 :after-memory 8.27)
Entering level 1
BRUNCH_STAT max_query_lvl 0
BRUNCH_STAT num_queries 0
BRUNCH_STAT num_reach_queries 0
BRUNCH_STAT num_reach_reuse 0
BRUNCH_STAT inductive_lvl 0
BRUNCH_STAT max_depth 1
BRUNCH_STAT cex_depth 0
expand: query!0 (1, 0) FAR  w(0) 1.
	create_child: ERR (0, 1) FAR 1 U 0.00
expand: ERR (0, 0) FAR  w(0) 1. F 0.00
expand: query!0 (1, 0) FAR  w(0) 1. F 0.00
(spacer::context::check_reachability :time 0.00 :before-memory 8.27 :after-memory 8.73)
Propagating: 0 1  ! 2 
(spacer::context::propagate :time 0.00 :before-memory 8.73 :after-memory 8.73)
Entering level 2
BRUNCH_STAT max_query_lvl 1
BRUNCH_STAT num_queries 1
BRUNCH_STAT num_reach_queries 0
BRUNCH_STAT num_reach_reuse 0
BRUNCH_STAT inductive_lvl 0
BRUNCH_STAT max_depth 2
BRUNCH_STAT cex_depth 0
expand: query!0 (2, 0) FAR  w(0) 1.
	create_child: ERR (1, 2) FAR 1 U 0.00
expand: ERR (1, 0) FAR  w(0) 1.
	create_child: MAIN (0, 2) FAR 6200 U 0.00
expand: MAIN (0, 0) FAR  w(0) 6200. F 0.01
expand: ERR (1, 0) FAR  w(0) 1. F 0.00
expand: query!0 (2, 0) FAR  w(0) 1. F 0.00
(spacer::context::check_reachability :time 0.01 :before-memory 8.73 :after-memory 11.25)
Propagating: 0 1 2  ! 3 
(spacer::context::propagate :time 0.03 :before-memory 11.25 :after-memory 12.04)
Entering level 3
BRUNCH_STAT max_query_lvl 2
BRUNCH_STAT num_queries 3
BRUNCH_STAT num_reach_queries 0
BRUNCH_STAT num_reach_reuse 0
BRUNCH_STAT inductive_lvl 0
BRUNCH_STAT max_depth 3
BRUNCH_STAT cex_depth 0
expand: query!0 (3, 0) FAR  w(0) 1.
	create_child: ERR (2, 3) FAR 1 U 0.00
expand: ERR (2, 0) FAR  w(0) 1.
	create_child: MAIN (1, 3) FAR 6200 U 0.00
expand: MAIN (1, 0) FAR  w(0) 6200.
	create_child: top_step (0, 3) FAR 18470 UNDEF 0.00
expand: top_step (0, 0) FAR  w(0) 18470. UNDEF 0.01
expand: top_step (0, 0) FAR  w(1) 18470.
	create_child: top_reset (0, 3) FAR 25934 X 0.02
expand: top_reset (0, 0) FAR  w(0) 25934. F 0.00
expand: MAIN (1, 0) FAR  w(0) 6200.
	create_child: top_step (0, 3) FAR 26460 UNDEF 0.00
expand: top_step (0, 0) FAR  w(0) 26460. F 0.01
expand: MAIN (1, 0) FAR  w(0) 6200. F 0.00
expand: ERR (2, 0) FAR  w(0) 1. F 0.00
expand: query!0 (3, 0) FAR  w(0) 1. F 0.00
(spacer::context::check_reachability :time 0.05 :before-memory 12.04 :after-memory 17.28)
Propagating: 0 1 2 3  ! 4 
(spacer::context::propagate :time 0.00 :before-memory 17.28 :after-memory 17.28)
Entering level 4
BRUNCH_STAT max_query_lvl 3
BRUNCH_STAT num_queries 7
BRUNCH_STAT num_reach_queries 0
BRUNCH_STAT num_reach_reuse 0
BRUNCH_STAT inductive_lvl 0
BRUNCH_STAT max_depth 4
BRUNCH_STAT cex_depth 0
expand: query!0 (4, 0) FAR  w(0) 1.
	create_child: ERR (3, 4) FAR 1 U 0.00
expand: ERR (3, 0) FAR  w(0) 1.
	create_child: MAIN (2, 4) FAR 6200 U 0.00
expand: MAIN (2, 0) FAR  w(0) 6200.
	create_child: top_step (1, 4) FAR 18470 UNDEF 0.01
expand: top_step (1, 0) FAR  w(0) 18470. UNDEF 0.00
expand: top_step (1, 0) FAR  w(1) 18470.
	create_child: MAIN (1, 4) FAR 27350 X 0.01
expand: MAIN (1, 0) FAR  w(0) 27350.
	create_child: top_step (0, 4) FAR 27404 UNDEF 0.00
expand: top_step (0, 0) FAR  w(0) 27404. F 0.00
expand: MAIN (1, 0) FAR  w(0) 27350. F 0.00
expand: MAIN (2, 0) FAR  w(0) 6200.
	create_child: top_step (1, 4) FAR 26850 UNDEF 0.01
expand: top_step (1, 0) FAR  w(0) 26850. UNDEF 0.00
expand: top_step (1, 0) FAR  w(1) 26850.
	create_child: MAIN (1, 4) FAR 27935 X 0.01
expand: MAIN (1, 0) FAR  w(0) 27935.
	create_child: top_step (0, 4) FAR 27257 UNDEF 0.01
expand: top_step (0, 0) FAR  w(0) 27257. F 0.01
expand: MAIN (1, 0) FAR  w(0) 27935. F 0.00
expand: MAIN (2, 0) FAR  w(0) 6200.
	create_child: top_step (1, 4) FAR 28734 UNDEF 0.01
expand: top_step (1, 0) FAR  w(0) 28734. UNDEF 0.00
expand: top_step (1, 0) FAR  w(1) 28734.
	create_child: MAIN (1, 4) FAR 29226 X 0.01
expand: MAIN (1, 0) FAR  w(0) 29226.
	create_child: top_step (0, 4) FAR 29134 UNDEF 0.01
expand: top_step (0, 0) FAR  w(0) 29134. F 0.01
expand: MAIN (1, 0) FAR  w(0) 29226. F 0.01
expand: MAIN (2, 0) FAR  w(0) 6200.
	create_child: top_step (1, 4) FAR 29693 UNDEF 0.01
expand: top_step (1, 0) FAR  w(0) 29693. UNDEF 0.00
expand: top_step (1, 0) FAR  w(1) 29693.
	create_child: MAIN (1, 4) FAR 29983 X 0.01
expand: MAIN (1, 0) FAR  w(0) 29983.
	create_child: top_step (0, 4) FAR 29603 UNDEF 0.01
expand: top_step (0, 0) FAR  w(0) 29603. F 0.01
expand: MAIN (1, 0) FAR  w(0) 29983. F 0.00
expand: MAIN (2, 0) FAR  w(0) 6200.
	create_child: top_step (1, 4) FAR 29871 UNDEF 0.00
expand: top_step (1, 0) FAR  w(0) 29871. F 0.01
expand: MAIN (2, 0) FAR  w(0) 6200. F 0.00
expand: ERR (3, 0) FAR  w(0) 1. F 0.00
expand: query!0 (4, 0) FAR  w(0) 1. F 0.00
(spacer::context::check_reachability :time 0.17 :before-memory 17.28 :after-memory 18.62)
Propagating: 0 1 2 3 4  ! 5 
(spacer::context::propagate :time 0.02 :before-memory 18.62 :after-memory 18.62)
Entering level 5
BRUNCH_STAT max_query_lvl 4
BRUNCH_STAT num_queries 18
BRUNCH_STAT num_reach_queries 0
BRUNCH_STAT num_reach_reuse 0
BRUNCH_STAT inductive_lvl 0
BRUNCH_STAT max_depth 5
BRUNCH_STAT cex_depth 0
expand: query!0 (5, 0) FAR  w(0) 1.
	create_child: ERR (4, 5) FAR 1 U 0.00
expand: ERR (4, 0) FAR  w(0) 1.
	create_child: MAIN (3, 5) FAR 6200 U 0.00
expand: MAIN (3, 0) FAR  w(0) 6200.
	create_child: top_step (2, 5) FAR 26850 UNDEF 0.01
expand: top_step (2, 0) FAR  w(0) 26850. UNDEF 0.00
expand: top_step (2, 0) FAR  w(1) 26850.
	create_child: MAIN (2, 5) FAR 29226 X 0.01
expand: MAIN (2, 0) FAR  w(0) 29226.
	create_child: top_step (1, 5) FAR 30521 UNDEF 0.01
expand: top_step (1, 0) FAR  w(0) 30521. F 0.01
expand: MAIN (2, 0) FAR  w(0) 29226. F 0.01
expand: MAIN (3, 0) FAR  w(0) 6200.
	create_child: top_step (2, 5) FAR 30901 UNDEF 0.01
expand: top_step (2, 0) FAR  w(0) 30901.
	create_child: MAIN (2, 5) FAR 29983 X 0.01
expand: MAIN (2, 0) FAR  w(0) 29983. F 0.01
expand: MAIN (3, 0) FAR  w(0) 6200.
	create_child: top_step (2, 5) FAR 30946 UNDEF 0.01
expand: top_step (2, 0) FAR  w(0) 30946.
	create_child: MAIN (2, 5) FAR 30860 X 0.01
expand: MAIN (2, 0) FAR  w(0) 30860.
	create_child: top_step (1, 5) FAR 31510 UNDEF 0.01
expand: top_step (1, 0) FAR  w(0) 31510. UNDEF 0.01
expand: top_step (1, 0) FAR  w(1) 31510.
	create_child: MAIN (1, 5) FAR 32314 X 0.01
expand: MAIN (1, 0) FAR  w(0) 32314.
	create_child: top_step (0, 5) FAR 31902 UNDEF 0.01
expand: top_step (0, 0) FAR  w(0) 31902. F 0.01
expand: MAIN (1, 0) FAR  w(0) 32314. F 0.01
expand: MAIN (2, 0) FAR  w(0) 30860.
	create_child: top_step (1, 5) FAR 31495 UNDEF 0.01
expand: top_step (1, 0) FAR  w(0) 31495.
	create_child: MAIN (1, 5) FAR 32760 X 0.01
expand: MAIN (1, 0) FAR  w(0) 32760.
	create_child: top_step (0, 5) FAR 32339 UNDEF 0.01
expand: top_step (0, 0) FAR  w(0) 32339. F 0.01
expand: MAIN (1, 0) FAR  w(0) 32760. F 0.01
expand: MAIN (2, 0) FAR  w(0) 30860.
	create_child: top_step (1, 5) FAR 31948 UNDEF 0.01
expand: top_step (1, 0) FAR  w(0) 31948. UNDEF 0.00
expand: top_step (1, 0) FAR  w(1) 31948.
	create_child: MAIN (1, 5) FAR 33351 X 0.01
expand: MAIN (1, 0) FAR  w(0) 33351.
	create_child: top_step (0, 5) FAR 33205 UNDEF 0.01
expand: top_step (0, 0) FAR  w(0) 33205. F 0.01
expand: MAIN (1, 0) FAR  w(0) 33351. F 0.01
expand: MAIN (2, 0) FAR  w(0) 30860.
	create_child: top_step (1, 5) FAR 33513 UNDEF 0.01
expand: top_step (1, 0) FAR  w(0) 33513. UNDEF 0.00
expand: top_step (1, 0) FAR  w(1) 33513.
	create_child: MAIN (1, 5) FAR 33793 X 0.01
expand: MAIN (1, 0) FAR  w(0) 33793.
	create_child: top_step (0, 5) FAR 33841 UNDEF 0.01
expand: top_step (0, 0) FAR  w(0) 33841. F 0.01
expand: MAIN (1, 0) FAR  w(0) 33793. F 0.00
expand: MAIN (2, 0) FAR  w(0) 30860.
	create_child: top_step (1, 5) FAR 31573 UNDEF 0.01
expand: top_step (1, 0) FAR  w(0) 31573. UNDEF 0.00
expand: top_step (1, 0) FAR  w(1) 31573. T 0.01
is-reachable: MAIN (2, 0) FAR 30860 F 0.01
expand: MAIN (2, 0) FAR  w(1) 30860.
	create_child: MAIN (1, 5) FAR 33769 U 0.01
expand: MAIN (1, 0) FAR  w(0) 33769.
	create_child: top_step (0, 5) FAR 30597 UNDEF 0.01
expand: top_step (0, 0) FAR  w(0) 30597. F 0.01
expand: MAIN (1, 0) FAR  w(0) 33769. F 0.01
expand: MAIN (2, 0) FAR  w(1) 30860.
	create_child: top_step (1, 5) FAR 34779 U 0.02
expand: top_step (1, 0) FAR  w(0) 34779. F 0.02
expand: MAIN (2, 0) FAR  w(1) 30860. F 0.10
expand: MAIN (3, 0) FAR  w(0) 6200.
	create_child: top_step (2, 5) FAR 35532 UNDEF 0.01
expand: top_step (2, 0) FAR  w(0) 35532. UNDEF 0.00
expand: top_step (2, 0) FAR  w(1) 35532.
	create_child: MAIN (2, 5) FAR 33412 X 0.01
expand: MAIN (2, 0) FAR  w(0) 33412.
	create_child: top_step (1, 5) FAR 34701 UNDEF 0.01
expand: top_step (1, 0) FAR  w(0) 34701. F 0.03
expand: MAIN (2, 0) FAR  w(0) 33412. F 0.01
expand: MAIN (3, 0) FAR  w(0) 6200.
	create_child: top_step (2, 5) FAR 36751 UNDEF 0.01
expand: top_step (2, 0) FAR  w(0) 36751. UNDEF 0.00
expand: top_step (2, 0) FAR  w(1) 36751.
	create_child: MAIN (2, 5) FAR 36839 X 0.01
expand: MAIN (2, 0) FAR  w(0) 36839.
	create_child: top_step (1, 5) FAR 36910 UNDEF 0.01
expand: top_step (1, 0) FAR  w(0) 36910. F 0.00
expand: MAIN (2, 0) FAR  w(0) 36839. F 0.01
expand: MAIN (3, 0) FAR  w(0) 6200.
	create_child: top_step (2, 5) FAR 36275 UNDEF 0.01
expand: top_step (2, 0) FAR  w(0) 36275.
	create_child: MAIN (2, 5) FAR 37116 X 0.01
expand: MAIN (2, 0) FAR  w(0) 37116.
	create_child: top_step (1, 5) FAR 36476 UNDEF 0.01
expand: top_step (1, 0) FAR  w(0) 36476.
	create_child: MAIN (1, 5) FAR 37062 X 0.01
expand: MAIN (1, 0) FAR  w(0) 37062. F 0.00
expand: MAIN (2, 0) FAR  w(0) 37116.
	create_child: top_step (1, 5) FAR 36374 UNDEF 0.01
expand: top_step (1, 0) FAR  w(0) 36374. F 0.03
expand: MAIN (2, 0) FAR  w(0) 37116. F 0.01
expand: MAIN (3, 0) FAR  w(0) 6200.
	create_child: top_step (2, 5) FAR 38168 UNDEF 0.01
expand: top_step (2, 0) FAR  w(0) 38168. UNDEF 0.00
expand: top_step (2, 0) FAR  w(1) 38168.
	create_child: MAIN (2, 5) FAR 38486 X 0.01
expand: MAIN (2, 0) FAR  w(0) 38486.
	create_child: top_step (1, 5) FAR 38088 UNDEF 0.01
expand: top_step (1, 0) FAR  w(0) 38088. F 0.02
expand: MAIN (2, 0) FAR  w(0) 38486. F 0.01
expand: MAIN (3, 0) FAR  w(0) 6200.
	create_child: top_step (2, 5) FAR 39195 UNDEF 0.01
expand: top_step (2, 0) FAR  w(0) 39195. UNDEF 0.00
expand: top_step (2, 0) FAR  w(1) 39195.
	create_child: MAIN (2, 5) FAR 39682 X 0.01
expand: MAIN (2, 0) FAR  w(0) 39682.
	create_child: top_step (1, 5) FAR 39847 UNDEF 0.01
expand: top_step (1, 0) FAR  w(0) 39847. UNDEF 0.00
expand: top_step (1, 0) FAR  w(1) 39847.
	create_child: MAIN (1, 5) FAR 40229 X 0.01
expand: MAIN (1, 0) FAR  w(0) 40229.
	create_child: top_step (0, 5) FAR 30742 UNDEF 0.01
expand: top_step (0, 0) FAR  w(0) 30742. F 0.01
expand: MAIN (1, 0) FAR  w(0) 40229. F 0.00
expand: MAIN (2, 0) FAR  w(0) 39682. F 0.01
expand: MAIN (3, 0) FAR  w(0) 6200.
	create_child: top_step (2, 5) FAR 38949 UNDEF 0.01
expand: top_step (2, 0) FAR  w(0) 38949. UNDEF 0.00
expand: top_step (2, 0) FAR  w(1) 38949.
	create_child: MAIN (2, 5) FAR 40091 X 0.01
expand: MAIN (2, 0) FAR  w(0) 40091. F 0.01
expand: MAIN (3, 0) FAR  w(0) 6200.
	create_child: top_step (2, 5) FAR 39897 UNDEF 0.01
expand: top_step (2, 0) FAR  w(0) 39897.
	create_child: MAIN (2, 5) FAR 40460 X 0.01
expand: MAIN (2, 0) FAR  w(0) 40460.
	create_child: top_step (1, 5) FAR 39957 U 0.01
expand: top_step (1, 0) FAR  w(0) 39957. F 0.01
expand: MAIN (2, 0) FAR  w(0) 40460. F 0.00
expand: MAIN (3, 0) FAR  w(0) 6200.
	create_child: top_step (2, 5) FAR 40454 UNDEF 0.01
expand: top_step (2, 0) FAR  w(0) 40454. UNDEF 0.00
expand: top_step (2, 0) FAR  w(1) 40454.
	create_child: MAIN (2, 5) FAR 40753 X 0.01
expand: MAIN (2, 0) FAR  w(0) 40753. F 0.00
expand: MAIN (3, 0) FAR  w(0) 6200.
	create_child: top_step (2, 5) FAR 40073 UNDEF 0.01
expand: top_step (2, 0) FAR  w(0) 40073.
	create_child: MAIN (2, 5) FAR 40397 X 0.01
expand: MAIN (2, 0) FAR  w(0) 40397.
	create_child: top_step (1, 5) FAR 40686 UNDEF 0.01
expand: top_step (1, 0) FAR  w(0) 40686. UNDEF 0.01
expand: top_step (1, 0) FAR  w(1) 40686.
	create_child: MAIN (1, 5) FAR 38450 X 0.03
expand: MAIN (1, 0) FAR  w(0) 38450.
	create_child: top_step (0, 5) FAR 41945 UNDEF 0.01
expand: top_step (0, 0) FAR  w(0) 41945. F 0.01
expand: MAIN (1, 0) FAR  w(0) 38450. F 0.01
expand: MAIN (2, 0) FAR  w(0) 40397.
	create_child: top_step (1, 5) FAR 41920 UNDEF 0.02
expand: top_step (1, 0) FAR  w(0) 41920. T 0.01
is-reachable: MAIN (2, 0) FAR 40397 F 0.03
expand: MAIN (2, 0) FAR  w(1) 40397.
	create_child: MAIN (1, 5) FAR 42964 U 0.08
expand: MAIN (1, 0) FAR  w(0) 42964.
	create_child: top_step (0, 5) FAR 43007 UNDEF 0.02
expand: top_step (0, 0) FAR  w(0) 43007. F 0.01
expand: MAIN (1, 0) FAR  w(0) 42964. F 0.01
expand: MAIN (2, 0) FAR  w(1) 40397.
	create_child: MAIN (1, 5) FAR 44457 U 0.02
expand: MAIN (1, 0) FAR  w(0) 44457.
	create_child: top_step (0, 5) FAR 44926 UNDEF 0.01
expand: top_step (0, 0) FAR  w(0) 44926. F 0.01
expand: MAIN (1, 0) FAR  w(0) 44457. F 0.01
expand: MAIN (2, 0) FAR  w(1) 40397.
	create_child: MAIN (1, 5) FAR 44948 U 0.05
expand: MAIN (1, 0) FAR  w(0) 44948.
	create_child: top_step (0, 5) FAR 44296 UNDEF 0.04
expand: top_step (0, 0) FAR  w(0) 44296. UNDEF 0.01
expand: top_step (0, 0) FAR  w(1) 44296. T 0.01
is-reachable: MAIN (1, 0) FAR 44948 F 3.58
expand: MAIN (1, 0) FAR  w(1) 44948.
	create_child: top_step (0, 5) FAR 71215 U 73.46
expand: top_step (0, 0) FAR  w(0) 71215. F 0.04
expand: MAIN (1, 0) FAR  w(1) 44948. F 330.16
expand: MAIN (2, 0) FAR  w(1) 40397.
	create_child: MAIN (1, 5) FAR 97150 U 9.43
expand: MAIN (1, 0) FAR  w(0) 97150.
	create_child: top_step (0, 5) FAR 96481 UNDEF 0.15
expand: top_step (0, 0) FAR  w(0) 96481. UNDEF 0.01
expand: top_step (0, 0) FAR  w(1) 96481. T 0.01
is-reachable: MAIN (1, 0) FAR 97150 F 79.69
expand: MAIN (1, 0) FAR  w(1) 97150
real	15m30.004s
user	15m29.624s
sys	0m0.336s
