(transform N7datalog13mk_coi_filterE...no-op 0s)
(transform N7datalog25mk_interp_tail_simplifierE...7 rules 0.0017313s)
(transform N7datalog27mk_quantifier_instantiationE...no-op 0s)
(transform N7datalog8mk_scaleE...no-op 0s)
(transform N7datalog18mk_karr_invariantsE...no-op 0s)
(transform N7datalog14mk_array_blastE...no-op 0s)
(transform N7datalog22mk_subsumption_checkerE...6 rules 0s)
(transform N7datalog12mk_bit_blastE...no-op 0s)
(transform N7datalog15mk_rule_inlinerE...no-op 0s)
(transform N7datalog13mk_coi_filterE...no-op 0s)
(transform N7datalog25mk_interp_tail_simplifierE...6 rules 0s)
(transform N7datalog22mk_subsumption_checkerE...no-op 0s)
(transform N7datalog15mk_rule_inlinerE...no-op 0s)
(transform N7datalog13mk_coi_filterE...no-op 0s)
(transform N7datalog25mk_interp_tail_simplifierE...6 rules 0s)
(transform N7datalog22mk_subsumption_checkerE...no-op 0s)
(transform N7datalog15mk_rule_inlinerE...no-op 0s)
(transform N7datalog22mk_subsumption_checkerE...no-op 0s)
(transform N7datalog15mk_rule_inlinerE...no-op 0s)
(transform N7datalog22mk_subsumption_checkerE...no-op 0s)
(transform N7datalog15mk_rule_inlinerE...no-op 0s)
(transform N7datalog22mk_subsumption_checkerE...no-op 0s)
expand: query!0 (0, 0) FAR  w(0) 1. F 0.00
(spacer::context::check_reachability :time 0.00 :before-memory 7.80 :after-memory 8.28)
Entering level 1
BRUNCH_STAT max_query_lvl 0
BRUNCH_STAT num_queries 0
BRUNCH_STAT num_reach_queries 0
BRUNCH_STAT num_reach_reuse 0
BRUNCH_STAT inductive_lvl 0
BRUNCH_STAT max_depth 1
BRUNCH_STAT cex_depth 0
expand: query!0 (1, 0) FAR  w(0) 1.
	create_child: ERR (0, 1) FAR 1 U 0.00
expand: ERR (0, 0) FAR  w(0) 1. F 0.00
expand: query!0 (1, 0) FAR  w(0) 1. F 0.00
(spacer::context::check_reachability :time 0.00 :before-memory 8.28 :after-memory 8.74)
Propagating: 0 1  ! 2 
(spacer::context::propagate :time 0.00 :before-memory 8.74 :after-memory 8.74)
Entering level 2
BRUNCH_STAT max_query_lvl 1
BRUNCH_STAT num_queries 1
BRUNCH_STAT num_reach_queries 0
BRUNCH_STAT num_reach_reuse 0
BRUNCH_STAT inductive_lvl 0
BRUNCH_STAT max_depth 2
BRUNCH_STAT cex_depth 0
expand: query!0 (2, 0) FAR  w(0) 1.
	create_child: ERR (1, 2) FAR 1 U 0.00
expand: ERR (1, 0) FAR  w(0) 1.
	create_child: MAIN (0, 2) FAR 6242 U 0.00
expand: MAIN (0, 0) FAR  w(0) 6242. F 0.01
expand: ERR (1, 0) FAR  w(0) 1. F 0.00
expand: query!0 (2, 0) FAR  w(0) 1. F 0.00
(spacer::context::check_reachability :time 0.01 :before-memory 8.74 :after-memory 11.39)
Propagating: 0 1 2  ! 3 
(spacer::context::propagate :time 0.02 :before-memory 11.39 :after-memory 11.92)
Entering level 3
BRUNCH_STAT max_query_lvl 2
BRUNCH_STAT num_queries 3
BRUNCH_STAT num_reach_queries 0
BRUNCH_STAT num_reach_reuse 0
BRUNCH_STAT inductive_lvl 0
BRUNCH_STAT max_depth 3
BRUNCH_STAT cex_depth 0
expand: query!0 (3, 0) FAR  w(0) 1.
	create_child: ERR (2, 3) FAR 1 U 0.00
expand: ERR (2, 0) FAR  w(0) 1.
	create_child: MAIN (1, 3) FAR 6242 U 0.00
expand: MAIN (1, 0) FAR  w(0) 6242.
	create_child: top_step (0, 3) FAR 19354 U 0.01
expand: top_step (0, 0) FAR  w(0) 19354. UNDEF 0.01
expand: top_step (0, 0) FAR  w(1) 19354. F 0.02
expand: MAIN (1, 0) FAR  w(0) 6242.
	create_child: top_step (0, 3) FAR 19575 UNDEF 0.01
expand: top_step (0, 0) FAR  w(0) 19575.
	create_child: top_reset (0, 3) FAR 28596 X 0.02
expand: top_reset (0, 0) FAR  w(0) 28596. F 0.00
expand: MAIN (1, 0) FAR  w(0) 6242. F 0.00
expand: ERR (2, 0) FAR  w(0) 1. F 0.00
expand: query!0 (3, 0) FAR  w(0) 1. F 0.00
(spacer::context::check_reachability :time 0.07 :before-memory 11.92 :after-memory 18.47)
Propagating: 0 1 2 3  ! 4 
(spacer::context::propagate :time 0.00 :before-memory 18.47 :after-memory 18.47)
Entering level 4
BRUNCH_STAT max_query_lvl 3
BRUNCH_STAT num_queries 7
BRUNCH_STAT num_reach_queries 0
BRUNCH_STAT num_reach_reuse 1
BRUNCH_STAT inductive_lvl 0
BRUNCH_STAT max_depth 4
BRUNCH_STAT cex_depth 0
expand: query!0 (4, 0) FAR  w(0) 1.
	create_child: ERR (3, 4) FAR 1 U 0.00
expand: ERR (3, 0) FAR  w(0) 1.
	create_child: MAIN (2, 4) FAR 6242 U 0.00
expand: MAIN (2, 0) FAR  w(0) 6242.
	create_child: top_step (1, 4) FAR 19575 UNDEF 0.00
expand: top_step (1, 0) FAR  w(0) 19575.
	create_child: MAIN (1, 4) FAR 29735 X 0.01
expand: MAIN (1, 0) FAR  w(0) 29735.
	create_child: top_step (0, 4) FAR 30204 UNDEF 0.01
expand: top_step (0, 0) FAR  w(0) 30204. F 0.00
expand: MAIN (1, 0) FAR  w(0) 29735. F 0.00
expand: MAIN (2, 0) FAR  w(0) 6242.
	create_child: top_step (1, 4) FAR 29958 UNDEF 0.01
expand: top_step (1, 0) FAR  w(0) 29958. UNDEF 0.01
expand: top_step (1, 0) FAR  w(1) 29958.
	create_child: MAIN (1, 4) FAR 30075 X 0.01
expand: MAIN (1, 0) FAR  w(0) 30075.
	create_child: top_step (0, 4) FAR 30352 UNDEF 0.01
expand: top_step (0, 0) FAR  w(0) 30352. F 0.01
expand: MAIN (1, 0) FAR  w(0) 30075. F 0.00
expand: MAIN (2, 0) FAR  w(0) 6242.
	create_child: top_step (1, 4) FAR 30659 UNDEF 0.01
expand: top_step (1, 0) FAR  w(0) 30659. UNDEF 0.00
expand: top_step (1, 0) FAR  w(1) 30659.
	create_child: MAIN (1, 4) FAR 31144 X 0.01
expand: MAIN (1, 0) FAR  w(0) 31144.
	create_child: top_step (0, 4) FAR 31094 UNDEF 0.01
expand: top_step (0, 0) FAR  w(0) 31094. F 0.02
expand: MAIN (1, 0) FAR  w(0) 31144. F 0.01
expand: MAIN (2, 0) FAR  w(0) 6242.
	create_child: top_step (1, 4) FAR 30390 UNDEF 0.01
expand: top_step (1, 0) FAR  w(0) 30390. UNDEF 0.01
expand: top_step (1, 0) FAR  w(1) 30390.
	create_child: MAIN (1, 4) FAR 35630 X 0.44
expand: MAIN (1, 0) FAR  w(0) 35630.
	create_child: top_step (0, 4) FAR 35795 UNDEF 0.01
expand: top_step (0, 0) FAR  w(0) 35795. F 0.02
expand: MAIN (1, 0) FAR  w(0) 35630. F 0.01
expand: MAIN (2, 0) FAR  w(0) 6242.
	create_child: top_step (1, 4) FAR 35106 UNDEF 0.01
expand: top_step (1, 0) FAR  w(0) 35106. UNDEF 0.01
expand: top_step (1, 0) FAR  w(1) 35106.
	create_child: MAIN (1, 4) FAR 36101 X 0.29
expand: MAIN (1, 0) FAR  w(0) 36101.
	create_child: top_step (0, 4) FAR 34695 UNDEF 0.01
expand: top_step (0, 0) FAR  w(0) 34695. F 0.02
expand: MAIN (1, 0) FAR  w(0) 36101. F 0.01
expand: MAIN (2, 0) FAR  w(0) 6242.
	create_child: top_step (1, 4) FAR 33711 UNDEF 0.01
expand: top_step (1, 0) FAR  w(0) 33711.
	create_child: MAIN (1, 4) FAR 39607 X 0.01
expand: MAIN (1, 0) FAR  w(0) 39607.
	create_child: top_step (0, 4) FAR 39693 UNDEF 0.01
expand: top_step (0, 0) FAR  w(0) 39693. F 0.01
expand: MAIN (1, 0) FAR  w(0) 39607. F 0.02
expand: MAIN (2, 0) FAR  w(0) 6242.
	create_child: top_step (1, 4) FAR 33917 UNDEF 0.01
expand: top_step (1, 0) FAR  w(0) 33917. UNDEF 0.01
expand: top_step (1, 0) FAR  w(1) 33917.
	create_child: MAIN (1, 4) FAR 42750 X 0.59
expand: MAIN (1, 0) FAR  w(0) 42750.
	create_child: top_step (0, 4) FAR 43031 UNDEF 0.01
expand: top_step (0, 0) FAR  w(0) 43031. F 0.02
expand: MAIN (1, 0) FAR  w(0) 42750. F 0.01
expand: MAIN (2, 0) FAR  w(0) 6242.
	create_child: top_step (1, 4) FAR 37324 UNDEF 0.01
expand: top_step (1, 0) FAR  w(0) 37324. UNDEF 0.01
expand: top_step (1, 0) FAR  w(1) 37324.
	create_child: MAIN (1, 4) FAR 42383 X 0.02
expand: MAIN (1, 0) FAR  w(0) 42383.
	create_child: top_step (0, 4) FAR 42150 UNDEF 0.01
expand: top_step (0, 0) FAR  w(0) 42150. F 0.02
expand: MAIN (1, 0) FAR  w(0) 42383. F 0.01
expand: MAIN (2, 0) FAR  w(0) 6242.
	create_child: top_step (1, 4) FAR 42411 UNDEF 0.01
expand: top_step (1, 0) FAR  w(0) 42411. F 0.01
expand: MAIN (2, 0) FAR  w(0) 6242.
	create_child: top_step (1, 4) FAR 42227 UNDEF 0.01
expand: top_step (1, 0) FAR  w(0) 42227. F 0.03
expand: MAIN (2, 0) FAR  w(0) 6242. F 0.00
expand: ERR (3, 0) FAR  w(0) 1. F 0.00
expand: query!0 (4, 0) FAR  w(0) 1. F 0.00
(spacer::context::check_reachability :time 1.77 :before-memory 18.47 :after-memory 24.61)
Propagating: 0 1 2 3 4  ! 5 
(spacer::context::propagate :time 0.06 :before-memory 24.61 :after-memory 24.73)
Entering level 5
BRUNCH_STAT max_query_lvl 4
BRUNCH_STAT num_queries 27
BRUNCH_STAT num_reach_queries 0
BRUNCH_STAT num_reach_reuse 1
BRUNCH_STAT inductive_lvl 0
BRUNCH_STAT max_depth 5
BRUNCH_STAT cex_depth 0
expand: query!0 (5, 0) FAR  w(0) 1.
	create_child: ERR (4, 5) FAR 1 U 0.00
expand: ERR (4, 0) FAR  w(0) 1.
	create_child: MAIN (3, 5) FAR 6242 U 0.00
expand: MAIN (3, 0) FAR  w(0) 6242.
	create_child: top_step (2, 5) FAR 37539 UNDEF 0.01
expand: top_step (2, 0) FAR  w(0) 37539. UNDEF 0.01
expand: top_step (2, 0) FAR  w(1) 37539.
	create_child: MAIN (2, 5) FAR 41889 X 0.02
expand: MAIN (2, 0) FAR  w(0) 41889.
	create_child: top_step (1, 5) FAR 38825 UNDEF 0.01
expand: top_step (1, 0) FAR  w(0) 38825. F 0.01
expand: MAIN (2, 0) FAR  w(0) 41889. F 0.00
expand: MAIN (3, 0) FAR  w(0) 6242.
	create_child: top_step (2, 5) FAR 37513 UNDEF 0.01
expand: top_step (2, 0) FAR  w(0) 37513. UNDEF 0.01
expand: top_step (2, 0) FAR  w(1) 37513.
	create_child: MAIN (2, 5) FAR 42383 X 0.83
expand: MAIN (2, 0) FAR  w(0) 42383.
	create_child: top_step (1, 5) FAR 40223 UNDEF 0.01
expand: top_step (1, 0) FAR  w(0) 40223. F 0.08
expand: MAIN (2, 0) FAR  w(0) 42383. F 0.01
expand: MAIN (3, 0) FAR  w(0) 6242.
	create_child: top_step (2, 5) FAR 41637 UNDEF 0.01
expand: top_step (2, 0) FAR  w(0) 41637. UNDEF 0.01
expand: top_step (2, 0) FAR  w(1) 41637.
	create_child: MAIN (2, 5) FAR 41648 X 2.45
expand: MAIN (2, 0) FAR  w(0) 41648.
	create_child: top_step (1, 5) FAR 39114 UNDEF 0.01
expand: top_step (1, 0) FAR  w(0) 39114. F 0.04
expand: MAIN (2, 0) FAR  w(0) 41648.
	create_child: top_step (1, 5) FAR 47671 UNDEF 0.01
expand: top_step (1, 0) FAR  w(0) 47671. F 0.06
expand: MAIN (2, 0) FAR  w(0) 41648. F 0.02
expand: MAIN (3, 0) FAR  w(0) 6242.
	create_child: top_step (2, 5) FAR 48816 UNDEF 0.01
expand: top_step (2, 0) FAR  w(0) 48816. UNDEF 0.01
expand: top_step (2, 0) FAR  w(1) 48816.
	create_child: MAIN (2, 5) FAR 47315 X 0.24
expand: MAIN (2, 0) FAR  w(0) 47315.
	create_child: top_step (1, 5) FAR 40458 UNDEF 0.01
expand: top_step (1, 0) FAR  w(0) 40458. F 0.02
expand: MAIN (2, 0) FAR  w(0) 47315.
	create_child: top_step (1, 5) FAR 38144 UNDEF 0.01
expand: top_step (1, 0) FAR  w(0) 38144. F 0.03
expand: MAIN (2, 0) FAR  w(0) 47315. F 0.00
expand: MAIN (3, 0) FAR  w(0) 6242.
	create_child: top_step (2, 5) FAR 48442 UNDEF 0.01
expand: top_step (2, 0) FAR  w(0) 48442. UNDEF 0.02
expand: top_step (2, 0) FAR  w(1) 48442.
	create_child: MAIN (2, 5) FAR 38031 X 4.39
expand: MAIN (2, 0) FAR  w(0) 38031.
	create_child: top_step (1, 5) FAR 45741 UNDEF 0.01
expand: top_step (1, 0) FAR  w(0) 45741. F 0.05
expand: MAIN (2, 0) FAR  w(0) 38031. F 0.01
expand: MAIN (3, 0) FAR  w(0) 6242.
	create_child: top_step (2, 5) FAR 39716 UNDEF 0.01
expand: top_step (2, 0) FAR  w(0) 39716. F 0.02
expand: MAIN (3, 0) FAR  w(0) 6242. F 0.00
expand: ERR (4, 0) FAR  w(0) 1. F 0.00
expand: query!0 (5, 0) FAR  w(0) 1. F 0.00
(spacer::context::check_reachability :time 8.46 :before-memory 24.73 :after-memory 30.00)
Propagating: 1 2 3 4 5  ! 6 
(spacer::context::propagate :time 0.02 :before-memory 30.00 :after-memory 30.00)
Entering level 6
BRUNCH_STAT max_query_lvl 5
BRUNCH_STAT num_queries 42
BRUNCH_STAT num_reach_queries 0
BRUNCH_STAT num_reach_reuse 1
BRUNCH_STAT inductive_lvl 0
BRUNCH_STAT max_depth 6
BRUNCH_STAT cex_depth 0
expand: query!0 (6, 0) FAR  w(0) 1.
	create_child: ERR (5, 6) FAR 1 U 0.00
expand: ERR (5, 0) FAR  w(0) 1.
	create_child: MAIN (4, 6) FAR 6242 U 0.00
expand: MAIN (4, 0) FAR  w(0) 6242.
	create_child: top_step (3, 6) FAR 43815 UNDEF 0.01
expand: top_step (3, 0) FAR  w(0) 43815. UNDEF 0.01
expand: top_step (3, 0) FAR  w(1) 43815.
	create_child: MAIN (3, 6) FAR 38031 X 0.29
expand: MAIN (3, 0) FAR  w(0) 38031.
	create_child: top_step (2, 6) FAR 47740 UNDEF 0.01
expand: top_step (2, 0) FAR  w(0) 47740. F 0.03
expand: MAIN (3, 0) FAR  w(0) 38031. F 0.01
expand: MAIN (4, 0) FAR  w(0) 6242.
	create_child: top_step (3, 6) FAR 48549 UNDEF 0.02
expand: top_step (3, 0) FAR  w(0) 48549. UNDEF 0.01
expand: top_step (3, 0) FAR  w(1) 48549.
	create_child: MAIN (3, 6) FAR 50731 X 2.28
expand: MAIN (3, 0) FAR  w(0) 50731.
	create_child: top_step (2, 6) FAR 47027 UNDEF 0.01
expand: top_step (2, 0) FAR  w(0) 47027. F 0.04
expand: MAIN (3, 0) FAR  w(0) 50731. F 0.01
expand: MAIN (4, 0) FAR  w(0) 6242.
	create_child: top_step (3, 6) FAR 40291 UNDEF 0.01
expand: top_step (3, 0) FAR  w(0) 40291.
	create_child: MAIN (3, 6) FAR 50405 X 0.03
expand: MAIN (3, 0) FAR  w(0) 50405.
	create_child: top_step (2, 6) FAR 45875 UNDEF 0.01
expand: top_step (2, 0) FAR  w(0) 45875. F 0.02
expand: MAIN (3, 0) FAR  w(0) 50405. F 0.01
expand: MAIN (4, 0) FAR  w(0) 6242.
	create_child: top_step (3, 6) FAR 46176 UNDEF 0.01
expand: top_step (3, 0) FAR  w(0) 46176.
	create_child: MAIN (3, 6) FAR 49174 X 0.02
expand: MAIN (3, 0) FAR  w(0) 49174.
	create_child: top_step (2, 6) FAR 48284 UNDEF 0.01
expand: top_step (2, 0) FAR  w(0) 48284.
	create_child: MAIN (2, 6) FAR 50200 X 0.02
expand: MAIN (2, 0) FAR  w(0) 50200. F 0.02
expand: MAIN (3, 0) FAR  w(0) 49174.
	create_child: top_step (2, 6) FAR 50079 UNDEF 0.01
expand: top_step (2, 0) FAR  w(0) 50079. F 0.05
expand: MAIN (3, 0) FAR  w(0) 49174. F 0.01
expand: MAIN (4, 0) FAR  w(0) 6242. F 0.00
expand: ERR (5, 0) FAR  w(0) 1. F 0.00
expand: query!0 (6, 0) FAR  w(0) 1. F 0.00
(spacer::context::check_reachability :time 2.93 :before-memory 30.00 :after-memory 31.20)
Propagating: 2 3 4 5 6  ! 7 
(spacer::context::propagate :time 0.03 :before-memory 31.20 :after-memory 31.20)
Entering level 7
BRUNCH_STAT max_query_lvl 6
BRUNCH_STAT num_queries 53
BRUNCH_STAT num_reach_queries 0
BRUNCH_STAT num_reach_reuse 1
BRUNCH_STAT inductive_lvl 0
BRUNCH_STAT max_depth 7
BRUNCH_STAT cex_depth 0
expand: query!0 (7, 0) FAR  w(0) 1.
	create_child: ERR (6, 7) FAR 1 U 0.00
expand: ERR (6, 0) FAR  w(0) 1.
	create_child: MAIN (5, 7) FAR 6242 U 0.00
expand: MAIN (5, 0) FAR  w(0) 6242.
	create_child: top_step (4, 7) FAR 46176 UNDEF 0.01
expand: top_step (4, 0) FAR  w(0) 46176. UNDEF 0.01
expand: top_step (4, 0) FAR  w(1) 46176.
	create_child: MAIN (4, 7) FAR 53566 X 0.09
expand: MAIN (4, 0) FAR  w(0) 53566.
	create_child: top_step (3, 7) FAR 51451 UNDEF 0.01
expand: top_step (3, 0) FAR  w(0) 51451. F 0.04
expand: MAIN (4, 0) FAR  w(0) 53566. F 0.01
expand: MAIN (5, 0) FAR  w(0) 6242. F 0.00
expand: ERR (6, 0) FAR  w(0) 1. F 0.00
expand: query!0 (7, 0) FAR  w(0) 1. F 0.00
(spacer::context::check_reachability :time 0.18 :before-memory 31.20 :after-memory 31.37)
Propagating: 3 
(spacer::context::propagate :time 0.00 :before-memory 31.37 :after-memory 31.37)
(define-fun ERR () Bool
  false)
(define-fun top_step ((x!0 Bool)
 (x!1 Bool)
 (x!2 Bool)
 (x!3 Bool)
 (x!4 Bool)
 (x!5 Bool)
 (x!6 Bool)
 (x!7 Bool)
 (x!8 Bool)
 (x!9 Bool)
 (x!10 Bool)
 (x!11 Bool)
 (x!12 Bool)
 (x!13 Bool)
 (x!14 Int)
 (x!15 Bool)
 (x!16 Bool)
 (x!17 Int)
 (x!18 Bool)
 (x!19 Bool)
 (x!20 Bool)
 (x!21 Int)
 (x!22 Bool)
 (x!23 Bool)
 (x!24 Bool)
 (x!25 Bool)
 (x!26 Bool)
 (x!27 Bool)
 (x!28 Bool)
 (x!29 Bool)
 (x!30 Bool)
 (x!31 Bool)
 (x!32 Bool)
 (x!33 Bool)
 (x!34 Int)
 (x!35 Int)
 (x!36 Int)
 (x!37 Bool)
 (x!38 Int)
 (x!39 Bool)
 (x!40 Bool)
 (x!41 Int)
 (x!42 Int)
 (x!43 Int)
 (x!44 Bool)
 (x!45 Bool)
 (x!46 Bool)
 (x!47 Bool)
 (x!48 Int)
 (x!49 Int)
 (x!50 Int)
 (x!51 Bool)
 (x!52 Int)
 (x!53 Int)
 (x!54 Int)
 (x!55 Bool)
 (x!56 Int)
 (x!57 Bool)
 (x!58 Int)
 (x!59 Bool)
 (x!60 Bool)
 (x!61 Int)
 (x!62 Bool)
 (x!63 Bool)
 (x!64 Bool)
 (x!65 Int)
 (x!66 Bool)
 (x!67 Bool)
 (x!68 Bool)
 (x!69 Bool)
 (x!70 Bool)
 (x!71 Bool)
 (x!72 Bool)
 (x!73 Bool)
 (x!74 Bool)
 (x!75 Bool)
 (x!76 Bool)
 (x!77 Bool)
 (x!78 Int)
 (x!79 Int)
 (x!80 Int)
 (x!81 Bool)
 (x!82 Int)
 (x!83 Bool)
 (x!84 Bool)
 (x!85 Int)
 (x!86 Int)
 (x!87 Int)
 (x!88 Bool)
 (x!89 Bool)
 (x!90 Bool)
 (x!91 Bool)
 (x!92 Int)
 (x!93 Int)
 (x!94 Int)
 (x!95 Bool)
 (x!96 Int)
 (x!97 Int)
 (x!98 Int)
 (x!99 Bool)
 (x!100 Int)
 (x!101 Bool)) Bool
  (let ((a!1 (or (= x!87 4) x!62 (= x!86 2) (= (+ x!42 (* (- 1) x!86)) 0)))
        (a!2 (or (= x!87 4) (not x!47) (= x!86 2) (= (+ x!42 (* (- 1) x!86)) 0))))
    (and a!1
         x!89
         (or (not x!57) x!13)
         (or x!62 (not x!57))
         (or (not (<= x!61 1)) (not (>= x!86 2)))
         (or (not (<= x!87 3)) (not (<= x!85 0)) (not (>= x!43 4)))
         (or (not (<= x!87 3)) x!91 (not (>= x!43 4)))
         (or (not (<= x!87 3)) (not x!62) (= x!17 1))
         (or (not (<= x!87 3)) (not x!57))
         (or (<= x!85 0) (not x!57))
         (or (not (>= x!87 5)) (not x!57))
         (or (<= x!61 0) (not (<= x!86 0)))
         (or (not (= x!43 4)) x!13 (not x!45))
         (or (not (<= x!17 0)) x!13)
         (or x!62 x!63)
         (or (not (>= x!87 5)) (not x!62) (= x!17 1))
         (or (<= x!85 0) (not x!62) (not (>= x!17 2)))
         (or (not (<= x!87 3)) (not (<= x!86 1)) (not (>= x!43 4)))
         (or (not (<= x!43 4)) (not (>= x!87 5)))
         (or (not (>= x!17 2)) x!13)
         (or (not x!74) x!95)
         a!2)))
(define-fun MAIN ((x!0 Int)
 (x!1 Bool)
 (x!2 Bool)
 (x!3 Int)
 (x!4 Bool)
 (x!5 Bool)
 (x!6 Bool)
 (x!7 Int)
 (x!8 Bool)
 (x!9 Bool)
 (x!10 Bool)
 (x!11 Bool)
 (x!12 Bool)
 (x!13 Bool)
 (x!14 Bool)
 (x!15 Bool)
 (x!16 Bool)
 (x!17 Bool)
 (x!18 Bool)
 (x!19 Bool)
 (x!20 Int)
 (x!21 Int)
 (x!22 Int)
 (x!23 Bool)
 (x!24 Int)
 (x!25 Bool)
 (x!26 Bool)
 (x!27 Int)
 (x!28 Int)
 (x!29 Int)
 (x!30 Bool)
 (x!31 Bool)
 (x!32 Bool)
 (x!33 Bool)
 (x!34 Int)
 (x!35 Int)
 (x!36 Int)
 (x!37 Bool)
 (x!38 Int)
 (x!39 Int)
 (x!40 Int)
 (x!41 Bool)
 (x!42 Int)
 (x!43 Bool)
 (x!44 Bool)) Bool
  (and (or (not (<= x!28 1)) (not (<= x!29 3)))
       x!31
       x!44
       (or (not (<= x!3 1)) (not (>= x!28 2)))
       (or (not (<= x!28 0)) (<= x!3 0))
       (or x!4 x!5)
       (or (not (<= x!27 0)) (not x!4) (not (<= x!29 3)))
       (not (>= x!29 5))
       (or x!37 (not x!16))))
(define-fun top_reset ((x!0 Int)
 (x!1 Bool)
 (x!2 Bool)
 (x!3 Int)
 (x!4 Bool)
 (x!5 Bool)
 (x!6 Bool)
 (x!7 Int)
 (x!8 Bool)
 (x!9 Bool)
 (x!10 Bool)
 (x!11 Bool)
 (x!12 Bool)
 (x!13 Bool)
 (x!14 Bool)
 (x!15 Bool)
 (x!16 Bool)
 (x!17 Bool)
 (x!18 Bool)
 (x!19 Bool)
 (x!20 Int)
 (x!21 Int)
 (x!22 Int)
 (x!23 Bool)
 (x!24 Int)
 (x!25 Bool)
 (x!26 Bool)
 (x!27 Int)
 (x!28 Int)
 (x!29 Int)
 (x!30 Bool)
 (x!31 Bool)
 (x!32 Bool)
 (x!33 Bool)
 (x!34 Int)
 (x!35 Int)
 (x!36 Int)
 (x!37 Bool)
 (x!38 Int)
 (x!39 Int)
 (x!40 Int)
 (x!41 Bool)
 (x!42 Int)
 (x!43 Bool)
 (x!44 Int)
 (x!45 Bool)
 (x!46 Bool)
 (x!47 Int)
 (x!48 Bool)
 (x!49 Bool)
 (x!50 Bool)
 (x!51 Int)
 (x!52 Bool)
 (x!53 Bool)
 (x!54 Bool)
 (x!55 Bool)
 (x!56 Bool)
 (x!57 Bool)
 (x!58 Bool)
 (x!59 Bool)
 (x!60 Bool)
 (x!61 Bool)
 (x!62 Bool)
 (x!63 Bool)
 (x!64 Int)
 (x!65 Int)
 (x!66 Int)
 (x!67 Bool)
 (x!68 Int)
 (x!69 Bool)
 (x!70 Bool)
 (x!71 Int)
 (x!72 Int)
 (x!73 Int)
 (x!74 Bool)
 (x!75 Bool)
 (x!76 Bool)
 (x!77 Bool)
 (x!78 Int)
 (x!79 Int)
 (x!80 Int)
 (x!81 Bool)
 (x!82 Int)
 (x!83 Int)
 (x!84 Int)
 (x!85 Bool)
 (x!86 Int)
 (x!87 Bool)) Bool
  x!87)
BRUNCH_STAT max_query_lvl 7
BRUNCH_STAT num_queries 57
BRUNCH_STAT num_reach_queries 0
BRUNCH_STAT num_reach_reuse 1
BRUNCH_STAT inductive_lvl 3
BRUNCH_STAT max_depth 7
BRUNCH_STAT cex_depth 0
(:SPACER-expand-node-undef             58
 :SPACER-inductive-level               3
 :SPACER-max-depth                     7
 :SPACER-max-query-lvl                 7
 :SPACER-num-invariants                38
 :SPACER-num-lemmas                    65
 :SPACER-num-properties                40
 :SPACER-num-queries                   57
 :SPACER-num-reuse-reach-facts         1
 :added-eqs                            107717
 :arith-add-rows                       362890
 :arith-assert-diseq                   26081
 :arith-assert-lower                   50904
 :arith-assert-upper                   48550
 :arith-bound-prop                     4313
 :arith-conflicts                      401
 :arith-eq-adapter                     19771
 :arith-fixed-eqs                      13272
 :arith-gcd-tests                      163497
 :arith-gomory-cuts                    917
 :arith-ineq-splits                    1082
 :arith-offset-eqs                     14178
 :arith-pivots                         10125
 :bool-inductive-gen                   49
 :bool-inductive-gen-failures          91
 :conflicts                            1186
 :decisions                            115838
 :del-clause                           25945
 :final-checks                         3180
 :interface-eqs                        739
 :minimized-lits                       3454
 :mk-bool-var                          46144
 :mk-clause                            39430
 :num-checks                           510
 :propagations                         543858
 :restarts                             1
 :time.itp_solver.itp_core             0.03
 :time.spacer.init_rules               0.01
 :time.spacer.init_rules.pt.init       0.00
 :time.spacer.solve                    13.56
 :time.spacer.solve.propagate          0.13
 :time.spacer.solve.pt.must_reachable  0.12
 :time.spacer.solve.reach              13.43
 :time.spacer.solve.reach.children     0.05
 :time.spacer.solve.reach.gen.bool_ind 0.64
 :time.virtual_solver.proof            0.02
 :time.virtual_solver.smt.total        13.39
 :time.virtual_solver.smt.total.sat    12.19
 :time.virtual_solver.smt.total.undef  0.85
 :virtual_solver.checks                510
 :virtual_solver.checks.sat            102
 :virtual_solver.checks.undef          141)
BRUNCH_STAT max_query_lvl 7
BRUNCH_STAT num_queries 57
BRUNCH_STAT num_reach_queries 0
BRUNCH_STAT num_reach_reuse 1
BRUNCH_STAT inductive_lvl 3
BRUNCH_STAT max_depth 7
BRUNCH_STAT cex_depth 0

real	0m13.674s
user	0m13.628s
sys	0m0.044s
