(transform N7datalog13mk_coi_filterE...no-op 0s)
(transform N7datalog25mk_interp_tail_simplifierE...7 rules 0.00189569s)
(transform N7datalog27mk_quantifier_instantiationE...no-op 0s)
(transform N7datalog8mk_scaleE...no-op 0s)
(transform N7datalog18mk_karr_invariantsE...no-op 0s)
(transform N7datalog14mk_array_blastE...no-op 0s)
(transform N7datalog22mk_subsumption_checkerE...6 rules 0s)
(transform N7datalog12mk_bit_blastE...no-op 0s)
(transform N7datalog15mk_rule_inlinerE...no-op 0s)
(transform N7datalog13mk_coi_filterE...no-op 0s)
(transform N7datalog25mk_interp_tail_simplifierE...6 rules 0s)
(transform N7datalog22mk_subsumption_checkerE...no-op 0s)
(transform N7datalog15mk_rule_inlinerE...no-op 0s)
(transform N7datalog13mk_coi_filterE...no-op 0s)
(transform N7datalog25mk_interp_tail_simplifierE...6 rules 0s)
(transform N7datalog22mk_subsumption_checkerE...no-op 0s)
(transform N7datalog15mk_rule_inlinerE...no-op 0s)
(transform N7datalog22mk_subsumption_checkerE...no-op 0s)
(transform N7datalog15mk_rule_inlinerE...no-op 0s)
(transform N7datalog22mk_subsumption_checkerE...no-op 0s)
(transform N7datalog15mk_rule_inlinerE...no-op 0s)
(transform N7datalog22mk_subsumption_checkerE...no-op 0s)
expand: query!0 (0, 0) FAR  w(0) 1. F 0.00
(spacer::context::check_reachability :time 0.00 :before-memory 7.94 :after-memory 8.40)
Entering level 1
BRUNCH_STAT max_query_lvl 0
BRUNCH_STAT num_queries 0
BRUNCH_STAT num_reach_queries 0
BRUNCH_STAT num_reach_reuse 0
BRUNCH_STAT inductive_lvl 0
BRUNCH_STAT max_depth 1
BRUNCH_STAT cex_depth 0
expand: query!0 (1, 0) FAR  w(0) 1.
	create_child: ERR (0, 1) FAR 1 U 0.00
expand: ERR (0, 0) FAR  w(0) 1. F 0.00
expand: query!0 (1, 0) FAR  w(0) 1. F 0.00
(spacer::context::check_reachability :time 0.00 :before-memory 8.40 :after-memory 8.86)
Propagating: 0 1  ! 2 
(spacer::context::propagate :time 0.00 :before-memory 8.86 :after-memory 8.86)
Entering level 2
BRUNCH_STAT max_query_lvl 1
BRUNCH_STAT num_queries 1
BRUNCH_STAT num_reach_queries 0
BRUNCH_STAT num_reach_reuse 0
BRUNCH_STAT inductive_lvl 0
BRUNCH_STAT max_depth 2
BRUNCH_STAT cex_depth 0
expand: query!0 (2, 0) FAR  w(0) 1.
	create_child: ERR (1, 2) FAR 1 U 0.00
expand: ERR (1, 0) FAR  w(0) 1.
	create_child: MAIN (0, 2) FAR 6865 U 0.00
expand: MAIN (0, 0) FAR  w(0) 6865. F 0.01
expand: ERR (1, 0) FAR  w(0) 1. F 0.00
expand: query!0 (2, 0) FAR  w(0) 1. F 0.00
(spacer::context::check_reachability :time 0.01 :before-memory 8.86 :after-memory 11.71)
Propagating: 0 1 2  ! 3 
(spacer::context::propagate :time 0.01 :before-memory 11.71 :after-memory 12.22)
Entering level 3
BRUNCH_STAT max_query_lvl 2
BRUNCH_STAT num_queries 3
BRUNCH_STAT num_reach_queries 0
BRUNCH_STAT num_reach_reuse 0
BRUNCH_STAT inductive_lvl 0
BRUNCH_STAT max_depth 3
BRUNCH_STAT cex_depth 0
expand: query!0 (3, 0) FAR  w(0) 1.
	create_child: ERR (2, 3) FAR 1 U 0.00
expand: ERR (2, 0) FAR  w(0) 1.
	create_child: MAIN (1, 3) FAR 6865 U 0.00
expand: MAIN (1, 0) FAR  w(0) 6865.
	create_child: top_step (0, 3) FAR 20383 U 0.01
expand: top_step (0, 0) FAR  w(0) 20383. F 0.02
expand: MAIN (1, 0) FAR  w(0) 6865. F 0.00
expand: ERR (2, 0) FAR  w(0) 1. F 0.00
expand: query!0 (3, 0) FAR  w(0) 1. F 0.00
(spacer::context::check_reachability :time 0.02 :before-memory 12.22 :after-memory 15.45)
Propagating: 0 1 
(spacer::context::propagate :time 0.00 :before-memory 15.45 :after-memory 15.59)
(define-fun ERR () Bool
  false)
(define-fun top_reset ((x!0 Int)
 (x!1 Int)
 (x!2 Int)
 (x!3 Int)
 (x!4 Bool)
 (x!5 Int)
 (x!6 Bool)
 (x!7 Int)
 (x!8 Bool)
 (x!9 Int)
 (x!10 Bool)
 (x!11 Bool)
 (x!12 Bool)
 (x!13 Int)
 (x!14 Bool)
 (x!15 Bool)
 (x!16 Bool)
 (x!17 Bool)
 (x!18 Bool)
 (x!19 Bool)
 (x!20 Bool)
 (x!21 Bool)
 (x!22 Bool)
 (x!23 Bool)
 (x!24 Bool)
 (x!25 Bool)
 (x!26 Bool)
 (x!27 Int)
 (x!28 Int)
 (x!29 Int)
 (x!30 Int)
 (x!31 Int)
 (x!32 Bool)
 (x!33 Bool)
 (x!34 Bool)
 (x!35 Int)
 (x!36 Int)
 (x!37 Int)
 (x!38 Bool)
 (x!39 Bool)
 (x!40 Bool)
 (x!41 Bool)
 (x!42 Int)
 (x!43 Bool)
 (x!44 Int)
 (x!45 Int)
 (x!46 Int)
 (x!47 Int)
 (x!48 Bool)
 (x!49 Int)
 (x!50 Bool)
 (x!51 Int)
 (x!52 Bool)
 (x!53 Int)
 (x!54 Bool)
 (x!55 Bool)
 (x!56 Bool)
 (x!57 Int)
 (x!58 Bool)
 (x!59 Bool)
 (x!60 Bool)
 (x!61 Bool)
 (x!62 Bool)
 (x!63 Bool)
 (x!64 Bool)
 (x!65 Bool)
 (x!66 Bool)
 (x!67 Bool)
 (x!68 Bool)
 (x!69 Bool)
 (x!70 Bool)
 (x!71 Int)
 (x!72 Int)
 (x!73 Int)
 (x!74 Int)
 (x!75 Int)
 (x!76 Bool)
 (x!77 Bool)
 (x!78 Bool)
 (x!79 Int)
 (x!80 Int)
 (x!81 Int)
 (x!82 Bool)
 (x!83 Bool)
 (x!84 Bool)
 (x!85 Bool)
 (x!86 Int)
 (x!87 Bool)) Bool
  true)
(define-fun MAIN ((x!0 Int)
 (x!1 Int)
 (x!2 Int)
 (x!3 Int)
 (x!4 Bool)
 (x!5 Int)
 (x!6 Bool)
 (x!7 Int)
 (x!8 Bool)
 (x!9 Int)
 (x!10 Bool)
 (x!11 Bool)
 (x!12 Bool)
 (x!13 Int)
 (x!14 Bool)
 (x!15 Bool)
 (x!16 Bool)
 (x!17 Bool)
 (x!18 Bool)
 (x!19 Bool)
 (x!20 Bool)
 (x!21 Bool)
 (x!22 Bool)
 (x!23 Bool)
 (x!24 Bool)
 (x!25 Bool)
 (x!26 Bool)
 (x!27 Int)
 (x!28 Int)
 (x!29 Int)
 (x!30 Int)
 (x!31 Int)
 (x!32 Bool)
 (x!33 Bool)
 (x!34 Bool)
 (x!35 Int)
 (x!36 Int)
 (x!37 Int)
 (x!38 Bool)
 (x!39 Bool)
 (x!40 Bool)
 (x!41 Bool)
 (x!42 Int)
 (x!43 Bool)
 (x!44 Bool)) Bool
  x!44)
(define-fun top_step ((x!0 Bool)
 (x!1 Bool)
 (x!2 Bool)
 (x!3 Bool)
 (x!4 Bool)
 (x!5 Bool)
 (x!6 Bool)
 (x!7 Bool)
 (x!8 Bool)
 (x!9 Bool)
 (x!10 Bool)
 (x!11 Bool)
 (x!12 Bool)
 (x!13 Bool)
 (x!14 Int)
 (x!15 Int)
 (x!16 Int)
 (x!17 Int)
 (x!18 Bool)
 (x!19 Int)
 (x!20 Bool)
 (x!21 Int)
 (x!22 Bool)
 (x!23 Int)
 (x!24 Bool)
 (x!25 Bool)
 (x!26 Bool)
 (x!27 Int)
 (x!28 Bool)
 (x!29 Bool)
 (x!30 Bool)
 (x!31 Bool)
 (x!32 Bool)
 (x!33 Bool)
 (x!34 Bool)
 (x!35 Bool)
 (x!36 Bool)
 (x!37 Bool)
 (x!38 Bool)
 (x!39 Bool)
 (x!40 Bool)
 (x!41 Int)
 (x!42 Int)
 (x!43 Int)
 (x!44 Int)
 (x!45 Int)
 (x!46 Bool)
 (x!47 Bool)
 (x!48 Bool)
 (x!49 Int)
 (x!50 Int)
 (x!51 Int)
 (x!52 Bool)
 (x!53 Bool)
 (x!54 Bool)
 (x!55 Bool)
 (x!56 Int)
 (x!57 Bool)
 (x!58 Int)
 (x!59 Int)
 (x!60 Int)
 (x!61 Int)
 (x!62 Bool)
 (x!63 Int)
 (x!64 Bool)
 (x!65 Int)
 (x!66 Bool)
 (x!67 Int)
 (x!68 Bool)
 (x!69 Bool)
 (x!70 Bool)
 (x!71 Int)
 (x!72 Bool)
 (x!73 Bool)
 (x!74 Bool)
 (x!75 Bool)
 (x!76 Bool)
 (x!77 Bool)
 (x!78 Bool)
 (x!79 Bool)
 (x!80 Bool)
 (x!81 Bool)
 (x!82 Bool)
 (x!83 Bool)
 (x!84 Bool)
 (x!85 Int)
 (x!86 Int)
 (x!87 Int)
 (x!88 Int)
 (x!89 Int)
 (x!90 Bool)
 (x!91 Bool)
 (x!92 Bool)
 (x!93 Int)
 (x!94 Int)
 (x!95 Int)
 (x!96 Bool)
 (x!97 Bool)
 (x!98 Bool)
 (x!99 Bool)
 (x!100 Int)
 (x!101 Bool)) Bool
  x!13)
BRUNCH_STAT max_query_lvl 3
BRUNCH_STAT num_queries 6
BRUNCH_STAT num_reach_queries 0
BRUNCH_STAT num_reach_reuse 1
BRUNCH_STAT inductive_lvl 1
BRUNCH_STAT max_depth 3
BRUNCH_STAT cex_depth 0
(:SPACER-inductive-level               1
 :SPACER-max-depth                     3
 :SPACER-max-query-lvl                 3
 :SPACER-num-invariants                4
 :SPACER-num-lemmas                    10
 :SPACER-num-properties                5
 :SPACER-num-queries                   6
 :SPACER-num-reuse-reach-facts         1
 :added-eqs                            2110
 :arith-add-rows                       472
 :arith-assert-diseq                   420
 :arith-assert-lower                   848
 :arith-assert-upper                   874
 :arith-bound-prop                     174
 :arith-conflicts                      9
 :arith-eq-adapter                     523
 :arith-fixed-eqs                      189
 :arith-offset-eqs                     378
 :arith-pivots                         272
 :bool-inductive-gen                   2
 :bool-inductive-gen-failures          2
 :conflicts                            55
 :decisions                            2312
 :del-clause                           573
 :final-checks                         17
 :interface-eqs                        4
 :minimized-lits                       8
 :mk-bool-var                          3708
 :mk-clause                            7732
 :num-checks                           39
 :propagations                         13112
 :time.itp_solver.itp_core             0.00
 :time.spacer.init_rules               0.01
 :time.spacer.init_rules.pt.init       0.00
 :time.spacer.solve                    0.05
 :time.spacer.solve.propagate          0.01
 :time.spacer.solve.reach              0.04
 :time.spacer.solve.reach.children     0.00
 :time.spacer.solve.reach.gen.bool_ind 0.01
 :time.virtual_solver.proof            0.00
 :time.virtual_solver.smt.total        0.05
 :time.virtual_solver.smt.total.sat    0.02
 :virtual_solver.checks                39
 :virtual_solver.checks.sat            13)
BRUNCH_STAT max_query_lvl 3
BRUNCH_STAT num_queries 6
BRUNCH_STAT num_reach_queries 0
BRUNCH_STAT num_reach_reuse 1
BRUNCH_STAT inductive_lvl 1
BRUNCH_STAT max_depth 3
BRUNCH_STAT cex_depth 0

real	0m0.107s
user	0m0.104s
sys	0m0.000s
