(transform N7datalog13mk_coi_filterE...no-op 0s)
(transform N7datalog25mk_interp_tail_simplifierE...7 rules 0.00167069s)
(transform N7datalog27mk_quantifier_instantiationE...no-op 0s)
(transform N7datalog8mk_scaleE...no-op 0s)
(transform N7datalog18mk_karr_invariantsE...no-op 0s)
(transform N7datalog14mk_array_blastE...no-op 0s)
(transform N7datalog22mk_subsumption_checkerE...6 rules 0s)
(transform N7datalog12mk_bit_blastE...no-op 0s)
(transform N7datalog15mk_rule_inlinerE...no-op 0s)
(transform N7datalog13mk_coi_filterE...no-op 0s)
(transform N7datalog25mk_interp_tail_simplifierE...6 rules 0s)
(transform N7datalog22mk_subsumption_checkerE...no-op 0s)
(transform N7datalog15mk_rule_inlinerE...no-op 0s)
(transform N7datalog13mk_coi_filterE...no-op 0s)
(transform N7datalog25mk_interp_tail_simplifierE...6 rules 0s)
(transform N7datalog22mk_subsumption_checkerE...no-op 0s)
(transform N7datalog15mk_rule_inlinerE...no-op 0s)
(transform N7datalog22mk_subsumption_checkerE...no-op 0s)
(transform N7datalog15mk_rule_inlinerE...no-op 0s)
(transform N7datalog22mk_subsumption_checkerE...no-op 0s)
(transform N7datalog15mk_rule_inlinerE...no-op 0s)
(transform N7datalog22mk_subsumption_checkerE...no-op 0s)
expand: query!0 (0, 0) FAR  w(0) 1. F 0.00
(spacer::context::check_reachability :time 0.00 :before-memory 7.81 :after-memory 8.26)
Entering level 1
BRUNCH_STAT max_query_lvl 0
BRUNCH_STAT num_queries 0
BRUNCH_STAT num_reach_queries 0
BRUNCH_STAT num_reach_reuse 0
BRUNCH_STAT inductive_lvl 0
BRUNCH_STAT max_depth 1
BRUNCH_STAT cex_depth 0
expand: query!0 (1, 0) FAR  w(0) 1.
	create_child: ERR (0, 1) FAR 1 U 0.00
expand: ERR (0, 0) FAR  w(0) 1. F 0.00
expand: query!0 (1, 0) FAR  w(0) 1. F 0.00
(spacer::context::check_reachability :time 0.00 :before-memory 8.26 :after-memory 8.73)
Propagating: 0 1  ! 2 
(spacer::context::propagate :time 0.00 :before-memory 8.73 :after-memory 8.73)
Entering level 2
BRUNCH_STAT max_query_lvl 1
BRUNCH_STAT num_queries 1
BRUNCH_STAT num_reach_queries 0
BRUNCH_STAT num_reach_reuse 0
BRUNCH_STAT inductive_lvl 0
BRUNCH_STAT max_depth 2
BRUNCH_STAT cex_depth 0
expand: query!0 (2, 0) FAR  w(0) 1.
	create_child: ERR (1, 2) FAR 1 U 0.00
expand: ERR (1, 0) FAR  w(0) 1.
	create_child: MAIN (0, 2) FAR 6199 U 0.00
expand: MAIN (0, 0) FAR  w(0) 6199. F 0.01
expand: ERR (1, 0) FAR  w(0) 1. F 0.00
expand: query!0 (2, 0) FAR  w(0) 1. F 0.00
(spacer::context::check_reachability :time 0.01 :before-memory 8.73 :after-memory 11.25)
Propagating: 0 1 2  ! 3 
(spacer::context::propagate :time 0.01 :before-memory 11.25 :after-memory 11.84)
Entering level 3
BRUNCH_STAT max_query_lvl 2
BRUNCH_STAT num_queries 3
BRUNCH_STAT num_reach_queries 0
BRUNCH_STAT num_reach_reuse 0
BRUNCH_STAT inductive_lvl 0
BRUNCH_STAT max_depth 3
BRUNCH_STAT cex_depth 0
expand: query!0 (3, 0) FAR  w(0) 1.
	create_child: ERR (2, 3) FAR 1 U 0.00
expand: ERR (2, 0) FAR  w(0) 1.
	create_child: MAIN (1, 3) FAR 6199 U 0.00
expand: MAIN (1, 0) FAR  w(0) 6199.
	create_child: top_step (0, 3) FAR 18560 U 0.00
expand: top_step (0, 0) FAR  w(0) 18560. F 0.02
expand: MAIN (1, 0) FAR  w(0) 6199.
	create_child: top_step (0, 3) FAR 18606 UNDEF 0.01
expand: top_step (0, 0) FAR  w(0) 18606. UNDEF 0.00
expand: top_step (0, 0) FAR  w(1) 18606.
	create_child: top_reset (0, 3) FAR 26539 X 0.02
expand: top_reset (0, 0) FAR  w(0) 26539. F 0.00
expand: MAIN (1, 0) FAR  w(0) 6199. F 0.00
expand: ERR (2, 0) FAR  w(0) 1. F 0.00
expand: query!0 (3, 0) FAR  w(0) 1. F 0.00
(spacer::context::check_reachability :time 0.06 :before-memory 11.84 :after-memory 17.54)
Propagating: 0 1 2 3  ! 4 
(spacer::context::propagate :time 0.00 :before-memory 17.54 :after-memory 17.54)
Entering level 4
BRUNCH_STAT max_query_lvl 3
BRUNCH_STAT num_queries 7
BRUNCH_STAT num_reach_queries 0
BRUNCH_STAT num_reach_reuse 1
BRUNCH_STAT inductive_lvl 0
BRUNCH_STAT max_depth 4
BRUNCH_STAT cex_depth 0
expand: query!0 (4, 0) FAR  w(0) 1.
	create_child: ERR (3, 4) FAR 1 U 0.00
expand: ERR (3, 0) FAR  w(0) 1.
	create_child: MAIN (2, 4) FAR 6199 U 0.00
expand: MAIN (2, 0) FAR  w(0) 6199.
	create_child: top_step (1, 4) FAR 18606 UNDEF 0.00
expand: top_step (1, 0) FAR  w(0) 18606. UNDEF 0.00
expand: top_step (1, 0) FAR  w(1) 18606.
	create_child: MAIN (1, 4) FAR 28144 X 0.02
expand: MAIN (1, 0) FAR  w(0) 28144.
	create_child: top_step (0, 4) FAR 27125 UNDEF 0.01
expand: top_step (0, 0) FAR  w(0) 27125. F 0.00
expand: MAIN (1, 0) FAR  w(0) 28144. F 0.00
expand: MAIN (2, 0) FAR  w(0) 6199.
	create_child: top_step (1, 4) FAR 27470 UNDEF 0.01
expand: top_step (1, 0) FAR  w(0) 27470. UNDEF 0.00
expand: top_step (1, 0) FAR  w(1) 27470.
	create_child: MAIN (1, 4) FAR 28882 X 0.01
expand: MAIN (1, 0) FAR  w(0) 28882.
	create_child: top_step (0, 4) FAR 28871 UNDEF 0.00
expand: top_step (0, 0) FAR  w(0) 28871. F 0.01
expand: MAIN (1, 0) FAR  w(0) 28882. F 0.00
expand: MAIN (2, 0) FAR  w(0) 6199.
	create_child: top_step (1, 4) FAR 27513 UNDEF 0.00
expand: top_step (1, 0) FAR  w(0) 27513. UNDEF 0.00
expand: top_step (1, 0) FAR  w(1) 27513.
	create_child: MAIN (1, 4) FAR 29025 X 0.01
expand: MAIN (1, 0) FAR  w(0) 29025.
	create_child: top_step (0, 4) FAR 29026 UNDEF 0.01
expand: top_step (0, 0) FAR  w(0) 29026. F 0.01
expand: MAIN (1, 0) FAR  w(0) 29025. F 0.01
expand: MAIN (2, 0) FAR  w(0) 6199.
	create_child: top_step (1, 4) FAR 29325 UNDEF 0.01
expand: top_step (1, 0) FAR  w(0) 29325. UNDEF 0.00
expand: top_step (1, 0) FAR  w(1) 29325.
	create_child: MAIN (1, 4) FAR 29825 X 0.01
expand: MAIN (1, 0) FAR  w(0) 29825.
	create_child: top_step (0, 4) FAR 29306 UNDEF 0.01
expand: top_step (0, 0) FAR  w(0) 29306. F 0.01
expand: MAIN (1, 0) FAR  w(0) 29825. F 0.01
expand: MAIN (2, 0) FAR  w(0) 6199.
	create_child: top_step (1, 4) FAR 29771 UNDEF 0.01
expand: top_step (1, 0) FAR  w(0) 29771. UNDEF 0.00
expand: top_step (1, 0) FAR  w(1) 29771.
	create_child: MAIN (1, 4) FAR 30859 X 0.02
expand: MAIN (1, 0) FAR  w(0) 30859.
	create_child: top_step (0, 4) FAR 31161 UNDEF 0.01
expand: top_step (0, 0) FAR  w(0) 31161. F 0.02
expand: MAIN (1, 0) FAR  w(0) 30859. F 0.01
expand: MAIN (2, 0) FAR  w(0) 6199.
	create_child: top_step (1, 4) FAR 30858 UNDEF 0.01
expand: top_step (1, 0) FAR  w(0) 30858. UNDEF 0.01
expand: top_step (1, 0) FAR  w(1) 30858.
	create_child: MAIN (1, 4) FAR 29887 X 0.03
expand: MAIN (1, 0) FAR  w(0) 29887.
	create_child: top_step (0, 4) FAR 29999 UNDEF 0.01
expand: top_step (0, 0) FAR  w(0) 29999. F 0.02
expand: MAIN (1, 0) FAR  w(0) 29887. F 0.01
expand: MAIN (2, 0) FAR  w(0) 6199.
	create_child: top_step (1, 4) FAR 33060 UNDEF 0.02
expand: top_step (1, 0) FAR  w(0) 33060. UNDEF 0.00
expand: top_step (1, 0) FAR  w(1) 33060.
	create_child: MAIN (1, 4) FAR 32344 X 0.03
expand: MAIN (1, 0) FAR  w(0) 32344.
	create_child: top_step (0, 4) FAR 33006 UNDEF 0.01
expand: top_step (0, 0) FAR  w(0) 33006. F 0.02
expand: MAIN (1, 0) FAR  w(0) 32344. F 0.02
expand: MAIN (2, 0) FAR  w(0) 6199.
	create_child: top_step (1, 4) FAR 29271 UNDEF 0.02
expand: top_step (1, 0) FAR  w(0) 29271. UNDEF 0.01
expand: top_step (1, 0) FAR  w(1) 29271.
	create_child: MAIN (1, 4) FAR 30914 X 0.17
expand: MAIN (1, 0) FAR  w(0) 30914.
	create_child: top_step (0, 4) FAR 34975 UNDEF 0.01
expand: top_step (0, 0) FAR  w(0) 34975. F 0.04
expand: MAIN (1, 0) FAR  w(0) 30914. F 0.01
expand: MAIN (2, 0) FAR  w(0) 6199.
	create_child: top_step (1, 4) FAR 36066 UNDEF 0.01
expand: top_step (1, 0) FAR  w(0) 36066. UNDEF 0.01
expand: top_step (1, 0) FAR  w(1) 36066.
	create_child: MAIN (1, 4) FAR 36797 X 0.24
expand: MAIN (1, 0) FAR  w(0) 36797.
	create_child: top_step (0, 4) FAR 38138 UNDEF 0.08
expand: top_step (0, 0) FAR  w(0) 38138. F 0.05
expand: MAIN (1, 0) FAR  w(0) 36797. F 0.03
expand: MAIN (2, 0) FAR  w(0) 6199.
	create_child: top_step (1, 4) FAR 39312 UNDEF 0.03
expand: top_step (1, 0) FAR  w(0) 39312. UNDEF 0.01
expand: top_step (1, 0) FAR  w(1) 39312.
	create_child: MAIN (1, 4) FAR 39634 X 0.02
expand: MAIN (1, 0) FAR  w(0) 39634.
	create_child: top_step (0, 4) FAR 26742 UNDEF 0.01
expand: top_step (0, 0) FAR  w(0) 26742. UNDEF 0.01
expand: top_step (0, 0) FAR  w(1) 26742. T 0.01
is-reachable: MAIN (1, 0) FAR 39634 F 0.35
expand: MAIN (1, 0) FAR  w(1) 39634.
	create_child: top_step (0, 4) FAR 41235 U 0.26
expand: top_step (0, 0) FAR  w(0) 41235. F 0.06
expand: MAIN (1, 0) FAR  w(1) 39634. F 0.21
expand: MAIN (2, 0) FAR  w(0) 6199.
	create_child: top_step (1, 4) FAR 43993 UNDEF 0.04
expand: top_step (1, 0) FAR  w(0) 43993. UNDEF 0.01
expand: top_step (1, 0) FAR  w(1) 43993.
	create_child: MAIN (1, 4) FAR 36083 X 0.32
expand: MAIN (1, 0) FAR  w(0) 36083.
	create_child: top_step (0, 4) FAR 43261 UNDEF 0.01
expand: top_step (0, 0) FAR  w(0) 43261. F 0.03
expand: MAIN (1, 0) FAR  w(0) 36083. F 0.02
expand: MAIN (2, 0) FAR  w(0) 6199.
	create_child: top_step (1, 4) FAR 41990 UNDEF 0.02
expand: top_step (1, 0) FAR  w(0) 41990.
	create_child: MAIN (1, 4) FAR 43226 X 0.02
expand: MAIN (1, 0) FAR  w(0) 43226.
	create_child: top_step (0, 4) FAR 37473 UNDEF 0.01
expand: top_step (0, 0) FAR  w(0) 37473. F 0.02
expand: MAIN (1, 0) FAR  w(0) 43226. F 0.02
expand: MAIN (2, 0) FAR  w(0) 6199.
	create_child: top_step (1, 4) FAR 39070 UNDEF 0.02
expand: top_step (1, 0) FAR  w(0) 39070.
	create_child: MAIN (1, 4) FAR 45287 X 0.02
expand: MAIN (1, 0) FAR  w(0) 45287.
	create_child: top_step (0, 4) FAR 45285 UNDEF 0.01
expand: top_step (0, 0) FAR  w(0) 45285. F 0.02
expand: MAIN (1, 0) FAR  w(0) 45287. F 0.02
expand: MAIN (2, 0) FAR  w(0) 6199.
	create_child: top_step (1, 4) FAR 46019 UNDEF 0.01
expand: top_step (1, 0) FAR  w(0) 46019.
	create_child: MAIN (1, 4) FAR 45513 X 0.02
expand: MAIN (1, 0) FAR  w(0) 45513.
	create_child: top_step (0, 4) FAR 45909 UNDEF 0.01
expand: top_step (0, 0) FAR  w(0) 45909. F 0.02
expand: MAIN (1, 0) FAR  w(0) 45513. F 0.02
expand: MAIN (2, 0) FAR  w(0) 6199.
	create_child: top_step (1, 4) FAR 46227 UNDEF 0.01
expand: top_step (1, 0) FAR  w(0) 46227.
	create_child: MAIN (1, 4) FAR 46509 X 0.02
expand: MAIN (1, 0) FAR  w(0) 46509.
	create_child: top_step (0, 4) FAR 45599 UNDEF 0.01
expand: top_step (0, 0) FAR  w(0) 45599. F 0.02
expand: MAIN (1, 0) FAR  w(0) 46509. F 0.02
expand: MAIN (2, 0) FAR  w(0) 6199.
	create_child: top_step (1, 4) FAR 46290 UNDEF 0.01
expand: top_step (1, 0) FAR  w(0) 46290.
	create_child: MAIN (1, 4) FAR 46340 X 0.02
expand: MAIN (1, 0) FAR  w(0) 46340.
	create_child: top_step (0, 4) FAR 46469 UNDEF 0.01
expand: top_step (0, 0) FAR  w(0) 46469. F 0.02
expand: MAIN (1, 0) FAR  w(0) 46340. F 0.02
expand: MAIN (2, 0) FAR  w(0) 6199.
	create_child: top_step (1, 4) FAR 46688 UNDEF 0.01
expand: top_step (1, 0) FAR  w(0) 46688.
	create_child: MAIN (1, 4) FAR 46899 X 0.02
expand: MAIN (1, 0) FAR  w(0) 46899.
	create_child: top_step (0, 4) FAR 46638 UNDEF 0.01
expand: top_step (0, 0) FAR  w(0) 46638. F 0.11
expand: MAIN (1, 0) FAR  w(0) 46899. F 0.02
expand: MAIN (2, 0) FAR  w(0) 6199.
	create_child: top_step (1, 4) FAR 46688 UNDEF 0.01
expand: top_step (1, 0) FAR  w(0) 46688. UNDEF 0.03
expand: top_step (1, 0) FAR  w(1) 46688.
	create_child: MAIN (1, 4) FAR 46899 X 72.69
expand: MAIN (1, 0) FAR  w(0) 46899. F 0.02
expand: MAIN (2, 0) FAR  w(0) 6199.
	create_child: top_step (1, 4) FAR 46688 UNDEF 0.01
expand: top_step (1, 0) FAR  w(0) 46688.
	create_child: MAIN (1, 4) FAR 46899 X 0.14
expand: MAIN (1, 0) FAR  w(0) 46899. F 0.02
expand: MAIN (2, 0) FAR  w(0) 6199.
	create_child: top_step (1, 4) FAR 46688 UNDEF 0.01
expand: top_step (1, 0) FAR  w(0) 46688.
	create_child: MAIN (1, 4) FAR 46899 X 0.05
expand: MAIN (1, 0) FAR  w(0) 46899. F 0.01
expand: MAIN (2, 0) FAR  w(0) 6199.
	create_child: top_step (1, 4) FAR 46688 UNDEF 0.01
expand: top_step (1, 0) FAR  w(0) 46688.
	create_child: MAIN (1, 4) FAR 46899 X 0.03
expand: MAIN (1, 0) FAR  w(0) 46899. F 0.02
expand: MAIN (2, 0) FAR  w(0) 6199.
	create_child: top_step (1, 4) FAR 46688 UNDEF 0.01
expand: top_step (1, 0) FAR  w(0) 46688.
	create_child: MAIN (1, 4) FAR 46899 X 0.03
expand: MAIN (1, 0) FAR  w(0) 46899. F 0.02
expand: MAIN (2, 0) FAR  w(0) 6199.
	create_child: top_step (1, 4) FAR 46688 UNDEF 0.01
expand: top_step (1, 0) FAR  w(0) 46688.
	create_child: MAIN (1, 4) FAR 46899 X 0.03
expand: MAIN (1, 0) FAR  w(0) 46899. F 0.02
expand: MAIN (2, 0) FAR  w(0) 6199.
	create_child: top_step (1, 4) FAR 46688 UNDEF 0.01
expand: top_step (1, 0) FAR  w(0) 46688.
	create_child: MAIN (1, 4) FAR 46899 X 0.03
expand: MAIN (1, 0) FAR  w(0) 46899. F 0.02
expand: MAIN (2, 0) FAR  w(0) 6199.
	create_child: top_step (1, 4) FAR 46688 UNDEF 0.01
expand: top_step (1, 0) FAR  w(0) 46688.
	create_child: MAIN (1, 4) FAR 46899 X 0.03
expand: MAIN (1, 0) FAR  w(0) 46899. F 0.02
expand: MAIN (2, 0) FAR  w(0) 6199.
	create_child: top_step (1, 4) FAR 46688 UNDEF 0.01
expand: top_step (1, 0) FAR  w(0) 46688.
	create_child: MAIN (1, 4) FAR 46899 X 0.03
expand: MAIN (1, 0) FAR  w(0) 46899. F 0.02
expand: MAIN (2, 0) FAR  w(0) 6199.
	create_child: top_step (1, 4) FAR 46688 UNDEF 0.01
expand: top_step (1, 0) FAR  w(0) 46688.
	create_child: MAIN (1, 4) FAR 46899 X 0.03
expand: MAIN (1, 0) FAR  w(0) 46899. F 0.01
expand: MAIN (2, 0) FAR  w(0) 6199.
	create_child: top_step (1, 4) FAR 46688 UNDEF 0.01
expand: top_step (1, 0) FAR  w(0) 46688.
	create_child: MAIN (1, 4) FAR 46899 X 0.03
expand: MAIN (1, 0) FAR  w(0) 46899. F 0.01
expand: MAIN (2, 0) FAR  w(0) 6199.
	create_child: top_step (1, 4) FAR 46688 UNDEF 0.01
expand: top_step (1, 0) FAR  w(0) 46688.
	create_child: MAIN (1, 4) FAR 46899 X 0.03
expand: MAIN (1, 0) FAR  w(0) 46899. F 0.01
expand: MAIN (2, 0) FAR  w(0) 6199.
	create_child: top_step (1, 4) FAR 46688 UNDEF 0.01
expand: top_step (1, 0) FAR  w(0) 46688.
	create_child: MAIN (1, 4) FAR 46899 X 0.03
expand: MAIN (1, 0) FAR  w(0) 46899. F 0.01
expand: MAIN (2, 0) FAR  w(0) 6199.
	create_child: top_step (1, 4) FAR 46688 UNDEF 0.01
expand: top_step (1, 0) FAR  w(0) 46688.
	create_child: MAIN (1, 4) FAR 46899 X 0.03
expand: MAIN (1, 0) FAR  w(0) 46899. F 0.02
expand: MAIN (2, 0) FAR  w(0) 6199.
	create_child: top_step (1, 4) FAR 46688 UNDEF 0.01
expand: top_step (1, 0) FAR  w(0) 46688.
	create_child: MAIN (1, 4) FAR 46899 X 0.03
expand: MAIN (1, 0) FAR  w(0) 46899. F 0.02
expand: MAIN (2, 0) FAR  w(0) 6199.
	create_child: top_step (1, 4) FAR 46688 UNDEF 0.01
expand: top_step (1, 0) FAR  w(0) 46688.
	create_child: MAIN (1, 4) FAR 46899 X 0.03
expand: MAIN (1, 0) FAR  w(0) 46899. F 0.02
expand: MAIN (2, 0) FAR  w(0) 6199.
	create_child: top_step (1, 4) FAR 46688 UNDEF 0.01
expand: top_step (1, 0) FAR  w(0) 46688.
	create_child: MAIN (1, 4) FAR 46899 X 0.03
expand: MAIN (1, 0) FAR  w(0) 46899. F 0.01
expand: MAIN (2, 0) FAR  w(0) 6199.
	create_child: top_step (1, 4) FAR 46688 UNDEF 0.01
expand: top_step (1, 0) FAR  w(0) 46688.
	create_child: MAIN (1, 4) FAR 46899 X 0.03
expand: MAIN (1, 0) FAR  w(0) 46899. F 0.01
expand: MAIN (2, 0) FAR  w(0) 6199.
	create_child: top_step (1, 4) FAR 46688 UNDEF 0.01
expand: top_step (1, 0) FAR  w(0) 46688.
	create_child: MAIN (1, 4) FAR 46899 X 0.03
expand: MAIN (1, 0) FAR  w(0) 46899. F 0.01
expand: MAIN (2, 0) FAR  w(0) 6199.
	create_child: top_step (1, 4) FAR 46688 UNDEF 0.01
expand: top_step (1, 0) FAR  w(0) 46688.
	create_child: MAIN (1, 4) FAR 46899 X 0.03
expand: MAIN (1, 0) FAR  w(0) 46899. F 0.01
expand: MAIN (2, 0) FAR  w(0) 6199.
	create_child: top_step (1, 4) FAR 46688 UNDEF 0.01
expand: top_step (1, 0) FAR  w(0) 46688.
	create_child: MAIN (1, 4) FAR 46899 X 0.03
expand: MAIN (1, 0) FAR  w(0) 46899. F 0.02
expand: MAIN (2, 0) FAR  w(0) 6199.
	create_child: top_step (1, 4) FAR 46688 UNDEF 0.01
expand: top_step (1, 0) FAR  w(0) 46688.
	create_child: MAIN (1, 4) FAR 46899 X 0.03
expand: MAIN (1, 0) FAR  w(0) 46899. F 0.01
expand: MAIN (2, 0) FAR  w(0) 6199.
	create_child: top_step (1, 4) FAR 46688 UNDEF 0.01
expand: top_step (1, 0) FAR  w(0) 46688.
	create_child: MAIN (1, 4) FAR 46899 X 0.03
expand: MAIN (1, 0) FAR  w(0) 46899. F 0.02
expand: MAIN (2, 0) FAR  w(0) 6199.
	create_child: top_step (1, 4) FAR 46688 UNDEF 0.01
expand: top_step (1, 0) FAR  w(0) 46688.
	create_child: MAIN (1, 4) FAR 46899 X 0.03
expand: MAIN (1, 0) FAR  w(0) 46899. F 0.01
expand: MAIN (2, 0) FAR  w(0) 6199.
	create_child: top_step (1, 4) FAR 46688 UNDEF 0.01
expand: top_step (1, 0) FAR  w(0) 46688.
	create_child: MAIN (1, 4) FAR 46899 X 0.03
expand: MAIN (1, 0) FAR  w(0) 46899. F 0.01
expand: MAIN (2, 0) FAR  w(0) 6199.
	create_child: top_step (1, 4) FAR 46688 UNDEF 0.01
expand: top_step (1, 0) FAR  w(0) 46688.
	create_child: MAIN (1, 4) FAR 46899 X 0.03
expand: MAIN (1, 0) FAR  w(0) 46899. F 0.01
expand: MAIN (2, 0) FAR  w(0) 6199.
	create_child: top_step (1, 4) FAR 46688 UNDEF 0.01
expand: top_step (1, 0) FAR  w(0) 46688.
	create_child: MAIN (1, 4) FAR 46899 X 0.03
expand: MAIN (1, 0) FAR  w(0) 46899. F 0.01
expand: MAIN (2, 0) FAR  w(0) 6199.
	create_child: top_step (1, 4) FAR 46688 UNDEF 0.01
expand: top_step (1, 0) FAR  w(0) 46688.
	create_child: MAIN (1, 4) FAR 46899 X 0.03
expand: MAIN (1, 0) FAR  w(0) 46899. F 0.01
expand: MAIN (2, 0) FAR  w(0) 6199.
	create_child: top_step (1, 4) FAR 46688 UNDEF 0.01
expand: top_step (1, 0) FAR  w(0) 46688.
	create_child: MAIN (1, 4) FAR 46899 X 0.03
expand: MAIN (1, 0) FAR  w(0) 46899. F 0.01
expand: MAIN (2, 0) FAR  w(0) 6199.
	create_child: top_step (1, 4) FAR 46688 UNDEF 0.01
expand: top_step (1, 0) FAR  w(0) 46688.
	create_child: MAIN (1, 4) FAR 46899 X 0.03
expand: MAIN (1, 0) FAR  w(0) 46899. F 0.01
expand: MAIN (2, 0) FAR  w(0) 6199.
	create_child: top_step (1, 4) FAR 46688 UNDEF 0.01
expand: top_step (1, 0) FAR  w(0) 46688.
	create_child: MAIN (1, 4) FAR 46899 X 0.03
expand: MAIN (1, 0) FAR  w(0) 46899. F 0.01
expand: MAIN (2, 0) FAR  w(0) 6199.
	create_child: top_step (1, 4) FAR 46688 UNDEF 0.01
expand: top_step (1, 0) FAR  w(0) 46688.
	create_child: MAIN (1, 4) FAR 46899 X 0.03
expand: MAIN (1, 0) FAR  w(0) 46899. F 0.01
expand: MAIN (2, 0) FAR  w(0) 6199.
	create_child: top_step (1, 4) FAR 46688 UNDEF 0.01
expand: top_step (1, 0) FAR  w(0) 46688.
	create_child: MAIN (1, 4) FAR 46899 X 0.03
expand: MAIN (1, 0) FAR  w(0) 46899. F 0.01
expand: MAIN (2, 0) FAR  w(0) 6199.
	create_child: top_step (1, 4) FAR 46688 UNDEF 0.01
expand: top_step (1, 0) FAR  w(0) 46688.
	create_child: MAIN (1, 4) FAR 46899 X 0.03
expand: MAIN (1, 0) FAR  w(0) 46899. F 0.02
expand: MAIN (2, 0) FAR  w(0) 6199.
	create_child: top_step (1, 4) FAR 46688 UNDEF 0.01
expand: top_step (1, 0) FAR  w(0) 46688.
	create_child: MAIN (1, 4) FAR 46899 X 0.03
expand: MAIN (1, 0) FAR  w(0) 46899. F 0.01
expand: MAIN (2, 0) FAR  w(0) 6199.
	create_child: top_step (1, 4) FAR 46688 UNDEF 0.01
expand: top_step (1, 0) FAR  w(0) 46688.
	create_child: MAIN (1, 4) FAR 46899 X 0.03
expand: MAIN (1, 0) FAR  w(0) 46899. F 0.01
expand: MAIN (2, 0) FAR  w(0) 6199.
	create_child: top_step (1, 4) FAR 46688 UNDEF 0.01
expand: top_step (1, 0) FAR  w(0) 46688.
	create_child: MAIN (1, 4) FAR 46899 X 0.03
expand: MAIN (1, 0) FAR  w(0) 46899. F 0.01
expand: MAIN (2, 0) FAR  w(0) 6199.
	create_child: top_step (1, 4) FAR 46688 UNDEF 0.01
expand: top_step (1, 0) FAR  w(0) 46688.
	create_child: MAIN (1, 4) FAR 46899 X 0.03
expand: MAIN (1, 0) FAR  w(0) 46899. F 0.01
expand: MAIN (2, 0) FAR  w(0) 6199.
	create_child: top_step (1, 4) FAR 46688 UNDEF 0.01
expand: top_step (1, 0) FAR  w(0) 46688.
	create_child: MAIN (1, 4) FAR 46899 X 0.03
expand: MAIN (1, 0) FAR  w(0) 46899. F 0.01
expand: MAIN (2, 0) FAR  w(0) 6199.
	create_child: top_step (1, 4) FAR 46688 UNDEF 0.01
expand: top_step (1, 0) FAR  w(0) 46688.
	create_child: MAIN (1, 4) FAR 46899 X 0.03
expand: MAIN (1, 0) FAR  w(0) 46899. F 0.01
expand: MAIN (2, 0) FAR  w(0) 6199.
	create_child: top_step (1, 4) FAR 46688 UNDEF 0.01
expand: top_step (1, 0) FAR  w(0) 46688.
	create_child: MAIN (1, 4) FAR 46899 X 0.03
expand: MAIN (1, 0) FAR  w(0) 46899. F 0.01
expand: MAIN (2, 0) FAR  w(0) 6199.
	create_child: top_step (1, 4) FAR 46688 UNDEF 0.01
expand: top_step (1, 0) FAR  w(0) 46688.
	create_child: MAIN (1, 4) FAR 46899 X 0.03
expand: MAIN (1, 0) FAR  w(0) 46899. F 0.02
expand: MAIN (2, 0) FAR  w(0) 6199.
	create_child: top_step (1, 4) FAR 46688 UNDEF 0.01
expand: top_step (1, 0) FAR  w(0) 46688.
	create_child: MAIN (1, 4) FAR 46899 X 0.03
expand: MAIN (1, 0) FAR  w(0) 46899. F 0.01
expand: MAIN (2, 0) FAR  w(0) 6199.
	create_child: top_step (1, 4) FAR 46688 UNDEF 0.01
expand: top_step (1, 0) FAR  w(0) 46688.
	create_child: MAIN (1, 4) FAR 46899 X 0.03
expand: MAIN (1, 0) FAR  w(0) 46899. F 0.01
expand: MAIN (2, 0) FAR  w(0) 6199.
	create_child: top_step (1, 4) FAR 46688 UNDEF 0.01
expand: top_step (1, 0) FAR  w(0) 46688.
	create_child: MAIN (1, 4) FAR 46899 X 0.03
expand: MAIN (1, 0) FAR  w(0) 46899. F 0.01
expand: MAIN (2, 0) FAR  w(0) 6199.
	create_child: top_step (1, 4) FAR 46688 UNDEF 0.01
expand: top_step (1, 0) FAR  w(0) 46688.
	create_child: MAIN (1, 4) FAR 46899 X 0.03
expand: MAIN (1, 0) FAR  w(0) 46899. F 0.01
expand: MAIN (2, 0) FAR  w(0) 6199.
	create_child: top_step (1, 4) FAR 46688 UNDEF 0.01
expand: top_step (1, 0) FAR  w(0) 46688.
	create_child: MAIN (1, 4) FAR 46899 X 0.03
expand: MAIN (1, 0) FAR  w(0) 46899. F 0.02
expand: MAIN (2, 0) FAR  w(0) 6199.
	create_child: top_step (1, 4) FAR 46688 UNDEF 0.01
expand: top_step (1, 0) FAR  w(0) 46688.
	create_child: MAIN (1, 4) FAR 46899 X 0.03
expand: MAIN (1, 0) FAR  w(0) 46899. F 0.02
expand: MAIN (2, 0) FAR  w(0) 6199.
	create_child: top_step (1, 4) FAR 46688 UNDEF 0.01
expand: top_step (1, 0) FAR  w(0) 46688.
	create_child: MAIN (1, 4) FAR 46899 X 0.03
expand: MAIN (1, 0) FAR  w(0) 46899. F 0.02
expand: MAIN (2, 0) FAR  w(0) 6199.
	create_child: top_step (1, 4) FAR 46688 UNDEF 0.01
expand: top_step (1, 0) FAR  w(0) 46688.
	create_child: MAIN (1, 4) FAR 46899 X 0.03
expand: MAIN (1, 0) FAR  w(0) 46899. F 0.02
expand: MAIN (2, 0) FAR  w(0) 6199.
	create_child: top_step (1, 4) FAR 46688 UNDEF 0.01
expand: top_step (1, 0) FAR  w(0) 46688.
	create_child: MAIN (1, 4) FAR 46899 X 0.03
expand: MAIN (1, 0) FAR  w(0) 46899. F 0.02
expand: MAIN (2, 0) FAR  w(0) 6199.
	create_child: top_step (1, 4) FAR 46688 UNDEF 0.01
expand: top_step (1, 0) FAR  w(0) 46688.
	create_child: MAIN (1, 4) FAR 46899 X 0.03
expand: MAIN (1, 0) FAR  w(0) 46899. F 0.02
expand: MAIN (2, 0) FAR  w(0) 6199.
	create_child: top_step (1, 4) FAR 46688 UNDEF 0.01
expand: top_step (1, 0) FAR  w(0) 46688.
	create_child: MAIN (1, 4) FAR 46899 X 0.03
expand: MAIN (1, 0) FAR  w(0) 46899. F 0.02
expand: MAIN (2, 0) FAR  w(0) 6199.
	create_child: top_step (1, 4) FAR 46688 UNDEF 0.01
expand: top_step (1, 0) FAR  w(0) 46688.
	create_child: MAIN (1, 4) FAR 46899 X 0.03
expand: MAIN (1, 0) FAR  w(0) 46899. F 0.02
expand: MAIN (2, 0) FAR  w(0) 6199.
	create_child: top_step (1, 4) FAR 46688 UNDEF 0.01
expand: top_step (1, 0) FAR  w(0) 46688.
	create_child: MAIN (1, 4) FAR 46899 X 0.03
expand: MAIN (1, 0) FAR  w(0) 46899. F 0.01
expand: MAIN (2, 0) FAR  w(0) 6199.
	create_child: top_step (1, 4) FAR 46688 UNDEF 0.01
expand: top_step (1, 0) FAR  w(0) 46688.
	create_child: MAIN (1, 4) FAR 46899 X 0.03
expand: MAIN (1, 0) FAR  w(0) 46899. F 0.01
expand: MAIN (2, 0) FAR  w(0) 6199.
	create_child: top_step (1, 4) FAR 46688 UNDEF 0.01
expand: top_step (1, 0) FAR  w(0) 46688.
	create_child: MAIN (1, 4) FAR 46899 X 0.03
expand: MAIN (1, 0) FAR  w(0) 46899. F 0.02
expand: MAIN (2, 0) FAR  w(0) 6199.
	create_child: top_step (1, 4) FAR 46688 UNDEF 0.01
expand: top_step (1, 0) FAR  w(0) 46688.
	create_child: MAIN (1, 4) FAR 46899 X 0.03
expand: MAIN (1, 0) FAR  w(0) 46899. F 0.01
expand: MAIN (2, 0) FAR  w(0) 6199.
	create_child: top_step (1, 4) FAR 46688 UNDEF 0.01
expand: top_step (1, 0) FAR  w(0) 46688.
	create_child: MAIN (1, 4) FAR 46899 X 0.03
expand: MAIN (1, 0) FAR  w(0) 46899. F 0.02
expand: MAIN (2, 0) FAR  w(0) 6199.
	create_child: top_step (1, 4) FAR 46688 UNDEF 0.01
expand: top_step (1, 0) FAR  w(0) 46688.
	create_child: MAIN (1, 4) FAR 46899 X 0.03
expand: MAIN (1, 0) FAR  w(0) 46899. F 0.02
expand: MAIN (2, 0) FAR  w(0) 6199.
	create_child: top_step (1, 4) FAR 46688 UNDEF 0.01
expand: top_step (1, 0) FAR  w(0) 46688.
	create_child: MAIN (1, 4) FAR 46899 X 0.03
expand: MAIN (1, 0) FAR  w(0) 46899. F 0.01
expand: MAIN (2, 0) FAR  w(0) 6199.
	create_child: top_step (1, 4) FAR 46688 UNDEF 0.01
expand: top_step (1, 0) FAR  w(0) 46688.
	create_child: MAIN (1, 4) FAR 46899 X 0.03
expand: MAIN (1, 0) FAR  w(0) 46899. F 0.01
expand: MAIN (2, 0) FAR  w(0) 6199.
	create_child: top_step (1, 4) FAR 46688 UNDEF 0.01
expand: top_step (1, 0) FAR  w(0) 46688.
	create_child: MAIN (1, 4) FAR 46899 X 0.03
expand: MAIN (1, 0) FAR  w(0) 46899. F 0.02
expand: MAIN (2, 0) FAR  w(0) 6199.
	create_child: top_step (1, 4) FAR 46688 UNDEF 0.01
expand: top_step (1, 0) FAR  w(0) 46688.
	create_child: MAIN (1, 4) FAR 46899 X 0.03
expand: MAIN (1, 0) FAR  w(0) 46899. F 0.01
expand: MAIN (2, 0) FAR  w(0) 6199.
	create_child: top_step (1, 4) FAR 46688 UNDEF 0.01
expand: top_step (1, 0) FAR  w(0) 46688.
	create_child: MAIN (1, 4) FAR 46899 X 0.03
expand: MAIN (1, 0) FAR  w(0) 46899. F 0.02
expand: MAIN (2, 0) FAR  w(0) 6199.
	create_child: top_step (1, 4) FAR 46688 UNDEF 0.01
expand: top_step (1, 0) FAR  w(0) 46688.
	create_child: MAIN (1, 4) FAR 46899 X 0.03
expand: MAIN (1, 0) FAR  w(0) 46899. F 0.01
expand: MAIN (2, 0) FAR  w(0) 6199.
	create_child: top_step (1, 4) FAR 46688 UNDEF 0.01
expand: top_step (1, 0) FAR  w(0) 46688.
	create_child: MAIN (1, 4) FAR 46899 X 0.03
expand: MAIN (1, 0) FAR  w(0) 46899. F 0.01
expand: MAIN (2, 0) FAR  w(0) 6199.
	create_child: top_step (1, 4) FAR 46688 UNDEF 0.01
expand: top_step (1, 0) FAR  w(0) 46688.
	create_child: MAIN (1, 4) FAR 46899 X 0.03
expand: MAIN (1, 0) FAR  w(0) 46899. F 0.01
expand: MAIN (2, 0) FAR  w(0) 6199.
	create_child: top_step (1, 4) FAR 46688 UNDEF 0.01
expand: top_step (1, 0) FAR  w(0) 46688.
	create_child: MAIN (1, 4) FAR 46899 X 0.03
expand: MAIN (1, 0) FAR  w(0) 46899. F 0.02
expand: MAIN (2, 0) FAR  w(0) 6199.
	create_child: top_step (1, 4) FAR 46688 UNDEF 0.01
expand: top_step (1, 0) FAR  w(0) 46688.
	create_child: MAIN (1, 4) FAR 46899 X 0.03
expand: MAIN (1, 0) FAR  w(0) 46899. F 0.01
expand: MAIN (2, 0) FAR  w(0) 6199.
	create_child: top_step (1, 4) FAR 46688 UNDEF 0.01
expand: top_step (1, 0) FAR  w(0) 46688.
	create_child: MAIN (1, 4) FAR 46899 X 0.03
expand: MAIN (1, 0) FAR  w(0) 46899. F 0.01
expand: MAIN (2, 0) FAR  w(0) 6199.
	create_child: top_step (1, 4) FAR 46688 UNDEF 0.01
expand: top_step (1, 0) FAR  w(0) 46688.
	create_child: MAIN (1, 4) FAR 46899 X 0.03
expand: MAIN (1, 0) FAR  w(0) 46899. F 0.01
expand: MAIN (2, 0) FAR  w(0) 6199.
	create_child: top_step (1, 4) FAR 46688 UNDEF 0.01
expand: top_step (1, 0) FAR  w(0) 46688.
	create_child: MAIN (1, 4) FAR 46899 X 0.03
expand: MAIN (1, 0) FAR  w(0) 46899. F 0.01
expand: MAIN (2, 0) FAR  w(0) 6199.
	create_child: top_step (1, 4) FAR 46688 UNDEF 0.01
expand: top_step (1, 0) FAR  w(0) 46688.
	create_child: MAIN (1, 4) FAR 46899 X 0.03
expand: MAIN (1, 0) FAR  w(0) 46899. F 0.01
expand: MAIN (2, 0) FAR  w(0) 6199.
	create_child: top_step (1, 4) FAR 46688 UNDEF 0.01
expand: top_step (1, 0) FAR  w(0) 46688.
	create_child: MAIN (1, 4) FAR 46899 X 0.03
expand: MAIN (1, 0) FAR  w(0) 46899. F 0.02
expand: MAIN (2, 0) FAR  w(0) 6199.
	create_child: top_step (1, 4) FAR 46688 UNDEF 0.01
expand: top_step (1, 0) FAR  w(0) 46688.
	create_child: MAIN (1, 4) FAR 46899 X 0.03
expand: MAIN (1, 0) FAR  w(0) 46899. F 0.02
expand: MAIN (2, 0) FAR  w(0) 6199.
	create_child: top_step (1, 4) FAR 46688 UNDEF 0.01
expand: top_step (1, 0) FAR  w(0) 46688.
	create_child: MAIN (1, 4) FAR 46899 X 0.03
expand: MAIN (1, 0) FAR  w(0) 46899. F 0.01
expand: MAIN (2, 0) FAR  w(0) 6199.
	create_child: top_step (1, 4) FAR 46688 UNDEF 0.01
expand: top_step (1, 0) FAR  w(0) 46688.
	create_child: MAIN (1, 4) FAR 46899 X 0.03
expand: MAIN (1, 0) FAR  w(0) 46899. F 0.01
expand: MAIN (2, 0) FAR  w(0) 6199.
	create_child: top_step (1, 4) FAR 46688 UNDEF 0.01
expand: top_step (1, 0) FAR  w(0) 46688.
	create_child: MAIN (1, 4) FAR 46899 X 0.03
expand: MAIN (1, 0) FAR  w(0) 46899. F 0.01
expand: MAIN (2, 0) FAR  w(0) 6199.
	create_child: top_step (1, 4) FAR 46688 UNDEF 0.01
expand: top_step (1, 0) FAR  w(0) 46688.
	create_child: MAIN (1, 4) FAR 46899 X 0.03
expand: MAIN (1, 0) FAR  w(0) 46899. F 0.01
expand: MAIN (2, 0) FAR  w(0) 6199.
	create_child: top_step (1, 4) FAR 46688 UNDEF 0.01
expand: top_step (1, 0) FAR  w(0) 46688.
	create_child: MAIN (1, 4) FAR 46899 X 0.03
expand: MAIN (1, 0) FAR  w(0) 46899. F 0.01
expand: MAIN (2, 0) FAR  w(0) 6199.
	create_child: top_step (1, 4) FAR 46688 UNDEF 0.01
expand: top_step (1, 0) FAR  w(0) 46688.
	create_child: MAIN (1, 4) FAR 46899 X 0.03
expand: MAIN (1, 0) FAR  w(0) 46899. F 0.01
expand: MAIN (2, 0) FAR  w(0) 6199.
	create_child: top_step (1, 4) FAR 46688 UNDEF 0.01
expand: top_step (1, 0) FAR  w(0) 46688.
	create_child: MAIN (1, 4) FAR 46899 X 0.03
expand: MAIN (1, 0) FAR  w(0) 46899. F 0.01
expand: MAIN (2, 0) FAR  w(0) 6199.
	create_child: top_step (1, 4) FAR 46688 UNDEF 0.01
expand: top_step (1, 0) FAR  w(0) 46688.
	create_child: MAIN (1, 4) FAR 46899 X 0.03
expand: MAIN (1, 0) FAR  w(0) 46899. F 0.02
expand: MAIN (2, 0) FAR  w(0) 6199.
	create_child: top_step (1, 4) FAR 46688 UNDEF 0.01
expand: top_step (1, 0) FAR  w(0) 46688.
	create_child: MAIN (1, 4) FAR 46899 X 0.03
expand: MAIN (1, 0) FAR  w(0) 46899. F 0.01
expand: MAIN (2, 0) FAR  w(0) 6199.
	create_child: top_step (1, 4) FAR 46688 UNDEF 0.01
expand: top_step (1, 0) FAR  w(0) 46688.
	create_child: MAIN (1, 4) FAR 46899 X 0.03
expand: MAIN (1, 0) FAR  w(0) 46899. F 0.01
expand: MAIN (2, 0) FAR  w(0) 6199.
	create_child: top_step (1, 4) FAR 46688 UNDEF 0.01
expand: top_step (1, 0) FAR  w(0) 46688.
	create_child: MAIN (1, 4) FAR 46899 X 0.03
expand: MAIN (1, 0) FAR  w(0) 46899. F 0.01
expand: MAIN (2, 0) FAR  w(0) 6199.
	create_child: top_step (1, 4) FAR 46688 UNDEF 0.01
expand: top_step (1, 0) FAR  w(0) 46688.
	create_child: MAIN (1, 4) FAR 46899 X 0.03
expand: MAIN (1, 0) FAR  w(0) 46899. F 0.01
expand: MAIN (2, 0) FAR  w(0) 6199.
	create_child: top_step (1, 4) FAR 46688 UNDEF 0.01
expand: top_step (1, 0) FAR  w(0) 46688.
	create_child: MAIN (1, 4) FAR 46899 X 0.03
expand: MAIN (1, 0) FAR  w(0) 46899. F 0.01
expand: MAIN (2, 0) FAR  w(0) 6199.
	create_child: top_step (1, 4) FAR 46688 UNDEF 0.01
expand: top_step (1, 0) FAR  w(0) 46688.
	create_child: MAIN (1, 4) FAR 46899 X 0.03
expand: MAIN (1, 0) FAR  w(0) 46899. F 0.01
expand: MAIN (2, 0) FAR  w(0) 6199.
	create_child: top_step (1, 4) FAR 46688 UNDEF 0.01
expand: top_step (1, 0) FAR  w(0) 46688.
	create_child: MAIN (1, 4) FAR 46899 X 0.03
expand: MAIN (1, 0) FAR  w(0) 46899. F 0.01
expand: MAIN (2, 0) FAR  w(0) 6199.
	create_child: top_step (1, 4) FAR 46688 UNDEF 0.01
expand: top_step (1, 0) FAR  w(0) 46688.
	create_child: MAIN (1, 4) FAR 46899 X 0.03
expand: MAIN (1, 0) FAR  w(0) 46899. F 0.01
expand: MAIN (2, 0) FAR  w(0) 6199.
	create_child: top_step (1, 4) FAR 46688 UNDEF 0.01
expand: top_step (1, 0) FAR  w(0) 46688.
	create_child: MAIN (1, 4) FAR 46899 X 0.03
expand: MAIN (1, 0) FAR  w(0) 46899. F 0.01
expand: MAIN (2, 0) FAR  w(0) 6199.
	create_child: top_step (1, 4) FAR 46688 UNDEF 0.01
expand: top_step (1, 0) FAR  w(0) 46688.
	create_child: MAIN (1, 4) FAR 46899 X 0.03
expand: MAIN (1, 0) FAR  w(0) 46899. F 0.02
expand: MAIN (2, 0) FAR  w(0) 6199.
	create_child: top_step (1, 4) FAR 46688 UNDEF 0.01
expand: top_step (1, 0) FAR  w(0) 46688.
	create_child: MAIN (1, 4) FAR 46899 X 0.03
expand: MAIN (1, 0) FAR  w(0) 46899. F 0.01
expand: MAIN (2, 0) FAR  w(0) 6199.
	create_child: top_step (1, 4) FAR 46688 UNDEF 0.01
expand: top_step (1, 0) FAR  w(0) 46688.
	create_child: MAIN (1, 4) FAR 46899 X 0.03
expand: MAIN (1, 0) FAR  w(0) 46899. F 0.02
expand: MAIN (2, 0) FAR  w(0) 6199.
	create_child: top_step (1, 4) FAR 46688 UNDEF 0.01
expand: top_step (1, 0) FAR  w(0) 46688.
	create_child: MAIN (1, 4) FAR 46899 X 0.03
expand: MAIN (1, 0) FAR  w(0) 46899. F 0.01
expand: MAIN (2, 0) FAR  w(0) 6199.
	create_child: top_step (1, 4) FAR 46688 UNDEF 0.01
expand: top_step (1, 0) FAR  w(0) 46688.
	create_child: MAIN (1, 4) FAR 46899 X 0.03
expand: MAIN (1, 0) FAR  w(0) 46899. F 0.02
expand: MAIN (2, 0) FAR  w(0) 6199.
	create_child: top_step (1, 4) FAR 46688 UNDEF 0.01
expand: top_step (1, 0) FAR  w(0) 46688.
	create_child: MAIN (1, 4) FAR 46899 X 0.03
expand: MAIN (1, 0) FAR  w(0) 46899. F 0.01
expand: MAIN (2, 0) FAR  w(0) 6199.
	create_child: top_step (1, 4) FAR 46688 UNDEF 0.01
expand: top_step (1, 0) FAR  w(0) 46688.
	create_child: MAIN (1, 4) FAR 46899 X 0.03
expand: MAIN (1, 0) FAR  w(0) 46899. F 0.01
expand: MAIN (2, 0) FAR  w(0) 6199.
	create_child: top_step (1, 4) FAR 46688 UNDEF 0.01
expand: top_step (1, 0) FAR  w(0) 46688.
	create_child: MAIN (1, 4) FAR 46899 X 0.03
expand: MAIN (1, 0) FAR  w(0) 46899. F 0.01
expand: MAIN (2, 0) FAR  w(0) 6199.
	create_child: top_step (1, 4) FAR 46688 UNDEF 0.01
expand: top_step (1, 0) FAR  w(0) 46688.
	create_child: MAIN (1, 4) FAR 46899 X 0.03
expand: MAIN (1, 0) FAR  w(0) 46899. F 0.02
expand: MAIN (2, 0) FAR  w(0) 6199.
	create_child: top_step (1, 4) FAR 46688 UNDEF 0.01
expand: top_step (1, 0) FAR  w(0) 46688.
	create_child: MAIN (1, 4) FAR 46899 X 0.03
expand: MAIN (1, 0) FAR  w(0) 46899. F 0.01
expand: MAIN (2, 0) FAR  w(0) 6199.
	create_child: top_step (1, 4) FAR 46688 UNDEF 0.01
expand: top_step (1, 0) FAR  w(0) 46688.
	create_child: MAIN (1, 4) FAR 46899 X 0.03
expand: MAIN (1, 0) FAR  w(0) 46899. F 0.01
expand: MAIN (2, 0) FAR  w(0) 6199.
	create_child: top_step (1, 4) FAR 46688 UNDEF 0.01
expand: top_step (1, 0) FAR  w(0) 46688.
	create_child: MAIN (1, 4) FAR 46899 X 0.03
expand: MAIN (1, 0) FAR  w(0) 46899. F 0.01
expand: MAIN (2, 0) FAR  w(0) 6199.
	create_child: top_step (1, 4) FAR 46688 UNDEF 0.01
expand: top_step (1, 0) FAR  w(0) 46688.
	create_child: MAIN (1, 4) FAR 46899 X 0.03
expand: MAIN (1, 0) FAR  w(0) 46899. F 0.02
expand: MAIN (2, 0) FAR  w(0) 6199.
	create_child: top_step (1, 4) FAR 46688 UNDEF 0.01
expand: top_step (1, 0) FAR  w(0) 46688.
	create_child: MAIN (1, 4) FAR 46899 X 0.03
expand: MAIN (1, 0) FAR  w(0) 46899. F 0.01
expand: MAIN (2, 0) FAR  w(0) 6199.
	create_child: top_step (1, 4) FAR 46688 UNDEF 0.01
expand: top_step (1, 0) FAR  w(0) 46688.
	create_child: MAIN (1, 4) FAR 46899 X 0.03
expand: MAIN (1, 0) FAR  w(0) 46899. F 0.01
expand: MAIN (2, 0) FAR  w(0) 6199.
	create_child: top_step (1, 4) FAR 46688 UNDEF 0.01
expand: top_step (1, 0) FAR  w(0) 46688.
	create_child: MAIN (1, 4) FAR 46899 X 0.03
expand: MAIN (1, 0) FAR  w(0) 46899. F 0.01
expand: MAIN (2, 0) FAR  w(0) 6199.
	create_child: top_step (1, 4) FAR 46688 UNDEF 0.01
expand: top_step (1, 0) FAR  w(0) 46688.
	create_child: MAIN (1, 4) FAR 46899 X 0.03
expand: MAIN (1, 0) FAR  w(0) 46899. F 0.01
expand: MAIN (2, 0) FAR  w(0) 6199.
	create_child: top_step (1, 4) FAR 46688 UNDEF 0.01
expand: top_step (1, 0) FAR  w(0) 46688.
	create_child: MAIN (1, 4) FAR 46899 X 0.03
expand: MAIN (1, 0) FAR  w(0) 46899. F 0.02
expand: MAIN (2, 0) FAR  w(0) 6199.
	create_child: top_step (1, 4) FAR 46688 UNDEF 0.01
expand: top_step (1, 0) FAR  w(0) 46688.
	create_child: MAIN (1, 4) FAR 46899 X 0.03
expand: MAIN (1, 0) FAR  w(0) 46899. F 0.01
expand: MAIN (2, 0) FAR  w(0) 6199.
	create_child: top_step (1, 4) FAR 46688 UNDEF 0.01
expand: top_step (1, 0) FAR  w(0) 46688.
	create_child: MAIN (1, 4) FAR 46899 X 0.03
expand: MAIN (1, 0) FAR  w(0) 46899. F 0.01
expand: MAIN (2, 0) FAR  w(0) 6199.
	create_child: top_step (1, 4) FAR 46688 UNDEF 0.01
expand: top_step (1, 0) FAR  w(0) 46688.
	create_child: MAIN (1, 4) FAR 46899 X 0.03
expand: MAIN (1, 0) FAR  w(0) 46899. F 0.01
expand: MAIN (2, 0) FAR  w(0) 6199.
	create_child: top_step (1, 4) FAR 46688 UNDEF 0.01
expand: top_step (1, 0) FAR  w(0) 46688.
	create_child: MAIN (1, 4) FAR 46899 X 0.03
expand: MAIN (1, 0) FAR  w(0) 46899. F 0.01
expand: MAIN (2, 0) FAR  w(0) 6199.
	create_child: top_step (1, 4) FAR 46688 UNDEF 0.01
expand: top_step (1, 0) FAR  w(0) 46688.
	create_child: MAIN (1, 4) FAR 46899 X 0.03
expand: MAIN (1, 0) FAR  w(0) 46899. F 0.01
expand: MAIN (2, 0) FAR  w(0) 6199.
	create_child: top_step (1, 4) FAR 46688 UNDEF 0.01
expand: top_step (1, 0) FAR  w(0) 46688.
	create_child: MAIN (1, 4) FAR 46899 X 0.03
expand: MAIN (1, 0) FAR  w(0) 46899. F 0.02
expand: MAIN (2, 0) FAR  w(0) 6199.
	create_child: top_step (1, 4) FAR 46688 UNDEF 0.01
expand: top_step (1, 0) FAR  w(0) 46688.
	create_child: MAIN (1, 4) FAR 46899 X 0.03
expand: MAIN (1, 0) FAR  w(0) 46899. F 0.01
expand: MAIN (2, 0) FAR  w(0) 6199.
	create_child: top_step (1, 4) FAR 46688 UNDEF 0.01
expand: top_step (1, 0) FAR  w(0) 46688.
	create_child: MAIN (1, 4) FAR 46899 X 0.03
expand: MAIN (1, 0) FAR  w(0) 46899. F 0.02
expand: MAIN (2, 0) FAR  w(0) 6199.
	create_child: top_step (1, 4) FAR 46688 UNDEF 0.01
expand: top_step (1, 0) FAR  w(0) 46688.
	create_child: MAIN (1, 4) FAR 46899 X 0.03
expand: MAIN (1, 0) FAR  w(0) 46899. F 0.02
expand: MAIN (2, 0) FAR  w(0) 6199.
	create_child: top_step (1, 4) FAR 46688 UNDEF 0.01
expand: top_step (1, 0) FAR  w(0) 46688.
	create_child: MAIN (1, 4) FAR 46899 X 0.03
expand: MAIN (1, 0) FAR  w(0) 46899. F 0.02
expand: MAIN (2, 0) FAR  w(0) 6199.
	create_child: top_step (1, 4) FAR 46688 UNDEF 0.01
expand: top_step (1, 0) FAR  w(0) 46688.
	create_child: MAIN (1, 4) FAR 46899 X 0.03
expand: MAIN (1, 0) FAR  w(0) 46899. F 0.01
expand: MAIN (2, 0) FAR  w(0) 6199.
	create_child: top_step (1, 4) FAR 46688 UNDEF 0.01
expand: top_step (1, 0) FAR  w(0) 46688.
	create_child: MAIN (1, 4) FAR 46899 X 0.03
expand: MAIN (1, 0) FAR  w(0) 46899. F 0.01
expand: MAIN (2, 0) FAR  w(0) 6199.
	create_child: top_step (1, 4) FAR 46688 UNDEF 0.01
expand: top_step (1, 0) FAR  w(0) 46688.
	create_child: MAIN (1, 4) FAR 46899 X 0.03
expand: MAIN (1, 0) FAR  w(0) 46899. F 0.02
expand: MAIN (2, 0) FAR  w(0) 6199.
	create_child: top_step (1, 4) FAR 46688 UNDEF 0.01
expand: top_step (1, 0) FAR  w(0) 46688.
	create_child: MAIN (1, 4) FAR 46899 X 0.03
expand: MAIN (1, 0) FAR  w(0) 46899. F 0.02
expand: MAIN (2, 0) FAR  w(0) 6199.
	create_child: top_step (1, 4) FAR 46688 UNDEF 0.01
expand: top_step (1, 0) FAR  w(0) 46688.
	create_child: MAIN (1, 4) FAR 46899 X 0.03
expand: MAIN (1, 0) FAR  w(0) 46899. F 0.02
expand: MAIN (2, 0) FAR  w(0) 6199.
	create_child: top_step (1, 4) FAR 46688 UNDEF 0.01
expand: top_step (1, 0) FAR  w(0) 46688.
	create_child: MAIN (1, 4) FAR 46899 X 0.03
expand: MAIN (1, 0) FAR  w(0) 46899. F 0.02
expand: MAIN (2, 0) FAR  w(0) 6199.
	create_child: top_step (1, 4) FAR 46688 UNDEF 0.01
expand: top_step (1, 0) FAR  w(0) 46688.
	create_child: MAIN (1, 4) FAR 46899 X 0.03
expand: MAIN (1, 0) FAR  w(0) 46899. F 0.02
expand: MAIN (2, 0) FAR  w(0) 6199.
	create_child: top_step (1, 4) FAR 46688 UNDEF 0.01
expand: top_step (1, 0) FAR  w(0) 46688.
	create_child: MAIN (1, 4) FAR 46899 X 0.03
expand: MAIN (1, 0) FAR  w(0) 46899. F 0.01
expand: MAIN (2, 0) FAR  w(0) 6199.
	create_child: top_step (1, 4) FAR 46688 UNDEF 0.01
expand: top_step (1, 0) FAR  w(0) 46688.
	create_child: MAIN (1, 4) FAR 46899 X 0.03
expand: MAIN (1, 0) FAR  w(0) 46899. F 0.02
expand: MAIN (2, 0) FAR  w(0) 6199.
	create_child: top_step (1, 4) FAR 46688 UNDEF 0.01
expand: top_step (1, 0) FAR  w(0) 46688.
	create_child: MAIN (1, 4) FAR 46899 X 0.03
expand: MAIN (1, 0) FAR  w(0) 46899. F 0.02
expand: MAIN (2, 0) FAR  w(0) 6199.
	create_child: top_step (1, 4) FAR 46688 UNDEF 0.01
expand: top_step (1, 0) FAR  w(0) 46688.
	create_child: MAIN (1, 4) FAR 46899 X 0.03
expand: MAIN (1, 0) FAR  w(0) 46899. F 0.01
expand: MAIN (2, 0) FAR  w(0) 6199.
	create_child: top_step (1, 4) FAR 46688 UNDEF 0.01
expand: top_step (1, 0) FAR  w(0) 46688.
	create_child: MAIN (1, 4) FAR 46899 X 0.03
expand: MAIN (1, 0) FAR  w(0) 46899. F 0.02
expand: MAIN (2, 0) FAR  w(0) 6199.
	create_child: top_step (1, 4) FAR 46688 UNDEF 0.01
expand: top_step (1, 0) FAR  w(0) 46688.
	create_child: MAIN (1, 4) FAR 76604 X 0.05
expand: MAIN (1, 0) FAR  w(0) 76604.
	create_child: top_step (0, 4) FAR 46410 UNDEF 0.01
expand: top_step (0, 0) FAR  w(0) 46410. F 0.04
expand: MAIN (1, 0) FAR  w(0) 76604. F 0.01
expand: MAIN (2, 0) FAR  w(0) 6199.
	create_child: top_step (1, 4) FAR 43288 UNDEF 0.02
expand: top_step (1, 0) FAR  w(0) 43288.
	create_child: MAIN (1, 4) FAR 45877 X 0.03
expand: MAIN (1, 0) FAR  w(0) 45877.
	create_child: top_step (0, 4) FAR 74447 UNDEF 0.01
expand: top_step (0, 0) FAR  w(0) 74447. F 0.04
expand: MAIN (1, 0) FAR  w(0) 45877. F 0.02
expand: MAIN (2, 0) FAR  w(0) 6199.
	create_child: top_step (1, 4) FAR 61513 UNDEF 0.02
expand: top_step (1, 0) FAR  w(0) 61513.
	create_child: MAIN (1, 4) FAR 51983 X 0.03
expand: MAIN (1, 0) FAR  w(0) 51983.
	create_child: top_step (0, 4) FAR 76847 UNDEF 0.01
expand: top_step (0, 0) FAR  w(0) 76847. F 0.05
expand: MAIN (1, 0) FAR  w(0) 51983. F 0.02
expand: MAIN (2, 0) FAR  w(0) 6199.
	create_child: top_step (1, 4) FAR 45689 UNDEF 0.02
expand: top_step (1, 0) FAR  w(0) 45689. UNDEF 0.13
expand: top_step (1, 0) FAR  w(1) 45689.
	create_child: MAIN (1, 4) FAR 75708 X 3.11
expand: MAIN (1, 0) FAR  w(0) 75708.
	create_child: top_step (0, 4) FAR 54167 UNDEF 0.02
expand: top_step (0, 0) FAR  w(0) 54167. UNDEF 0.09
expand: top_step (0, 0) FAR  w(1) 54167.
	create_child: top_reset (0, 4) FAR 70134 X 2.02
expand: top_reset (0, 0) FAR  w(0) 70134. UNDEF 0.00
expand: top_reset (0, 0) FAR  w(1) 70134. T 0.00
is-reachable: MAIN (1, 0) FAR 75708 T 0.08
is-reachable: MAIN (2, 0) FAR 6199 T 0.50
is-reachable: ERR (3, 0) FAR 1 T 0.01
is-reachable: query!0 (4, 0) FAR 1 T 0.00
(spacer::context::check_reachability :time 90.06 :before-memory 17.54 :after-memory 58.07)
BRUNCH_STAT max_query_lvl 4
BRUNCH_STAT num_queries 185
BRUNCH_STAT num_reach_queries 4
BRUNCH_STAT num_reach_reuse 2
BRUNCH_STAT inductive_lvl 0
BRUNCH_STAT max_depth 4
BRUNCH_STAT cex_depth 4
(:SPACER-cex-depth                     4
 :SPACER-expand-node-undef             193
 :SPACER-max-depth                     4
 :SPACER-max-query-lvl                 4
 :SPACER-num-invariants                22
 :SPACER-num-lemmas                    52
 :SPACER-num-properties                47
 :SPACER-num-queries                   185
 :SPACER-num-reach-queries             4
 :SPACER-num-reuse-reach-facts         2
 :added-eqs                            575616
 :arith-add-rows                       3626913
 :arith-assert-diseq                   152891
 :arith-assert-lower                   289510
 :arith-assert-upper                   264358
 :arith-bound-prop                     35613
 :arith-conflicts                      1756
 :arith-eq-adapter                     86313
 :arith-fixed-eqs                      99832
 :arith-gcd-tests                      1119931
 :arith-gomory-cuts                    2142
 :arith-ineq-splits                    2669
 :arith-offset-eqs                     96526
 :arith-pivots                         60395
 :bool-inductive-gen                   176
 :bool-inductive-gen-failures          342
 :conflicts                            3177
 :decisions                            683518
 :del-clause                           138084
 :final-checks                         12734
 :interface-eqs                        6461
 :minimized-lits                       24694
 :mk-bool-var                          205701
 :mk-clause                            161025
 :num-checks                           1330
 :propagations                         2239476
 :restarts                             12
 :time.itp_solver.itp_core             0.05
 :time.spacer.init_rules               0.01
 :time.spacer.init_rules.pt.init       0.00
 :time.spacer.solve                    90.14
 :time.spacer.solve.propagate          0.01
 :time.spacer.solve.pt.must_reachable  1.01
 :time.spacer.solve.reach              90.13
 :time.spacer.solve.reach.children     0.22
 :time.spacer.solve.reach.gen.bool_ind 2.77
 :time.spacer.solve.reach.is-reach     0.94
 :time.virtual_solver.proof            0.02
 :time.virtual_solver.smt.total        89.26
 :time.virtual_solver.smt.total.sat    84.09
 :time.virtual_solver.smt.total.undef  4.62
 :virtual_solver.checks                1330
 :virtual_solver.checks.sat            361
 :virtual_solver.checks.undef          508)
BRUNCH_STAT max_query_lvl 4
BRUNCH_STAT num_queries 185
BRUNCH_STAT num_reach_queries 4
BRUNCH_STAT num_reach_reuse 2
BRUNCH_STAT inductive_lvl 0
BRUNCH_STAT max_depth 4
BRUNCH_STAT cex_depth 4

real	1m30.364s
user	1m30.200s
sys	0m0.084s
