(transform N7datalog13mk_coi_filterE...no-op 0s)
(transform N7datalog25mk_interp_tail_simplifierE...12 rules 0s)
(transform N7datalog27mk_quantifier_instantiationE...no-op 0s)
(transform N7datalog8mk_scaleE...no-op 0s)
(transform N7datalog18mk_karr_invariantsE...no-op 0s)
(transform N7datalog14mk_array_blastE...no-op 0s)
(transform N7datalog22mk_subsumption_checkerE...11 rules 0s)
(transform N7datalog12mk_bit_blastE...no-op 0s)
(transform N7datalog15mk_rule_inlinerE...no-op 0s)
(transform N7datalog13mk_coi_filterE...no-op 0s)
(transform N7datalog25mk_interp_tail_simplifierE...11 rules 0s)
(transform N7datalog22mk_subsumption_checkerE...no-op 0s)
(transform N7datalog15mk_rule_inlinerE...no-op 0s)
(transform N7datalog13mk_coi_filterE...no-op 0s)
(transform N7datalog25mk_interp_tail_simplifierE...11 rules 0s)
(transform N7datalog22mk_subsumption_checkerE...no-op 0s)
(transform N7datalog15mk_rule_inlinerE...no-op 0s)
(transform N7datalog22mk_subsumption_checkerE...no-op 0s)
(transform N7datalog15mk_rule_inlinerE...no-op 0s)
(transform N7datalog22mk_subsumption_checkerE...no-op 0s)
(transform N7datalog15mk_rule_inlinerE...no-op 0s)
(transform N7datalog22mk_subsumption_checkerE...no-op 0s)
expand: query!0 (0, 0) FAR  w(0) 1. F 0.00
(spacer::context::check_reachability :time 0.00 :before-memory 11.35 :after-memory 11.83)
Entering level 1
BRUNCH_STAT max_query_lvl 0
BRUNCH_STAT num_queries 0
BRUNCH_STAT num_reach_queries 0
BRUNCH_STAT num_reach_reuse 0
BRUNCH_STAT inductive_lvl 0
BRUNCH_STAT max_depth 1
BRUNCH_STAT cex_depth 0
expand: query!0 (1, 0) FAR  w(0) 1.
	create_child: ERR (0, 1) FAR 1 U 0.00
expand: ERR (0, 0) FAR  w(0) 1. F 0.00
expand: query!0 (1, 0) FAR  w(0) 1. F 0.00
(spacer::context::check_reachability :time 0.00 :before-memory 11.83 :after-memory 12.27)
Propagating: 0 1  ! 2 
(spacer::context::propagate :time 0.00 :before-memory 12.27 :after-memory 12.27)
Entering level 2
BRUNCH_STAT max_query_lvl 1
BRUNCH_STAT num_queries 1
BRUNCH_STAT num_reach_queries 0
BRUNCH_STAT num_reach_reuse 0
BRUNCH_STAT inductive_lvl 0
BRUNCH_STAT max_depth 2
BRUNCH_STAT cex_depth 0
expand: query!0 (2, 0) FAR  w(0) 1.
	create_child: ERR (1, 2) FAR 1 U 0.00
expand: ERR (1, 0) FAR  w(0) 1.
	create_child: MAIN (0, 2) FAR 1811 U 0.00
expand: MAIN (0, 0) FAR  w(0) 1811. F 0.00
expand: ERR (1, 0) FAR  w(0) 1. F 0.00
expand: query!0 (2, 0) FAR  w(0) 1. F 0.00
(spacer::context::check_reachability :time 0.00 :before-memory 12.27 :after-memory 12.91)
Propagating: 0 1 2  ! 3 
(spacer::context::propagate :time 0.00 :before-memory 12.91 :after-memory 12.91)
Entering level 3
BRUNCH_STAT max_query_lvl 2
BRUNCH_STAT num_queries 3
BRUNCH_STAT num_reach_queries 0
BRUNCH_STAT num_reach_reuse 0
BRUNCH_STAT inductive_lvl 0
BRUNCH_STAT max_depth 3
BRUNCH_STAT cex_depth 0
expand: query!0 (3, 0) FAR  w(0) 1.
	create_child: ERR (2, 3) FAR 1 U 0.00
expand: ERR (2, 0) FAR  w(0) 1.
	create_child: MAIN (1, 3) FAR 1811 U 0.00
expand: MAIN (1, 0) FAR  w(0) 1811.
	create_child: top_step (0, 3) FAR 2378 U 0.00
expand: top_step (0, 0) FAR  w(0) 2378. F 0.00
expand: MAIN (1, 0) FAR  w(0) 1811. F 0.00
expand: ERR (2, 0) FAR  w(0) 1. F 0.00
expand: query!0 (3, 0) FAR  w(0) 1. F 0.00
(spacer::context::check_reachability :time 0.00 :before-memory 12.91 :after-memory 13.56)
Propagating: 0 1 2 3  ! 4 
(spacer::context::propagate :time 0.00 :before-memory 13.56 :after-memory 13.66)
Entering level 4
BRUNCH_STAT max_query_lvl 3
BRUNCH_STAT num_queries 6
BRUNCH_STAT num_reach_queries 0
BRUNCH_STAT num_reach_reuse 0
BRUNCH_STAT inductive_lvl 0
BRUNCH_STAT max_depth 4
BRUNCH_STAT cex_depth 0
expand: query!0 (4, 0) FAR  w(0) 1.
	create_child: ERR (3, 4) FAR 1 U 0.00
expand: ERR (3, 0) FAR  w(0) 1.
	create_child: MAIN (2, 4) FAR 1811 U 0.00
expand: MAIN (2, 0) FAR  w(0) 1811.
	create_child: top_step (1, 4) FAR 2378 U 0.00
expand: top_step (1, 0) FAR  w(0) 2378.
	create_child: top_reset (1, 4) FAR 6247 X 0.01
expand: top_reset (1, 0) FAR  w(0) 6247. F 0.00
expand: MAIN (2, 0) FAR  w(0) 1811.
	create_child: top_step (1, 4) FAR 8495 U 0.00
expand: top_step (1, 0) FAR  w(0) 8495. F 0.00
expand: MAIN (2, 0) FAR  w(0) 1811. F 0.00
expand: ERR (3, 0) FAR  w(0) 1. F 0.00
expand: query!0 (4, 0) FAR  w(0) 1. F 0.00
(spacer::context::check_reachability :time 0.02 :before-memory 13.66 :after-memory 15.83)
Propagating: 1 2 3 4  ! 5 
(spacer::context::propagate :time 0.00 :before-memory 15.83 :after-memory 15.83)
Entering level 5
BRUNCH_STAT max_query_lvl 4
BRUNCH_STAT num_queries 10
BRUNCH_STAT num_reach_queries 1
BRUNCH_STAT num_reach_reuse 3
BRUNCH_STAT inductive_lvl 0
BRUNCH_STAT max_depth 5
BRUNCH_STAT cex_depth 0
expand: query!0 (5, 0) FAR  w(0) 1.
	create_child: ERR (4, 5) FAR 1 U 0.00
expand: ERR (4, 0) FAR  w(0) 1.
	create_child: MAIN (3, 5) FAR 1811 U 0.00
expand: MAIN (3, 0) FAR  w(0) 1811.
	create_child: MAIN (2, 5) FAR 8927 U 0.00
expand: MAIN (2, 0) FAR  w(0) 8927.
	create_child: top_step (1, 5) FAR 8955 U 0.00
expand: top_step (1, 0) FAR  w(0) 8955.
	create_child: moesi_step (0, 5) FAR 9091 U 0.00
expand: moesi_step (0, 0) FAR  w(0) 9091. F 0.00
expand: top_step (1, 0) FAR  w(0) 8955. F 0.00
expand: MAIN (2, 0) FAR  w(0) 8927. F 0.00
expand: MAIN (3, 0) FAR  w(0) 1811.
	create_child: MAIN (2, 5) FAR 10730 U 0.00
expand: MAIN (2, 0) FAR  w(0) 10730.
	create_child: top_step (1, 5) FAR 10605 U 0.00
expand: top_step (1, 0) FAR  w(0) 10605.
	create_child: moesi_step (0, 5) FAR 10790 U 0.00
expand: moesi_step (0, 0) FAR  w(0) 10790. F 0.00
expand: top_step (1, 0) FAR  w(0) 10605. F 0.00
expand: MAIN (2, 0) FAR  w(0) 10730. F 0.00
expand: MAIN (3, 0) FAR  w(0) 1811.
	create_child: MAIN (2, 5) FAR 11330 U 0.00
expand: MAIN (2, 0) FAR  w(0) 11330.
	create_child: top_step (1, 5) FAR 11217 U 0.00
expand: top_step (1, 0) FAR  w(0) 11217.
	create_child: moesi_step (0, 5) FAR 10825 U 0.00
expand: moesi_step (0, 0) FAR  w(0) 10825. F 0.00
expand: top_step (1, 0) FAR  w(0) 11217. F 0.00
expand: MAIN (2, 0) FAR  w(0) 11330. F 0.00
expand: MAIN (3, 0) FAR  w(0) 1811.
	create_child: top_step (2, 5) FAR 12061 U 0.01
expand: top_step (2, 0) FAR  w(0) 12061.
	create_child: moesi_step (1, 5) FAR 15018 U 0.02
expand: moesi_step (1, 0) FAR  w(0) 15018. F 0.00
expand: top_step (2, 0) FAR  w(0) 12061.
	create_child: moesi_step (1, 5) FAR 15282 U 0.00
expand: moesi_step (1, 0) FAR  w(0) 15282. F 0.00
expand: top_step (2, 0) FAR  w(0) 12061.
	create_child: moesi_step (1, 5) FAR 15535 U 0.00
expand: moesi_step (1, 0) FAR  w(0) 15535. F 0.00
expand: top_step (2, 0) FAR  w(0) 12061.
	create_child: moesi_step (1, 5) FAR 16005 U 0.00
expand: moesi_step (1, 0) FAR  w(0) 16005. F 0.00
expand: top_step (2, 0) FAR  w(0) 12061.
	create_child: moesi_step (1, 5) FAR 16254 U 0.00
expand: moesi_step (1, 0) FAR  w(0) 16254. F 0.00
expand: top_step (2, 0) FAR  w(0) 12061.
	create_child: moesi_step (1, 5) FAR 16567 U 0.00
expand: moesi_step (1, 0) FAR  w(0) 16567. F 0.00
expand: top_step (2, 0) FAR  w(0) 12061.
	create_child: moesi_step (1, 5) FAR 16499 U 0.00
expand: moesi_step (1, 0) FAR  w(0) 16499.
	create_child: Sofar_step (1, 5) FAR 16733 X 0.01
expand: Sofar_step (1, 0) FAR  w(0) 16733. F 0.00
expand: top_step (2, 0) FAR  w(0) 12061.
	create_child: moesi_step (1, 5) FAR 16499 U 0.00
expand: moesi_step (1, 0) FAR  w(0) 16499.
	create_child: excludes4_fun (1, 5) FAR 17077 X 0.00
expand: excludes4_fun (1, 0) FAR  w(0) 17077. F 0.00
expand: top_step (2, 0) FAR  w(0) 12061.
	create_child: moesi_step (1, 5) FAR 17128 U 0.00
expand: moesi_step (1, 0) FAR  w(0) 17128.
	create_child: excludes4_fun (1, 5) FAR 17292 X 0.00
expand: excludes4_fun (1, 0) FAR  w(0) 17292. F 0.00
expand: top_step (2, 0) FAR  w(0) 12061. F 0.01
expand: MAIN (3, 0) FAR  w(0) 1811. F 0.00
expand: ERR (4, 0) FAR  w(0) 1. F 0.00
expand: query!0 (5, 0) FAR  w(0) 1. F 0.00
(spacer::context::check_reachability :time 0.11 :before-memory 15.83 :after-memory 20.08)
Propagating: 0 1 2 
(spacer::context::propagate :time 0.00 :before-memory 20.08 :after-memory 20.08)
(define-fun ERR () Bool
  false)
(define-fun MAIN ((x!0 Int)
 (x!1 Bool)
 (x!2 Bool)
 (x!3 Bool)
 (x!4 Int)
 (x!5 Int)
 (x!6 Int)
 (x!7 Int)
 (x!8 Int)
 (x!9 Bool)
 (x!10 Bool)) Bool
  (let ((a!1 (+ x!0
                (* (- 1) x!4)
                (* (- 1) x!5)
                (* (- 1) x!6)
                (* (- 1) x!7)
                (* (- 1) x!8))))
    (and (<= a!1 0) x!10 (not x!9) (>= a!1 0))))
(define-fun moesi_step ((x!0 Int)
 (x!1 Bool)
 (x!2 Bool)
 (x!3 Bool)
 (x!4 Bool)
 (x!5 Int)
 (x!6 Int)
 (x!7 Int)
 (x!8 Int)
 (x!9 Int)
 (x!10 Bool)
 (x!11 Int)
 (x!12 Int)
 (x!13 Int)
 (x!14 Int)
 (x!15 Int)
 (x!16 Bool)
 (x!17 Int)
 (x!18 Int)
 (x!19 Int)
 (x!20 Int)
 (x!21 Int)
 (x!22 Bool)) Bool
  (let ((a!1 (+ x!5
                x!6
                x!7
                x!8
                x!9
                (* (- 1) x!11)
                (* (- 1) x!12)
                (* (- 1) x!13)
                (* (- 1) x!14)
                (* (- 1) x!15)))
        (a!2 (or (>= (+ x!11
                        x!12
                        x!13
                        x!14
                        x!15
                        (* (- 1) x!5)
                        (* (- 1) x!6)
                        (* (- 1) x!7)
                        (* (- 1) x!8)
                        (* (- 1) x!9))
                     0)
                 x!2
                 x!16)))
    (and (or (>= a!1 0) x!4 x!3 x!16)
         (not x!22)
         (>= (+ x!5
                x!6
                x!7
                x!8
                x!9
                (* (- 1) x!17)
                (* (- 1) x!18)
                (* (- 1) x!19)
                (* (- 1) x!20)
                (* (- 1) x!21))
             0)
         (>= (+ x!17
                x!18
                x!19
                x!20
                x!21
                (* (- 1) x!5)
                (* (- 1) x!6)
                (* (- 1) x!7)
                (* (- 1) x!8)
                (* (- 1) x!9))
             0)
         (or (<= a!1 0) x!16 (not x!1))
         (or (>= a!1 0) x!16 (not x!1))
         a!2
         (or (<= a!1 0) x!4 x!3 x!16)
         (or (>= a!1 0) x!2 x!16))))
(define-fun excludes4_fun ((x!0 Bool)
 (x!1 Bool)
 (x!2 Bool)
 (x!3 Bool)
 (x!4 Bool)) Bool
  (and (or (not x!3) (not x!4) (not x!1)) (or (not x!2) (not x!4) (not x!1))))
(define-fun Sofar_reset ((x!0 Bool) (x!1 Bool) (x!2 Bool) (x!3 Bool)) Bool
  true)
(define-fun top_reset ((x!0 Int)
 (x!1 Bool)
 (x!2 Bool)
 (x!3 Bool)
 (x!4 Int)
 (x!5 Int)
 (x!6 Int)
 (x!7 Int)
 (x!8 Int)
 (x!9 Bool)
 (x!10 Int)
 (x!11 Bool)
 (x!12 Bool)
 (x!13 Bool)
 (x!14 Int)
 (x!15 Int)
 (x!16 Int)
 (x!17 Int)
 (x!18 Int)
 (x!19 Bool)) Bool
  x!11)
(define-fun Sofar_step ((x!0 Bool)
 (x!1 Bool)
 (x!2 Bool)
 (x!3 Bool)
 (x!4 Bool)
 (x!5 Bool)) Bool
  (or (not x!1) x!0))
(define-fun moesi_reset ((x!0 Int)
 (x!1 Int)
 (x!2 Int)
 (x!3 Int)
 (x!4 Int)
 (x!5 Bool)
 (x!6 Int)
 (x!7 Int)
 (x!8 Int)
 (x!9 Int)
 (x!10 Int)
 (x!11 Bool)) Bool
  true)
(define-fun top_step ((x!0 Int)
 (x!1 Bool)
 (x!2 Bool)
 (x!3 Bool)
 (x!4 Bool)
 (x!5 Bool)
 (x!6 Int)
 (x!7 Bool)
 (x!8 Bool)
 (x!9 Bool)
 (x!10 Int)
 (x!11 Int)
 (x!12 Int)
 (x!13 Int)
 (x!14 Int)
 (x!15 Bool)
 (x!16 Int)
 (x!17 Bool)
 (x!18 Bool)
 (x!19 Bool)
 (x!20 Int)
 (x!21 Int)
 (x!22 Int)
 (x!23 Int)
 (x!24 Int)
 (x!25 Bool)) Bool
  (let ((a!1 (not (= (+ x!6
                        (* (- 1) x!10)
                        (* (- 1) x!11)
                        (* (- 1) x!12)
                        (* (- 1) x!13)
                        (* (- 1) x!14))
                     0))))
    (and (or a!1 x!15 x!5)
         (not x!25)
         (>= (+ x!16
                (* (- 1) x!20)
                (* (- 1) x!21)
                (* (- 1) x!22)
                (* (- 1) x!23)
                (* (- 1) x!24))
             0)
         (or (not x!7) x!5)
         (>= (+ x!20 x!21 x!22 x!23 x!24 (* (- 1) x!16)) 0))))
BRUNCH_STAT max_query_lvl 5
BRUNCH_STAT num_queries 31
BRUNCH_STAT num_reach_queries 1
BRUNCH_STAT num_reach_reuse 23
BRUNCH_STAT inductive_lvl 2
BRUNCH_STAT max_depth 5
BRUNCH_STAT cex_depth 0
(:SPACER-inductive-level               2
 :SPACER-max-depth                     5
 :SPACER-max-query-lvl                 5
 :SPACER-num-invariants                24
 :SPACER-num-lemmas                    37
 :SPACER-num-properties                26
 :SPACER-num-queries                   31
 :SPACER-num-reach-queries             1
 :SPACER-num-reuse-reach-facts         23
 :added-eqs                            4215
 :arith-add-rows                       3451
 :arith-assert-diseq                   806
 :arith-assert-lower                   2686
 :arith-assert-upper                   2650
 :arith-bound-prop                     155
 :arith-conflicts                      119
 :arith-eq-adapter                     1188
 :arith-fixed-eqs                      1022
 :arith-offset-eqs                     608
 :arith-pivots                         672
 :bool-inductive-gen                   23
 :bool-inductive-gen-failures          48
 :conflicts                            445
 :decisions                            3315
 :del-clause                           1182
 :final-checks                         92
 :minimized-lits                       121
 :mk-bool-var                          4133
 :mk-clause                            4524
 :num-checks                           231
 :propagations                         35714
 :restarts                             1
 :time.itp_solver.itp_core             0.01
 :time.spacer.init_rules               0.01
 :time.spacer.init_rules.pt.init       0.00
 :time.spacer.solve                    0.13
 :time.spacer.solve.propagate          0.00
 :time.spacer.solve.pt.must_reachable  0.01
 :time.spacer.solve.reach              0.13
 :time.spacer.solve.reach.children     0.02
 :time.spacer.solve.reach.gen.bool_ind 0.02
 :time.virtual_solver.proof            0.00
 :time.virtual_solver.smt.total        0.09
 :time.virtual_solver.smt.total.sat    0.04
 :virtual_solver.checks                231
 :virtual_solver.checks.sat            92)
BRUNCH_STAT max_query_lvl 5
BRUNCH_STAT num_queries 31
BRUNCH_STAT num_reach_queries 1
BRUNCH_STAT num_reach_reuse 23
BRUNCH_STAT inductive_lvl 2
BRUNCH_STAT max_depth 5
BRUNCH_STAT cex_depth 0

real	0m0.183s
user	0m0.176s
sys	0m0.004s
