(transform N7datalog13mk_coi_filterE...no-op 0s)
(transform N7datalog25mk_interp_tail_simplifierE...12 rules 0s)
(transform N7datalog27mk_quantifier_instantiationE...no-op 0s)
(transform N7datalog8mk_scaleE...no-op 0s)
(transform N7datalog18mk_karr_invariantsE...no-op 0s)
(transform N7datalog14mk_array_blastE...no-op 0s)
(transform N7datalog22mk_subsumption_checkerE...11 rules 0s)
(transform N7datalog12mk_bit_blastE...no-op 0s)
(transform N7datalog15mk_rule_inlinerE...no-op 0s)
(transform N7datalog13mk_coi_filterE...no-op 0s)
(transform N7datalog25mk_interp_tail_simplifierE...11 rules 0s)
(transform N7datalog22mk_subsumption_checkerE...no-op 0s)
(transform N7datalog15mk_rule_inlinerE...no-op 0s)
(transform N7datalog13mk_coi_filterE...no-op 0s)
(transform N7datalog25mk_interp_tail_simplifierE...11 rules 0s)
(transform N7datalog22mk_subsumption_checkerE...no-op 0s)
(transform N7datalog15mk_rule_inlinerE...no-op 0s)
(transform N7datalog22mk_subsumption_checkerE...no-op 0s)
(transform N7datalog15mk_rule_inlinerE...no-op 0s)
(transform N7datalog22mk_subsumption_checkerE...no-op 0s)
(transform N7datalog15mk_rule_inlinerE...no-op 0s)
(transform N7datalog22mk_subsumption_checkerE...no-op 0s)
expand: query!0 (0, 0) FAR  w(0) 1. F 0.00
(spacer::context::check_reachability :time 0.00 :before-memory 11.36 :after-memory 11.82)
Entering level 1
BRUNCH_STAT max_query_lvl 0
BRUNCH_STAT num_queries 0
BRUNCH_STAT num_reach_queries 0
BRUNCH_STAT num_reach_reuse 0
BRUNCH_STAT inductive_lvl 0
BRUNCH_STAT max_depth 1
BRUNCH_STAT cex_depth 0
expand: query!0 (1, 0) FAR  w(0) 1.
	create_child: ERR (0, 1) FAR 1 U 0.00
expand: ERR (0, 0) FAR  w(0) 1. F 0.00
expand: query!0 (1, 0) FAR  w(0) 1. F 0.00
(spacer::context::check_reachability :time 0.00 :before-memory 11.82 :after-memory 12.26)
Propagating: 0 1  ! 2 
(spacer::context::propagate :time 0.00 :before-memory 12.26 :after-memory 12.26)
Entering level 2
BRUNCH_STAT max_query_lvl 1
BRUNCH_STAT num_queries 1
BRUNCH_STAT num_reach_queries 0
BRUNCH_STAT num_reach_reuse 0
BRUNCH_STAT inductive_lvl 0
BRUNCH_STAT max_depth 2
BRUNCH_STAT cex_depth 0
expand: query!0 (2, 0) FAR  w(0) 1.
	create_child: ERR (1, 2) FAR 1 U 0.00
expand: ERR (1, 0) FAR  w(0) 1.
	create_child: MAIN (0, 2) FAR 1720 U 0.00
expand: MAIN (0, 0) FAR  w(0) 1720. F 0.00
expand: ERR (1, 0) FAR  w(0) 1. F 0.00
expand: query!0 (2, 0) FAR  w(0) 1. F 0.00
(spacer::context::check_reachability :time 0.00 :before-memory 12.26 :after-memory 12.71)
Propagating: 0 1 2  ! 3 
(spacer::context::propagate :time 0.00 :before-memory 12.71 :after-memory 12.92)
Entering level 3
BRUNCH_STAT max_query_lvl 2
BRUNCH_STAT num_queries 3
BRUNCH_STAT num_reach_queries 0
BRUNCH_STAT num_reach_reuse 0
BRUNCH_STAT inductive_lvl 0
BRUNCH_STAT max_depth 3
BRUNCH_STAT cex_depth 0
expand: query!0 (3, 0) FAR  w(0) 1.
	create_child: ERR (2, 3) FAR 1 U 0.00
expand: ERR (2, 0) FAR  w(0) 1.
	create_child: MAIN (1, 3) FAR 1720 U 0.00
expand: MAIN (1, 0) FAR  w(0) 1720.
	create_child: top_step (0, 3) FAR 2230 U 0.00
expand: top_step (0, 0) FAR  w(0) 2230. F 0.00
expand: MAIN (1, 0) FAR  w(0) 1720. F 0.00
expand: ERR (2, 0) FAR  w(0) 1. F 0.00
expand: query!0 (3, 0) FAR  w(0) 1. F 0.00
(spacer::context::check_reachability :time 0.00 :before-memory 12.92 :after-memory 13.54)
Propagating: 0 1 2 3  ! 4 
(spacer::context::propagate :time 0.00 :before-memory 13.54 :after-memory 13.64)
Entering level 4
BRUNCH_STAT max_query_lvl 3
BRUNCH_STAT num_queries 6
BRUNCH_STAT num_reach_queries 0
BRUNCH_STAT num_reach_reuse 0
BRUNCH_STAT inductive_lvl 0
BRUNCH_STAT max_depth 4
BRUNCH_STAT cex_depth 0
expand: query!0 (4, 0) FAR  w(0) 1.
	create_child: ERR (3, 4) FAR 1 U 0.00
expand: ERR (3, 0) FAR  w(0) 1.
	create_child: MAIN (2, 4) FAR 1720 U 0.00
expand: MAIN (2, 0) FAR  w(0) 1720.
	create_child: top_step (1, 4) FAR 2230 U 0.00
expand: top_step (1, 0) FAR  w(0) 2230.
	create_child: top_reset (1, 4) FAR 5938 X 0.01
expand: top_reset (1, 0) FAR  w(0) 5938.
	create_child: Sofar_reset (0, 4) FAR 6335 U 0.00
expand: Sofar_reset (0, 0) FAR  w(0) 6335. F 0.00
expand: top_reset (1, 0) FAR  w(0) 5938. F 0.00
expand: MAIN (2, 0) FAR  w(0) 1720.
	create_child: top_reset (1, 4) FAR 8325 U 0.00
expand: top_reset (1, 0) FAR  w(0) 8325.
	create_child: moesi_reset (0, 4) FAR 8254 U 0.00
expand: moesi_reset (0, 0) FAR  w(0) 8254. F 0.00
expand: top_reset (1, 0) FAR  w(0) 8325. F 0.00
expand: MAIN (2, 0) FAR  w(0) 1720.
	create_child: top_step (1, 4) FAR 8391 U 0.00
expand: top_step (1, 0) FAR  w(0) 8391.
	create_child: moesi_step (0, 4) FAR 8505 U 0.00
expand: moesi_step (0, 0) FAR  w(0) 8505. F 0.00
expand: top_step (1, 0) FAR  w(0) 8391. F 0.00
expand: MAIN (2, 0) FAR  w(0) 1720. F 0.00
expand: ERR (3, 0) FAR  w(0) 1. F 0.00
expand: query!0 (4, 0) FAR  w(0) 1. F 0.00
(spacer::context::check_reachability :time 0.02 :before-memory 13.64 :after-memory 17.54)
Propagating: 0 1 2 3 4  ! 5 
(spacer::context::propagate :time 0.00 :before-memory 17.54 :after-memory 17.54)
Entering level 5
BRUNCH_STAT max_query_lvl 4
BRUNCH_STAT num_queries 14
BRUNCH_STAT num_reach_queries 1
BRUNCH_STAT num_reach_reuse 7
BRUNCH_STAT inductive_lvl 0
BRUNCH_STAT max_depth 5
BRUNCH_STAT cex_depth 0
expand: query!0 (5, 0) FAR  w(0) 1.
	create_child: ERR (4, 5) FAR 1 U 0.00
expand: ERR (4, 0) FAR  w(0) 1.
	create_child: MAIN (3, 5) FAR 1720 U 0.00
expand: MAIN (3, 0) FAR  w(0) 1720.
	create_child: MAIN (2, 5) FAR 10277 U 0.00
expand: MAIN (2, 0) FAR  w(0) 10277.
	create_child: top_step (1, 5) FAR 10208 U 0.00
expand: top_step (1, 0) FAR  w(0) 10208.
	create_child: moesi_step (0, 5) FAR 10179 U 0.00
expand: moesi_step (0, 0) FAR  w(0) 10179. F 0.00
expand: top_step (1, 0) FAR  w(0) 10208. F 0.00
expand: MAIN (2, 0) FAR  w(0) 10277. F 0.00
expand: MAIN (3, 0) FAR  w(0) 1720.
	create_child: top_step (2, 5) FAR 10453 U 0.00
expand: top_step (2, 0) FAR  w(0) 10453.
	create_child: moesi_step (1, 5) FAR 10804 U 0.00
expand: moesi_step (1, 0) FAR  w(0) 10804. F 0.00
expand: top_step (2, 0) FAR  w(0) 10453. F 0.00
expand: MAIN (3, 0) FAR  w(0) 1720. F 0.00
expand: ERR (4, 0) FAR  w(0) 1. F 0.00
expand: query!0 (5, 0) FAR  w(0) 1. F 0.00
(spacer::context::check_reachability :time 0.02 :before-memory 17.54 :after-memory 17.73)
Propagating: 0 1 2 3 4 5  ! 6 
(spacer::context::propagate :time 0.00 :before-memory 17.73 :after-memory 17.73)
Entering level 6
BRUNCH_STAT max_query_lvl 5
BRUNCH_STAT num_queries 21
BRUNCH_STAT num_reach_queries 1
BRUNCH_STAT num_reach_reuse 11
BRUNCH_STAT inductive_lvl 0
BRUNCH_STAT max_depth 6
BRUNCH_STAT cex_depth 0
expand: query!0 (6, 0) FAR  w(0) 1.
	create_child: ERR (5, 6) FAR 1 U 0.00
expand: ERR (5, 0) FAR  w(0) 1.
	create_child: MAIN (4, 6) FAR 1720 U 0.00
expand: MAIN (4, 0) FAR  w(0) 1720.
	create_child: top_step (3, 6) FAR 2230 U 0.00
expand: top_step (3, 0) FAR  w(0) 2230.
	create_child: MAIN (3, 6) FAR 11252 X 0.00
expand: MAIN (3, 0) FAR  w(0) 11252.
	create_child: top_step (2, 6) FAR 11209 U 0.00
expand: top_step (2, 0) FAR  w(0) 11209.
	create_child: moesi_step (1, 6) FAR 11318 U 0.00
expand: moesi_step (1, 0) FAR  w(0) 11318. F 0.00
expand: top_step (2, 0) FAR  w(0) 11209. F 0.00
expand: MAIN (3, 0) FAR  w(0) 11252. F 0.00
expand: MAIN (4, 0) FAR  w(0) 1720. F 0.00
expand: ERR (5, 0) FAR  w(0) 1. F 0.00
expand: query!0 (6, 0) FAR  w(0) 1. F 0.00
(spacer::context::check_reachability :time 0.01 :before-memory 17.73 :after-memory 17.83)
Propagating: 1 2 
(spacer::context::propagate :time 0.00 :before-memory 17.83 :after-memory 17.83)
(define-fun ERR () Bool
  false)
(define-fun moesi_step ((x!0 Int)
 (x!1 Bool)
 (x!2 Bool)
 (x!3 Bool)
 (x!4 Bool)
 (x!5 Int)
 (x!6 Int)
 (x!7 Int)
 (x!8 Int)
 (x!9 Int)
 (x!10 Bool)
 (x!11 Int)
 (x!12 Int)
 (x!13 Int)
 (x!14 Int)
 (x!15 Int)
 (x!16 Bool)
 (x!17 Int)
 (x!18 Int)
 (x!19 Int)
 (x!20 Int)
 (x!21 Int)
 (x!22 Bool)) Bool
  (and (or (not (<= x!15 1)) (not (>= x!21 2)))
       (or (not x!16) (not x!10))
       (or (not (>= x!21 2)) (not x!16))
       (or (not (<= x!15 1)) (not x!10))))
(define-fun MAIN ((x!0 Bool)
 (x!1 Bool)
 (x!2 Int)
 (x!3 Int)
 (x!4 Int)
 (x!5 Int)
 (x!6 Int)
 (x!7 Bool)
 (x!8 Bool)) Bool
  (and (not (>= x!6 2)) x!8))
(define-fun excludes4_fun ((x!0 Bool)
 (x!1 Bool)
 (x!2 Bool)
 (x!3 Bool)
 (x!4 Bool)) Bool
  true)
(define-fun Sofar_reset ((x!0 Bool) (x!1 Bool) (x!2 Bool) (x!3 Bool)) Bool
  x!3)
(define-fun top_reset ((x!0 Bool)
 (x!1 Bool)
 (x!2 Int)
 (x!3 Int)
 (x!4 Int)
 (x!5 Int)
 (x!6 Int)
 (x!7 Bool)
 (x!8 Bool)
 (x!9 Bool)
 (x!10 Int)
 (x!11 Int)
 (x!12 Int)
 (x!13 Int)
 (x!14 Int)
 (x!15 Bool)) Bool
  (and x!15 x!9))
(define-fun top_step ((x!0 Int)
 (x!1 Bool)
 (x!2 Bool)
 (x!3 Bool)
 (x!4 Bool)
 (x!5 Bool)
 (x!6 Bool)
 (x!7 Bool)
 (x!8 Int)
 (x!9 Int)
 (x!10 Int)
 (x!11 Int)
 (x!12 Int)
 (x!13 Bool)
 (x!14 Bool)
 (x!15 Bool)
 (x!16 Int)
 (x!17 Int)
 (x!18 Int)
 (x!19 Int)
 (x!20 Int)
 (x!21 Bool)) Bool
  (and (or (not (<= x!12 1)) (not (>= x!20 2)))
       (or (not (>= x!20 2)) (not x!13))
       (or (not x!13) x!5)
       (or (not (<= x!12 1)) x!5)))
(define-fun Sofar_step ((x!0 Bool)
 (x!1 Bool)
 (x!2 Bool)
 (x!3 Bool)
 (x!4 Bool)
 (x!5 Bool)) Bool
  true)
(define-fun moesi_reset ((x!0 Int)
 (x!1 Int)
 (x!2 Int)
 (x!3 Int)
 (x!4 Int)
 (x!5 Bool)
 (x!6 Int)
 (x!7 Int)
 (x!8 Int)
 (x!9 Int)
 (x!10 Int)
 (x!11 Bool)) Bool
  x!11)
BRUNCH_STAT max_query_lvl 6
BRUNCH_STAT num_queries 26
BRUNCH_STAT num_reach_queries 1
BRUNCH_STAT num_reach_reuse 13
BRUNCH_STAT inductive_lvl 2
BRUNCH_STAT max_depth 6
BRUNCH_STAT cex_depth 0
(:SPACER-inductive-level               2
 :SPACER-max-depth                     6
 :SPACER-max-query-lvl                 6
 :SPACER-num-invariants                16
 :SPACER-num-lemmas                    33
 :SPACER-num-properties                18
 :SPACER-num-queries                   26
 :SPACER-num-reach-queries             1
 :SPACER-num-reuse-reach-facts         13
 :added-eqs                            1754
 :arith-add-rows                       828
 :arith-assert-diseq                   158
 :arith-assert-lower                   759
 :arith-assert-upper                   737
 :arith-bound-prop                     80
 :arith-conflicts                      13
 :arith-eq-adapter                     471
 :arith-fixed-eqs                      295
 :arith-offset-eqs                     192
 :arith-pivots                         349
 :bool-inductive-gen                   17
 :bool-inductive-gen-failures          25
 :conflicts                            221
 :decisions                            1946
 :del-clause                           499
 :final-checks                         67
 :minimized-lits                       27
 :mk-bool-var                          2788
 :mk-clause                            2888
 :num-checks                           182
 :propagations                         17267
 :time.itp_solver.itp_core             0.01
 :time.spacer.init_rules               0.01
 :time.spacer.init_rules.pt.init       0.00
 :time.spacer.solve                    0.06
 :time.spacer.solve.propagate          0.00
 :time.spacer.solve.pt.must_reachable  0.00
 :time.spacer.solve.reach              0.06
 :time.spacer.solve.reach.children     0.01
 :time.spacer.solve.reach.gen.bool_ind 0.01
 :time.virtual_solver.proof            0.00
 :time.virtual_solver.smt.total        0.04
 :time.virtual_solver.smt.total.sat    0.02
 :virtual_solver.checks                182
 :virtual_solver.checks.sat            67)
BRUNCH_STAT max_query_lvl 6
BRUNCH_STAT num_queries 26
BRUNCH_STAT num_reach_queries 1
BRUNCH_STAT num_reach_reuse 13
BRUNCH_STAT inductive_lvl 2
BRUNCH_STAT max_depth 6
BRUNCH_STAT cex_depth 0

real	0m0.103s
user	0m0.092s
sys	0m0.008s
