(transform N7datalog13mk_coi_filterE...no-op 0s)
(transform N7datalog25mk_interp_tail_simplifierE...12 rules 0s)
(transform N7datalog27mk_quantifier_instantiationE...no-op 0s)
(transform N7datalog8mk_scaleE...no-op 0s)
(transform N7datalog18mk_karr_invariantsE...no-op 0s)
(transform N7datalog14mk_array_blastE...no-op 0s)
(transform N7datalog22mk_subsumption_checkerE...11 rules 0s)
(transform N7datalog12mk_bit_blastE...no-op 0s)
(transform N7datalog15mk_rule_inlinerE...no-op 0s)
(transform N7datalog13mk_coi_filterE...no-op 0s)
(transform N7datalog25mk_interp_tail_simplifierE...11 rules 0s)
(transform N7datalog22mk_subsumption_checkerE...no-op 0s)
(transform N7datalog15mk_rule_inlinerE...no-op 0s)
(transform N7datalog13mk_coi_filterE...no-op 0s)
(transform N7datalog25mk_interp_tail_simplifierE...11 rules 0s)
(transform N7datalog22mk_subsumption_checkerE...no-op 0s)
(transform N7datalog15mk_rule_inlinerE...no-op 0s)
(transform N7datalog22mk_subsumption_checkerE...no-op 0s)
(transform N7datalog15mk_rule_inlinerE...no-op 0s)
(transform N7datalog22mk_subsumption_checkerE...no-op 0s)
(transform N7datalog15mk_rule_inlinerE...no-op 0s)
(transform N7datalog22mk_subsumption_checkerE...no-op 0s)
expand: query!0 (0, 0) FAR  w(0) 1. F 0.00
(spacer::context::check_reachability :time 0.00 :before-memory 11.35 :after-memory 11.83)
Entering level 1
BRUNCH_STAT max_query_lvl 0
BRUNCH_STAT num_queries 0
BRUNCH_STAT num_reach_queries 0
BRUNCH_STAT num_reach_reuse 0
BRUNCH_STAT inductive_lvl 0
BRUNCH_STAT max_depth 1
BRUNCH_STAT cex_depth 0
expand: query!0 (1, 0) FAR  w(0) 1.
	create_child: ERR (0, 1) FAR 1 U 0.00
expand: ERR (0, 0) FAR  w(0) 1. F 0.00
expand: query!0 (1, 0) FAR  w(0) 1. F 0.00
(spacer::context::check_reachability :time 0.00 :before-memory 11.83 :after-memory 12.27)
Propagating: 0 1  ! 2 
(spacer::context::propagate :time 0.00 :before-memory 12.27 :after-memory 12.27)
Entering level 2
BRUNCH_STAT max_query_lvl 1
BRUNCH_STAT num_queries 1
BRUNCH_STAT num_reach_queries 0
BRUNCH_STAT num_reach_reuse 0
BRUNCH_STAT inductive_lvl 0
BRUNCH_STAT max_depth 2
BRUNCH_STAT cex_depth 0
expand: query!0 (2, 0) FAR  w(0) 1.
	create_child: ERR (1, 2) FAR 1 U 0.00
expand: ERR (1, 0) FAR  w(0) 1.
	create_child: MAIN (0, 2) FAR 1795 U 0.00
expand: MAIN (0, 0) FAR  w(0) 1795. F 0.00
expand: ERR (1, 0) FAR  w(0) 1. F 0.00
expand: query!0 (2, 0) FAR  w(0) 1. F 0.00
(spacer::context::check_reachability :time 0.00 :before-memory 12.27 :after-memory 12.91)
Propagating: 0 1 2  ! 3 
(spacer::context::propagate :time 0.00 :before-memory 12.91 :after-memory 12.91)
Entering level 3
BRUNCH_STAT max_query_lvl 2
BRUNCH_STAT num_queries 3
BRUNCH_STAT num_reach_queries 0
BRUNCH_STAT num_reach_reuse 0
BRUNCH_STAT inductive_lvl 0
BRUNCH_STAT max_depth 3
BRUNCH_STAT cex_depth 0
expand: query!0 (3, 0) FAR  w(0) 1.
	create_child: ERR (2, 3) FAR 1 U 0.00
expand: ERR (2, 0) FAR  w(0) 1.
	create_child: MAIN (1, 3) FAR 1795 U 0.00
expand: MAIN (1, 0) FAR  w(0) 1795.
	create_child: top_step (0, 3) FAR 2372 U 0.00
expand: top_step (0, 0) FAR  w(0) 2372. F 0.00
expand: MAIN (1, 0) FAR  w(0) 1795. F 0.00
expand: ERR (2, 0) FAR  w(0) 1. F 0.00
expand: query!0 (3, 0) FAR  w(0) 1. F 0.00
(spacer::context::check_reachability :time 0.00 :before-memory 12.91 :after-memory 13.56)
Propagating: 0 1 2 3  ! 4 
(spacer::context::propagate :time 0.00 :before-memory 13.56 :after-memory 13.66)
Entering level 4
BRUNCH_STAT max_query_lvl 3
BRUNCH_STAT num_queries 6
BRUNCH_STAT num_reach_queries 0
BRUNCH_STAT num_reach_reuse 0
BRUNCH_STAT inductive_lvl 0
BRUNCH_STAT max_depth 4
BRUNCH_STAT cex_depth 0
expand: query!0 (4, 0) FAR  w(0) 1.
	create_child: ERR (3, 4) FAR 1 U 0.00
expand: ERR (3, 0) FAR  w(0) 1.
	create_child: MAIN (2, 4) FAR 1795 U 0.00
expand: MAIN (2, 0) FAR  w(0) 1795.
	create_child: top_step (1, 4) FAR 2372 U 0.00
expand: top_step (1, 0) FAR  w(0) 2372.
	create_child: top_reset (1, 4) FAR 6219 X 0.00
expand: top_reset (1, 0) FAR  w(0) 6219. F 0.00
expand: MAIN (2, 0) FAR  w(0) 1795.
	create_child: top_step (1, 4) FAR 8422 U 0.00
expand: top_step (1, 0) FAR  w(0) 8422. F 0.00
expand: MAIN (2, 0) FAR  w(0) 1795. F 0.00
expand: ERR (3, 0) FAR  w(0) 1. F 0.00
expand: query!0 (4, 0) FAR  w(0) 1. F 0.00
(spacer::context::check_reachability :time 0.01 :before-memory 13.66 :after-memory 15.82)
Propagating: 1 2 3 4  ! 5 
(spacer::context::propagate :time 0.00 :before-memory 15.82 :after-memory 15.82)
Entering level 5
BRUNCH_STAT max_query_lvl 4
BRUNCH_STAT num_queries 10
BRUNCH_STAT num_reach_queries 1
BRUNCH_STAT num_reach_reuse 3
BRUNCH_STAT inductive_lvl 0
BRUNCH_STAT max_depth 5
BRUNCH_STAT cex_depth 0
expand: query!0 (5, 0) FAR  w(0) 1.
	create_child: ERR (4, 5) FAR 1 U 0.00
expand: ERR (4, 0) FAR  w(0) 1.
	create_child: MAIN (3, 5) FAR 1795 U 0.00
expand: MAIN (3, 0) FAR  w(0) 1795.
	create_child: MAIN (2, 5) FAR 8899 U 0.00
expand: MAIN (2, 0) FAR  w(0) 8899.
	create_child: top_step (1, 5) FAR 8851 U 0.00
expand: top_step (1, 0) FAR  w(0) 8851.
	create_child: moesi_step (0, 5) FAR 8778 U 0.00
expand: moesi_step (0, 0) FAR  w(0) 8778. F 0.00
expand: top_step (1, 0) FAR  w(0) 8851. F 0.00
expand: MAIN (2, 0) FAR  w(0) 8899. F 0.00
expand: MAIN (3, 0) FAR  w(0) 1795.
	create_child: MAIN (2, 5) FAR 10274 U 0.00
expand: MAIN (2, 0) FAR  w(0) 10274.
	create_child: top_step (1, 5) FAR 10310 U 0.00
expand: top_step (1, 0) FAR  w(0) 10310.
	create_child: moesi_step (0, 5) FAR 8449 U 0.00
expand: moesi_step (0, 0) FAR  w(0) 8449. F 0.00
expand: top_step (1, 0) FAR  w(0) 10310. F 0.00
expand: MAIN (2, 0) FAR  w(0) 10274. F 0.00
expand: MAIN (3, 0) FAR  w(0) 1795.
	create_child: MAIN (2, 5) FAR 10896 U 0.00
expand: MAIN (2, 0) FAR  w(0) 10896.
	create_child: top_step (1, 5) FAR 10815 U 0.00
expand: top_step (1, 0) FAR  w(0) 10815.
	create_child: moesi_step (0, 5) FAR 10501 U 0.00
expand: moesi_step (0, 0) FAR  w(0) 10501. F 0.00
expand: top_step (1, 0) FAR  w(0) 10815. F 0.00
expand: MAIN (2, 0) FAR  w(0) 10896. F 0.00
expand: MAIN (3, 0) FAR  w(0) 1795.
	create_child: MAIN (2, 5) FAR 11213 U 0.00
expand: MAIN (2, 0) FAR  w(0) 11213.
	create_child: top_reset (1, 5) FAR 11407 U 0.00
expand: top_reset (1, 0) FAR  w(0) 11407.
	create_child: moesi_reset (0, 5) FAR 11420 U 0.00
expand: moesi_reset (0, 0) FAR  w(0) 11420. F 0.00
expand: top_reset (1, 0) FAR  w(0) 11407. F 0.00
expand: MAIN (2, 0) FAR  w(0) 11213.
	create_child: top_step (1, 5) FAR 11711 U 0.00
expand: top_step (1, 0) FAR  w(0) 11711.
	create_child: moesi_step (0, 5) FAR 10517 U 0.00
expand: moesi_step (0, 0) FAR  w(0) 10517. F 0.00
expand: top_step (1, 0) FAR  w(0) 11711. F 0.00
expand: MAIN (2, 0) FAR  w(0) 11213. F 0.00
expand: MAIN (3, 0) FAR  w(0) 1795.
	create_child: MAIN (2, 5) FAR 12698 U 0.00
expand: MAIN (2, 0) FAR  w(0) 12698.
	create_child: top_step (1, 5) FAR 12627 U 0.00
expand: top_step (1, 0) FAR  w(0) 12627.
	create_child: moesi_step (0, 5) FAR 12775 U 0.00
expand: moesi_step (0, 0) FAR  w(0) 12775. F 0.00
expand: top_step (1, 0) FAR  w(0) 12627. F 0.00
expand: MAIN (2, 0) FAR  w(0) 12698. F 0.00
expand: MAIN (3, 0) FAR  w(0) 1795.
	create_child: MAIN (2, 5) FAR 13243 U 0.00
expand: MAIN (2, 0) FAR  w(0) 13243.
	create_child: top_reset (1, 5) FAR 13286 U 0.00
expand: top_reset (1, 0) FAR  w(0) 13286.
	create_child: Sofar_reset (0, 5) FAR 13125 U 0.00
expand: Sofar_reset (0, 0) FAR  w(0) 13125. F 0.00
expand: top_reset (1, 0) FAR  w(0) 13286. F 0.00
expand: MAIN (2, 0) FAR  w(0) 13243.
	create_child: top_reset (1, 5) FAR 13416 U 0.00
expand: top_reset (1, 0) FAR  w(0) 13416. T 0.00
is-reachable: MAIN (2, 0) FAR 13243 T 0.00
is-reachable: MAIN (3, 0) FAR 1795 T 0.00
is-reachable: ERR (4, 0) FAR 1 T 0.00
is-reachable: query!0 (5, 0) FAR 1 T 0.00
(spacer::context::check_reachability :time 0.07 :before-memory 15.82 :after-memory 19.36)
BRUNCH_STAT max_query_lvl 5
BRUNCH_STAT num_queries 33
BRUNCH_STAT num_reach_queries 6
BRUNCH_STAT num_reach_reuse 25
BRUNCH_STAT inductive_lvl 0
BRUNCH_STAT max_depth 5
BRUNCH_STAT cex_depth 5
(:SPACER-cex-depth                     5
 :SPACER-max-depth                     5
 :SPACER-max-query-lvl                 5
 :SPACER-num-invariants                16
 :SPACER-num-lemmas                    34
 :SPACER-num-properties                26
 :SPACER-num-queries                   33
 :SPACER-num-reach-queries             6
 :SPACER-num-reuse-reach-facts         25
 :added-eqs                            2849
 :arith-add-rows                       2250
 :arith-assert-diseq                   286
 :arith-assert-lower                   1325
 :arith-assert-upper                   1394
 :arith-bound-prop                     145
 :arith-conflicts                      29
 :arith-eq-adapter                     670
 :arith-fixed-eqs                      603
 :arith-offset-eqs                     491
 :arith-pivots                         483
 :bool-inductive-gen                   22
 :bool-inductive-gen-failures          27
 :conflicts                            191
 :decisions                            1992
 :del-clause                           342
 :final-checks                         63
 :minimized-lits                       40
 :mk-bool-var                          3115
 :mk-clause                            3288
 :num-checks                           181
 :propagations                         16655
 :time.itp_solver.itp_core             0.01
 :time.spacer.init_rules               0.01
 :time.spacer.init_rules.pt.init       0.00
 :time.spacer.solve                    0.09
 :time.spacer.solve.propagate          0.00
 :time.spacer.solve.pt.must_reachable  0.00
 :time.spacer.solve.reach              0.09
 :time.spacer.solve.reach.children     0.02
 :time.spacer.solve.reach.gen.bool_ind 0.01
 :time.spacer.solve.reach.is-reach     0.01
 :time.virtual_solver.proof            0.00
 :time.virtual_solver.smt.total        0.06
 :time.virtual_solver.smt.total.sat    0.03
 :virtual_solver.checks                181
 :virtual_solver.checks.sat            63)
BRUNCH_STAT max_query_lvl 5
BRUNCH_STAT num_queries 33
BRUNCH_STAT num_reach_queries 6
BRUNCH_STAT num_reach_reuse 25
BRUNCH_STAT inductive_lvl 0
BRUNCH_STAT max_depth 5
BRUNCH_STAT cex_depth 5

real	0m0.135s
user	0m0.128s
sys	0m0.004s
