(transform N7datalog13mk_coi_filterE...no-op 0s)
(transform N7datalog25mk_interp_tail_simplifierE...12 rules 0s)
(transform N7datalog27mk_quantifier_instantiationE...no-op 0s)
(transform N7datalog8mk_scaleE...no-op 0s)
(transform N7datalog18mk_karr_invariantsE...no-op 0s)
(transform N7datalog14mk_array_blastE...no-op 0s)
(transform N7datalog22mk_subsumption_checkerE...11 rules 0s)
(transform N7datalog12mk_bit_blastE...no-op 0s)
(transform N7datalog15mk_rule_inlinerE...no-op 0s)
(transform N7datalog13mk_coi_filterE...no-op 0s)
(transform N7datalog25mk_interp_tail_simplifierE...11 rules 0s)
(transform N7datalog22mk_subsumption_checkerE...no-op 0s)
(transform N7datalog15mk_rule_inlinerE...no-op 0s)
(transform N7datalog13mk_coi_filterE...no-op 0s)
(transform N7datalog25mk_interp_tail_simplifierE...11 rules 0s)
(transform N7datalog22mk_subsumption_checkerE...no-op 0s)
(transform N7datalog15mk_rule_inlinerE...no-op 0s)
(transform N7datalog22mk_subsumption_checkerE...no-op 0s)
(transform N7datalog15mk_rule_inlinerE...no-op 0s)
(transform N7datalog22mk_subsumption_checkerE...no-op 0s)
(transform N7datalog15mk_rule_inlinerE...no-op 0s)
(transform N7datalog22mk_subsumption_checkerE...no-op 0s)
expand: query!0 (0, 0) FAR  w(0) 1. F 0.00
(spacer::context::check_reachability :time 0.00 :before-memory 11.71 :after-memory 12.16)
Entering level 1
BRUNCH_STAT max_query_lvl 0
BRUNCH_STAT num_queries 0
BRUNCH_STAT num_reach_queries 0
BRUNCH_STAT num_reach_reuse 0
BRUNCH_STAT inductive_lvl 0
BRUNCH_STAT max_depth 1
BRUNCH_STAT cex_depth 0
expand: query!0 (1, 0) FAR  w(0) 1.
	create_child: ERR (0, 1) FAR 1 U 0.00
expand: ERR (0, 0) FAR  w(0) 1. F 0.00
expand: query!0 (1, 0) FAR  w(0) 1. F 0.00
(spacer::context::check_reachability :time 0.00 :before-memory 12.16 :after-memory 12.60)
Propagating: 0 1  ! 2 
(spacer::context::propagate :time 0.00 :before-memory 12.60 :after-memory 12.60)
Entering level 2
BRUNCH_STAT max_query_lvl 1
BRUNCH_STAT num_queries 1
BRUNCH_STAT num_reach_queries 0
BRUNCH_STAT num_reach_reuse 0
BRUNCH_STAT inductive_lvl 0
BRUNCH_STAT max_depth 2
BRUNCH_STAT cex_depth 0
expand: query!0 (2, 0) FAR  w(0) 1.
	create_child: ERR (1, 2) FAR 1 U 0.00
expand: ERR (1, 0) FAR  w(0) 1.
	create_child: MAIN (0, 2) FAR 3421 U 0.00
expand: MAIN (0, 0) FAR  w(0) 3421. F 0.00
expand: ERR (1, 0) FAR  w(0) 1. F 0.00
expand: query!0 (2, 0) FAR  w(0) 1. F 0.00
(spacer::context::check_reachability :time 0.00 :before-memory 12.60 :after-memory 13.18)
Propagating: 0 1 2  ! 3 
(spacer::context::propagate :time 0.00 :before-memory 13.18 :after-memory 13.34)
Entering level 3
BRUNCH_STAT max_query_lvl 2
BRUNCH_STAT num_queries 3
BRUNCH_STAT num_reach_queries 0
BRUNCH_STAT num_reach_reuse 0
BRUNCH_STAT inductive_lvl 0
BRUNCH_STAT max_depth 3
BRUNCH_STAT cex_depth 0
expand: query!0 (3, 0) FAR  w(0) 1.
	create_child: ERR (2, 3) FAR 1 U 0.00
expand: ERR (2, 0) FAR  w(0) 1.
	create_child: MAIN (1, 3) FAR 3421 U 0.00
expand: MAIN (1, 0) FAR  w(0) 3421.
	create_child: top_step (0, 3) FAR 4550 U 0.00
expand: top_step (0, 0) FAR  w(0) 4550. F 0.01
expand: MAIN (1, 0) FAR  w(0) 3421. F 0.00
expand: ERR (2, 0) FAR  w(0) 1. F 0.00
expand: query!0 (3, 0) FAR  w(0) 1. F 0.00
(spacer::context::check_reachability :time 0.01 :before-memory 13.34 :after-memory 14.49)
Propagating: 0 1 2 3  ! 4 
(spacer::context::propagate :time 0.00 :before-memory 14.49 :after-memory 14.58)
Entering level 4
BRUNCH_STAT max_query_lvl 3
BRUNCH_STAT num_queries 6
BRUNCH_STAT num_reach_queries 0
BRUNCH_STAT num_reach_reuse 0
BRUNCH_STAT inductive_lvl 0
BRUNCH_STAT max_depth 4
BRUNCH_STAT cex_depth 0
expand: query!0 (4, 0) FAR  w(0) 1.
	create_child: ERR (3, 4) FAR 1 U 0.00
expand: ERR (3, 0) FAR  w(0) 1.
	create_child: MAIN (2, 4) FAR 3421 U 0.00
expand: MAIN (2, 0) FAR  w(0) 3421.
	create_child: top_step (1, 4) FAR 4550 U 0.00
expand: top_step (1, 0) FAR  w(0) 4550.
	create_child: top_reset (1, 4) FAR 13856 X 0.01
expand: top_reset (1, 0) FAR  w(0) 13856. F 0.00
expand: MAIN (2, 0) FAR  w(0) 3421.
	create_child: top_step (1, 4) FAR 19403 U 0.01
expand: top_step (1, 0) FAR  w(0) 19403. F 0.01
expand: MAIN (2, 0) FAR  w(0) 3421. F 0.00
expand: ERR (3, 0) FAR  w(0) 1. F 0.00
expand: query!0 (4, 0) FAR  w(0) 1. F 0.00
(spacer::context::check_reachability :time 0.03 :before-memory 14.58 :after-memory 18.67)
Propagating: 1 2 3 4  ! 5 
(spacer::context::propagate :time 0.00 :before-memory 18.67 :after-memory 18.67)
Entering level 5
BRUNCH_STAT max_query_lvl 4
BRUNCH_STAT num_queries 10
BRUNCH_STAT num_reach_queries 1
BRUNCH_STAT num_reach_reuse 3
BRUNCH_STAT inductive_lvl 0
BRUNCH_STAT max_depth 5
BRUNCH_STAT cex_depth 0
expand: query!0 (5, 0) FAR  w(0) 1.
	create_child: ERR (4, 5) FAR 1 U 0.00
expand: ERR (4, 0) FAR  w(0) 1.
	create_child: MAIN (3, 5) FAR 3421 U 0.00
expand: MAIN (3, 0) FAR  w(0) 3421.
	create_child: MAIN (2, 5) FAR 20218 U 0.00
expand: MAIN (2, 0) FAR  w(0) 20218.
	create_child: top_step (1, 5) FAR 19994 U 0.00
expand: top_step (1, 0) FAR  w(0) 19994.
	create_child: peterson_step (0, 5) FAR 19985 U 0.00
expand: peterson_step (0, 0) FAR  w(0) 19985. F 0.00
expand: top_step (1, 0) FAR  w(0) 19994. F 0.00
expand: MAIN (2, 0) FAR  w(0) 20218. F 0.00
expand: MAIN (3, 0) FAR  w(0) 3421.
	create_child: MAIN (2, 5) FAR 23555 U 0.00
expand: MAIN (2, 0) FAR  w(0) 23555.
	create_child: top_step (1, 5) FAR 23400 U 0.00
expand: top_step (1, 0) FAR  w(0) 23400.
	create_child: peterson_step (0, 5) FAR 23820 U 0.00
expand: peterson_step (0, 0) FAR  w(0) 23820. F 0.00
expand: top_step (1, 0) FAR  w(0) 23400. F 0.00
expand: MAIN (2, 0) FAR  w(0) 23555. F 0.00
expand: MAIN (3, 0) FAR  w(0) 3421.
	create_child: MAIN (2, 5) FAR 24533 U 0.00
expand: MAIN (2, 0) FAR  w(0) 24533.
	create_child: top_step (1, 5) FAR 24410 U 0.00
expand: top_step (1, 0) FAR  w(0) 24410.
	create_child: peterson_step (0, 5) FAR 24416 U 0.00
expand: peterson_step (0, 0) FAR  w(0) 24416. F 0.00
expand: top_step (1, 0) FAR  w(0) 24410. F 0.00
expand: MAIN (2, 0) FAR  w(0) 24533. F 0.00
expand: MAIN (3, 0) FAR  w(0) 3421.
	create_child: MAIN (2, 5) FAR 26160 U 0.01
expand: MAIN (2, 0) FAR  w(0) 26160.
	create_child: top_step (1, 5) FAR 25831 U 0.00
expand: top_step (1, 0) FAR  w(0) 25831.
	create_child: Sofar_step (0, 5) FAR 26381 U 0.01
expand: Sofar_step (0, 0) FAR  w(0) 26381. F 0.00
expand: top_step (1, 0) FAR  w(0) 25831. F 0.00
expand: MAIN (2, 0) FAR  w(0) 26160. F 0.00
expand: MAIN (3, 0) FAR  w(0) 3421.
	create_child: MAIN (2, 5) FAR 26653 U 0.00
expand: MAIN (2, 0) FAR  w(0) 26653.
	create_child: top_reset (1, 5) FAR 26720 U 0.00
expand: top_reset (1, 0) FAR  w(0) 26720.
	create_child: peterson_reset (0, 5) FAR 26587 U 0.00
expand: peterson_reset (0, 0) FAR  w(0) 26587. F 0.00
expand: top_reset (1, 0) FAR  w(0) 26720. F 0.00
expand: MAIN (2, 0) FAR  w(0) 26653.
	create_child: top_step (1, 5) FAR 26727 U 0.00
expand: top_step (1, 0) FAR  w(0) 26727.
	create_child: peterson_step (0, 5) FAR 26851 U 0.01
expand: peterson_step (0, 0) FAR  w(0) 26851. F 0.01
expand: top_step (1, 0) FAR  w(0) 26727. F 0.01
expand: MAIN (2, 0) FAR  w(0) 26653. F 0.00
expand: MAIN (3, 0) FAR  w(0) 3421.
	create_child: MAIN (2, 5) FAR 28438 U 0.01
expand: MAIN (2, 0) FAR  w(0) 28438.
	create_child: top_step (1, 5) FAR 28196 U 0.00
expand: top_step (1, 0) FAR  w(0) 28196.
	create_child: peterson_step (0, 5) FAR 28524 U 0.00
expand: peterson_step (0, 0) FAR  w(0) 28524. F 0.00
expand: top_step (1, 0) FAR  w(0) 28196. F 0.00
expand: MAIN (2, 0) FAR  w(0) 28438. F 0.00
expand: MAIN (3, 0) FAR  w(0) 3421.
	create_child: top_step (2, 5) FAR 29494 U 0.01
expand: top_step (2, 0) FAR  w(0) 29494.
	create_child: peterson_step (1, 5) FAR 38615 U 0.05
expand: peterson_step (1, 0) FAR  w(0) 38615. F 0.02
expand: top_step (2, 0) FAR  w(0) 29494.
	create_child: peterson_step (1, 5) FAR 40304 U 0.00
expand: peterson_step (1, 0) FAR  w(0) 40304. F 0.05
expand: top_step (2, 0) FAR  w(0) 29494.
	create_child: peterson_step (1, 5) FAR 46457 U 0.01
expand: peterson_step (1, 0) FAR  w(0) 46457. F 0.01
expand: top_step (2, 0) FAR  w(0) 29494.
	create_child: peterson_step (1, 5) FAR 47058 U 0.00
expand: peterson_step (1, 0) FAR  w(0) 47058. F 0.03
expand: top_step (2, 0) FAR  w(0) 29494.
	create_child: peterson_step (1, 5) FAR 49618 U 0.01
expand: peterson_step (1, 0) FAR  w(0) 49618. F 0.01
expand: top_step (2, 0) FAR  w(0) 29494.
	create_child: peterson_step (1, 5) FAR 49977 U 0.01
expand: peterson_step (1, 0) FAR  w(0) 49977. F 0.02
expand: top_step (2, 0) FAR  w(0) 29494.
	create_child: peterson_step (1, 5) FAR 50718 U 0.01
expand: peterson_step (1, 0) FAR  w(0) 50718. F 0.01
expand: top_step (2, 0) FAR  w(0) 29494.
	create_child: peterson_step (1, 5) FAR 50795 U 0.01
expand: peterson_step (1, 0) FAR  w(0) 50795. F 0.02
expand: top_step (2, 0) FAR  w(0) 29494.
	create_child: peterson_step (1, 5) FAR 52431 U 0.00
expand: peterson_step (1, 0) FAR  w(0) 52431.
	create_child: Sofar_step (1, 5) FAR 52130 X 0.01
expand: Sofar_step (1, 0) FAR  w(0) 52130. F 0.00
expand: top_step (2, 0) FAR  w(0) 29494.
	create_child: peterson_step (1, 5) FAR 52431 U 0.01
expand: peterson_step (1, 0) FAR  w(0) 52431.
	create_child: excludes12_fun (1, 5) FAR 52132 X 0.00
expand: excludes12_fun (1, 0) FAR  w(0) 52132. F 0.00
expand: top_step (2, 0) FAR  w(0) 29494.
	create_child: peterson_step (1, 5) FAR 52234 U 0.01
expand: peterson_step (1, 0) FAR  w(0) 52234.
	create_child: excludes12_fun (1, 5) FAR 53045 X 0.00
expand: excludes12_fun (1, 0) FAR  w(0) 53045. F 0.00
expand: top_step (2, 0) FAR  w(0) 29494.
	create_child: peterson_step (1, 5) FAR 52120 U 0.01
expand: peterson_step (1, 0) FAR  w(0) 52120.
	create_child: excludes12_fun (1, 5) FAR 53228 X 0.01
expand: excludes12_fun (1, 0) FAR  w(0) 53228. F 0.00
expand: top_step (2, 0) FAR  w(0) 29494.
	create_child: peterson_step (1, 5) FAR 52902 U 0.01
expand: peterson_step (1, 0) FAR  w(0) 52902. F 0.01
expand: top_step (2, 0) FAR  w(0) 29494.
	create_child: peterson_step (1, 5) FAR 53205 U 0.01
expand: peterson_step (1, 0) FAR  w(0) 53205.
	create_child: excludes12_fun (1, 5) FAR 53312 X 0.01
expand: excludes12_fun (1, 0) FAR  w(0) 53312. F 0.00
expand: top_step (2, 0) FAR  w(0) 29494.
	create_child: peterson_step (1, 5) FAR 53202 U 0.01
expand: peterson_step (1, 0) FAR  w(0) 53202.
	create_child: excludes12_fun (1, 5) FAR 53529 X 0.00
expand: excludes12_fun (1, 0) FAR  w(0) 53529. F 0.00
expand: top_step (2, 0) FAR  w(0) 29494.
	create_child: peterson_step (1, 5) FAR 52110 U 0.01
expand: peterson_step (1, 0) FAR  w(0) 52110. F 0.01
expand: top_step (2, 0) FAR  w(0) 29494.
	create_child: peterson_step (1, 5) FAR 53021 U 0.01
expand: peterson_step (1, 0) FAR  w(0) 53021.
	create_child: excludes12_fun (1, 5) FAR 53655 X 0.01
expand: excludes12_fun (1, 0) FAR  w(0) 53655. F 0.00
expand: top_step (2, 0) FAR  w(0) 29494.
	create_child: peterson_step (1, 5) FAR 53652 U 0.01
expand: peterson_step (1, 0) FAR  w(0) 53652.
	create_child: excludes12_fun (1, 5) FAR 53734 X 0.01
expand: excludes12_fun (1, 0) FAR  w(0) 53734. F 0.00
expand: top_step (2, 0) FAR  w(0) 29494.
	create_child: peterson_step (1, 5) FAR 53426 U 0.01
expand: peterson_step (1, 0) FAR  w(0) 53426.
	create_child: excludes12_fun (1, 5) FAR 53769 X 0.01
expand: excludes12_fun (1, 0) FAR  w(0) 53769. F 0.00
expand: top_step (2, 0) FAR  w(0) 29494.
	create_child: peterson_step (1, 5) FAR 53175 U 0.01
expand: peterson_step (1, 0) FAR  w(0) 53175.
	create_child: excludes12_fun (1, 5) FAR 53818 X 0.01
expand: excludes12_fun (1, 0) FAR  w(0) 53818. F 0.00
expand: top_step (2, 0) FAR  w(0) 29494.
	create_child: peterson_step (1, 5) FAR 53640 U 0.01
expand: peterson_step (1, 0) FAR  w(0) 53640.
	create_child: excludes12_fun (1, 5) FAR 53898 X 0.01
expand: excludes12_fun (1, 0) FAR  w(0) 53898. F 0.00
expand: top_step (2, 0) FAR  w(0) 29494.
	create_child: excludes12_fun (1, 5) FAR 54231 U 0.01
expand: excludes12_fun (1, 0) FAR  w(0) 54231. F 0.00
expand: top_step (2, 0) FAR  w(0) 29494.
	create_child: peterson_step (1, 5) FAR 55348 U 0.02
expand: peterson_step (1, 0) FAR  w(0) 55348. F 0.01
expand: top_step (2, 0) FAR  w(0) 29494.
	create_child: peterson_step (1, 5) FAR 55565 U 0.01
expand: peterson_step (1, 0) FAR  w(0) 55565. F 0.01
expand: top_step (2, 0) FAR  w(0) 29494.
	create_child: peterson_step (1, 5) FAR 54953 U 0.01
expand: peterson_step (1, 0) FAR  w(0) 54953. F 0.01
expand: top_step (2, 0) FAR  w(0) 29494. F 0.02
expand: MAIN (3, 0) FAR  w(0) 3421. F 0.00
expand: ERR (4, 0) FAR  w(0) 1. F 0.00
expand: query!0 (5, 0) FAR  w(0) 1. F 0.00
(spacer::context::check_reachability :time 0.67 :before-memory 18.67 :after-memory 31.49)
Propagating: 0 1 2 3 4 5  ! 6 
(spacer::context::propagate :time 0.01 :before-memory 31.49 :after-memory 31.49)
Entering level 6
BRUNCH_STAT max_query_lvl 5
BRUNCH_STAT num_queries 58
BRUNCH_STAT num_reach_queries 1
BRUNCH_STAT num_reach_reuse 40
BRUNCH_STAT inductive_lvl 0
BRUNCH_STAT max_depth 6
BRUNCH_STAT cex_depth 0
expand: query!0 (6, 0) FAR  w(0) 1.
	create_child: ERR (5, 6) FAR 1 U 0.00
expand: ERR (5, 0) FAR  w(0) 1.
	create_child: MAIN (4, 6) FAR 3421 U 0.00
expand: MAIN (4, 0) FAR  w(0) 3421.
	create_child: MAIN (3, 6) FAR 26653 U 0.00
expand: MAIN (3, 0) FAR  w(0) 26653.
	create_child: MAIN (2, 6) FAR 58127 U 0.00
expand: MAIN (2, 0) FAR  w(0) 58127.
	create_child: top_step (1, 6) FAR 57977 U 0.00
expand: top_step (1, 0) FAR  w(0) 57977.
	create_child: peterson_step (0, 6) FAR 58307 U 0.00
expand: peterson_step (0, 0) FAR  w(0) 58307. F 0.01
expand: top_step (1, 0) FAR  w(0) 57977. F 0.00
expand: MAIN (2, 0) FAR  w(0) 58127. F 0.00
expand: MAIN (3, 0) FAR  w(0) 26653.
	create_child: MAIN (2, 6) FAR 59016 U 0.00
expand: MAIN (2, 0) FAR  w(0) 59016.
	create_child: top_step (1, 6) FAR 58963 U 0.00
expand: top_step (1, 0) FAR  w(0) 58963.
	create_child: peterson_step (0, 6) FAR 58908 U 0.00
expand: peterson_step (0, 0) FAR  w(0) 58908. F 0.00
expand: top_step (1, 0) FAR  w(0) 58963. F 0.00
expand: MAIN (2, 0) FAR  w(0) 59016. F 0.00
expand: MAIN (3, 0) FAR  w(0) 26653.
	create_child: top_step (2, 6) FAR 59149 U 0.00
expand: top_step (2, 0) FAR  w(0) 59149.
	create_child: peterson_step (1, 6) FAR 59354 U 0.01
expand: peterson_step (1, 0) FAR  w(0) 59354. F 0.00
expand: top_step (2, 0) FAR  w(0) 59149. F 0.01
expand: MAIN (3, 0) FAR  w(0) 26653. F 0.00
expand: MAIN (4, 0) FAR  w(0) 3421.
	create_child: MAIN (3, 6) FAR 28438 U 0.00
expand: MAIN (3, 0) FAR  w(0) 28438.
	create_child: MAIN (2, 6) FAR 59830 U 0.00
expand: MAIN (2, 0) FAR  w(0) 59830.
	create_child: top_step (1, 6) FAR 59680 U 0.00
expand: top_step (1, 0) FAR  w(0) 59680.
	create_child: peterson_step (0, 6) FAR 59750 U 0.00
expand: peterson_step (0, 0) FAR  w(0) 59750. F 0.00
expand: top_step (1, 0) FAR  w(0) 59680. F 0.00
expand: MAIN (2, 0) FAR  w(0) 59830. F 0.00
expand: MAIN (3, 0) FAR  w(0) 28438.
	create_child: top_step (2, 6) FAR 59850 U 0.00
expand: top_step (2, 0) FAR  w(0) 59850.
	create_child: peterson_step (1, 6) FAR 60162 U 0.01
expand: peterson_step (1, 0) FAR  w(0) 60162. F 0.00
expand: top_step (2, 0) FAR  w(0) 59850.
	create_child: peterson_step (1, 6) FAR 60258 U 0.00
expand: peterson_step (1, 0) FAR  w(0) 60258. F 0.01
expand: top_step (2, 0) FAR  w(0) 59850.
	create_child: peterson_step (1, 6) FAR 60419 U 0.00
expand: peterson_step (1, 0) FAR  w(0) 60419. F 0.00
expand: top_step (2, 0) FAR  w(0) 59850. F 0.01
expand: MAIN (3, 0) FAR  w(0) 28438. F 0.00
expand: MAIN (4, 0) FAR  w(0) 3421.
	create_child: top_step (3, 6) FAR 60804 U 0.00
expand: top_step (3, 0) FAR  w(0) 60804.
	create_child: peterson_step (2, 6) FAR 61144 U 0.01
expand: peterson_step (2, 0) FAR  w(0) 61144. F 0.01
expand: top_step (3, 0) FAR  w(0) 60804.
	create_child: peterson_step (2, 6) FAR 61022 U 0.01
expand: peterson_step (2, 0) FAR  w(0) 61022. F 0.01
expand: top_step (3, 0) FAR  w(0) 60804.
	create_child: peterson_step (2, 6) FAR 61512 U 0.01
expand: peterson_step (2, 0) FAR  w(0) 61512. F 0.01
expand: top_step (3, 0) FAR  w(0) 60804.
	create_child: peterson_step (2, 6) FAR 61337 U 0.01
expand: peterson_step (2, 0) FAR  w(0) 61337. F 0.01
expand: top_step (3, 0) FAR  w(0) 60804.
	create_child: peterson_step (2, 6) FAR 61821 U 0.01
expand: peterson_step (2, 0) FAR  w(0) 61821. F 0.01
expand: top_step (3, 0) FAR  w(0) 60804. F 0.01
expand: MAIN (4, 0) FAR  w(0) 3421. F 0.00
expand: ERR (5, 0) FAR  w(0) 1. F 0.00
expand: query!0 (6, 0) FAR  w(0) 1. F 0.00
(spacer::context::check_reachability :time 0.23 :before-memory 31.49 :after-memory 33.09)
Propagating: 0 1 2 3 4 5 6  ! 7 
(spacer::context::propagate :time 0.01 :before-memory 33.09 :after-memory 33.09)
Entering level 7
BRUNCH_STAT max_query_lvl 6
BRUNCH_STAT num_queries 83
BRUNCH_STAT num_reach_queries 1
BRUNCH_STAT num_reach_reuse 63
BRUNCH_STAT inductive_lvl 0
BRUNCH_STAT max_depth 7
BRUNCH_STAT cex_depth 0
expand: query!0 (7, 0) FAR  w(0) 1.
	create_child: ERR (6, 7) FAR 1 U 0.00
expand: ERR (6, 0) FAR  w(0) 1.
	create_child: MAIN (5, 7) FAR 3421 U 0.00
expand: MAIN (5, 0) FAR  w(0) 3421.
	create_child: MAIN (4, 7) FAR 26653 U 0.00
expand: MAIN (4, 0) FAR  w(0) 26653.
	create_child: MAIN (3, 7) FAR 58127 U 0.00
expand: MAIN (3, 0) FAR  w(0) 58127.
	create_child: top_step (2, 7) FAR 62201 U 0.00
expand: top_step (2, 0) FAR  w(0) 62201.
	create_child: peterson_step (1, 7) FAR 62071 U 0.01
expand: peterson_step (1, 0) FAR  w(0) 62071. F 0.01
expand: top_step (2, 0) FAR  w(0) 62201.
	create_child: peterson_step (1, 7) FAR 62649 U 0.01
expand: peterson_step (1, 0) FAR  w(0) 62649. F 0.00
expand: top_step (2, 0) FAR  w(0) 62201.
	create_child: excludes12_fun (1, 7) FAR 62997 U 0.01
expand: excludes12_fun (1, 0) FAR  w(0) 62997. F 0.00
expand: top_step (2, 0) FAR  w(0) 62201.
	create_child: Sofar_step (1, 7) FAR 63119 U 0.01
expand: Sofar_step (1, 0) FAR  w(0) 63119. F 0.00
expand: top_step (2, 0) FAR  w(0) 62201. F 0.01
expand: MAIN (3, 0) FAR  w(0) 58127. F 0.00
expand: MAIN (4, 0) FAR  w(0) 26653.
	create_child: MAIN (3, 7) FAR 59016 U 0.00
expand: MAIN (3, 0) FAR  w(0) 59016.
	create_child: top_step (2, 7) FAR 63365 U 0.00
expand: top_step (2, 0) FAR  w(0) 63365.
	create_child: MAIN (2, 7) FAR 63090 X 0.01
expand: MAIN (2, 0) FAR  w(0) 63090.
	create_child: top_step (1, 7) FAR 62729 U 0.00
expand: top_step (1, 0) FAR  w(0) 62729.
	create_child: peterson_step (0, 7) FAR 62989 U 0.00
expand: peterson_step (0, 0) FAR  w(0) 62989. F 0.00
expand: top_step (1, 0) FAR  w(0) 62729. F 0.01
expand: MAIN (2, 0) FAR  w(0) 63090. F 0.00
expand: MAIN (3, 0) FAR  w(0) 59016.
	create_child: top_step (2, 7) FAR 63531 U 0.00
expand: top_step (2, 0) FAR  w(0) 63531.
	create_child: peterson_step (1, 7) FAR 63576 U 0.01
expand: peterson_step (1, 0) FAR  w(0) 63576. F 0.00
expand: top_step (2, 0) FAR  w(0) 63531. F 0.01
expand: MAIN (3, 0) FAR  w(0) 59016. F 0.00
expand: MAIN (4, 0) FAR  w(0) 26653.
	create_child: top_step (3, 7) FAR 63656 U 0.00
expand: top_step (3, 0) FAR  w(0) 63656.
	create_child: Sofar_step (2, 7) FAR 64131 U 0.01
expand: Sofar_step (2, 0) FAR  w(0) 64131. F 0.00
expand: top_step (3, 0) FAR  w(0) 63656. F 0.00
expand: MAIN (4, 0) FAR  w(0) 26653.
	create_child: top_step (3, 7) FAR 63983 U 0.00
expand: top_step (3, 0) FAR  w(0) 63983.
	create_child: peterson_step (2, 7) FAR 64192 U 0.01
expand: peterson_step (2, 0) FAR  w(0) 64192. F 0.00
expand: top_step (3, 0) FAR  w(0) 63983.
	create_child: peterson_step (2, 7) FAR 64161 U 0.00
expand: peterson_step (2, 0) FAR  w(0) 64161. F 0.00
expand: top_step (3, 0) FAR  w(0) 63983.
	create_child: peterson_step (2, 7) FAR 64122 U 0.00
expand: peterson_step (2, 0) FAR  w(0) 64122. F 0.01
expand: top_step (3, 0) FAR  w(0) 63983.
	create_child: peterson_step (2, 7) FAR 64711 U 0.01
expand: peterson_step (2, 0) FAR  w(0) 64711.
	create_child: excludes12_fun (2, 7) FAR 64800 X 0.01
expand: excludes12_fun (2, 0) FAR  w(0) 64800. F 0.00
expand: top_step (3, 0) FAR  w(0) 63983. F 0.01
expand: MAIN (4, 0) FAR  w(0) 26653. F 0.00
expand: MAIN (5, 0) FAR  w(0) 3421.
	create_child: MAIN (4, 7) FAR 65106 U 0.00
expand: MAIN (4, 0) FAR  w(0) 65106.
	create_child: MAIN (3, 7) FAR 65071 U 0.00
expand: MAIN (3, 0) FAR  w(0) 65071.
	create_child: MAIN (2, 7) FAR 65097 U 0.00
expand: MAIN (2, 0) FAR  w(0) 65097.
	create_child: top_reset (1, 7) FAR 65162 U 0.00
expand: top_reset (1, 0) FAR  w(0) 65162.
	create_child: Sofar_reset (0, 7) FAR 64930 U 0.00
expand: Sofar_reset (0, 0) FAR  w(0) 64930. F 0.00
expand: top_reset (1, 0) FAR  w(0) 65162. F 0.00
expand: MAIN (2, 0) FAR  w(0) 65097.
	create_child: top_reset (1, 7) FAR 65125 U 0.00
expand: top_reset (1, 0) FAR  w(0) 65125. T 0.00
is-reachable: MAIN (2, 0) FAR 65097 T 0.00
is-reachable: MAIN (3, 0) FAR 65071 T 0.00
is-reachable: MAIN (4, 0) FAR 65106 T 0.00
is-reachable: MAIN (5, 0) FAR 3421 T 0.01
is-reachable: ERR (6, 0) FAR 1 T 0.00
is-reachable: query!0 (7, 0) FAR 1 T 0.00
(spacer::context::check_reachability :time 0.24 :before-memory 33.09 :after-memory 38.17)
BRUNCH_STAT max_query_lvl 7
BRUNCH_STAT num_queries 111
BRUNCH_STAT num_reach_queries 8
BRUNCH_STAT num_reach_reuse 94
BRUNCH_STAT inductive_lvl 0
BRUNCH_STAT max_depth 7
BRUNCH_STAT cex_depth 7
(:SPACER-cex-depth                     7
 :SPACER-max-depth                     7
 :SPACER-max-query-lvl                 7
 :SPACER-num-invariants                82
 :SPACER-num-lemmas                    112
 :SPACER-num-properties                96
 :SPACER-num-queries                   111
 :SPACER-num-reach-queries             8
 :SPACER-num-reuse-reach-facts         94
 :added-eqs                            67726
 :arith-add-rows                       20716
 :arith-assert-diseq                   21984
 :arith-assert-lower                   50010
 :arith-assert-upper                   45783
 :arith-bound-prop                     1583
 :arith-conflicts                      393
 :arith-eq-adapter                     16625
 :arith-fixed-eqs                      14040
 :arith-offset-eqs                     4637
 :arith-pivots                         6719
 :bool-inductive-gen                   96
 :bool-inductive-gen-failures          322
 :conflicts                            2312
 :decisions                            39891
 :del-clause                           10026
 :final-checks                         476
 :minimized-lits                       4096
 :mk-bool-var                          29660
 :mk-clause                            21850
 :num-checks                           1038
 :propagations                         471299
 :restarts                             1
 :time.itp_solver.itp_core             0.07
 :time.spacer.init_rules               0.01
 :time.spacer.init_rules.pt.init       0.00
 :time.spacer.solve                    1.20
 :time.spacer.solve.propagate          0.02
 :time.spacer.solve.pt.must_reachable  0.05
 :time.spacer.solve.reach              1.18
 :time.spacer.solve.reach.children     0.16
 :time.spacer.solve.reach.gen.bool_ind 0.38
 :time.spacer.solve.reach.is-reach     0.02
 :time.virtual_solver.proof            0.04
 :time.virtual_solver.smt.total        0.88
 :time.virtual_solver.smt.total.sat    0.50
 :virtual_solver.checks                1038
 :virtual_solver.checks.sat            476)
BRUNCH_STAT max_query_lvl 7
BRUNCH_STAT num_queries 111
BRUNCH_STAT num_reach_queries 8
BRUNCH_STAT num_reach_reuse 94
BRUNCH_STAT inductive_lvl 0
BRUNCH_STAT max_depth 7
BRUNCH_STAT cex_depth 7

real	0m1.317s
user	0m1.284s
sys	0m0.032s
