(transform N7datalog13mk_coi_filterE...no-op 0s)
(transform N7datalog25mk_interp_tail_simplifierE...13 rules 0s)
(transform N7datalog27mk_quantifier_instantiationE...no-op 0s)
(transform N7datalog8mk_scaleE...no-op 0s)
(transform N7datalog18mk_karr_invariantsE...no-op 0s)
(transform N7datalog14mk_array_blastE...no-op 0s)
(transform N7datalog22mk_subsumption_checkerE...12 rules 0s)
(transform N7datalog12mk_bit_blastE...no-op 0s)
(transform N7datalog15mk_rule_inlinerE...no-op 0s)
(transform N7datalog13mk_coi_filterE...no-op 0s)
(transform N7datalog25mk_interp_tail_simplifierE...12 rules 0s)
(transform N7datalog22mk_subsumption_checkerE...no-op 0s)
(transform N7datalog15mk_rule_inlinerE...no-op 0s)
(transform N7datalog13mk_coi_filterE...no-op 0s)
(transform N7datalog25mk_interp_tail_simplifierE...12 rules 0s)
(transform N7datalog22mk_subsumption_checkerE...no-op 0s)
(transform N7datalog15mk_rule_inlinerE...no-op 0s)
(transform N7datalog22mk_subsumption_checkerE...no-op 0s)
(transform N7datalog15mk_rule_inlinerE...no-op 0s)
(transform N7datalog22mk_subsumption_checkerE...no-op 0s)
(transform N7datalog15mk_rule_inlinerE...no-op 0s)
(transform N7datalog22mk_subsumption_checkerE...no-op 0s)
expand: query!0 (0, 0) FAR  w(0) 1. F 0.00
(spacer::context::check_reachability :time 0.00 :before-memory 12.19 :after-memory 12.69)
Entering level 1
BRUNCH_STAT max_query_lvl 0
BRUNCH_STAT num_queries 0
BRUNCH_STAT num_reach_queries 0
BRUNCH_STAT num_reach_reuse 0
BRUNCH_STAT inductive_lvl 0
BRUNCH_STAT max_depth 1
BRUNCH_STAT cex_depth 0
expand: query!0 (1, 0) FAR  w(0) 1.
	create_child: ERR (0, 1) FAR 1 U 0.00
expand: ERR (0, 0) FAR  w(0) 1. F 0.00
expand: query!0 (1, 0) FAR  w(0) 1. F 0.00
(spacer::context::check_reachability :time 0.00 :before-memory 12.69 :after-memory 13.12)
Propagating: 0 1  ! 2 
(spacer::context::propagate :time 0.00 :before-memory 13.12 :after-memory 13.12)
Entering level 2
BRUNCH_STAT max_query_lvl 1
BRUNCH_STAT num_queries 1
BRUNCH_STAT num_reach_queries 0
BRUNCH_STAT num_reach_reuse 0
BRUNCH_STAT inductive_lvl 0
BRUNCH_STAT max_depth 2
BRUNCH_STAT cex_depth 0
expand: query!0 (2, 0) FAR  w(0) 1.
	create_child: ERR (1, 2) FAR 1 U 0.00
expand: ERR (1, 0) FAR  w(0) 1.
	create_child: MAIN (0, 2) FAR 1455 U 0.00
expand: MAIN (0, 0) FAR  w(0) 1455. F 0.00
expand: ERR (1, 0) FAR  w(0) 1. F 0.00
expand: query!0 (2, 0) FAR  w(0) 1. F 0.00
(spacer::context::check_reachability :time 0.00 :before-memory 13.12 :after-memory 13.75)
Propagating: 0 1 2  ! 3 
(spacer::context::propagate :time 0.00 :before-memory 13.75 :after-memory 13.75)
Entering level 3
BRUNCH_STAT max_query_lvl 2
BRUNCH_STAT num_queries 3
BRUNCH_STAT num_reach_queries 0
BRUNCH_STAT num_reach_reuse 0
BRUNCH_STAT inductive_lvl 0
BRUNCH_STAT max_depth 3
BRUNCH_STAT cex_depth 0
expand: query!0 (3, 0) FAR  w(0) 1.
	create_child: ERR (2, 3) FAR 1 U 0.00
expand: ERR (2, 0) FAR  w(0) 1.
	create_child: MAIN (1, 3) FAR 1455 U 0.00
expand: MAIN (1, 0) FAR  w(0) 1455.
	create_child: top_step (0, 3) FAR 2390 U 0.00
expand: top_step (0, 0) FAR  w(0) 2390. F 0.00
expand: MAIN (1, 0) FAR  w(0) 1455. F 0.00
expand: ERR (2, 0) FAR  w(0) 1. F 0.00
expand: query!0 (3, 0) FAR  w(0) 1. F 0.00
(spacer::context::check_reachability :time 0.01 :before-memory 13.75 :after-memory 14.40)
Propagating: 0 1 2 3  ! 4 
(spacer::context::propagate :time 0.00 :before-memory 14.40 :after-memory 14.40)
Entering level 4
BRUNCH_STAT max_query_lvl 3
BRUNCH_STAT num_queries 6
BRUNCH_STAT num_reach_queries 0
BRUNCH_STAT num_reach_reuse 0
BRUNCH_STAT inductive_lvl 0
BRUNCH_STAT max_depth 4
BRUNCH_STAT cex_depth 0
expand: query!0 (4, 0) FAR  w(0) 1.
	create_child: ERR (3, 4) FAR 1 U 0.00
expand: ERR (3, 0) FAR  w(0) 1.
	create_child: MAIN (2, 4) FAR 1455 U 0.00
expand: MAIN (2, 0) FAR  w(0) 1455.
	create_child: top_step (1, 4) FAR 2390 U 0.00
expand: top_step (1, 0) FAR  w(0) 2390.
	create_child: fedge_step (0, 4) FAR 678 U 0.00
expand: fedge_step (0, 0) FAR  w(0) 678. F 0.00
expand: top_step (1, 0) FAR  w(0) 2390. F 0.00
expand: MAIN (2, 0) FAR  w(0) 1455. F 0.00
expand: ERR (3, 0) FAR  w(0) 1. F 0.00
expand: query!0 (4, 0) FAR  w(0) 1. F 0.00
(spacer::context::check_reachability :time 0.00 :before-memory 14.40 :after-memory 14.94)
Propagating: 0 1 2 3 4  ! 5 
(spacer::context::propagate :time 0.00 :before-memory 14.94 :after-memory 14.94)
Entering level 5
BRUNCH_STAT max_query_lvl 4
BRUNCH_STAT num_queries 10
BRUNCH_STAT num_reach_queries 0
BRUNCH_STAT num_reach_reuse 0
BRUNCH_STAT inductive_lvl 0
BRUNCH_STAT max_depth 5
BRUNCH_STAT cex_depth 0
expand: query!0 (5, 0) FAR  w(0) 1.
	create_child: ERR (4, 5) FAR 1 U 0.00
expand: ERR (4, 0) FAR  w(0) 1.
	create_child: MAIN (3, 5) FAR 1455 U 0.00
expand: MAIN (3, 0) FAR  w(0) 1455.
	create_child: top_step (2, 5) FAR 2390 U 0.00
expand: top_step (2, 0) FAR  w(0) 2390.
	create_child: fedge_step (1, 5) FAR 678 U 0.00
expand: fedge_step (1, 0) FAR  w(0) 678.
	create_child: fedge_step (1, 5) FAR 5242 X 0.00
expand: fedge_step (1, 0) FAR  w(0) 5242.
	create_child: redge_step (0, 5) FAR 5295 U 0.00
expand: redge_step (0, 0) FAR  w(0) 5295. F 0.00
expand: fedge_step (1, 0) FAR  w(0) 5242. F 0.00
expand: top_step (2, 0) FAR  w(0) 2390.
	create_child: top_reset (2, 5) FAR 6700 X 0.00
expand: top_reset (2, 0) FAR  w(0) 6700. F 0.00
expand: MAIN (3, 0) FAR  w(0) 1455.
	create_child: top_step (2, 5) FAR 8228 U 0.00
expand: top_step (2, 0) FAR  w(0) 8228. F 0.00
expand: MAIN (3, 0) FAR  w(0) 1455. F 0.00
expand: ERR (4, 0) FAR  w(0) 1. F 0.00
expand: query!0 (5, 0) FAR  w(0) 1. F 0.00
(spacer::context::check_reachability :time 0.02 :before-memory 14.94 :after-memory 17.42)
Propagating: 0 1 2 3 4 5  ! 6 
(spacer::context::propagate :time 0.00 :before-memory 17.42 :after-memory 17.42)
Entering level 6
BRUNCH_STAT max_query_lvl 5
BRUNCH_STAT num_queries 16
BRUNCH_STAT num_reach_queries 2
BRUNCH_STAT num_reach_reuse 8
BRUNCH_STAT inductive_lvl 0
BRUNCH_STAT max_depth 6
BRUNCH_STAT cex_depth 0
expand: query!0 (6, 0) FAR  w(0) 1.
	create_child: ERR (5, 6) FAR 1 U 0.00
expand: ERR (5, 0) FAR  w(0) 1.
	create_child: MAIN (4, 6) FAR 1455 U 0.00
expand: MAIN (4, 0) FAR  w(0) 1455.
	create_child: MAIN (3, 6) FAR 8545 U 0.00
expand: MAIN (3, 0) FAR  w(0) 8545.
	create_child: top_step (2, 6) FAR 8571 U 0.00
expand: top_step (2, 0) FAR  w(0) 8571.
	create_child: redge_step (1, 6) FAR 8615 U 0.00
expand: redge_step (1, 0) FAR  w(0) 8615. F 0.00
expand: top_step (2, 0) FAR  w(0) 8571. F 0.00
expand: MAIN (3, 0) FAR  w(0) 8545. F 0.00
expand: MAIN (4, 0) FAR  w(0) 1455.
	create_child: MAIN (3, 6) FAR 8729 U 0.00
expand: MAIN (3, 0) FAR  w(0) 8729.
	create_child: top_step (2, 6) FAR 8752 U 0.00
expand: top_step (2, 0) FAR  w(0) 8752. F 0.00
expand: MAIN (3, 0) FAR  w(0) 8729. F 0.00
expand: MAIN (4, 0) FAR  w(0) 1455.
	create_child: MAIN (3, 6) FAR 8843 U 0.00
expand: MAIN (3, 0) FAR  w(0) 8843.
	create_child: top_step (2, 6) FAR 8868 U 0.00
expand: top_step (2, 0) FAR  w(0) 8868.
	create_child: fedge_step (1, 6) FAR 8945 U 0.00
expand: fedge_step (1, 0) FAR  w(0) 8945.
	create_child: redge_step (0, 6) FAR 5512 U 0.00
expand: redge_step (0, 0) FAR  w(0) 5512. F 0.00
expand: fedge_step (1, 0) FAR  w(0) 8945. F 0.00
expand: top_step (2, 0) FAR  w(0) 8868. F 0.00
expand: MAIN (3, 0) FAR  w(0) 8843. F 0.00
expand: MAIN (4, 0) FAR  w(0) 1455.
	create_child: MAIN (3, 6) FAR 9325 U 0.00
expand: MAIN (3, 0) FAR  w(0) 9325.
	create_child: top_step (2, 6) FAR 9280 U 0.00
expand: top_step (2, 0) FAR  w(0) 9280. F 0.00
expand: MAIN (3, 0) FAR  w(0) 9325. F 0.00
expand: MAIN (4, 0) FAR  w(0) 1455.
	create_child: MAIN (3, 6) FAR 9537 U 0.00
expand: MAIN (3, 0) FAR  w(0) 9537.
	create_child: top_step (2, 6) FAR 9493 U 0.00
expand: top_step (2, 0) FAR  w(0) 9493. F 0.00
expand: MAIN (3, 0) FAR  w(0) 9537. F 0.00
expand: MAIN (4, 0) FAR  w(0) 1455.
	create_child: MAIN (3, 6) FAR 9732 U 0.00
expand: MAIN (3, 0) FAR  w(0) 9732.
	create_child: top_reset (2, 6) FAR 9578 U 0.00
expand: top_reset (2, 0) FAR  w(0) 9578.
	create_child: redge_reset (1, 6) FAR 9719 U 0.00
expand: redge_reset (1, 0) FAR  w(0) 9719. F 0.00
expand: top_reset (2, 0) FAR  w(0) 9578. F 0.00
expand: MAIN (3, 0) FAR  w(0) 9732.
	create_child: top_step (2, 6) FAR 9939 U 0.00
expand: top_step (2, 0) FAR  w(0) 9939.
	create_child: top_reset (2, 6) FAR 10238 X 0.00
expand: top_reset (2, 0) FAR  w(0) 10238. F 0.00
expand: MAIN (3, 0) FAR  w(0) 9732.
	create_child: top_reset (2, 6) FAR 10335 U 0.00
expand: top_reset (2, 0) FAR  w(0) 10335. F 0.00
expand: MAIN (3, 0) FAR  w(0) 9732.
	create_child: top_reset (2, 6) FAR 10371 U 0.00
expand: top_reset (2, 0) FAR  w(0) 10371. F 0.00
expand: MAIN (3, 0) FAR  w(0) 9732.
	create_child: top_step (2, 6) FAR 10447 U 0.00
expand: top_step (2, 0) FAR  w(0) 10447.
	create_child: top_reset (2, 6) FAR 10418 X 0.00
expand: top_reset (2, 0) FAR  w(0) 10418.
	create_child: fedge_reset (1, 6) FAR 10687 U 0.00
expand: fedge_reset (1, 0) FAR  w(0) 10687. F 0.00
expand: top_reset (2, 0) FAR  w(0) 10418. F 0.00
expand: MAIN (3, 0) FAR  w(0) 9732.
	create_child: top_step (2, 6) FAR 11062 U 0.00
expand: top_step (2, 0) FAR  w(0) 11062.
	create_child: fedge_step (1, 6) FAR 11185 U 0.00
expand: fedge_step (1, 0) FAR  w(0) 11185.
	create_child: redge_step (0, 6) FAR 8942 U 0.00
expand: redge_step (0, 0) FAR  w(0) 8942. F 0.00
expand: fedge_step (1, 0) FAR  w(0) 11185. F 0.00
expand: top_step (2, 0) FAR  w(0) 11062.
	create_child: fedge_step (1, 6) FAR 11370 U 0.00
expand: fedge_step (1, 0) FAR  w(0) 11370.
	create_child: fedge_step (1, 6) FAR 11343 X 0.00
expand: fedge_step (1, 0) FAR  w(0) 11343.
	create_child: redge_step (1, 6) FAR 11415 X 0.00
expand: redge_step (1, 0) FAR  w(0) 11415.
	create_child: sustain_step (1, 6) FAR 11408 X 0.00
expand: sustain_step (1, 0) FAR  w(0) 11408. F 0.00
expand: top_step (2, 0) FAR  w(0) 11062.
	create_child: fedge_step (1, 6) FAR 11370 U 0.00
expand: fedge_step (1, 0) FAR  w(0) 11370.
	create_child: fedge_step (1, 6) FAR 11343 X 0.00
expand: fedge_step (1, 0) FAR  w(0) 11343.
	create_child: redge_step (1, 6) FAR 11415 X 0.00
expand: redge_step (1, 0) FAR  w(0) 11415.
	create_child: sustain_step (1, 6) FAR 11320 X 0.00
expand: sustain_step (1, 0) FAR  w(0) 11320. F 0.00
expand: top_step (2, 0) FAR  w(0) 11062. F 0.00
expand: MAIN (3, 0) FAR  w(0) 9732. F 0.00
expand: MAIN (4, 0) FAR  w(0) 1455.
	create_child: MAIN (3, 6) FAR 12167 U 0.00
expand: MAIN (3, 0) FAR  w(0) 12167.
	create_child: top_step (2, 6) FAR 12183 U 0.00
expand: top_step (2, 0) FAR  w(0) 12183. F 0.00
expand: MAIN (3, 0) FAR  w(0) 12167. F 0.00
expand: MAIN (4, 0) FAR  w(0) 1455.
	create_child: MAIN (3, 6) FAR 12307 U 0.00
expand: MAIN (3, 0) FAR  w(0) 12307.
	create_child: top_step (2, 6) FAR 12326 U 0.00
expand: top_step (2, 0) FAR  w(0) 12326. F 0.00
expand: MAIN (3, 0) FAR  w(0) 12307. F 0.00
expand: MAIN (4, 0) FAR  w(0) 1455.
	create_child: top_step (3, 6) FAR 12608 U 0.00
expand: top_step (3, 0) FAR  w(0) 12608.
	create_child: MAIN (3, 6) FAR 12726 X 0.00
expand: MAIN (3, 0) FAR  w(0) 12726.
	create_child: top_step (2, 6) FAR 13169 U 0.00
expand: top_step (2, 0) FAR  w(0) 13169. F 0.00
expand: MAIN (3, 0) FAR  w(0) 12726. F 0.00
expand: MAIN (4, 0) FAR  w(0) 1455.
	create_child: MAIN (3, 6) FAR 13364 U 0.00
expand: MAIN (3, 0) FAR  w(0) 13364.
	create_child: top_step (2, 6) FAR 13347 U 0.00
expand: top_step (2, 0) FAR  w(0) 13347.
	create_child: fedge_step (1, 6) FAR 13393 U 0.00
expand: fedge_step (1, 0) FAR  w(0) 13393. F 0.00
expand: top_step (2, 0) FAR  w(0) 13347. F 0.00
expand: MAIN (3, 0) FAR  w(0) 13364. F 0.00
expand: MAIN (4, 0) FAR  w(0) 1455.
	create_child: MAIN (3, 6) FAR 13576 U 0.00
expand: MAIN (3, 0) FAR  w(0) 13576.
	create_child: top_step (2, 6) FAR 13594 U 0.00
expand: top_step (2, 0) FAR  w(0) 13594.
	create_child: fedge_step (1, 6) FAR 13619 U 0.00
expand: fedge_step (1, 0) FAR  w(0) 13619.
	create_child: redge_step (0, 6) FAR 13448 U 0.00
expand: redge_step (0, 0) FAR  w(0) 13448. F 0.00
expand: fedge_step (1, 0) FAR  w(0) 13619. F 0.00
expand: top_step (2, 0) FAR  w(0) 13594. F 0.00
expand: MAIN (3, 0) FAR  w(0) 13576. F 0.00
expand: MAIN (4, 0) FAR  w(0) 1455.
	create_child: MAIN (3, 6) FAR 13876 U 0.00
expand: MAIN (3, 0) FAR  w(0) 13876.
	create_child: top_step (2, 6) FAR 13762 U 0.00
expand: top_step (2, 0) FAR  w(0) 13762. F 0.00
expand: MAIN (3, 0) FAR  w(0) 13876. F 0.00
expand: MAIN (4, 0) FAR  w(0) 1455.
	create_child: top_step (3, 6) FAR 13913 U 0.00
expand: top_step (3, 0) FAR  w(0) 13913.
	create_child: MAIN (3, 6) FAR 14379 X 0.00
expand: MAIN (3, 0) FAR  w(0) 14379.
	create_child: top_step (2, 6) FAR 14528 U 0.00
expand: top_step (2, 0) FAR  w(0) 14528. F 0.00
expand: MAIN (3, 0) FAR  w(0) 14379. F 0.00
expand: MAIN (4, 0) FAR  w(0) 1455.
	create_child: MAIN (3, 6) FAR 14724 U 0.00
expand: MAIN (3, 0) FAR  w(0) 14724.
	create_child: top_step (2, 6) FAR 14701 U 0.00
expand: top_step (2, 0) FAR  w(0) 14701. F 0.00
expand: MAIN (3, 0) FAR  w(0) 14724. F 0.00
expand: MAIN (4, 0) FAR  w(0) 1455.
	create_child: MAIN (3, 6) FAR 14833 U 0.00
expand: MAIN (3, 0) FAR  w(0) 14833.
	create_child: top_step (2, 6) FAR 14788 U 0.00
expand: top_step (2, 0) FAR  w(0) 14788. F 0.00
expand: MAIN (3, 0) FAR  w(0) 14833. F 0.00
expand: MAIN (4, 0) FAR  w(0) 1455.
	create_child: MAIN (3, 6) FAR 15063 U 0.00
expand: MAIN (3, 0) FAR  w(0) 15063.
	create_child: top_step (2, 6) FAR 15097 U 0.00
expand: top_step (2, 0) FAR  w(0) 15097. F 0.00
expand: MAIN (3, 0) FAR  w(0) 15063. F 0.00
expand: MAIN (4, 0) FAR  w(0) 1455.
	create_child: MAIN (3, 6) FAR 15245 U 0.00
expand: MAIN (3, 0) FAR  w(0) 15245.
	create_child: top_step (2, 6) FAR 15231 U 0.00
expand: top_step (2, 0) FAR  w(0) 15231. F 0.00
expand: MAIN (3, 0) FAR  w(0) 15245. F 0.00
expand: MAIN (4, 0) FAR  w(0) 1455.
	create_child: top_step (3, 6) FAR 15369 U 0.00
expand: top_step (3, 0) FAR  w(0) 15369.
	create_child: fedge_step (2, 6) FAR 15516 U 0.00
expand: fedge_step (2, 0) FAR  w(0) 15516.
	create_child: redge_step (1, 6) FAR 13384 U 0.00
expand: redge_step (1, 0) FAR  w(0) 13384. F 0.00
expand: fedge_step (2, 0) FAR  w(0) 15516. F 0.00
expand: top_step (3, 0) FAR  w(0) 15369.
	create_child: fedge_step (2, 6) FAR 15465 U 0.00
expand: fedge_step (2, 0) FAR  w(0) 15465.
	create_child: redge_step (1, 6) FAR 15459 U 0.00
expand: redge_step (1, 0) FAR  w(0) 15459. F 0.00
expand: fedge_step (2, 0) FAR  w(0) 15465. F 0.00
expand: top_step (3, 0) FAR  w(0) 15369. F 0.00
expand: MAIN (4, 0) FAR  w(0) 1455.
	create_child: top_step (3, 6) FAR 16113 U 0.00
expand: top_step (3, 0) FAR  w(0) 16113. F 0.00
expand: MAIN (4, 0) FAR  w(0) 1455.
	create_child: top_step (3, 6) FAR 16064 U 0.00
expand: top_step (3, 0) FAR  w(0) 16064. F 0.00
expand: MAIN (4, 0) FAR  w(0) 1455.
	create_child: top_step (3, 6) FAR 16579 U 0.00
expand: top_step (3, 0) FAR  w(0) 16579.
	create_child: sustain_step (2, 6) FAR 16642 U 0.00
expand: sustain_step (2, 0) FAR  w(0) 16642. F 0.00
expand: top_step (3, 0) FAR  w(0) 16579. F 0.00
expand: MAIN (4, 0) FAR  w(0) 1455.
	create_child: top_step (3, 6) FAR 16780 U 0.00
expand: top_step (3, 0) FAR  w(0) 16780. F 0.00
expand: MAIN (4, 0) FAR  w(0) 1455.
	create_child: top_step (3, 6) FAR 17085 U 0.00
expand: top_step (3, 0) FAR  w(0) 17085. F 0.00
expand: MAIN (4, 0) FAR  w(0) 1455. F 0.00
expand: ERR (5, 0) FAR  w(0) 1. F 0.00
expand: query!0 (6, 0) FAR  w(0) 1. F 0.00
(spacer::context::check_reachability :time 0.20 :before-memory 17.42 :after-memory 20.77)
Propagating: 0 1 2 3 4 5 6  ! 7 
(spacer::context::propagate :time 0.01 :before-memory 20.77 :after-memory 20.87)
Entering level 7
BRUNCH_STAT max_query_lvl 6
BRUNCH_STAT num_queries 80
BRUNCH_STAT num_reach_queries 6
BRUNCH_STAT num_reach_reuse 105
BRUNCH_STAT inductive_lvl 0
BRUNCH_STAT max_depth 7
BRUNCH_STAT cex_depth 0
expand: query!0 (7, 0) FAR  w(0) 1.
	create_child: ERR (6, 7) FAR 1 U 0.00
expand: ERR (6, 0) FAR  w(0) 1.
	create_child: MAIN (5, 7) FAR 1455 U 0.00
expand: MAIN (5, 0) FAR  w(0) 1455.
	create_child: MAIN (4, 7) FAR 18664 U 0.00
expand: MAIN (4, 0) FAR  w(0) 18664.
	create_child: top_step (3, 7) FAR 18756 U 0.00
expand: top_step (3, 0) FAR  w(0) 18756. F 0.00
expand: MAIN (4, 0) FAR  w(0) 18664.
	create_child: top_step (3, 7) FAR 18857 U 0.00
expand: top_step (3, 0) FAR  w(0) 18857. F 0.00
expand: MAIN (4, 0) FAR  w(0) 18664.
	create_child: top_step (3, 7) FAR 19015 U 0.00
expand: top_step (3, 0) FAR  w(0) 19015. F 0.00
expand: MAIN (4, 0) FAR  w(0) 18664. F 0.00
expand: MAIN (5, 0) FAR  w(0) 1455.
	create_child: MAIN (4, 7) FAR 19502 U 0.00
expand: MAIN (4, 0) FAR  w(0) 19502.
	create_child: top_step (3, 7) FAR 19518 U 0.00
expand: top_step (3, 0) FAR  w(0) 19518. F 0.00
expand: MAIN (4, 0) FAR  w(0) 19502.
	create_child: top_step (3, 7) FAR 19609 U 0.00
expand: top_step (3, 0) FAR  w(0) 19609. F 0.00
expand: MAIN (4, 0) FAR  w(0) 19502.
	create_child: top_step (3, 7) FAR 19784 U 0.00
expand: top_step (3, 0) FAR  w(0) 19784. F 0.00
expand: MAIN (4, 0) FAR  w(0) 19502. F 0.00
expand: MAIN (5, 0) FAR  w(0) 1455.
	create_child: MAIN (4, 7) FAR 20027 U 0.00
expand: MAIN (4, 0) FAR  w(0) 20027.
	create_child: top_step (3, 7) FAR 20075 U 0.00
expand: top_step (3, 0) FAR  w(0) 20075. F 0.00
expand: MAIN (4, 0) FAR  w(0) 20027.
	create_child: top_step (3, 7) FAR 20355 U 0.00
expand: top_step (3, 0) FAR  w(0) 20355. F 0.00
expand: MAIN (4, 0) FAR  w(0) 20027.
	create_child: top_step (3, 7) FAR 20331 U 0.00
expand: top_step (3, 0) FAR  w(0) 20331. F 0.00
expand: MAIN (4, 0) FAR  w(0) 20027. F 0.00
expand: MAIN (5, 0) FAR  w(0) 1455. F 0.00
expand: ERR (6, 0) FAR  w(0) 1. F 0.00
expand: query!0 (7, 0) FAR  w(0) 1. F 0.00
(spacer::context::check_reachability :time 0.06 :before-memory 20.87 :after-memory 21.20)
Propagating: 3 
(spacer::context::propagate :time 0.00 :before-memory 21.20 :after-memory 21.20)
(define-fun ERR () Bool
  false)
(define-fun sustain_step ((x!0 Bool)
 (x!1 Bool)
 (x!2 Bool)
 (x!3 Bool)
 (x!4 Bool)
 (x!5 Bool)
 (x!6 Bool)) Bool
  (and (or x!3 (not x!2) x!0) (or (not x!5) x!2) (or (not x!2) (not x!1) x!0)))
(define-fun fedge_step ((x!0 Bool)
 (x!1 Bool)
 (x!2 Bool)
 (x!3 Bool)
 (x!4 Bool)
 (x!5 Bool)) Bool
  (and (or x!1 (not x!2) x!0)
       (not x!5)
       (or (not x!1) (not x!0))
       (or (not x!0) x!4)
       (or x!0 x!1 (not x!3))
       (or x!0 (not x!4))
       (or (not x!1) x!2 x!3)))
(define-fun top_step ((x!0 Bool)
 (x!1 Bool)
 (x!2 Bool)
 (x!3 Bool)
 (x!4 Bool)
 (x!5 Bool)
 (x!6 Bool)
 (x!7 Bool)
 (x!8 Bool)
 (x!9 Bool)
 (x!10 Bool)
 (x!11 Bool)
 (x!12 Bool)
 (x!13 Bool)
 (x!14 Bool)
 (x!15 Bool)
 (x!16 Bool)
 (x!17 Bool)
 (x!18 Bool)
 (x!19 Bool)
 (x!20 Bool)
 (x!21 Bool)
 (x!22 Bool)
 (x!23 Bool)
 (x!24 Bool)
 (x!25 Bool)
 (x!26 Bool)
 (x!27 Bool)
 (x!28 Bool)
 (x!29 Bool)
 (x!30 Bool)
 (x!31 Bool)
 (x!32 Bool)
 (x!33 Bool)
 (x!34 Bool)
 (x!35 Bool)
 (x!36 Bool)
 (x!37 Bool)) Bool
  (and (or x!34 (not x!19) (not x!27) x!36)
       (not x!37)
       (not x!35)
       (not x!32)
       (not x!30)
       (not x!26)
       (not x!24)
       (or (not x!16) x!3)
       (or x!22 x!36 x!31)
       (or x!29 x!36)
       (or x!23 (not x!20) (not x!27) x!34)
       (or x!34 (not x!20) (not x!27) x!36)
       (or x!23 (not x!21))
       (or (not x!34) (not x!21))
       (or x!21 (not x!23))
       (or x!25 (not x!22))
       (or (not x!36) (not x!22))
       (or x!4 (not x!17) x!3 x!19 x!20)
       (or x!4 (not x!17) x!3 x!5)
       (or x!5 (not x!19) x!3 x!17 x!18)
       (or x!4 x!3 x!19 x!20 x!10)
       (or (not x!8) (not x!6) x!3 x!19 x!20 x!18 x!17 x!10)
       (or x!5 x!3 x!17 x!18 x!10)
       (or x!22 (not x!27) x!36 x!10)
       (or x!22 (not x!19) (not x!27) x!36)
       (or x!22 (not x!17) (not x!27) x!36)
       (or x!23 (not x!17) (not x!27) x!34)
       (or x!10 (not x!27) x!34 x!23)
       (or x!23 (not x!19) (not x!27) x!34)
       (or x!10 (not x!27) x!36 x!34)
       (or x!34 (not x!17) (not x!27) x!36)))
(define-fun fedge_reset ((x!0 Bool) (x!1 Bool) (x!2 Bool) (x!3 Bool)) Bool
  x!3)
(define-fun MAIN ((x!0 Bool)
 (x!1 Bool)
 (x!2 Bool)
 (x!3 Bool)
 (x!4 Bool)
 (x!5 Bool)
 (x!6 Bool)
 (x!7 Bool)
 (x!8 Bool)
 (x!9 Bool)
 (x!10 Bool)
 (x!11 Bool)
 (x!12 Bool)
 (x!13 Bool)
 (x!14 Bool)
 (x!15 Bool)
 (x!16 Bool)
 (x!17 Bool)) Bool
  (and (or x!15 x!13 (not x!6))
       x!17
       (not x!3)
       (not x!5)
       (not x!9)
       (not x!11)
       (not x!14)
       (not x!16)
       (or x!1 x!10 x!15)
       (or x!8 x!15)
       (or (not x!0) x!2)
       (or (not x!0) (not x!13))
       (or x!0 (not x!2))
       (or (not x!1) x!4)
       (or (not x!1) (not x!15))
       (or x!13 (not x!6) x!2)))
(define-fun top_reset ((x!0 Bool)
 (x!1 Bool)
 (x!2 Bool)
 (x!3 Bool)
 (x!4 Bool)
 (x!5 Bool)
 (x!6 Bool)
 (x!7 Bool)
 (x!8 Bool)
 (x!9 Bool)
 (x!10 Bool)
 (x!11 Bool)
 (x!12 Bool)
 (x!13 Bool)
 (x!14 Bool)
 (x!15 Bool)
 (x!16 Bool)
 (x!17 Bool)
 (x!18 Bool)
 (x!19 Bool)
 (x!20 Bool)
 (x!21 Bool)
 (x!22 Bool)
 (x!23 Bool)
 (x!24 Bool)
 (x!25 Bool)
 (x!26 Bool)
 (x!27 Bool)
 (x!28 Bool)
 (x!29 Bool)
 (x!30 Bool)
 (x!31 Bool)
 (x!32 Bool)
 (x!33 Bool)) Bool
  (and x!33 x!20 x!22 x!26 x!28 x!29))
(define-fun sustain_reset ((x!0 Bool) (x!1 Bool) (x!2 Bool) (x!3 Bool)) Bool
  true)
(define-fun redge_step ((x!0 Bool)
 (x!1 Bool)
 (x!2 Bool)
 (x!3 Bool)
 (x!4 Bool)
 (x!5 Bool)) Bool
  (and (or (not x!0) (not x!2) x!1)
       (not x!5)
       (or (not x!1) x!0)
       (or x!0 x!4)
       (or (not x!0) x!1 (not x!3))
       (or (not x!0) (not x!4))
       (or x!2 x!3 (not x!1))))
(define-fun redge_reset ((x!0 Bool) (x!1 Bool) (x!2 Bool) (x!3 Bool)) Bool
  x!3)
BRUNCH_STAT max_query_lvl 7
BRUNCH_STAT num_queries 94
BRUNCH_STAT num_reach_queries 6
BRUNCH_STAT num_reach_reuse 108
BRUNCH_STAT inductive_lvl 3
BRUNCH_STAT max_depth 7
BRUNCH_STAT cex_depth 0
(:SPACER-inductive-level               3
 :SPACER-max-depth                     7
 :SPACER-max-query-lvl                 7
 :SPACER-num-invariants                81
 :SPACER-num-lemmas                    102
 :SPACER-num-properties                77
 :SPACER-num-queries                   94
 :SPACER-num-reach-queries             6
 :SPACER-num-reuse-reach-facts         108
 :bool-inductive-gen                   81
 :bool-inductive-gen-failures          202
 :conflicts                            814
 :decisions                            8140
 :del-clause                           198
 :final-checks                         324
 :minimized-lits                       195
 :mk-bool-var                          5735
 :mk-clause                            3447
 :num-checks                           846
 :propagations                         102802
 :time.itp_solver.itp_core             0.03
 :time.spacer.init_rules               0.01
 :time.spacer.init_rules.pt.init       0.00
 :time.spacer.solve                    0.30
 :time.spacer.solve.propagate          0.01
 :time.spacer.solve.pt.must_reachable  0.01
 :time.spacer.solve.reach              0.29
 :time.spacer.solve.reach.children     0.07
 :time.spacer.solve.reach.gen.bool_ind 0.05
 :time.virtual_solver.proof            0.02
 :time.virtual_solver.smt.total        0.15
 :time.virtual_solver.smt.total.sat    0.07
 :virtual_solver.checks                846
 :virtual_solver.checks.sat            324)
BRUNCH_STAT max_query_lvl 7
BRUNCH_STAT num_queries 94
BRUNCH_STAT num_reach_queries 6
BRUNCH_STAT num_reach_reuse 108
BRUNCH_STAT inductive_lvl 3
BRUNCH_STAT max_depth 7
BRUNCH_STAT cex_depth 0

real	0m0.371s
user	0m0.360s
sys	0m0.008s
