(transform N7datalog13mk_coi_filterE...no-op 0s)
(transform N7datalog25mk_interp_tail_simplifierE...16 rules 0s)
(transform N7datalog27mk_quantifier_instantiationE...no-op 0s)
(transform N7datalog8mk_scaleE...no-op 0s)
(transform N7datalog18mk_karr_invariantsE...no-op 0s)
(transform N7datalog14mk_array_blastE...no-op 0s)
(transform N7datalog22mk_subsumption_checkerE...15 rules 0s)
(transform N7datalog12mk_bit_blastE...no-op 0s)
(transform N7datalog15mk_rule_inlinerE...no-op 0s)
(transform N7datalog13mk_coi_filterE...no-op 0s)
(transform N7datalog25mk_interp_tail_simplifierE...15 rules 0s)
(transform N7datalog22mk_subsumption_checkerE...no-op 0s)
(transform N7datalog15mk_rule_inlinerE...no-op 0s)
(transform N7datalog13mk_coi_filterE...no-op 0s)
(transform N7datalog25mk_interp_tail_simplifierE...15 rules 0s)
(transform N7datalog22mk_subsumption_checkerE...no-op 0s)
(transform N7datalog15mk_rule_inlinerE...no-op 0s)
(transform N7datalog22mk_subsumption_checkerE...no-op 0s)
(transform N7datalog15mk_rule_inlinerE...no-op 0s)
(transform N7datalog22mk_subsumption_checkerE...no-op 0s)
(transform N7datalog15mk_rule_inlinerE...no-op 0s)
(transform N7datalog22mk_subsumption_checkerE...no-op 0s)
expand: query!0 (0, 0) FAR  w(0) 1. F 0.00
(spacer::context::check_reachability :time 0.00 :before-memory 15.06 :after-memory 15.43)
Entering level 1
BRUNCH_STAT max_query_lvl 0
BRUNCH_STAT num_queries 0
BRUNCH_STAT num_reach_queries 0
BRUNCH_STAT num_reach_reuse 0
BRUNCH_STAT inductive_lvl 0
BRUNCH_STAT max_depth 1
BRUNCH_STAT cex_depth 0
expand: query!0 (1, 0) FAR  w(0) 1.
	create_child: ERR (0, 1) FAR 1 U 0.00
expand: ERR (0, 0) FAR  w(0) 1. F 0.00
expand: query!0 (1, 0) FAR  w(0) 1. F 0.00
(spacer::context::check_reachability :time 0.00 :before-memory 15.43 :after-memory 15.88)
Propagating: 0 1  ! 2 
(spacer::context::propagate :time 0.00 :before-memory 15.88 :after-memory 15.88)
Entering level 2
BRUNCH_STAT max_query_lvl 1
BRUNCH_STAT num_queries 1
BRUNCH_STAT num_reach_queries 0
BRUNCH_STAT num_reach_reuse 0
BRUNCH_STAT inductive_lvl 0
BRUNCH_STAT max_depth 2
BRUNCH_STAT cex_depth 0
expand: query!0 (2, 0) FAR  w(0) 1.
	create_child: ERR (1, 2) FAR 1 U 0.00
expand: ERR (1, 0) FAR  w(0) 1.
	create_child: MAIN (0, 2) FAR 1882 U 0.00
expand: MAIN (0, 0) FAR  w(0) 1882. F 0.00
expand: ERR (1, 0) FAR  w(0) 1. F 0.00
expand: query!0 (2, 0) FAR  w(0) 1. F 0.00
(spacer::context::check_reachability :time 0.00 :before-memory 15.88 :after-memory 16.34)
Propagating: 0 1 2  ! 3 
(spacer::context::propagate :time 0.00 :before-memory 16.34 :after-memory 16.34)
Entering level 3
BRUNCH_STAT max_query_lvl 2
BRUNCH_STAT num_queries 3
BRUNCH_STAT num_reach_queries 0
BRUNCH_STAT num_reach_reuse 0
BRUNCH_STAT inductive_lvl 0
BRUNCH_STAT max_depth 3
BRUNCH_STAT cex_depth 0
expand: query!0 (3, 0) FAR  w(0) 1.
	create_child: ERR (2, 3) FAR 1 U 0.00
expand: ERR (2, 0) FAR  w(0) 1.
	create_child: MAIN (1, 3) FAR 1882 U 0.00
expand: MAIN (1, 0) FAR  w(0) 1882.
	create_child: top_step (0, 3) FAR 2648 U 0.00
expand: top_step (0, 0) FAR  w(0) 2648. F 0.00
expand: MAIN (1, 0) FAR  w(0) 1882. F 0.00
expand: ERR (2, 0) FAR  w(0) 1. F 0.00
expand: query!0 (3, 0) FAR  w(0) 1. F 0.00
(spacer::context::check_reachability :time 0.00 :before-memory 16.34 :after-memory 17.17)
Propagating: 0 1 2 3  ! 4 
(spacer::context::propagate :time 0.00 :before-memory 17.17 :after-memory 17.26)
Entering level 4
BRUNCH_STAT max_query_lvl 3
BRUNCH_STAT num_queries 6
BRUNCH_STAT num_reach_queries 0
BRUNCH_STAT num_reach_reuse 0
BRUNCH_STAT inductive_lvl 0
BRUNCH_STAT max_depth 4
BRUNCH_STAT cex_depth 0
expand: query!0 (4, 0) FAR  w(0) 1.
	create_child: ERR (3, 4) FAR 1 U 0.00
expand: ERR (3, 0) FAR  w(0) 1.
	create_child: MAIN (2, 4) FAR 1882 U 0.00
expand: MAIN (2, 0) FAR  w(0) 1882.
	create_child: top_step (1, 4) FAR 2648 U 0.00
expand: top_step (1, 0) FAR  w(0) 2648.
	create_child: top_reset (1, 4) FAR 5684 X 0.01
expand: top_reset (1, 0) FAR  w(0) 5684.
	create_child: Sofar_reset (0, 4) FAR 6396 U 0.00
expand: Sofar_reset (0, 0) FAR  w(0) 6396. F 0.00
expand: top_reset (1, 0) FAR  w(0) 5684. F 0.00
expand: MAIN (2, 0) FAR  w(0) 1882.
	create_child: top_reset (1, 4) FAR 7826 U 0.00
expand: top_reset (1, 0) FAR  w(0) 7826.
	create_child: FirstB_reset (0, 4) FAR 7771 U 0.00
expand: FirstB_reset (0, 0) FAR  w(0) 7771. F 0.00
expand: top_reset (1, 0) FAR  w(0) 7826. F 0.00
expand: MAIN (2, 0) FAR  w(0) 1882.
	create_child: top_reset (1, 4) FAR 7980 U 0.00
expand: top_reset (1, 0) FAR  w(0) 7980.
	create_child: First_reset (0, 4) FAR 7970 U 0.00
expand: First_reset (0, 0) FAR  w(0) 7970. F 0.00
expand: top_reset (1, 0) FAR  w(0) 7980. F 0.00
expand: MAIN (2, 0) FAR  w(0) 1882.
	create_child: top_reset (1, 4) FAR 8108 U 0.00
expand: top_reset (1, 0) FAR  w(0) 8108.
	create_child: PRODUCER_CONSUMMER_reset (0, 4) FAR 8102 U 0.00
expand: PRODUCER_CONSUMMER_reset (0, 0) FAR  w(0) 8102. F 0.00
expand: top_reset (1, 0) FAR  w(0) 8108. F 0.00
expand: MAIN (2, 0) FAR  w(0) 1882.
	create_child: top_step (1, 4) FAR 8208 U 0.00
expand: top_step (1, 0) FAR  w(0) 8208.
	create_child: FirstB_step (0, 4) FAR 8490 U 0.01
expand: FirstB_step (0, 0) FAR  w(0) 8490. F 0.00
expand: top_step (1, 0) FAR  w(0) 8208.
	create_child: First_step (0, 4) FAR 8641 U 0.00
expand: First_step (0, 0) FAR  w(0) 8641. F 0.00
expand: top_step (1, 0) FAR  w(0) 8208.
	create_child: First_step (0, 4) FAR 8543 U 0.00
expand: First_step (0, 0) FAR  w(0) 8543.
	create_child: PRODUCER_CONSUMMER_step (0, 4) FAR 8548 X 0.00
expand: PRODUCER_CONSUMMER_step (0, 0) FAR  w(0) 8548. F 0.00
expand: top_step (1, 0) FAR  w(0) 8208.
	create_child: First_step (0, 4) FAR 9714 U 0.00
expand: First_step (0, 0) FAR  w(0) 9714. F 0.00
expand: top_step (1, 0) FAR  w(0) 8208. F 0.00
expand: MAIN (2, 0) FAR  w(0) 1882. F 0.00
expand: ERR (3, 0) FAR  w(0) 1. F 0.00
expand: query!0 (4, 0) FAR  w(0) 1. F 0.00
(spacer::context::check_reachability :time 0.05 :before-memory 17.26 :after-memory 23.63)
Propagating: 0 1 2 3 4  ! 5 
(spacer::context::propagate :time 0.00 :before-memory 23.63 :after-memory 23.63)
Entering level 5
BRUNCH_STAT max_query_lvl 4
BRUNCH_STAT num_queries 21
BRUNCH_STAT num_reach_queries 1
BRUNCH_STAT num_reach_reuse 29
BRUNCH_STAT inductive_lvl 0
BRUNCH_STAT max_depth 5
BRUNCH_STAT cex_depth 0
expand: query!0 (5, 0) FAR  w(0) 1.
	create_child: ERR (4, 5) FAR 1 U 0.00
expand: ERR (4, 0) FAR  w(0) 1.
	create_child: MAIN (3, 5) FAR 1882 U 0.00
expand: MAIN (3, 0) FAR  w(0) 1882.
	create_child: MAIN (2, 5) FAR 10169 U 0.00
expand: MAIN (2, 0) FAR  w(0) 10169.
	create_child: top_step (1, 5) FAR 10171 U 0.00
expand: top_step (1, 0) FAR  w(0) 10171. F 0.00
expand: MAIN (2, 0) FAR  w(0) 10169. F 0.00
expand: MAIN (3, 0) FAR  w(0) 1882.
	create_child: MAIN (2, 5) FAR 10421 U 0.00
expand: MAIN (2, 0) FAR  w(0) 10421.
	create_child: top_step (1, 5) FAR 10438 U 0.00
expand: top_step (1, 0) FAR  w(0) 10438.
	create_child: FirstB_step (0, 5) FAR 10633 U 0.00
expand: FirstB_step (0, 0) FAR  w(0) 10633. F 0.00
expand: top_step (1, 0) FAR  w(0) 10438. F 0.00
expand: MAIN (2, 0) FAR  w(0) 10421. F 0.00
expand: MAIN (3, 0) FAR  w(0) 1882.
	create_child: MAIN (2, 5) FAR 10778 U 0.00
expand: MAIN (2, 0) FAR  w(0) 10778.
	create_child: top_step (1, 5) FAR 10718 U 0.00
expand: top_step (1, 0) FAR  w(0) 10718.
	create_child: FirstB_step (0, 5) FAR 10803 U 0.00
expand: FirstB_step (0, 0) FAR  w(0) 10803. F 0.00
expand: top_step (1, 0) FAR  w(0) 10718. F 0.00
expand: MAIN (2, 0) FAR  w(0) 10778. F 0.00
expand: MAIN (3, 0) FAR  w(0) 1882.
	create_child: MAIN (2, 5) FAR 10893 U 0.00
expand: MAIN (2, 0) FAR  w(0) 10893.
	create_child: top_step (1, 5) FAR 10872 U 0.00
expand: top_step (1, 0) FAR  w(0) 10872.
	create_child: First_step (0, 5) FAR 10967 U 0.00
expand: First_step (0, 0) FAR  w(0) 10967.
	create_child: PRODUCER_CONSUMMER_step (0, 5) FAR 10994 X 0.00
expand: PRODUCER_CONSUMMER_step (0, 0) FAR  w(0) 10994. F 0.00
expand: top_step (1, 0) FAR  w(0) 10872.
	create_child: First_step (0, 5) FAR 10916 U 0.00
expand: First_step (0, 0) FAR  w(0) 10916. F 0.00
expand: top_step (1, 0) FAR  w(0) 10872. F 0.00
expand: MAIN (2, 0) FAR  w(0) 10893. F 0.00
expand: MAIN (3, 0) FAR  w(0) 1882.
	create_child: MAIN (2, 5) FAR 11523 U 0.00
expand: MAIN (2, 0) FAR  w(0) 11523.
	create_child: top_step (1, 5) FAR 11445 U 0.00
expand: top_step (1, 0) FAR  w(0) 11445.
	create_child: PRODUCER_CONSUMMER_step (0, 5) FAR 11486 U 0.00
expand: PRODUCER_CONSUMMER_step (0, 0) FAR  w(0) 11486. F 0.00
expand: top_step (1, 0) FAR  w(0) 11445. F 0.00
expand: MAIN (2, 0) FAR  w(0) 11523. F 0.00
expand: MAIN (3, 0) FAR  w(0) 1882.
	create_child: MAIN (2, 5) FAR 11709 U 0.00
expand: MAIN (2, 0) FAR  w(0) 11709.
	create_child: top_step (1, 5) FAR 11633 U 0.00
expand: top_step (1, 0) FAR  w(0) 11633.
	create_child: Sofar_step (0, 5) FAR 11684 U 0.00
expand: Sofar_step (0, 0) FAR  w(0) 11684. F 0.00
expand: top_step (1, 0) FAR  w(0) 11633. F 0.00
expand: MAIN (2, 0) FAR  w(0) 11709. F 0.00
expand: MAIN (3, 0) FAR  w(0) 1882.
	create_child: MAIN (2, 5) FAR 12010 U 0.00
expand: MAIN (2, 0) FAR  w(0) 12010.
	create_child: top_step (1, 5) FAR 11952 U 0.00
expand: top_step (1, 0) FAR  w(0) 11952.
	create_child: First_step (0, 5) FAR 12015 U 0.00
expand: First_step (0, 0) FAR  w(0) 12015. F 0.00
expand: top_step (1, 0) FAR  w(0) 11952. F 0.00
expand: MAIN (2, 0) FAR  w(0) 12010. F 0.00
expand: MAIN (3, 0) FAR  w(0) 1882.
	create_child: top_step (2, 5) FAR 12121 U 0.00
expand: top_step (2, 0) FAR  w(0) 12121.
	create_child: FirstB_step (1, 5) FAR 12278 U 0.00
expand: FirstB_step (1, 0) FAR  w(0) 12278. F 0.00
expand: top_step (2, 0) FAR  w(0) 12121. F 0.00
expand: MAIN (3, 0) FAR  w(0) 1882.
	create_child: top_step (2, 5) FAR 11982 U 0.00
expand: top_step (2, 0) FAR  w(0) 11982.
	create_child: First_step (1, 5) FAR 12357 U 0.00
expand: First_step (1, 0) FAR  w(0) 12357. F 0.00
expand: top_step (2, 0) FAR  w(0) 11982. F 0.00
expand: MAIN (3, 0) FAR  w(0) 1882.
	create_child: top_step (2, 5) FAR 12475 U 0.00
expand: top_step (2, 0) FAR  w(0) 12475.
	create_child: PRODUCER_CONSUMMER_step (1, 5) FAR 12596 U 0.00
expand: PRODUCER_CONSUMMER_step (1, 0) FAR  w(0) 12596. F 0.00
expand: top_step (2, 0) FAR  w(0) 12475.
	create_child: PRODUCER_CONSUMMER_step (1, 5) FAR 12775 U 0.00
expand: PRODUCER_CONSUMMER_step (1, 0) FAR  w(0) 12775. F 0.00
expand: top_step (2, 0) FAR  w(0) 12475. F 0.00
expand: MAIN (3, 0) FAR  w(0) 1882. F 0.00
expand: ERR (4, 0) FAR  w(0) 1. F 0.00
expand: query!0 (5, 0) FAR  w(0) 1. F 0.00
(spacer::context::check_reachability :time 0.08 :before-memory 23.63 :after-memory 25.18)
Propagating: 0 1 2 3 4 5  ! 6 
(spacer::context::propagate :time 0.00 :before-memory 25.18 :after-memory 25.18)
Entering level 6
BRUNCH_STAT max_query_lvl 5
BRUNCH_STAT num_queries 51
BRUNCH_STAT num_reach_queries 1
BRUNCH_STAT num_reach_reuse 71
BRUNCH_STAT inductive_lvl 0
BRUNCH_STAT max_depth 6
BRUNCH_STAT cex_depth 0
expand: query!0 (6, 0) FAR  w(0) 1.
	create_child: ERR (5, 6) FAR 1 U 0.00
expand: ERR (5, 0) FAR  w(0) 1.
	create_child: MAIN (4, 6) FAR 1882 U 0.00
expand: MAIN (4, 0) FAR  w(0) 1882.
	create_child: MAIN (3, 6) FAR 13433 U 0.00
expand: MAIN (3, 0) FAR  w(0) 13433.
	create_child: top_step (2, 6) FAR 13488 U 0.00
expand: top_step (2, 0) FAR  w(0) 13488. F 0.00
expand: MAIN (3, 0) FAR  w(0) 13433.
	create_child: top_step (2, 6) FAR 13573 U 0.00
expand: top_step (2, 0) FAR  w(0) 13573.
	create_child: First_step (1, 6) FAR 13638 U 0.00
expand: First_step (1, 0) FAR  w(0) 13638. F 0.00
expand: top_step (2, 0) FAR  w(0) 13573. F 0.00
expand: MAIN (3, 0) FAR  w(0) 13433.
	create_child: top_step (2, 6) FAR 13749 U 0.00
expand: top_step (2, 0) FAR  w(0) 13749.
	create_child: PRODUCER_CONSUMMER_step (1, 6) FAR 13833 U 0.00
expand: PRODUCER_CONSUMMER_step (1, 0) FAR  w(0) 13833. F 0.00
expand: top_step (2, 0) FAR  w(0) 13749. F 0.00
expand: MAIN (3, 0) FAR  w(0) 13433. F 0.00
expand: MAIN (4, 0) FAR  w(0) 1882.
	create_child: MAIN (3, 6) FAR 10421 U 0.00
expand: MAIN (3, 0) FAR  w(0) 10421.
	create_child: top_step (2, 6) FAR 13982 U 0.00
expand: top_step (2, 0) FAR  w(0) 13982.
	create_child: PRODUCER_CONSUMMER_step (1, 6) FAR 13969 U 0.00
expand: PRODUCER_CONSUMMER_step (1, 0) FAR  w(0) 13969. F 0.00
expand: top_step (2, 0) FAR  w(0) 13982. F 0.00
expand: MAIN (3, 0) FAR  w(0) 10421. F 0.00
expand: MAIN (4, 0) FAR  w(0) 1882.
	create_child: MAIN (3, 6) FAR 14269 U 0.00
expand: MAIN (3, 0) FAR  w(0) 14269.
	create_child: top_step (2, 6) FAR 14264 U 0.00
expand: top_step (2, 0) FAR  w(0) 14264.
	create_child: PRODUCER_CONSUMMER_step (1, 6) FAR 14452 U 0.00
expand: PRODUCER_CONSUMMER_step (1, 0) FAR  w(0) 14452. F 0.00
expand: top_step (2, 0) FAR  w(0) 14264. F 0.00
expand: MAIN (3, 0) FAR  w(0) 14269. F 0.00
expand: MAIN (4, 0) FAR  w(0) 1882.
	create_child: top_step (3, 6) FAR 14657 U 0.00
expand: top_step (3, 0) FAR  w(0) 14657.
	create_child: PRODUCER_CONSUMMER_step (2, 6) FAR 14931 U 0.00
expand: PRODUCER_CONSUMMER_step (2, 0) FAR  w(0) 14931. F 0.00
expand: top_step (3, 0) FAR  w(0) 14657.
	create_child: PRODUCER_CONSUMMER_step (2, 6) FAR 14780 U 0.00
expand: PRODUCER_CONSUMMER_step (2, 0) FAR  w(0) 14780. F 0.00
expand: top_step (3, 0) FAR  w(0) 14657. F 0.00
expand: MAIN (4, 0) FAR  w(0) 1882. F 0.00
expand: ERR (5, 0) FAR  w(0) 1. F 0.00
expand: query!0 (6, 0) FAR  w(0) 1. F 0.00
(spacer::context::check_reachability :time 0.06 :before-memory 25.18 :after-memory 25.59)
Propagating: 1 2 3 
(spacer::context::propagate :time 0.00 :before-memory 25.59 :after-memory 25.59)
(define-fun ERR () Bool
  false)
(define-fun FirstB_reset ((x!0 Bool) (x!1 Bool) (x!2 Bool) (x!3 Bool)) Bool
  x!3)
(define-fun FirstB_step ((x!0 Bool)
 (x!1 Bool)
 (x!2 Bool)
 (x!3 Bool)
 (x!4 Bool)
 (x!5 Bool)) Bool
  (and (or (not x!1) x!2 x!3)
       (not x!5)
       (or (not x!4) x!1)
       (or x!0 (not x!1) (not x!3))))
(define-fun Sofar_step ((x!0 Bool)
 (x!1 Bool)
 (x!2 Bool)
 (x!3 Bool)
 (x!4 Bool)
 (x!5 Bool)) Bool
  (not x!5))
(define-fun PRODUCER_CONSUMMER_step ((x!0 Bool)
 (x!1 Bool)
 (x!2 Bool)
 (x!3 Int)
 (x!4 Int)
 (x!5 Int)
 (x!6 Int)
 (x!7 Int)
 (x!8 Int)
 (x!9 Int)
 (x!10 Int)
 (x!11 Int)
 (x!12 Int)
 (x!13 Int)
 (x!14 Bool)
 (x!15 Int)
 (x!16 Int)
 (x!17 Int)
 (x!18 Int)
 (x!19 Int)
 (x!20 Bool)) Bool
  (let ((a!1 (or (= (+ x!7 (* (- 1) x!10)) 0) (= (+ x!7 (* (- 1) x!10)) 1) x!14))
        (a!2 (not (<= (+ x!4 (* (- 1) x!3)) (- 2))))
        (a!3 (or (>= (+ x!4 (* (- 1) x!13)) 0) x!14 x!0))
        (a!4 (or (>= x!4 0) x!14 (= (+ x!4 (* (- 1) x!13)) 0))))
    (and a!1
         (not x!20)
         (or a!2 (not x!14))
         (<= (+ x!4 (* (- 1) x!19)) 0)
         a!3
         a!4
         (<= (+ x!7 (* (- 1) x!16)) 0)
         (>= (+ x!7 (* (- 1) x!16)) 0))))
(define-fun top_step ((x!0 Bool)
 (x!1 Bool)
 (x!2 Bool)
 (x!3 Int)
 (x!4 Bool)
 (x!5 Int)
 (x!6 Bool)
 (x!7 Bool)
 (x!8 Int)
 (x!9 Int)
 (x!10 Int)
 (x!11 Int)
 (x!12 Int)
 (x!13 Bool)
 (x!14 Int)
 (x!15 Bool)
 (x!16 Bool)
 (x!17 Bool)
 (x!18 Bool)
 (x!19 Bool)
 (x!20 Int)
 (x!21 Bool)
 (x!22 Bool)
 (x!23 Int)
 (x!24 Int)
 (x!25 Int)
 (x!26 Int)
 (x!27 Int)
 (x!28 Bool)
 (x!29 Int)
 (x!30 Bool)
 (x!31 Bool)
 (x!32 Bool)
 (x!33 Bool)
 (x!34 Bool)) Bool
  (let ((a!1 (not (= (+ x!5 (* (- 1) x!9)) 0))))
    (and (or a!1 x!13 x!4 (not (>= x!12 0)))
         (not x!22)
         (not x!34)
         (not x!32)
         (not x!30)
         (not x!28)
         (or (not x!15) (not x!13) x!4 (not x!17))
         (<= (+ x!20 (* (- 1) x!24)) 0)
         (or (not x!17) (not x!31) (not x!21))
         (>= (+ x!20 (* (- 1) x!24)) 0)
         (or (<= x!29 0) (not x!13) (not x!15) (>= x!27 0))
         (or (not (<= x!14 0)) x!4 x!15)
         (or x!17 x!16 x!4)
         (or (not (>= x!12 0)) x!4 x!6 x!13)
         (or (not x!31) x!16 x!17)
         (or (not (>= x!12 0)) x!13 (>= x!27 0))
         (or (not (<= x!14 0)) x!15 (<= x!29 0)))))
(define-fun First_reset ((x!0 Int) (x!1 Bool) (x!2 Int) (x!3 Bool)) Bool
  x!3)
(define-fun First_step ((x!0 Int)
 (x!1 Int)
 (x!2 Int)
 (x!3 Bool)
 (x!4 Int)
 (x!5 Bool)) Bool
  (let ((a!1 (or (>= (+ x!2 (* (- 1) x!1)) 0) x!3))
        (a!2 (or (>= (+ x!0 (* (- 1) x!1)) 0) (not x!3))))
    (and a!1 (not x!5) a!2 (>= (+ x!1 (* (- 1) x!4)) 0))))
(define-fun MAIN ((x!0 Int)
 (x!1 Bool)
 (x!2 Bool)
 (x!3 Int)
 (x!4 Int)
 (x!5 Int)
 (x!6 Int)
 (x!7 Int)
 (x!8 Bool)
 (x!9 Int)
 (x!10 Bool)
 (x!11 Bool)
 (x!12 Bool)
 (x!13 Bool)
 (x!14 Bool)
 (x!15 Bool)) Bool
  (and (or (>= x!7 0) (<= x!9 0))
       x!15
       (not x!2)
       (not x!8)
       (not x!10)
       (not x!12)
       (not x!14)
       (>= (+ x!0 (* (- 1) x!4)) 0)
       (<= (+ x!0 (* (- 1) x!4)) 0)))
(define-fun Sofar_reset ((x!0 Bool) (x!1 Bool) (x!2 Bool) (x!3 Bool)) Bool
  x!3)
(define-fun excludes3_fun ((x!0 Bool) (x!1 Bool) (x!2 Bool) (x!3 Bool)) Bool
  true)
(define-fun PRODUCER_CONSUMMER_reset ((x!0 Int)
 (x!1 Int)
 (x!2 Int)
 (x!3 Int)
 (x!4 Int)
 (x!5 Bool)
 (x!6 Int)
 (x!7 Int)
 (x!8 Int)
 (x!9 Int)
 (x!10 Int)
 (x!11 Bool)) Bool
  x!11)
(define-fun top_reset ((x!0 Int)
 (x!1 Bool)
 (x!2 Bool)
 (x!3 Int)
 (x!4 Int)
 (x!5 Int)
 (x!6 Int)
 (x!7 Int)
 (x!8 Bool)
 (x!9 Int)
 (x!10 Bool)
 (x!11 Bool)
 (x!12 Bool)
 (x!13 Bool)
 (x!14 Bool)
 (x!15 Int)
 (x!16 Bool)
 (x!17 Bool)
 (x!18 Int)
 (x!19 Int)
 (x!20 Int)
 (x!21 Int)
 (x!22 Int)
 (x!23 Bool)
 (x!24 Int)
 (x!25 Bool)
 (x!26 Bool)
 (x!27 Bool)
 (x!28 Bool)
 (x!29 Bool)) Bool
  (and x!29 x!23 x!25 x!27))
BRUNCH_STAT max_query_lvl 6
BRUNCH_STAT num_queries 68
BRUNCH_STAT num_reach_queries 1
BRUNCH_STAT num_reach_reuse 98
BRUNCH_STAT inductive_lvl 3
BRUNCH_STAT max_depth 6
BRUNCH_STAT cex_depth 0
(:SPACER-inductive-level               3
 :SPACER-max-depth                     6
 :SPACER-max-query-lvl                 6
 :SPACER-num-invariants                58
 :SPACER-num-lemmas                    75
 :SPACER-num-properties                56
 :SPACER-num-queries                   68
 :SPACER-num-reach-queries             1
 :SPACER-num-reuse-reach-facts         98
 :added-eqs                            6544
 :arith-add-rows                       1258
 :arith-assert-diseq                   762
 :arith-assert-lower                   3194
 :arith-assert-upper                   2988
 :arith-bound-prop                     154
 :arith-conflicts                      25
 :arith-eq-adapter                     1662
 :arith-fixed-eqs                      1083
 :arith-offset-eqs                     793
 :arith-pivots                         592
 :bool-inductive-gen                   59
 :bool-inductive-gen-failures          105
 :conflicts                            384
 :decisions                            7405
 :del-clause                           1341
 :final-checks                         173
 :minimized-lits                       3
 :mk-bool-var                          6192
 :mk-clause                            4035
 :num-checks                           454
 :propagations                         52518
 :time.itp_solver.itp_core             0.01
 :time.spacer.init_rules               0.01
 :time.spacer.init_rules.pt.init       0.00
 :time.spacer.solve                    0.21
 :time.spacer.solve.propagate          0.01
 :time.spacer.solve.pt.must_reachable  0.00
 :time.spacer.solve.reach              0.20
 :time.spacer.solve.reach.children     0.05
 :time.spacer.solve.reach.gen.bool_ind 0.03
 :time.virtual_solver.proof            0.01
 :time.virtual_solver.smt.total        0.12
 :time.virtual_solver.smt.total.sat    0.06
 :virtual_solver.checks                454
 :virtual_solver.checks.sat            173)
BRUNCH_STAT max_query_lvl 6
BRUNCH_STAT num_queries 68
BRUNCH_STAT num_reach_queries 1
BRUNCH_STAT num_reach_reuse 98
BRUNCH_STAT inductive_lvl 3
BRUNCH_STAT max_depth 6
BRUNCH_STAT cex_depth 0

real	0m0.265s
user	0m0.252s
sys	0m0.012s
