(transform N7datalog13mk_coi_filterE...no-op 0s)
(transform N7datalog25mk_interp_tail_simplifierE...13 rules 0s)
(transform N7datalog27mk_quantifier_instantiationE...no-op 0s)
(transform N7datalog8mk_scaleE...no-op 0s)
(transform N7datalog18mk_karr_invariantsE...no-op 0s)
(transform N7datalog14mk_array_blastE...no-op 0s)
(transform N7datalog22mk_subsumption_checkerE...12 rules 0s)
(transform N7datalog12mk_bit_blastE...no-op 0s)
(transform N7datalog15mk_rule_inlinerE...no-op 0s)
(transform N7datalog13mk_coi_filterE...no-op 0s)
(transform N7datalog25mk_interp_tail_simplifierE...12 rules 0s)
(transform N7datalog22mk_subsumption_checkerE...no-op 0s)
(transform N7datalog15mk_rule_inlinerE...no-op 0s)
(transform N7datalog13mk_coi_filterE...no-op 0s)
(transform N7datalog25mk_interp_tail_simplifierE...12 rules 0s)
(transform N7datalog22mk_subsumption_checkerE...no-op 0s)
(transform N7datalog15mk_rule_inlinerE...no-op 0s)
(transform N7datalog22mk_subsumption_checkerE...no-op 0s)
(transform N7datalog15mk_rule_inlinerE...no-op 0s)
(transform N7datalog22mk_subsumption_checkerE...no-op 0s)
(transform N7datalog15mk_rule_inlinerE...no-op 0s)
(transform N7datalog22mk_subsumption_checkerE...no-op 0s)
expand: query!0 (0, 0) FAR  w(0) 1. F 0.00
(spacer::context::check_reachability :time 0.00 :before-memory 12.19 :after-memory 12.69)
Entering level 1
BRUNCH_STAT max_query_lvl 0
BRUNCH_STAT num_queries 0
BRUNCH_STAT num_reach_queries 0
BRUNCH_STAT num_reach_reuse 0
BRUNCH_STAT inductive_lvl 0
BRUNCH_STAT max_depth 1
BRUNCH_STAT cex_depth 0
expand: query!0 (1, 0) FAR  w(0) 1.
	create_child: ERR (0, 1) FAR 1 U 0.00
expand: ERR (0, 0) FAR  w(0) 1. F 0.00
expand: query!0 (1, 0) FAR  w(0) 1. F 0.00
(spacer::context::check_reachability :time 0.00 :before-memory 12.69 :after-memory 13.12)
Propagating: 0 1  ! 2 
(spacer::context::propagate :time 0.00 :before-memory 13.12 :after-memory 13.12)
Entering level 2
BRUNCH_STAT max_query_lvl 1
BRUNCH_STAT num_queries 1
BRUNCH_STAT num_reach_queries 0
BRUNCH_STAT num_reach_reuse 0
BRUNCH_STAT inductive_lvl 0
BRUNCH_STAT max_depth 2
BRUNCH_STAT cex_depth 0
expand: query!0 (2, 0) FAR  w(0) 1.
	create_child: ERR (1, 2) FAR 1 U 0.00
expand: ERR (1, 0) FAR  w(0) 1.
	create_child: MAIN (0, 2) FAR 1453 U 0.00
expand: MAIN (0, 0) FAR  w(0) 1453. F 0.00
expand: ERR (1, 0) FAR  w(0) 1. F 0.00
expand: query!0 (2, 0) FAR  w(0) 1. F 0.00
(spacer::context::check_reachability :time 0.00 :before-memory 13.12 :after-memory 13.75)
Propagating: 0 1 2  ! 3 
(spacer::context::propagate :time 0.00 :before-memory 13.75 :after-memory 13.75)
Entering level 3
BRUNCH_STAT max_query_lvl 2
BRUNCH_STAT num_queries 3
BRUNCH_STAT num_reach_queries 0
BRUNCH_STAT num_reach_reuse 0
BRUNCH_STAT inductive_lvl 0
BRUNCH_STAT max_depth 3
BRUNCH_STAT cex_depth 0
expand: query!0 (3, 0) FAR  w(0) 1.
	create_child: ERR (2, 3) FAR 1 U 0.00
expand: ERR (2, 0) FAR  w(0) 1.
	create_child: MAIN (1, 3) FAR 1453 U 0.00
expand: MAIN (1, 0) FAR  w(0) 1453.
	create_child: top_step (0, 3) FAR 2388 U 0.00
expand: top_step (0, 0) FAR  w(0) 2388. F 0.00
expand: MAIN (1, 0) FAR  w(0) 1453. F 0.00
expand: ERR (2, 0) FAR  w(0) 1. F 0.00
expand: query!0 (3, 0) FAR  w(0) 1. F 0.00
(spacer::context::check_reachability :time 0.00 :before-memory 13.75 :after-memory 14.40)
Propagating: 0 1 2 3  ! 4 
(spacer::context::propagate :time 0.00 :before-memory 14.40 :after-memory 14.40)
Entering level 4
BRUNCH_STAT max_query_lvl 3
BRUNCH_STAT num_queries 6
BRUNCH_STAT num_reach_queries 0
BRUNCH_STAT num_reach_reuse 0
BRUNCH_STAT inductive_lvl 0
BRUNCH_STAT max_depth 4
BRUNCH_STAT cex_depth 0
expand: query!0 (4, 0) FAR  w(0) 1.
	create_child: ERR (3, 4) FAR 1 U 0.00
expand: ERR (3, 0) FAR  w(0) 1.
	create_child: MAIN (2, 4) FAR 1453 U 0.00
expand: MAIN (2, 0) FAR  w(0) 1453.
	create_child: top_step (1, 4) FAR 2388 U 0.00
expand: top_step (1, 0) FAR  w(0) 2388.
	create_child: fedge_step (0, 4) FAR 4528 U 0.00
expand: fedge_step (0, 0) FAR  w(0) 4528. F 0.00
expand: top_step (1, 0) FAR  w(0) 2388. F 0.00
expand: MAIN (2, 0) FAR  w(0) 1453. F 0.00
expand: ERR (3, 0) FAR  w(0) 1. F 0.00
expand: query!0 (4, 0) FAR  w(0) 1. F 0.00
(spacer::context::check_reachability :time 0.00 :before-memory 14.40 :after-memory 14.96)
Propagating: 0 1 2 3 4  ! 5 
(spacer::context::propagate :time 0.00 :before-memory 14.96 :after-memory 14.96)
Entering level 5
BRUNCH_STAT max_query_lvl 4
BRUNCH_STAT num_queries 10
BRUNCH_STAT num_reach_queries 0
BRUNCH_STAT num_reach_reuse 0
BRUNCH_STAT inductive_lvl 0
BRUNCH_STAT max_depth 5
BRUNCH_STAT cex_depth 0
expand: query!0 (5, 0) FAR  w(0) 1.
	create_child: ERR (4, 5) FAR 1 U 0.00
expand: ERR (4, 0) FAR  w(0) 1.
	create_child: MAIN (3, 5) FAR 1453 U 0.00
expand: MAIN (3, 0) FAR  w(0) 1453.
	create_child: top_step (2, 5) FAR 2388 U 0.00
expand: top_step (2, 0) FAR  w(0) 2388.
	create_child: fedge_step (1, 5) FAR 4528 U 0.00
expand: fedge_step (1, 0) FAR  w(0) 4528.
	create_child: redge_step (0, 5) FAR 4818 U 0.00
expand: redge_step (0, 0) FAR  w(0) 4818. F 0.00
expand: fedge_step (1, 0) FAR  w(0) 4528. F 0.00
expand: top_step (2, 0) FAR  w(0) 2388.
	create_child: fedge_step (1, 5) FAR 722 U 0.00
expand: fedge_step (1, 0) FAR  w(0) 722.
	create_child: fedge_step (1, 5) FAR 5490 X 0.00
expand: fedge_step (1, 0) FAR  w(0) 5490.
	create_child: redge_step (1, 5) FAR 5520 X 0.00
expand: redge_step (1, 0) FAR  w(0) 5520.
	create_child: redge_step (1, 5) FAR 5520 X 0.00
expand: redge_step (1, 0) FAR  w(0) 5520.
	create_child: sustain_step (1, 5) FAR 5553 X 0.00
expand: sustain_step (1, 0) FAR  w(0) 5553.
	create_child: redge_step (1, 5) FAR 1222 X 0.00
expand: redge_step (1, 0) FAR  w(0) 1222.
	create_child: redge_step (1, 5) FAR 5820 X 0.00
expand: redge_step (1, 0) FAR  w(0) 5820. T 0.00
is-reachable: top_step (2, 0) FAR 2388
	create_child: top_reset (2, 5) FAR 6626 X 0.00
is-reachable: top_reset (2, 0) FAR 6626 F 0.00
expand: top_reset (2, 0) FAR  w(0) 6626. F 0.00
expand: MAIN (3, 0) FAR  w(0) 1453.
	create_child: top_step (2, 5) FAR 8053 U 0.00
expand: top_step (2, 0) FAR  w(0) 8053. F 0.00
expand: MAIN (3, 0) FAR  w(0) 1453. F 0.00
expand: ERR (4, 0) FAR  w(0) 1. F 0.00
expand: query!0 (5, 0) FAR  w(0) 1. F 0.00
(spacer::context::check_reachability :time 0.02 :before-memory 14.96 :after-memory 18.81)
Propagating: 0 1 2 3 4 5  ! 6 
(spacer::context::propagate :time 0.00 :before-memory 18.81 :after-memory 18.81)
Entering level 6
BRUNCH_STAT max_query_lvl 5
BRUNCH_STAT num_queries 17
BRUNCH_STAT num_reach_queries 3
BRUNCH_STAT num_reach_reuse 2
BRUNCH_STAT inductive_lvl 0
BRUNCH_STAT max_depth 6
BRUNCH_STAT cex_depth 0
expand: query!0 (6, 0) FAR  w(0) 1.
	create_child: ERR (5, 6) FAR 1 U 0.00
expand: ERR (5, 0) FAR  w(0) 1.
	create_child: MAIN (4, 6) FAR 1453 U 0.00
expand: MAIN (4, 0) FAR  w(0) 1453.
	create_child: MAIN (3, 6) FAR 8353 U 0.00
expand: MAIN (3, 0) FAR  w(0) 8353.
	create_child: top_step (2, 6) FAR 8309 U 0.00
expand: top_step (2, 0) FAR  w(0) 8309.
	create_child: fedge_step (1, 6) FAR 8348 U 0.00
expand: fedge_step (1, 0) FAR  w(0) 8348.
	create_child: redge_step (0, 6) FAR 8405 U 0.00
expand: redge_step (0, 0) FAR  w(0) 8405. F 0.00
expand: fedge_step (1, 0) FAR  w(0) 8348. F 0.00
expand: top_step (2, 0) FAR  w(0) 8309. F 0.00
expand: MAIN (3, 0) FAR  w(0) 8353. F 0.00
expand: MAIN (4, 0) FAR  w(0) 1453.
	create_child: MAIN (3, 6) FAR 8628 U 0.00
expand: MAIN (3, 0) FAR  w(0) 8628.
	create_child: top_step (2, 6) FAR 8645 U 0.00
expand: top_step (2, 0) FAR  w(0) 8645.
	create_child: fedge_step (1, 6) FAR 8671 U 0.00
expand: fedge_step (1, 0) FAR  w(0) 8671.
	create_child: redge_step (0, 6) FAR 8394 U 0.00
expand: redge_step (0, 0) FAR  w(0) 8394. F 0.00
expand: fedge_step (1, 0) FAR  w(0) 8671. F 0.00
expand: top_step (2, 0) FAR  w(0) 8645. F 0.00
expand: MAIN (3, 0) FAR  w(0) 8628. F 0.00
expand: MAIN (4, 0) FAR  w(0) 1453.
	create_child: MAIN (3, 6) FAR 8996 U 0.00
expand: MAIN (3, 0) FAR  w(0) 8996.
	create_child: top_step (2, 6) FAR 9005 U 0.00
expand: top_step (2, 0) FAR  w(0) 9005. F 0.00
expand: MAIN (3, 0) FAR  w(0) 8996. F 0.00
expand: MAIN (4, 0) FAR  w(0) 1453.
	create_child: MAIN (3, 6) FAR 9114 U 0.00
expand: MAIN (3, 0) FAR  w(0) 9114.
	create_child: top_step (2, 6) FAR 9094 U 0.00
expand: top_step (2, 0) FAR  w(0) 9094. F 0.00
expand: MAIN (3, 0) FAR  w(0) 9114. F 0.00
expand: MAIN (4, 0) FAR  w(0) 1453.
	create_child: MAIN (3, 6) FAR 9217 U 0.00
expand: MAIN (3, 0) FAR  w(0) 9217.
	create_child: top_step (2, 6) FAR 9244 U 0.00
expand: top_step (2, 0) FAR  w(0) 9244. F 0.00
expand: MAIN (3, 0) FAR  w(0) 9217. F 0.00
expand: MAIN (4, 0) FAR  w(0) 1453.
	create_child: MAIN (3, 6) FAR 9433 U 0.00
expand: MAIN (3, 0) FAR  w(0) 9433.
	create_child: top_step (2, 6) FAR 9459 U 0.00
expand: top_step (2, 0) FAR  w(0) 9459.
	create_child: top_reset (2, 6) FAR 9487 X 0.00
expand: top_reset (2, 0) FAR  w(0) 9487.
	create_child: redge_reset (1, 6) FAR 9748 U 0.00
expand: redge_reset (1, 0) FAR  w(0) 9748. F 0.00
expand: top_reset (2, 0) FAR  w(0) 9487. F 0.00
expand: MAIN (3, 0) FAR  w(0) 9433.
	create_child: top_reset (2, 6) FAR 10011 U 0.00
expand: top_reset (2, 0) FAR  w(0) 10011. F 0.00
expand: MAIN (3, 0) FAR  w(0) 9433.
	create_child: top_step (2, 6) FAR 10094 U 0.00
expand: top_step (2, 0) FAR  w(0) 10094.
	create_child: top_reset (2, 6) FAR 10382 X 0.00
expand: top_reset (2, 0) FAR  w(0) 10382. F 0.00
expand: MAIN (3, 0) FAR  w(0) 9433.
	create_child: top_step (2, 6) FAR 10546 U 0.00
expand: top_step (2, 0) FAR  w(0) 10546.
	create_child: top_reset (2, 6) FAR 10825 X 0.00
expand: top_reset (2, 0) FAR  w(0) 10825. F 0.00
expand: MAIN (3, 0) FAR  w(0) 9433.
	create_child: top_reset (2, 6) FAR 10044 U 0.00
expand: top_reset (2, 0) FAR  w(0) 10044.
	create_child: fedge_reset (1, 6) FAR 1176 U 0.00
expand: fedge_reset (1, 0) FAR  w(0) 1176.
	create_child: fedge_reset (1, 6) FAR 11038 X 0.00
expand: fedge_reset (1, 0) FAR  w(0) 11038. F 0.00
expand: top_reset (2, 0) FAR  w(0) 10044. F 0.00
expand: MAIN (3, 0) FAR  w(0) 9433.
	create_child: top_reset (2, 6) FAR 11403 U 0.00
expand: top_reset (2, 0) FAR  w(0) 11403. T 0.00
is-reachable: MAIN (3, 0) FAR 9433 T 0.00
is-reachable: MAIN (4, 0) FAR 1453 T 0.00
is-reachable: ERR (5, 0) FAR 1 T 0.00
is-reachable: query!0 (6, 0) FAR 1 T 0.00
(spacer::context::check_reachability :time 0.05 :before-memory 18.81 :after-memory 21.09)
BRUNCH_STAT max_query_lvl 6
BRUNCH_STAT num_queries 42
BRUNCH_STAT num_reach_queries 12
BRUNCH_STAT num_reach_reuse 51
BRUNCH_STAT inductive_lvl 0
BRUNCH_STAT max_depth 6
BRUNCH_STAT cex_depth 6
(:SPACER-cex-depth                     6
 :SPACER-max-depth                     6
 :SPACER-max-query-lvl                 6
 :SPACER-num-invariants                20
 :SPACER-num-lemmas                    43
 :SPACER-num-properties                31
 :SPACER-num-queries                   42
 :SPACER-num-reach-queries             12
 :SPACER-num-reuse-reach-facts         51
 :bool-inductive-gen                   26
 :bool-inductive-gen-failures          36
 :conflicts                            196
 :decisions                            1674
 :del-clause                           126
 :final-checks                         109
 :minimized-lits                       1
 :mk-bool-var                          2267
 :mk-clause                            2811
 :num-checks                           265
 :propagations                         16296
 :time.itp_solver.itp_core             0.00
 :time.spacer.init_rules               0.01
 :time.spacer.init_rules.pt.init       0.00
 :time.spacer.solve                    0.08
 :time.spacer.solve.propagate          0.00
 :time.spacer.solve.pt.must_reachable  0.01
 :time.spacer.solve.reach              0.08
 :time.spacer.solve.reach.children     0.02
 :time.spacer.solve.reach.gen.bool_ind 0.00
 :time.spacer.solve.reach.is-reach     0.01
 :time.virtual_solver.proof            0.00
 :time.virtual_solver.smt.total        0.04
 :time.virtual_solver.smt.total.sat    0.02
 :virtual_solver.checks                265
 :virtual_solver.checks.sat            109)
BRUNCH_STAT max_query_lvl 6
BRUNCH_STAT num_queries 42
BRUNCH_STAT num_reach_queries 12
BRUNCH_STAT num_reach_reuse 51
BRUNCH_STAT inductive_lvl 0
BRUNCH_STAT max_depth 6
BRUNCH_STAT cex_depth 6

real	0m0.117s
user	0m0.096s
sys	0m0.020s
