(transform N7datalog13mk_coi_filterE...no-op 0s)
(transform N7datalog25mk_interp_tail_simplifierE...12 rules 0s)
(transform N7datalog27mk_quantifier_instantiationE...no-op 0s)
(transform N7datalog8mk_scaleE...no-op 0s)
(transform N7datalog18mk_karr_invariantsE...no-op 0s)
(transform N7datalog14mk_array_blastE...no-op 0s)
(transform N7datalog22mk_subsumption_checkerE...11 rules 0s)
(transform N7datalog12mk_bit_blastE...no-op 0s)
(transform N7datalog15mk_rule_inlinerE...no-op 0s)
(transform N7datalog13mk_coi_filterE...no-op 0s)
(transform N7datalog25mk_interp_tail_simplifierE...11 rules 0s)
(transform N7datalog22mk_subsumption_checkerE...no-op 0s)
(transform N7datalog15mk_rule_inlinerE...no-op 0s)
(transform N7datalog13mk_coi_filterE...no-op 0s)
(transform N7datalog25mk_interp_tail_simplifierE...11 rules 0s)
(transform N7datalog22mk_subsumption_checkerE...no-op 0s)
(transform N7datalog15mk_rule_inlinerE...no-op 0s)
(transform N7datalog22mk_subsumption_checkerE...no-op 0s)
(transform N7datalog15mk_rule_inlinerE...no-op 0s)
(transform N7datalog22mk_subsumption_checkerE...no-op 0s)
(transform N7datalog15mk_rule_inlinerE...no-op 0s)
(transform N7datalog22mk_subsumption_checkerE...no-op 0s)
expand: query!0 (0, 0) FAR  w(0) 1. F 0.00
(spacer::context::check_reachability :time 0.00 :before-memory 11.63 :after-memory 12.12)
Entering level 1
BRUNCH_STAT max_query_lvl 0
BRUNCH_STAT num_queries 0
BRUNCH_STAT num_reach_queries 0
BRUNCH_STAT num_reach_reuse 0
BRUNCH_STAT inductive_lvl 0
BRUNCH_STAT max_depth 1
BRUNCH_STAT cex_depth 0
expand: query!0 (1, 0) FAR  w(0) 1.
	create_child: ERR (0, 1) FAR 1 U 0.00
expand: ERR (0, 0) FAR  w(0) 1. F 0.00
expand: query!0 (1, 0) FAR  w(0) 1. F 0.00
(spacer::context::check_reachability :time 0.00 :before-memory 12.12 :after-memory 12.55)
Propagating: 0 1  ! 2 
(spacer::context::propagate :time 0.00 :before-memory 12.55 :after-memory 12.55)
Entering level 2
BRUNCH_STAT max_query_lvl 1
BRUNCH_STAT num_queries 1
BRUNCH_STAT num_reach_queries 0
BRUNCH_STAT num_reach_reuse 0
BRUNCH_STAT inductive_lvl 0
BRUNCH_STAT max_depth 2
BRUNCH_STAT cex_depth 0
expand: query!0 (2, 0) FAR  w(0) 1.
	create_child: ERR (1, 2) FAR 1 U 0.00
expand: ERR (1, 0) FAR  w(0) 1.
	create_child: MAIN (0, 2) FAR 3154 U 0.00
expand: MAIN (0, 0) FAR  w(0) 3154. F 0.00
expand: ERR (1, 0) FAR  w(0) 1. F 0.00
expand: query!0 (2, 0) FAR  w(0) 1. F 0.00
(spacer::context::check_reachability :time 0.00 :before-memory 12.55 :after-memory 13.12)
Propagating: 0 1 2  ! 3 
(spacer::context::propagate :time 0.00 :before-memory 13.12 :after-memory 13.12)
Entering level 3
BRUNCH_STAT max_query_lvl 2
BRUNCH_STAT num_queries 3
BRUNCH_STAT num_reach_queries 0
BRUNCH_STAT num_reach_reuse 0
BRUNCH_STAT inductive_lvl 0
BRUNCH_STAT max_depth 3
BRUNCH_STAT cex_depth 0
expand: query!0 (3, 0) FAR  w(0) 1.
	create_child: ERR (2, 3) FAR 1 U 0.00
expand: ERR (2, 0) FAR  w(0) 1.
	create_child: MAIN (1, 3) FAR 3154 U 0.00
expand: MAIN (1, 0) FAR  w(0) 3154.
	create_child: top_step (0, 3) FAR 4134 U 0.00
expand: top_step (0, 0) FAR  w(0) 4134. F 0.01
expand: MAIN (1, 0) FAR  w(0) 3154. F 0.00
expand: ERR (2, 0) FAR  w(0) 1. F 0.00
expand: query!0 (3, 0) FAR  w(0) 1. F 0.00
(spacer::context::check_reachability :time 0.01 :before-memory 13.12 :after-memory 14.38)
Propagating: 0 1 2 3  ! 4 
(spacer::context::propagate :time 0.00 :before-memory 14.38 :after-memory 14.47)
Entering level 4
BRUNCH_STAT max_query_lvl 3
BRUNCH_STAT num_queries 6
BRUNCH_STAT num_reach_queries 0
BRUNCH_STAT num_reach_reuse 0
BRUNCH_STAT inductive_lvl 0
BRUNCH_STAT max_depth 4
BRUNCH_STAT cex_depth 0
expand: query!0 (4, 0) FAR  w(0) 1.
	create_child: ERR (3, 4) FAR 1 U 0.00
expand: ERR (3, 0) FAR  w(0) 1.
	create_child: MAIN (2, 4) FAR 3154 U 0.00
expand: MAIN (2, 0) FAR  w(0) 3154.
	create_child: top_step (1, 4) FAR 4134 U 0.00
expand: top_step (1, 0) FAR  w(0) 4134.
	create_child: top_reset (1, 4) FAR 12144 X 0.01
expand: top_reset (1, 0) FAR  w(0) 12144.
	create_child: Sofar_reset (0, 4) FAR 12747 U 0.00
expand: Sofar_reset (0, 0) FAR  w(0) 12747. F 0.00
expand: top_reset (1, 0) FAR  w(0) 12144. F 0.00
expand: MAIN (2, 0) FAR  w(0) 3154.
	create_child: top_reset (1, 4) FAR 17600 U 0.01
expand: top_reset (1, 0) FAR  w(0) 17600.
	create_child: readwrite_reset (0, 4) FAR 17657 U 0.00
expand: readwrite_reset (0, 0) FAR  w(0) 17657. F 0.00
expand: top_reset (1, 0) FAR  w(0) 17600. F 0.00
expand: MAIN (2, 0) FAR  w(0) 3154.
	create_child: top_step (1, 4) FAR 17621 U 0.00
expand: top_step (1, 0) FAR  w(0) 17621.
	create_child: readwrite_step (0, 4) FAR 18316 U 0.01
expand: readwrite_step (0, 0) FAR  w(0) 18316. F 0.01
expand: top_step (1, 0) FAR  w(0) 17621. F 0.00
expand: MAIN (2, 0) FAR  w(0) 3154. F 0.00
expand: ERR (3, 0) FAR  w(0) 1. F 0.00
expand: query!0 (4, 0) FAR  w(0) 1. F 0.00
(spacer::context::check_reachability :time 0.04 :before-memory 14.47 :after-memory 20.70)
Propagating: 0 1 2 3 4  ! 5 
(spacer::context::propagate :time 0.00 :before-memory 20.70 :after-memory 20.70)
Entering level 5
BRUNCH_STAT max_query_lvl 4
BRUNCH_STAT num_queries 14
BRUNCH_STAT num_reach_queries 1
BRUNCH_STAT num_reach_reuse 7
BRUNCH_STAT inductive_lvl 0
BRUNCH_STAT max_depth 5
BRUNCH_STAT cex_depth 0
expand: query!0 (5, 0) FAR  w(0) 1.
	create_child: ERR (4, 5) FAR 1 U 0.00
expand: ERR (4, 0) FAR  w(0) 1.
	create_child: MAIN (3, 5) FAR 3154 U 0.00
expand: MAIN (3, 0) FAR  w(0) 3154.
	create_child: MAIN (2, 5) FAR 21732 U 0.00
expand: MAIN (2, 0) FAR  w(0) 21732.
	create_child: top_step (1, 5) FAR 21553 U 0.00
expand: top_step (1, 0) FAR  w(0) 21553.
	create_child: readwrite_step (0, 5) FAR 21516 U 0.00
expand: readwrite_step (0, 0) FAR  w(0) 21516. F 0.00
expand: top_step (1, 0) FAR  w(0) 21553. F 0.00
expand: MAIN (2, 0) FAR  w(0) 21732. F 0.00
expand: MAIN (3, 0) FAR  w(0) 3154.
	create_child: top_step (2, 5) FAR 21968 U 0.00
expand: top_step (2, 0) FAR  w(0) 21968.
	create_child: readwrite_step (1, 5) FAR 22349 U 0.00
expand: readwrite_step (1, 0) FAR  w(0) 22349. F 0.00
expand: top_step (2, 0) FAR  w(0) 21968. F 0.00
expand: MAIN (3, 0) FAR  w(0) 3154. F 0.00
expand: ERR (4, 0) FAR  w(0) 1. F 0.00
expand: query!0 (5, 0) FAR  w(0) 1. F 0.00
(spacer::context::check_reachability :time 0.03 :before-memory 20.70 :after-memory 21.13)
Propagating: 0 1 2 3 4 5  ! 6 
(spacer::context::propagate :time 0.00 :before-memory 21.13 :after-memory 21.23)
Entering level 6
BRUNCH_STAT max_query_lvl 5
BRUNCH_STAT num_queries 21
BRUNCH_STAT num_reach_queries 1
BRUNCH_STAT num_reach_reuse 12
BRUNCH_STAT inductive_lvl 0
BRUNCH_STAT max_depth 6
BRUNCH_STAT cex_depth 0
expand: query!0 (6, 0) FAR  w(0) 1.
	create_child: ERR (5, 6) FAR 1 U 0.00
expand: ERR (5, 0) FAR  w(0) 1.
	create_child: MAIN (4, 6) FAR 3154 U 0.00
expand: MAIN (4, 0) FAR  w(0) 3154.
	create_child: MAIN (3, 6) FAR 23358 U 0.00
expand: MAIN (3, 0) FAR  w(0) 23358.
	create_child: top_step (2, 6) FAR 23253 U 0.00
expand: top_step (2, 0) FAR  w(0) 23253. F 0.00
expand: MAIN (3, 0) FAR  w(0) 23358. F 0.00
expand: MAIN (4, 0) FAR  w(0) 3154. F 0.00
expand: ERR (5, 0) FAR  w(0) 1. F 0.00
expand: query!0 (6, 0) FAR  w(0) 1. F 0.00
(spacer::context::check_reachability :time 0.01 :before-memory 21.23 :after-memory 21.33)
Propagating: 2 
(spacer::context::propagate :time 0.00 :before-memory 21.33 :after-memory 21.33)
(define-fun ERR () Bool
  false)
(define-fun readwrite_reset ((x!0 Int)
 (x!1 Int)
 (x!2 Int)
 (x!3 Int)
 (x!4 Int)
 (x!5 Int)
 (x!6 Int)
 (x!7 Int)
 (x!8 Int)
 (x!9 Int)
 (x!10 Int)
 (x!11 Int)
 (x!12 Int)
 (x!13 Bool)
 (x!14 Int)
 (x!15 Int)
 (x!16 Int)
 (x!17 Int)
 (x!18 Int)
 (x!19 Int)
 (x!20 Int)
 (x!21 Int)
 (x!22 Int)
 (x!23 Int)
 (x!24 Int)
 (x!25 Int)
 (x!26 Int)
 (x!27 Bool)) Bool
  x!27)
(define-fun readwrite_step ((x!0 Bool)
 (x!1 Bool)
 (x!2 Bool)
 (x!3 Bool)
 (x!4 Bool)
 (x!5 Bool)
 (x!6 Bool)
 (x!7 Bool)
 (x!8 Bool)
 (x!9 Int)
 (x!10 Int)
 (x!11 Int)
 (x!12 Int)
 (x!13 Int)
 (x!14 Int)
 (x!15 Int)
 (x!16 Int)
 (x!17 Int)
 (x!18 Int)
 (x!19 Int)
 (x!20 Int)
 (x!21 Int)
 (x!22 Int)
 (x!23 Int)
 (x!24 Int)
 (x!25 Int)
 (x!26 Int)
 (x!27 Int)
 (x!28 Int)
 (x!29 Int)
 (x!30 Int)
 (x!31 Int)
 (x!32 Int)
 (x!33 Int)
 (x!34 Int)
 (x!35 Bool)
 (x!36 Int)
 (x!37 Int)
 (x!38 Int)
 (x!39 Int)
 (x!40 Int)
 (x!41 Int)
 (x!42 Int)
 (x!43 Int)
 (x!44 Int)
 (x!45 Int)
 (x!46 Int)
 (x!47 Int)
 (x!48 Int)
 (x!49 Bool)) Bool
  (let ((a!1 (or (>= (+ x!9 (* (- 1) x!26)) 0) (>= x!9 0))))
    (and a!1 (or (>= x!9 0) (not x!35)) (>= (+ x!40 (* (- 1) x!9)) 0))))
(define-fun Sofar_reset ((x!0 Bool) (x!1 Bool) (x!2 Bool) (x!3 Bool)) Bool
  x!3)
(define-fun top_reset ((x!0 Bool)
 (x!1 Bool)
 (x!2 Int)
 (x!3 Int)
 (x!4 Int)
 (x!5 Int)
 (x!6 Int)
 (x!7 Int)
 (x!8 Int)
 (x!9 Int)
 (x!10 Int)
 (x!11 Int)
 (x!12 Int)
 (x!13 Int)
 (x!14 Int)
 (x!15 Bool)
 (x!16 Bool)
 (x!17 Bool)
 (x!18 Int)
 (x!19 Int)
 (x!20 Int)
 (x!21 Int)
 (x!22 Int)
 (x!23 Int)
 (x!24 Int)
 (x!25 Int)
 (x!26 Int)
 (x!27 Int)
 (x!28 Int)
 (x!29 Int)
 (x!30 Int)
 (x!31 Bool)) Bool
  (and x!31 x!17))
(define-fun MAIN ((x!0 Bool)
 (x!1 Bool)
 (x!2 Int)
 (x!3 Int)
 (x!4 Int)
 (x!5 Int)
 (x!6 Int)
 (x!7 Int)
 (x!8 Int)
 (x!9 Int)
 (x!10 Int)
 (x!11 Int)
 (x!12 Int)
 (x!13 Int)
 (x!14 Int)
 (x!15 Bool)
 (x!16 Bool)) Bool
  (and (>= x!6 0) x!16))
(define-fun top_step ((x!0 Bool)
 (x!1 Bool)
 (x!2 Bool)
 (x!3 Bool)
 (x!4 Bool)
 (x!5 Bool)
 (x!6 Bool)
 (x!7 Bool)
 (x!8 Bool)
 (x!9 Bool)
 (x!10 Bool)
 (x!11 Bool)
 (x!12 Int)
 (x!13 Int)
 (x!14 Int)
 (x!15 Int)
 (x!16 Int)
 (x!17 Int)
 (x!18 Int)
 (x!19 Int)
 (x!20 Int)
 (x!21 Int)
 (x!22 Int)
 (x!23 Int)
 (x!24 Int)
 (x!25 Bool)
 (x!26 Bool)
 (x!27 Bool)
 (x!28 Int)
 (x!29 Int)
 (x!30 Int)
 (x!31 Int)
 (x!32 Int)
 (x!33 Int)
 (x!34 Int)
 (x!35 Int)
 (x!36 Int)
 (x!37 Int)
 (x!38 Int)
 (x!39 Int)
 (x!40 Int)
 (x!41 Bool)) Bool
  (and (or (>= x!32 0) (not (>= x!16 0)))
       (or x!9 (not x!25))
       (or (>= x!32 0) (not x!25))
       (or (not (>= x!16 0)) x!9)))
(define-fun excludes9_fun ((x!0 Bool)
 (x!1 Bool)
 (x!2 Bool)
 (x!3 Bool)
 (x!4 Bool)
 (x!5 Bool)
 (x!6 Bool)
 (x!7 Bool)
 (x!8 Bool)
 (x!9 Bool)) Bool
  true)
(define-fun Sofar_step ((x!0 Bool)
 (x!1 Bool)
 (x!2 Bool)
 (x!3 Bool)
 (x!4 Bool)
 (x!5 Bool)) Bool
  true)
BRUNCH_STAT max_query_lvl 6
BRUNCH_STAT num_queries 25
BRUNCH_STAT num_reach_queries 1
BRUNCH_STAT num_reach_reuse 13
BRUNCH_STAT inductive_lvl 2
BRUNCH_STAT max_depth 6
BRUNCH_STAT cex_depth 0
(:SPACER-inductive-level               2
 :SPACER-max-depth                     6
 :SPACER-max-query-lvl                 6
 :SPACER-num-invariants                15
 :SPACER-num-lemmas                    32
 :SPACER-num-properties                17
 :SPACER-num-queries                   25
 :SPACER-num-reach-queries             1
 :SPACER-num-reuse-reach-facts         13
 :added-eqs                            3705
 :arith-add-rows                       933
 :arith-assert-diseq                   617
 :arith-assert-lower                   1614
 :arith-assert-upper                   1823
 :arith-bound-prop                     175
 :arith-conflicts                      12
 :arith-eq-adapter                     950
 :arith-fixed-eqs                      504
 :arith-offset-eqs                     201
 :arith-pivots                         626
 :bool-inductive-gen                   16
 :bool-inductive-gen-failures          22
 :conflicts                            166
 :decisions                            4229
 :del-clause                           1485
 :final-checks                         59
 :mk-bool-var                          5008
 :mk-clause                            7842
 :num-checks                           162
 :propagations                         26617
 :time.itp_solver.itp_core             0.01
 :time.spacer.init_rules               0.01
 :time.spacer.init_rules.pt.init       0.00
 :time.spacer.solve                    0.10
 :time.spacer.solve.propagate          0.01
 :time.spacer.solve.pt.must_reachable  0.01
 :time.spacer.solve.reach              0.09
 :time.spacer.solve.reach.children     0.01
 :time.spacer.solve.reach.gen.bool_ind 0.01
 :time.virtual_solver.proof            0.00
 :time.virtual_solver.smt.total        0.07
 :time.virtual_solver.smt.total.sat    0.03
 :virtual_solver.checks                162
 :virtual_solver.checks.sat            59)
BRUNCH_STAT max_query_lvl 6
BRUNCH_STAT num_queries 25
BRUNCH_STAT num_reach_queries 1
BRUNCH_STAT num_reach_reuse 13
BRUNCH_STAT inductive_lvl 2
BRUNCH_STAT max_depth 6
BRUNCH_STAT cex_depth 0

real	0m0.150s
user	0m0.132s
sys	0m0.016s
