(transform N7datalog13mk_coi_filterE...no-op 0s)
(transform N7datalog25mk_interp_tail_simplifierE...11 rules 0s)
(transform N7datalog27mk_quantifier_instantiationE...no-op 0s)
(transform N7datalog8mk_scaleE...no-op 0s)
(transform N7datalog18mk_karr_invariantsE...no-op 0s)
(transform N7datalog14mk_array_blastE...no-op 0s)
(transform N7datalog22mk_subsumption_checkerE...10 rules 0s)
(transform N7datalog12mk_bit_blastE...no-op 0s)
(transform N7datalog15mk_rule_inlinerE...no-op 0s)
(transform N7datalog13mk_coi_filterE...no-op 0s)
(transform N7datalog25mk_interp_tail_simplifierE...10 rules 0s)
(transform N7datalog22mk_subsumption_checkerE...no-op 0s)
(transform N7datalog15mk_rule_inlinerE...no-op 0s)
(transform N7datalog13mk_coi_filterE...no-op 0s)
(transform N7datalog25mk_interp_tail_simplifierE...10 rules 0s)
(transform N7datalog22mk_subsumption_checkerE...no-op 0s)
(transform N7datalog15mk_rule_inlinerE...no-op 0s)
(transform N7datalog22mk_subsumption_checkerE...no-op 0s)
(transform N7datalog15mk_rule_inlinerE...no-op 0s)
(transform N7datalog22mk_subsumption_checkerE...no-op 0s)
(transform N7datalog15mk_rule_inlinerE...no-op 0s)
(transform N7datalog22mk_subsumption_checkerE...no-op 0s)
expand: query!0 (0, 0) FAR  w(0) 1. F 0.00
(spacer::context::check_reachability :time 0.00 :before-memory 10.35 :after-memory 10.83)
Entering level 1
BRUNCH_STAT max_query_lvl 0
BRUNCH_STAT num_queries 0
BRUNCH_STAT num_reach_queries 0
BRUNCH_STAT num_reach_reuse 0
BRUNCH_STAT inductive_lvl 0
BRUNCH_STAT max_depth 1
BRUNCH_STAT cex_depth 0
expand: query!0 (1, 0) FAR  w(0) 1.
	create_child: ERR (0, 1) FAR 1 U 0.00
expand: ERR (0, 0) FAR  w(0) 1. F 0.00
expand: query!0 (1, 0) FAR  w(0) 1. F 0.00
(spacer::context::check_reachability :time 0.00 :before-memory 10.83 :after-memory 11.26)
Propagating: 0 1  ! 2 
(spacer::context::propagate :time 0.00 :before-memory 11.26 :after-memory 11.26)
Entering level 2
BRUNCH_STAT max_query_lvl 1
BRUNCH_STAT num_queries 1
BRUNCH_STAT num_reach_queries 0
BRUNCH_STAT num_reach_reuse 0
BRUNCH_STAT inductive_lvl 0
BRUNCH_STAT max_depth 2
BRUNCH_STAT cex_depth 0
expand: query!0 (2, 0) FAR  w(0) 1.
	create_child: ERR (1, 2) FAR 1 U 0.00
expand: ERR (1, 0) FAR  w(0) 1.
	create_child: MAIN (0, 2) FAR 993 U 0.00
expand: MAIN (0, 0) FAR  w(0) 993. F 0.00
expand: ERR (1, 0) FAR  w(0) 1. F 0.00
expand: query!0 (2, 0) FAR  w(0) 1. F 0.00
(spacer::context::check_reachability :time 0.00 :before-memory 11.26 :after-memory 11.71)
Propagating: 0 1 2  ! 3 
(spacer::context::propagate :time 0.00 :before-memory 11.71 :after-memory 11.71)
Entering level 3
BRUNCH_STAT max_query_lvl 2
BRUNCH_STAT num_queries 3
BRUNCH_STAT num_reach_queries 0
BRUNCH_STAT num_reach_reuse 0
BRUNCH_STAT inductive_lvl 0
BRUNCH_STAT max_depth 3
BRUNCH_STAT cex_depth 0
expand: query!0 (3, 0) FAR  w(0) 1.
	create_child: ERR (2, 3) FAR 1 U 0.00
expand: ERR (2, 0) FAR  w(0) 1.
	create_child: MAIN (1, 3) FAR 993 U 0.00
expand: MAIN (1, 0) FAR  w(0) 993.
	create_child: top_step (0, 3) FAR 1466 U 0.00
expand: top_step (0, 0) FAR  w(0) 1466. F 0.00
expand: MAIN (1, 0) FAR  w(0) 993. F 0.00
expand: ERR (2, 0) FAR  w(0) 1. F 0.00
expand: query!0 (3, 0) FAR  w(0) 1. F 0.00
(spacer::context::check_reachability :time 0.00 :before-memory 11.71 :after-memory 12.22)
Propagating: 0 1 2 3  ! 4 
(spacer::context::propagate :time 0.00 :before-memory 12.22 :after-memory 12.22)
Entering level 4
BRUNCH_STAT max_query_lvl 3
BRUNCH_STAT num_queries 6
BRUNCH_STAT num_reach_queries 0
BRUNCH_STAT num_reach_reuse 0
BRUNCH_STAT inductive_lvl 0
BRUNCH_STAT max_depth 4
BRUNCH_STAT cex_depth 0
expand: query!0 (4, 0) FAR  w(0) 1.
	create_child: ERR (3, 4) FAR 1 U 0.00
expand: ERR (3, 0) FAR  w(0) 1.
	create_child: MAIN (2, 4) FAR 993 U 0.00
expand: MAIN (2, 0) FAR  w(0) 993.
	create_child: top_step (1, 4) FAR 1466 U 0.00
expand: top_step (1, 0) FAR  w(0) 1466.
	create_child: speed_step (0, 4) FAR 611 U 0.00
expand: speed_step (0, 0) FAR  w(0) 611. F 0.00
expand: top_step (1, 0) FAR  w(0) 1466. F 0.00
expand: MAIN (2, 0) FAR  w(0) 993. F 0.00
expand: ERR (3, 0) FAR  w(0) 1. F 0.00
expand: query!0 (4, 0) FAR  w(0) 1. F 0.00
(spacer::context::check_reachability :time 0.00 :before-memory 12.22 :after-memory 12.93)
Propagating: 0 1 2 3 4  ! 5 
(spacer::context::propagate :time 0.00 :before-memory 12.93 :after-memory 12.93)
Entering level 5
BRUNCH_STAT max_query_lvl 4
BRUNCH_STAT num_queries 10
BRUNCH_STAT num_reach_queries 0
BRUNCH_STAT num_reach_reuse 0
BRUNCH_STAT inductive_lvl 0
BRUNCH_STAT max_depth 5
BRUNCH_STAT cex_depth 0
expand: query!0 (5, 0) FAR  w(0) 1.
	create_child: ERR (4, 5) FAR 1 U 0.00
expand: ERR (4, 0) FAR  w(0) 1.
	create_child: MAIN (3, 5) FAR 993 U 0.00
expand: MAIN (3, 0) FAR  w(0) 993.
	create_child: top_step (2, 5) FAR 1466 U 0.00
expand: top_step (2, 0) FAR  w(0) 1466.
	create_child: speed_step (1, 5) FAR 611 U 0.00
expand: speed_step (1, 0) FAR  w(0) 611. T 0.00
is-reachable: top_step (2, 0) FAR 1466
	create_child: top_reset (2, 5) FAR 3924 X 0.00
is-reachable: top_reset (2, 0) FAR 3924 F 0.00
expand: top_reset (2, 0) FAR  w(0) 3924. F 0.00
expand: MAIN (3, 0) FAR  w(0) 993.
	create_child: top_step (2, 5) FAR 4519 U 0.00
expand: top_step (2, 0) FAR  w(0) 4519. F 0.00
expand: MAIN (3, 0) FAR  w(0) 993. F 0.00
expand: ERR (4, 0) FAR  w(0) 1. F 0.00
expand: query!0 (5, 0) FAR  w(0) 1. F 0.00
(spacer::context::check_reachability :time 0.01 :before-memory 12.93 :after-memory 14.26)
Propagating: 2 3 4 5  ! 6 
(spacer::context::propagate :time 0.00 :before-memory 14.26 :after-memory 14.26)
Entering level 6
BRUNCH_STAT max_query_lvl 5
BRUNCH_STAT num_queries 15
BRUNCH_STAT num_reach_queries 2
BRUNCH_STAT num_reach_reuse 1
BRUNCH_STAT inductive_lvl 0
BRUNCH_STAT max_depth 6
BRUNCH_STAT cex_depth 0
expand: query!0 (6, 0) FAR  w(0) 1.
	create_child: ERR (5, 6) FAR 1 U 0.00
expand: ERR (5, 0) FAR  w(0) 1.
	create_child: MAIN (4, 6) FAR 993 U 0.00
expand: MAIN (4, 0) FAR  w(0) 993.
	create_child: MAIN (3, 6) FAR 4820 U 0.00
expand: MAIN (3, 0) FAR  w(0) 4820.
	create_child: top_step (2, 6) FAR 4863 U 0.00
expand: top_step (2, 0) FAR  w(0) 4863.
	create_child: speed_step (1, 6) FAR 4926 U 0.00
expand: speed_step (1, 0) FAR  w(0) 4926. F 0.00
expand: top_step (2, 0) FAR  w(0) 4863. F 0.00
expand: MAIN (3, 0) FAR  w(0) 4820. F 0.00
expand: MAIN (4, 0) FAR  w(0) 993.
	create_child: MAIN (3, 6) FAR 5561 U 0.00
expand: MAIN (3, 0) FAR  w(0) 5561.
	create_child: top_step (2, 6) FAR 5545 U 0.00
expand: top_step (2, 0) FAR  w(0) 5545.
	create_child: speed_step (1, 6) FAR 5656 U 0.00
expand: speed_step (1, 0) FAR  w(0) 5656.
	create_child: COUNTER_step (0, 6) FAR 5719 U 0.00
expand: COUNTER_step (0, 0) FAR  w(0) 5719. F 0.00
expand: speed_step (1, 0) FAR  w(0) 5656. F 0.00
expand: top_step (2, 0) FAR  w(0) 5545. F 0.00
expand: MAIN (3, 0) FAR  w(0) 5561. F 0.00
expand: MAIN (4, 0) FAR  w(0) 993.
	create_child: MAIN (3, 6) FAR 6266 U 0.00
expand: MAIN (3, 0) FAR  w(0) 6266. F 0.00
expand: MAIN (4, 0) FAR  w(0) 993.
	create_child: top_step (3, 6) FAR 6373 U 0.00
expand: top_step (3, 0) FAR  w(0) 6373. F 0.00
expand: MAIN (4, 0) FAR  w(0) 993.
	create_child: top_step (3, 6) FAR 6461 U 0.00
expand: top_step (3, 0) FAR  w(0) 6461.
	create_child: speed_step (2, 6) FAR 6562 U 0.00
expand: speed_step (2, 0) FAR  w(0) 6562.
	create_child: COUNTER_step (1, 6) FAR 6746 U 0.00
expand: COUNTER_step (1, 0) FAR  w(0) 6746. F 0.00
expand: speed_step (2, 0) FAR  w(0) 6562.
	create_child: COUNTER_step (1, 6) FAR 6995 U 0.00
expand: COUNTER_step (1, 0) FAR  w(0) 6995. F 0.00
expand: speed_step (2, 0) FAR  w(0) 6562.
	create_child: COUNTER_step (1, 6) FAR 6991 U 0.00
expand: COUNTER_step (1, 0) FAR  w(0) 6991. F 0.00
expand: speed_step (2, 0) FAR  w(0) 6562.
	create_child: COUNTER_step (1, 6) FAR 7174 U 0.00
expand: COUNTER_step (1, 0) FAR  w(0) 7174. F 0.00
expand: speed_step (2, 0) FAR  w(0) 6562. F 0.00
expand: top_step (3, 0) FAR  w(0) 6461. F 0.00
expand: MAIN (4, 0) FAR  w(0) 993. F 0.00
expand: ERR (5, 0) FAR  w(0) 1. F 0.00
expand: query!0 (6, 0) FAR  w(0) 1. F 0.00
(spacer::context::check_reachability :time 0.04 :before-memory 14.26 :after-memory 15.46)
Propagating: 0 1 2 3 
(spacer::context::propagate :time 0.00 :before-memory 15.46 :after-memory 15.46)
(define-fun ERR () Bool
  false)
(define-fun top_step ((x!0 Bool)
 (x!1 Bool)
 (x!2 Bool)
 (x!3 Bool)
 (x!4 Bool)
 (x!5 Bool)
 (x!6 Bool)
 (x!7 Bool)
 (x!8 Int)
 (x!9 Bool)
 (x!10 Bool)
 (x!11 Bool)
 (x!12 Bool)
 (x!13 Bool)
 (x!14 Bool)
 (x!15 Int)
 (x!16 Bool)) Bool
  (and (or (<= x!8 0) x!2)
       (or (not x!4) x!2)
       (or x!13 (not x!10))
       (or (not (<= x!15 0)) (not x!10))
       (or x!2 x!3)))
(define-fun COUNTER_reset ((x!0 Int) (x!1 Bool) (x!2 Int) (x!3 Bool)) Bool
  true)
(define-fun speed_step ((x!0 Bool)
 (x!1 Bool)
 (x!2 Bool)
 (x!3 Bool)
 (x!4 Bool)
 (x!5 Bool)
 (x!6 Bool)
 (x!7 Int)
 (x!8 Bool)
 (x!9 Bool)
 (x!10 Bool)
 (x!11 Bool)
 (x!12 Int)
 (x!13 Bool)) Bool
  (and (or (<= x!7 0) (not x!2))
       (or (not x!3) x!10)
       (or (not (<= x!12 0)) (not x!3))))
(define-fun speed_reset ((x!0 Bool)
 (x!1 Bool)
 (x!2 Bool)
 (x!3 Int)
 (x!4 Bool)
 (x!5 Bool)
 (x!6 Bool)
 (x!7 Bool)
 (x!8 Int)
 (x!9 Bool)) Bool
  true)
(define-fun MAIN ((x!0 Bool)
 (x!1 Bool)
 (x!2 Bool)
 (x!3 Bool)
 (x!4 Bool)
 (x!5 Int)
 (x!6 Bool)
 (x!7 Bool)) Bool
  (and (or (not (<= x!5 0)) (not x!0)) x!7 (or (not x!0) x!3)))
(define-fun COUNTER_step ((x!0 Int)
 (x!1 Int)
 (x!2 Bool)
 (x!3 Bool)
 (x!4 Int)
 (x!5 Int)
 (x!6 Bool)
 (x!7 Int)
 (x!8 Bool)) Bool
  (let ((a!1 (or (<= (+ x!0 (* (- 1) x!4)) 0)
                 (not (<= x!4 0))
                 (<= x!1 0)
                 (<= x!5 0))))
    (and a!1
         (>= (+ x!7 (* (- 1) x!4)) 0)
         (or (not (>= x!5 (- 9))) x!2 (not (<= x!4 (- 10))) (not (>= x!0 0)))
         (or (= x!4 0) x!2 (not (<= x!4 0)) (not (>= x!0 0)) (<= x!5 0))
         (or (<= x!1 0)
             (not (<= x!4 (- 10)))
             (not (>= x!0 0))
             (not (>= x!5 (- 9)))))))
(define-fun top_reset ((x!0 Bool)
 (x!1 Bool)
 (x!2 Bool)
 (x!3 Bool)
 (x!4 Bool)
 (x!5 Int)
 (x!6 Bool)
 (x!7 Bool)
 (x!8 Bool)
 (x!9 Bool)
 (x!10 Bool)
 (x!11 Bool)
 (x!12 Int)
 (x!13 Bool)) Bool
  x!8)
BRUNCH_STAT max_query_lvl 6
BRUNCH_STAT num_queries 32
BRUNCH_STAT num_reach_queries 2
BRUNCH_STAT num_reach_reuse 4
BRUNCH_STAT inductive_lvl 3
BRUNCH_STAT max_depth 6
BRUNCH_STAT cex_depth 0
(:SPACER-inductive-level               3
 :SPACER-max-depth                     6
 :SPACER-max-query-lvl                 6
 :SPACER-num-invariants                20
 :SPACER-num-lemmas                    38
 :SPACER-num-properties                22
 :SPACER-num-queries                   32
 :SPACER-num-reach-queries             2
 :SPACER-num-reuse-reach-facts         4
 :added-eqs                            774
 :arith-add-rows                       203
 :arith-assert-diseq                   183
 :arith-assert-lower                   532
 :arith-assert-upper                   610
 :arith-bound-prop                     80
 :arith-conflicts                      11
 :arith-eq-adapter                     235
 :arith-fixed-eqs                      150
 :arith-offset-eqs                     66
 :arith-pivots                         114
 :bool-inductive-gen                   19
 :bool-inductive-gen-failures          43
 :conflicts                            196
 :decisions                            1317
 :del-clause                           100
 :final-checks                         99
 :minimized-lits                       7
 :mk-bool-var                          1901
 :mk-clause                            1434
 :num-checks                           240
 :propagations                         10485
 :time.itp_solver.itp_core             0.00
 :time.spacer.init_rules               0.01
 :time.spacer.init_rules.pt.init       0.00
 :time.spacer.solve                    0.06
 :time.spacer.solve.propagate          0.00
 :time.spacer.solve.pt.must_reachable  0.00
 :time.spacer.solve.reach              0.05
 :time.spacer.solve.reach.children     0.01
 :time.spacer.solve.reach.gen.bool_ind 0.01
 :time.spacer.solve.reach.is-reach     0.00
 :time.virtual_solver.proof            0.00
 :time.virtual_solver.smt.total        0.04
 :time.virtual_solver.smt.total.sat    0.02
 :virtual_solver.checks                240
 :virtual_solver.checks.sat            99)
BRUNCH_STAT max_query_lvl 6
BRUNCH_STAT num_queries 32
BRUNCH_STAT num_reach_queries 2
BRUNCH_STAT num_reach_reuse 4
BRUNCH_STAT inductive_lvl 3
BRUNCH_STAT max_depth 6
BRUNCH_STAT cex_depth 0

real	0m0.093s
user	0m0.072s
sys	0m0.020s
