(transform N7datalog13mk_coi_filterE...no-op 0s)
(transform N7datalog25mk_interp_tail_simplifierE...11 rules 0s)
(transform N7datalog27mk_quantifier_instantiationE...no-op 0s)
(transform N7datalog8mk_scaleE...no-op 0s)
(transform N7datalog18mk_karr_invariantsE...no-op 0s)
(transform N7datalog14mk_array_blastE...no-op 0s)
(transform N7datalog22mk_subsumption_checkerE...10 rules 0s)
(transform N7datalog12mk_bit_blastE...no-op 0s)
(transform N7datalog15mk_rule_inlinerE...no-op 0s)
(transform N7datalog13mk_coi_filterE...no-op 0s)
(transform N7datalog25mk_interp_tail_simplifierE...10 rules 0s)
(transform N7datalog22mk_subsumption_checkerE...no-op 0s)
(transform N7datalog15mk_rule_inlinerE...no-op 0s)
(transform N7datalog13mk_coi_filterE...no-op 0s)
(transform N7datalog25mk_interp_tail_simplifierE...10 rules 0s)
(transform N7datalog22mk_subsumption_checkerE...no-op 0s)
(transform N7datalog15mk_rule_inlinerE...no-op 0s)
(transform N7datalog22mk_subsumption_checkerE...no-op 0s)
(transform N7datalog15mk_rule_inlinerE...no-op 0s)
(transform N7datalog22mk_subsumption_checkerE...no-op 0s)
(transform N7datalog15mk_rule_inlinerE...no-op 0s)
(transform N7datalog22mk_subsumption_checkerE...no-op 0s)
expand: query!0 (0, 0) FAR  w(0) 1. F 0.00
(spacer::context::check_reachability :time 0.00 :before-memory 10.41 :after-memory 10.79)
Entering level 1
BRUNCH_STAT max_query_lvl 0
BRUNCH_STAT num_queries 0
BRUNCH_STAT num_reach_queries 0
BRUNCH_STAT num_reach_reuse 0
BRUNCH_STAT inductive_lvl 0
BRUNCH_STAT max_depth 1
BRUNCH_STAT cex_depth 0
expand: query!0 (1, 0) FAR  w(0) 1.
	create_child: ERR (0, 1) FAR 1 U 0.00
expand: ERR (0, 0) FAR  w(0) 1. F 0.00
expand: query!0 (1, 0) FAR  w(0) 1. F 0.00
(spacer::context::check_reachability :time 0.00 :before-memory 10.79 :after-memory 11.23)
Propagating: 0 1  ! 2 
(spacer::context::propagate :time 0.00 :before-memory 11.23 :after-memory 11.23)
Entering level 2
BRUNCH_STAT max_query_lvl 1
BRUNCH_STAT num_queries 1
BRUNCH_STAT num_reach_queries 0
BRUNCH_STAT num_reach_reuse 0
BRUNCH_STAT inductive_lvl 0
BRUNCH_STAT max_depth 2
BRUNCH_STAT cex_depth 0
expand: query!0 (2, 0) FAR  w(0) 1.
	create_child: ERR (1, 2) FAR 1 U 0.00
expand: ERR (1, 0) FAR  w(0) 1.
	create_child: MAIN (0, 2) FAR 911 U 0.00
expand: MAIN (0, 0) FAR  w(0) 911. F 0.00
expand: ERR (1, 0) FAR  w(0) 1. F 0.00
expand: query!0 (2, 0) FAR  w(0) 1. F 0.00
(spacer::context::check_reachability :time 0.00 :before-memory 11.23 :after-memory 11.67)
Propagating: 0 1 2  ! 3 
(spacer::context::propagate :time 0.00 :before-memory 11.67 :after-memory 11.67)
Entering level 3
BRUNCH_STAT max_query_lvl 2
BRUNCH_STAT num_queries 3
BRUNCH_STAT num_reach_queries 0
BRUNCH_STAT num_reach_reuse 0
BRUNCH_STAT inductive_lvl 0
BRUNCH_STAT max_depth 3
BRUNCH_STAT cex_depth 0
expand: query!0 (3, 0) FAR  w(0) 1.
	create_child: ERR (2, 3) FAR 1 U 0.00
expand: ERR (2, 0) FAR  w(0) 1.
	create_child: MAIN (1, 3) FAR 911 U 0.00
expand: MAIN (1, 0) FAR  w(0) 911.
	create_child: top_step (0, 3) FAR 1293 U 0.00
expand: top_step (0, 0) FAR  w(0) 1293. F 0.00
expand: MAIN (1, 0) FAR  w(0) 911. F 0.00
expand: ERR (2, 0) FAR  w(0) 1. F 0.00
expand: query!0 (3, 0) FAR  w(0) 1. F 0.00
(spacer::context::check_reachability :time 0.00 :before-memory 11.67 :after-memory 12.17)
Propagating: 0 1 2 3  ! 4 
(spacer::context::propagate :time 0.00 :before-memory 12.17 :after-memory 12.17)
Entering level 4
BRUNCH_STAT max_query_lvl 3
BRUNCH_STAT num_queries 6
BRUNCH_STAT num_reach_queries 0
BRUNCH_STAT num_reach_reuse 0
BRUNCH_STAT inductive_lvl 0
BRUNCH_STAT max_depth 4
BRUNCH_STAT cex_depth 0
expand: query!0 (4, 0) FAR  w(0) 1.
	create_child: ERR (3, 4) FAR 1 U 0.00
expand: ERR (3, 0) FAR  w(0) 1.
	create_child: MAIN (2, 4) FAR 911 U 0.00
expand: MAIN (2, 0) FAR  w(0) 911.
	create_child: top_step (1, 4) FAR 1293 U 0.00
expand: top_step (1, 0) FAR  w(0) 1293.
	create_child: speed_step (0, 4) FAR 1844 U 0.00
expand: speed_step (0, 0) FAR  w(0) 1844. F 0.00
expand: top_step (1, 0) FAR  w(0) 1293. F 0.00
expand: MAIN (2, 0) FAR  w(0) 911. F 0.00
expand: ERR (3, 0) FAR  w(0) 1. F 0.00
expand: query!0 (4, 0) FAR  w(0) 1. F 0.00
(spacer::context::check_reachability :time 0.00 :before-memory 12.17 :after-memory 12.92)
Propagating: 0 1 2 3 4  ! 5 
(spacer::context::propagate :time 0.00 :before-memory 12.92 :after-memory 12.92)
Entering level 5
BRUNCH_STAT max_query_lvl 4
BRUNCH_STAT num_queries 10
BRUNCH_STAT num_reach_queries 0
BRUNCH_STAT num_reach_reuse 0
BRUNCH_STAT inductive_lvl 0
BRUNCH_STAT max_depth 5
BRUNCH_STAT cex_depth 0
expand: query!0 (5, 0) FAR  w(0) 1.
	create_child: ERR (4, 5) FAR 1 U 0.00
expand: ERR (4, 0) FAR  w(0) 1.
	create_child: MAIN (3, 5) FAR 911 U 0.00
expand: MAIN (3, 0) FAR  w(0) 911.
	create_child: top_step (2, 5) FAR 1293 U 0.00
expand: top_step (2, 0) FAR  w(0) 1293.
	create_child: speed_step (1, 5) FAR 1844 U 0.00
expand: speed_step (1, 0) FAR  w(0) 1844. F 0.00
expand: top_step (2, 0) FAR  w(0) 1293. F 0.00
expand: MAIN (3, 0) FAR  w(0) 911. F 0.00
expand: ERR (4, 0) FAR  w(0) 1. F 0.00
expand: query!0 (5, 0) FAR  w(0) 1. F 0.00
(spacer::context::check_reachability :time 0.00 :before-memory 12.92 :after-memory 12.92)
Propagating: 1 2 3 
(spacer::context::propagate :time 0.00 :before-memory 12.92 :after-memory 12.92)
(define-fun ERR () Bool
  false)
(define-fun top_step ((x!0 Bool)
 (x!1 Bool)
 (x!2 Bool)
 (x!3 Bool)
 (x!4 Bool)
 (x!5 Bool)
 (x!6 Int)
 (x!7 Bool)
 (x!8 Bool)
 (x!9 Bool)
 (x!10 Bool)
 (x!11 Int)
 (x!12 Bool)) Bool
  x!2)
(define-fun MAIN ((x!0 Bool)
 (x!1 Bool)
 (x!2 Bool)
 (x!3 Int)
 (x!4 Bool)
 (x!5 Bool)) Bool
  x!5)
(define-fun COUNTER_reset ((x!0 Int) (x!1 Bool) (x!2 Int) (x!3 Bool)) Bool
  true)
(define-fun speed_step ((x!0 Bool)
 (x!1 Bool)
 (x!2 Bool)
 (x!3 Bool)
 (x!4 Bool)
 (x!5 Bool)
 (x!6 Bool)
 (x!7 Int)
 (x!8 Bool)
 (x!9 Bool)
 (x!10 Bool)
 (x!11 Bool)
 (x!12 Int)
 (x!13 Bool)) Bool
  (or (not x!2) (not x!3)))
(define-fun speed_reset ((x!0 Bool)
 (x!1 Bool)
 (x!2 Bool)
 (x!3 Int)
 (x!4 Bool)
 (x!5 Bool)
 (x!6 Bool)
 (x!7 Bool)
 (x!8 Int)
 (x!9 Bool)) Bool
  true)
(define-fun top_reset ((x!0 Bool)
 (x!1 Bool)
 (x!2 Bool)
 (x!3 Int)
 (x!4 Bool)
 (x!5 Bool)
 (x!6 Bool)
 (x!7 Bool)
 (x!8 Int)
 (x!9 Bool)) Bool
  true)
(define-fun COUNTER_step ((x!0 Int)
 (x!1 Int)
 (x!2 Bool)
 (x!3 Bool)
 (x!4 Int)
 (x!5 Int)
 (x!6 Bool)
 (x!7 Int)
 (x!8 Bool)) Bool
  true)
BRUNCH_STAT max_query_lvl 5
BRUNCH_STAT num_queries 14
BRUNCH_STAT num_reach_queries 0
BRUNCH_STAT num_reach_reuse 0
BRUNCH_STAT inductive_lvl 3
BRUNCH_STAT max_depth 5
BRUNCH_STAT cex_depth 0
(:SPACER-inductive-level               3
 :SPACER-max-depth                     5
 :SPACER-max-query-lvl                 5
 :SPACER-num-invariants                5
 :SPACER-num-lemmas                    20
 :SPACER-num-properties                8
 :SPACER-num-queries                   14
 :added-eqs                            87
 :arith-add-rows                       17
 :arith-assert-diseq                   12
 :arith-assert-lower                   41
 :arith-assert-upper                   46
 :arith-bound-prop                     12
 :arith-conflicts                      1
 :arith-eq-adapter                     22
 :arith-fixed-eqs                      3
 :arith-offset-eqs                     20
 :arith-pivots                         8
 :bool-inductive-gen                   3
 :bool-inductive-gen-failures          4
 :conflicts                            61
 :decisions                            187
 :del-clause                           27
 :final-checks                         32
 :mk-bool-var                          541
 :mk-clause                            432
 :num-checks                           84
 :propagations                         881
 :time.itp_solver.itp_core             0.00
 :time.spacer.init_rules               0.01
 :time.spacer.init_rules.pt.init       0.00
 :time.spacer.solve                    0.02
 :time.spacer.solve.propagate          0.00
 :time.spacer.solve.reach              0.01
 :time.spacer.solve.reach.children     0.00
 :time.spacer.solve.reach.gen.bool_ind 0.00
 :time.virtual_solver.proof            0.00
 :time.virtual_solver.smt.total        0.01
 :time.virtual_solver.smt.total.sat    0.00
 :virtual_solver.checks                84
 :virtual_solver.checks.sat            32)
BRUNCH_STAT max_query_lvl 5
BRUNCH_STAT num_queries 14
BRUNCH_STAT num_reach_queries 0
BRUNCH_STAT num_reach_reuse 0
BRUNCH_STAT inductive_lvl 3
BRUNCH_STAT max_depth 5
BRUNCH_STAT cex_depth 0

real	0m0.042s
user	0m0.032s
sys	0m0.008s
