(transform N7datalog13mk_coi_filterE...no-op 0s)
(transform N7datalog25mk_interp_tail_simplifierE...7 rules 0s)
(transform N7datalog27mk_quantifier_instantiationE...no-op 0s)
(transform N7datalog8mk_scaleE...no-op 0s)
(transform N7datalog18mk_karr_invariantsE...no-op 0s)
(transform N7datalog14mk_array_blastE...no-op 0s)
(transform N7datalog22mk_subsumption_checkerE...6 rules 0s)
(transform N7datalog12mk_bit_blastE...no-op 0s)
(transform N7datalog15mk_rule_inlinerE...no-op 0s)
(transform N7datalog13mk_coi_filterE...no-op 0s)
(transform N7datalog25mk_interp_tail_simplifierE...6 rules 0s)
(transform N7datalog22mk_subsumption_checkerE...no-op 0s)
(transform N7datalog15mk_rule_inlinerE...no-op 0s)
(transform N7datalog13mk_coi_filterE...no-op 0s)
(transform N7datalog25mk_interp_tail_simplifierE...6 rules 0s)
(transform N7datalog22mk_subsumption_checkerE...no-op 0s)
(transform N7datalog15mk_rule_inlinerE...no-op 0s)
(transform N7datalog22mk_subsumption_checkerE...no-op 0s)
(transform N7datalog15mk_rule_inlinerE...no-op 0s)
(transform N7datalog22mk_subsumption_checkerE...no-op 0s)
(transform N7datalog15mk_rule_inlinerE...no-op 0s)
(transform N7datalog22mk_subsumption_checkerE...no-op 0s)
expand: query!0 (0, 0) FAR  w(0) 1. F 0.00
(spacer::context::check_reachability :time 0.00 :before-memory 6.75 :after-memory 7.15)
Entering level 1
BRUNCH_STAT max_query_lvl 0
BRUNCH_STAT num_queries 0
BRUNCH_STAT num_reach_queries 0
BRUNCH_STAT num_reach_reuse 0
BRUNCH_STAT inductive_lvl 0
BRUNCH_STAT max_depth 1
BRUNCH_STAT cex_depth 0
expand: query!0 (1, 0) FAR  w(0) 1.
	create_child: ERR (0, 1) FAR 1 U 0.00
expand: ERR (0, 0) FAR  w(0) 1. F 0.00
expand: query!0 (1, 0) FAR  w(0) 1. F 0.00
(spacer::context::check_reachability :time 0.00 :before-memory 7.15 :after-memory 7.58)
Propagating: 0 1  ! 2 
(spacer::context::propagate :time 0.00 :before-memory 7.58 :after-memory 7.58)
Entering level 2
BRUNCH_STAT max_query_lvl 1
BRUNCH_STAT num_queries 1
BRUNCH_STAT num_reach_queries 0
BRUNCH_STAT num_reach_reuse 0
BRUNCH_STAT inductive_lvl 0
BRUNCH_STAT max_depth 2
BRUNCH_STAT cex_depth 0
expand: query!0 (2, 0) FAR  w(0) 1.
	create_child: ERR (1, 2) FAR 1 U 0.00
expand: ERR (1, 0) FAR  w(0) 1.
	create_child: MAIN (0, 2) FAR 448 U 0.00
expand: MAIN (0, 0) FAR  w(0) 448. F 0.00
expand: ERR (1, 0) FAR  w(0) 1. F 0.00
expand: query!0 (2, 0) FAR  w(0) 1. F 0.00
(spacer::context::check_reachability :time 0.00 :before-memory 7.58 :after-memory 8.17)
Propagating: 0 1 2  ! 3 
(spacer::context::propagate :time 0.00 :before-memory 8.17 :after-memory 8.17)
Entering level 3
BRUNCH_STAT max_query_lvl 2
BRUNCH_STAT num_queries 3
BRUNCH_STAT num_reach_queries 0
BRUNCH_STAT num_reach_reuse 0
BRUNCH_STAT inductive_lvl 0
BRUNCH_STAT max_depth 3
BRUNCH_STAT cex_depth 0
expand: query!0 (3, 0) FAR  w(0) 1.
	create_child: ERR (2, 3) FAR 1 U 0.00
expand: ERR (2, 0) FAR  w(0) 1.
	create_child: MAIN (1, 3) FAR 448 U 0.00
expand: MAIN (1, 0) FAR  w(0) 448.
	create_child: top_step (0, 3) FAR 1400 U 0.00
expand: top_step (0, 0) FAR  w(0) 1400. F 0.00
expand: MAIN (1, 0) FAR  w(0) 448.
	create_child: top_reset (0, 3) FAR 1788 U 0.00
expand: top_reset (0, 0) FAR  w(0) 1788. F 0.00
expand: MAIN (1, 0) FAR  w(0) 448. F 0.00
expand: ERR (2, 0) FAR  w(0) 1. F 0.00
expand: query!0 (3, 0) FAR  w(0) 1. F 0.00
(spacer::context::check_reachability :time 0.00 :before-memory 8.17 :after-memory 9.07)
Propagating: 0 1 2 3  ! 4 
(spacer::context::propagate :time 0.00 :before-memory 9.07 :after-memory 9.07)
Entering level 4
BRUNCH_STAT max_query_lvl 3
BRUNCH_STAT num_queries 7
BRUNCH_STAT num_reach_queries 0
BRUNCH_STAT num_reach_reuse 2
BRUNCH_STAT inductive_lvl 0
BRUNCH_STAT max_depth 4
BRUNCH_STAT cex_depth 0
expand: query!0 (4, 0) FAR  w(0) 1.
	create_child: ERR (3, 4) FAR 1 U 0.00
expand: ERR (3, 0) FAR  w(0) 1.
	create_child: MAIN (2, 4) FAR 448 U 0.00
expand: MAIN (2, 0) FAR  w(0) 448.
	create_child: MAIN (1, 4) FAR 2094 U 0.00
expand: MAIN (1, 0) FAR  w(0) 2094.
	create_child: top_step (0, 4) FAR 2104 U 0.00
expand: top_step (0, 0) FAR  w(0) 2104. F 0.00
expand: MAIN (1, 0) FAR  w(0) 2094. F 0.00
expand: MAIN (2, 0) FAR  w(0) 448.
	create_child: MAIN (1, 4) FAR 2239 U 0.00
expand: MAIN (1, 0) FAR  w(0) 2239.
	create_child: top_step (0, 4) FAR 2249 U 0.00
expand: top_step (0, 0) FAR  w(0) 2249. F 0.00
expand: MAIN (1, 0) FAR  w(0) 2239. F 0.00
expand: MAIN (2, 0) FAR  w(0) 448.
	create_child: MAIN (1, 4) FAR 2342 U 0.00
expand: MAIN (1, 0) FAR  w(0) 2342.
	create_child: top_step (0, 4) FAR 2180 U 0.00
expand: top_step (0, 0) FAR  w(0) 2180. F 0.00
expand: MAIN (1, 0) FAR  w(0) 2342. F 0.00
expand: MAIN (2, 0) FAR  w(0) 448.
	create_child: top_step (1, 4) FAR 2432 U 0.00
expand: top_step (1, 0) FAR  w(0) 2432. F 0.00
expand: MAIN (2, 0) FAR  w(0) 448. F 0.00
expand: ERR (3, 0) FAR  w(0) 1. F 0.00
expand: query!0 (4, 0) FAR  w(0) 1. F 0.00
(spacer::context::check_reachability :time 0.01 :before-memory 9.07 :after-memory 9.17)
Propagating: 0 1 2 3 4  ! 5 
(spacer::context::propagate :time 0.00 :before-memory 9.17 :after-memory 9.17)
Entering level 5
BRUNCH_STAT max_query_lvl 4
BRUNCH_STAT num_queries 16
BRUNCH_STAT num_reach_queries 0
BRUNCH_STAT num_reach_reuse 8
BRUNCH_STAT inductive_lvl 0
BRUNCH_STAT max_depth 5
BRUNCH_STAT cex_depth 0
expand: query!0 (5, 0) FAR  w(0) 1.
	create_child: ERR (4, 5) FAR 1 U 0.00
expand: ERR (4, 0) FAR  w(0) 1.
	create_child: MAIN (3, 5) FAR 448 U 0.00
expand: MAIN (3, 0) FAR  w(0) 448.
	create_child: MAIN (2, 5) FAR 2342 U 0.00
expand: MAIN (2, 0) FAR  w(0) 2342.
	create_child: top_step (1, 5) FAR 2732 U 0.00
expand: top_step (1, 0) FAR  w(0) 2732. F 0.00
expand: MAIN (2, 0) FAR  w(0) 2342. F 0.00
expand: MAIN (3, 0) FAR  w(0) 448.
	create_child: MAIN (2, 5) FAR 2239 U 0.00
expand: MAIN (2, 0) FAR  w(0) 2239.
	create_child: top_step (1, 5) FAR 2916 U 0.00
expand: top_step (1, 0) FAR  w(0) 2916. F 0.00
expand: MAIN (2, 0) FAR  w(0) 2239. F 0.00
expand: MAIN (3, 0) FAR  w(0) 448.
	create_child: MAIN (2, 5) FAR 2094 U 0.00
expand: MAIN (2, 0) FAR  w(0) 2094.
	create_child: top_step (1, 5) FAR 3117 U 0.00
expand: top_step (1, 0) FAR  w(0) 3117. F 0.00
expand: MAIN (2, 0) FAR  w(0) 2094. F 0.00
expand: MAIN (3, 0) FAR  w(0) 448.
	create_child: MAIN (2, 5) FAR 3236 U 0.00
expand: MAIN (2, 0) FAR  w(0) 3236.
	create_child: top_step (1, 5) FAR 3105 U 0.00
expand: top_step (1, 0) FAR  w(0) 3105. F 0.00
expand: MAIN (2, 0) FAR  w(0) 3236. F 0.00
expand: MAIN (3, 0) FAR  w(0) 448.
	create_child: top_step (2, 5) FAR 3317 U 0.00
expand: top_step (2, 0) FAR  w(0) 3317. F 0.00
expand: MAIN (3, 0) FAR  w(0) 448. F 0.00
expand: ERR (4, 0) FAR  w(0) 1. F 0.00
expand: query!0 (5, 0) FAR  w(0) 1. F 0.00
(spacer::context::check_reachability :time 0.01 :before-memory 9.17 :after-memory 9.29)
Propagating: 1 2 3 4 5  ! 6 
(spacer::context::propagate :time 0.00 :before-memory 9.29 :after-memory 9.29)
Entering level 6
BRUNCH_STAT max_query_lvl 5
BRUNCH_STAT num_queries 27
BRUNCH_STAT num_reach_queries 0
BRUNCH_STAT num_reach_reuse 12
BRUNCH_STAT inductive_lvl 0
BRUNCH_STAT max_depth 6
BRUNCH_STAT cex_depth 0
expand: query!0 (6, 0) FAR  w(0) 1.
	create_child: ERR (5, 6) FAR 1 U 0.00
expand: ERR (5, 0) FAR  w(0) 1.
	create_child: MAIN (4, 6) FAR 448 U 0.00
expand: MAIN (4, 0) FAR  w(0) 448.
	create_child: MAIN (3, 6) FAR 3236 U 0.00
expand: MAIN (3, 0) FAR  w(0) 3236.
	create_child: top_step (2, 6) FAR 3404 U 0.00
expand: top_step (2, 0) FAR  w(0) 3404. F 0.00
expand: MAIN (3, 0) FAR  w(0) 3236. F 0.00
expand: MAIN (4, 0) FAR  w(0) 448.
	create_child: MAIN (3, 6) FAR 2239 U 0.00
expand: MAIN (3, 0) FAR  w(0) 2239.
	create_child: top_step (2, 6) FAR 3788 U 0.00
expand: top_step (2, 0) FAR  w(0) 3788. F 0.00
expand: MAIN (3, 0) FAR  w(0) 2239. F 0.00
expand: MAIN (4, 0) FAR  w(0) 448.
	create_child: top_step (3, 6) FAR 4066 U 0.00
expand: top_step (3, 0) FAR  w(0) 4066. F 0.00
expand: MAIN (4, 0) FAR  w(0) 448. F 0.00
expand: ERR (5, 0) FAR  w(0) 1. F 0.00
expand: query!0 (6, 0) FAR  w(0) 1. F 0.00
(spacer::context::check_reachability :time 0.01 :before-memory 9.29 :after-memory 9.39)
Propagating: 2 3 4 5 6  ! 7 
(spacer::context::propagate :time 0.00 :before-memory 9.39 :after-memory 9.48)
Entering level 7
BRUNCH_STAT max_query_lvl 6
BRUNCH_STAT num_queries 34
BRUNCH_STAT num_reach_queries 0
BRUNCH_STAT num_reach_reuse 14
BRUNCH_STAT inductive_lvl 0
BRUNCH_STAT max_depth 7
BRUNCH_STAT cex_depth 0
expand: query!0 (7, 0) FAR  w(0) 1.
	create_child: ERR (6, 7) FAR 1 U 0.00
expand: ERR (6, 0) FAR  w(0) 1.
	create_child: MAIN (5, 7) FAR 448 U 0.00
expand: MAIN (5, 0) FAR  w(0) 448.
	create_child: MAIN (4, 7) FAR 2239 U 0.00
expand: MAIN (4, 0) FAR  w(0) 2239.
	create_child: top_step (3, 7) FAR 4842 U 0.00
expand: top_step (3, 0) FAR  w(0) 4842. F 0.00
expand: MAIN (4, 0) FAR  w(0) 2239. F 0.00
expand: MAIN (5, 0) FAR  w(0) 448. F 0.00
expand: ERR (6, 0) FAR  w(0) 1. F 0.00
expand: query!0 (7, 0) FAR  w(0) 1. F 0.00
(spacer::context::check_reachability :time 0.00 :before-memory 9.48 :after-memory 9.48)
Propagating: 3 
(spacer::context::propagate :time 0.00 :before-memory 9.48 :after-memory 9.48)
(define-fun ERR () Bool
  false)
(define-fun top_reset ((x!0 Bool)
 (x!1 Bool)
 (x!2 Bool)
 (x!3 Bool)
 (x!4 Bool)
 (x!5 Bool)
 (x!6 Bool)
 (x!7 Bool)) Bool
  x!7)
(define-fun top_step ((x!0 Bool)
 (x!1 Bool)
 (x!2 Bool)
 (x!3 Bool)
 (x!4 Bool)
 (x!5 Bool)
 (x!6 Bool)
 (x!7 Bool)
 (x!8 Bool)
 (x!9 Bool)) Bool
  (and (or x!1 (not x!4) x!2 x!3)
       (or (not x!5) (not x!8))
       (or (not x!5) (not x!6))
       (or x!1 (not x!5))
       (or (not x!5) x!7)
       (or (not x!3) x!4 x!1 x!2)
       (or x!3 (not x!6))
       (or (not x!2) x!3 x!1 x!4)
       (or x!4 (not x!7) (not x!8))
       (or x!7 (not x!3) x!6)
       (or x!4 (not x!6) (not x!7))
       (or x!2 (not x!8))
       (or x!8 (not x!2) x!7)
       (or x!7 (not x!4))))
(define-fun MAIN ((x!0 Bool) (x!1 Bool) (x!2 Bool) (x!3 Bool) (x!4 Bool)) Bool
  (and (or x!2 x!0 x!1)
       x!4
       (or (not x!2) (not x!1))
       (or (not x!0) (not x!1))
       (or (not x!0) (not x!2))))
BRUNCH_STAT max_query_lvl 7
BRUNCH_STAT num_queries 38
BRUNCH_STAT num_reach_queries 0
BRUNCH_STAT num_reach_reuse 15
BRUNCH_STAT inductive_lvl 3
BRUNCH_STAT max_depth 7
BRUNCH_STAT cex_depth 0
(:SPACER-inductive-level               3
 :SPACER-max-depth                     7
 :SPACER-max-query-lvl                 7
 :SPACER-num-invariants                23
 :SPACER-num-lemmas                    46
 :SPACER-num-properties                27
 :SPACER-num-queries                   38
 :SPACER-num-reuse-reach-facts         15
 :bool-inductive-gen                   30
 :bool-inductive-gen-failures          62
 :conflicts                            215
 :decisions                            792
 :final-checks                         122
 :minimized-lits                       16
 :mk-bool-var                          1456
 :mk-clause                            497
 :num-checks                           306
 :propagations                         9430
 :time.itp_solver.itp_core             0.01
 :time.spacer.init_rules               0.00
 :time.spacer.init_rules.pt.init       0.00
 :time.spacer.solve                    0.05
 :time.spacer.solve.propagate          0.01
 :time.spacer.solve.reach              0.04
 :time.spacer.solve.reach.children     0.01
 :time.spacer.solve.reach.gen.bool_ind 0.00
 :time.virtual_solver.proof            0.00
 :time.virtual_solver.smt.total        0.02
 :time.virtual_solver.smt.total.sat    0.01
 :virtual_solver.checks                306
 :virtual_solver.checks.sat            122)
BRUNCH_STAT max_query_lvl 7
BRUNCH_STAT num_queries 38
BRUNCH_STAT num_reach_queries 0
BRUNCH_STAT num_reach_reuse 15
BRUNCH_STAT inductive_lvl 3
BRUNCH_STAT max_depth 7
BRUNCH_STAT cex_depth 0

real	0m0.070s
user	0m0.056s
sys	0m0.012s
