(transform N7datalog13mk_coi_filterE...no-op 0s)
(transform N7datalog25mk_interp_tail_simplifierE...14 rules 0s)
(transform N7datalog27mk_quantifier_instantiationE...no-op 0s)
(transform N7datalog8mk_scaleE...no-op 0s)
(transform N7datalog18mk_karr_invariantsE...no-op 0s)
(transform N7datalog14mk_array_blastE...no-op 0s)
(transform N7datalog22mk_subsumption_checkerE...13 rules 0s)
(transform N7datalog12mk_bit_blastE...no-op 0s)
(transform N7datalog15mk_rule_inlinerE...no-op 0s)
(transform N7datalog13mk_coi_filterE...no-op 0s)
(transform N7datalog25mk_interp_tail_simplifierE...13 rules 0s)
(transform N7datalog22mk_subsumption_checkerE...no-op 0s)
(transform N7datalog15mk_rule_inlinerE...no-op 0s)
(transform N7datalog13mk_coi_filterE...no-op 0s)
(transform N7datalog25mk_interp_tail_simplifierE...13 rules 0s)
(transform N7datalog22mk_subsumption_checkerE...no-op 0s)
(transform N7datalog15mk_rule_inlinerE...no-op 0s)
(transform N7datalog22mk_subsumption_checkerE...no-op 0s)
(transform N7datalog15mk_rule_inlinerE...no-op 0s)
(transform N7datalog22mk_subsumption_checkerE...no-op 0s)
(transform N7datalog15mk_rule_inlinerE...no-op 0s)
(transform N7datalog22mk_subsumption_checkerE...no-op 0s)
expand: query!0 (0, 0) FAR  w(0) 1. F 0.00
(spacer::context::check_reachability :time 0.00 :before-memory 13.37 :after-memory 13.79)
Entering level 1
BRUNCH_STAT max_query_lvl 0
BRUNCH_STAT num_queries 0
BRUNCH_STAT num_reach_queries 0
BRUNCH_STAT num_reach_reuse 0
BRUNCH_STAT inductive_lvl 0
BRUNCH_STAT max_depth 1
BRUNCH_STAT cex_depth 0
expand: query!0 (1, 0) FAR  w(0) 1.
	create_child: ERR (0, 1) FAR 1 U 0.00
expand: ERR (0, 0) FAR  w(0) 1. F 0.00
expand: query!0 (1, 0) FAR  w(0) 1. F 0.00
(spacer::context::check_reachability :time 0.00 :before-memory 13.79 :after-memory 14.24)
Propagating: 0 1  ! 2 
(spacer::context::propagate :time 0.00 :before-memory 14.24 :after-memory 14.24)
Entering level 2
BRUNCH_STAT max_query_lvl 1
BRUNCH_STAT num_queries 1
BRUNCH_STAT num_reach_queries 0
BRUNCH_STAT num_reach_reuse 0
BRUNCH_STAT inductive_lvl 0
BRUNCH_STAT max_depth 2
BRUNCH_STAT cex_depth 0
expand: query!0 (2, 0) FAR  w(0) 1.
	create_child: ERR (1, 2) FAR 1 U 0.00
expand: ERR (1, 0) FAR  w(0) 1.
	create_child: MAIN (0, 2) FAR 2535 U 0.00
expand: MAIN (0, 0) FAR  w(0) 2535. F 0.00
expand: ERR (1, 0) FAR  w(0) 1. F 0.00
expand: query!0 (2, 0) FAR  w(0) 1. F 0.00
(spacer::context::check_reachability :time 0.00 :before-memory 14.24 :after-memory 14.70)
Propagating: 0 1 2  ! 3 
(spacer::context::propagate :time 0.00 :before-memory 14.70 :after-memory 14.70)
Entering level 3
BRUNCH_STAT max_query_lvl 2
BRUNCH_STAT num_queries 3
BRUNCH_STAT num_reach_queries 0
BRUNCH_STAT num_reach_reuse 0
BRUNCH_STAT inductive_lvl 0
BRUNCH_STAT max_depth 3
BRUNCH_STAT cex_depth 0
expand: query!0 (3, 0) FAR  w(0) 1.
	create_child: ERR (2, 3) FAR 1 U 0.00
expand: ERR (2, 0) FAR  w(0) 1.
	create_child: MAIN (1, 3) FAR 2535 U 0.00
expand: MAIN (1, 0) FAR  w(0) 2535.
	create_child: top_step (0, 3) FAR 3249 U 0.00
expand: top_step (0, 0) FAR  w(0) 3249. F 0.00
expand: MAIN (1, 0) FAR  w(0) 2535. F 0.00
expand: ERR (2, 0) FAR  w(0) 1. F 0.00
expand: query!0 (3, 0) FAR  w(0) 1. F 0.00
(spacer::context::check_reachability :time 0.01 :before-memory 14.70 :after-memory 15.83)
Propagating: 0 1 2 3  ! 4 
(spacer::context::propagate :time 0.00 :before-memory 15.83 :after-memory 15.93)
Entering level 4
BRUNCH_STAT max_query_lvl 3
BRUNCH_STAT num_queries 6
BRUNCH_STAT num_reach_queries 0
BRUNCH_STAT num_reach_reuse 0
BRUNCH_STAT inductive_lvl 0
BRUNCH_STAT max_depth 4
BRUNCH_STAT cex_depth 0
expand: query!0 (4, 0) FAR  w(0) 1.
	create_child: ERR (3, 4) FAR 1 U 0.00
expand: ERR (3, 0) FAR  w(0) 1.
	create_child: MAIN (2, 4) FAR 2535 U 0.00
expand: MAIN (2, 0) FAR  w(0) 2535.
	create_child: top_step (1, 4) FAR 3249 U 0.00
expand: top_step (1, 0) FAR  w(0) 3249.
	create_child: top_reset (1, 4) FAR 7259 X 0.00
expand: top_reset (1, 0) FAR  w(0) 7259.
	create_child: First_reset (0, 4) FAR 8082 U 0.00
expand: First_reset (0, 0) FAR  w(0) 8082. F 0.00
expand: top_reset (1, 0) FAR  w(0) 7259. F 0.00
expand: MAIN (2, 0) FAR  w(0) 2535.
	create_child: top_reset (1, 4) FAR 9611 U 0.00
expand: top_reset (1, 0) FAR  w(0) 9611.
	create_child: swimingpool_reset (0, 4) FAR 9654 U 0.00
expand: swimingpool_reset (0, 0) FAR  w(0) 9654. F 0.00
expand: top_reset (1, 0) FAR  w(0) 9611. F 0.00
expand: MAIN (2, 0) FAR  w(0) 2535.
	create_child: top_step (1, 4) FAR 9749 U 0.00
expand: top_step (1, 0) FAR  w(0) 9749.
	create_child: swimingpool_step (0, 4) FAR 9788 U 0.00
expand: swimingpool_step (0, 0) FAR  w(0) 9788. F 0.00
expand: top_step (1, 0) FAR  w(0) 9749. F 0.00
expand: MAIN (2, 0) FAR  w(0) 2535. F 0.00
expand: ERR (3, 0) FAR  w(0) 1. F 0.00
expand: query!0 (4, 0) FAR  w(0) 1. F 0.00
(spacer::context::check_reachability :time 0.03 :before-memory 15.93 :after-memory 20.14)
Propagating: 0 1 2 3 4  ! 5 
(spacer::context::propagate :time 0.00 :before-memory 20.14 :after-memory 20.14)
Entering level 5
BRUNCH_STAT max_query_lvl 4
BRUNCH_STAT num_queries 14
BRUNCH_STAT num_reach_queries 1
BRUNCH_STAT num_reach_reuse 12
BRUNCH_STAT inductive_lvl 0
BRUNCH_STAT max_depth 5
BRUNCH_STAT cex_depth 0
expand: query!0 (5, 0) FAR  w(0) 1.
	create_child: ERR (4, 5) FAR 1 U 0.00
expand: ERR (4, 0) FAR  w(0) 1.
	create_child: MAIN (3, 5) FAR 2535 U 0.00
expand: MAIN (3, 0) FAR  w(0) 2535.
	create_child: MAIN (2, 5) FAR 11890 U 0.00
expand: MAIN (2, 0) FAR  w(0) 11890.
	create_child: top_step (1, 5) FAR 11976 U 0.00
expand: top_step (1, 0) FAR  w(0) 11976.
	create_child: swimingpool_step (0, 5) FAR 12268 U 0.00
expand: swimingpool_step (0, 0) FAR  w(0) 12268. F 0.00
expand: top_step (1, 0) FAR  w(0) 11976. F 0.00
expand: MAIN (2, 0) FAR  w(0) 11890. F 0.00
expand: MAIN (3, 0) FAR  w(0) 2535.
	create_child: top_step (2, 5) FAR 12067 U 0.00
expand: top_step (2, 0) FAR  w(0) 12067.
	create_child: MAIN (2, 5) FAR 12811 X 0.01
expand: MAIN (2, 0) FAR  w(0) 12811.
	create_child: top_step (1, 5) FAR 13689 U 0.00
expand: top_step (1, 0) FAR  w(0) 13689.
	create_child: swimingpool_step (0, 5) FAR 13752 U 0.00
expand: swimingpool_step (0, 0) FAR  w(0) 13752. F 0.00
expand: top_step (1, 0) FAR  w(0) 13689. F 0.00
expand: MAIN (2, 0) FAR  w(0) 12811. F 0.00
expand: MAIN (3, 0) FAR  w(0) 2535.
	create_child: top_step (2, 5) FAR 14085 U 0.00
expand: top_step (2, 0) FAR  w(0) 14085.
	create_child: swimingpool_step (1, 5) FAR 14130 U 0.00
expand: swimingpool_step (1, 0) FAR  w(0) 14130. F 0.00
expand: top_step (2, 0) FAR  w(0) 14085.
	create_child: swimingpool_step (1, 5) FAR 14406 U 0.00
expand: swimingpool_step (1, 0) FAR  w(0) 14406. F 0.00
expand: top_step (2, 0) FAR  w(0) 14085. F 0.01
expand: MAIN (3, 0) FAR  w(0) 2535. F 0.00
expand: ERR (4, 0) FAR  w(0) 1. F 0.00
expand: query!0 (5, 0) FAR  w(0) 1. F 0.00
(spacer::context::check_reachability :time 0.05 :before-memory 20.14 :after-memory 21.04)
Propagating: 0 1 2 3 4 5  ! 6 
(spacer::context::propagate :time 0.00 :before-memory 21.04 :after-memory 21.04)
Entering level 6
BRUNCH_STAT max_query_lvl 5
BRUNCH_STAT num_queries 25
BRUNCH_STAT num_reach_queries 2
BRUNCH_STAT num_reach_reuse 33
BRUNCH_STAT inductive_lvl 0
BRUNCH_STAT max_depth 6
BRUNCH_STAT cex_depth 0
expand: query!0 (6, 0) FAR  w(0) 1.
	create_child: ERR (5, 6) FAR 1 U 0.00
expand: ERR (5, 0) FAR  w(0) 1.
	create_child: MAIN (4, 6) FAR 2535 U 0.00
expand: MAIN (4, 0) FAR  w(0) 2535.
	create_child: MAIN (3, 6) FAR 14773 U 0.00
expand: MAIN (3, 0) FAR  w(0) 14773.
	create_child: top_step (2, 6) FAR 14716 U 0.00
expand: top_step (2, 0) FAR  w(0) 14716.
	create_child: Sofar_step (1, 6) FAR 14990 U 0.00
expand: Sofar_step (1, 0) FAR  w(0) 14990. F 0.00
expand: top_step (2, 0) FAR  w(0) 14716. F 0.00
expand: MAIN (3, 0) FAR  w(0) 14773. F 0.00
expand: MAIN (4, 0) FAR  w(0) 2535.
	create_child: MAIN (3, 6) FAR 15115 U 0.00
expand: MAIN (3, 0) FAR  w(0) 15115.
	create_child: top_step (2, 6) FAR 15016 U 0.00
expand: top_step (2, 0) FAR  w(0) 15016. F 0.00
expand: MAIN (3, 0) FAR  w(0) 15115. F 0.00
expand: MAIN (4, 0) FAR  w(0) 2535.
	create_child: MAIN (3, 6) FAR 15285 U 0.00
expand: MAIN (3, 0) FAR  w(0) 15285.
	create_child: top_step (2, 6) FAR 15130 U 0.00
expand: top_step (2, 0) FAR  w(0) 15130.
	create_child: First_step (1, 6) FAR 1328 U 0.00
expand: First_step (1, 0) FAR  w(0) 1328. F 0.00
expand: top_step (2, 0) FAR  w(0) 15130. F 0.00
expand: MAIN (3, 0) FAR  w(0) 15285. F 0.00
expand: MAIN (4, 0) FAR  w(0) 2535.
	create_child: MAIN (3, 6) FAR 15597 U 0.00
expand: MAIN (3, 0) FAR  w(0) 15597.
	create_child: top_step (2, 6) FAR 15556 U 0.00
expand: top_step (2, 0) FAR  w(0) 15556. F 0.00
expand: MAIN (3, 0) FAR  w(0) 15597. F 0.00
expand: MAIN (4, 0) FAR  w(0) 2535.
	create_child: MAIN (3, 6) FAR 12811 U 0.00
expand: MAIN (3, 0) FAR  w(0) 12811.
	create_child: top_step (2, 6) FAR 15628 U 0.00
expand: top_step (2, 0) FAR  w(0) 15628.
	create_child: MAIN (2, 6) FAR 15982 X 0.01
expand: MAIN (2, 0) FAR  w(0) 15982.
	create_child: top_step (1, 6) FAR 15661 U 0.00
expand: top_step (1, 0) FAR  w(0) 15661.
	create_child: swimingpool_step (0, 6) FAR 14718 U 0.00
expand: swimingpool_step (0, 0) FAR  w(0) 14718. F 0.00
expand: top_step (1, 0) FAR  w(0) 15661. F 0.00
expand: MAIN (2, 0) FAR  w(0) 15982. F 0.00
expand: MAIN (3, 0) FAR  w(0) 12811.
	create_child: top_step (2, 6) FAR 16834 U 0.00
expand: top_step (2, 0) FAR  w(0) 16834.
	create_child: swimingpool_step (1, 6) FAR 16967 U 0.00
expand: swimingpool_step (1, 0) FAR  w(0) 16967. F 0.00
expand: top_step (2, 0) FAR  w(0) 16834.
	create_child: swimingpool_step (1, 6) FAR 16937 U 0.00
expand: swimingpool_step (1, 0) FAR  w(0) 16937. F 0.00
expand: top_step (2, 0) FAR  w(0) 16834. F 0.00
expand: MAIN (3, 0) FAR  w(0) 12811. F 0.00
expand: MAIN (4, 0) FAR  w(0) 2535. F 0.00
expand: ERR (5, 0) FAR  w(0) 1. F 0.00
expand: query!0 (6, 0) FAR  w(0) 1. F 0.00
(spacer::context::check_reachability :time 0.07 :before-memory 21.04 :after-memory 22.41)
Propagating: 0 1 2 3 4 5 6  ! 7 
(spacer::context::propagate :time 0.00 :before-memory 22.41 :after-memory 22.41)
Entering level 7
BRUNCH_STAT max_query_lvl 6
BRUNCH_STAT num_queries 44
BRUNCH_STAT num_reach_queries 3
BRUNCH_STAT num_reach_reuse 61
BRUNCH_STAT inductive_lvl 0
BRUNCH_STAT max_depth 7
BRUNCH_STAT cex_depth 0
expand: query!0 (7, 0) FAR  w(0) 1.
	create_child: ERR (6, 7) FAR 1 U 0.00
expand: ERR (6, 0) FAR  w(0) 1.
	create_child: MAIN (5, 7) FAR 2535 U 0.00
expand: MAIN (5, 0) FAR  w(0) 2535.
	create_child: MAIN (4, 7) FAR 12811 U 0.00
expand: MAIN (4, 0) FAR  w(0) 12811.
	create_child: MAIN (3, 7) FAR 15982 U 0.00
expand: MAIN (3, 0) FAR  w(0) 15982.
	create_child: top_step (2, 7) FAR 17664 U 0.00
expand: top_step (2, 0) FAR  w(0) 17664.
	create_child: MAIN (2, 7) FAR 18444 X 0.01
expand: MAIN (2, 0) FAR  w(0) 18444.
	create_child: top_step (1, 7) FAR 18259 U 0.00
expand: top_step (1, 0) FAR  w(0) 18259.
	create_child: swimingpool_step (0, 7) FAR 18329 U 0.00
expand: swimingpool_step (0, 0) FAR  w(0) 18329. F 0.00
expand: top_step (1, 0) FAR  w(0) 18259. F 0.00
expand: MAIN (2, 0) FAR  w(0) 18444. F 0.00
expand: MAIN (3, 0) FAR  w(0) 15982.
	create_child: top_step (2, 7) FAR 18609 U 0.00
expand: top_step (2, 0) FAR  w(0) 18609.
	create_child: swimingpool_step (1, 7) FAR 18731 U 0.00
expand: swimingpool_step (1, 0) FAR  w(0) 18731. F 0.00
expand: top_step (2, 0) FAR  w(0) 18609.
	create_child: swimingpool_step (1, 7) FAR 18846 U 0.00
expand: swimingpool_step (1, 0) FAR  w(0) 18846. F 0.00
expand: top_step (2, 0) FAR  w(0) 18609. F 0.01
expand: MAIN (3, 0) FAR  w(0) 15982. F 0.00
expand: MAIN (4, 0) FAR  w(0) 12811. F 0.00
expand: MAIN (5, 0) FAR  w(0) 2535. F 0.00
expand: ERR (6, 0) FAR  w(0) 1. F 0.00
expand: query!0 (7, 0) FAR  w(0) 1. F 0.00
(spacer::context::check_reachability :time 0.05 :before-memory 22.41 :after-memory 23.10)
Propagating: 0 1 2 3 4 5 6 7  ! 8 
(spacer::context::propagate :time 0.00 :before-memory 23.10 :after-memory 23.10)
Entering level 8
BRUNCH_STAT max_query_lvl 7
BRUNCH_STAT num_queries 54
BRUNCH_STAT num_reach_queries 4
BRUNCH_STAT num_reach_reuse 80
BRUNCH_STAT inductive_lvl 0
BRUNCH_STAT max_depth 8
BRUNCH_STAT cex_depth 0
expand: query!0 (8, 0) FAR  w(0) 1.
	create_child: ERR (7, 8) FAR 1 U 0.00
expand: ERR (7, 0) FAR  w(0) 1.
	create_child: MAIN (6, 8) FAR 2535 U 0.00
expand: MAIN (6, 0) FAR  w(0) 2535.
	create_child: MAIN (5, 8) FAR 12811 U 0.00
expand: MAIN (5, 0) FAR  w(0) 12811.
	create_child: MAIN (4, 8) FAR 15982 U 0.00
expand: MAIN (4, 0) FAR  w(0) 15982.
	create_child: MAIN (3, 8) FAR 18444 U 0.00
expand: MAIN (3, 0) FAR  w(0) 18444.
	create_child: top_step (2, 8) FAR 19345 U 0.00
expand: top_step (2, 0) FAR  w(0) 19345.
	create_child: MAIN (2, 8) FAR 19487 X 0.01
expand: MAIN (2, 0) FAR  w(0) 19487.
	create_child: top_step (1, 8) FAR 19310 U 0.00
expand: top_step (1, 0) FAR  w(0) 19310.
	create_child: top_reset (1, 8) FAR 19845 X 0.01
expand: top_reset (1, 0) FAR  w(0) 19845. F 0.00
expand: MAIN (2, 0) FAR  w(0) 19487.
	create_child: top_reset (1, 8) FAR 19932 U 0.00
expand: top_reset (1, 0) FAR  w(0) 19932.
	create_child: Sofar_reset (0, 8) FAR 20181 U 0.00
expand: Sofar_reset (0, 0) FAR  w(0) 20181. F 0.00
expand: top_reset (1, 0) FAR  w(0) 19932. F 0.00
expand: MAIN (2, 0) FAR  w(0) 19487.
	create_child: top_reset (1, 8) FAR 20545 U 0.00
expand: top_reset (1, 0) FAR  w(0) 20545. T 0.00
is-reachable: MAIN (2, 0) FAR 19487 T 0.00
is-reachable: MAIN (3, 0) FAR 18444 T 0.00
is-reachable: MAIN (4, 0) FAR 15982 T 0.00
is-reachable: MAIN (5, 0) FAR 12811 T 0.00
is-reachable: MAIN (6, 0) FAR 2535 T 0.00
is-reachable: ERR (7, 0) FAR 1 T 0.00
is-reachable: query!0 (8, 0) FAR 1 T 0.00
(spacer::context::check_reachability :time 0.05 :before-memory 23.10 :after-memory 24.91)
BRUNCH_STAT max_query_lvl 8
BRUNCH_STAT num_queries 64
BRUNCH_STAT num_reach_queries 14
BRUNCH_STAT num_reach_reuse 102
BRUNCH_STAT inductive_lvl 0
BRUNCH_STAT max_depth 8
BRUNCH_STAT cex_depth 8
(:SPACER-cex-depth                     8
 :SPACER-max-depth                     8
 :SPACER-max-query-lvl                 8
 :SPACER-num-invariants                35
 :SPACER-num-lemmas                    65
 :SPACER-num-properties                44
 :SPACER-num-queries                   64
 :SPACER-num-reach-queries             14
 :SPACER-num-reuse-reach-facts         102
 :added-eqs                            12617
 :arith-add-rows                       1924
 :arith-assert-diseq                   1246
 :arith-assert-lower                   5918
 :arith-assert-upper                   6343
 :arith-bound-prop                     420
 :arith-conflicts                      38
 :arith-eq-adapter                     2761
 :arith-fixed-eqs                      2428
 :arith-offset-eqs                     1292
 :arith-pivots                         1394
 :bool-inductive-gen                   47
 :bool-inductive-gen-failures          77
 :conflicts                            421
 :decisions                            8993
 :del-clause                           1937
 :final-checks                         173
 :minimized-lits                       18
 :mk-bool-var                          8989
 :mk-clause                            7377
 :num-checks                           450
 :propagations                         69496
 :time.itp_solver.itp_core             0.01
 :time.spacer.init_rules               0.01
 :time.spacer.init_rules.pt.init       0.00
 :time.spacer.solve                    0.27
 :time.spacer.solve.propagate          0.01
 :time.spacer.solve.pt.must_reachable  0.01
 :time.spacer.solve.reach              0.26
 :time.spacer.solve.reach.children     0.05
 :time.spacer.solve.reach.gen.bool_ind 0.04
 :time.spacer.solve.reach.is-reach     0.02
 :time.virtual_solver.proof            0.01
 :time.virtual_solver.smt.total        0.17
 :time.virtual_solver.smt.total.sat    0.10
 :virtual_solver.checks                450
 :virtual_solver.checks.sat            173)
BRUNCH_STAT max_query_lvl 8
BRUNCH_STAT num_queries 64
BRUNCH_STAT num_reach_queries 14
BRUNCH_STAT num_reach_reuse 102
BRUNCH_STAT inductive_lvl 0
BRUNCH_STAT max_depth 8
BRUNCH_STAT cex_depth 8

real	0m0.358s
user	0m0.340s
sys	0m0.016s
