(transform N7datalog13mk_coi_filterE...no-op 0s)
(transform N7datalog25mk_interp_tail_simplifierE...11 rules 0s)
(transform N7datalog27mk_quantifier_instantiationE...no-op 0s)
(transform N7datalog8mk_scaleE...no-op 0s)
(transform N7datalog18mk_karr_invariantsE...no-op 0s)
(transform N7datalog14mk_array_blastE...no-op 0s)
(transform N7datalog22mk_subsumption_checkerE...10 rules 0s)
(transform N7datalog12mk_bit_blastE...no-op 0s)
(transform N7datalog15mk_rule_inlinerE...no-op 0s)
(transform N7datalog13mk_coi_filterE...no-op 0s)
(transform N7datalog25mk_interp_tail_simplifierE...10 rules 0s)
(transform N7datalog22mk_subsumption_checkerE...no-op 0s)
(transform N7datalog15mk_rule_inlinerE...no-op 0s)
(transform N7datalog13mk_coi_filterE...no-op 0s)
(transform N7datalog25mk_interp_tail_simplifierE...10 rules 0s)
(transform N7datalog22mk_subsumption_checkerE...no-op 0s)
(transform N7datalog15mk_rule_inlinerE...no-op 0s)
(transform N7datalog22mk_subsumption_checkerE...no-op 0s)
(transform N7datalog15mk_rule_inlinerE...no-op 0s)
(transform N7datalog22mk_subsumption_checkerE...no-op 0s)
(transform N7datalog15mk_rule_inlinerE...no-op 0s)
(transform N7datalog22mk_subsumption_checkerE...no-op 0s)
expand: query!0 (0, 0) FAR  w(0) 1. F 0.00
(spacer::context::check_reachability :time 0.00 :before-memory 10.28 :after-memory 10.72)
Entering level 1
BRUNCH_STAT max_query_lvl 0
BRUNCH_STAT num_queries 0
BRUNCH_STAT num_reach_queries 0
BRUNCH_STAT num_reach_reuse 0
BRUNCH_STAT inductive_lvl 0
BRUNCH_STAT max_depth 1
BRUNCH_STAT cex_depth 0
expand: query!0 (1, 0) FAR  w(0) 1.
	create_child: ERR (0, 1) FAR 1 U 0.00
expand: ERR (0, 0) FAR  w(0) 1. F 0.00
expand: query!0 (1, 0) FAR  w(0) 1. F 0.00
(spacer::context::check_reachability :time 0.00 :before-memory 10.72 :after-memory 11.15)
Propagating: 0 1  ! 2 
(spacer::context::propagate :time 0.00 :before-memory 11.15 :after-memory 11.15)
Entering level 2
BRUNCH_STAT max_query_lvl 1
BRUNCH_STAT num_queries 1
BRUNCH_STAT num_reach_queries 0
BRUNCH_STAT num_reach_reuse 0
BRUNCH_STAT inductive_lvl 0
BRUNCH_STAT max_depth 2
BRUNCH_STAT cex_depth 0
expand: query!0 (2, 0) FAR  w(0) 1.
	create_child: ERR (1, 2) FAR 1 U 0.00
expand: ERR (1, 0) FAR  w(0) 1.
	create_child: MAIN (0, 2) FAR 744 U 0.00
expand: MAIN (0, 0) FAR  w(0) 744. F 0.00
expand: ERR (1, 0) FAR  w(0) 1. F 0.00
expand: query!0 (2, 0) FAR  w(0) 1. F 0.00
(spacer::context::check_reachability :time 0.00 :before-memory 11.15 :after-memory 11.60)
Propagating: 0 1 2  ! 3 
(spacer::context::propagate :time 0.00 :before-memory 11.60 :after-memory 11.60)
Entering level 3
BRUNCH_STAT max_query_lvl 2
BRUNCH_STAT num_queries 3
BRUNCH_STAT num_reach_queries 0
BRUNCH_STAT num_reach_reuse 0
BRUNCH_STAT inductive_lvl 0
BRUNCH_STAT max_depth 3
BRUNCH_STAT cex_depth 0
expand: query!0 (3, 0) FAR  w(0) 1.
	create_child: ERR (2, 3) FAR 1 U 0.00
expand: ERR (2, 0) FAR  w(0) 1.
	create_child: MAIN (1, 3) FAR 744 U 0.00
expand: MAIN (1, 0) FAR  w(0) 744.
	create_child: top_step (0, 3) FAR 1115 U 0.00
expand: top_step (0, 0) FAR  w(0) 1115. F 0.00
expand: MAIN (1, 0) FAR  w(0) 744. F 0.00
expand: ERR (2, 0) FAR  w(0) 1. F 0.00
expand: query!0 (3, 0) FAR  w(0) 1. F 0.00
(spacer::context::check_reachability :time 0.00 :before-memory 11.60 :after-memory 12.15)
Propagating: 0 1 2 3  ! 4 
(spacer::context::propagate :time 0.00 :before-memory 12.15 :after-memory 12.15)
Entering level 4
BRUNCH_STAT max_query_lvl 3
BRUNCH_STAT num_queries 6
BRUNCH_STAT num_reach_queries 0
BRUNCH_STAT num_reach_reuse 0
BRUNCH_STAT inductive_lvl 0
BRUNCH_STAT max_depth 4
BRUNCH_STAT cex_depth 0
expand: query!0 (4, 0) FAR  w(0) 1.
	create_child: ERR (3, 4) FAR 1 U 0.00
expand: ERR (3, 0) FAR  w(0) 1.
	create_child: MAIN (2, 4) FAR 744 U 0.00
expand: MAIN (2, 0) FAR  w(0) 744.
	create_child: top_step (1, 4) FAR 1115 U 0.00
expand: top_step (1, 0) FAR  w(0) 1115.
	create_child: top_reset (1, 4) FAR 2647 X 0.00
expand: top_reset (1, 0) FAR  w(0) 2647.
	create_child: SWITCH1_reset (0, 4) FAR 2914 U 0.00
expand: SWITCH1_reset (0, 0) FAR  w(0) 2914. F 0.00
expand: top_reset (1, 0) FAR  w(0) 2647. F 0.00
expand: MAIN (2, 0) FAR  w(0) 744.
	create_child: top_reset (1, 4) FAR 3478 U 0.00
expand: top_reset (1, 0) FAR  w(0) 3478.
	create_child: SWITCH_reset (0, 4) FAR 3488 U 0.00
expand: SWITCH_reset (0, 0) FAR  w(0) 3488. F 0.00
expand: top_reset (1, 0) FAR  w(0) 3478. F 0.00
expand: MAIN (2, 0) FAR  w(0) 744.
	create_child: top_step (1, 4) FAR 3646 U 0.00
expand: top_step (1, 0) FAR  w(0) 3646.
	create_child: SWITCH1_step (0, 4) FAR 3789 U 0.00
expand: SWITCH1_step (0, 0) FAR  w(0) 3789. F 0.00
expand: top_step (1, 0) FAR  w(0) 3646.
	create_child: SWITCH1_step (0, 4) FAR 4064 U 0.00
expand: SWITCH1_step (0, 0) FAR  w(0) 4064.
	create_child: SWITCH_step (0, 4) FAR 4183 X 0.00
expand: SWITCH_step (0, 0) FAR  w(0) 4183. F 0.00
expand: top_step (1, 0) FAR  w(0) 3646. F 0.00
expand: MAIN (2, 0) FAR  w(0) 744. F 0.00
expand: ERR (3, 0) FAR  w(0) 1. F 0.00
expand: query!0 (4, 0) FAR  w(0) 1. F 0.00
(spacer::context::check_reachability :time 0.01 :before-memory 12.15 :after-memory 15.67)
Propagating: 0 1 2 3 4  ! 5 
(spacer::context::propagate :time 0.00 :before-memory 15.67 :after-memory 15.67)
Entering level 5
BRUNCH_STAT max_query_lvl 4
BRUNCH_STAT num_queries 15
BRUNCH_STAT num_reach_queries 1
BRUNCH_STAT num_reach_reuse 6
BRUNCH_STAT inductive_lvl 0
BRUNCH_STAT max_depth 5
BRUNCH_STAT cex_depth 0
expand: query!0 (5, 0) FAR  w(0) 1.
	create_child: ERR (4, 5) FAR 1 U 0.00
expand: ERR (4, 0) FAR  w(0) 1.
	create_child: MAIN (3, 5) FAR 744 U 0.00
expand: MAIN (3, 0) FAR  w(0) 744.
	create_child: MAIN (2, 5) FAR 4723 U 0.00
expand: MAIN (2, 0) FAR  w(0) 4723.
	create_child: top_step (1, 5) FAR 4731 U 0.00
expand: top_step (1, 0) FAR  w(0) 4731.
	create_child: SWITCH1_step (0, 5) FAR 4757 U 0.00
expand: SWITCH1_step (0, 0) FAR  w(0) 4757. F 0.00
expand: top_step (1, 0) FAR  w(0) 4731. F 0.00
expand: MAIN (2, 0) FAR  w(0) 4723. F 0.00
expand: MAIN (3, 0) FAR  w(0) 744.
	create_child: MAIN (2, 5) FAR 4897 U 0.00
expand: MAIN (2, 0) FAR  w(0) 4897.
	create_child: top_step (1, 5) FAR 4911 U 0.00
expand: top_step (1, 0) FAR  w(0) 4911.
	create_child: SWITCH1_step (0, 5) FAR 4918 U 0.00
expand: SWITCH1_step (0, 0) FAR  w(0) 4918. F 0.00
expand: top_step (1, 0) FAR  w(0) 4911.
	create_child: SWITCH1_step (0, 5) FAR 4984 U 0.00
expand: SWITCH1_step (0, 0) FAR  w(0) 4984.
	create_child: SWITCH_step (0, 5) FAR 5017 X 0.00
expand: SWITCH_step (0, 0) FAR  w(0) 5017. F 0.00
expand: top_step (1, 0) FAR  w(0) 4911. F 0.00
expand: MAIN (2, 0) FAR  w(0) 4897. F 0.00
expand: MAIN (3, 0) FAR  w(0) 744.
	create_child: MAIN (2, 5) FAR 5218 U 0.00
expand: MAIN (2, 0) FAR  w(0) 5218.
	create_child: top_step (1, 5) FAR 5214 U 0.00
expand: top_step (1, 0) FAR  w(0) 5214.
	create_child: SWITCH_step (0, 5) FAR 5256 U 0.00
expand: SWITCH_step (0, 0) FAR  w(0) 5256. F 0.00
expand: top_step (1, 0) FAR  w(0) 5214. F 0.00
expand: MAIN (2, 0) FAR  w(0) 5218. F 0.00
expand: MAIN (3, 0) FAR  w(0) 744.
	create_child: MAIN (2, 5) FAR 5441 U 0.00
expand: MAIN (2, 0) FAR  w(0) 5441.
	create_child: top_step (1, 5) FAR 5444 U 0.00
expand: top_step (1, 0) FAR  w(0) 5444.
	create_child: SWITCH1_step (0, 5) FAR 5434 U 0.00
expand: SWITCH1_step (0, 0) FAR  w(0) 5434. F 0.00
expand: top_step (1, 0) FAR  w(0) 5444.
	create_child: SWITCH1_step (0, 5) FAR 5501 U 0.00
expand: SWITCH1_step (0, 0) FAR  w(0) 5501.
	create_child: SWITCH_step (0, 5) FAR 5511 X 0.00
expand: SWITCH_step (0, 0) FAR  w(0) 5511. F 0.00
expand: top_step (1, 0) FAR  w(0) 5444. F 0.00
expand: MAIN (2, 0) FAR  w(0) 5441. F 0.00
expand: MAIN (3, 0) FAR  w(0) 744.
	create_child: top_step (2, 5) FAR 5780 U 0.00
expand: top_step (2, 0) FAR  w(0) 5780.
	create_child: SWITCH1_step (1, 5) FAR 5892 U 0.00
expand: SWITCH1_step (1, 0) FAR  w(0) 5892. F 0.00
expand: top_step (2, 0) FAR  w(0) 5780.
	create_child: SWITCH1_step (1, 5) FAR 5930 U 0.00
expand: SWITCH1_step (1, 0) FAR  w(0) 5930. F 0.00
expand: top_step (2, 0) FAR  w(0) 5780.
	create_child: SWITCH1_step (1, 5) FAR 6014 U 0.00
expand: SWITCH1_step (1, 0) FAR  w(0) 6014.
	create_child: SWITCH_step (1, 5) FAR 6038 X 0.00
expand: SWITCH_step (1, 0) FAR  w(0) 6038. F 0.00
expand: top_step (2, 0) FAR  w(0) 5780.
	create_child: SWITCH1_step (1, 5) FAR 6095 U 0.00
expand: SWITCH1_step (1, 0) FAR  w(0) 6095.
	create_child: SWITCH_step (1, 5) FAR 6129 X 0.00
expand: SWITCH_step (1, 0) FAR  w(0) 6129. F 0.00
expand: top_step (2, 0) FAR  w(0) 5780. F 0.00
expand: MAIN (3, 0) FAR  w(0) 744.
	create_child: top_step (2, 5) FAR 5771 U 0.00
expand: top_step (2, 0) FAR  w(0) 5771.
	create_child: SWITCH1_step (1, 5) FAR 6363 U 0.00
expand: SWITCH1_step (1, 0) FAR  w(0) 6363. F 0.00
expand: top_step (2, 0) FAR  w(0) 5771.
	create_child: SWITCH1_step (1, 5) FAR 6321 U 0.00
expand: SWITCH1_step (1, 0) FAR  w(0) 6321. F 0.00
expand: top_step (2, 0) FAR  w(0) 5771.
	create_child: SWITCH_step (1, 5) FAR 6440 U 0.00
expand: SWITCH_step (1, 0) FAR  w(0) 6440. F 0.00
expand: top_step (2, 0) FAR  w(0) 5771.
	create_child: SWITCH_step (1, 5) FAR 6482 U 0.00
expand: SWITCH_step (1, 0) FAR  w(0) 6482. F 0.00
expand: top_step (2, 0) FAR  w(0) 5771. F 0.00
expand: MAIN (3, 0) FAR  w(0) 744. F 0.00
expand: ERR (4, 0) FAR  w(0) 1. F 0.00
expand: query!0 (5, 0) FAR  w(0) 1. F 0.00
(spacer::context::check_reachability :time 0.03 :before-memory 15.67 :after-memory 16.15)
Propagating: 0 1 2 3 4 5  ! 6 
(spacer::context::propagate :time 0.00 :before-memory 16.15 :after-memory 16.15)
Entering level 6
BRUNCH_STAT max_query_lvl 5
BRUNCH_STAT num_queries 41
BRUNCH_STAT num_reach_queries 1
BRUNCH_STAT num_reach_reuse 20
BRUNCH_STAT inductive_lvl 0
BRUNCH_STAT max_depth 6
BRUNCH_STAT cex_depth 0
expand: query!0 (6, 0) FAR  w(0) 1.
	create_child: ERR (5, 6) FAR 1 U 0.00
expand: ERR (5, 0) FAR  w(0) 1.
	create_child: MAIN (4, 6) FAR 744 U 0.00
expand: MAIN (4, 0) FAR  w(0) 744.
	create_child: MAIN (3, 6) FAR 5441 U 0.00
expand: MAIN (3, 0) FAR  w(0) 5441.
	create_child: top_step (2, 6) FAR 6909 U 0.00
expand: top_step (2, 0) FAR  w(0) 6909.
	create_child: SWITCH1_step (1, 6) FAR 6951 U 0.00
expand: SWITCH1_step (1, 0) FAR  w(0) 6951. F 0.00
expand: top_step (2, 0) FAR  w(0) 6909.
	create_child: SWITCH1_step (1, 6) FAR 6948 U 0.00
expand: SWITCH1_step (1, 0) FAR  w(0) 6948.
	create_child: SWITCH_step (1, 6) FAR 6944 X 0.00
expand: SWITCH_step (1, 0) FAR  w(0) 6944. F 0.00
expand: top_step (2, 0) FAR  w(0) 6909. F 0.00
expand: MAIN (3, 0) FAR  w(0) 5441.
	create_child: top_step (2, 6) FAR 6907 U 0.00
expand: top_step (2, 0) FAR  w(0) 6907.
	create_child: MAIN (2, 6) FAR 7131 X 0.00
expand: MAIN (2, 0) FAR  w(0) 7131.
	create_child: top_reset (1, 6) FAR 6483 U 0.00
expand: top_reset (1, 0) FAR  w(0) 6483. T 0.00
is-reachable: MAIN (2, 0) FAR 7131 T 0.00
is-reachable: MAIN (3, 0) FAR 5441 T 0.00
is-reachable: MAIN (4, 0) FAR 744 T 0.00
is-reachable: ERR (5, 0) FAR 1 T 0.00
is-reachable: query!0 (6, 0) FAR 1 T 0.00
(spacer::context::check_reachability :time 0.01 :before-memory 16.15 :after-memory 16.25)
BRUNCH_STAT max_query_lvl 6
BRUNCH_STAT num_queries 49
BRUNCH_STAT num_reach_queries 7
BRUNCH_STAT num_reach_reuse 25
BRUNCH_STAT inductive_lvl 0
BRUNCH_STAT max_depth 6
BRUNCH_STAT cex_depth 6
(:SPACER-cex-depth                     6
 :SPACER-max-depth                     6
 :SPACER-max-query-lvl                 6
 :SPACER-num-invariants                32
 :SPACER-num-lemmas                    50
 :SPACER-num-properties                39
 :SPACER-num-queries                   49
 :SPACER-num-reach-queries             7
 :SPACER-num-reuse-reach-facts         25
 :bool-inductive-gen                   36
 :bool-inductive-gen-failures          92
 :conflicts                            267
 :decisions                            1289
 :del-clause                           45
 :final-checks                         172
 :minimized-lits                       30
 :mk-bool-var                          2299
 :mk-clause                            1170
 :num-checks                           346
 :propagations                         14099
 :time.itp_solver.itp_core             0.01
 :time.spacer.init_rules               0.01
 :time.spacer.init_rules.pt.init       0.00
 :time.spacer.solve                    0.07
 :time.spacer.solve.propagate          0.00
 :time.spacer.solve.pt.must_reachable  0.00
 :time.spacer.solve.reach              0.07
 :time.spacer.solve.reach.children     0.01
 :time.spacer.solve.reach.gen.bool_ind 0.01
 :time.spacer.solve.reach.is-reach     0.00
 :time.virtual_solver.proof            0.00
 :time.virtual_solver.smt.total        0.03
 :time.virtual_solver.smt.total.sat    0.02
 :virtual_solver.checks                346
 :virtual_solver.checks.sat            172)
BRUNCH_STAT max_query_lvl 6
BRUNCH_STAT num_queries 49
BRUNCH_STAT num_reach_queries 7
BRUNCH_STAT num_reach_reuse 25
BRUNCH_STAT inductive_lvl 0
BRUNCH_STAT max_depth 6
BRUNCH_STAT cex_depth 6

real	0m0.095s
user	0m0.084s
sys	0m0.008s
