(transform N7datalog13mk_coi_filterE...no-op 0s)
(transform N7datalog25mk_interp_tail_simplifierE...14 rules 0s)
(transform N7datalog27mk_quantifier_instantiationE...no-op 0s)
(transform N7datalog8mk_scaleE...no-op 0s)
(transform N7datalog18mk_karr_invariantsE...no-op 0s)
(transform N7datalog14mk_array_blastE...no-op 0s)
(transform N7datalog22mk_subsumption_checkerE...13 rules 0s)
(transform N7datalog12mk_bit_blastE...no-op 0s)
(transform N7datalog15mk_rule_inlinerE...no-op 0s)
(transform N7datalog13mk_coi_filterE...no-op 0s)
(transform N7datalog25mk_interp_tail_simplifierE...13 rules 0s)
(transform N7datalog22mk_subsumption_checkerE...no-op 0s)
(transform N7datalog15mk_rule_inlinerE...no-op 0s)
(transform N7datalog13mk_coi_filterE...no-op 0s)
(transform N7datalog25mk_interp_tail_simplifierE...13 rules 0s)
(transform N7datalog22mk_subsumption_checkerE...no-op 0s)
(transform N7datalog15mk_rule_inlinerE...no-op 0s)
(transform N7datalog22mk_subsumption_checkerE...no-op 0s)
(transform N7datalog15mk_rule_inlinerE...no-op 0s)
(transform N7datalog22mk_subsumption_checkerE...no-op 0s)
(transform N7datalog15mk_rule_inlinerE...no-op 0s)
(transform N7datalog22mk_subsumption_checkerE...no-op 0s)
expand: query!0 (0, 0) FAR  w(0) 1. F 0.00
(spacer::context::check_reachability :time 0.00 :before-memory 13.08 :after-memory 13.58)
Entering level 1
BRUNCH_STAT max_query_lvl 0
BRUNCH_STAT num_queries 0
BRUNCH_STAT num_reach_queries 0
BRUNCH_STAT num_reach_reuse 0
BRUNCH_STAT inductive_lvl 0
BRUNCH_STAT max_depth 1
BRUNCH_STAT cex_depth 0
expand: query!0 (1, 0) FAR  w(0) 1.
	create_child: ERR (0, 1) FAR 1 U 0.00
expand: ERR (0, 0) FAR  w(0) 1. F 0.00
expand: query!0 (1, 0) FAR  w(0) 1. F 0.00
(spacer::context::check_reachability :time 0.00 :before-memory 13.58 :after-memory 14.02)
Propagating: 0 1  ! 2 
(spacer::context::propagate :time 0.00 :before-memory 14.02 :after-memory 14.02)
Entering level 2
BRUNCH_STAT max_query_lvl 1
BRUNCH_STAT num_queries 1
BRUNCH_STAT num_reach_queries 0
BRUNCH_STAT num_reach_reuse 0
BRUNCH_STAT inductive_lvl 0
BRUNCH_STAT max_depth 2
BRUNCH_STAT cex_depth 0
expand: query!0 (2, 0) FAR  w(0) 1.
	create_child: ERR (1, 2) FAR 1 U 0.00
expand: ERR (1, 0) FAR  w(0) 1.
	create_child: MAIN (0, 2) FAR 1615 U 0.00
expand: MAIN (0, 0) FAR  w(0) 1615. F 0.00
expand: ERR (1, 0) FAR  w(0) 1. F 0.00
expand: query!0 (2, 0) FAR  w(0) 1. F 0.00
(spacer::context::check_reachability :time 0.00 :before-memory 14.02 :after-memory 14.64)
Propagating: 0 1 2  ! 3 
(spacer::context::propagate :time 0.00 :before-memory 14.64 :after-memory 14.64)
Entering level 3
BRUNCH_STAT max_query_lvl 2
BRUNCH_STAT num_queries 3
BRUNCH_STAT num_reach_queries 0
BRUNCH_STAT num_reach_reuse 0
BRUNCH_STAT inductive_lvl 0
BRUNCH_STAT max_depth 3
BRUNCH_STAT cex_depth 0
expand: query!0 (3, 0) FAR  w(0) 1.
	create_child: ERR (2, 3) FAR 1 U 0.00
expand: ERR (2, 0) FAR  w(0) 1.
	create_child: MAIN (1, 3) FAR 1615 U 0.00
expand: MAIN (1, 0) FAR  w(0) 1615.
	create_child: top_step (0, 3) FAR 2238 U 0.00
expand: top_step (0, 0) FAR  w(0) 2238. F 0.00
expand: MAIN (1, 0) FAR  w(0) 1615. F 0.00
expand: ERR (2, 0) FAR  w(0) 1. F 0.00
expand: query!0 (3, 0) FAR  w(0) 1. F 0.00
(spacer::context::check_reachability :time 0.00 :before-memory 14.64 :after-memory 15.32)
Propagating: 0 1 2 3  ! 4 
(spacer::context::propagate :time 0.00 :before-memory 15.32 :after-memory 15.32)
Entering level 4
BRUNCH_STAT max_query_lvl 3
BRUNCH_STAT num_queries 6
BRUNCH_STAT num_reach_queries 0
BRUNCH_STAT num_reach_reuse 0
BRUNCH_STAT inductive_lvl 0
BRUNCH_STAT max_depth 4
BRUNCH_STAT cex_depth 0
expand: query!0 (4, 0) FAR  w(0) 1.
	create_child: ERR (3, 4) FAR 1 U 0.00
expand: ERR (3, 0) FAR  w(0) 1.
	create_child: MAIN (2, 4) FAR 1615 U 0.00
expand: MAIN (2, 0) FAR  w(0) 1615.
	create_child: top_step (1, 4) FAR 2238 U 0.00
expand: top_step (1, 0) FAR  w(0) 2238.
	create_child: top_reset (1, 4) FAR 5304 X 0.00
expand: top_reset (1, 0) FAR  w(0) 5304. F 0.00
expand: MAIN (2, 0) FAR  w(0) 1615.
	create_child: top_reset (1, 4) FAR 7344 U 0.00
expand: top_reset (1, 0) FAR  w(0) 7344.
	create_child: Sofar_reset (0, 4) FAR 7236 U 0.00
expand: Sofar_reset (0, 0) FAR  w(0) 7236. F 0.00
expand: top_reset (1, 0) FAR  w(0) 7344. F 0.00
expand: MAIN (2, 0) FAR  w(0) 1615.
	create_child: top_reset (1, 4) FAR 7497 U 0.00
expand: top_reset (1, 0) FAR  w(0) 7497.
	create_child: synapse_reset (0, 4) FAR 7429 U 0.00
expand: synapse_reset (0, 0) FAR  w(0) 7429. F 0.00
expand: top_reset (1, 0) FAR  w(0) 7497. F 0.00
expand: MAIN (2, 0) FAR  w(0) 1615.
	create_child: top_reset (1, 4) FAR 7572 U 0.00
expand: top_reset (1, 0) FAR  w(0) 7572.
	create_child: First_reset (0, 4) FAR 7519 U 0.00
expand: First_reset (0, 0) FAR  w(0) 7519. F 0.00
expand: top_reset (1, 0) FAR  w(0) 7572. F 0.00
expand: MAIN (2, 0) FAR  w(0) 1615.
	create_child: top_step (1, 4) FAR 7687 U 0.00
expand: top_step (1, 0) FAR  w(0) 7687.
	create_child: synapse_step (0, 4) FAR 8029 U 0.00
expand: synapse_step (0, 0) FAR  w(0) 8029. F 0.00
expand: top_step (1, 0) FAR  w(0) 7687.
	create_child: synapse_step (0, 4) FAR 7987 U 0.00
expand: synapse_step (0, 0) FAR  w(0) 7987. F 0.00
expand: top_step (1, 0) FAR  w(0) 7687.
	create_child: synapse_step (0, 4) FAR 9070 U 0.00
expand: synapse_step (0, 0) FAR  w(0) 9070. F 0.00
expand: top_step (1, 0) FAR  w(0) 7687.
	create_child: First_step (0, 4) FAR 9283 U 0.00
expand: First_step (0, 0) FAR  w(0) 9283. F 0.00
expand: top_step (1, 0) FAR  w(0) 7687.
	create_child: First_step (0, 4) FAR 9436 U 0.00
expand: First_step (0, 0) FAR  w(0) 9436. F 0.00
expand: top_step (1, 0) FAR  w(0) 7687. F 0.00
expand: MAIN (2, 0) FAR  w(0) 1615. F 0.00
expand: ERR (3, 0) FAR  w(0) 1. F 0.00
expand: query!0 (4, 0) FAR  w(0) 1. F 0.00
(spacer::context::check_reachability :time 0.04 :before-memory 15.32 :after-memory 20.20)
Propagating: 0 1 2 3 4  ! 5 
(spacer::context::propagate :time 0.00 :before-memory 20.20 :after-memory 20.20)
Entering level 5
BRUNCH_STAT max_query_lvl 4
BRUNCH_STAT num_queries 21
BRUNCH_STAT num_reach_queries 1
BRUNCH_STAT num_reach_reuse 27
BRUNCH_STAT inductive_lvl 0
BRUNCH_STAT max_depth 5
BRUNCH_STAT cex_depth 0
expand: query!0 (5, 0) FAR  w(0) 1.
	create_child: ERR (4, 5) FAR 1 U 0.00
expand: ERR (4, 0) FAR  w(0) 1.
	create_child: MAIN (3, 5) FAR 1615 U 0.00
expand: MAIN (3, 0) FAR  w(0) 1615.
	create_child: MAIN (2, 5) FAR 9824 U 0.00
expand: MAIN (2, 0) FAR  w(0) 9824.
	create_child: top_step (1, 5) FAR 9831 U 0.00
expand: top_step (1, 0) FAR  w(0) 9831.
	create_child: synapse_step (0, 5) FAR 9921 U 0.00
expand: synapse_step (0, 0) FAR  w(0) 9921. F 0.00
expand: top_step (1, 0) FAR  w(0) 9831. F 0.00
expand: MAIN (2, 0) FAR  w(0) 9824. F 0.00
expand: MAIN (3, 0) FAR  w(0) 1615.
	create_child: MAIN (2, 5) FAR 10313 U 0.00
expand: MAIN (2, 0) FAR  w(0) 10313.
	create_child: top_step (1, 5) FAR 10314 U 0.00
expand: top_step (1, 0) FAR  w(0) 10314.
	create_child: synapse_step (0, 5) FAR 9901 U 0.00
expand: synapse_step (0, 0) FAR  w(0) 9901. F 0.00
expand: top_step (1, 0) FAR  w(0) 10314. F 0.00
expand: MAIN (2, 0) FAR  w(0) 10313. F 0.00
expand: MAIN (3, 0) FAR  w(0) 1615.
	create_child: MAIN (2, 5) FAR 10587 U 0.00
expand: MAIN (2, 0) FAR  w(0) 10587.
	create_child: top_step (1, 5) FAR 10580 U 0.00
expand: top_step (1, 0) FAR  w(0) 10580.
	create_child: First_step (0, 5) FAR 10733 U 0.00
expand: First_step (0, 0) FAR  w(0) 10733. F 0.00
expand: top_step (1, 0) FAR  w(0) 10580. F 0.00
expand: MAIN (2, 0) FAR  w(0) 10587. F 0.00
expand: MAIN (3, 0) FAR  w(0) 1615.
	create_child: MAIN (2, 5) FAR 11090 U 0.00
expand: MAIN (2, 0) FAR  w(0) 11090.
	create_child: top_step (1, 5) FAR 11014 U 0.00
expand: top_step (1, 0) FAR  w(0) 11014.
	create_child: First_step (0, 5) FAR 11129 U 0.00
expand: First_step (0, 0) FAR  w(0) 11129. F 0.00
expand: top_step (1, 0) FAR  w(0) 11014. F 0.00
expand: MAIN (2, 0) FAR  w(0) 11090. F 0.00
expand: MAIN (3, 0) FAR  w(0) 1615.
	create_child: MAIN (2, 5) FAR 11196 U 0.00
expand: MAIN (2, 0) FAR  w(0) 11196.
	create_child: top_step (1, 5) FAR 11145 U 0.00
expand: top_step (1, 0) FAR  w(0) 11145.
	create_child: Sofar_step (0, 5) FAR 11263 U 0.00
expand: Sofar_step (0, 0) FAR  w(0) 11263. F 0.00
expand: top_step (1, 0) FAR  w(0) 11145. F 0.00
expand: MAIN (2, 0) FAR  w(0) 11196. F 0.00
expand: MAIN (3, 0) FAR  w(0) 1615.
	create_child: MAIN (2, 5) FAR 11537 U 0.00
expand: MAIN (2, 0) FAR  w(0) 11537.
	create_child: top_step (1, 5) FAR 11491 U 0.00
expand: top_step (1, 0) FAR  w(0) 11491.
	create_child: First_step (0, 5) FAR 11564 U 0.00
expand: First_step (0, 0) FAR  w(0) 11564. F 0.00
expand: top_step (1, 0) FAR  w(0) 11491. F 0.00
expand: MAIN (2, 0) FAR  w(0) 11537. F 0.00
expand: MAIN (3, 0) FAR  w(0) 1615.
	create_child: MAIN (2, 5) FAR 11834 U 0.00
expand: MAIN (2, 0) FAR  w(0) 11834.
	create_child: top_step (1, 5) FAR 11828 U 0.00
expand: top_step (1, 0) FAR  w(0) 11828.
	create_child: synapse_step (0, 5) FAR 11997 U 0.00
expand: synapse_step (0, 0) FAR  w(0) 11997. F 0.00
expand: top_step (1, 0) FAR  w(0) 11828. F 0.00
expand: MAIN (2, 0) FAR  w(0) 11834. F 0.00
expand: MAIN (3, 0) FAR  w(0) 1615.
	create_child: MAIN (2, 5) FAR 12382 U 0.00
expand: MAIN (2, 0) FAR  w(0) 12382.
	create_child: top_step (1, 5) FAR 12348 U 0.00
expand: top_step (1, 0) FAR  w(0) 12348.
	create_child: synapse_step (0, 5) FAR 12385 U 0.00
expand: synapse_step (0, 0) FAR  w(0) 12385. F 0.00
expand: top_step (1, 0) FAR  w(0) 12348. F 0.00
expand: MAIN (2, 0) FAR  w(0) 12382. F 0.00
expand: MAIN (3, 0) FAR  w(0) 1615.
	create_child: MAIN (2, 5) FAR 12677 U 0.00
expand: MAIN (2, 0) FAR  w(0) 12677.
	create_child: top_step (1, 5) FAR 12661 U 0.00
expand: top_step (1, 0) FAR  w(0) 12661. F 0.00
expand: MAIN (2, 0) FAR  w(0) 12677. F 0.00
expand: MAIN (3, 0) FAR  w(0) 1615.
	create_child: MAIN (2, 5) FAR 12827 U 0.00
expand: MAIN (2, 0) FAR  w(0) 12827.
	create_child: top_step (1, 5) FAR 12837 U 0.00
expand: top_step (1, 0) FAR  w(0) 12837. F 0.00
expand: MAIN (2, 0) FAR  w(0) 12827. F 0.00
expand: MAIN (3, 0) FAR  w(0) 1615.
	create_child: top_step (2, 5) FAR 13224 U 0.00
expand: top_step (2, 0) FAR  w(0) 13224.
	create_child: synapse_step (1, 5) FAR 14739 U 0.01
expand: synapse_step (1, 0) FAR  w(0) 14739. F 0.00
expand: top_step (2, 0) FAR  w(0) 13224.
	create_child: synapse_step (1, 5) FAR 15208 U 0.00
expand: synapse_step (1, 0) FAR  w(0) 15208. F 0.00
expand: top_step (2, 0) FAR  w(0) 13224.
	create_child: synapse_step (1, 5) FAR 15469 U 0.00
expand: synapse_step (1, 0) FAR  w(0) 15469. F 0.00
expand: top_step (2, 0) FAR  w(0) 13224.
	create_child: synapse_step (1, 5) FAR 15761 U 0.00
expand: synapse_step (1, 0) FAR  w(0) 15761. F 0.00
expand: top_step (2, 0) FAR  w(0) 13224.
	create_child: synapse_step (1, 5) FAR 14660 U 0.00
expand: synapse_step (1, 0) FAR  w(0) 14660.
	create_child: First_step (1, 5) FAR 14642 X 0.00
expand: First_step (1, 0) FAR  w(0) 14642. F 0.00
expand: top_step (2, 0) FAR  w(0) 13224.
	create_child: synapse_step (1, 5) FAR 15866 U 0.00
expand: synapse_step (1, 0) FAR  w(0) 15866.
	create_child: First_step (1, 5) FAR 15921 X 0.00
expand: First_step (1, 0) FAR  w(0) 15921. F 0.00
expand: top_step (2, 0) FAR  w(0) 13224. F 0.01
expand: MAIN (3, 0) FAR  w(0) 1615. F 0.00
expand: ERR (4, 0) FAR  w(0) 1. F 0.00
expand: query!0 (5, 0) FAR  w(0) 1. F 0.00
(spacer::context::check_reachability :time 0.14 :before-memory 20.20 :after-memory 23.20)
Propagating: 0 1 2 3 4 5  ! 6 
(spacer::context::propagate :time 0.01 :before-memory 23.20 :after-memory 23.20)
Entering level 6
BRUNCH_STAT max_query_lvl 5
BRUNCH_STAT num_queries 58
BRUNCH_STAT num_reach_queries 1
BRUNCH_STAT num_reach_reuse 76
BRUNCH_STAT inductive_lvl 0
BRUNCH_STAT max_depth 6
BRUNCH_STAT cex_depth 0
expand: query!0 (6, 0) FAR  w(0) 1.
	create_child: ERR (5, 6) FAR 1 U 0.00
expand: ERR (5, 0) FAR  w(0) 1.
	create_child: MAIN (4, 6) FAR 1615 U 0.00
expand: MAIN (4, 0) FAR  w(0) 1615.
	create_child: MAIN (3, 6) FAR 17123 U 0.00
expand: MAIN (3, 0) FAR  w(0) 17123.
	create_child: top_step (2, 6) FAR 17133 U 0.00
expand: top_step (2, 0) FAR  w(0) 17133. F 0.01
expand: MAIN (3, 0) FAR  w(0) 17123. F 0.00
expand: MAIN (4, 0) FAR  w(0) 1615.
	create_child: MAIN (3, 6) FAR 17789 U 0.00
expand: MAIN (3, 0) FAR  w(0) 17789.
	create_child: top_step (2, 6) FAR 17807 U 0.00
expand: top_step (2, 0) FAR  w(0) 17807.
	create_child: Sofar_step (1, 6) FAR 17981 U 0.00
expand: Sofar_step (1, 0) FAR  w(0) 17981. F 0.00
expand: top_step (2, 0) FAR  w(0) 17807.
	create_child: Sofar_step (1, 6) FAR 17932 U 0.00
expand: Sofar_step (1, 0) FAR  w(0) 17932.
	create_child: First_step (1, 6) FAR 17919 X 0.00
expand: First_step (1, 0) FAR  w(0) 17919. F 0.00
expand: top_step (2, 0) FAR  w(0) 17807. F 0.01
expand: MAIN (3, 0) FAR  w(0) 17789. F 0.00
expand: MAIN (4, 0) FAR  w(0) 1615.
	create_child: MAIN (3, 6) FAR 12827 U 0.00
expand: MAIN (3, 0) FAR  w(0) 12827.
	create_child: top_step (2, 6) FAR 18414 U 0.00
expand: top_step (2, 0) FAR  w(0) 18414.
	create_child: Sofar_step (1, 6) FAR 17932 U 0.00
expand: Sofar_step (1, 0) FAR  w(0) 17932.
	create_child: synapse_step (1, 6) FAR 18532 X 0.00
expand: synapse_step (1, 0) FAR  w(0) 18532. F 0.00
expand: top_step (2, 0) FAR  w(0) 18414. F 0.01
expand: MAIN (3, 0) FAR  w(0) 12827. F 0.00
expand: MAIN (4, 0) FAR  w(0) 1615.
	create_child: MAIN (3, 6) FAR 11834 U 0.00
expand: MAIN (3, 0) FAR  w(0) 11834.
	create_child: top_step (2, 6) FAR 18830 U 0.00
expand: top_step (2, 0) FAR  w(0) 18830. F 0.01
expand: MAIN (3, 0) FAR  w(0) 11834. F 0.00
expand: MAIN (4, 0) FAR  w(0) 1615.
	create_child: top_step (3, 6) FAR 19097 U 0.00
expand: top_step (3, 0) FAR  w(0) 19097.
	create_child: synapse_step (2, 6) FAR 19434 U 0.00
expand: synapse_step (2, 0) FAR  w(0) 19434. F 0.00
expand: top_step (3, 0) FAR  w(0) 19097. F 0.01
expand: MAIN (4, 0) FAR  w(0) 1615. F 0.00
expand: ERR (5, 0) FAR  w(0) 1. F 0.00
expand: query!0 (6, 0) FAR  w(0) 1. F 0.00
(spacer::context::check_reachability :time 0.09 :before-memory 23.20 :after-memory 24.65)
Propagating: 1 2 3 4 5 6  ! 7 
(spacer::context::propagate :time 0.01 :before-memory 24.65 :after-memory 24.65)
Entering level 7
BRUNCH_STAT max_query_lvl 6
BRUNCH_STAT num_queries 73
BRUNCH_STAT num_reach_queries 1
BRUNCH_STAT num_reach_reuse 89
BRUNCH_STAT inductive_lvl 0
BRUNCH_STAT max_depth 7
BRUNCH_STAT cex_depth 0
expand: query!0 (7, 0) FAR  w(0) 1.
	create_child: ERR (6, 7) FAR 1 U 0.00
expand: ERR (6, 0) FAR  w(0) 1.
	create_child: MAIN (5, 7) FAR 1615 U 0.00
expand: MAIN (5, 0) FAR  w(0) 1615.
	create_child: MAIN (4, 7) FAR 20638 U 0.00
expand: MAIN (4, 0) FAR  w(0) 20638.
	create_child: top_step (3, 7) FAR 20403 U 0.00
expand: top_step (3, 0) FAR  w(0) 20403. F 0.01
expand: MAIN (4, 0) FAR  w(0) 20638. F 0.00
expand: MAIN (5, 0) FAR  w(0) 1615.
	create_child: MAIN (4, 7) FAR 11834 U 0.00
expand: MAIN (4, 0) FAR  w(0) 11834.
	create_child: top_step (3, 7) FAR 20951 U 0.00
expand: top_step (3, 0) FAR  w(0) 20951. F 0.01
expand: MAIN (4, 0) FAR  w(0) 11834. F 0.00
expand: MAIN (5, 0) FAR  w(0) 1615. F 0.00
expand: ERR (6, 0) FAR  w(0) 1. F 0.00
expand: query!0 (7, 0) FAR  w(0) 1. F 0.00
(spacer::context::check_reachability :time 0.03 :before-memory 24.65 :after-memory 24.84)
Propagating: 3 
(spacer::context::propagate :time 0.00 :before-memory 24.84 :after-memory 24.84)
(define-fun ERR () Bool
  false)
(define-fun First_reset ((x!0 Int) (x!1 Bool) (x!2 Int) (x!3 Bool)) Bool
  x!3)
(define-fun First_step ((x!0 Int)
 (x!1 Int)
 (x!2 Int)
 (x!3 Bool)
 (x!4 Int)
 (x!5 Bool)) Bool
  (let ((a!1 (or (<= (+ x!1 (* (- 1) x!2)) 0) x!3))
        (a!2 (or (not x!3) (= (+ x!1 (* (- 1) x!0)) 0)))
        (a!3 (or (>= (+ x!1 (* (- 1) x!2)) 0) x!3)))
    (and a!1
         (not x!5)
         a!2
         (>= (+ x!1 (* (- 1) x!4)) 0)
         (<= (+ x!1 (* (- 1) x!4)) 0)
         a!3)))
(define-fun synapse_step ((x!0 Bool)
 (x!1 Bool)
 (x!2 Bool)
 (x!3 Int)
 (x!4 Int)
 (x!5 Int)
 (x!6 Int)
 (x!7 Int)
 (x!8 Int)
 (x!9 Int)
 (x!10 Int)
 (x!11 Int)
 (x!12 Bool)
 (x!13 Int)
 (x!14 Int)
 (x!15 Int)
 (x!16 Int)
 (x!17 Bool)) Bool
  (let ((a!1 (or (= (+ x!5 (* (- 1) x!9)) 0) (<= x!6 0) (<= x!5 0)))
        (a!2 (or (>= (+ x!4 x!5 x!6 (* (- 1) x!3)) 0) (not x!12)))
        (a!3 (or (>= (+ x!3 (* (- 1) x!4) (* (- 1) x!5) (* (- 1) x!6)) 0)
                 (not x!12)))
        (a!4 (+ x!4 x!5 x!6 (* (- 1) x!10) (* (- 1) x!8) (* (- 1) x!9)))
        (a!5 (or (= x!6 1) (<= x!6 0) (= (+ x!6 (* (- 1) x!8)) 0)))
        (a!6 (not (<= (+ x!4 x!5 x!6 (* (- 1) x!10) (* (- 1) x!9)) 0))))
    (and a!1
         (not x!17)
         a!2
         (or (<= x!6 0) (not x!12))
         a!3
         (>= (+ x!13 x!14 x!15 (* (- 1) x!4) (* (- 1) x!5) (* (- 1) x!6)) 0)
         (>= (+ x!4 x!5 x!6 (* (- 1) x!13) (* (- 1) x!14) (* (- 1) x!15)) 0)
         (>= (+ x!14 x!15 (* (- 1) x!4) (* (- 1) x!5)) 0)
         (or (>= a!4 0) x!12)
         a!5
         (or (<= a!4 0) x!12)
         (or (<= x!5 0) (<= x!6 0) a!6)
         (>= (+ x!5 (* (- 1) x!14)) 0))))
(define-fun top_reset ((x!0 Int)
 (x!1 Int)
 (x!2 Bool)
 (x!3 Bool)
 (x!4 Int)
 (x!5 Int)
 (x!6 Int)
 (x!7 Int)
 (x!8 Bool)
 (x!9 Bool)
 (x!10 Bool)
 (x!11 Int)
 (x!12 Int)
 (x!13 Bool)
 (x!14 Bool)
 (x!15 Int)
 (x!16 Int)
 (x!17 Int)
 (x!18 Int)
 (x!19 Bool)
 (x!20 Bool)
 (x!21 Bool)) Bool
  (and x!21 x!13 x!14 x!19))
(define-fun synapse_reset ((x!0 Int)
 (x!1 Int)
 (x!2 Int)
 (x!3 Int)
 (x!4 Bool)
 (x!5 Int)
 (x!6 Int)
 (x!7 Int)
 (x!8 Int)
 (x!9 Bool)) Bool
  x!9)
(define-fun Sofar_reset ((x!0 Bool) (x!1 Bool) (x!2 Bool) (x!3 Bool)) Bool
  x!3)
(define-fun excludes3_fun ((x!0 Bool) (x!1 Bool) (x!2 Bool) (x!3 Bool)) Bool
  true)
(define-fun Sofar_step ((x!0 Bool)
 (x!1 Bool)
 (x!2 Bool)
 (x!3 Bool)
 (x!4 Bool)
 (x!5 Bool)) Bool
  (and (or x!0 (not x!4)) (not x!5)))
(define-fun MAIN ((x!0 Int)
 (x!1 Int)
 (x!2 Bool)
 (x!3 Bool)
 (x!4 Int)
 (x!5 Int)
 (x!6 Int)
 (x!7 Int)
 (x!8 Bool)
 (x!9 Bool)
 (x!10 Bool)
 (x!11 Bool)) Bool
  (let ((a!1 (or (<= (+ x!0 (* (- 1) x!5) (* (- 1) x!6)) 0) (<= x!5 0)))
        (a!2 (+ x!0 (* (- 1) x!4) (* (- 1) x!5) (* (- 1) x!6)))
        (a!3 (not (>= (+ x!0 (* (- 1) x!5) (* (- 1) x!6)) 2))))
    (and a!1
         x!11
         (not x!2)
         (not x!3)
         (not x!8)
         (not x!10)
         (<= a!2 0)
         (>= (+ x!0 (* (- 1) x!1)) 0)
         (>= a!2 0)
         (<= (+ x!0 (* (- 1) x!1)) 0)
         a!3)))
(define-fun top_step ((x!0 Bool)
 (x!1 Bool)
 (x!2 Bool)
 (x!3 Int)
 (x!4 Bool)
 (x!5 Int)
 (x!6 Int)
 (x!7 Bool)
 (x!8 Bool)
 (x!9 Int)
 (x!10 Int)
 (x!11 Int)
 (x!12 Int)
 (x!13 Bool)
 (x!14 Bool)
 (x!15 Bool)
 (x!16 Int)
 (x!17 Int)
 (x!18 Bool)
 (x!19 Bool)
 (x!20 Int)
 (x!21 Int)
 (x!22 Int)
 (x!23 Int)
 (x!24 Bool)
 (x!25 Bool)
 (x!26 Bool)) Bool
  (let ((a!1 (not (<= (+ x!5 (* (- 1) x!10) (* (- 1) x!11)) 1)))
        (a!2 (not (>= (+ x!16 (* (- 1) x!21) (* (- 1) x!22)) 2)))
        (a!3 (+ x!5 (* (- 1) x!10) (* (- 1) x!11) (* (- 1) x!9)))
        (a!4 (or (>= (+ x!16 (* (- 1) x!17)) 0) (not x!7) (not x!13)))
        (a!5 (or (<= (+ x!16 (* (- 1) x!17)) 0) (not x!7) (not x!13)))
        (a!6 (or (>= (+ x!21 x!22 (* (- 1) x!16)) 0) (not x!13)))
        (a!7 (not (<= (+ x!5 (* (- 1) x!10) (* (- 1) x!11)) 0)))
        (a!8 (not (= (+ x!5 (* (- 1) x!6)) 0)))
        (a!9 (not (>= (+ x!5 (* (- 1) x!6)) 0)))
        (a!11 (not (<= (+ x!5 (* (- 1) x!6)) 0)))
        (a!13 (<= (+ x!16 (* (- 1) x!21) (* (- 1) x!22)) 0)))
  (let ((a!10 (or (not (<= a!3 0)) x!13 x!7 (>= (+ x!16 (* (- 1) x!17)) 0) a!9))
        (a!12 (or (not (>= a!3 0)) x!13 x!7 (<= (+ x!16 (* (- 1) x!17)) 0) a!11)))
    (and (or a!1 a!2 (not (>= a!3 0)))
         (not x!19)
         (not x!26)
         (not x!24)
         (not x!18)
         (>= (+ x!16 (* (- 1) x!20) (* (- 1) x!21) (* (- 1) x!22)) 0)
         (or (not x!13) (not x!7) (not x!8) x!4)
         (>= (+ x!20 x!21 x!22 (* (- 1) x!16)) 0)
         a!4
         a!5
         a!6
         (or (not (= a!3 0)) x!4 x!13 x!7 a!7 a!8)
         a!10
         a!12
         (or a!13 a!7 (not (>= a!3 0)) (<= x!21 0))
         (or a!1 x!4 x!13 x!7 a!8 (not (= a!3 0)) (not (<= x!10 0)))
         (or (not (<= x!10 0)) (<= x!21 0) a!13)))))
BRUNCH_STAT max_query_lvl 7
BRUNCH_STAT num_queries 79
BRUNCH_STAT num_reach_queries 1
BRUNCH_STAT num_reach_reuse 91
BRUNCH_STAT inductive_lvl 3
BRUNCH_STAT max_depth 7
BRUNCH_STAT cex_depth 0
(:SPACER-inductive-level               3
 :SPACER-max-depth                     7
 :SPACER-max-query-lvl                 7
 :SPACER-num-invariants                63
 :SPACER-num-lemmas                    87
 :SPACER-num-properties                61
 :SPACER-num-queries                   79
 :SPACER-num-reach-queries             1
 :SPACER-num-reuse-reach-facts         91
 :added-eqs                            13454
 :arith-add-rows                       6029
 :arith-assert-diseq                   1585
 :arith-assert-lower                   7270
 :arith-assert-upper                   6840
 :arith-bound-prop                     435
 :arith-conflicts                      82
 :arith-eq-adapter                     3073
 :arith-fixed-eqs                      2799
 :arith-offset-eqs                     2648
 :arith-pivots                         894
 :bool-inductive-gen                   69
 :bool-inductive-gen-failures          119
 :conflicts                            700
 :decisions                            9283
 :del-clause                           459
 :final-checks                         218
 :minimized-lits                       270
 :mk-bool-var                          7686
 :mk-clause                            3681
 :num-checks                           615
 :propagations                         79767
 :time.itp_solver.itp_core             0.03
 :time.spacer.init_rules               0.01
 :time.spacer.init_rules.pt.init       0.00
 :time.spacer.solve                    0.32
 :time.spacer.solve.propagate          0.01
 :time.spacer.solve.pt.must_reachable  0.01
 :time.spacer.solve.reach              0.31
 :time.spacer.solve.reach.children     0.06
 :time.spacer.solve.reach.gen.bool_ind 0.06
 :time.virtual_solver.proof            0.02
 :time.virtual_solver.smt.total        0.20
 :time.virtual_solver.smt.total.sat    0.10
 :virtual_solver.checks                615
 :virtual_solver.checks.sat            218)
BRUNCH_STAT max_query_lvl 7
BRUNCH_STAT num_queries 79
BRUNCH_STAT num_reach_queries 1
BRUNCH_STAT num_reach_reuse 91
BRUNCH_STAT inductive_lvl 3
BRUNCH_STAT max_depth 7
BRUNCH_STAT cex_depth 0

real	0m0.387s
user	0m0.380s
sys	0m0.004s
