(transform N7datalog13mk_coi_filterE...no-op 0s)
(transform N7datalog25mk_interp_tail_simplifierE...12 rules 0s)
(transform N7datalog27mk_quantifier_instantiationE...no-op 0s)
(transform N7datalog8mk_scaleE...no-op 0s)
(transform N7datalog18mk_karr_invariantsE...no-op 0s)
(transform N7datalog14mk_array_blastE...no-op 0s)
(transform N7datalog22mk_subsumption_checkerE...11 rules 0s)
(transform N7datalog12mk_bit_blastE...no-op 0s)
(transform N7datalog15mk_rule_inlinerE...no-op 0s)
(transform N7datalog13mk_coi_filterE...no-op 0s)
(transform N7datalog25mk_interp_tail_simplifierE...11 rules 0s)
(transform N7datalog22mk_subsumption_checkerE...no-op 0s)
(transform N7datalog15mk_rule_inlinerE...no-op 0s)
(transform N7datalog13mk_coi_filterE...no-op 0s)
(transform N7datalog25mk_interp_tail_simplifierE...11 rules 0s)
(transform N7datalog22mk_subsumption_checkerE...no-op 0s)
(transform N7datalog15mk_rule_inlinerE...no-op 0s)
(transform N7datalog22mk_subsumption_checkerE...no-op 0s)
(transform N7datalog15mk_rule_inlinerE...no-op 0s)
(transform N7datalog22mk_subsumption_checkerE...no-op 0s)
(transform N7datalog15mk_rule_inlinerE...no-op 0s)
(transform N7datalog22mk_subsumption_checkerE...no-op 0s)
expand: query!0 (0, 0) FAR  w(0) 1. F 0.00
(spacer::context::check_reachability :time 0.00 :before-memory 11.32 :after-memory 11.78)
Entering level 1
BRUNCH_STAT max_query_lvl 0
BRUNCH_STAT num_queries 0
BRUNCH_STAT num_reach_queries 0
BRUNCH_STAT num_reach_reuse 0
BRUNCH_STAT inductive_lvl 0
BRUNCH_STAT max_depth 1
BRUNCH_STAT cex_depth 0
expand: query!0 (1, 0) FAR  w(0) 1.
	create_child: ERR (0, 1) FAR 1 U 0.00
expand: ERR (0, 0) FAR  w(0) 1. F 0.00
expand: query!0 (1, 0) FAR  w(0) 1. F 0.00
(spacer::context::check_reachability :time 0.00 :before-memory 11.78 :after-memory 12.21)
Propagating: 0 1  ! 2 
(spacer::context::propagate :time 0.00 :before-memory 12.21 :after-memory 12.21)
Entering level 2
BRUNCH_STAT max_query_lvl 1
BRUNCH_STAT num_queries 1
BRUNCH_STAT num_reach_queries 0
BRUNCH_STAT num_reach_reuse 0
BRUNCH_STAT inductive_lvl 0
BRUNCH_STAT max_depth 2
BRUNCH_STAT cex_depth 0
expand: query!0 (2, 0) FAR  w(0) 1.
	create_child: ERR (1, 2) FAR 1 U 0.00
expand: ERR (1, 0) FAR  w(0) 1.
	create_child: MAIN (0, 2) FAR 1375 U 0.00
expand: MAIN (0, 0) FAR  w(0) 1375. F 0.00
expand: ERR (1, 0) FAR  w(0) 1. F 0.00
expand: query!0 (2, 0) FAR  w(0) 1. F 0.00
(spacer::context::check_reachability :time 0.00 :before-memory 12.21 :after-memory 12.67)
Propagating: 0 1 2  ! 3 
(spacer::context::propagate :time 0.00 :before-memory 12.67 :after-memory 12.67)
Entering level 3
BRUNCH_STAT max_query_lvl 2
BRUNCH_STAT num_queries 3
BRUNCH_STAT num_reach_queries 0
BRUNCH_STAT num_reach_reuse 0
BRUNCH_STAT inductive_lvl 0
BRUNCH_STAT max_depth 3
BRUNCH_STAT cex_depth 0
expand: query!0 (3, 0) FAR  w(0) 1.
	create_child: ERR (2, 3) FAR 1 U 0.00
expand: ERR (2, 0) FAR  w(0) 1.
	create_child: MAIN (1, 3) FAR 1375 U 0.00
expand: MAIN (1, 0) FAR  w(0) 1375.
	create_child: top_step (0, 3) FAR 1943 U 0.00
expand: top_step (0, 0) FAR  w(0) 1943. F 0.00
expand: MAIN (1, 0) FAR  w(0) 1375. F 0.00
expand: ERR (2, 0) FAR  w(0) 1. F 0.00
expand: query!0 (3, 0) FAR  w(0) 1. F 0.00
(spacer::context::check_reachability :time 0.00 :before-memory 12.67 :after-memory 13.42)
Propagating: 0 1 2 3  ! 4 
(spacer::context::propagate :time 0.00 :before-memory 13.42 :after-memory 13.52)
Entering level 4
BRUNCH_STAT max_query_lvl 3
BRUNCH_STAT num_queries 6
BRUNCH_STAT num_reach_queries 0
BRUNCH_STAT num_reach_reuse 0
BRUNCH_STAT inductive_lvl 0
BRUNCH_STAT max_depth 4
BRUNCH_STAT cex_depth 0
expand: query!0 (4, 0) FAR  w(0) 1.
	create_child: ERR (3, 4) FAR 1 U 0.00
expand: ERR (3, 0) FAR  w(0) 1.
	create_child: MAIN (2, 4) FAR 1375 U 0.00
expand: MAIN (2, 0) FAR  w(0) 1375.
	create_child: top_step (1, 4) FAR 1943 U 0.00
expand: top_step (1, 0) FAR  w(0) 1943.
	create_child: top_reset (1, 4) FAR 4594 X 0.00
expand: top_reset (1, 0) FAR  w(0) 4594. F 0.00
expand: MAIN (2, 0) FAR  w(0) 1375.
	create_child: top_step (1, 4) FAR 6107 U 0.00
expand: top_step (1, 0) FAR  w(0) 6107. F 0.00
expand: MAIN (2, 0) FAR  w(0) 1375. F 0.00
expand: ERR (3, 0) FAR  w(0) 1. F 0.00
expand: query!0 (4, 0) FAR  w(0) 1. F 0.00
(spacer::context::check_reachability :time 0.01 :before-memory 13.52 :after-memory 15.28)
Propagating: 1 2 3 4  ! 5 
(spacer::context::propagate :time 0.00 :before-memory 15.28 :after-memory 15.28)
Entering level 5
BRUNCH_STAT max_query_lvl 4
BRUNCH_STAT num_queries 10
BRUNCH_STAT num_reach_queries 1
BRUNCH_STAT num_reach_reuse 3
BRUNCH_STAT inductive_lvl 0
BRUNCH_STAT max_depth 5
BRUNCH_STAT cex_depth 0
expand: query!0 (5, 0) FAR  w(0) 1.
	create_child: ERR (4, 5) FAR 1 U 0.00
expand: ERR (4, 0) FAR  w(0) 1.
	create_child: MAIN (3, 5) FAR 1375 U 0.00
expand: MAIN (3, 0) FAR  w(0) 1375.
	create_child: MAIN (2, 5) FAR 6470 U 0.00
expand: MAIN (2, 0) FAR  w(0) 6470.
	create_child: top_step (1, 5) FAR 6410 U 0.00
expand: top_step (1, 0) FAR  w(0) 6410.
	create_child: synapse_step (0, 5) FAR 6463 U 0.00
expand: synapse_step (0, 0) FAR  w(0) 6463. F 0.00
expand: top_step (1, 0) FAR  w(0) 6410. F 0.00
expand: MAIN (2, 0) FAR  w(0) 6470. F 0.00
expand: MAIN (3, 0) FAR  w(0) 1375.
	create_child: MAIN (2, 5) FAR 7375 U 0.00
expand: MAIN (2, 0) FAR  w(0) 7375.
	create_child: top_step (1, 5) FAR 7442 U 0.00
expand: top_step (1, 0) FAR  w(0) 7442.
	create_child: synapse_step (0, 5) FAR 7548 U 0.00
expand: synapse_step (0, 0) FAR  w(0) 7548. F 0.00
expand: top_step (1, 0) FAR  w(0) 7442. F 0.00
expand: MAIN (2, 0) FAR  w(0) 7375. F 0.00
expand: MAIN (3, 0) FAR  w(0) 1375.
	create_child: MAIN (2, 5) FAR 7888 U 0.00
expand: MAIN (2, 0) FAR  w(0) 7888.
	create_child: top_step (1, 5) FAR 7812 U 0.00
expand: top_step (1, 0) FAR  w(0) 7812.
	create_child: synapse_step (0, 5) FAR 7643 U 0.00
expand: synapse_step (0, 0) FAR  w(0) 7643. F 0.00
expand: top_step (1, 0) FAR  w(0) 7812. F 0.00
expand: MAIN (2, 0) FAR  w(0) 7888. F 0.00
expand: MAIN (3, 0) FAR  w(0) 1375.
	create_child: top_step (2, 5) FAR 8501 U 0.00
expand: top_step (2, 0) FAR  w(0) 8501.
	create_child: synapse_step (1, 5) FAR 9774 U 0.01
expand: synapse_step (1, 0) FAR  w(0) 9774. F 0.00
expand: top_step (2, 0) FAR  w(0) 8501.
	create_child: synapse_step (1, 5) FAR 10108 U 0.00
expand: synapse_step (1, 0) FAR  w(0) 10108. F 0.00
expand: top_step (2, 0) FAR  w(0) 8501. F 0.00
expand: MAIN (3, 0) FAR  w(0) 1375. F 0.00
expand: ERR (4, 0) FAR  w(0) 1. F 0.00
expand: query!0 (5, 0) FAR  w(0) 1. F 0.00
(spacer::context::check_reachability :time 0.05 :before-memory 15.28 :after-memory 16.60)
Propagating: 0 1 2 
(spacer::context::propagate :time 0.00 :before-memory 16.60 :after-memory 16.60)
(define-fun ERR () Bool
  false)
(define-fun MAIN ((x!0 Int)
 (x!1 Bool)
 (x!2 Int)
 (x!3 Int)
 (x!4 Int)
 (x!5 Int)
 (x!6 Bool)
 (x!7 Bool)
 (x!8 Bool)
 (x!9 Bool)) Bool
  (let ((a!1 (+ x!0 (* (- 1) x!2) (* (- 1) x!3) (* (- 1) x!4))))
    (and (<= a!1 0) x!9 (not x!6) (>= a!1 0))))
(define-fun synapse_step ((x!0 Bool)
 (x!1 Bool)
 (x!2 Bool)
 (x!3 Int)
 (x!4 Int)
 (x!5 Int)
 (x!6 Int)
 (x!7 Int)
 (x!8 Int)
 (x!9 Int)
 (x!10 Int)
 (x!11 Int)
 (x!12 Bool)
 (x!13 Int)
 (x!14 Int)
 (x!15 Int)
 (x!16 Int)
 (x!17 Bool)) Bool
  (let ((a!1 (+ x!4 x!5 x!6 (* (- 1) x!10) (* (- 1) x!8) (* (- 1) x!9))))
    (and (or (>= a!1 0) x!12)
         (not x!17)
         (>= (+ x!4 x!5 x!6 (* (- 1) x!13) (* (- 1) x!14) (* (- 1) x!15)) 0)
         (>= (+ x!13 x!14 x!15 (* (- 1) x!4) (* (- 1) x!5) (* (- 1) x!6)) 0)
         (or (<= a!1 0) x!12))))
(define-fun Sofar_reset ((x!0 Bool) (x!1 Bool) (x!2 Bool) (x!3 Bool)) Bool
  true)
(define-fun synapse_reset ((x!0 Int)
 (x!1 Int)
 (x!2 Int)
 (x!3 Int)
 (x!4 Bool)
 (x!5 Int)
 (x!6 Int)
 (x!7 Int)
 (x!8 Int)
 (x!9 Bool)) Bool
  true)
(define-fun excludes3_fun ((x!0 Bool) (x!1 Bool) (x!2 Bool) (x!3 Bool)) Bool
  true)
(define-fun Sofar_step ((x!0 Bool)
 (x!1 Bool)
 (x!2 Bool)
 (x!3 Bool)
 (x!4 Bool)
 (x!5 Bool)) Bool
  true)
(define-fun top_reset ((x!0 Int)
 (x!1 Bool)
 (x!2 Int)
 (x!3 Int)
 (x!4 Int)
 (x!5 Int)
 (x!6 Bool)
 (x!7 Bool)
 (x!8 Bool)
 (x!9 Int)
 (x!10 Bool)
 (x!11 Int)
 (x!12 Int)
 (x!13 Int)
 (x!14 Int)
 (x!15 Bool)
 (x!16 Bool)
 (x!17 Bool)) Bool
  x!10)
(define-fun top_step ((x!0 Bool)
 (x!1 Bool)
 (x!2 Bool)
 (x!3 Int)
 (x!4 Bool)
 (x!5 Int)
 (x!6 Bool)
 (x!7 Int)
 (x!8 Int)
 (x!9 Int)
 (x!10 Int)
 (x!11 Bool)
 (x!12 Bool)
 (x!13 Bool)
 (x!14 Int)
 (x!15 Bool)
 (x!16 Int)
 (x!17 Int)
 (x!18 Int)
 (x!19 Int)
 (x!20 Bool)
 (x!21 Bool)
 (x!22 Bool)) Bool
  (let ((a!1 (not (= (+ x!5 (* (- 1) x!7) (* (- 1) x!8) (* (- 1) x!9)) 0))))
    (and (or a!1 x!11 x!4)
         (not x!20)
         (>= (+ x!14 (* (- 1) x!16) (* (- 1) x!17) (* (- 1) x!18)) 0)
         (or (not x!6) x!4)
         (>= (+ x!16 x!17 x!18 (* (- 1) x!14)) 0))))
BRUNCH_STAT max_query_lvl 5
BRUNCH_STAT num_queries 24
BRUNCH_STAT num_reach_queries 1
BRUNCH_STAT num_reach_reuse 16
BRUNCH_STAT inductive_lvl 2
BRUNCH_STAT max_depth 5
BRUNCH_STAT cex_depth 0
(:SPACER-inductive-level               2
 :SPACER-max-depth                     5
 :SPACER-max-query-lvl                 5
 :SPACER-num-invariants                17
 :SPACER-num-lemmas                    30
 :SPACER-num-properties                19
 :SPACER-num-queries                   24
 :SPACER-num-reach-queries             1
 :SPACER-num-reuse-reach-facts         16
 :added-eqs                            1839
 :arith-add-rows                       1006
 :arith-assert-diseq                   267
 :arith-assert-lower                   1063
 :arith-assert-upper                   962
 :arith-bound-prop                     78
 :arith-conflicts                      70
 :arith-eq-adapter                     472
 :arith-fixed-eqs                      372
 :arith-offset-eqs                     246
 :arith-pivots                         273
 :bool-inductive-gen                   16
 :bool-inductive-gen-failures          21
 :conflicts                            230
 :decisions                            1560
 :del-clause                           339
 :final-checks                         52
 :minimized-lits                       29
 :mk-bool-var                          2201
 :mk-clause                            2141
 :num-checks                           157
 :propagations                         12412
 :time.itp_solver.itp_core             0.01
 :time.spacer.init_rules               0.01
 :time.spacer.init_rules.pt.init       0.00
 :time.spacer.solve                    0.07
 :time.spacer.solve.propagate          0.00
 :time.spacer.solve.pt.must_reachable  0.00
 :time.spacer.solve.reach              0.07
 :time.spacer.solve.reach.children     0.01
 :time.spacer.solve.reach.gen.bool_ind 0.01
 :time.virtual_solver.proof            0.00
 :time.virtual_solver.smt.total        0.05
 :time.virtual_solver.smt.total.sat    0.01
 :virtual_solver.checks                157
 :virtual_solver.checks.sat            52)
BRUNCH_STAT max_query_lvl 5
BRUNCH_STAT num_queries 24
BRUNCH_STAT num_reach_queries 1
BRUNCH_STAT num_reach_reuse 16
BRUNCH_STAT inductive_lvl 2
BRUNCH_STAT max_depth 5
BRUNCH_STAT cex_depth 0

real	0m0.111s
user	0m0.096s
sys	0m0.012s
