(transform N7datalog13mk_coi_filterE...no-op 0s)
(transform N7datalog25mk_interp_tail_simplifierE...14 rules 0s)
(transform N7datalog27mk_quantifier_instantiationE...no-op 0s)
(transform N7datalog8mk_scaleE...no-op 0s)
(transform N7datalog18mk_karr_invariantsE...no-op 0s)
(transform N7datalog14mk_array_blastE...no-op 0s)
(transform N7datalog22mk_subsumption_checkerE...13 rules 0s)
(transform N7datalog12mk_bit_blastE...no-op 0s)
(transform N7datalog15mk_rule_inlinerE...no-op 0s)
(transform N7datalog13mk_coi_filterE...no-op 0s)
(transform N7datalog25mk_interp_tail_simplifierE...13 rules 0s)
(transform N7datalog22mk_subsumption_checkerE...no-op 0s)
(transform N7datalog15mk_rule_inlinerE...no-op 0s)
(transform N7datalog13mk_coi_filterE...no-op 0s)
(transform N7datalog25mk_interp_tail_simplifierE...13 rules 0s)
(transform N7datalog22mk_subsumption_checkerE...no-op 0s)
(transform N7datalog15mk_rule_inlinerE...no-op 0s)
(transform N7datalog22mk_subsumption_checkerE...no-op 0s)
(transform N7datalog15mk_rule_inlinerE...no-op 0s)
(transform N7datalog22mk_subsumption_checkerE...no-op 0s)
(transform N7datalog15mk_rule_inlinerE...no-op 0s)
(transform N7datalog22mk_subsumption_checkerE...no-op 0s)
expand: query!0 (0, 0) FAR  w(0) 1. F 0.00
(spacer::context::check_reachability :time 0.00 :before-memory 13.06 :after-memory 13.54)
Entering level 1
BRUNCH_STAT max_query_lvl 0
BRUNCH_STAT num_queries 0
BRUNCH_STAT num_reach_queries 0
BRUNCH_STAT num_reach_reuse 0
BRUNCH_STAT inductive_lvl 0
BRUNCH_STAT max_depth 1
BRUNCH_STAT cex_depth 0
expand: query!0 (1, 0) FAR  w(0) 1.
	create_child: ERR (0, 1) FAR 1 U 0.00
expand: ERR (0, 0) FAR  w(0) 1. F 0.00
expand: query!0 (1, 0) FAR  w(0) 1. F 0.00
(spacer::context::check_reachability :time 0.00 :before-memory 13.54 :after-memory 13.98)
Propagating: 0 1  ! 2 
(spacer::context::propagate :time 0.00 :before-memory 13.98 :after-memory 13.98)
Entering level 2
BRUNCH_STAT max_query_lvl 1
BRUNCH_STAT num_queries 1
BRUNCH_STAT num_reach_queries 0
BRUNCH_STAT num_reach_reuse 0
BRUNCH_STAT inductive_lvl 0
BRUNCH_STAT max_depth 2
BRUNCH_STAT cex_depth 0
expand: query!0 (2, 0) FAR  w(0) 1.
	create_child: ERR (1, 2) FAR 1 U 0.00
expand: ERR (1, 0) FAR  w(0) 1.
	create_child: MAIN (0, 2) FAR 1478 U 0.00
expand: MAIN (0, 0) FAR  w(0) 1478. F 0.00
expand: ERR (1, 0) FAR  w(0) 1. F 0.00
expand: query!0 (2, 0) FAR  w(0) 1. F 0.00
(spacer::context::check_reachability :time 0.00 :before-memory 13.98 :after-memory 14.44)
Propagating: 0 1 2  ! 3 
(spacer::context::propagate :time 0.00 :before-memory 14.44 :after-memory 14.44)
Entering level 3
BRUNCH_STAT max_query_lvl 2
BRUNCH_STAT num_queries 3
BRUNCH_STAT num_reach_queries 0
BRUNCH_STAT num_reach_reuse 0
BRUNCH_STAT inductive_lvl 0
BRUNCH_STAT max_depth 3
BRUNCH_STAT cex_depth 0
expand: query!0 (3, 0) FAR  w(0) 1.
	create_child: ERR (2, 3) FAR 1 U 0.00
expand: ERR (2, 0) FAR  w(0) 1.
	create_child: MAIN (1, 3) FAR 1478 U 0.00
expand: MAIN (1, 0) FAR  w(0) 1478.
	create_child: top_step (0, 3) FAR 2046 U 0.00
expand: top_step (0, 0) FAR  w(0) 2046. F 0.00
expand: MAIN (1, 0) FAR  w(0) 1478. F 0.00
expand: ERR (2, 0) FAR  w(0) 1. F 0.00
expand: query!0 (3, 0) FAR  w(0) 1. F 0.00
(spacer::context::check_reachability :time 0.00 :before-memory 14.44 :after-memory 15.28)
Propagating: 0 1 2 3  ! 4 
(spacer::context::propagate :time 0.00 :before-memory 15.28 :after-memory 15.28)
Entering level 4
BRUNCH_STAT max_query_lvl 3
BRUNCH_STAT num_queries 6
BRUNCH_STAT num_reach_queries 0
BRUNCH_STAT num_reach_reuse 0
BRUNCH_STAT inductive_lvl 0
BRUNCH_STAT max_depth 4
BRUNCH_STAT cex_depth 0
expand: query!0 (4, 0) FAR  w(0) 1.
	create_child: ERR (3, 4) FAR 1 U 0.00
expand: ERR (3, 0) FAR  w(0) 1.
	create_child: MAIN (2, 4) FAR 1478 U 0.00
expand: MAIN (2, 0) FAR  w(0) 1478.
	create_child: top_step (1, 4) FAR 2046 U 0.00
expand: top_step (1, 0) FAR  w(0) 2046.
	create_child: top_reset (1, 4) FAR 4822 X 0.00
expand: top_reset (1, 0) FAR  w(0) 4822.
	create_child: First_reset (0, 4) FAR 5290 U 0.00
expand: First_reset (0, 0) FAR  w(0) 5290. F 0.00
expand: top_reset (1, 0) FAR  w(0) 4822. F 0.00
expand: MAIN (2, 0) FAR  w(0) 1478.
	create_child: top_reset (1, 4) FAR 6699 U 0.00
expand: top_reset (1, 0) FAR  w(0) 6699.
	create_child: Sofar_reset (0, 4) FAR 6693 U 0.00
expand: Sofar_reset (0, 0) FAR  w(0) 6693. F 0.00
expand: top_reset (1, 0) FAR  w(0) 6699. F 0.00
expand: MAIN (2, 0) FAR  w(0) 1478.
	create_child: top_reset (1, 4) FAR 6884 U 0.00
expand: top_reset (1, 0) FAR  w(0) 6884.
	create_child: synapse_reset (0, 4) FAR 6817 U 0.00
expand: synapse_reset (0, 0) FAR  w(0) 6817. F 0.00
expand: top_reset (1, 0) FAR  w(0) 6884. F 0.00
expand: MAIN (2, 0) FAR  w(0) 1478.
	create_child: top_step (1, 4) FAR 6954 U 0.00
expand: top_step (1, 0) FAR  w(0) 6954.
	create_child: synapse_step (0, 4) FAR 7464 U 0.00
expand: synapse_step (0, 0) FAR  w(0) 7464. F 0.00
expand: top_step (1, 0) FAR  w(0) 6954.
	create_child: synapse_step (0, 4) FAR 8452 U 0.00
expand: synapse_step (0, 0) FAR  w(0) 8452. F 0.00
expand: top_step (1, 0) FAR  w(0) 6954.
	create_child: synapse_step (0, 4) FAR 8598 U 0.00
expand: synapse_step (0, 0) FAR  w(0) 8598.
	create_child: First_step (0, 4) FAR 8677 X 0.00
expand: First_step (0, 0) FAR  w(0) 8677. F 0.00
expand: top_step (1, 0) FAR  w(0) 6954.
	create_child: First_step (0, 4) FAR 8938 U 0.00
expand: First_step (0, 0) FAR  w(0) 8938. F 0.00
expand: top_step (1, 0) FAR  w(0) 6954. F 0.00
expand: MAIN (2, 0) FAR  w(0) 1478. F 0.00
expand: ERR (3, 0) FAR  w(0) 1. F 0.00
expand: query!0 (4, 0) FAR  w(0) 1. F 0.00
(spacer::context::check_reachability :time 0.04 :before-memory 15.28 :after-memory 20.72)
Propagating: 0 1 2 3 4  ! 5 
(spacer::context::propagate :time 0.00 :before-memory 20.72 :after-memory 20.72)
Entering level 5
BRUNCH_STAT max_query_lvl 4
BRUNCH_STAT num_queries 19
BRUNCH_STAT num_reach_queries 1
BRUNCH_STAT num_reach_reuse 21
BRUNCH_STAT inductive_lvl 0
BRUNCH_STAT max_depth 5
BRUNCH_STAT cex_depth 0
expand: query!0 (5, 0) FAR  w(0) 1.
	create_child: ERR (4, 5) FAR 1 U 0.00
expand: ERR (4, 0) FAR  w(0) 1.
	create_child: MAIN (3, 5) FAR 1478 U 0.00
expand: MAIN (3, 0) FAR  w(0) 1478.
	create_child: MAIN (2, 5) FAR 9371 U 0.00
expand: MAIN (2, 0) FAR  w(0) 9371.
	create_child: top_step (1, 5) FAR 9427 U 0.00
expand: top_step (1, 0) FAR  w(0) 9427.
	create_child: Sofar_step (0, 5) FAR 9592 U 0.00
expand: Sofar_step (0, 0) FAR  w(0) 9592. F 0.00
expand: top_step (1, 0) FAR  w(0) 9427. F 0.00
expand: MAIN (2, 0) FAR  w(0) 9371. F 0.00
expand: MAIN (3, 0) FAR  w(0) 1478.
	create_child: MAIN (2, 5) FAR 9871 U 0.00
expand: MAIN (2, 0) FAR  w(0) 9871.
	create_child: top_step (1, 5) FAR 9851 U 0.00
expand: top_step (1, 0) FAR  w(0) 9851.
	create_child: Sofar_step (0, 5) FAR 9956 U 0.00
expand: Sofar_step (0, 0) FAR  w(0) 9956.
	create_child: First_step (0, 5) FAR 9917 X 0.00
expand: First_step (0, 0) FAR  w(0) 9917. F 0.00
expand: top_step (1, 0) FAR  w(0) 9851.
	create_child: Sofar_step (0, 5) FAR 9956 U 0.00
expand: Sofar_step (0, 0) FAR  w(0) 9956.
	create_child: synapse_step (0, 5) FAR 10147 X 0.00
expand: synapse_step (0, 0) FAR  w(0) 10147. F 0.00
expand: top_step (1, 0) FAR  w(0) 9851. F 0.00
expand: MAIN (2, 0) FAR  w(0) 9871. F 0.00
expand: MAIN (3, 0) FAR  w(0) 1478.
	create_child: MAIN (2, 5) FAR 10400 U 0.00
expand: MAIN (2, 0) FAR  w(0) 10400.
	create_child: top_step (1, 5) FAR 9779 U 0.00
expand: top_step (1, 0) FAR  w(0) 9779.
	create_child: First_step (0, 5) FAR 10578 U 0.00
expand: First_step (0, 0) FAR  w(0) 10578. F 0.00
expand: top_step (1, 0) FAR  w(0) 9779. F 0.00
expand: MAIN (2, 0) FAR  w(0) 10400. F 0.00
expand: MAIN (3, 0) FAR  w(0) 1478.
	create_child: MAIN (2, 5) FAR 10670 U 0.00
expand: MAIN (2, 0) FAR  w(0) 10670.
	create_child: top_step (1, 5) FAR 10647 U 0.00
expand: top_step (1, 0) FAR  w(0) 10647.
	create_child: synapse_step (0, 5) FAR 10754 U 0.00
expand: synapse_step (0, 0) FAR  w(0) 10754. F 0.00
expand: top_step (1, 0) FAR  w(0) 10647.
	create_child: synapse_step (0, 5) FAR 10679 U 0.00
expand: synapse_step (0, 0) FAR  w(0) 10679. UNDEF 0.00
expand: synapse_step (0, 0) FAR  w(1) 10679.
	create_child: First_step (0, 5) FAR 10978 X 0.00
expand: First_step (0, 0) FAR  w(0) 10978. F 0.00
expand: top_step (1, 0) FAR  w(0) 10647. F 0.00
expand: MAIN (2, 0) FAR  w(0) 10670. F 0.00
expand: MAIN (3, 0) FAR  w(0) 1478.
	create_child: MAIN (2, 5) FAR 11323 U 0.00
expand: MAIN (2, 0) FAR  w(0) 11323.
	create_child: top_step (1, 5) FAR 11260 U 0.00
expand: top_step (1, 0) FAR  w(0) 11260.
	create_child: synapse_step (0, 5) FAR 11330 U 0.00
expand: synapse_step (0, 0) FAR  w(0) 11330. F 0.00
expand: top_step (1, 0) FAR  w(0) 11260. F 0.00
expand: MAIN (2, 0) FAR  w(0) 11323. F 0.00
expand: MAIN (3, 0) FAR  w(0) 1478.
	create_child: top_step (2, 5) FAR 11422 UNDEF 0.00
expand: top_step (2, 0) FAR  w(0) 11422.
	create_child: MAIN (2, 5) FAR 11832 X 0.00
expand: MAIN (2, 0) FAR  w(0) 11832.
	create_child: top_step (1, 5) FAR 11959 UNDEF 0.00
expand: top_step (1, 0) FAR  w(0) 11959.
	create_child: synapse_step (0, 5) FAR 12029 U 0.00
expand: synapse_step (0, 0) FAR  w(0) 12029. F 0.00
expand: top_step (1, 0) FAR  w(0) 11959. F 0.00
expand: MAIN (2, 0) FAR  w(0) 11832. F 0.00
expand: MAIN (3, 0) FAR  w(0) 1478.
	create_child: top_step (2, 5) FAR 12318 UNDEF 0.00
expand: top_step (2, 0) FAR  w(0) 12318.
	create_child: MAIN (2, 5) FAR 12396 X 0.00
expand: MAIN (2, 0) FAR  w(0) 12396.
	create_child: top_step (1, 5) FAR 11918 UNDEF 0.00
expand: top_step (1, 0) FAR  w(0) 11918.
	create_child: synapse_step (0, 5) FAR 12619 U 0.00
expand: synapse_step (0, 0) FAR  w(0) 12619. F 0.00
expand: top_step (1, 0) FAR  w(0) 11918. F 0.00
expand: MAIN (2, 0) FAR  w(0) 12396. F 0.00
expand: MAIN (3, 0) FAR  w(0) 1478.
	create_child: top_step (2, 5) FAR 13071 U 0.00
expand: top_step (2, 0) FAR  w(0) 13071.
	create_child: excludes3_fun (1, 5) FAR 15672 U 0.01
expand: excludes3_fun (1, 0) FAR  w(0) 15672.
	create_child: First_step (1, 5) FAR 15696 X 0.00
expand: First_step (1, 0) FAR  w(0) 15696. F 0.00
expand: top_step (2, 0) FAR  w(0) 13071.
	create_child: excludes3_fun (1, 5) FAR 15672 U 0.00
expand: excludes3_fun (1, 0) FAR  w(0) 15672.
	create_child: First_step (1, 5) FAR 15477 X 0.00
expand: First_step (1, 0) FAR  w(0) 15477. F 0.00
expand: top_step (2, 0) FAR  w(0) 13071.
	create_child: excludes3_fun (1, 5) FAR 998 U 0.01
expand: excludes3_fun (1, 0) FAR  w(0) 998.
	create_child: synapse_step (1, 5) FAR 16122 X 0.00
expand: synapse_step (1, 0) FAR  w(0) 16122. F 0.00
expand: top_step (2, 0) FAR  w(0) 13071.
	create_child: excludes3_fun (1, 5) FAR 998 U 0.00
expand: excludes3_fun (1, 0) FAR  w(0) 998.
	create_child: synapse_step (1, 5) FAR 16731 X 0.00
expand: synapse_step (1, 0) FAR  w(0) 16731. F 0.00
expand: top_step (2, 0) FAR  w(0) 13071. F 0.01
expand: MAIN (3, 0) FAR  w(0) 1478. F 0.00
expand: ERR (4, 0) FAR  w(0) 1. F 0.00
expand: query!0 (5, 0) FAR  w(0) 1. F 0.00
(spacer::context::check_reachability :time 0.15 :before-memory 20.72 :after-memory 25.23)
Propagating: 0 1 2 3 4 5  ! 6 
(spacer::context::propagate :time 0.00 :before-memory 25.23 :after-memory 25.23)
Entering level 6
BRUNCH_STAT max_query_lvl 5
BRUNCH_STAT num_queries 49
BRUNCH_STAT num_reach_queries 2
BRUNCH_STAT num_reach_reuse 59
BRUNCH_STAT inductive_lvl 0
BRUNCH_STAT max_depth 6
BRUNCH_STAT cex_depth 0
expand: query!0 (6, 0) FAR  w(0) 1.
	create_child: ERR (5, 6) FAR 1 U 0.00
expand: ERR (5, 0) FAR  w(0) 1.
	create_child: MAIN (4, 6) FAR 1478 U 0.00
expand: MAIN (4, 0) FAR  w(0) 1478.
	create_child: MAIN (3, 6) FAR 10670 U 0.00
expand: MAIN (3, 0) FAR  w(0) 10670.
	create_child: MAIN (2, 6) FAR 17918 U 0.00
expand: MAIN (2, 0) FAR  w(0) 17918.
	create_child: top_reset (1, 6) FAR 17976 U 0.00
expand: top_reset (1, 0) FAR  w(0) 17976. T 0.00
is-reachable: MAIN (2, 0) FAR 17918 T 0.00
is-reachable: MAIN (3, 0) FAR 10670 T 0.00
is-reachable: MAIN (4, 0) FAR 1478 T 0.01
is-reachable: ERR (5, 0) FAR 1 T 0.00
is-reachable: query!0 (6, 0) FAR 1 T 0.00
(spacer::context::check_reachability :time 0.03 :before-memory 25.23 :after-memory 26.17)
BRUNCH_STAT max_query_lvl 6
BRUNCH_STAT num_queries 54
BRUNCH_STAT num_reach_queries 8
BRUNCH_STAT num_reach_reuse 65
BRUNCH_STAT inductive_lvl 0
BRUNCH_STAT max_depth 6
BRUNCH_STAT cex_depth 6
(:SPACER-cex-depth                     6
 :SPACER-expand-node-undef             5
 :SPACER-max-depth                     6
 :SPACER-max-query-lvl                 6
 :SPACER-num-invariants                35
 :SPACER-num-lemmas                    55
 :SPACER-num-properties                44
 :SPACER-num-queries                   54
 :SPACER-num-reach-queries             8
 :SPACER-num-reuse-reach-facts         65
 :added-eqs                            8465
 :arith-add-rows                       6183
 :arith-assert-diseq                   1138
 :arith-assert-lower                   4957
 :arith-assert-upper                   4579
 :arith-bound-prop                     493
 :arith-conflicts                      140
 :arith-eq-adapter                     1884
 :arith-fixed-eqs                      1949
 :arith-gcd-tests                      11
 :arith-offset-eqs                     1119
 :arith-pivots                         987
 :bool-inductive-gen                   41
 :bool-inductive-gen-failures          68
 :conflicts                            503
 :decisions                            5069
 :del-clause                           657
 :final-checks                         158
 :minimized-lits                       249
 :mk-bool-var                          5596
 :mk-clause                            3989
 :num-checks                           365
 :propagations                         46570
 :time.itp_solver.itp_core             0.01
 :time.spacer.init_rules               0.01
 :time.spacer.init_rules.pt.init       0.00
 :time.spacer.solve                    0.22
 :time.spacer.solve.propagate          0.01
 :time.spacer.solve.pt.must_reachable  0.01
 :time.spacer.solve.reach              0.22
 :time.spacer.solve.reach.children     0.04
 :time.spacer.solve.reach.gen.bool_ind 0.02
 :time.spacer.solve.reach.is-reach     0.02
 :time.virtual_solver.proof            0.01
 :time.virtual_solver.smt.total        0.14
 :time.virtual_solver.smt.total.sat    0.07
 :time.virtual_solver.smt.total.undef  0.00
 :virtual_solver.checks                365
 :virtual_solver.checks.sat            149
 :virtual_solver.checks.undef          9)
BRUNCH_STAT max_query_lvl 6
BRUNCH_STAT num_queries 54
BRUNCH_STAT num_reach_queries 8
BRUNCH_STAT num_reach_reuse 65
BRUNCH_STAT inductive_lvl 0
BRUNCH_STAT max_depth 6
BRUNCH_STAT cex_depth 6

real	0m0.273s
user	0m0.248s
sys	0m0.024s
