(transform N7datalog13mk_coi_filterE...no-op 0s)
(transform N7datalog25mk_interp_tail_simplifierE...14 rules 0s)
(transform N7datalog27mk_quantifier_instantiationE...no-op 0s)
(transform N7datalog8mk_scaleE...no-op 0s)
(transform N7datalog18mk_karr_invariantsE...no-op 0s)
(transform N7datalog14mk_array_blastE...no-op 0s)
(transform N7datalog22mk_subsumption_checkerE...13 rules 0s)
(transform N7datalog12mk_bit_blastE...no-op 0s)
(transform N7datalog15mk_rule_inlinerE...no-op 0s)
(transform N7datalog13mk_coi_filterE...no-op 0s)
(transform N7datalog25mk_interp_tail_simplifierE...13 rules 0s)
(transform N7datalog22mk_subsumption_checkerE...no-op 0s)
(transform N7datalog15mk_rule_inlinerE...no-op 0s)
(transform N7datalog13mk_coi_filterE...no-op 0s)
(transform N7datalog25mk_interp_tail_simplifierE...13 rules 0s)
(transform N7datalog22mk_subsumption_checkerE...no-op 0s)
(transform N7datalog15mk_rule_inlinerE...no-op 0s)
(transform N7datalog22mk_subsumption_checkerE...no-op 0s)
(transform N7datalog15mk_rule_inlinerE...no-op 0s)
(transform N7datalog22mk_subsumption_checkerE...no-op 0s)
(transform N7datalog15mk_rule_inlinerE...no-op 0s)
(transform N7datalog22mk_subsumption_checkerE...no-op 0s)
expand: query!0 (0, 0) FAR  w(0) 1. F 0.00
(spacer::context::check_reachability :time 0.00 :before-memory 13.06 :after-memory 13.54)
Entering level 1
BRUNCH_STAT max_query_lvl 0
BRUNCH_STAT num_queries 0
BRUNCH_STAT num_reach_queries 0
BRUNCH_STAT num_reach_reuse 0
BRUNCH_STAT inductive_lvl 0
BRUNCH_STAT max_depth 1
BRUNCH_STAT cex_depth 0
expand: query!0 (1, 0) FAR  w(0) 1.
	create_child: ERR (0, 1) FAR 1 U 0.00
expand: ERR (0, 0) FAR  w(0) 1. F 0.00
expand: query!0 (1, 0) FAR  w(0) 1. F 0.00
(spacer::context::check_reachability :time 0.00 :before-memory 13.54 :after-memory 13.98)
Propagating: 0 1  ! 2 
(spacer::context::propagate :time 0.00 :before-memory 13.98 :after-memory 13.98)
Entering level 2
BRUNCH_STAT max_query_lvl 1
BRUNCH_STAT num_queries 1
BRUNCH_STAT num_reach_queries 0
BRUNCH_STAT num_reach_reuse 0
BRUNCH_STAT inductive_lvl 0
BRUNCH_STAT max_depth 2
BRUNCH_STAT cex_depth 0
expand: query!0 (2, 0) FAR  w(0) 1.
	create_child: ERR (1, 2) FAR 1 U 0.00
expand: ERR (1, 0) FAR  w(0) 1.
	create_child: MAIN (0, 2) FAR 1491 U 0.00
expand: MAIN (0, 0) FAR  w(0) 1491. F 0.00
expand: ERR (1, 0) FAR  w(0) 1. F 0.00
expand: query!0 (2, 0) FAR  w(0) 1. F 0.00
(spacer::context::check_reachability :time 0.00 :before-memory 13.98 :after-memory 14.44)
Propagating: 0 1 2  ! 3 
(spacer::context::propagate :time 0.00 :before-memory 14.44 :after-memory 14.44)
Entering level 3
BRUNCH_STAT max_query_lvl 2
BRUNCH_STAT num_queries 3
BRUNCH_STAT num_reach_queries 0
BRUNCH_STAT num_reach_reuse 0
BRUNCH_STAT inductive_lvl 0
BRUNCH_STAT max_depth 3
BRUNCH_STAT cex_depth 0
expand: query!0 (3, 0) FAR  w(0) 1.
	create_child: ERR (2, 3) FAR 1 U 0.00
expand: ERR (2, 0) FAR  w(0) 1.
	create_child: MAIN (1, 3) FAR 1491 U 0.00
expand: MAIN (1, 0) FAR  w(0) 1491.
	create_child: top_step (0, 3) FAR 2059 U 0.00
expand: top_step (0, 0) FAR  w(0) 2059. F 0.00
expand: MAIN (1, 0) FAR  w(0) 1491. F 0.00
expand: ERR (2, 0) FAR  w(0) 1. F 0.00
expand: query!0 (3, 0) FAR  w(0) 1. F 0.00
(spacer::context::check_reachability :time 0.00 :before-memory 14.44 :after-memory 15.29)
Propagating: 0 1 2 3  ! 4 
(spacer::context::propagate :time 0.00 :before-memory 15.29 :after-memory 15.29)
Entering level 4
BRUNCH_STAT max_query_lvl 3
BRUNCH_STAT num_queries 6
BRUNCH_STAT num_reach_queries 0
BRUNCH_STAT num_reach_reuse 0
BRUNCH_STAT inductive_lvl 0
BRUNCH_STAT max_depth 4
BRUNCH_STAT cex_depth 0
expand: query!0 (4, 0) FAR  w(0) 1.
	create_child: ERR (3, 4) FAR 1 U 0.00
expand: ERR (3, 0) FAR  w(0) 1.
	create_child: MAIN (2, 4) FAR 1491 U 0.00
expand: MAIN (2, 0) FAR  w(0) 1491.
	create_child: top_step (1, 4) FAR 2059 U 0.00
expand: top_step (1, 0) FAR  w(0) 2059.
	create_child: top_reset (1, 4) FAR 4827 X 0.00
expand: top_reset (1, 0) FAR  w(0) 4827.
	create_child: First_reset (0, 4) FAR 5390 U 0.00
expand: First_reset (0, 0) FAR  w(0) 5390. F 0.00
expand: top_reset (1, 0) FAR  w(0) 4827. F 0.00
expand: MAIN (2, 0) FAR  w(0) 1491.
	create_child: top_reset (1, 4) FAR 6683 U 0.00
expand: top_reset (1, 0) FAR  w(0) 6683.
	create_child: Sofar_reset (0, 4) FAR 6666 U 0.00
expand: Sofar_reset (0, 0) FAR  w(0) 6666. F 0.00
expand: top_reset (1, 0) FAR  w(0) 6683. F 0.00
expand: MAIN (2, 0) FAR  w(0) 1491.
	create_child: top_reset (1, 4) FAR 6853 U 0.00
expand: top_reset (1, 0) FAR  w(0) 6853.
	create_child: synapse_reset (0, 4) FAR 6814 U 0.00
expand: synapse_reset (0, 0) FAR  w(0) 6814. F 0.00
expand: top_reset (1, 0) FAR  w(0) 6853. F 0.00
expand: MAIN (2, 0) FAR  w(0) 1491.
	create_child: top_step (1, 4) FAR 6906 U 0.00
expand: top_step (1, 0) FAR  w(0) 6906.
	create_child: Sofar_step (0, 4) FAR 7163 U 0.00
expand: Sofar_step (0, 0) FAR  w(0) 7163. F 0.00
expand: top_step (1, 0) FAR  w(0) 6906.
	create_child: synapse_step (0, 4) FAR 7302 U 0.00
expand: synapse_step (0, 0) FAR  w(0) 7302. F 0.00
expand: top_step (1, 0) FAR  w(0) 6906.
	create_child: First_step (0, 4) FAR 8439 U 0.00
expand: First_step (0, 0) FAR  w(0) 8439. F 0.00
expand: top_step (1, 0) FAR  w(0) 6906. F 0.00
expand: MAIN (2, 0) FAR  w(0) 1491. F 0.00
expand: ERR (3, 0) FAR  w(0) 1. F 0.00
expand: query!0 (4, 0) FAR  w(0) 1. F 0.00
(spacer::context::check_reachability :time 0.03 :before-memory 15.29 :after-memory 20.41)
Propagating: 0 1 2 3 4  ! 5 
(spacer::context::propagate :time 0.00 :before-memory 20.41 :after-memory 20.41)
Entering level 5
BRUNCH_STAT max_query_lvl 4
BRUNCH_STAT num_queries 18
BRUNCH_STAT num_reach_queries 1
BRUNCH_STAT num_reach_reuse 18
BRUNCH_STAT inductive_lvl 0
BRUNCH_STAT max_depth 5
BRUNCH_STAT cex_depth 0
expand: query!0 (5, 0) FAR  w(0) 1.
	create_child: ERR (4, 5) FAR 1 U 0.00
expand: ERR (4, 0) FAR  w(0) 1.
	create_child: MAIN (3, 5) FAR 1491 U 0.00
expand: MAIN (3, 0) FAR  w(0) 1491.
	create_child: MAIN (2, 5) FAR 9025 U 0.00
expand: MAIN (2, 0) FAR  w(0) 9025.
	create_child: top_step (1, 5) FAR 9059 U 0.00
expand: top_step (1, 0) FAR  w(0) 9059.
	create_child: Sofar_step (0, 5) FAR 9281 U 0.00
expand: Sofar_step (0, 0) FAR  w(0) 9281. F 0.00
expand: top_step (1, 0) FAR  w(0) 9059. F 0.00
expand: MAIN (2, 0) FAR  w(0) 9025. F 0.00
expand: MAIN (3, 0) FAR  w(0) 1491.
	create_child: MAIN (2, 5) FAR 9299 U 0.00
expand: MAIN (2, 0) FAR  w(0) 9299.
	create_child: top_step (1, 5) FAR 9264 U 0.00
expand: top_step (1, 0) FAR  w(0) 9264.
	create_child: synapse_step (0, 5) FAR 9393 U 0.00
expand: synapse_step (0, 0) FAR  w(0) 9393. F 0.00
expand: top_step (1, 0) FAR  w(0) 9264.
	create_child: synapse_step (0, 5) FAR 9180 U 0.00
expand: synapse_step (0, 0) FAR  w(0) 9180.
	create_child: First_step (0, 5) FAR 9579 X 0.00
expand: First_step (0, 0) FAR  w(0) 9579. F 0.00
expand: top_step (1, 0) FAR  w(0) 9264. F 0.00
expand: MAIN (2, 0) FAR  w(0) 9299. F 0.00
expand: MAIN (3, 0) FAR  w(0) 1491.
	create_child: MAIN (2, 5) FAR 10070 U 0.00
expand: MAIN (2, 0) FAR  w(0) 10070.
	create_child: top_step (1, 5) FAR 10028 U 0.00
expand: top_step (1, 0) FAR  w(0) 10028.
	create_child: Sofar_step (0, 5) FAR 10108 U 0.00
expand: Sofar_step (0, 0) FAR  w(0) 10108. F 0.00
expand: top_step (1, 0) FAR  w(0) 10028. F 0.00
expand: MAIN (2, 0) FAR  w(0) 10070. F 0.00
expand: MAIN (3, 0) FAR  w(0) 1491.
	create_child: MAIN (2, 5) FAR 10350 U 0.00
expand: MAIN (2, 0) FAR  w(0) 10350.
	create_child: top_step (1, 5) FAR 10326 U 0.00
expand: top_step (1, 0) FAR  w(0) 10326.
	create_child: First_step (0, 5) FAR 10443 U 0.00
expand: First_step (0, 0) FAR  w(0) 10443. F 0.00
expand: top_step (1, 0) FAR  w(0) 10326. F 0.00
expand: MAIN (2, 0) FAR  w(0) 10350. F 0.00
expand: MAIN (3, 0) FAR  w(0) 1491.
	create_child: MAIN (2, 5) FAR 10650 U 0.00
expand: MAIN (2, 0) FAR  w(0) 10650.
	create_child: top_step (1, 5) FAR 10607 U 0.00
expand: top_step (1, 0) FAR  w(0) 10607.
	create_child: Sofar_step (0, 5) FAR 10653 U 0.00
expand: Sofar_step (0, 0) FAR  w(0) 10653.
	create_child: synapse_step (0, 5) FAR 10780 X 0.00
expand: synapse_step (0, 0) FAR  w(0) 10780. F 0.00
expand: top_step (1, 0) FAR  w(0) 10607. F 0.00
expand: MAIN (2, 0) FAR  w(0) 10650. F 0.00
expand: MAIN (3, 0) FAR  w(0) 1491.
	create_child: top_step (2, 5) FAR 11048 U 0.00
expand: top_step (2, 0) FAR  w(0) 11048.
	create_child: Sofar_step (1, 5) FAR 11139 U 0.00
expand: Sofar_step (1, 0) FAR  w(0) 11139. F 0.00
expand: top_step (2, 0) FAR  w(0) 11048. F 0.00
expand: MAIN (3, 0) FAR  w(0) 1491.
	create_child: top_step (2, 5) FAR 11164 U 0.00
expand: top_step (2, 0) FAR  w(0) 11164.
	create_child: synapse_step (1, 5) FAR 11326 U 0.00
expand: synapse_step (1, 0) FAR  w(0) 11326. F 0.00
expand: top_step (2, 0) FAR  w(0) 11164.
	create_child: synapse_step (1, 5) FAR 11279 U 0.00
expand: synapse_step (1, 0) FAR  w(0) 11279. F 0.00
expand: top_step (2, 0) FAR  w(0) 11164.
	create_child: First_step (1, 5) FAR 11548 U 0.00
expand: First_step (1, 0) FAR  w(0) 11548. F 0.00
expand: top_step (2, 0) FAR  w(0) 11164. F 0.00
expand: MAIN (3, 0) FAR  w(0) 1491.
	create_child: top_step (2, 5) FAR 10969 U 0.00
expand: top_step (2, 0) FAR  w(0) 10969.
	create_child: synapse_step (1, 5) FAR 11008 U 0.00
expand: synapse_step (1, 0) FAR  w(0) 11008. F 0.00
expand: top_step (2, 0) FAR  w(0) 10969. F 0.00
expand: MAIN (3, 0) FAR  w(0) 1491. F 0.00
expand: ERR (4, 0) FAR  w(0) 1. F 0.00
expand: query!0 (5, 0) FAR  w(0) 1. F 0.00
(spacer::context::check_reachability :time 0.08 :before-memory 20.41 :after-memory 22.76)
Propagating: 0 1 2 3 4 5  ! 6 
(spacer::context::propagate :time 0.00 :before-memory 22.76 :after-memory 22.86)
Entering level 6
BRUNCH_STAT max_query_lvl 5
BRUNCH_STAT num_queries 44
BRUNCH_STAT num_reach_queries 1
BRUNCH_STAT num_reach_reuse 52
BRUNCH_STAT inductive_lvl 0
BRUNCH_STAT max_depth 6
BRUNCH_STAT cex_depth 0
expand: query!0 (6, 0) FAR  w(0) 1.
	create_child: ERR (5, 6) FAR 1 U 0.00
expand: ERR (5, 0) FAR  w(0) 1.
	create_child: MAIN (4, 6) FAR 1491 U 0.00
expand: MAIN (4, 0) FAR  w(0) 1491.
	create_child: MAIN (3, 6) FAR 10650 U 0.00
expand: MAIN (3, 0) FAR  w(0) 10650.
	create_child: top_step (2, 6) FAR 12367 U 0.00
expand: top_step (2, 0) FAR  w(0) 12367. F 0.00
expand: MAIN (3, 0) FAR  w(0) 10650.
	create_child: top_step (2, 6) FAR 12381 U 0.00
expand: top_step (2, 0) FAR  w(0) 12381.
	create_child: synapse_step (1, 6) FAR 12401 U 0.00
expand: synapse_step (1, 0) FAR  w(0) 12401. F 0.00
expand: top_step (2, 0) FAR  w(0) 12381.
	create_child: First_step (1, 6) FAR 12768 U 0.00
expand: First_step (1, 0) FAR  w(0) 12768. F 0.00
expand: top_step (2, 0) FAR  w(0) 12381. F 0.00
expand: MAIN (3, 0) FAR  w(0) 10650.
	create_child: top_step (2, 6) FAR 12536 U 0.00
expand: top_step (2, 0) FAR  w(0) 12536. F 0.00
expand: MAIN (3, 0) FAR  w(0) 10650. F 0.00
expand: MAIN (4, 0) FAR  w(0) 1491.
	create_child: MAIN (3, 6) FAR 13187 U 0.00
expand: MAIN (3, 0) FAR  w(0) 13187.
	create_child: top_step (2, 6) FAR 13111 U 0.00
expand: top_step (2, 0) FAR  w(0) 13111. F 0.00
expand: MAIN (3, 0) FAR  w(0) 13187. F 0.00
expand: MAIN (4, 0) FAR  w(0) 1491.
	create_child: MAIN (3, 6) FAR 9299 U 0.00
expand: MAIN (3, 0) FAR  w(0) 9299.
	create_child: MAIN (2, 6) FAR 13239 U 0.00
expand: MAIN (2, 0) FAR  w(0) 13239.
	create_child: top_reset (1, 6) FAR 13457 U 0.00
expand: top_reset (1, 0) FAR  w(0) 13457. T 0.00
is-reachable: MAIN (2, 0) FAR 13239 T 0.00
is-reachable: MAIN (3, 0) FAR 9299 T 0.00
is-reachable: MAIN (4, 0) FAR 1491 T 0.00
is-reachable: ERR (5, 0) FAR 1 T 0.00
is-reachable: query!0 (6, 0) FAR 1 T 0.00
(spacer::context::check_reachability :time 0.04 :before-memory 22.86 :after-memory 23.65)
BRUNCH_STAT max_query_lvl 6
BRUNCH_STAT num_queries 57
BRUNCH_STAT num_reach_queries 7
BRUNCH_STAT num_reach_reuse 66
BRUNCH_STAT inductive_lvl 0
BRUNCH_STAT max_depth 6
BRUNCH_STAT cex_depth 6
(:SPACER-cex-depth                     6
 :SPACER-max-depth                     6
 :SPACER-max-query-lvl                 6
 :SPACER-num-invariants                37
 :SPACER-num-lemmas                    58
 :SPACER-num-properties                45
 :SPACER-num-queries                   57
 :SPACER-num-reach-queries             7
 :SPACER-num-reuse-reach-facts         66
 :added-eqs                            5692
 :arith-add-rows                       3107
 :arith-assert-diseq                   677
 :arith-assert-lower                   3078
 :arith-assert-upper                   2817
 :arith-bound-prop                     264
 :arith-conflicts                      65
 :arith-eq-adapter                     1308
 :arith-fixed-eqs                      1025
 :arith-offset-eqs                     767
 :arith-pivots                         726
 :bool-inductive-gen                   44
 :bool-inductive-gen-failures          98
 :conflicts                            346
 :decisions                            6505
 :del-clause                           462
 :final-checks                         173
 :minimized-lits                       27
 :mk-bool-var                          5084
 :mk-clause                            3293
 :num-checks                           396
 :propagations                         39337
 :time.itp_solver.itp_core             0.01
 :time.spacer.init_rules               0.01
 :time.spacer.init_rules.pt.init       0.00
 :time.spacer.solve                    0.17
 :time.spacer.solve.propagate          0.00
 :time.spacer.solve.pt.must_reachable  0.00
 :time.spacer.solve.reach              0.17
 :time.spacer.solve.reach.children     0.03
 :time.spacer.solve.reach.gen.bool_ind 0.03
 :time.spacer.solve.reach.is-reach     0.01
 :time.virtual_solver.proof            0.01
 :time.virtual_solver.smt.total        0.10
 :time.virtual_solver.smt.total.sat    0.06
 :virtual_solver.checks                396
 :virtual_solver.checks.sat            173)
BRUNCH_STAT max_query_lvl 6
BRUNCH_STAT num_queries 57
BRUNCH_STAT num_reach_queries 7
BRUNCH_STAT num_reach_reuse 66
BRUNCH_STAT inductive_lvl 0
BRUNCH_STAT max_depth 6
BRUNCH_STAT cex_depth 6

real	0m0.217s
user	0m0.200s
sys	0m0.016s
