(transform N7datalog13mk_coi_filterE...no-op 0s)
(transform N7datalog25mk_interp_tail_simplifierE...12 rules 0s)
(transform N7datalog27mk_quantifier_instantiationE...no-op 0s)
(transform N7datalog8mk_scaleE...no-op 0s)
(transform N7datalog18mk_karr_invariantsE...no-op 0s)
(transform N7datalog14mk_array_blastE...no-op 0s)
(transform N7datalog22mk_subsumption_checkerE...11 rules 0s)
(transform N7datalog12mk_bit_blastE...no-op 0s)
(transform N7datalog15mk_rule_inlinerE...no-op 0s)
(transform N7datalog13mk_coi_filterE...no-op 0s)
(transform N7datalog25mk_interp_tail_simplifierE...11 rules 0s)
(transform N7datalog22mk_subsumption_checkerE...no-op 0s)
(transform N7datalog15mk_rule_inlinerE...no-op 0s)
(transform N7datalog13mk_coi_filterE...no-op 0s)
(transform N7datalog25mk_interp_tail_simplifierE...11 rules 0s)
(transform N7datalog22mk_subsumption_checkerE...no-op 0s)
(transform N7datalog15mk_rule_inlinerE...no-op 0s)
(transform N7datalog22mk_subsumption_checkerE...no-op 0s)
(transform N7datalog15mk_rule_inlinerE...no-op 0s)
(transform N7datalog22mk_subsumption_checkerE...no-op 0s)
(transform N7datalog15mk_rule_inlinerE...no-op 0s)
(transform N7datalog22mk_subsumption_checkerE...no-op 0s)
expand: query!0 (0, 0) FAR  w(0) 1. F 0.00
(spacer::context::check_reachability :time 0.00 :before-memory 11.32 :after-memory 11.78)
Entering level 1
BRUNCH_STAT max_query_lvl 0
BRUNCH_STAT num_queries 0
BRUNCH_STAT num_reach_queries 0
BRUNCH_STAT num_reach_reuse 0
BRUNCH_STAT inductive_lvl 0
BRUNCH_STAT max_depth 1
BRUNCH_STAT cex_depth 0
expand: query!0 (1, 0) FAR  w(0) 1.
	create_child: ERR (0, 1) FAR 1 U 0.00
expand: ERR (0, 0) FAR  w(0) 1. F 0.00
expand: query!0 (1, 0) FAR  w(0) 1. F 0.00
(spacer::context::check_reachability :time 0.00 :before-memory 11.78 :after-memory 12.21)
Propagating: 0 1  ! 2 
(spacer::context::propagate :time 0.00 :before-memory 12.21 :after-memory 12.21)
Entering level 2
BRUNCH_STAT max_query_lvl 1
BRUNCH_STAT num_queries 1
BRUNCH_STAT num_reach_queries 0
BRUNCH_STAT num_reach_reuse 0
BRUNCH_STAT inductive_lvl 0
BRUNCH_STAT max_depth 2
BRUNCH_STAT cex_depth 0
expand: query!0 (2, 0) FAR  w(0) 1.
	create_child: ERR (1, 2) FAR 1 U 0.00
expand: ERR (1, 0) FAR  w(0) 1.
	create_child: MAIN (0, 2) FAR 1381 U 0.00
expand: MAIN (0, 0) FAR  w(0) 1381. F 0.00
expand: ERR (1, 0) FAR  w(0) 1. F 0.00
expand: query!0 (2, 0) FAR  w(0) 1. F 0.00
(spacer::context::check_reachability :time 0.00 :before-memory 12.21 :after-memory 12.67)
Propagating: 0 1 2  ! 3 
(spacer::context::propagate :time 0.00 :before-memory 12.67 :after-memory 12.67)
Entering level 3
BRUNCH_STAT max_query_lvl 2
BRUNCH_STAT num_queries 3
BRUNCH_STAT num_reach_queries 0
BRUNCH_STAT num_reach_reuse 0
BRUNCH_STAT inductive_lvl 0
BRUNCH_STAT max_depth 3
BRUNCH_STAT cex_depth 0
expand: query!0 (3, 0) FAR  w(0) 1.
	create_child: ERR (2, 3) FAR 1 U 0.00
expand: ERR (2, 0) FAR  w(0) 1.
	create_child: MAIN (1, 3) FAR 1381 U 0.00
expand: MAIN (1, 0) FAR  w(0) 1381.
	create_child: top_step (0, 3) FAR 1949 U 0.00
expand: top_step (0, 0) FAR  w(0) 1949. F 0.00
expand: MAIN (1, 0) FAR  w(0) 1381. F 0.00
expand: ERR (2, 0) FAR  w(0) 1. F 0.00
expand: query!0 (3, 0) FAR  w(0) 1. F 0.00
(spacer::context::check_reachability :time 0.00 :before-memory 12.67 :after-memory 13.43)
Propagating: 0 1 2 3  ! 4 
(spacer::context::propagate :time 0.00 :before-memory 13.43 :after-memory 13.53)
Entering level 4
BRUNCH_STAT max_query_lvl 3
BRUNCH_STAT num_queries 6
BRUNCH_STAT num_reach_queries 0
BRUNCH_STAT num_reach_reuse 0
BRUNCH_STAT inductive_lvl 0
BRUNCH_STAT max_depth 4
BRUNCH_STAT cex_depth 0
expand: query!0 (4, 0) FAR  w(0) 1.
	create_child: ERR (3, 4) FAR 1 U 0.00
expand: ERR (3, 0) FAR  w(0) 1.
	create_child: MAIN (2, 4) FAR 1381 U 0.00
expand: MAIN (2, 0) FAR  w(0) 1381.
	create_child: top_step (1, 4) FAR 1949 U 0.00
expand: top_step (1, 0) FAR  w(0) 1949.
	create_child: top_reset (1, 4) FAR 4637 X 0.00
expand: top_reset (1, 0) FAR  w(0) 4637. F 0.00
expand: MAIN (2, 0) FAR  w(0) 1381.
	create_child: top_step (1, 4) FAR 6117 U 0.00
expand: top_step (1, 0) FAR  w(0) 6117. F 0.00
expand: MAIN (2, 0) FAR  w(0) 1381. F 0.00
expand: ERR (3, 0) FAR  w(0) 1. F 0.00
expand: query!0 (4, 0) FAR  w(0) 1. F 0.00
(spacer::context::check_reachability :time 0.01 :before-memory 13.53 :after-memory 15.28)
Propagating: 1 2 3 4  ! 5 
(spacer::context::propagate :time 0.00 :before-memory 15.28 :after-memory 15.28)
Entering level 5
BRUNCH_STAT max_query_lvl 4
BRUNCH_STAT num_queries 10
BRUNCH_STAT num_reach_queries 1
BRUNCH_STAT num_reach_reuse 3
BRUNCH_STAT inductive_lvl 0
BRUNCH_STAT max_depth 5
BRUNCH_STAT cex_depth 0
expand: query!0 (5, 0) FAR  w(0) 1.
	create_child: ERR (4, 5) FAR 1 U 0.00
expand: ERR (4, 0) FAR  w(0) 1.
	create_child: MAIN (3, 5) FAR 1381 U 0.00
expand: MAIN (3, 0) FAR  w(0) 1381.
	create_child: MAIN (2, 5) FAR 6506 U 0.00
expand: MAIN (2, 0) FAR  w(0) 6506.
	create_child: top_step (1, 5) FAR 6463 U 0.00
expand: top_step (1, 0) FAR  w(0) 6463.
	create_child: Sofar_step (0, 5) FAR 6518 U 0.00
expand: Sofar_step (0, 0) FAR  w(0) 6518. F 0.00
expand: top_step (1, 0) FAR  w(0) 6463. F 0.00
expand: MAIN (2, 0) FAR  w(0) 6506. F 0.00
expand: MAIN (3, 0) FAR  w(0) 1381.
	create_child: MAIN (2, 5) FAR 6871 U 0.00
expand: MAIN (2, 0) FAR  w(0) 6871.
	create_child: top_step (1, 5) FAR 6719 U 0.00
expand: top_step (1, 0) FAR  w(0) 6719.
	create_child: synapse_step (0, 5) FAR 6867 U 0.00
expand: synapse_step (0, 0) FAR  w(0) 6867. F 0.00
expand: top_step (1, 0) FAR  w(0) 6719. F 0.00
expand: MAIN (2, 0) FAR  w(0) 6871. F 0.00
expand: MAIN (3, 0) FAR  w(0) 1381.
	create_child: MAIN (2, 5) FAR 7861 U 0.00
expand: MAIN (2, 0) FAR  w(0) 7861.
	create_child: top_step (1, 5) FAR 7904 U 0.00
expand: top_step (1, 0) FAR  w(0) 7904.
	create_child: synapse_step (0, 5) FAR 8039 U 0.00
expand: synapse_step (0, 0) FAR  w(0) 8039. F 0.00
expand: top_step (1, 0) FAR  w(0) 7904. F 0.00
expand: MAIN (2, 0) FAR  w(0) 7861. F 0.00
expand: MAIN (3, 0) FAR  w(0) 1381.
	create_child: MAIN (2, 5) FAR 8266 U 0.00
expand: MAIN (2, 0) FAR  w(0) 8266.
	create_child: top_step (1, 5) FAR 8198 U 0.00
expand: top_step (1, 0) FAR  w(0) 8198.
	create_child: synapse_step (0, 5) FAR 8004 U 0.00
expand: synapse_step (0, 0) FAR  w(0) 8004. F 0.00
expand: top_step (1, 0) FAR  w(0) 8198. F 0.00
expand: MAIN (2, 0) FAR  w(0) 8266. F 0.00
expand: MAIN (3, 0) FAR  w(0) 1381.
	create_child: top_step (2, 5) FAR 8658 U 0.00
expand: top_step (2, 0) FAR  w(0) 8658.
	create_child: synapse_step (1, 5) FAR 10406 U 0.01
expand: synapse_step (1, 0) FAR  w(0) 10406. F 0.00
expand: top_step (2, 0) FAR  w(0) 8658.
	create_child: synapse_step (1, 5) FAR 10804 U 0.00
expand: synapse_step (1, 0) FAR  w(0) 10804. F 0.00
expand: top_step (2, 0) FAR  w(0) 8658. F 0.01
expand: MAIN (3, 0) FAR  w(0) 1381. F 0.00
expand: ERR (4, 0) FAR  w(0) 1. F 0.00
expand: query!0 (5, 0) FAR  w(0) 1. F 0.00
(spacer::context::check_reachability :time 0.05 :before-memory 15.28 :after-memory 17.19)
Propagating: 0 1 2 
(spacer::context::propagate :time 0.00 :before-memory 17.19 :after-memory 17.19)
(define-fun ERR () Bool
  false)
(define-fun MAIN ((x!0 Int)
 (x!1 Bool)
 (x!2 Int)
 (x!3 Int)
 (x!4 Int)
 (x!5 Int)
 (x!6 Bool)
 (x!7 Bool)
 (x!8 Bool)
 (x!9 Bool)) Bool
  (let ((a!1 (+ x!0 (* (- 1) x!2) (* (- 1) x!3) (* (- 1) x!4))))
    (and (<= a!1 0) x!9 (not x!6) (not x!8) (>= a!1 0))))
(define-fun synapse_step ((x!0 Bool)
 (x!1 Bool)
 (x!2 Bool)
 (x!3 Int)
 (x!4 Int)
 (x!5 Int)
 (x!6 Int)
 (x!7 Int)
 (x!8 Int)
 (x!9 Int)
 (x!10 Int)
 (x!11 Int)
 (x!12 Bool)
 (x!13 Int)
 (x!14 Int)
 (x!15 Int)
 (x!16 Int)
 (x!17 Bool)) Bool
  (let ((a!1 (+ x!4 x!5 x!6 (* (- 1) x!10) (* (- 1) x!8) (* (- 1) x!9))))
    (and (or (<= a!1 0) x!12)
         (not x!17)
         (>= (+ x!4 x!5 x!6 (* (- 1) x!13) (* (- 1) x!14) (* (- 1) x!15)) 0)
         (>= (+ x!13 x!14 x!15 (* (- 1) x!4) (* (- 1) x!5) (* (- 1) x!6)) 0)
         (or (>= a!1 0) x!12))))
(define-fun Sofar_reset ((x!0 Bool) (x!1 Bool) (x!2 Bool) (x!3 Bool)) Bool
  true)
(define-fun synapse_reset ((x!0 Int)
 (x!1 Int)
 (x!2 Int)
 (x!3 Int)
 (x!4 Bool)
 (x!5 Int)
 (x!6 Int)
 (x!7 Int)
 (x!8 Int)
 (x!9 Bool)) Bool
  true)
(define-fun excludes3_fun ((x!0 Bool) (x!1 Bool) (x!2 Bool) (x!3 Bool)) Bool
  true)
(define-fun Sofar_step ((x!0 Bool)
 (x!1 Bool)
 (x!2 Bool)
 (x!3 Bool)
 (x!4 Bool)
 (x!5 Bool)) Bool
  (not x!5))
(define-fun top_reset ((x!0 Int)
 (x!1 Bool)
 (x!2 Int)
 (x!3 Int)
 (x!4 Int)
 (x!5 Int)
 (x!6 Bool)
 (x!7 Bool)
 (x!8 Bool)
 (x!9 Int)
 (x!10 Bool)
 (x!11 Int)
 (x!12 Int)
 (x!13 Int)
 (x!14 Int)
 (x!15 Bool)
 (x!16 Bool)
 (x!17 Bool)) Bool
  x!10)
(define-fun top_step ((x!0 Bool)
 (x!1 Bool)
 (x!2 Bool)
 (x!3 Int)
 (x!4 Bool)
 (x!5 Int)
 (x!6 Bool)
 (x!7 Int)
 (x!8 Int)
 (x!9 Int)
 (x!10 Int)
 (x!11 Bool)
 (x!12 Bool)
 (x!13 Bool)
 (x!14 Int)
 (x!15 Bool)
 (x!16 Int)
 (x!17 Int)
 (x!18 Int)
 (x!19 Int)
 (x!20 Bool)
 (x!21 Bool)
 (x!22 Bool)) Bool
  (let ((a!1 (not (= (+ x!5 (* (- 1) x!7) (* (- 1) x!8) (* (- 1) x!9)) 0))))
    (and (or a!1 x!4 x!11)
         (not x!22)
         (not x!20)
         (>= (+ x!14 (* (- 1) x!16) (* (- 1) x!17) (* (- 1) x!18)) 0)
         (or (not x!6) x!4)
         (>= (+ x!16 x!17 x!18 (* (- 1) x!14)) 0))))
BRUNCH_STAT max_query_lvl 5
BRUNCH_STAT num_queries 27
BRUNCH_STAT num_reach_queries 1
BRUNCH_STAT num_reach_reuse 18
BRUNCH_STAT inductive_lvl 2
BRUNCH_STAT max_depth 5
BRUNCH_STAT cex_depth 0
(:SPACER-inductive-level               2
 :SPACER-max-depth                     5
 :SPACER-max-query-lvl                 5
 :SPACER-num-invariants                20
 :SPACER-num-lemmas                    33
 :SPACER-num-properties                22
 :SPACER-num-queries                   27
 :SPACER-num-reach-queries             1
 :SPACER-num-reuse-reach-facts         18
 :added-eqs                            2108
 :arith-add-rows                       1138
 :arith-assert-diseq                   329
 :arith-assert-lower                   1156
 :arith-assert-upper                   1136
 :arith-bound-prop                     112
 :arith-conflicts                      62
 :arith-eq-adapter                     487
 :arith-fixed-eqs                      456
 :arith-offset-eqs                     296
 :arith-pivots                         333
 :bool-inductive-gen                   19
 :bool-inductive-gen-failures          24
 :conflicts                            281
 :decisions                            1767
 :del-clause                           342
 :final-checks                         56
 :minimized-lits                       29
 :mk-bool-var                          2372
 :mk-clause                            2282
 :num-checks                           176
 :propagations                         15695
 :time.itp_solver.itp_core             0.01
 :time.spacer.init_rules               0.01
 :time.spacer.init_rules.pt.init       0.00
 :time.spacer.solve                    0.07
 :time.spacer.solve.propagate          0.00
 :time.spacer.solve.pt.must_reachable  0.00
 :time.spacer.solve.reach              0.07
 :time.spacer.solve.reach.children     0.01
 :time.spacer.solve.reach.gen.bool_ind 0.01
 :time.virtual_solver.proof            0.00
 :time.virtual_solver.smt.total        0.05
 :time.virtual_solver.smt.total.sat    0.02
 :virtual_solver.checks                176
 :virtual_solver.checks.sat            56)
BRUNCH_STAT max_query_lvl 5
BRUNCH_STAT num_queries 27
BRUNCH_STAT num_reach_queries 1
BRUNCH_STAT num_reach_reuse 18
BRUNCH_STAT inductive_lvl 2
BRUNCH_STAT max_depth 5
BRUNCH_STAT cex_depth 0

real	0m0.113s
user	0m0.096s
sys	0m0.016s
