(transform N7datalog13mk_coi_filterE...no-op 0s)
(transform N7datalog25mk_interp_tail_simplifierE...14 rules 0s)
(transform N7datalog27mk_quantifier_instantiationE...no-op 0s)
(transform N7datalog8mk_scaleE...no-op 0s)
(transform N7datalog18mk_karr_invariantsE...no-op 0s)
(transform N7datalog14mk_array_blastE...no-op 0s)
(transform N7datalog22mk_subsumption_checkerE...13 rules 0s)
(transform N7datalog12mk_bit_blastE...no-op 0s)
(transform N7datalog15mk_rule_inlinerE...no-op 0s)
(transform N7datalog13mk_coi_filterE...no-op 0s)
(transform N7datalog25mk_interp_tail_simplifierE...13 rules 0s)
(transform N7datalog22mk_subsumption_checkerE...no-op 0s)
(transform N7datalog15mk_rule_inlinerE...no-op 0s)
(transform N7datalog13mk_coi_filterE...no-op 0s)
(transform N7datalog25mk_interp_tail_simplifierE...13 rules 0s)
(transform N7datalog22mk_subsumption_checkerE...no-op 0s)
(transform N7datalog15mk_rule_inlinerE...no-op 0s)
(transform N7datalog22mk_subsumption_checkerE...no-op 0s)
(transform N7datalog15mk_rule_inlinerE...no-op 0s)
(transform N7datalog22mk_subsumption_checkerE...no-op 0s)
(transform N7datalog15mk_rule_inlinerE...no-op 0s)
(transform N7datalog22mk_subsumption_checkerE...no-op 0s)
expand: query!0 (0, 0) FAR  w(0) 1. F 0.00
(spacer::context::check_reachability :time 0.00 :before-memory 13.08 :after-memory 13.58)
Entering level 1
BRUNCH_STAT max_query_lvl 0
BRUNCH_STAT num_queries 0
BRUNCH_STAT num_reach_queries 0
BRUNCH_STAT num_reach_reuse 0
BRUNCH_STAT inductive_lvl 0
BRUNCH_STAT max_depth 1
BRUNCH_STAT cex_depth 0
expand: query!0 (1, 0) FAR  w(0) 1.
	create_child: ERR (0, 1) FAR 1 U 0.00
expand: ERR (0, 0) FAR  w(0) 1. F 0.00
expand: query!0 (1, 0) FAR  w(0) 1. F 0.00
(spacer::context::check_reachability :time 0.00 :before-memory 13.58 :after-memory 14.02)
Propagating: 0 1  ! 2 
(spacer::context::propagate :time 0.00 :before-memory 14.02 :after-memory 14.02)
Entering level 2
BRUNCH_STAT max_query_lvl 1
BRUNCH_STAT num_queries 1
BRUNCH_STAT num_reach_queries 0
BRUNCH_STAT num_reach_reuse 0
BRUNCH_STAT inductive_lvl 0
BRUNCH_STAT max_depth 2
BRUNCH_STAT cex_depth 0
expand: query!0 (2, 0) FAR  w(0) 1.
	create_child: ERR (1, 2) FAR 1 U 0.00
expand: ERR (1, 0) FAR  w(0) 1.
	create_child: MAIN (0, 2) FAR 1604 U 0.00
expand: MAIN (0, 0) FAR  w(0) 1604. F 0.00
expand: ERR (1, 0) FAR  w(0) 1. F 0.00
expand: query!0 (2, 0) FAR  w(0) 1. F 0.00
(spacer::context::check_reachability :time 0.00 :before-memory 14.02 :after-memory 14.65)
Propagating: 0 1 2  ! 3 
(spacer::context::propagate :time 0.00 :before-memory 14.65 :after-memory 14.65)
Entering level 3
BRUNCH_STAT max_query_lvl 2
BRUNCH_STAT num_queries 3
BRUNCH_STAT num_reach_queries 0
BRUNCH_STAT num_reach_reuse 0
BRUNCH_STAT inductive_lvl 0
BRUNCH_STAT max_depth 3
BRUNCH_STAT cex_depth 0
expand: query!0 (3, 0) FAR  w(0) 1.
	create_child: ERR (2, 3) FAR 1 U 0.00
expand: ERR (2, 0) FAR  w(0) 1.
	create_child: MAIN (1, 3) FAR 1604 U 0.00
expand: MAIN (1, 0) FAR  w(0) 1604.
	create_child: top_step (0, 3) FAR 2227 U 0.00
expand: top_step (0, 0) FAR  w(0) 2227. F 0.00
expand: MAIN (1, 0) FAR  w(0) 1604. F 0.00
expand: ERR (2, 0) FAR  w(0) 1. F 0.00
expand: query!0 (3, 0) FAR  w(0) 1. F 0.00
(spacer::context::check_reachability :time 0.00 :before-memory 14.65 :after-memory 15.32)
Propagating: 0 1 2 3  ! 4 
(spacer::context::propagate :time 0.00 :before-memory 15.32 :after-memory 15.42)
Entering level 4
BRUNCH_STAT max_query_lvl 3
BRUNCH_STAT num_queries 6
BRUNCH_STAT num_reach_queries 0
BRUNCH_STAT num_reach_reuse 0
BRUNCH_STAT inductive_lvl 0
BRUNCH_STAT max_depth 4
BRUNCH_STAT cex_depth 0
expand: query!0 (4, 0) FAR  w(0) 1.
	create_child: ERR (3, 4) FAR 1 U 0.00
expand: ERR (3, 0) FAR  w(0) 1.
	create_child: MAIN (2, 4) FAR 1604 U 0.00
expand: MAIN (2, 0) FAR  w(0) 1604.
	create_child: top_step (1, 4) FAR 2227 U 0.00
expand: top_step (1, 0) FAR  w(0) 2227.
	create_child: top_reset (1, 4) FAR 5288 X 0.00
expand: top_reset (1, 0) FAR  w(0) 5288. F 0.00
expand: MAIN (2, 0) FAR  w(0) 1604.
	create_child: top_reset (1, 4) FAR 7308 U 0.00
expand: top_reset (1, 0) FAR  w(0) 7308.
	create_child: Sofar_reset (0, 4) FAR 7248 U 0.00
expand: Sofar_reset (0, 0) FAR  w(0) 7248. F 0.00
expand: top_reset (1, 0) FAR  w(0) 7308. F 0.00
expand: MAIN (2, 0) FAR  w(0) 1604.
	create_child: top_reset (1, 4) FAR 7461 U 0.00
expand: top_reset (1, 0) FAR  w(0) 7461.
	create_child: synapse_reset (0, 4) FAR 7382 U 0.00
expand: synapse_reset (0, 0) FAR  w(0) 7382. F 0.00
expand: top_reset (1, 0) FAR  w(0) 7461. F 0.00
expand: MAIN (2, 0) FAR  w(0) 1604.
	create_child: top_reset (1, 4) FAR 7584 U 0.00
expand: top_reset (1, 0) FAR  w(0) 7584.
	create_child: First_reset (0, 4) FAR 7502 U 0.00
expand: First_reset (0, 0) FAR  w(0) 7502. F 0.00
expand: top_reset (1, 0) FAR  w(0) 7584. F 0.00
expand: MAIN (2, 0) FAR  w(0) 1604.
	create_child: top_step (1, 4) FAR 7625 U 0.00
expand: top_step (1, 0) FAR  w(0) 7625.
	create_child: synapse_step (0, 4) FAR 8093 U 0.00
expand: synapse_step (0, 0) FAR  w(0) 8093. F 0.00
expand: top_step (1, 0) FAR  w(0) 7625.
	create_child: synapse_step (0, 4) FAR 9119 U 0.00
expand: synapse_step (0, 0) FAR  w(0) 9119. F 0.00
expand: top_step (1, 0) FAR  w(0) 7625.
	create_child: synapse_step (0, 4) FAR 9260 U 0.00
expand: synapse_step (0, 0) FAR  w(0) 9260. F 0.00
expand: top_step (1, 0) FAR  w(0) 7625.
	create_child: synapse_step (0, 4) FAR 9307 U 0.00
expand: synapse_step (0, 0) FAR  w(0) 9307.
	create_child: First_step (0, 4) FAR 9394 X 0.00
expand: First_step (0, 0) FAR  w(0) 9394. F 0.00
expand: top_step (1, 0) FAR  w(0) 7625.
	create_child: synapse_step (0, 4) FAR 9307 U 0.00
expand: synapse_step (0, 0) FAR  w(0) 9307.
	create_child: First_step (0, 4) FAR 9637 X 0.00
expand: First_step (0, 0) FAR  w(0) 9637. F 0.00
expand: top_step (1, 0) FAR  w(0) 7625. F 0.00
expand: MAIN (2, 0) FAR  w(0) 1604. F 0.00
expand: ERR (3, 0) FAR  w(0) 1. F 0.00
expand: query!0 (4, 0) FAR  w(0) 1. F 0.00
(spacer::context::check_reachability :time 0.05 :before-memory 15.42 :after-memory 20.84)
Propagating: 0 1 2 3 4  ! 5 
(spacer::context::propagate :time 0.00 :before-memory 20.84 :after-memory 20.84)
Entering level 5
BRUNCH_STAT max_query_lvl 4
BRUNCH_STAT num_queries 21
BRUNCH_STAT num_reach_queries 1
BRUNCH_STAT num_reach_reuse 25
BRUNCH_STAT inductive_lvl 0
BRUNCH_STAT max_depth 5
BRUNCH_STAT cex_depth 0
expand: query!0 (5, 0) FAR  w(0) 1.
	create_child: ERR (4, 5) FAR 1 U 0.00
expand: ERR (4, 0) FAR  w(0) 1.
	create_child: MAIN (3, 5) FAR 1604 U 0.00
expand: MAIN (3, 0) FAR  w(0) 1604.
	create_child: MAIN (2, 5) FAR 10080 U 0.00
expand: MAIN (2, 0) FAR  w(0) 10080.
	create_child: top_step (1, 5) FAR 10081 U 0.00
expand: top_step (1, 0) FAR  w(0) 10081.
	create_child: synapse_step (0, 5) FAR 10182 U 0.00
expand: synapse_step (0, 0) FAR  w(0) 10182. F 0.00
expand: top_step (1, 0) FAR  w(0) 10081. F 0.00
expand: MAIN (2, 0) FAR  w(0) 10080. F 0.00
expand: MAIN (3, 0) FAR  w(0) 1604.
	create_child: MAIN (2, 5) FAR 10553 U 0.00
expand: MAIN (2, 0) FAR  w(0) 10553.
	create_child: top_step (1, 5) FAR 10501 U 0.00
expand: top_step (1, 0) FAR  w(0) 10501.
	create_child: synapse_step (0, 5) FAR 10357 U 0.00
expand: synapse_step (0, 0) FAR  w(0) 10357. F 0.00
expand: top_step (1, 0) FAR  w(0) 10501. F 0.00
expand: MAIN (2, 0) FAR  w(0) 10553. F 0.00
expand: MAIN (3, 0) FAR  w(0) 1604.
	create_child: MAIN (2, 5) FAR 10787 U 0.00
expand: MAIN (2, 0) FAR  w(0) 10787.
	create_child: top_step (1, 5) FAR 10783 U 0.00
expand: top_step (1, 0) FAR  w(0) 10783.
	create_child: Sofar_step (0, 5) FAR 11069 U 0.00
expand: Sofar_step (0, 0) FAR  w(0) 11069.
	create_child: First_step (0, 5) FAR 11243 X 0.00
expand: First_step (0, 0) FAR  w(0) 11243. F 0.00
expand: top_step (1, 0) FAR  w(0) 10783. F 0.00
expand: MAIN (2, 0) FAR  w(0) 10787. F 0.00
expand: MAIN (3, 0) FAR  w(0) 1604.
	create_child: MAIN (2, 5) FAR 11488 U 0.00
expand: MAIN (2, 0) FAR  w(0) 11488.
	create_child: top_step (1, 5) FAR 11402 U 0.00
expand: top_step (1, 0) FAR  w(0) 11402.
	create_child: Sofar_step (0, 5) FAR 11516 U 0.00
expand: Sofar_step (0, 0) FAR  w(0) 11516. F 0.00
expand: top_step (1, 0) FAR  w(0) 11402. F 0.00
expand: MAIN (2, 0) FAR  w(0) 11488. F 0.00
expand: MAIN (3, 0) FAR  w(0) 1604.
	create_child: MAIN (2, 5) FAR 11537 U 0.00
expand: MAIN (2, 0) FAR  w(0) 11537.
	create_child: top_step (1, 5) FAR 11567 U 0.00
expand: top_step (1, 0) FAR  w(0) 11567.
	create_child: First_step (0, 5) FAR 11698 U 0.00
expand: First_step (0, 0) FAR  w(0) 11698. F 0.00
expand: top_step (1, 0) FAR  w(0) 11567. F 0.00
expand: MAIN (2, 0) FAR  w(0) 11537. F 0.00
expand: MAIN (3, 0) FAR  w(0) 1604.
	create_child: MAIN (2, 5) FAR 11792 U 0.00
expand: MAIN (2, 0) FAR  w(0) 11792.
	create_child: top_step (1, 5) FAR 11754 U 0.00
expand: top_step (1, 0) FAR  w(0) 11754.
	create_child: Sofar_step (0, 5) FAR 11799 U 0.00
expand: Sofar_step (0, 0) FAR  w(0) 11799. F 0.00
expand: top_step (1, 0) FAR  w(0) 11754.
	create_child: Sofar_step (0, 5) FAR 11069 U 0.00
expand: Sofar_step (0, 0) FAR  w(0) 11069.
	create_child: First_step (0, 5) FAR 11798 X 0.00
expand: First_step (0, 0) FAR  w(0) 11798. F 0.00
expand: top_step (1, 0) FAR  w(0) 11754. F 0.00
expand: MAIN (2, 0) FAR  w(0) 11792. F 0.00
expand: MAIN (3, 0) FAR  w(0) 1604.
	create_child: MAIN (2, 5) FAR 12216 U 0.00
expand: MAIN (2, 0) FAR  w(0) 12216.
	create_child: top_step (1, 5) FAR 12221 U 0.00
expand: top_step (1, 0) FAR  w(0) 12221.
	create_child: Sofar_step (0, 5) FAR 11069 U 0.00
expand: Sofar_step (0, 0) FAR  w(0) 11069.
	create_child: synapse_step (0, 5) FAR 12392 X 0.00
expand: synapse_step (0, 0) FAR  w(0) 12392. F 0.00
expand: top_step (1, 0) FAR  w(0) 12221. F 0.00
expand: MAIN (2, 0) FAR  w(0) 12216. F 0.00
expand: MAIN (3, 0) FAR  w(0) 1604.
	create_child: MAIN (2, 5) FAR 12648 U 0.00
expand: MAIN (2, 0) FAR  w(0) 12648.
	create_child: top_step (1, 5) FAR 12556 U 0.00
expand: top_step (1, 0) FAR  w(0) 12556.
	create_child: synapse_step (0, 5) FAR 12616 U 0.00
expand: synapse_step (0, 0) FAR  w(0) 12616. F 0.00
expand: top_step (1, 0) FAR  w(0) 12556. F 0.00
expand: MAIN (2, 0) FAR  w(0) 12648. F 0.00
expand: MAIN (3, 0) FAR  w(0) 1604.
	create_child: top_step (2, 5) FAR 12980 U 0.00
expand: top_step (2, 0) FAR  w(0) 12980.
	create_child: excludes3_fun (1, 5) FAR 15305 U 0.01
expand: excludes3_fun (1, 0) FAR  w(0) 15305.
	create_child: First_step (1, 5) FAR 15416 X 0.00
expand: First_step (1, 0) FAR  w(0) 15416. F 0.00
expand: top_step (2, 0) FAR  w(0) 12980.
	create_child: synapse_step (1, 5) FAR 15472 U 0.00
expand: synapse_step (1, 0) FAR  w(0) 15472. F 0.00
expand: top_step (2, 0) FAR  w(0) 12980.
	create_child: synapse_step (1, 5) FAR 15824 U 0.00
expand: synapse_step (1, 0) FAR  w(0) 15824. F 0.00
expand: top_step (2, 0) FAR  w(0) 12980.
	create_child: synapse_step (1, 5) FAR 16182 U 0.00
expand: synapse_step (1, 0) FAR  w(0) 16182. F 0.00
expand: top_step (2, 0) FAR  w(0) 12980.
	create_child: synapse_step (1, 5) FAR 16312 U 0.00
expand: synapse_step (1, 0) FAR  w(0) 16312.
	create_child: First_step (1, 5) FAR 16424 X 0.00
expand: First_step (1, 0) FAR  w(0) 16424. F 0.00
expand: top_step (2, 0) FAR  w(0) 12980. F 0.01
expand: MAIN (3, 0) FAR  w(0) 1604. F 0.00
expand: ERR (4, 0) FAR  w(0) 1. F 0.00
expand: query!0 (5, 0) FAR  w(0) 1. F 0.00
(spacer::context::check_reachability :time 0.14 :before-memory 20.84 :after-memory 25.13)
Propagating: 0 1 2 3 4 5  ! 6 
(spacer::context::propagate :time 0.00 :before-memory 25.13 :after-memory 25.13)
Entering level 6
BRUNCH_STAT max_query_lvl 5
BRUNCH_STAT num_queries 54
BRUNCH_STAT num_reach_queries 1
BRUNCH_STAT num_reach_reuse 68
BRUNCH_STAT inductive_lvl 0
BRUNCH_STAT max_depth 6
BRUNCH_STAT cex_depth 0
expand: query!0 (6, 0) FAR  w(0) 1.
	create_child: ERR (5, 6) FAR 1 U 0.00
expand: ERR (5, 0) FAR  w(0) 1.
	create_child: MAIN (4, 6) FAR 1604 U 0.00
expand: MAIN (4, 0) FAR  w(0) 1604.
	create_child: MAIN (3, 6) FAR 17591 U 0.00
expand: MAIN (3, 0) FAR  w(0) 17591.
	create_child: top_step (2, 6) FAR 17594 U 0.00
expand: top_step (2, 0) FAR  w(0) 17594. F 0.00
expand: MAIN (3, 0) FAR  w(0) 17591. F 0.00
expand: MAIN (4, 0) FAR  w(0) 1604.
	create_child: MAIN (3, 6) FAR 17887 U 0.00
expand: MAIN (3, 0) FAR  w(0) 17887.
	create_child: top_step (2, 6) FAR 17874 U 0.00
expand: top_step (2, 0) FAR  w(0) 17874.
	create_child: Sofar_step (1, 6) FAR 18055 U 0.00
expand: Sofar_step (1, 0) FAR  w(0) 18055.
	create_child: First_step (1, 6) FAR 17886 X 0.00
expand: First_step (1, 0) FAR  w(0) 17886. F 0.00
expand: top_step (2, 0) FAR  w(0) 17874. F 0.01
expand: MAIN (3, 0) FAR  w(0) 17887. F 0.00
expand: MAIN (4, 0) FAR  w(0) 1604.
	create_child: MAIN (3, 6) FAR 18443 U 0.00
expand: MAIN (3, 0) FAR  w(0) 18443.
	create_child: top_step (2, 6) FAR 18425 U 0.00
expand: top_step (2, 0) FAR  w(0) 18425.
	create_child: Sofar_step (1, 6) FAR 18055 U 0.00
expand: Sofar_step (1, 0) FAR  w(0) 18055.
	create_child: First_step (1, 6) FAR 18530 X 0.00
expand: First_step (1, 0) FAR  w(0) 18530. F 0.00
expand: top_step (2, 0) FAR  w(0) 18425. F 0.01
expand: MAIN (3, 0) FAR  w(0) 18443. F 0.00
expand: MAIN (4, 0) FAR  w(0) 1604.
	create_child: MAIN (3, 6) FAR 12216 U 0.00
expand: MAIN (3, 0) FAR  w(0) 12216.
	create_child: top_step (2, 6) FAR 18674 U 0.00
expand: top_step (2, 0) FAR  w(0) 18674. F 0.01
expand: MAIN (3, 0) FAR  w(0) 12216. F 0.00
expand: MAIN (4, 0) FAR  w(0) 1604. F 0.00
expand: ERR (5, 0) FAR  w(0) 1. F 0.00
expand: query!0 (6, 0) FAR  w(0) 1. F 0.00
(spacer::context::check_reachability :time 0.06 :before-memory 25.13 :after-memory 25.64)
Propagating: 1 2 
(spacer::context::propagate :time 0.00 :before-memory 25.64 :after-memory 25.64)
(define-fun ERR () Bool
  false)
(define-fun First_reset ((x!0 Int) (x!1 Bool) (x!2 Int) (x!3 Bool)) Bool
  x!3)
(define-fun First_step ((x!0 Int)
 (x!1 Int)
 (x!2 Int)
 (x!3 Bool)
 (x!4 Int)
 (x!5 Bool)) Bool
  (let ((a!1 (or (>= (+ x!1 (* (- 1) x!2)) 0) x!3))
        (a!2 (or (not x!3) (= (+ x!1 (* (- 1) x!0)) 0)))
        (a!3 (or (<= (+ x!1 (* (- 1) x!2)) 0) x!3)))
    (and a!1
         (not x!5)
         a!2
         (>= (+ x!1 (* (- 1) x!4)) 0)
         (<= (+ x!1 (* (- 1) x!4)) 0)
         a!3)))
(define-fun synapse_step ((x!0 Bool)
 (x!1 Bool)
 (x!2 Bool)
 (x!3 Int)
 (x!4 Int)
 (x!5 Int)
 (x!6 Int)
 (x!7 Int)
 (x!8 Int)
 (x!9 Int)
 (x!10 Int)
 (x!11 Int)
 (x!12 Bool)
 (x!13 Int)
 (x!14 Int)
 (x!15 Int)
 (x!16 Int)
 (x!17 Bool)) Bool
  (let ((a!1 (or (= (+ x!6 (* (- 1) x!8)) 0) (not (>= x!6 2))))
        (a!2 (or (>= (+ x!4 x!5 x!6 (* (- 1) x!3)) 0) (not x!12)))
        (a!3 (or (>= (+ x!3 (* (- 1) x!4) (* (- 1) x!5) (* (- 1) x!6)) 0)
                 (not x!12)))
        (a!4 (+ x!4 x!5 x!6 (* (- 1) x!10) (* (- 1) x!8) (* (- 1) x!9))))
    (and a!1
         (not x!17)
         a!2
         (or (<= x!6 0) (not x!12))
         a!3
         (>= (+ x!4 x!5 x!6 (* (- 1) x!13) (* (- 1) x!14) (* (- 1) x!15)) 0)
         (>= (+ x!13 x!14 x!15 (* (- 1) x!4) (* (- 1) x!5) (* (- 1) x!6)) 0)
         (>= (+ x!14 x!15 (* (- 1) x!4) (* (- 1) x!5)) 0)
         (or (>= a!4 0) x!12)
         (or (<= a!4 0) x!12))))
(define-fun top_reset ((x!0 Int)
 (x!1 Int)
 (x!2 Bool)
 (x!3 Bool)
 (x!4 Int)
 (x!5 Int)
 (x!6 Int)
 (x!7 Int)
 (x!8 Bool)
 (x!9 Bool)
 (x!10 Bool)
 (x!11 Int)
 (x!12 Int)
 (x!13 Bool)
 (x!14 Bool)
 (x!15 Int)
 (x!16 Int)
 (x!17 Int)
 (x!18 Int)
 (x!19 Bool)
 (x!20 Bool)
 (x!21 Bool)) Bool
  (and x!21 x!13 x!14 x!19))
(define-fun synapse_reset ((x!0 Int)
 (x!1 Int)
 (x!2 Int)
 (x!3 Int)
 (x!4 Bool)
 (x!5 Int)
 (x!6 Int)
 (x!7 Int)
 (x!8 Int)
 (x!9 Bool)) Bool
  x!9)
(define-fun Sofar_reset ((x!0 Bool) (x!1 Bool) (x!2 Bool) (x!3 Bool)) Bool
  x!3)
(define-fun excludes3_fun ((x!0 Bool) (x!1 Bool) (x!2 Bool) (x!3 Bool)) Bool
  true)
(define-fun Sofar_step ((x!0 Bool)
 (x!1 Bool)
 (x!2 Bool)
 (x!3 Bool)
 (x!4 Bool)
 (x!5 Bool)) Bool
  (and (or x!0 (not x!4)) (not x!5)))
(define-fun MAIN ((x!0 Int)
 (x!1 Int)
 (x!2 Bool)
 (x!3 Bool)
 (x!4 Int)
 (x!5 Int)
 (x!6 Int)
 (x!7 Int)
 (x!8 Bool)
 (x!9 Bool)
 (x!10 Bool)
 (x!11 Bool)) Bool
  (let ((a!1 (not (>= (+ x!0 (* (- 1) x!5) (* (- 1) x!6)) 2)))
        (a!2 (+ x!0 (* (- 1) x!4) (* (- 1) x!5) (* (- 1) x!6))))
    (and a!1
         x!11
         (not x!2)
         (not x!3)
         (not x!8)
         (not x!10)
         (>= a!2 0)
         (>= (+ x!0 (* (- 1) x!1)) 0)
         (<= a!2 0)
         (<= (+ x!0 (* (- 1) x!1)) 0))))
(define-fun top_step ((x!0 Bool)
 (x!1 Bool)
 (x!2 Bool)
 (x!3 Int)
 (x!4 Bool)
 (x!5 Int)
 (x!6 Int)
 (x!7 Bool)
 (x!8 Bool)
 (x!9 Int)
 (x!10 Int)
 (x!11 Int)
 (x!12 Int)
 (x!13 Bool)
 (x!14 Bool)
 (x!15 Bool)
 (x!16 Int)
 (x!17 Int)
 (x!18 Bool)
 (x!19 Bool)
 (x!20 Int)
 (x!21 Int)
 (x!22 Int)
 (x!23 Int)
 (x!24 Bool)
 (x!25 Bool)
 (x!26 Bool)) Bool
  (let ((a!1 (+ x!5 (* (- 1) x!10) (* (- 1) x!11) (* (- 1) x!9)))
        (a!2 (not (>= (+ x!16 (* (- 1) x!21) (* (- 1) x!22)) 2)))
        (a!3 (not (<= (+ x!5 (* (- 1) x!10) (* (- 1) x!11)) 1)))
        (a!4 (or (= (+ x!16 (* (- 1) x!17)) 0) (not x!7) (not x!13)))
        (a!5 (not (= (+ x!5 (* (- 1) x!6)) 0)))
        (a!6 (not (>= (+ x!5 (* (- 1) x!6)) 0))))
  (let ((a!7 (or (not (<= a!1 0)) x!13 x!7 (>= (+ x!16 (* (- 1) x!17)) 0) a!6))
        (a!8 (or (not (= a!1 0)) x!13 x!7 (= (+ x!16 (* (- 1) x!17)) 0) a!5)))
    (and (or (not (>= a!1 0)) a!2 a!3)
         (not x!19)
         (or (not x!7) x!4 (not x!8) (not x!13))
         (not x!26)
         (not x!24)
         (not x!18)
         (>= (+ x!16 (* (- 1) x!20) (* (- 1) x!21) (* (- 1) x!22)) 0)
         (>= (+ x!20 x!21 x!22 (* (- 1) x!16)) 0)
         a!4
         (or a!2 (not x!13))
         (or (not (= a!1 0)) x!4 x!13 x!7 a!5 a!3)
         a!7
         a!8))))
BRUNCH_STAT max_query_lvl 6
BRUNCH_STAT num_queries 66
BRUNCH_STAT num_reach_queries 1
BRUNCH_STAT num_reach_reuse 76
BRUNCH_STAT inductive_lvl 2
BRUNCH_STAT max_depth 6
BRUNCH_STAT cex_depth 0
(:SPACER-inductive-level               2
 :SPACER-max-depth                     6
 :SPACER-max-query-lvl                 6
 :SPACER-num-invariants                54
 :SPACER-num-lemmas                    73
 :SPACER-num-properties                52
 :SPACER-num-queries                   66
 :SPACER-num-reach-queries             1
 :SPACER-num-reuse-reach-facts         76
 :added-eqs                            9701
 :arith-add-rows                       4813
 :arith-assert-diseq                   1047
 :arith-assert-lower                   4538
 :arith-assert-upper                   4743
 :arith-bound-prop                     358
 :arith-conflicts                      68
 :arith-eq-adapter                     2092
 :arith-fixed-eqs                      1863
 :arith-offset-eqs                     2256
 :arith-pivots                         804
 :bool-inductive-gen                   57
 :bool-inductive-gen-failures          93
 :conflicts                            544
 :decisions                            7801
 :del-clause                           637
 :final-checks                         181
 :minimized-lits                       92
 :mk-bool-var                          6214
 :mk-clause                            3664
 :num-checks                           472
 :propagations                         57035
 :time.itp_solver.itp_core             0.02
 :time.spacer.init_rules               0.01
 :time.spacer.init_rules.pt.init       0.00
 :time.spacer.solve                    0.26
 :time.spacer.solve.propagate          0.01
 :time.spacer.solve.pt.must_reachable  0.01
 :time.spacer.solve.reach              0.25
 :time.spacer.solve.reach.children     0.05
 :time.spacer.solve.reach.gen.bool_ind 0.04
 :time.virtual_solver.proof            0.01
 :time.virtual_solver.smt.total        0.16
 :time.virtual_solver.smt.total.sat    0.08
 :virtual_solver.checks                472
 :virtual_solver.checks.sat            181)
BRUNCH_STAT max_query_lvl 6
BRUNCH_STAT num_queries 66
BRUNCH_STAT num_reach_queries 1
BRUNCH_STAT num_reach_reuse 76
BRUNCH_STAT inductive_lvl 2
BRUNCH_STAT max_depth 6
BRUNCH_STAT cex_depth 0

real	0m0.315s
user	0m0.300s
sys	0m0.012s
