(transform N7datalog13mk_coi_filterE...no-op 0s)
(transform N7datalog25mk_interp_tail_simplifierE...12 rules 0s)
(transform N7datalog27mk_quantifier_instantiationE...no-op 0s)
(transform N7datalog8mk_scaleE...no-op 0s)
(transform N7datalog18mk_karr_invariantsE...no-op 0s)
(transform N7datalog14mk_array_blastE...no-op 0s)
(transform N7datalog22mk_subsumption_checkerE...11 rules 0s)
(transform N7datalog12mk_bit_blastE...no-op 0s)
(transform N7datalog15mk_rule_inlinerE...no-op 0s)
(transform N7datalog13mk_coi_filterE...no-op 0s)
(transform N7datalog25mk_interp_tail_simplifierE...11 rules 0s)
(transform N7datalog22mk_subsumption_checkerE...no-op 0s)
(transform N7datalog15mk_rule_inlinerE...no-op 0s)
(transform N7datalog13mk_coi_filterE...no-op 0s)
(transform N7datalog25mk_interp_tail_simplifierE...11 rules 0s)
(transform N7datalog22mk_subsumption_checkerE...no-op 0s)
(transform N7datalog15mk_rule_inlinerE...no-op 0s)
(transform N7datalog22mk_subsumption_checkerE...no-op 0s)
(transform N7datalog15mk_rule_inlinerE...no-op 0s)
(transform N7datalog22mk_subsumption_checkerE...no-op 0s)
(transform N7datalog15mk_rule_inlinerE...no-op 0s)
(transform N7datalog22mk_subsumption_checkerE...no-op 0s)
expand: query!0 (0, 0) FAR  w(0) 1. F 0.00
(spacer::context::check_reachability :time 0.00 :before-memory 11.60 :after-memory 12.02)
Entering level 1
BRUNCH_STAT max_query_lvl 0
BRUNCH_STAT num_queries 0
BRUNCH_STAT num_reach_queries 0
BRUNCH_STAT num_reach_reuse 0
BRUNCH_STAT inductive_lvl 0
BRUNCH_STAT max_depth 1
BRUNCH_STAT cex_depth 0
expand: query!0 (1, 0) FAR  w(0) 1.
	create_child: ERR (0, 1) FAR 1 U 0.00
expand: ERR (0, 0) FAR  w(0) 1. F 0.00
expand: query!0 (1, 0) FAR  w(0) 1. F 0.00
(spacer::context::check_reachability :time 0.00 :before-memory 12.02 :after-memory 12.46)
Propagating: 0 1  ! 2 
(spacer::context::propagate :time 0.00 :before-memory 12.46 :after-memory 12.46)
Entering level 2
BRUNCH_STAT max_query_lvl 1
BRUNCH_STAT num_queries 1
BRUNCH_STAT num_reach_queries 0
BRUNCH_STAT num_reach_reuse 0
BRUNCH_STAT inductive_lvl 0
BRUNCH_STAT max_depth 2
BRUNCH_STAT cex_depth 0
expand: query!0 (2, 0) FAR  w(0) 1.
	create_child: ERR (1, 2) FAR 1 U 0.00
expand: ERR (1, 0) FAR  w(0) 1.
	create_child: MAIN (0, 2) FAR 2479 U 0.00
expand: MAIN (0, 0) FAR  w(0) 2479. F 0.00
expand: ERR (1, 0) FAR  w(0) 1. F 0.00
expand: query!0 (2, 0) FAR  w(0) 1. F 0.00
(spacer::context::check_reachability :time 0.00 :before-memory 12.46 :after-memory 12.92)
Propagating: 0 1 2  ! 3 
(spacer::context::propagate :time 0.00 :before-memory 12.92 :after-memory 12.92)
Entering level 3
BRUNCH_STAT max_query_lvl 2
BRUNCH_STAT num_queries 3
BRUNCH_STAT num_reach_queries 0
BRUNCH_STAT num_reach_reuse 0
BRUNCH_STAT inductive_lvl 0
BRUNCH_STAT max_depth 3
BRUNCH_STAT cex_depth 0
expand: query!0 (3, 0) FAR  w(0) 1.
	create_child: ERR (2, 3) FAR 1 U 0.00
expand: ERR (2, 0) FAR  w(0) 1.
	create_child: MAIN (1, 3) FAR 2479 U 0.00
expand: MAIN (1, 0) FAR  w(0) 2479.
	create_child: top_step (0, 3) FAR 3183 U 0.00
expand: top_step (0, 0) FAR  w(0) 3183. F 0.00
expand: MAIN (1, 0) FAR  w(0) 2479. F 0.00
expand: ERR (2, 0) FAR  w(0) 1. F 0.00
expand: query!0 (3, 0) FAR  w(0) 1. F 0.00
(spacer::context::check_reachability :time 0.01 :before-memory 12.92 :after-memory 14.07)
Propagating: 0 1 2 3  ! 4 
(spacer::context::propagate :time 0.00 :before-memory 14.07 :after-memory 14.17)
Entering level 4
BRUNCH_STAT max_query_lvl 3
BRUNCH_STAT num_queries 6
BRUNCH_STAT num_reach_queries 0
BRUNCH_STAT num_reach_reuse 0
BRUNCH_STAT inductive_lvl 0
BRUNCH_STAT max_depth 4
BRUNCH_STAT cex_depth 0
expand: query!0 (4, 0) FAR  w(0) 1.
	create_child: ERR (3, 4) FAR 1 U 0.00
expand: ERR (3, 0) FAR  w(0) 1.
	create_child: MAIN (2, 4) FAR 2479 U 0.00
expand: MAIN (2, 0) FAR  w(0) 2479.
	create_child: top_step (1, 4) FAR 3183 U 0.00
expand: top_step (1, 0) FAR  w(0) 3183.
	create_child: top_reset (1, 4) FAR 8941 X 0.01
expand: top_reset (1, 0) FAR  w(0) 8941.
	create_child: ticket3i_reset (0, 4) FAR 9433 U 0.00
expand: ticket3i_reset (0, 0) FAR  w(0) 9433. F 0.00
expand: top_reset (1, 0) FAR  w(0) 8941. F 0.00
expand: MAIN (2, 0) FAR  w(0) 2479.
	create_child: top_step (1, 4) FAR 12303 U 0.00
expand: top_step (1, 0) FAR  w(0) 12303.
	create_child: ticket3i_step (0, 4) FAR 12498 U 0.00
expand: ticket3i_step (0, 0) FAR  w(0) 12498. F 0.00
expand: top_step (1, 0) FAR  w(0) 12303.
	create_child: ticket3i_step (0, 4) FAR 14412 U 0.00
expand: ticket3i_step (0, 0) FAR  w(0) 14412. F 0.00
expand: top_step (1, 0) FAR  w(0) 12303.
	create_child: ticket3i_step (0, 4) FAR 14575 U 0.00
expand: ticket3i_step (0, 0) FAR  w(0) 14575. F 0.00
expand: top_step (1, 0) FAR  w(0) 12303. F 0.00
expand: MAIN (2, 0) FAR  w(0) 2479. F 0.00
expand: ERR (3, 0) FAR  w(0) 1. F 0.00
expand: query!0 (4, 0) FAR  w(0) 1. F 0.00
(spacer::context::check_reachability :time 0.03 :before-memory 14.17 :after-memory 18.55)
Propagating: 0 1 2 3 4  ! 5 
(spacer::context::propagate :time 0.00 :before-memory 18.55 :after-memory 18.55)
Entering level 5
BRUNCH_STAT max_query_lvl 4
BRUNCH_STAT num_queries 14
BRUNCH_STAT num_reach_queries 1
BRUNCH_STAT num_reach_reuse 9
BRUNCH_STAT inductive_lvl 0
BRUNCH_STAT max_depth 5
BRUNCH_STAT cex_depth 0
expand: query!0 (5, 0) FAR  w(0) 1.
	create_child: ERR (4, 5) FAR 1 U 0.00
expand: ERR (4, 0) FAR  w(0) 1.
	create_child: MAIN (3, 5) FAR 2479 U 0.00
expand: MAIN (3, 0) FAR  w(0) 2479.
	create_child: MAIN (2, 5) FAR 15117 U 0.00
expand: MAIN (2, 0) FAR  w(0) 15117.
	create_child: top_step (1, 5) FAR 15012 U 0.00
expand: top_step (1, 0) FAR  w(0) 15012.
	create_child: ticket3i_step (0, 5) FAR 15174 U 0.00
expand: ticket3i_step (0, 0) FAR  w(0) 15174. F 0.00
expand: top_step (1, 0) FAR  w(0) 15012. F 0.00
expand: MAIN (2, 0) FAR  w(0) 15117. F 0.00
expand: MAIN (3, 0) FAR  w(0) 2479.
	create_child: MAIN (2, 5) FAR 15696 U 0.00
expand: MAIN (2, 0) FAR  w(0) 15696.
	create_child: top_step (1, 5) FAR 15664 U 0.00
expand: top_step (1, 0) FAR  w(0) 15664.
	create_child: Sofar_step (0, 5) FAR 15537 U 0.00
expand: Sofar_step (0, 0) FAR  w(0) 15537. F 0.00
expand: top_step (1, 0) FAR  w(0) 15664. F 0.00
expand: MAIN (2, 0) FAR  w(0) 15696. F 0.00
expand: MAIN (3, 0) FAR  w(0) 2479.
	create_child: MAIN (2, 5) FAR 16016 U 0.00
expand: MAIN (2, 0) FAR  w(0) 16016.
	create_child: top_step (1, 5) FAR 15967 U 0.00
expand: top_step (1, 0) FAR  w(0) 15967.
	create_child: ticket3i_step (0, 5) FAR 15950 U 0.00
expand: ticket3i_step (0, 0) FAR  w(0) 15950. F 0.00
expand: top_step (1, 0) FAR  w(0) 15967. F 0.00
expand: MAIN (2, 0) FAR  w(0) 16016. F 0.00
expand: MAIN (3, 0) FAR  w(0) 2479.
	create_child: MAIN (2, 5) FAR 16270 U 0.00
expand: MAIN (2, 0) FAR  w(0) 16270.
	create_child: top_step (1, 5) FAR 16132 U 0.00
expand: top_step (1, 0) FAR  w(0) 16132.
	create_child: ticket3i_step (0, 5) FAR 16240 U 0.00
expand: ticket3i_step (0, 0) FAR  w(0) 16240. F 0.00
expand: top_step (1, 0) FAR  w(0) 16132. F 0.00
expand: MAIN (2, 0) FAR  w(0) 16270. F 0.00
expand: MAIN (3, 0) FAR  w(0) 2479.
	create_child: top_step (2, 5) FAR 16811 U 0.00
expand: top_step (2, 0) FAR  w(0) 16811.
	create_child: MAIN (2, 5) FAR 17990 X 0.01
expand: MAIN (2, 0) FAR  w(0) 17990.
	create_child: top_step (1, 5) FAR 16868 U 0.00
expand: top_step (1, 0) FAR  w(0) 16868.
	create_child: ticket3i_step (0, 5) FAR 17861 U 0.00
expand: ticket3i_step (0, 0) FAR  w(0) 17861. F 0.00
expand: top_step (1, 0) FAR  w(0) 16868. F 0.00
expand: MAIN (2, 0) FAR  w(0) 17990. F 0.00
expand: MAIN (3, 0) FAR  w(0) 2479.
	create_child: MAIN (2, 5) FAR 18154 U 0.00
expand: MAIN (2, 0) FAR  w(0) 18154.
	create_child: top_step (1, 5) FAR 17752 U 0.00
expand: top_step (1, 0) FAR  w(0) 17752.
	create_child: ticket3i_step (0, 5) FAR 18178 U 0.00
expand: ticket3i_step (0, 0) FAR  w(0) 18178. F 0.00
expand: top_step (1, 0) FAR  w(0) 17752. F 0.00
expand: MAIN (2, 0) FAR  w(0) 18154. F 0.00
expand: MAIN (3, 0) FAR  w(0) 2479.
	create_child: MAIN (2, 5) FAR 18811 U 0.00
expand: MAIN (2, 0) FAR  w(0) 18811.
	create_child: top_step (1, 5) FAR 18677 U 0.00
expand: top_step (1, 0) FAR  w(0) 18677.
	create_child: ticket3i_step (0, 5) FAR 18805 U 0.00
expand: ticket3i_step (0, 0) FAR  w(0) 18805. F 0.00
expand: top_step (1, 0) FAR  w(0) 18677. F 0.00
expand: MAIN (2, 0) FAR  w(0) 18811. F 0.00
expand: MAIN (3, 0) FAR  w(0) 2479.
	create_child: top_step (2, 5) FAR 18945 U 0.00
expand: top_step (2, 0) FAR  w(0) 18945.
	create_child: excludes9_fun (1, 5) FAR 2152 U 0.02
expand: excludes9_fun (1, 0) FAR  w(0) 2152.
	create_child: ticket3i_step (1, 5) FAR 22367 X 0.00
expand: ticket3i_step (1, 0) FAR  w(0) 22367. F 0.00
expand: top_step (2, 0) FAR  w(0) 18945.
	create_child: excludes9_fun (1, 5) FAR 2152 U 0.00
expand: excludes9_fun (1, 0) FAR  w(0) 2152.
	create_child: ticket3i_step (1, 5) FAR 22626 X 0.00
expand: ticket3i_step (1, 0) FAR  w(0) 22626. F 0.00
expand: top_step (2, 0) FAR  w(0) 18945.
	create_child: excludes9_fun (1, 5) FAR 2152 U 0.00
expand: excludes9_fun (1, 0) FAR  w(0) 2152.
	create_child: ticket3i_step (1, 5) FAR 22748 X 0.00
expand: ticket3i_step (1, 0) FAR  w(0) 22748. F 0.00
expand: top_step (2, 0) FAR  w(0) 18945.
	create_child: excludes9_fun (1, 5) FAR 23013 U 0.00
expand: excludes9_fun (1, 0) FAR  w(0) 23013.
	create_child: ticket3i_step (1, 5) FAR 22976 X 0.00
expand: ticket3i_step (1, 0) FAR  w(0) 22976. F 0.00
expand: top_step (2, 0) FAR  w(0) 18945.
	create_child: excludes9_fun (1, 5) FAR 23013 U 0.00
expand: excludes9_fun (1, 0) FAR  w(0) 23013.
	create_child: ticket3i_step (1, 5) FAR 23109 X 0.00
expand: ticket3i_step (1, 0) FAR  w(0) 23109. F 0.00
expand: top_step (2, 0) FAR  w(0) 18945.
	create_child: excludes9_fun (1, 5) FAR 23181 U 0.00
expand: excludes9_fun (1, 0) FAR  w(0) 23181.
	create_child: ticket3i_step (1, 5) FAR 23202 X 0.00
expand: ticket3i_step (1, 0) FAR  w(0) 23202. F 0.00
expand: top_step (2, 0) FAR  w(0) 18945. F 0.01
expand: MAIN (3, 0) FAR  w(0) 2479. F 0.00
expand: ERR (4, 0) FAR  w(0) 1. F 0.00
expand: query!0 (5, 0) FAR  w(0) 1. F 0.00
(spacer::context::check_reachability :time 0.17 :before-memory 18.55 :after-memory 22.10)
Propagating: 0 1 2 3 4 5  ! 6 
(spacer::context::propagate :time 0.00 :before-memory 22.10 :after-memory 22.10)
Entering level 6
BRUNCH_STAT max_query_lvl 5
BRUNCH_STAT num_queries 44
BRUNCH_STAT num_reach_queries 2
BRUNCH_STAT num_reach_reuse 37
BRUNCH_STAT inductive_lvl 0
BRUNCH_STAT max_depth 6
BRUNCH_STAT cex_depth 0
expand: query!0 (6, 0) FAR  w(0) 1.
	create_child: ERR (5, 6) FAR 1 U 0.00
expand: ERR (5, 0) FAR  w(0) 1.
	create_child: MAIN (4, 6) FAR 2479 U 0.00
expand: MAIN (4, 0) FAR  w(0) 2479.
	create_child: MAIN (3, 6) FAR 24201 U 0.00
expand: MAIN (3, 0) FAR  w(0) 24201.
	create_child: top_step (2, 6) FAR 24228 U 0.00
expand: top_step (2, 0) FAR  w(0) 24228. F 0.01
expand: MAIN (3, 0) FAR  w(0) 24201. F 0.00
expand: MAIN (4, 0) FAR  w(0) 2479.
	create_child: MAIN (3, 6) FAR 24665 U 0.00
expand: MAIN (3, 0) FAR  w(0) 24665.
	create_child: top_step (2, 6) FAR 24584 U 0.00
expand: top_step (2, 0) FAR  w(0) 24584.
	create_child: Sofar_step (1, 6) FAR 24784 U 0.00
expand: Sofar_step (1, 0) FAR  w(0) 24784. F 0.00
expand: top_step (2, 0) FAR  w(0) 24584.
	create_child: Sofar_step (1, 6) FAR 24586 U 0.00
expand: Sofar_step (1, 0) FAR  w(0) 24586.
	create_child: ticket3i_step (1, 6) FAR 24624 X 0.00
expand: ticket3i_step (1, 0) FAR  w(0) 24624. F 0.00
expand: top_step (2, 0) FAR  w(0) 24584.
	create_child: Sofar_step (1, 6) FAR 24586 U 0.00
expand: Sofar_step (1, 0) FAR  w(0) 24586.
	create_child: ticket3i_step (1, 6) FAR 24913 X 0.00
expand: ticket3i_step (1, 0) FAR  w(0) 24913. F 0.00
expand: top_step (2, 0) FAR  w(0) 24584. F 0.01
expand: MAIN (3, 0) FAR  w(0) 24665. F 0.00
expand: MAIN (4, 0) FAR  w(0) 2479.
	create_child: MAIN (3, 6) FAR 25194 U 0.00
expand: MAIN (3, 0) FAR  w(0) 25194.
	create_child: top_step (2, 6) FAR 25158 U 0.00
expand: top_step (2, 0) FAR  w(0) 25158. F 0.00
expand: MAIN (3, 0) FAR  w(0) 25194. F 0.00
expand: MAIN (4, 0) FAR  w(0) 2479.
	create_child: MAIN (3, 6) FAR 25359 U 0.00
expand: MAIN (3, 0) FAR  w(0) 25359.
	create_child: top_step (2, 6) FAR 25219 U 0.00
expand: top_step (2, 0) FAR  w(0) 25219. F 0.01
expand: MAIN (3, 0) FAR  w(0) 25359. F 0.00
expand: MAIN (4, 0) FAR  w(0) 2479.
	create_child: MAIN (3, 6) FAR 25585 U 0.00
expand: MAIN (3, 0) FAR  w(0) 25585.
	create_child: top_step (2, 6) FAR 25305 U 0.00
expand: top_step (2, 0) FAR  w(0) 25305.
	create_child: ticket3i_step (1, 6) FAR 25564 U 0.00
expand: ticket3i_step (1, 0) FAR  w(0) 25564. F 0.00
expand: top_step (2, 0) FAR  w(0) 25305.
	create_child: ticket3i_step (1, 6) FAR 25677 U 0.00
expand: ticket3i_step (1, 0) FAR  w(0) 25677. F 0.00
expand: top_step (2, 0) FAR  w(0) 25305. F 0.00
expand: MAIN (3, 0) FAR  w(0) 25585. F 0.00
expand: MAIN (4, 0) FAR  w(0) 2479.
	create_child: MAIN (3, 6) FAR 25858 U 0.00
expand: MAIN (3, 0) FAR  w(0) 25858.
	create_child: top_step (2, 6) FAR 25751 U 0.00
expand: top_step (2, 0) FAR  w(0) 25751.
	create_child: Sofar_step (1, 6) FAR 24586 U 0.00
expand: Sofar_step (1, 0) FAR  w(0) 24586.
	create_child: ticket3i_step (1, 6) FAR 25987 X 0.00
expand: ticket3i_step (1, 0) FAR  w(0) 25987. F 0.00
expand: top_step (2, 0) FAR  w(0) 25751. F 0.01
expand: MAIN (3, 0) FAR  w(0) 25858. F 0.00
expand: MAIN (4, 0) FAR  w(0) 2479.
	create_child: MAIN (3, 6) FAR 26231 U 0.00
expand: MAIN (3, 0) FAR  w(0) 26231.
	create_child: top_step (2, 6) FAR 25494 U 0.00
expand: top_step (2, 0) FAR  w(0) 25494. F 0.01
expand: MAIN (3, 0) FAR  w(0) 26231. F 0.00
expand: MAIN (4, 0) FAR  w(0) 2479.
	create_child: top_step (3, 6) FAR 26273 U 0.00
expand: top_step (3, 0) FAR  w(0) 26273.
	create_child: ticket3i_step (2, 6) FAR 26811 U 0.00
expand: ticket3i_step (2, 0) FAR  w(0) 26811. F 0.00
expand: top_step (3, 0) FAR  w(0) 26273.
	create_child: ticket3i_step (2, 6) FAR 26987 U 0.00
expand: ticket3i_step (2, 0) FAR  w(0) 26987. F 0.00
expand: top_step (3, 0) FAR  w(0) 26273.
	create_child: ticket3i_step (2, 6) FAR 27090 U 0.00
expand: ticket3i_step (2, 0) FAR  w(0) 27090. F 0.00
expand: top_step (3, 0) FAR  w(0) 26273.
	create_child: ticket3i_step (2, 6) FAR 27088 U 0.00
expand: ticket3i_step (2, 0) FAR  w(0) 27088. F 0.00
expand: top_step (3, 0) FAR  w(0) 26273. F 0.01
expand: MAIN (4, 0) FAR  w(0) 2479. F 0.00
expand: ERR (5, 0) FAR  w(0) 1. F 0.00
expand: query!0 (6, 0) FAR  w(0) 1. F 0.00
(spacer::context::check_reachability :time 0.15 :before-memory 22.10 :after-memory 24.31)
Propagating: 1 2 3 4 5 6  ! 7 
(spacer::context::propagate :time 0.01 :before-memory 24.31 :after-memory 24.31)
Entering level 7
BRUNCH_STAT max_query_lvl 6
BRUNCH_STAT num_queries 71
BRUNCH_STAT num_reach_queries 2
BRUNCH_STAT num_reach_reuse 60
BRUNCH_STAT inductive_lvl 0
BRUNCH_STAT max_depth 7
BRUNCH_STAT cex_depth 0
expand: query!0 (7, 0) FAR  w(0) 1.
	create_child: ERR (6, 7) FAR 1 U 0.00
expand: ERR (6, 0) FAR  w(0) 1.
	create_child: MAIN (5, 7) FAR 2479 U 0.00
expand: MAIN (5, 0) FAR  w(0) 2479.
	create_child: MAIN (4, 7) FAR 18811 U 0.00
expand: MAIN (4, 0) FAR  w(0) 18811.
	create_child: top_step (3, 7) FAR 28950 U 0.00
expand: top_step (3, 0) FAR  w(0) 28950. F 0.00
expand: MAIN (4, 0) FAR  w(0) 18811. F 0.00
expand: MAIN (5, 0) FAR  w(0) 2479.
	create_child: MAIN (4, 7) FAR 29247 U 0.00
expand: MAIN (4, 0) FAR  w(0) 29247.
	create_child: top_step (3, 7) FAR 29050 U 0.00
expand: top_step (3, 0) FAR  w(0) 29050.
	create_child: ticket3i_step (2, 7) FAR 29212 U 0.00
expand: ticket3i_step (2, 0) FAR  w(0) 29212. F 0.00
expand: top_step (3, 0) FAR  w(0) 29050. F 0.00
expand: MAIN (4, 0) FAR  w(0) 29247. F 0.00
expand: MAIN (5, 0) FAR  w(0) 2479.
	create_child: MAIN (4, 7) FAR 16270 U 0.00
expand: MAIN (4, 0) FAR  w(0) 16270.
	create_child: top_step (3, 7) FAR 29290 U 0.00
expand: top_step (3, 0) FAR  w(0) 29290. F 0.00
expand: MAIN (4, 0) FAR  w(0) 16270. F 0.00
expand: MAIN (5, 0) FAR  w(0) 2479. F 0.00
expand: ERR (6, 0) FAR  w(0) 1. F 0.00
expand: query!0 (7, 0) FAR  w(0) 1. F 0.00
(spacer::context::check_reachability :time 0.03 :before-memory 24.31 :after-memory 24.71)
Propagating: 2 3 
(spacer::context::propagate :time 0.00 :before-memory 24.71 :after-memory 24.71)
(define-fun ERR () Bool
  false)
(define-fun ticket3i_reset ((x!0 Int)
 (x!1 Int)
 (x!2 Int)
 (x!3 Int)
 (x!4 Int)
 (x!5 Int)
 (x!6 Int)
 (x!7 Int)
 (x!8 Bool)
 (x!9 Int)
 (x!10 Int)
 (x!11 Int)
 (x!12 Int)
 (x!13 Int)
 (x!14 Int)
 (x!15 Int)
 (x!16 Int)
 (x!17 Bool)) Bool
  x!17)
(define-fun Sofar_reset ((x!0 Bool) (x!1 Bool) (x!2 Bool) (x!3 Bool)) Bool
  true)
(define-fun ticket3i_step ((x!0 Bool)
 (x!1 Bool)
 (x!2 Bool)
 (x!3 Bool)
 (x!4 Bool)
 (x!5 Bool)
 (x!6 Bool)
 (x!7 Bool)
 (x!8 Bool)
 (x!9 Int)
 (x!10 Int)
 (x!11 Int)
 (x!12 Int)
 (x!13 Int)
 (x!14 Int)
 (x!15 Int)
 (x!16 Int)
 (x!17 Int)
 (x!18 Int)
 (x!19 Int)
 (x!20 Int)
 (x!21 Bool)
 (x!22 Int)
 (x!23 Int)
 (x!24 Int)
 (x!25 Int)
 (x!26 Int)
 (x!27 Int)
 (x!28 Int)
 (x!29 Int)
 (x!30 Bool)
 (x!31 Int)
 (x!32 Int)
 (x!33 Int)
 (x!34 Int)
 (x!35 Int)
 (x!36 Int)
 (x!37 Int)
 (x!38 Int)
 (x!39 Bool)) Bool
  (let ((a!1 (or (<= (+ x!13 (* (- 1) x!29)) 0) (= x!13 0) (not x!0) (= x!13 1)))
        (a!2 (or (= x!15 2) (= x!15 0) (= x!15 1) (= (+ x!15 (* (- 1) x!27)) 0)))
        (a!3 (or (>= (+ x!29 (* (- 1) x!13)) 0) x!0 x!1 (= x!13 0)))
        (a!4 (or (<= (+ x!13 (* (- 1) x!29)) 0) x!0 (= x!13 0) (= x!13 2)))
        (a!5 (or (>= (+ x!13 (* (- 1) x!29)) 0) (= x!13 0))))
    (and a!1
         (or (not x!30) (= x!14 0))
         (>= (+ x!14 (* (- 1) x!37)) 0)
         (>= (+ x!13 (* (- 1) x!38)) 0)
         (or (not x!30) (= x!36 0))
         (>= (+ x!37 (* (- 1) x!14)) 0)
         (>= (+ x!15 (* (- 1) x!36)) 0)
         (<= (+ x!15 (* (- 1) x!36)) 0)
         (<= (+ x!13 (* (- 1) x!38)) 0)
         (or (not x!30) (= x!38 0))
         (or (= x!14 1)
             (= x!14 0)
             (not (>= x!28 0))
             (= x!14 2)
             (not (<= x!28 2)))
         (or (= x!15 1) x!7 (= x!15 0) (not (>= x!27 0)) (not (<= x!27 1)))
         a!2
         (or (not (= x!29 0)) (= x!38 0) x!0)
         (or (not (= x!37 0)) (not x!3) (= x!36 0))
         a!3
         a!4
         a!5)))
(define-fun MAIN ((x!0 Int)
 (x!1 Int)
 (x!2 Int)
 (x!3 Int)
 (x!4 Int)
 (x!5 Int)
 (x!6 Int)
 (x!7 Int)
 (x!8 Bool)
 (x!9 Bool)
 (x!10 Bool)
 (x!11 Bool)) Bool
  (and (not (>= x!7 4))
       x!11
       (not x!10)
       (>= x!5 0)
       (not (>= x!6 3))
       (>= x!6 0)
       (>= x!7 0)
       (not (>= x!5 4))))
(define-fun top_reset ((x!0 Int)
 (x!1 Int)
 (x!2 Int)
 (x!3 Int)
 (x!4 Int)
 (x!5 Int)
 (x!6 Int)
 (x!7 Int)
 (x!8 Bool)
 (x!9 Bool)
 (x!10 Bool)
 (x!11 Int)
 (x!12 Int)
 (x!13 Int)
 (x!14 Int)
 (x!15 Int)
 (x!16 Int)
 (x!17 Int)
 (x!18 Int)
 (x!19 Bool)
 (x!20 Bool)
 (x!21 Bool)) Bool
  x!19)
(define-fun top_step ((x!0 Bool)
 (x!1 Bool)
 (x!2 Bool)
 (x!3 Bool)
 (x!4 Bool)
 (x!5 Bool)
 (x!6 Bool)
 (x!7 Bool)
 (x!8 Bool)
 (x!9 Int)
 (x!10 Int)
 (x!11 Int)
 (x!12 Int)
 (x!13 Bool)
 (x!14 Int)
 (x!15 Int)
 (x!16 Int)
 (x!17 Int)
 (x!18 Int)
 (x!19 Int)
 (x!20 Int)
 (x!21 Int)
 (x!22 Bool)
 (x!23 Bool)
 (x!24 Bool)
 (x!25 Int)
 (x!26 Int)
 (x!27 Int)
 (x!28 Int)
 (x!29 Int)
 (x!30 Int)
 (x!31 Int)
 (x!32 Int)
 (x!33 Bool)
 (x!34 Bool)
 (x!35 Bool)) Bool
  (and (or (not (<= x!21 3)) (not (>= x!32 4)))
       (not x!35)
       (or (not x!22) x!13)
       (or (not (>= x!30 2)) (not x!22))
       (or (<= x!31 0) (not x!22))
       (or (>= x!31 0) (not x!22))
       (or (>= x!30 0) (not x!22))
       (or (not x!22) (= x!32 0))
       (or (>= x!31 0) (not (>= x!20 0)) (not (<= x!20 2)))
       (or (not (<= x!20 2)) (not (>= x!31 3)) (not (>= x!20 0)))
       (or (not (>= x!19 0)) (>= x!30 0))
       (or (not (<= x!21 3))
           x!13
           (not (>= x!19 0))
           (not (>= x!20 0))
           (not (<= x!20 2))
           (not (>= x!21 0))
           (not (<= x!19 3)))
       (or (>= x!32 0) (not (>= x!21 0)))
       (or (not (<= x!19 3)) (not (>= x!30 4)))))
(define-fun excludes9_fun ((x!0 Bool)
 (x!1 Bool)
 (x!2 Bool)
 (x!3 Bool)
 (x!4 Bool)
 (x!5 Bool)
 (x!6 Bool)
 (x!7 Bool)
 (x!8 Bool)
 (x!9 Bool)) Bool
  true)
(define-fun Sofar_step ((x!0 Bool)
 (x!1 Bool)
 (x!2 Bool)
 (x!3 Bool)
 (x!4 Bool)
 (x!5 Bool)) Bool
  (and (or x!0 (not x!4)) (not x!5)))
BRUNCH_STAT max_query_lvl 7
BRUNCH_STAT num_queries 80
BRUNCH_STAT num_reach_queries 2
BRUNCH_STAT num_reach_reuse 65
BRUNCH_STAT inductive_lvl 3
BRUNCH_STAT max_depth 7
BRUNCH_STAT cex_depth 0
(:SPACER-inductive-level               3
 :SPACER-max-depth                     7
 :SPACER-max-query-lvl                 7
 :SPACER-num-invariants                60
 :SPACER-num-lemmas                    88
 :SPACER-num-properties                50
 :SPACER-num-queries                   80
 :SPACER-num-reach-queries             2
 :SPACER-num-reuse-reach-facts         65
 :added-eqs                            21730
 :arith-add-rows                       3659
 :arith-assert-diseq                   4992
 :arith-assert-lower                   10323
 :arith-assert-upper                   12313
 :arith-bound-prop                     446
 :arith-conflicts                      26
 :arith-eq-adapter                     5400
 :arith-fixed-eqs                      2618
 :arith-offset-eqs                     1142
 :arith-pivots                         1784
 :bool-inductive-gen                   70
 :bool-inductive-gen-failures          142
 :conflicts                            800
 :decisions                            19409
 :del-clause                           3041
 :final-checks                         272
 :minimized-lits                       322
 :mk-bool-var                          12659
 :mk-clause                            8808
 :num-checks                           678
 :propagations                         156836
 :time.itp_solver.itp_core             0.03
 :time.spacer.init_rules               0.01
 :time.spacer.init_rules.pt.init       0.00
 :time.spacer.solve                    0.42
 :time.spacer.solve.propagate          0.02
 :time.spacer.solve.pt.must_reachable  0.01
 :time.spacer.solve.reach              0.40
 :time.spacer.solve.reach.children     0.07
 :time.spacer.solve.reach.gen.bool_ind 0.09
 :time.virtual_solver.proof            0.02
 :time.virtual_solver.smt.total        0.28
 :time.virtual_solver.smt.total.sat    0.16
 :virtual_solver.checks                678
 :virtual_solver.checks.sat            272)
BRUNCH_STAT max_query_lvl 7
BRUNCH_STAT num_queries 80
BRUNCH_STAT num_reach_queries 2
BRUNCH_STAT num_reach_reuse 65
BRUNCH_STAT inductive_lvl 3
BRUNCH_STAT max_depth 7
BRUNCH_STAT cex_depth 0

real	0m0.481s
user	0m0.452s
sys	0m0.028s
