(transform N7datalog13mk_coi_filterE...no-op 0s)
(transform N7datalog25mk_interp_tail_simplifierE...21 rules 0s)
(transform N7datalog27mk_quantifier_instantiationE...no-op 0s)
(transform N7datalog8mk_scaleE...no-op 0s)
(transform N7datalog18mk_karr_invariantsE...no-op 0s)
(transform N7datalog14mk_array_blastE...no-op 0s)
(transform N7datalog22mk_subsumption_checkerE...20 rules 0s)
(transform N7datalog12mk_bit_blastE...no-op 0s)
(transform N7datalog15mk_rule_inlinerE...no-op 0s)
(transform N7datalog13mk_coi_filterE...no-op 0s)
(transform N7datalog25mk_interp_tail_simplifierE...20 rules 0s)
(transform N7datalog22mk_subsumption_checkerE...no-op 0s)
(transform N7datalog15mk_rule_inlinerE...no-op 0s)
(transform N7datalog13mk_coi_filterE...no-op 0s)
(transform N7datalog25mk_interp_tail_simplifierE...20 rules 0s)
(transform N7datalog22mk_subsumption_checkerE...no-op 0s)
(transform N7datalog15mk_rule_inlinerE...no-op 0s)
(transform N7datalog22mk_subsumption_checkerE...no-op 0s)
(transform N7datalog15mk_rule_inlinerE...no-op 0s)
(transform N7datalog22mk_subsumption_checkerE...no-op 0s)
(transform N7datalog15mk_rule_inlinerE...no-op 0s)
(transform N7datalog22mk_subsumption_checkerE...no-op 0s)
expand: query!0 (0, 0) FAR  w(0) 1. F 0.00
(spacer::context::check_reachability :time 0.00 :before-memory 19.52 :after-memory 20.01)
Entering level 1
BRUNCH_STAT max_query_lvl 0
BRUNCH_STAT num_queries 0
BRUNCH_STAT num_reach_queries 0
BRUNCH_STAT num_reach_reuse 0
BRUNCH_STAT inductive_lvl 0
BRUNCH_STAT max_depth 1
BRUNCH_STAT cex_depth 0
expand: query!0 (1, 0) FAR  w(0) 1.
	create_child: ERR (0, 1) FAR 1 U 0.00
expand: ERR (0, 0) FAR  w(0) 1. F 0.00
expand: query!0 (1, 0) FAR  w(0) 1. F 0.00
(spacer::context::check_reachability :time 0.00 :before-memory 20.01 :after-memory 20.46)
Propagating: 0 1  ! 2 
(spacer::context::propagate :time 0.00 :before-memory 20.46 :after-memory 20.46)
Entering level 2
BRUNCH_STAT max_query_lvl 1
BRUNCH_STAT num_queries 1
BRUNCH_STAT num_reach_queries 0
BRUNCH_STAT num_reach_reuse 0
BRUNCH_STAT inductive_lvl 0
BRUNCH_STAT max_depth 2
BRUNCH_STAT cex_depth 0
expand: query!0 (2, 0) FAR  w(0) 1.
	create_child: ERR (1, 2) FAR 1 U 0.00
expand: ERR (1, 0) FAR  w(0) 1.
	create_child: MAIN (0, 2) FAR 2606 U 0.00
expand: MAIN (0, 0) FAR  w(0) 2606. F 0.00
expand: ERR (1, 0) FAR  w(0) 1. F 0.00
expand: query!0 (2, 0) FAR  w(0) 1. F 0.00
(spacer::context::check_reachability :time 0.00 :before-memory 20.46 :after-memory 21.23)
Propagating: 0 1 2  ! 3 
(spacer::context::propagate :time 0.00 :before-memory 21.23 :after-memory 21.23)
Entering level 3
BRUNCH_STAT max_query_lvl 2
BRUNCH_STAT num_queries 3
BRUNCH_STAT num_reach_queries 0
BRUNCH_STAT num_reach_reuse 0
BRUNCH_STAT inductive_lvl 0
BRUNCH_STAT max_depth 3
BRUNCH_STAT cex_depth 0
expand: query!0 (3, 0) FAR  w(0) 1.
	create_child: ERR (2, 3) FAR 1 U 0.00
expand: ERR (2, 0) FAR  w(0) 1.
	create_child: MAIN (1, 3) FAR 2606 U 0.00
expand: MAIN (1, 0) FAR  w(0) 2606.
	create_child: top_step (0, 3) FAR 3928 U 0.00
expand: top_step (0, 0) FAR  w(0) 3928. F 0.00
expand: MAIN (1, 0) FAR  w(0) 2606. F 0.00
expand: ERR (2, 0) FAR  w(0) 1. F 0.00
expand: query!0 (3, 0) FAR  w(0) 1. F 0.00
(spacer::context::check_reachability :time 0.00 :before-memory 21.23 :after-memory 21.85)
Propagating: 0 1 2 3  ! 4 
(spacer::context::propagate :time 0.00 :before-memory 21.85 :after-memory 21.85)
Entering level 4
BRUNCH_STAT max_query_lvl 3
BRUNCH_STAT num_queries 6
BRUNCH_STAT num_reach_queries 0
BRUNCH_STAT num_reach_reuse 0
BRUNCH_STAT inductive_lvl 0
BRUNCH_STAT max_depth 4
BRUNCH_STAT cex_depth 0
expand: query!0 (4, 0) FAR  w(0) 1.
	create_child: ERR (3, 4) FAR 1 U 0.00
expand: ERR (3, 0) FAR  w(0) 1.
	create_child: MAIN (2, 4) FAR 2606 U 0.00
expand: MAIN (2, 0) FAR  w(0) 2606.
	create_child: top_step (1, 4) FAR 3928 U 0.00
expand: top_step (1, 0) FAR  w(0) 3928.
	create_child: properties_step (0, 4) FAR 5357 U 0.00
expand: properties_step (0, 0) FAR  w(0) 5357. F 0.00
expand: top_step (1, 0) FAR  w(0) 3928. F 0.00
expand: MAIN (2, 0) FAR  w(0) 2606. F 0.00
expand: ERR (3, 0) FAR  w(0) 1. F 0.00
expand: query!0 (4, 0) FAR  w(0) 1. F 0.00
(spacer::context::check_reachability :time 0.00 :before-memory 21.85 :after-memory 22.36)
Propagating: 0 1 2 3 4  ! 5 
(spacer::context::propagate :time 0.00 :before-memory 22.36 :after-memory 22.36)
Entering level 5
BRUNCH_STAT max_query_lvl 4
BRUNCH_STAT num_queries 10
BRUNCH_STAT num_reach_queries 0
BRUNCH_STAT num_reach_reuse 0
BRUNCH_STAT inductive_lvl 0
BRUNCH_STAT max_depth 5
BRUNCH_STAT cex_depth 0
expand: query!0 (5, 0) FAR  w(0) 1.
	create_child: ERR (4, 5) FAR 1 U 0.00
expand: ERR (4, 0) FAR  w(0) 1.
	create_child: MAIN (3, 5) FAR 2606 U 0.00
expand: MAIN (3, 0) FAR  w(0) 2606.
	create_child: top_step (2, 5) FAR 3928 U 0.00
expand: top_step (2, 0) FAR  w(0) 3928.
	create_child: properties_step (1, 5) FAR 5357 U 0.00
expand: properties_step (1, 0) FAR  w(0) 5357.
	create_child: once_from_to_step (0, 5) FAR 6402 U 0.00
expand: once_from_to_step (0, 0) FAR  w(0) 6402. F 0.00
expand: properties_step (1, 0) FAR  w(0) 5357. F 0.00
expand: top_step (2, 0) FAR  w(0) 3928. F 0.00
expand: MAIN (3, 0) FAR  w(0) 2606. F 0.00
expand: ERR (4, 0) FAR  w(0) 1. F 0.00
expand: query!0 (5, 0) FAR  w(0) 1. F 0.00
(spacer::context::check_reachability :time 0.00 :before-memory 22.36 :after-memory 22.98)
Propagating: 0 1 2 3 4 5  ! 6 
(spacer::context::propagate :time 0.00 :before-memory 22.98 :after-memory 22.98)
Entering level 6
BRUNCH_STAT max_query_lvl 5
BRUNCH_STAT num_queries 15
BRUNCH_STAT num_reach_queries 0
BRUNCH_STAT num_reach_reuse 3
BRUNCH_STAT inductive_lvl 0
BRUNCH_STAT max_depth 6
BRUNCH_STAT cex_depth 0
expand: query!0 (6, 0) FAR  w(0) 1.
	create_child: ERR (5, 6) FAR 1 U 0.00
expand: ERR (5, 0) FAR  w(0) 1.
	create_child: MAIN (4, 6) FAR 2606 U 0.00
expand: MAIN (4, 0) FAR  w(0) 2606.
	create_child: top_step (3, 6) FAR 3928 U 0.00
expand: top_step (3, 0) FAR  w(0) 3928.
	create_child: properties_step (2, 6) FAR 5357 U 0.00
expand: properties_step (2, 0) FAR  w(0) 5357.
	create_child: once_from_to_step (1, 6) FAR 6402 U 0.00
expand: once_from_to_step (1, 0) FAR  w(0) 6402. F 0.00
expand: properties_step (2, 0) FAR  w(0) 5357.
	create_child: once_from_to_step (1, 6) FAR 7171 U 0.00
expand: once_from_to_step (1, 0) FAR  w(0) 7171. T 0.00
is-reachable: properties_step (2, 0) FAR 5357
	create_child: controller_step (2, 6) FAR 7540 X 0.00
is-reachable: controller_step (2, 0) FAR 7540
	create_child: environment_step (2, 6) FAR 8189 X 0.00
is-reachable: environment_step (2, 0) FAR 8189 T 0.00
is-reachable: top_step (3, 0) FAR 3928
	create_child: top_reset (3, 6) FAR 11354 X 0.00
is-reachable: top_reset (3, 0) FAR 11354 F 0.00
Deleting closed node: environment_step(2, 6) 8189
Deleting closed node: top_step(3, 6) 3928
expand: top_reset (3, 0) FAR  w(0) 11354.
	create_child: environment_reset (2, 6) FAR 12134 U 0.00
expand: environment_reset (2, 0) FAR  w(0) 12134. F 0.00
expand: top_reset (3, 0) FAR  w(0) 11354. F 0.00
expand: MAIN (4, 0) FAR  w(0) 2606.
	create_child: top_reset (3, 6) FAR 13517 U 0.00
expand: top_reset (3, 0) FAR  w(0) 13517.
	create_child: environment_reset (2, 6) FAR 13550 U 0.00
expand: environment_reset (2, 0) FAR  w(0) 13550.
	create_child: properties_reset (2, 6) FAR 13671 X 0.00
expand: properties_reset (2, 0) FAR  w(0) 13671.
	create_child: once_from_to_reset (1, 6) FAR 14176 U 0.00
expand: once_from_to_reset (1, 0) FAR  w(0) 14176.
	create_child: switch_reset (0, 6) FAR 14419 U 0.00
expand: switch_reset (0, 0) FAR  w(0) 14419. F 0.00
expand: once_from_to_reset (1, 0) FAR  w(0) 14176. F 0.00
expand: properties_reset (2, 0) FAR  w(0) 13671. F 0.00
expand: top_reset (3, 0) FAR  w(0) 13517. F 0.00
expand: MAIN (4, 0) FAR  w(0) 2606.
	create_child: top_step (3, 6) FAR 14738 U 0.00
expand: top_step (3, 0) FAR  w(0) 14738.
	create_child: properties_step (2, 6) FAR 14847 U 0.00
expand: properties_step (2, 0) FAR  w(0) 14847.
	create_child: once_from_to_step (1, 6) FAR 6174 U 0.00
expand: once_from_to_step (1, 0) FAR  w(0) 6174. T 0.00
is-reachable: properties_step (2, 0) FAR 14847 T 0.00
is-reachable: top_step (3, 0) FAR 14738
	create_child: top_reset (3, 6) FAR 15412 X 0.00
is-reachable: top_reset (3, 0) FAR 15412 F 0.00
Deleting closed node: properties_step(2, 6) 14847
Deleting closed node: top_step(3, 6) 14738
expand: top_reset (3, 0) FAR  w(0) 15412.
	create_child: properties_reset (2, 6) FAR 15293 U 0.00
expand: properties_reset (2, 0) FAR  w(0) 15293.
	create_child: once_from_to_reset (1, 6) FAR 14536 U 0.00
expand: once_from_to_reset (1, 0) FAR  w(0) 14536.
	create_child: jafter_reset (1, 6) FAR 15498 X 0.00
expand: jafter_reset (1, 0) FAR  w(0) 15498. F 0.00
expand: properties_reset (2, 0) FAR  w(0) 15293. F 0.00
expand: top_reset (3, 0) FAR  w(0) 15412. F 0.00
expand: MAIN (4, 0) FAR  w(0) 2606.
	create_child: top_step (3, 6) FAR 15922 U 0.00
expand: top_step (3, 0) FAR  w(0) 15922.
	create_child: properties_step (2, 6) FAR 15982 U 0.00
expand: properties_step (2, 0) FAR  w(0) 15982.
	create_child: jafter_step (1, 6) FAR 15993 U 0.00
expand: jafter_step (1, 0) FAR  w(0) 15993. F 0.00
expand: properties_step (2, 0) FAR  w(0) 15982.
	create_child: once_from_to_step (1, 6) FAR 16214 U 0.00
expand: once_from_to_step (1, 0) FAR  w(0) 16214.
	create_child: switch_step (0, 6) FAR 16323 U 0.00
expand: switch_step (0, 0) FAR  w(0) 16323. F 0.00
expand: once_from_to_step (1, 0) FAR  w(0) 16214. F 0.00
expand: properties_step (2, 0) FAR  w(0) 15982. F 0.00
expand: top_step (3, 0) FAR  w(0) 15922.
	create_child: properties_step (2, 6) FAR 16649 U 0.00
expand: properties_step (2, 0) FAR  w(0) 16649.
	create_child: environment_step (2, 6) FAR 16736 X 0.00
expand: environment_step (2, 0) FAR  w(0) 16736. F 0.00
expand: top_step (3, 0) FAR  w(0) 15922. F 0.00
expand: MAIN (4, 0) FAR  w(0) 2606. F 0.00
expand: ERR (5, 0) FAR  w(0) 1. F 0.00
expand: query!0 (6, 0) FAR  w(0) 1. F 0.00
(spacer::context::check_reachability :time 0.06 :before-memory 22.98 :after-memory 32.14)
Propagating: 0 1 2 3 4 5 6  ! 7 
(spacer::context::propagate :time 0.00 :before-memory 32.14 :after-memory 32.34)
Entering level 7
BRUNCH_STAT max_query_lvl 6
BRUNCH_STAT num_queries 37
BRUNCH_STAT num_reach_queries 11
BRUNCH_STAT num_reach_reuse 43
BRUNCH_STAT inductive_lvl 0
BRUNCH_STAT max_depth 7
BRUNCH_STAT cex_depth 0
expand: query!0 (7, 0) FAR  w(0) 1.
	create_child: ERR (6, 7) FAR 1 U 0.00
expand: ERR (6, 0) FAR  w(0) 1.
	create_child: MAIN (5, 7) FAR 2606 U 0.00
expand: MAIN (5, 0) FAR  w(0) 2606.
	create_child: MAIN (4, 7) FAR 17522 U 0.00
expand: MAIN (4, 0) FAR  w(0) 17522.
	create_child: top_step (3, 7) FAR 17546 U 0.00
expand: top_step (3, 0) FAR  w(0) 17546.
	create_child: properties_step (2, 7) FAR 17570 U 0.00
expand: properties_step (2, 0) FAR  w(0) 17570.
	create_child: jafter_step (1, 7) FAR 17576 U 0.00
expand: jafter_step (1, 0) FAR  w(0) 17576. F 0.00
expand: properties_step (2, 0) FAR  w(0) 17570. F 0.00
expand: top_step (3, 0) FAR  w(0) 17546.
	create_child: properties_step (2, 7) FAR 17458 U 0.00
expand: properties_step (2, 0) FAR  w(0) 17458.
	create_child: jafter_step (1, 7) FAR 17519 U 0.00
expand: jafter_step (1, 0) FAR  w(0) 17519. F 0.00
expand: properties_step (2, 0) FAR  w(0) 17458. F 0.00
expand: top_step (3, 0) FAR  w(0) 17546. F 0.00
expand: MAIN (4, 0) FAR  w(0) 17522. F 0.00
expand: MAIN (5, 0) FAR  w(0) 2606.
	create_child: MAIN (4, 7) FAR 17843 U 0.00
expand: MAIN (4, 0) FAR  w(0) 17843.
	create_child: top_step (3, 7) FAR 17860 U 0.00
expand: top_step (3, 0) FAR  w(0) 17860.
	create_child: properties_step (2, 7) FAR 17886 U 0.00
expand: properties_step (2, 0) FAR  w(0) 17886.
	create_child: once_from_to_step (1, 7) FAR 17913 U 0.00
expand: once_from_to_step (1, 0) FAR  w(0) 17913. F 0.00
expand: properties_step (2, 0) FAR  w(0) 17886. F 0.00
expand: top_step (3, 0) FAR  w(0) 17860. F 0.00
expand: MAIN (4, 0) FAR  w(0) 17843. F 0.00
expand: MAIN (5, 0) FAR  w(0) 2606.
	create_child: MAIN (4, 7) FAR 18023 U 0.00
expand: MAIN (4, 0) FAR  w(0) 18023.
	create_child: top_step (3, 7) FAR 18037 U 0.00
expand: top_step (3, 0) FAR  w(0) 18037.
	create_child: properties_step (2, 7) FAR 18074 U 0.00
expand: properties_step (2, 0) FAR  w(0) 18074.
	create_child: once_from_to_step (1, 7) FAR 18077 U 0.00
expand: once_from_to_step (1, 0) FAR  w(0) 18077.
	create_child: switch_step (0, 7) FAR 17887 U 0.00
expand: switch_step (0, 0) FAR  w(0) 17887. F 0.00
expand: once_from_to_step (1, 0) FAR  w(0) 18077. F 0.00
expand: properties_step (2, 0) FAR  w(0) 18074. F 0.00
expand: top_step (3, 0) FAR  w(0) 18037. F 0.00
expand: MAIN (4, 0) FAR  w(0) 18023. F 0.00
expand: MAIN (5, 0) FAR  w(0) 2606.
	create_child: MAIN (4, 7) FAR 18208 U 0.00
expand: MAIN (4, 0) FAR  w(0) 18208.
	create_child: top_step (3, 7) FAR 18210 U 0.00
expand: top_step (3, 0) FAR  w(0) 18210.
	create_child: environment_step (2, 7) FAR 18207 U 0.00
expand: environment_step (2, 0) FAR  w(0) 18207. F 0.00
expand: top_step (3, 0) FAR  w(0) 18210. F 0.00
expand: MAIN (4, 0) FAR  w(0) 18208. F 0.00
expand: MAIN (5, 0) FAR  w(0) 2606.
	create_child: MAIN (4, 7) FAR 18383 U 0.00
expand: MAIN (4, 0) FAR  w(0) 18383.
	create_child: top_step (3, 7) FAR 18370 U 0.00
expand: top_step (3, 0) FAR  w(0) 18370.
	create_child: environment_step (2, 7) FAR 18219 U 0.00
expand: environment_step (2, 0) FAR  w(0) 18219. F 0.00
expand: top_step (3, 0) FAR  w(0) 18370. F 0.00
expand: MAIN (4, 0) FAR  w(0) 18383. F 0.00
expand: MAIN (5, 0) FAR  w(0) 2606.
	create_child: MAIN (4, 7) FAR 18513 U 0.00
expand: MAIN (4, 0) FAR  w(0) 18513.
	create_child: top_step (3, 7) FAR 18488 U 0.00
expand: top_step (3, 0) FAR  w(0) 18488.
	create_child: environment_step (2, 7) FAR 18392 U 0.00
expand: environment_step (2, 0) FAR  w(0) 18392. F 0.00
expand: top_step (3, 0) FAR  w(0) 18488.
	create_child: properties_step (2, 7) FAR 18660 U 0.00
expand: properties_step (2, 0) FAR  w(0) 18660.
	create_child: edge_step (1, 7) FAR 18416 U 0.00
expand: edge_step (1, 0) FAR  w(0) 18416. F 0.00
expand: properties_step (2, 0) FAR  w(0) 18660. F 0.00
expand: top_step (3, 0) FAR  w(0) 18488. F 0.00
expand: MAIN (4, 0) FAR  w(0) 18513. F 0.00
expand: MAIN (5, 0) FAR  w(0) 2606.
	create_child: MAIN (4, 7) FAR 19086 U 0.00
expand: MAIN (4, 0) FAR  w(0) 19086.
	create_child: top_step (3, 7) FAR 19104 U 0.00
expand: top_step (3, 0) FAR  w(0) 19104.
	create_child: environment_step (2, 7) FAR 19142 U 0.00
expand: environment_step (2, 0) FAR  w(0) 19142.
	create_child: edge_step (1, 7) FAR 19236 U 0.00
expand: edge_step (1, 0) FAR  w(0) 19236. F 0.00
expand: environment_step (2, 0) FAR  w(0) 19142. F 0.00
expand: top_step (3, 0) FAR  w(0) 19104. F 0.00
expand: MAIN (4, 0) FAR  w(0) 19086. F 0.00
expand: MAIN (5, 0) FAR  w(0) 2606.
	create_child: top_step (4, 7) FAR 19425 U 0.00
expand: top_step (4, 0) FAR  w(0) 19425.
	create_child: environment_step (3, 7) FAR 19508 U 0.00
expand: environment_step (3, 0) FAR  w(0) 19508. F 0.00
expand: top_step (4, 0) FAR  w(0) 19425. F 0.00
expand: MAIN (5, 0) FAR  w(0) 2606.
	create_child: top_step (4, 7) FAR 19601 U 0.00
expand: top_step (4, 0) FAR  w(0) 19601.
	create_child: properties_step (3, 7) FAR 19739 U 0.00
expand: properties_step (3, 0) FAR  w(0) 19739.
	create_child: edge_step (2, 7) FAR 19779 U 0.00
expand: edge_step (2, 0) FAR  w(0) 19779. F 0.00
expand: properties_step (3, 0) FAR  w(0) 19739. F 0.00
expand: top_step (4, 0) FAR  w(0) 19601.
	create_child: properties_step (3, 7) FAR 19962 U 0.00
expand: properties_step (3, 0) FAR  w(0) 19962.
	create_child: environment_step (3, 7) FAR 19989 X 0.00
expand: environment_step (3, 0) FAR  w(0) 19989. T 0.00
is-reachable: top_step (4, 0) FAR 19601
	create_child: MAIN (4, 7) FAR 20473 X 0.00
is-reachable: MAIN (4, 0) FAR 20473 F 0.00
expand: MAIN (4, 0) FAR  w(0) 20473.
	create_child: top_step (3, 7) FAR 19409 U 0.00
expand: top_step (3, 0) FAR  w(0) 19409.
	create_child: properties_step (2, 7) FAR 19897 U 0.00
expand: properties_step (2, 0) FAR  w(0) 19897.
	create_child: once_from_to_step (1, 7) FAR 20681 U 0.00
expand: once_from_to_step (1, 0) FAR  w(0) 20681.
	create_child: switch_step (0, 7) FAR 20600 U 0.00
expand: switch_step (0, 0) FAR  w(0) 20600. F 0.00
expand: once_from_to_step (1, 0) FAR  w(0) 20681. F 0.00
expand: properties_step (2, 0) FAR  w(0) 19897. F 0.00
expand: top_step (3, 0) FAR  w(0) 19409. F 0.00
expand: MAIN (4, 0) FAR  w(0) 20473. F 0.00
expand: MAIN (5, 0) FAR  w(0) 2606.
	create_child: top_step (4, 7) FAR 20750 U 0.00
expand: top_step (4, 0) FAR  w(0) 20750.
	create_child: MAIN (4, 7) FAR 21004 X 0.00
expand: MAIN (4, 0) FAR  w(0) 21004.
	create_child: top_step (3, 7) FAR 21152 U 0.00
expand: top_step (3, 0) FAR  w(0) 21152.
	create_child: environment_step (2, 7) FAR 21262 U 0.00
expand: environment_step (2, 0) FAR  w(0) 21262. F 0.00
expand: top_step (3, 0) FAR  w(0) 21152. F 0.00
expand: MAIN (4, 0) FAR  w(0) 21004. F 0.00
expand: MAIN (5, 0) FAR  w(0) 2606.
	create_child: top_step (4, 7) FAR 21325 U 0.00
expand: top_step (4, 0) FAR  w(0) 21325.
	create_child: MAIN (4, 7) FAR 21366 X 0.00
expand: MAIN (4, 0) FAR  w(0) 21366.
	create_child: top_step (3, 7) FAR 19486 U 0.00
expand: top_step (3, 0) FAR  w(0) 19486.
	create_child: environment_step (2, 7) FAR 21703 U 0.00
expand: environment_step (2, 0) FAR  w(0) 21703. F 0.00
expand: top_step (3, 0) FAR  w(0) 19486. F 0.00
expand: MAIN (4, 0) FAR  w(0) 21366. F 0.00
expand: MAIN (5, 0) FAR  w(0) 2606.
	create_child: top_step (4, 7) FAR 21794 U 0.00
expand: top_step (4, 0) FAR  w(0) 21794.
	create_child: environment_step (3, 7) FAR 21893 U 0.00
expand: environment_step (3, 0) FAR  w(0) 21893.
	create_child: edge_step (2, 7) FAR 21881 U 0.00
expand: edge_step (2, 0) FAR  w(0) 21881. F 0.00
expand: environment_step (3, 0) FAR  w(0) 21893. F 0.00
expand: top_step (4, 0) FAR  w(0) 21794.
	create_child: environment_step (3, 7) FAR 22028 U 0.00
expand: environment_step (3, 0) FAR  w(0) 22028. F 0.00
expand: top_step (4, 0) FAR  w(0) 21794.
	create_child: controller_step (3, 7) FAR 22170 U 0.00
expand: controller_step (3, 0) FAR  w(0) 22170. F 0.00
expand: top_step (4, 0) FAR  w(0) 21794.
	create_child: controller_step (3, 7) FAR 22257 U 0.00
expand: controller_step (3, 0) FAR  w(0) 22257. F 0.00
expand: top_step (4, 0) FAR  w(0) 21794. F 0.00
expand: MAIN (5, 0) FAR  w(0) 2606. F 0.00
expand: ERR (6, 0) FAR  w(0) 1. F 0.00
expand: query!0 (7, 0) FAR  w(0) 1. F 0.00
(spacer::context::check_reachability :time 0.11 :before-memory 32.34 :after-memory 33.64)
Propagating: 0 1 2 3 4 5 6 7  ! 8 
(spacer::context::propagate :time 0.00 :before-memory 33.64 :after-memory 34.30)
Entering level 8
BRUNCH_STAT max_query_lvl 7
BRUNCH_STAT num_queries 91
BRUNCH_STAT num_reach_queries 15
BRUNCH_STAT num_reach_reuse 117
BRUNCH_STAT inductive_lvl 0
BRUNCH_STAT max_depth 8
BRUNCH_STAT cex_depth 0
expand: query!0 (8, 0) FAR  w(0) 1.
	create_child: ERR (7, 8) FAR 1 U 0.00
expand: ERR (7, 0) FAR  w(0) 1.
	create_child: MAIN (6, 8) FAR 2606 U 0.00
expand: MAIN (6, 0) FAR  w(0) 2606.
	create_child: top_step (5, 8) FAR 23138 U 0.00
expand: top_step (5, 0) FAR  w(0) 23138.
	create_child: environment_step (4, 8) FAR 23206 U 0.00
expand: environment_step (4, 0) FAR  w(0) 23206. T 0.00
is-reachable: top_step (5, 0) FAR 23138
	create_child: MAIN (5, 8) FAR 23766 X 0.00
is-reachable: MAIN (5, 0) FAR 23766 F 0.00
expand: MAIN (5, 0) FAR  w(0) 23766.
	create_child: top_step (4, 8) FAR 23954 U 0.00
expand: top_step (4, 0) FAR  w(0) 23954.
	create_child: properties_step (3, 8) FAR 24084 U 0.00
expand: properties_step (3, 0) FAR  w(0) 24084.
	create_child: environment_step (3, 8) FAR 24179 X 0.00
expand: environment_step (3, 0) FAR  w(0) 24179. F 0.00
expand: top_step (4, 0) FAR  w(0) 23954.
	create_child: properties_step (3, 8) FAR 22282 U 0.00
expand: properties_step (3, 0) FAR  w(0) 22282. F 0.00
expand: top_step (4, 0) FAR  w(0) 23954. F 0.00
expand: MAIN (5, 0) FAR  w(0) 23766. F 0.00
expand: MAIN (6, 0) FAR  w(0) 2606.
	create_child: MAIN (5, 8) FAR 24713 U 0.00
expand: MAIN (5, 0) FAR  w(0) 24713.
	create_child: top_step (4, 8) FAR 24691 U 0.00
expand: top_step (4, 0) FAR  w(0) 24691.
	create_child: properties_step (3, 8) FAR 24805 U 0.00
expand: properties_step (3, 0) FAR  w(0) 24805.
	create_child: jafter_step (2, 8) FAR 24853 U 0.00
expand: jafter_step (2, 0) FAR  w(0) 24853. F 0.00
expand: properties_step (3, 0) FAR  w(0) 24805.
	create_child: once_from_to_step (2, 8) FAR 24894 U 0.00
expand: once_from_to_step (2, 0) FAR  w(0) 24894. F 0.00
expand: properties_step (3, 0) FAR  w(0) 24805. F 0.00
expand: top_step (4, 0) FAR  w(0) 24691. F 0.00
expand: MAIN (5, 0) FAR  w(0) 24713.
	create_child: top_step (4, 8) FAR 24657 U 0.00
expand: top_step (4, 0) FAR  w(0) 24657.
	create_child: environment_step (3, 8) FAR 24667 U 0.00
expand: environment_step (3, 0) FAR  w(0) 24667. F 0.00
expand: top_step (4, 0) FAR  w(0) 24657. F 0.00
expand: MAIN (5, 0) FAR  w(0) 24713.
	create_child: top_step (4, 8) FAR 25178 U 0.00
expand: top_step (4, 0) FAR  w(0) 25178.
	create_child: environment_step (3, 8) FAR 24936 U 0.00
expand: environment_step (3, 0) FAR  w(0) 24936. F 0.00
expand: top_step (4, 0) FAR  w(0) 25178.
	create_child: properties_step (3, 8) FAR 25300 U 0.00
expand: properties_step (3, 0) FAR  w(0) 25300.
	create_child: jafter_step (2, 8) FAR 25326 U 0.00
expand: jafter_step (2, 0) FAR  w(0) 25326. F 0.00
expand: properties_step (3, 0) FAR  w(0) 25300. F 0.00
expand: top_step (4, 0) FAR  w(0) 25178. F 0.00
expand: MAIN (5, 0) FAR  w(0) 24713. F 0.00
expand: MAIN (6, 0) FAR  w(0) 2606.
	create_child: MAIN (5, 8) FAR 25516 U 0.00
expand: MAIN (5, 0) FAR  w(0) 25516.
	create_child: top_step (4, 8) FAR 24645 U 0.00
expand: top_step (4, 0) FAR  w(0) 24645.
	create_child: environment_step (3, 8) FAR 25692 U 0.00
expand: environment_step (3, 0) FAR  w(0) 25692. F 0.00
expand: top_step (4, 0) FAR  w(0) 24645.
	create_child: controller_step (3, 8) FAR 25770 U 0.00
expand: controller_step (3, 0) FAR  w(0) 25770. F 0.00
expand: top_step (4, 0) FAR  w(0) 24645. F 0.00
expand: MAIN (5, 0) FAR  w(0) 25516. F 0.00
expand: MAIN (6, 0) FAR  w(0) 2606.
	create_child: top_step (5, 8) FAR 25923 U 0.00
expand: top_step (5, 0) FAR  w(0) 25923.
	create_child: environment_step (4, 8) FAR 25999 U 0.00
expand: environment_step (4, 0) FAR  w(0) 25999.
	create_child: jafter_step (3, 8) FAR 26032 U 0.00
expand: jafter_step (3, 0) FAR  w(0) 26032. F 0.00
expand: environment_step (4, 0) FAR  w(0) 25999. F 0.00
expand: top_step (5, 0) FAR  w(0) 25923.
	create_child: controller_step (4, 8) FAR 26219 U 0.00
expand: controller_step (4, 0) FAR  w(0) 26219.
	create_child: switch_step (3, 8) FAR 26209 U 0.00
expand: switch_step (3, 0) FAR  w(0) 26209. F 0.00
expand: controller_step (4, 0) FAR  w(0) 26219. F 0.00
expand: top_step (5, 0) FAR  w(0) 25923. F 0.00
expand: MAIN (6, 0) FAR  w(0) 2606. F 0.00
expand: ERR (7, 0) FAR  w(0) 1. F 0.00
expand: query!0 (8, 0) FAR  w(0) 1. F 0.00
(spacer::context::check_reachability :time 0.07 :before-memory 34.30 :after-memory 34.88)
Propagating: 2 3 4 5 
(spacer::context::propagate :time 0.00 :before-memory 34.88 :after-memory 34.88)
(define-fun ERR () Bool
  false)
(define-fun jafter_reset ((x!0 Bool) (x!1 Bool) (x!2 Bool) (x!3 Bool)) Bool
  x!3)
(define-fun edge_step ((x!0 Bool)
 (x!1 Bool)
 (x!2 Bool)
 (x!3 Bool)
 (x!4 Bool)
 (x!5 Bool)) Bool
  (and (or x!0 (not x!2) (not x!1))
       (not x!5)
       (or x!4 (not x!0))
       (or (not x!0) x!3 x!1)))
(define-fun top_step ((x!0 Bool)
 (x!1 Bool)
 (x!2 Bool)
 (x!3 Bool)
 (x!4 Bool)
 (x!5 Bool)
 (x!6 Bool)
 (x!7 Bool)
 (x!8 Bool)
 (x!9 Bool)
 (x!10 Bool)
 (x!11 Bool)
 (x!12 Bool)
 (x!13 Bool)
 (x!14 Bool)
 (x!15 Bool)
 (x!16 Bool)
 (x!17 Bool)
 (x!18 Bool)
 (x!19 Bool)
 (x!20 Bool)
 (x!21 Bool)
 (x!22 Bool)
 (x!23 Bool)
 (x!24 Bool)
 (x!25 Bool)
 (x!26 Bool)
 (x!27 Bool)
 (x!28 Bool)
 (x!29 Bool)
 (x!30 Bool)
 (x!31 Bool)
 (x!32 Bool)
 (x!33 Bool)
 (x!34 Bool)
 (x!35 Bool)
 (x!36 Bool)
 (x!37 Bool)
 (x!38 Bool)
 (x!39 Bool)
 (x!40 Bool)
 (x!41 Bool)
 (x!42 Bool)
 (x!43 Bool)
 (x!44 Bool)
 (x!45 Bool)
 (x!46 Bool)
 (x!47 Bool)
 (x!48 Bool)
 (x!49 Bool)
 (x!50 Bool)
 (x!51 Bool)
 (x!52 Bool)
 (x!53 Bool)
 (x!54 Bool)
 (x!55 Bool)
 (x!56 Bool)) Bool
  (and (or x!17 x!9 x!6 x!15 x!4)
       (not x!48)
       (not x!50)
       (not x!52)
       (not x!33)
       (not x!35)
       (not x!41)
       (not x!43)
       (not x!44)
       (or (not x!18) x!4 (not x!30) (not x!22))
       (or x!53 (not x!18) (not x!31))
       (or x!18 x!5 x!4)
       (or (not x!30) (not x!47) (not x!22))
       (or x!17 (not x!27) x!4 x!15)
       (or x!17 (not x!31) x!51)
       (or x!26 (not x!25) x!49)
       (or x!18 (not x!31) x!5)
       (or x!34 (not x!55))
       (or x!17 (not x!31) (not x!32))))
(define-fun once_from_to_step ((x!0 Bool)
 (x!1 Bool)
 (x!2 Bool)
 (x!3 Bool)
 (x!4 Bool)
 (x!5 Bool)
 (x!6 Bool)
 (x!7 Bool)
 (x!8 Bool)
 (x!9 Bool)
 (x!10 Bool)
 (x!11 Bool)) Bool
  (and (or x!10 (not x!2))
       (not x!11)
       (not x!9)
       (or x!3 x!1)
       (or x!0 (not x!5) x!3)
       (or (not x!8) (not x!5) x!0)))
(define-fun controller_step ((x!0 Bool)
 (x!1 Bool)
 (x!2 Bool)
 (x!3 Bool)
 (x!4 Bool)
 (x!5 Bool)
 (x!6 Bool)
 (x!7 Bool)
 (x!8 Bool)
 (x!9 Bool)
 (x!10 Bool)) Bool
  (and (or (not x!1) (not x!3) (not x!4))
       (or (not x!5) x!3)
       (or (not x!4) x!2)
       (or (not x!6) (not x!3))))
(define-fun environment_step ((x!0 Bool)
 (x!1 Bool)
 (x!2 Bool)
 (x!3 Bool)
 (x!4 Bool)
 (x!5 Bool)
 (x!6 Bool)
 (x!7 Bool)
 (x!8 Bool)
 (x!9 Bool)
 (x!10 Bool)
 (x!11 Bool)
 (x!12 Bool)
 (x!13 Bool)
 (x!14 Bool)
 (x!15 Bool)
 (x!16 Bool)
 (x!17 Bool)
 (x!18 Bool)
 (x!19 Bool)
 (x!20 Bool)
 (x!21 Bool)
 (x!22 Bool)
 (x!23 Bool)
 (x!24 Bool)
 (x!25 Bool)
 (x!26 Bool)
 (x!27 Bool)
 (x!28 Bool)
 (x!29 Bool)
 (x!30 Bool)
 (x!31 Bool)
 (x!32 Bool)
 (x!33 Bool)
 (x!34 Bool)) Bool
  (and (or x!8 (not x!6) x!5 x!11)
       (not x!34)
       (or (not x!6) (not x!0) (not x!20))
       (not x!25)
       (not x!23)
       (not x!33)
       (not x!31)
       (or (not x!21) (not x!3) (not x!20))
       (or x!20 (not x!6) x!7)
       (or x!17 (not x!0) (not x!6) x!1)
       (or x!19 (not x!6) x!0 x!2)
       (or x!19 (not x!21) x!0 x!2)
       (or x!24 x!5)
       (or x!20 (not x!21) x!7)
       (or x!4 (not x!22))))
(define-fun switch_step ((x!0 Bool)
 (x!1 Bool)
 (x!2 Bool)
 (x!3 Bool)
 (x!4 Bool)
 (x!5 Bool)
 (x!6 Bool)
 (x!7 Bool)) Bool
  (and (or (not x!2) x!1 (not x!3))
       (not x!7)
       (or x!1 (not x!3) (not x!5) x!0)
       (or x!3 (not x!6))))
(define-fun once_from_to_reset ((x!0 Bool)
 (x!1 Bool)
 (x!2 Bool)
 (x!3 Bool)
 (x!4 Bool)
 (x!5 Bool)
 (x!6 Bool)
 (x!7 Bool)) Bool
  x!5)
(define-fun properties_reset ((x!0 Bool)
 (x!1 Bool)
 (x!2 Bool)
 (x!3 Bool)
 (x!4 Bool)
 (x!5 Bool)
 (x!6 Bool)
 (x!7 Bool)
 (x!8 Bool)
 (x!9 Bool)
 (x!10 Bool)
 (x!11 Bool)
 (x!12 Bool)
 (x!13 Bool)
 (x!14 Bool)
 (x!15 Bool)
 (x!16 Bool)
 (x!17 Bool)
 (x!18 Bool)
 (x!19 Bool)) Bool
  (and x!19 x!11))
(define-fun switch_reset ((x!0 Bool) (x!1 Bool) (x!2 Bool) (x!3 Bool)) Bool
  x!3)
(define-fun environment_reset ((x!0 Bool)
 (x!1 Bool)
 (x!2 Bool)
 (x!3 Bool)
 (x!4 Bool)
 (x!5 Bool)
 (x!6 Bool)
 (x!7 Bool)
 (x!8 Bool)
 (x!9 Bool)
 (x!10 Bool)
 (x!11 Bool)
 (x!12 Bool)
 (x!13 Bool)
 (x!14 Bool)
 (x!15 Bool)
 (x!16 Bool)
 (x!17 Bool)
 (x!18 Bool)
 (x!19 Bool)
 (x!20 Bool)
 (x!21 Bool)
 (x!22 Bool)
 (x!23 Bool)
 (x!24 Bool)
 (x!25 Bool)
 (x!26 Bool)
 (x!27 Bool)) Bool
  x!27)
(define-fun controller_reset ((x!0 Bool) (x!1 Bool) (x!2 Bool) (x!3 Bool)) Bool
  true)
(define-fun properties_step ((x!0 Bool)
 (x!1 Bool)
 (x!2 Bool)
 (x!3 Bool)
 (x!4 Bool)
 (x!5 Bool)
 (x!6 Bool)
 (x!7 Bool)
 (x!8 Bool)
 (x!9 Bool)
 (x!10 Bool)
 (x!11 Bool)
 (x!12 Bool)
 (x!13 Bool)
 (x!14 Bool)
 (x!15 Bool)
 (x!16 Bool)
 (x!17 Bool)
 (x!18 Bool)
 (x!19 Bool)
 (x!20 Bool)
 (x!21 Bool)
 (x!22 Bool)
 (x!23 Bool)
 (x!24 Bool)) Bool
  (and (or (not x!23) (not x!3))
       (not x!20)
       (not x!16)
       (not x!18)
       (or x!4 x!0 (not x!14) (not x!6))
       (or x!23 (not x!2) x!3)
       (or x!21 x!1)
       (or (not x!11) x!4 (not x!1))
       (or (not x!15) (not x!6) (not x!14))
       (or x!19 (not x!0))
       (or x!10 (not x!9) x!17)))
(define-fun MAIN ((x!0 Bool)
 (x!1 Bool)
 (x!2 Bool)
 (x!3 Bool)
 (x!4 Bool)
 (x!5 Bool)
 (x!6 Bool)
 (x!7 Bool)
 (x!8 Bool)
 (x!9 Bool)
 (x!10 Bool)
 (x!11 Bool)
 (x!12 Bool)
 (x!13 Bool)
 (x!14 Bool)
 (x!15 Bool)
 (x!16 Bool)
 (x!17 Bool)
 (x!18 Bool)
 (x!19 Bool)
 (x!20 Bool)
 (x!21 Bool)
 (x!22 Bool)
 (x!23 Bool)
 (x!24 Bool)
 (x!25 Bool)
 (x!26 Bool)) Bool
  (and (or (not x!0) (not x!1) x!22)
       x!26
       (not x!2)
       (not x!4)
       (not x!10)
       (not x!12)
       (not x!13)
       (not x!17)
       (not x!19)
       (not x!21)
       (or (not x!0) x!20 x!22)
       (or x!3 (not x!24))))
(define-fun top_reset ((x!0 Bool)
 (x!1 Bool)
 (x!2 Bool)
 (x!3 Bool)
 (x!4 Bool)
 (x!5 Bool)
 (x!6 Bool)
 (x!7 Bool)
 (x!8 Bool)
 (x!9 Bool)
 (x!10 Bool)
 (x!11 Bool)
 (x!12 Bool)
 (x!13 Bool)
 (x!14 Bool)
 (x!15 Bool)
 (x!16 Bool)
 (x!17 Bool)
 (x!18 Bool)
 (x!19 Bool)
 (x!20 Bool)
 (x!21 Bool)
 (x!22 Bool)
 (x!23 Bool)
 (x!24 Bool)
 (x!25 Bool)
 (x!26 Bool)
 (x!27 Bool)
 (x!28 Bool)
 (x!29 Bool)
 (x!30 Bool)
 (x!31 Bool)
 (x!32 Bool)
 (x!33 Bool)
 (x!34 Bool)
 (x!35 Bool)
 (x!36 Bool)
 (x!37 Bool)
 (x!38 Bool)
 (x!39 Bool)
 (x!40 Bool)
 (x!41 Bool)
 (x!42 Bool)
 (x!43 Bool)
 (x!44 Bool)
 (x!45 Bool)
 (x!46 Bool)
 (x!47 Bool)
 (x!48 Bool)
 (x!49 Bool)
 (x!50 Bool)
 (x!51 Bool)) Bool
  (and x!51 x!39 x!43))
(define-fun jafter_step ((x!0 Bool)
 (x!1 Bool)
 (x!2 Bool)
 (x!3 Bool)
 (x!4 Bool)
 (x!5 Bool)) Bool
  (and (or x!0 (not x!4))
       (not x!5)
       (or (not x!3) (not x!1))
       (or x!4 (not x!0))
       (or x!1 (not x!2) x!3)
       (or x!2 (not x!1))))
(define-fun edge_reset ((x!0 Bool) (x!1 Bool) (x!2 Bool) (x!3 Bool)) Bool
  true)
BRUNCH_STAT max_query_lvl 8
BRUNCH_STAT num_queries 118
BRUNCH_STAT num_reach_queries 18
BRUNCH_STAT num_reach_reuse 158
BRUNCH_STAT inductive_lvl 5
BRUNCH_STAT max_depth 8
BRUNCH_STAT cex_depth 0
(:SPACER-inductive-level               5
 :SPACER-max-depth                     8
 :SPACER-max-query-lvl                 8
 :SPACER-num-invariants                92
 :SPACER-num-lemmas                    121
 :SPACER-num-properties                98
 :SPACER-num-queries                   118
 :SPACER-num-reach-queries             18
 :SPACER-num-reuse-reach-facts         158
 :bool-inductive-gen                   94
 :bool-inductive-gen-failures          200
 :conflicts                            643
 :decisions                            10621
 :del-clause                           305
 :final-checks                         363
 :minimized-lits                       50
 :mk-bool-var                          7378
 :mk-clause                            5913
 :num-checks                           855
 :propagations                         94896
 :time.itp_solver.itp_core             0.02
 :time.spacer.init_rules               0.01
 :time.spacer.init_rules.pt.init       0.00
 :time.spacer.solve                    0.26
 :time.spacer.solve.propagate          0.01
 :time.spacer.solve.pt.must_reachable  0.01
 :time.spacer.solve.reach              0.25
 :time.spacer.solve.reach.children     0.07
 :time.spacer.solve.reach.gen.bool_ind 0.03
 :time.spacer.solve.reach.is-reach     0.03
 :time.virtual_solver.proof            0.01
 :time.virtual_solver.smt.total        0.13
 :time.virtual_solver.smt.total.sat    0.06
 :virtual_solver.checks                855
 :virtual_solver.checks.sat            363)
BRUNCH_STAT max_query_lvl 8
BRUNCH_STAT num_queries 118
BRUNCH_STAT num_reach_queries 18
BRUNCH_STAT num_reach_reuse 158
BRUNCH_STAT inductive_lvl 5
BRUNCH_STAT max_depth 8
BRUNCH_STAT cex_depth 0

real	0m0.333s
user	0m0.328s
sys	0m0.004s
