(transform N7datalog13mk_coi_filterE...no-op 0s)
(transform N7datalog25mk_interp_tail_simplifierE...11 rules 0s)
(transform N7datalog27mk_quantifier_instantiationE...no-op 0s)
(transform N7datalog8mk_scaleE...no-op 0s)
(transform N7datalog18mk_karr_invariantsE...no-op 0s)
(transform N7datalog14mk_array_blastE...no-op 0s)
(transform N7datalog22mk_subsumption_checkerE...10 rules 0s)
(transform N7datalog12mk_bit_blastE...no-op 0s)
(transform N7datalog15mk_rule_inlinerE...no-op 0s)
(transform N7datalog13mk_coi_filterE...no-op 0s)
(transform N7datalog25mk_interp_tail_simplifierE...10 rules 0s)
(transform N7datalog22mk_subsumption_checkerE...no-op 0s)
(transform N7datalog15mk_rule_inlinerE...no-op 0s)
(transform N7datalog13mk_coi_filterE...no-op 0s)
(transform N7datalog25mk_interp_tail_simplifierE...10 rules 0s)
(transform N7datalog22mk_subsumption_checkerE...no-op 0s)
(transform N7datalog15mk_rule_inlinerE...no-op 0s)
(transform N7datalog22mk_subsumption_checkerE...no-op 0s)
(transform N7datalog15mk_rule_inlinerE...no-op 0s)
(transform N7datalog22mk_subsumption_checkerE...no-op 0s)
(transform N7datalog15mk_rule_inlinerE...no-op 0s)
(transform N7datalog22mk_subsumption_checkerE...no-op 0s)
expand: query!0 (0, 0) FAR  w(0) 1. F 0.00
(spacer::context::check_reachability :time 0.00 :before-memory 10.28 :after-memory 10.71)
Entering level 1
BRUNCH_STAT max_query_lvl 0
BRUNCH_STAT num_queries 0
BRUNCH_STAT num_reach_queries 0
BRUNCH_STAT num_reach_reuse 0
BRUNCH_STAT inductive_lvl 0
BRUNCH_STAT max_depth 1
BRUNCH_STAT cex_depth 0
expand: query!0 (1, 0) FAR  w(0) 1.
	create_child: ERR (0, 1) FAR 1 U 0.00
expand: ERR (0, 0) FAR  w(0) 1. F 0.00
expand: query!0 (1, 0) FAR  w(0) 1. F 0.00
(spacer::context::check_reachability :time 0.00 :before-memory 10.71 :after-memory 11.15)
Propagating: 0 1  ! 2 
(spacer::context::propagate :time 0.00 :before-memory 11.15 :after-memory 11.15)
Entering level 2
BRUNCH_STAT max_query_lvl 1
BRUNCH_STAT num_queries 1
BRUNCH_STAT num_reach_queries 0
BRUNCH_STAT num_reach_reuse 0
BRUNCH_STAT inductive_lvl 0
BRUNCH_STAT max_depth 2
BRUNCH_STAT cex_depth 0
expand: query!0 (2, 0) FAR  w(0) 1.
	create_child: ERR (1, 2) FAR 1 U 0.00
expand: ERR (1, 0) FAR  w(0) 1.
	create_child: MAIN (0, 2) FAR 724 U 0.00
expand: MAIN (0, 0) FAR  w(0) 724. F 0.00
expand: ERR (1, 0) FAR  w(0) 1. F 0.00
expand: query!0 (2, 0) FAR  w(0) 1. F 0.00
(spacer::context::check_reachability :time 0.00 :before-memory 11.15 :after-memory 11.69)
Propagating: 0 1 2  ! 3 
(spacer::context::propagate :time 0.00 :before-memory 11.69 :after-memory 11.69)
Entering level 3
BRUNCH_STAT max_query_lvl 2
BRUNCH_STAT num_queries 3
BRUNCH_STAT num_reach_queries 0
BRUNCH_STAT num_reach_reuse 0
BRUNCH_STAT inductive_lvl 0
BRUNCH_STAT max_depth 3
BRUNCH_STAT cex_depth 0
expand: query!0 (3, 0) FAR  w(0) 1.
	create_child: ERR (2, 3) FAR 1 U 0.00
expand: ERR (2, 0) FAR  w(0) 1.
	create_child: MAIN (1, 3) FAR 724 U 0.00
expand: MAIN (1, 0) FAR  w(0) 724.
	create_child: top_step (0, 3) FAR 1106 U 0.00
expand: top_step (0, 0) FAR  w(0) 1106. F 0.00
expand: MAIN (1, 0) FAR  w(0) 724. F 0.00
expand: ERR (2, 0) FAR  w(0) 1. F 0.00
expand: query!0 (3, 0) FAR  w(0) 1. F 0.00
(spacer::context::check_reachability :time 0.00 :before-memory 11.69 :after-memory 12.25)
Propagating: 0 1 2 3  ! 4 
(spacer::context::propagate :time 0.00 :before-memory 12.25 :after-memory 12.25)
Entering level 4
BRUNCH_STAT max_query_lvl 3
BRUNCH_STAT num_queries 6
BRUNCH_STAT num_reach_queries 0
BRUNCH_STAT num_reach_reuse 0
BRUNCH_STAT inductive_lvl 0
BRUNCH_STAT max_depth 4
BRUNCH_STAT cex_depth 0
expand: query!0 (4, 0) FAR  w(0) 1.
	create_child: ERR (3, 4) FAR 1 U 0.00
expand: ERR (3, 0) FAR  w(0) 1.
	create_child: MAIN (2, 4) FAR 724 U 0.00
expand: MAIN (2, 0) FAR  w(0) 724.
	create_child: top_step (1, 4) FAR 1106 U 0.00
expand: top_step (1, 0) FAR  w(0) 1106.
	create_child: top_reset (1, 4) FAR 2405 X 0.00
expand: top_reset (1, 0) FAR  w(0) 2405.
	create_child: greycounter_reset (0, 4) FAR 2709 U 0.00
expand: greycounter_reset (0, 0) FAR  w(0) 2709. F 0.00
expand: top_reset (1, 0) FAR  w(0) 2405. F 0.00
expand: MAIN (2, 0) FAR  w(0) 724.
	create_child: top_reset (1, 4) FAR 3191 U 0.00
expand: top_reset (1, 0) FAR  w(0) 3191.
	create_child: intloopcounter_reset (0, 4) FAR 3253 U 0.00
expand: intloopcounter_reset (0, 0) FAR  w(0) 3253. F 0.00
expand: top_reset (1, 0) FAR  w(0) 3191. F 0.00
expand: MAIN (2, 0) FAR  w(0) 724.
	create_child: top_step (1, 4) FAR 3362 U 0.00
expand: top_step (1, 0) FAR  w(0) 3362.
	create_child: intloopcounter_step (0, 4) FAR 3460 U 0.00
expand: intloopcounter_step (0, 0) FAR  w(0) 3460. F 0.00
expand: top_step (1, 0) FAR  w(0) 3362.
	create_child: greycounter_step (0, 4) FAR 3675 U 0.00
expand: greycounter_step (0, 0) FAR  w(0) 3675. F 0.00
expand: top_step (1, 0) FAR  w(0) 3362. F 0.00
expand: MAIN (2, 0) FAR  w(0) 724. F 0.00
expand: ERR (3, 0) FAR  w(0) 1. F 0.00
expand: query!0 (4, 0) FAR  w(0) 1. F 0.00
(spacer::context::check_reachability :time 0.01 :before-memory 12.25 :after-memory 15.31)
Propagating: 0 1 2 3 4  ! 5 
(spacer::context::propagate :time 0.00 :before-memory 15.31 :after-memory 15.31)
Entering level 5
BRUNCH_STAT max_query_lvl 4
BRUNCH_STAT num_queries 15
BRUNCH_STAT num_reach_queries 1
BRUNCH_STAT num_reach_reuse 7
BRUNCH_STAT inductive_lvl 0
BRUNCH_STAT max_depth 5
BRUNCH_STAT cex_depth 0
expand: query!0 (5, 0) FAR  w(0) 1.
	create_child: ERR (4, 5) FAR 1 U 0.00
expand: ERR (4, 0) FAR  w(0) 1.
	create_child: MAIN (3, 5) FAR 724 U 0.00
expand: MAIN (3, 0) FAR  w(0) 724.
	create_child: MAIN (2, 5) FAR 4216 U 0.00
expand: MAIN (2, 0) FAR  w(0) 4216.
	create_child: top_step (1, 5) FAR 4232 U 0.00
expand: top_step (1, 0) FAR  w(0) 4232.
	create_child: greycounter_step (0, 5) FAR 4228 U 0.00
expand: greycounter_step (0, 0) FAR  w(0) 4228. F 0.00
expand: top_step (1, 0) FAR  w(0) 4232. F 0.00
expand: MAIN (2, 0) FAR  w(0) 4216. F 0.00
expand: MAIN (3, 0) FAR  w(0) 724.
	create_child: MAIN (2, 5) FAR 4418 U 0.00
expand: MAIN (2, 0) FAR  w(0) 4418.
	create_child: top_step (1, 5) FAR 4446 U 0.00
expand: top_step (1, 0) FAR  w(0) 4446.
	create_child: intloopcounter_step (0, 5) FAR 4479 U 0.00
expand: intloopcounter_step (0, 0) FAR  w(0) 4479. F 0.00
expand: top_step (1, 0) FAR  w(0) 4446. F 0.00
expand: MAIN (2, 0) FAR  w(0) 4418. F 0.00
expand: MAIN (3, 0) FAR  w(0) 724.
	create_child: top_step (2, 5) FAR 4842 U 0.00
expand: top_step (2, 0) FAR  w(0) 4842.
	create_child: intloopcounter_step (1, 5) FAR 4949 U 0.00
expand: intloopcounter_step (1, 0) FAR  w(0) 4949. F 0.00
expand: top_step (2, 0) FAR  w(0) 4842.
	create_child: greycounter_step (1, 5) FAR 5085 U 0.00
expand: greycounter_step (1, 0) FAR  w(0) 5085. F 0.00
expand: top_step (2, 0) FAR  w(0) 4842. F 0.00
expand: MAIN (3, 0) FAR  w(0) 724.
	create_child: top_step (2, 5) FAR 5041 U 0.00
expand: top_step (2, 0) FAR  w(0) 5041.
	create_child: intloopcounter_step (1, 5) FAR 5318 U 0.00
expand: intloopcounter_step (1, 0) FAR  w(0) 5318. F 0.00
expand: top_step (2, 0) FAR  w(0) 5041. F 0.00
expand: MAIN (3, 0) FAR  w(0) 724. F 0.00
expand: ERR (4, 0) FAR  w(0) 1. F 0.00
expand: query!0 (5, 0) FAR  w(0) 1. F 0.00
(spacer::context::check_reachability :time 0.02 :before-memory 15.31 :after-memory 15.91)
Propagating: 0 1 2 3 4 5  ! 6 
(spacer::context::propagate :time 0.00 :before-memory 15.91 :after-memory 15.91)
Entering level 6
BRUNCH_STAT max_query_lvl 5
BRUNCH_STAT num_queries 28
BRUNCH_STAT num_reach_queries 1
BRUNCH_STAT num_reach_reuse 13
BRUNCH_STAT inductive_lvl 0
BRUNCH_STAT max_depth 6
BRUNCH_STAT cex_depth 0
expand: query!0 (6, 0) FAR  w(0) 1.
	create_child: ERR (5, 6) FAR 1 U 0.00
expand: ERR (5, 0) FAR  w(0) 1.
	create_child: MAIN (4, 6) FAR 724 U 0.00
expand: MAIN (4, 0) FAR  w(0) 724.
	create_child: MAIN (3, 6) FAR 5717 U 0.00
expand: MAIN (3, 0) FAR  w(0) 5717.
	create_child: top_step (2, 6) FAR 5745 U 0.00
expand: top_step (2, 0) FAR  w(0) 5745. F 0.00
expand: MAIN (3, 0) FAR  w(0) 5717.
	create_child: top_step (2, 6) FAR 5849 U 0.00
expand: top_step (2, 0) FAR  w(0) 5849. F 0.00
expand: MAIN (3, 0) FAR  w(0) 5717. F 0.00
expand: MAIN (4, 0) FAR  w(0) 724.
	create_child: MAIN (3, 6) FAR 4216 U 0.00
expand: MAIN (3, 0) FAR  w(0) 4216.
	create_child: MAIN (2, 6) FAR 5837 U 0.00
expand: MAIN (2, 0) FAR  w(0) 5837.
	create_child: top_reset (1, 6) FAR 5749 U 0.00
expand: top_reset (1, 0) FAR  w(0) 5749. T 0.00
is-reachable: MAIN (2, 0) FAR 5837 T 0.00
is-reachable: MAIN (3, 0) FAR 4216 T 0.00
is-reachable: MAIN (4, 0) FAR 724 T 0.00
is-reachable: ERR (5, 0) FAR 1 T 0.00
is-reachable: query!0 (6, 0) FAR 1 T 0.00
(spacer::context::check_reachability :time 0.01 :before-memory 15.91 :after-memory 16.19)
BRUNCH_STAT max_query_lvl 6
BRUNCH_STAT num_queries 36
BRUNCH_STAT num_reach_queries 7
BRUNCH_STAT num_reach_reuse 19
BRUNCH_STAT inductive_lvl 0
BRUNCH_STAT max_depth 6
BRUNCH_STAT cex_depth 6
(:SPACER-cex-depth                     6
 :SPACER-max-depth                     6
 :SPACER-max-query-lvl                 6
 :SPACER-num-invariants                18
 :SPACER-num-lemmas                    37
 :SPACER-num-properties                25
 :SPACER-num-queries                   36
 :SPACER-num-reach-queries             7
 :SPACER-num-reuse-reach-facts         19
 :added-eqs                            696
 :arith-add-rows                       81
 :arith-assert-diseq                   161
 :arith-assert-lower                   294
 :arith-assert-upper                   412
 :arith-bound-prop                     41
 :arith-conflicts                      8
 :arith-eq-adapter                     229
 :arith-fixed-eqs                      101
 :arith-offset-eqs                     38
 :arith-pivots                         68
 :bool-inductive-gen                   23
 :bool-inductive-gen-failures          40
 :conflicts                            184
 :decisions                            1310
 :del-clause                           142
 :final-checks                         108
 :minimized-lits                       5
 :mk-bool-var                          1843
 :mk-clause                            1192
 :num-checks                           243
 :propagations                         9544
 :time.itp_solver.itp_core             0.00
 :time.spacer.init_rules               0.01
 :time.spacer.init_rules.pt.init       0.00
 :time.spacer.solve                    0.05
 :time.spacer.solve.propagate          0.00
 :time.spacer.solve.pt.must_reachable  0.00
 :time.spacer.solve.reach              0.05
 :time.spacer.solve.reach.children     0.01
 :time.spacer.solve.reach.gen.bool_ind 0.01
 :time.spacer.solve.reach.is-reach     0.00
 :time.virtual_solver.proof            0.00
 :time.virtual_solver.smt.total        0.03
 :time.virtual_solver.smt.total.sat    0.02
 :virtual_solver.checks                243
 :virtual_solver.checks.sat            108)
BRUNCH_STAT max_query_lvl 6
BRUNCH_STAT num_queries 36
BRUNCH_STAT num_reach_queries 7
BRUNCH_STAT num_reach_reuse 19
BRUNCH_STAT inductive_lvl 0
BRUNCH_STAT max_depth 6
BRUNCH_STAT cex_depth 6

real	0m0.081s
user	0m0.060s
sys	0m0.024s
