(transform N7datalog13mk_coi_filterE...no-op 0s)
(transform N7datalog25mk_interp_tail_simplifierE...21 rules 0s)
(transform N7datalog27mk_quantifier_instantiationE...no-op 0s)
(transform N7datalog8mk_scaleE...no-op 0s)
(transform N7datalog18mk_karr_invariantsE...no-op 0s)
(transform N7datalog14mk_array_blastE...no-op 0s)
(transform N7datalog22mk_subsumption_checkerE...20 rules 0s)
(transform N7datalog12mk_bit_blastE...no-op 0s)
(transform N7datalog15mk_rule_inlinerE...no-op 0s)
(transform N7datalog13mk_coi_filterE...no-op 0s)
(transform N7datalog25mk_interp_tail_simplifierE...20 rules 0s)
(transform N7datalog22mk_subsumption_checkerE...no-op 0s)
(transform N7datalog15mk_rule_inlinerE...no-op 0s)
(transform N7datalog13mk_coi_filterE...no-op 0s)
(transform N7datalog25mk_interp_tail_simplifierE...20 rules 0s)
(transform N7datalog22mk_subsumption_checkerE...no-op 0s)
(transform N7datalog15mk_rule_inlinerE...no-op 0s)
(transform N7datalog22mk_subsumption_checkerE...no-op 0s)
(transform N7datalog15mk_rule_inlinerE...no-op 0s)
(transform N7datalog22mk_subsumption_checkerE...no-op 0s)
(transform N7datalog15mk_rule_inlinerE...no-op 0s)
(transform N7datalog22mk_subsumption_checkerE...no-op 0s)
expand: query!0 (0, 0) FAR  w(0) 1. F 0.00
(spacer::context::check_reachability :time 0.00 :before-memory 19.85 :after-memory 20.37)
Entering level 1
BRUNCH_STAT max_query_lvl 0
BRUNCH_STAT num_queries 0
BRUNCH_STAT num_reach_queries 0
BRUNCH_STAT num_reach_reuse 0
BRUNCH_STAT inductive_lvl 0
BRUNCH_STAT max_depth 1
BRUNCH_STAT cex_depth 0
expand: query!0 (1, 0) FAR  w(0) 1.
	create_child: ERR (0, 1) FAR 1 U 0.00
expand: ERR (0, 0) FAR  w(0) 1. F 0.00
expand: query!0 (1, 0) FAR  w(0) 1. F 0.00
(spacer::context::check_reachability :time 0.00 :before-memory 20.37 :after-memory 20.82)
Propagating: 0 1  ! 2 
(spacer::context::propagate :time 0.00 :before-memory 20.82 :after-memory 20.82)
Entering level 2
BRUNCH_STAT max_query_lvl 1
BRUNCH_STAT num_queries 1
BRUNCH_STAT num_reach_queries 0
BRUNCH_STAT num_reach_reuse 0
BRUNCH_STAT inductive_lvl 0
BRUNCH_STAT max_depth 2
BRUNCH_STAT cex_depth 0
expand: query!0 (2, 0) FAR  w(0) 1.
	create_child: ERR (1, 2) FAR 1 U 0.00
expand: ERR (1, 0) FAR  w(0) 1.
	create_child: MAIN (0, 2) FAR 3035 U 0.00
expand: MAIN (0, 0) FAR  w(0) 3035. F 0.00
expand: ERR (1, 0) FAR  w(0) 1. F 0.00
expand: query!0 (2, 0) FAR  w(0) 1. F 0.00
(spacer::context::check_reachability :time 0.00 :before-memory 20.82 :after-memory 21.51)
Propagating: 0 1 2  ! 3 
(spacer::context::propagate :time 0.00 :before-memory 21.51 :after-memory 21.51)
Entering level 3
BRUNCH_STAT max_query_lvl 2
BRUNCH_STAT num_queries 3
BRUNCH_STAT num_reach_queries 0
BRUNCH_STAT num_reach_reuse 0
BRUNCH_STAT inductive_lvl 0
BRUNCH_STAT max_depth 3
BRUNCH_STAT cex_depth 0
expand: query!0 (3, 0) FAR  w(0) 1.
	create_child: ERR (2, 3) FAR 1 U 0.00
expand: ERR (2, 0) FAR  w(0) 1.
	create_child: MAIN (1, 3) FAR 3035 U 0.00
expand: MAIN (1, 0) FAR  w(0) 3035.
	create_child: top_step (0, 3) FAR 5174 U 0.00
expand: top_step (0, 0) FAR  w(0) 5174. F 0.00
expand: MAIN (1, 0) FAR  w(0) 3035. F 0.00
expand: ERR (2, 0) FAR  w(0) 1. F 0.00
expand: query!0 (3, 0) FAR  w(0) 1. F 0.00
(spacer::context::check_reachability :time 0.01 :before-memory 21.51 :after-memory 22.36)
Propagating: 0 1 2 3  ! 4 
(spacer::context::propagate :time 0.00 :before-memory 22.36 :after-memory 22.36)
Entering level 4
BRUNCH_STAT max_query_lvl 3
BRUNCH_STAT num_queries 6
BRUNCH_STAT num_reach_queries 0
BRUNCH_STAT num_reach_reuse 0
BRUNCH_STAT inductive_lvl 0
BRUNCH_STAT max_depth 4
BRUNCH_STAT cex_depth 0
expand: query!0 (4, 0) FAR  w(0) 1.
	create_child: ERR (3, 4) FAR 1 U 0.00
expand: ERR (3, 0) FAR  w(0) 1.
	create_child: MAIN (2, 4) FAR 3035 U 0.00
expand: MAIN (2, 0) FAR  w(0) 3035.
	create_child: top_step (1, 4) FAR 5174 U 0.00
expand: top_step (1, 0) FAR  w(0) 5174.
	create_child: always_from_to_step (0, 4) FAR 8904 U 0.00
expand: always_from_to_step (0, 0) FAR  w(0) 8904. F 0.00
expand: top_step (1, 0) FAR  w(0) 5174. F 0.00
expand: MAIN (2, 0) FAR  w(0) 3035. F 0.00
expand: ERR (3, 0) FAR  w(0) 1. F 0.00
expand: query!0 (4, 0) FAR  w(0) 1. F 0.00
(spacer::context::check_reachability :time 0.01 :before-memory 22.36 :after-memory 23.41)
Propagating: 0 1 2 3 4  ! 5 
(spacer::context::propagate :time 0.00 :before-memory 23.41 :after-memory 23.41)
Entering level 5
BRUNCH_STAT max_query_lvl 4
BRUNCH_STAT num_queries 10
BRUNCH_STAT num_reach_queries 0
BRUNCH_STAT num_reach_reuse 1
BRUNCH_STAT inductive_lvl 0
BRUNCH_STAT max_depth 5
BRUNCH_STAT cex_depth 0
expand: query!0 (5, 0) FAR  w(0) 1.
	create_child: ERR (4, 5) FAR 1 U 0.00
expand: ERR (4, 0) FAR  w(0) 1.
	create_child: MAIN (3, 5) FAR 3035 U 0.00
expand: MAIN (3, 0) FAR  w(0) 3035.
	create_child: top_step (2, 5) FAR 5174 U 0.00
expand: top_step (2, 0) FAR  w(0) 5174.
	create_child: always_from_to_step (1, 5) FAR 8904 U 0.00
expand: always_from_to_step (1, 0) FAR  w(0) 8904.
	create_child: always_since_step (0, 5) FAR 9730 U 0.00
expand: always_since_step (0, 0) FAR  w(0) 9730. F 0.00
expand: always_from_to_step (1, 0) FAR  w(0) 8904. F 0.00
expand: top_step (2, 0) FAR  w(0) 5174. F 0.00
expand: MAIN (3, 0) FAR  w(0) 3035. F 0.00
expand: ERR (4, 0) FAR  w(0) 1. F 0.00
expand: query!0 (5, 0) FAR  w(0) 1. F 0.00
(spacer::context::check_reachability :time 0.01 :before-memory 23.41 :after-memory 23.97)
Propagating: 0 1 2 3 4 5  ! 6 
(spacer::context::propagate :time 0.00 :before-memory 23.97 :after-memory 23.97)
Entering level 6
BRUNCH_STAT max_query_lvl 5
BRUNCH_STAT num_queries 15
BRUNCH_STAT num_reach_queries 0
BRUNCH_STAT num_reach_reuse 4
BRUNCH_STAT inductive_lvl 0
BRUNCH_STAT max_depth 6
BRUNCH_STAT cex_depth 0
expand: query!0 (6, 0) FAR  w(0) 1.
	create_child: ERR (5, 6) FAR 1 U 0.00
expand: ERR (5, 0) FAR  w(0) 1.
	create_child: MAIN (4, 6) FAR 3035 U 0.00
expand: MAIN (4, 0) FAR  w(0) 3035.
	create_child: top_step (3, 6) FAR 5174 U 0.00
expand: top_step (3, 0) FAR  w(0) 5174.
	create_child: always_from_to_step (2, 6) FAR 8904 U 0.00
expand: always_from_to_step (2, 0) FAR  w(0) 8904.
	create_child: always_since_step (1, 6) FAR 9730 U 0.00
expand: always_since_step (1, 0) FAR  w(0) 9730.
	create_child: once_since_step (1, 6) FAR 10394 X 0.00
expand: once_since_step (1, 0) FAR  w(0) 10394. F 0.00
expand: always_from_to_step (2, 0) FAR  w(0) 8904.
	create_child: once_since_step (1, 6) FAR 10871 U 0.00
expand: once_since_step (1, 0) FAR  w(0) 10871. T 0.00
is-reachable: always_from_to_step (2, 0) FAR 8904
	create_child: always_from_to_step (2, 6) FAR 11260 X 0.00
is-reachable: always_from_to_step (2, 0) FAR 11260
	create_child: __implies_fun (2, 6) FAR 11306 X 0.00
is-reachable: __implies_fun (2, 0) FAR 11306 F 0.00
expand: __implies_fun (2, 0) FAR  w(0) 11306. F 0.00
expand: top_step (3, 0) FAR  w(0) 5174.
	create_child: UMS_fun (2, 6) FAR 12299 U 0.00
expand: UMS_fun (2, 0) FAR  w(0) 12299. F 0.00
expand: top_step (3, 0) FAR  w(0) 5174.
	create_child: UMS_fun (2, 6) FAR 12654 U 0.00
expand: UMS_fun (2, 0) FAR  w(0) 12654. F 0.00
expand: top_step (3, 0) FAR  w(0) 5174.
	create_child: UMS_fun (2, 6) FAR 12705 U 0.00
expand: UMS_fun (2, 0) FAR  w(0) 12705. F 0.00
expand: top_step (3, 0) FAR  w(0) 5174.
	create_child: UMS_fun (2, 6) FAR 12748 U 0.00
expand: UMS_fun (2, 0) FAR  w(0) 12748. F 0.00
expand: top_step (3, 0) FAR  w(0) 5174.
	create_child: UMS_fun (2, 6) FAR 12613 U 0.00
expand: UMS_fun (2, 0) FAR  w(0) 12613. F 0.00
expand: top_step (3, 0) FAR  w(0) 5174.
	create_child: UMS_fun (2, 6) FAR 12774 U 0.00
expand: UMS_fun (2, 0) FAR  w(0) 12774. F 0.00
expand: top_step (3, 0) FAR  w(0) 5174.
	create_child: UMS_fun (2, 6) FAR 12691 U 0.00
expand: UMS_fun (2, 0) FAR  w(0) 12691. F 0.00
expand: top_step (3, 0) FAR  w(0) 5174.
	create_child: always_from_to_step (2, 6) FAR 12676 U 0.00
expand: always_from_to_step (2, 0) FAR  w(0) 12676. F 0.00
expand: top_step (3, 0) FAR  w(0) 5174.
	create_child: always_from_to_step (2, 6) FAR 13032 U 0.00
expand: always_from_to_step (2, 0) FAR  w(0) 13032.
	create_child: once_since_step (1, 6) FAR 13105 U 0.00
expand: once_since_step (1, 0) FAR  w(0) 13105. T 0.00
is-reachable: always_from_to_step (2, 0) FAR 13032 T 0.00
is-reachable: top_step (3, 0) FAR 5174
	create_child: top_reset (3, 6) FAR 15650 X 0.01
is-reachable: top_reset (3, 0) FAR 15650 F 0.00
Deleting closed node: always_from_to_step(2, 6) 13032
Deleting closed node: top_step(3, 6) 5174
expand: top_reset (3, 0) FAR  w(0) 15650. F 0.00
expand: MAIN (4, 0) FAR  w(0) 3035.
	create_child: top_step (3, 6) FAR 18524 U 0.00
expand: top_step (3, 0) FAR  w(0) 18524.
	create_child: top_reset (3, 6) FAR 19265 X 0.01
expand: top_reset (3, 0) FAR  w(0) 19265.
	create_child: Sofar_reset (2, 6) FAR 19232 U 0.00
expand: Sofar_reset (2, 0) FAR  w(0) 19232. F 0.00
expand: top_reset (3, 0) FAR  w(0) 19265. F 0.00
expand: MAIN (4, 0) FAR  w(0) 3035.
	create_child: top_reset (3, 6) FAR 19803 U 0.00
expand: top_reset (3, 0) FAR  w(0) 19803.
	create_child: always_from_to_reset (2, 6) FAR 19802 U 0.00
expand: always_from_to_reset (2, 0) FAR  w(0) 19802.
	create_child: once_since_reset (1, 6) FAR 20048 U 0.00
expand: once_since_reset (1, 0) FAR  w(0) 20048.
	create_child: after_reset (0, 6) FAR 20252 U 0.00
expand: after_reset (0, 0) FAR  w(0) 20252. F 0.00
expand: once_since_reset (1, 0) FAR  w(0) 20048. F 0.00
expand: always_from_to_reset (2, 0) FAR  w(0) 19802. F 0.00
expand: top_reset (3, 0) FAR  w(0) 19803. F 0.00
expand: MAIN (4, 0) FAR  w(0) 3035.
	create_child: top_step (3, 6) FAR 20508 U 0.00
expand: top_step (3, 0) FAR  w(0) 20508.
	create_child: top_reset (3, 6) FAR 20966 X 0.01
expand: top_reset (3, 0) FAR  w(0) 20966. F 0.00
expand: MAIN (4, 0) FAR  w(0) 3035.
	create_child: top_step (3, 6) FAR 21158 U 0.00
expand: top_step (3, 0) FAR  w(0) 21158.
	create_child: always_from_to_step (2, 6) FAR 21212 U 0.00
expand: always_from_to_step (2, 0) FAR  w(0) 21212.
	create_child: __implies_fun (1, 6) FAR 13054 U 0.00
expand: __implies_fun (1, 0) FAR  w(0) 13054. F 0.00
expand: always_from_to_step (2, 0) FAR  w(0) 21212.
	create_child: after_step (1, 6) FAR 21174 U 0.00
expand: after_step (1, 0) FAR  w(0) 21174. F 0.00
expand: always_from_to_step (2, 0) FAR  w(0) 21212. F 0.00
expand: top_step (3, 0) FAR  w(0) 21158. F 0.00
expand: MAIN (4, 0) FAR  w(0) 3035. F 0.00
expand: ERR (5, 0) FAR  w(0) 1. F 0.00
expand: query!0 (6, 0) FAR  w(0) 1. F 0.00
(spacer::context::check_reachability :time 0.09 :before-memory 23.97 :after-memory 31.81)
Propagating: 0 1 2 3 4 5 6  ! 7 
(spacer::context::propagate :time 0.00 :before-memory 31.81 :after-memory 31.81)
Entering level 7
BRUNCH_STAT max_query_lvl 6
BRUNCH_STAT num_queries 42
BRUNCH_STAT num_reach_queries 9
BRUNCH_STAT num_reach_reuse 194
BRUNCH_STAT inductive_lvl 0
BRUNCH_STAT max_depth 7
BRUNCH_STAT cex_depth 0
expand: query!0 (7, 0) FAR  w(0) 1.
	create_child: ERR (6, 7) FAR 1 U 0.00
expand: ERR (6, 0) FAR  w(0) 1.
	create_child: MAIN (5, 7) FAR 3035 U 0.00
expand: MAIN (5, 0) FAR  w(0) 3035.
	create_child: MAIN (4, 7) FAR 22058 U 0.00
expand: MAIN (4, 0) FAR  w(0) 22058.
	create_child: top_step (3, 7) FAR 21994 U 0.00
expand: top_step (3, 0) FAR  w(0) 21994.
	create_child: UMS_fun (2, 7) FAR 22259 U 0.00
expand: UMS_fun (2, 0) FAR  w(0) 22259.
	create_child: always_from_to_step (2, 7) FAR 22267 X 0.00
expand: always_from_to_step (2, 0) FAR  w(0) 22267.
	create_child: after_step (1, 7) FAR 22158 U 0.00
expand: after_step (1, 0) FAR  w(0) 22158. F 0.00
expand: always_from_to_step (2, 0) FAR  w(0) 22267. F 0.00
expand: top_step (3, 0) FAR  w(0) 21994.
	create_child: UMS_fun (2, 7) FAR 22446 U 0.00
expand: UMS_fun (2, 0) FAR  w(0) 22446. F 0.00
expand: top_step (3, 0) FAR  w(0) 21994.
	create_child: UMS_fun (2, 7) FAR 22469 U 0.00
expand: UMS_fun (2, 0) FAR  w(0) 22469. F 0.00
expand: top_step (3, 0) FAR  w(0) 21994. F 0.00
expand: MAIN (4, 0) FAR  w(0) 22058. F 0.00
expand: MAIN (5, 0) FAR  w(0) 3035.
	create_child: MAIN (4, 7) FAR 22557 U 0.00
expand: MAIN (4, 0) FAR  w(0) 22557.
	create_child: top_step (3, 7) FAR 22436 U 0.00
expand: top_step (3, 0) FAR  w(0) 22436. F 0.00
expand: MAIN (4, 0) FAR  w(0) 22557. F 0.00
expand: MAIN (5, 0) FAR  w(0) 3035.
	create_child: MAIN (4, 7) FAR 22756 U 0.00
expand: MAIN (4, 0) FAR  w(0) 22756.
	create_child: top_step (3, 7) FAR 22657 U 0.00
expand: top_step (3, 0) FAR  w(0) 22657.
	create_child: always_from_to_step (2, 7) FAR 22946 U 0.00
expand: always_from_to_step (2, 0) FAR  w(0) 22946.
	create_child: always_since_step (1, 7) FAR 22231 U 0.00
expand: always_since_step (1, 0) FAR  w(0) 22231. F 0.00
expand: always_from_to_step (2, 0) FAR  w(0) 22946. F 0.00
expand: top_step (3, 0) FAR  w(0) 22657. F 0.00
expand: MAIN (4, 0) FAR  w(0) 22756. F 0.00
expand: MAIN (5, 0) FAR  w(0) 3035.
	create_child: top_step (4, 7) FAR 23087 U 0.00
expand: top_step (4, 0) FAR  w(0) 23087.
	create_child: always_from_to_step (3, 7) FAR 23154 U 0.00
expand: always_from_to_step (3, 0) FAR  w(0) 23154.
	create_child: always_since_step (2, 7) FAR 23192 U 0.00
expand: always_since_step (2, 0) FAR  w(0) 23192. F 0.00
expand: always_from_to_step (3, 0) FAR  w(0) 23154. F 0.00
expand: top_step (4, 0) FAR  w(0) 23087.
	create_child: always_from_to_step (3, 7) FAR 23347 U 0.00
expand: always_from_to_step (3, 0) FAR  w(0) 23347.
	create_child: always_since_step (2, 7) FAR 23395 U 0.00
expand: always_since_step (2, 0) FAR  w(0) 23395.
	create_child: after_step (1, 7) FAR 23201 U 0.00
expand: after_step (1, 0) FAR  w(0) 23201. F 0.00
expand: always_since_step (2, 0) FAR  w(0) 23395. F 0.00
expand: always_from_to_step (3, 0) FAR  w(0) 23347. F 0.00
expand: top_step (4, 0) FAR  w(0) 23087.
	create_child: UMS_fun (3, 7) FAR 23571 U 0.00
expand: UMS_fun (3, 0) FAR  w(0) 23571. F 0.00
expand: top_step (4, 0) FAR  w(0) 23087.
	create_child: UMS_fun (3, 7) FAR 23650 U 0.00
expand: UMS_fun (3, 0) FAR  w(0) 23650.
	create_child: always_from_to_step (3, 7) FAR 23626 X 0.00
expand: always_from_to_step (3, 0) FAR  w(0) 23626. F 0.00
expand: top_step (4, 0) FAR  w(0) 23087. F 0.00
expand: MAIN (5, 0) FAR  w(0) 3035.
	create_child: top_step (4, 7) FAR 23812 U 0.00
expand: top_step (4, 0) FAR  w(0) 23812.
	create_child: always_from_to_step (3, 7) FAR 23766 U 0.00
expand: always_from_to_step (3, 0) FAR  w(0) 23766.
	create_child: always_since_step (2, 7) FAR 23895 U 0.00
expand: always_since_step (2, 0) FAR  w(0) 23895. T 0.00
is-reachable: always_from_to_step (3, 0) FAR 23766 T 0.00
is-reachable: top_step (4, 0) FAR 23812
	create_child: MAIN (4, 7) FAR 25048 X 0.01
is-reachable: MAIN (4, 0) FAR 25048 F 0.00
Deleting closed node: always_from_to_step(3, 7) 23766
Deleting closed node: top_step(4, 7) 23812
expand: MAIN (4, 0) FAR  w(0) 25048.
	create_child: top_step (3, 7) FAR 25402 U 0.00
expand: top_step (3, 0) FAR  w(0) 25402. F 0.00
expand: MAIN (4, 0) FAR  w(0) 25048. F 0.00
expand: MAIN (5, 0) FAR  w(0) 3035.
	create_child: top_step (4, 7) FAR 25425 U 0.00
expand: top_step (4, 0) FAR  w(0) 25425.
	create_child: MAIN (4, 7) FAR 25717 X 0.00
expand: MAIN (4, 0) FAR  w(0) 25717.
	create_child: top_step (3, 7) FAR 25569 U 0.00
expand: top_step (3, 0) FAR  w(0) 25569.
	create_child: always_from_to_step (2, 7) FAR 26429 U 0.00
expand: always_from_to_step (2, 0) FAR  w(0) 26429.
	create_child: after_step (1, 7) FAR 26209 U 0.00
expand: after_step (1, 0) FAR  w(0) 26209. F 0.00
expand: always_from_to_step (2, 0) FAR  w(0) 26429. F 0.00
expand: top_step (3, 0) FAR  w(0) 25569. F 0.00
expand: MAIN (4, 0) FAR  w(0) 25717. F 0.00
expand: MAIN (5, 0) FAR  w(0) 3035.
	create_child: top_step (4, 7) FAR 26239 U 0.00
expand: top_step (4, 0) FAR  w(0) 26239. F 0.00
expand: MAIN (5, 0) FAR  w(0) 3035.
	create_child: top_step (4, 7) FAR 26462 U 0.00
expand: top_step (4, 0) FAR  w(0) 26462. F 0.00
expand: MAIN (5, 0) FAR  w(0) 3035.
	create_child: top_step (4, 7) FAR 26489 U 0.00
expand: top_step (4, 0) FAR  w(0) 26489.
	create_child: MAIN (4, 7) FAR 26464 X 0.00
expand: MAIN (4, 0) FAR  w(0) 26464.
	create_child: top_step (3, 7) FAR 27188 U 0.00
expand: top_step (3, 0) FAR  w(0) 27188. F 0.00
expand: MAIN (4, 0) FAR  w(0) 26464. F 0.00
expand: MAIN (5, 0) FAR  w(0) 3035. F 0.00
expand: ERR (6, 0) FAR  w(0) 1. F 0.00
expand: query!0 (7, 0) FAR  w(0) 1. F 0.00
(spacer::context::check_reachability :time 0.12 :before-memory 31.81 :after-memory 34.07)
Propagating: 1 2 3 4 5 6 7  ! 8 
(spacer::context::propagate :time 0.00 :before-memory 34.07 :after-memory 34.07)
Entering level 8
BRUNCH_STAT max_query_lvl 7
BRUNCH_STAT num_queries 76
BRUNCH_STAT num_reach_queries 14
BRUNCH_STAT num_reach_reuse 361
BRUNCH_STAT inductive_lvl 0
BRUNCH_STAT max_depth 8
BRUNCH_STAT cex_depth 0
expand: query!0 (8, 0) FAR  w(0) 1.
	create_child: ERR (7, 8) FAR 1 U 0.00
expand: ERR (7, 0) FAR  w(0) 1.
	create_child: MAIN (6, 8) FAR 3035 U 0.00
expand: MAIN (6, 0) FAR  w(0) 3035.
	create_child: MAIN (5, 8) FAR 27978 U 0.00
expand: MAIN (5, 0) FAR  w(0) 27978.
	create_child: top_step (4, 8) FAR 27960 U 0.00
expand: top_step (4, 0) FAR  w(0) 27960.
	create_child: always_from_to_step (3, 8) FAR 28045 U 0.00
expand: always_from_to_step (3, 0) FAR  w(0) 28045.
	create_child: after_step (2, 8) FAR 28118 U 0.00
expand: after_step (2, 0) FAR  w(0) 28118. F 0.00
expand: always_from_to_step (3, 0) FAR  w(0) 28045. F 0.00
expand: top_step (4, 0) FAR  w(0) 27960. F 0.00
expand: MAIN (5, 0) FAR  w(0) 27978. F 0.00
expand: MAIN (6, 0) FAR  w(0) 3035.
	create_child: MAIN (5, 8) FAR 28251 U 0.00
expand: MAIN (5, 0) FAR  w(0) 28251.
	create_child: top_step (4, 8) FAR 28182 U 0.00
expand: top_step (4, 0) FAR  w(0) 28182. F 0.00
expand: MAIN (5, 0) FAR  w(0) 28251. F 0.00
expand: MAIN (6, 0) FAR  w(0) 3035. F 0.00
expand: ERR (7, 0) FAR  w(0) 1. F 0.00
expand: query!0 (8, 0) FAR  w(0) 1. F 0.00
(spacer::context::check_reachability :time 0.02 :before-memory 34.07 :after-memory 34.57)
Propagating: 2 3 4 
(spacer::context::propagate :time 0.00 :before-memory 34.57 :after-memory 34.57)
(define-fun ERR () Bool
  false)
(define-fun after_step ((x!0 Bool)
 (x!1 Bool)
 (x!2 Bool)
 (x!3 Bool)
 (x!4 Bool)
 (x!5 Bool)) Bool
  (and (or x!2 (not x!4))
       (or (not x!1) x!2)
       (or (not x!3) (not x!1))
       (or (not x!4) x!0)
       (or (not x!3) (not x!4))))
(define-fun top_reset ((x!0 Bool)
 (x!1 Bool)
 (x!2 Bool)
 (x!3 Bool)
 (x!4 Bool)
 (x!5 Bool)
 (x!6 Bool)
 (x!7 Bool)
 (x!8 Bool)
 (x!9 Bool)
 (x!10 Bool)
 (x!11 Bool)
 (x!12 Bool)
 (x!13 Bool)
 (x!14 Bool)
 (x!15 Bool)
 (x!16 Bool)
 (x!17 Bool)
 (x!18 Bool)
 (x!19 Bool)
 (x!20 Bool)
 (x!21 Bool)
 (x!22 Bool)
 (x!23 Bool)
 (x!24 Bool)
 (x!25 Bool)
 (x!26 Bool)
 (x!27 Bool)
 (x!28 Bool)
 (x!29 Bool)
 (x!30 Bool)
 (x!31 Bool)
 (x!32 Bool)
 (x!33 Bool)
 (x!34 Bool)
 (x!35 Bool)
 (x!36 Bool)
 (x!37 Bool)
 (x!38 Bool)
 (x!39 Bool)
 (x!40 Bool)
 (x!41 Bool)
 (x!42 Bool)
 (x!43 Bool)
 (x!44 Bool)
 (x!45 Bool)
 (x!46 Bool)
 (x!47 Bool)
 (x!48 Bool)
 (x!49 Bool)
 (x!50 Bool)
 (x!51 Bool)
 (x!52 Bool)
 (x!53 Bool)
 (x!54 Bool)
 (x!55 Bool)
 (x!56 Bool)
 (x!57 Bool)
 (x!58 Bool)
 (x!59 Bool)
 (x!60 Bool)
 (x!61 Bool)
 (x!62 Bool)
 (x!63 Bool)
 (x!64 Bool)
 (x!65 Bool)
 (x!66 Bool)
 (x!67 Bool)
 (x!68 Bool)
 (x!69 Bool)
 (x!70 Bool)
 (x!71 Bool)
 (x!72 Bool)
 (x!73 Bool)
 (x!74 Bool)
 (x!75 Bool)
 (x!76 Bool)
 (x!77 Bool)
 (x!78 Bool)
 (x!79 Bool)
 (x!80 Bool)
 (x!81 Bool)
 (x!82 Bool)
 (x!83 Bool)
 (x!84 Bool)
 (x!85 Bool)
 (x!86 Bool)
 (x!87 Bool)
 (x!88 Bool)
 (x!89 Bool)) Bool
  (and x!89 x!48 x!71 x!81))
(define-fun always_since_reset ((x!0 Bool)
 (x!1 Bool)
 (x!2 Bool)
 (x!3 Bool)
 (x!4 Bool)
 (x!5 Bool)) Bool
  true)
(define-fun after_reset ((x!0 Bool) (x!1 Bool) (x!2 Bool) (x!3 Bool)) Bool
  x!3)
(define-fun edge_step ((x!0 Bool)
 (x!1 Bool)
 (x!2 Bool)
 (x!3 Bool)
 (x!4 Bool)
 (x!5 Bool)) Bool
  true)
(define-fun MAIN ((x!0 Bool)
 (x!1 Bool)
 (x!2 Bool)
 (x!3 Bool)
 (x!4 Bool)
 (x!5 Bool)
 (x!6 Bool)
 (x!7 Bool)
 (x!8 Bool)
 (x!9 Bool)
 (x!10 Bool)
 (x!11 Bool)
 (x!12 Bool)
 (x!13 Bool)
 (x!14 Bool)
 (x!15 Bool)
 (x!16 Bool)
 (x!17 Bool)
 (x!18 Bool)
 (x!19 Bool)
 (x!20 Bool)
 (x!21 Bool)
 (x!22 Bool)
 (x!23 Bool)
 (x!24 Bool)
 (x!25 Bool)
 (x!26 Bool)
 (x!27 Bool)
 (x!28 Bool)
 (x!29 Bool)
 (x!30 Bool)
 (x!31 Bool)
 (x!32 Bool)
 (x!33 Bool)
 (x!34 Bool)
 (x!35 Bool)
 (x!36 Bool)
 (x!37 Bool)
 (x!38 Bool)
 (x!39 Bool)
 (x!40 Bool)
 (x!41 Bool)
 (x!42 Bool)
 (x!43 Bool)
 (x!44 Bool)
 (x!45 Bool)) Bool
  (and (or (not x!0) (not x!1))
       x!45
       (not x!35)
       (not x!43)
       (or (not x!33) (not x!41))))
(define-fun UMS_fun ((x!0 Bool)
 (x!1 Bool)
 (x!2 Bool)
 (x!3 Bool)
 (x!4 Bool)
 (x!5 Bool)
 (x!6 Bool)
 (x!7 Bool)
 (x!8 Bool)) Bool
  (and (or (not x!5) x!3)
       (or (not x!2) (not x!5))
       (or (not x!7) (not x!3))
       (or (not x!1) (not x!5))
       (or (not x!8) (not x!4))
       (or (not x!0) (not x!5))
       (or x!1 (not x!8))
       (or (not x!1) (not x!7))
       (or (not x!6) x!4)
       (or x!1 (not x!6))))
(define-fun top_step ((x!0 Bool)
 (x!1 Bool)
 (x!2 Bool)
 (x!3 Bool)
 (x!4 Bool)
 (x!5 Bool)
 (x!6 Bool)
 (x!7 Bool)
 (x!8 Bool)
 (x!9 Bool)
 (x!10 Bool)
 (x!11 Bool)
 (x!12 Bool)
 (x!13 Bool)
 (x!14 Bool)
 (x!15 Bool)
 (x!16 Bool)
 (x!17 Bool)
 (x!18 Bool)
 (x!19 Bool)
 (x!20 Bool)
 (x!21 Bool)
 (x!22 Bool)
 (x!23 Bool)
 (x!24 Bool)
 (x!25 Bool)
 (x!26 Bool)
 (x!27 Bool)
 (x!28 Bool)
 (x!29 Bool)
 (x!30 Bool)
 (x!31 Bool)
 (x!32 Bool)
 (x!33 Bool)
 (x!34 Bool)
 (x!35 Bool)
 (x!36 Bool)
 (x!37 Bool)
 (x!38 Bool)
 (x!39 Bool)
 (x!40 Bool)
 (x!41 Bool)
 (x!42 Bool)
 (x!43 Bool)
 (x!44 Bool)
 (x!45 Bool)
 (x!46 Bool)
 (x!47 Bool)
 (x!48 Bool)
 (x!49 Bool)
 (x!50 Bool)
 (x!51 Bool)
 (x!52 Bool)
 (x!53 Bool)
 (x!54 Bool)
 (x!55 Bool)
 (x!56 Bool)
 (x!57 Bool)
 (x!58 Bool)
 (x!59 Bool)
 (x!60 Bool)
 (x!61 Bool)
 (x!62 Bool)
 (x!63 Bool)
 (x!64 Bool)
 (x!65 Bool)
 (x!66 Bool)
 (x!67 Bool)
 (x!68 Bool)
 (x!69 Bool)
 (x!70 Bool)
 (x!71 Bool)
 (x!72 Bool)
 (x!73 Bool)
 (x!74 Bool)
 (x!75 Bool)
 (x!76 Bool)
 (x!77 Bool)
 (x!78 Bool)
 (x!79 Bool)
 (x!80 Bool)
 (x!81 Bool)
 (x!82 Bool)
 (x!83 Bool)
 (x!84 Bool)
 (x!85 Bool)
 (x!86 Bool)
 (x!87 Bool)
 (x!88 Bool)
 (x!89 Bool)
 (x!90 Bool)
 (x!91 Bool)
 (x!92 Bool)
 (x!93 Bool)
 (x!94 Bool)
 (x!95 Bool)) Bool
  (and (or x!41 (not x!86))
       (or (not x!50) x!5 (not x!42))
       (or (not x!94) (not x!86))
       (or (not x!94) (not x!51))
       (or x!49 x!5 x!39)
       (or (not x!92) (not x!84))
       (or (not x!86) (not x!42))
       (or (not x!52) (not x!51))
       (or x!47 x!5 x!41)
       (or x!41 x!5 x!49)
       (or (not x!94) (not x!50))
       (or x!49 (not x!94))))
(define-fun Sofar_step ((x!0 Bool)
 (x!1 Bool)
 (x!2 Bool)
 (x!3 Bool)
 (x!4 Bool)
 (x!5 Bool)) Bool
  true)
(define-fun once_since_reset ((x!0 Bool)
 (x!1 Bool)
 (x!2 Bool)
 (x!3 Bool)
 (x!4 Bool)
 (x!5 Bool)) Bool
  x!5)
(define-fun __implies_fun ((x!0 Bool) (x!1 Bool) (x!2 Bool)) Bool
  (and (or x!0 x!2) (or (not x!1) x!2)))
(define-fun once_since_step ((x!0 Bool)
 (x!1 Bool)
 (x!2 Bool)
 (x!3 Bool)
 (x!4 Bool)
 (x!5 Bool)
 (x!6 Bool)
 (x!7 Bool)
 (x!8 Bool)) Bool
  (or x!2 (not x!0)))
(define-fun Sofar_reset ((x!0 Bool) (x!1 Bool) (x!2 Bool) (x!3 Bool)) Bool
  x!3)
(define-fun always_since_step ((x!0 Bool)
 (x!1 Bool)
 (x!2 Bool)
 (x!3 Bool)
 (x!4 Bool)
 (x!5 Bool)
 (x!6 Bool)
 (x!7 Bool)
 (x!8 Bool)) Bool
  (and (or x!1 x!2 x!4) (or x!1 (not x!7)) (or (not x!0) x!2 (not x!1))))
(define-fun always_from_to_step ((x!0 Bool)
 (x!1 Bool)
 (x!2 Bool)
 (x!3 Bool)
 (x!4 Bool)
 (x!5 Bool)
 (x!6 Bool)
 (x!7 Bool)
 (x!8 Bool)
 (x!9 Bool)
 (x!10 Bool)
 (x!11 Bool)
 (x!12 Bool)
 (x!13 Bool)
 (x!14 Bool)
 (x!15 Bool)
 (x!16 Bool)
 (x!17 Bool)
 (x!18 Bool)
 (x!19 Bool)) Bool
  (and (or x!10 (not x!18))
       (or x!3 (not x!2))
       (or (not x!11) x!3)
       (or x!1 (not x!18))
       (or x!1 (not x!16))
       (or x!3 (not x!0) (not x!1))
       (or x!1 x!3 x!8)
       (or x!3 x!10)
       (or (not x!18) (not x!11))))
(define-fun edge_reset ((x!0 Bool) (x!1 Bool) (x!2 Bool) (x!3 Bool)) Bool
  true)
(define-fun always_from_to_reset ((x!0 Bool)
 (x!1 Bool)
 (x!2 Bool)
 (x!3 Bool)
 (x!4 Bool)
 (x!5 Bool)
 (x!6 Bool)
 (x!7 Bool)
 (x!8 Bool)
 (x!9 Bool)
 (x!10 Bool)
 (x!11 Bool)
 (x!12 Bool)
 (x!13 Bool)
 (x!14 Bool)
 (x!15 Bool)) Bool
  x!15)
BRUNCH_STAT max_query_lvl 8
BRUNCH_STAT num_queries 84
BRUNCH_STAT num_reach_queries 14
BRUNCH_STAT num_reach_reuse 374
BRUNCH_STAT inductive_lvl 4
BRUNCH_STAT max_depth 8
BRUNCH_STAT cex_depth 0
(:SPACER-inductive-level               4
 :SPACER-max-depth                     8
 :SPACER-max-query-lvl                 8
 :SPACER-num-invariants                59
 :SPACER-num-lemmas                    88
 :SPACER-num-properties                61
 :SPACER-num-queries                   84
 :SPACER-num-reach-queries             14
 :SPACER-num-reuse-reach-facts         374
 :bool-inductive-gen                   61
 :bool-inductive-gen-failures          123
 :conflicts                            503
 :decisions                            12149
 :del-clause                           704
 :final-checks                         260
 :minimized-lits                       65
 :mk-bool-var                          6373
 :mk-clause                            7853
 :num-checks                           617
 :propagations                         110908
 :time.itp_solver.itp_core             0.02
 :time.spacer.init_rules               0.01
 :time.spacer.init_rules.pt.init       0.00
 :time.spacer.solve                    0.26
 :time.spacer.solve.propagate          0.01
 :time.spacer.solve.pt.must_reachable  0.02
 :time.spacer.solve.reach              0.25
 :time.spacer.solve.reach.children     0.07
 :time.spacer.solve.reach.gen.bool_ind 0.02
 :time.spacer.solve.reach.is-reach     0.02
 :time.virtual_solver.proof            0.01
 :time.virtual_solver.smt.total        0.13
 :time.virtual_solver.smt.total.sat    0.06
 :virtual_solver.checks                617
 :virtual_solver.checks.sat            260)
BRUNCH_STAT max_query_lvl 8
BRUNCH_STAT num_queries 84
BRUNCH_STAT num_reach_queries 14
BRUNCH_STAT num_reach_reuse 374
BRUNCH_STAT inductive_lvl 4
BRUNCH_STAT max_depth 8
BRUNCH_STAT cex_depth 0

real	0m0.330s
user	0m0.316s
sys	0m0.012s
